each times' max average throughput
579.757629,588.384277,576.532288,587.261780,593.247803,581.420837,592.770691,596.894165,588.643433,588.077393,589.472290,586.913818,594.235474,582.419006,588.836182,582.028320,577.997925,591.599365,587.250183,583.354248,593.241455,586.916870,580.887207,581.544250,592.949158,571.804932,578.846619,588.312927,586.626831,594.837463,585.531738,580.019226,578.737915,598.606628,579.886292,585.094666,589.385010,584.499268,579.007935,582.334900,579.133972,586.886047,581.092834,584.727905,558.559692,586.613770,580.261230,591.160522,594.464478,597.909851,582.270264,582.942932,593.400085,586.916748,570.634766,595.997192,572.442444,587.879578,593.092529,591.359985,586.861694,585.311646,584.279602,593.565308,590.380615,590.458191,594.452942,584.056030,588.431702,586.762451,585.585632,587.739624,582.929199,533.265686,596.378540,592.335938,577.041321,571.767456,580.915527,584.931396,596.131287,591.199097,588.834229,595.194214,590.914673,568.791687,576.237366,574.921387,595.754822,585.294800,587.170959,576.095520,587.370789,580.647034,582.594727,590.739502,585.348633,583.731079,584.599976,598.688538,
avg. throughput in all test times
585.316284
avg. BS TX power in all test times
MBS area 1,MBS area 2,MBS area 3,MBS area 4,CBSD 1,CBSD 2,CBSD 3,CBSD 4,CBSD 5,CBSD 6,CBSD 7,
8.000,7.537,7.912,7.850,0.221,0.169,0.205,0.249,0.241,0.331,0.194,
avg. mbs all power,avg. cbsd enable number,avg. mbs area all power,avg. cbsd all power
47.950,2.000,31.300,1.610
avg. max avg. throughput generation number in all test times
0.880000
avg. number of relay UE
129

the max average throughput times

BS TX power
MBS area 1,MBS area 2,MBS area 3,MBS area 4,CBSD 1,CBSD 2,CBSD 3,CBSD 4,CBSD 5,CBSD 6,CBSD 7,
10.000,6.250,8.750,10.000,0.000,0.500,0.500,0.000,0.000,0.000,0.000,
max average throughput
598.688538

x,y,area,be blocked (1 : NLOS / 0 : LOS),be blocked number (>=1 : CBSD(x) / 0 : no),connect bs number (>=1 : CBSD / 0 : MBS),throughput (unit : M bps)
1962,690,1,0,0,0,676.336365
-1910,454,2,0,0,0,625.737732
-183,-1373,3,0,0,0,773.697083
1444,-1040,4,1,0,3,156.393341
1748,1058,1,0,0,0,681.405334
-1109,1844,2,1,0,2,63.283134
-198,-380,3,1,0,0,165.931335
1376,-1931,4,1,0,3,156.393341
1387,1268,1,0,0,0,705.348572
-506,1710,2,0,0,0,653.142578
-388,-42,3,0,0,0,1138.573486
1561,-1948,4,0,0,0,624.252319
669,1163,1,0,0,0,802.037109
-157,1450,2,0,0,0,710.641846
-999,-1702,3,0,0,0,672.243530
1709,-884,4,0,0,0,698.597107
713,324,1,0,0,0,957.003235
-263,1267,2,0,0,0,744.941589
-186,-1576,3,0,0,0,734.666016
1196,-939,4,0,0,0,766.082520
1513,279,1,0,0,0,762.715454
-1060,1706,2,1,0,2,75.115364
-357,-616,3,1,0,3,156.393341
848,-457,4,0,0,0,897.365356
1734,75,1,0,0,0,728.130493
-1154,490,2,1,0,2,80.336388
-58,-595,3,0,0,0,1015.595642
1620,-1937,4,0,0,0,620.979553
1228,861,1,1,0,2,285.547272
-1207,940,2,1,0,2,54.376846
-1865,-1600,3,1,0,3,156.393341
919,-270,4,0,0,0,899.002625
1716,519,1,0,0,0,718.845032
-1831,95,2,0,0,0,645.226013
-244,-1228,3,1,0,3,156.393341
1601,-962,4,0,0,0,707.100586
236,1620,1,1,0,2,104.543228
-473,608,2,1,0,2,130.208862
-438,-1597,3,0,0,0,722.457581
522,-1580,4,1,0,3,156.393341
1316,534,1,0,0,0,785.692078
-796,1438,2,0,0,0,676.442566
-54,-1502,3,0,0,0,750.260498
887,-1777,4,0,0,0,689.523315
1390,441,1,1,0,2,156.164963
-1489,182,2,0,0,0,702.586426
-468,-1311,3,0,0,0,772.272644
970,-1395,4,0,0,0,734.228943
1953,782,1,1,0,2,122.381676
-1489,875,2,1,0,2,43.355419
-199,-1392,3,0,0,0,769.373779
1938,-236,4,1,0,3,156.393341
526,913,1,0,0,0,871.546204
-205,1233,2,0,0,0,754.887451
-883,-550,3,0,0,0,856.013489
873,-421,4,0,0,0,895.604675
1454,1485,1,1,0,2,112.564606
-197,839,2,1,0,2,110.586296
-44,-1142,3,0,0,0,828.961243
257,-327,4,1,0,0,188.667511
1832,1796,1,0,0,0,616.466675
-662,981,2,1,0,2,93.657654
-1009,-1272,3,0,0,0,728.117859
1577,-164,4,0,0,0,754.078735
679,653,1,1,0,2,370.464386
-141,207,2,1,0,0,312.447540
-915,-377,3,0,0,0,870.382141
1202,-710,4,0,0,0,790.626648
271,770,1,1,0,2,229.783920
-393,822,2,0,0,0,845.752747
-558,-875,3,0,0,0,856.706604
806,-1248,4,0,0,0,772.754944
1844,915,1,0,0,0,679.274109
-332,312,2,1,0,2,147.732147
-892,-1298,3,0,0,0,736.840393
1678,-979,4,0,0,0,695.841003
13,549,1,1,0,2,121.698059
-359,879,2,0,0,0,833.886108
-1970,-141,3,0,0,0,672.024414
190,-271,4,0,0,0,1205.370117
720,1577,1,1,0,2,130.431046
-854,1677,2,0,0,0,637.786438
-276,-1151,3,1,0,3,156.393341
280,-1532,4,0,0,0,759.216431
1323,523,1,1,0,2,174.935898
-642,1705,2,0,0,0,647.036377
-953,-1890,3,0,0,0,652.244080
1398,-1806,4,0,0,0,649.602112
391,245,1,0,0,0,1109.527466
-325,815,2,0,0,0,856.599426
-541,-576,3,0,0,0,935.179382
1218,-215,4,1,0,3,156.393341
807,916,1,0,0,0,829.190613
-219,319,2,1,0,2,169.989441
-1590,-784,3,0,0,0,702.931519
1754,-1440,4,0,0,0,651.416809
1900,1095,1,1,0,2,84.536324
-931,575,2,0,0,0,793.086731
-1205,-1278,3,0,0,0,705.572937
716,-1769,4,1,0,3,156.393341
215,323,1,0,0,0,1159.501831
-1338,1693,2,0,0,0,598.849426
-1341,-1329,3,0,0,0,684.911804
343,-744,4,0,0,0,944.020020
1007,728,1,0,0,0,824.097839
-1798,1430,2,0,0,0,581.085266
-1618,-732,3,0,0,0,702.431763
677,-680,4,0,0,0,898.490662
910,1472,1,1,0,2,146.149506
-1992,1187,2,0,0,0,578.443604
-669,-708,3,0,0,0,874.940125
1871,-107,4,0,0,0,706.141724
1153,333,1,0,0,0,834.099304
-513,1501,2,0,0,0,686.602539
-472,-822,3,0,0,0,882.789978
1830,-1692,4,0,0,0,624.702026
385,206,1,1,0,0,173.610504
-926,1050,2,0,0,0,722.368225
-1010,-1442,3,0,0,0,704.917480
1220,-324,4,0,0,0,819.574646
1423,321,1,0,0,0,778.000610
-1213,421,2,0,0,0,747.173340
-1388,-427,3,1,0,3,156.393341
1402,-924,4,0,0,0,737.623596
1114,931,1,0,0,0,779.371094
-803,206,2,1,0,2,109.418701
-1636,-696,3,0,0,0,702.106812
1087,-719,4,0,0,0,810.387146
1390,1492,1,1,0,2,188.993195
-653,419,2,0,0,0,892.005005
-1752,-712,3,0,0,0,684.434204
805,-1755,4,0,0,0,697.598877
119,719,1,0,0,0,977.743408
-1891,1184,2,0,0,0,589.381348
-1246,-873,3,0,0,0,746.764343
1812,-1070,4,0,0,0,672.982666
1249,1885,1,1,0,2,137.122971
-1800,517,2,1,0,2,50.599312
-131,-1449,3,1,0,3,156.393341
1651,-1128,4,0,0,0,687.589539
887,1461,1,1,0,2,256.815277
-244,1465,2,0,0,0,705.445190
-152,-1680,3,0,0,0,717.161743
1878,-1702,4,0,0,0,619.927063
1740,1427,1,0,0,0,653.825500
-806,1413,2,0,0,0,679.396667
-337,-520,3,0,0,0,1005.255737
250,-47,4,0,0,0,1281.299438
1231,1763,1,0,0,0,666.816528
-242,666,2,0,0,0,918.121582
-1417,-171,3,0,0,0,765.091675
839,-1633,4,1,0,3,156.393341
587,1827,1,0,0,0,699.358521
-66,1160,2,0,0,0,775.859741
-1114,-1826,3,0,0,0,649.251465
1692,-1534,4,1,0,3,156.393341
1861,491,1,0,0,0,698.509583
-1610,66,2,1,0,2,41.552563
-1956,-256,3,1,0,3,156.393341
1431,-1065,4,0,0,0,720.280334
302,792,1,0,0,0,934.213257
-94,1076,2,1,0,2,205.667084
-698,-193,3,0,0,0,960.323120
419,-337,4,0,0,0,1065.401123
1496,1010,1,0,0,0,716.892700
-864,557,2,1,0,2,75.268295
-215,-285,3,0,0,0,1164.270630
507,-112,4,0,0,0,1075.488403
364,644,1,0,0,0,973.437317
-776,1667,2,0,0,0,644.402222
-1800,-91,3,1,0,3,156.393341
1441,-1631,4,0,0,0,663.364075
725,45,1,0,0,0,978.688477
-613,615,2,0,0,0,859.594116
-193,-1478,3,0,0,0,752.642151
1584,-1946,4,0,0,0,622.785339
1378,1103,1,0,0,0,723.306519
-461,317,2,0,0,0,986.210144
-264,-938,3,0,0,0,874.831665
292,-189,4,0,0,0,1191.037964
1387,1441,1,0,0,0,687.515686
-1478,502,2,1,0,2,70.340370
-1303,-888,3,0,0,0,736.500549
169,-1347,4,0,0,0,798.656982
195,1926,1,0,0,0,696.854187
-1808,737,2,0,0,0,627.304932
-574,-72,3,0,0,0,1025.067627
1275,-1726,4,0,0,0,667.399475
1443,1353,1,0,0,0,690.675598
-1426,1400,2,1,0,2,78.638466
-283,-1311,3,0,0,0,782.957275
896,-1734,4,0,0,0,694.503052
979,199,1,0,0,0,886.882080
-1808,958,2,0,0,0,613.965149
-433,-316,3,1,0,3,156.393341
1385,-549,4,0,0,0,771.945007
1010,57,1,0,0,0,883.277283
-1835,1586,2,0,0,0,565.724915
-545,-1535,3,0,0,0,727.186462
100,-582,4,1,0,3,156.393341
1165,1095,1,0,0,0,751.677551
-1067,926,2,0,0,0,719.760803
-98,-165,3,0,0,0,1343.340332
811,-1833,4,0,0,0,686.896301
763,1679,1,0,0,0,710.735718
-1539,1466,2,1,0,2,60.535915
-19,-2000,3,0,0,0,668.422668
1706,-897,4,0,0,0,698.098999
1654,79,1,0,0,0,741.617065
-801,757,2,0,0,0,791.030212
-914,-1501,3,1,0,3,156.393341
1729,-1810,4,0,0,0,623.475037
644,853,1,0,0,0,867.443970
-213,1883,2,0,0,0,635.811768
-1135,-1552,3,0,0,0,679.696594
1495,-1087,4,0,0,0,710.089355
273,741,1,0,0,0,954.611877
-687,1650,2,1,0,2,114.778053
-532,-1217,3,0,0,0,785.754944
743,-1826,4,0,0,0,691.649048
1601,386,1,1,0,2,145.287384
-486,1752,2,0,0,0,647.617493
-567,-839,3,0,0,0,863.768555
1880,-979,4,1,0,3,156.393341
713,577,1,0,0,0,911.481934
-1852,1126,2,0,0,0,597.595764
-625,-222,3,1,0,3,156.393341
346,-915,4,0,0,0,892.936523
465,1337,1,0,0,0,786.636658
-368,1203,2,0,0,0,753.033142
-915,-1125,3,0,0,0,760.534058
1735,-1277,4,1,0,3,156.393341
165,1158,1,1,0,2,242.201019
-324,133,2,0,0,0,1121.264648
-1896,-1132,3,0,0,0,640.165466
648,-1029,4,0,0,0,830.310547
655,1951,1,1,0,2,114.872337
-954,1722,2,0,0,0,624.957336
-654,-11,3,0,0,0,989.664001
1628,-1875,4,0,0,0,625.755005
1283,1765,1,0,0,0,662.622437
-1153,1948,2,0,0,0,585.271362
-238,-869,3,1,0,3,156.393341
162,-1646,4,0,0,0,741.951904
428,900,1,0,0,0,887.584595
-1706,1110,2,1,0,2,62.636024
-319,-1820,3,0,0,0,691.077026
324,-77,4,0,0,0,1203.585083
1504,755,1,0,0,0,736.981201
-998,716,2,1,0,2,109.257904
-1949,-335,3,0,0,0,671.656860
272,-1687,4,0,0,0,732.597839
1913,488,1,0,0,0,691.230286
-1583,1319,2,0,0,0,611.974304
-837,-510,3,0,0,0,873.154541
1344,-768,4,1,0,3,156.393341
1588,409,1,0,0,0,744.412964
-1569,1901,2,0,0,0,561.162842
-1164,-997,3,0,0,0,744.656616
192,-1879,4,1,0,3,156.393341
254,1283,1,0,0,0,809.368713
-1126,849,2,1,0,2,77.709648
-1119,-807,3,0,0,0,774.839844
1573,-1889,4,0,0,0,628.632874
1419,252,1,0,0,0,781.477844
-1874,160,2,0,0,0,637.954468
-793,-112,3,1,0,3,156.393341
1203,-1048,4,0,0,0,752.281433
1918,1047,1,0,0,0,662.214539
-1253,648,2,1,0,2,77.950935
-1953,-762,3,1,0,3,156.393341
1817,-921,4,1,0,3,156.393341
1187,31,1,0,0,0,837.164185
-1894,1152,2,0,0,0,591.199524
-1239,-497,3,0,0,0,784.295349
1612,-354,4,0,0,0,742.566711
1901,1593,1,1,0,2,105.949730
-341,1884,2,0,0,0,632.878967
-656,-843,3,1,0,3,156.393341
1758,-854,4,0,0,0,694.116455
1958,1990,1,0,0,0,592.451782
-932,1631,2,0,0,0,638.305054
-1930,-1652,3,0,0,0,600.274109
1199,-994,4,1,0,3,156.393341
1973,1265,1,1,0,2,113.846382
-1998,729,2,1,0,2,54.487614
-82,-890,3,0,0,0,899.713684
1763,-329,4,0,0,0,718.738586
1540,310,1,0,0,0,756.736328
-988,480,2,0,0,0,791.992065
-832,-1914,3,0,0,0,656.272461
719,-5,4,0,0,0,981.630920
1995,1282,1,0,0,0,638.874451
-1672,1459,2,1,0,2,35.717319
-1144,-1830,3,0,0,0,646.706360
1793,-1951,4,0,0,0,607.277222
1932,1397,1,0,0,0,637.344543
-1231,146,2,0,0,0,757.261719
-1483,-1091,3,0,0,0,692.111023
1214,-1993,4,1,0,3,156.393341
328,1624,1,0,0,0,741.460083
-723,289,2,1,0,2,104.899239
-1980,-402,3,0,0,0,665.536682
1583,-1140,4,0,0,0,694.656677
489,948,1,1,0,2,389.937988
-1025,1250,2,0,0,0,681.195312
-361,-1016,3,0,0,0,845.704468
980,-1736,4,0,0,0,688.453979
174,1873,1,0,0,0,705.072876
-1275,1043,2,1,0,2,46.663071
-745,-389,3,1,0,3,156.393341
1278,-1563,4,0,0,0,684.823608
1901,1222,1,0,0,0,652.614075
-384,235,2,0,0,0,1048.855347
-132,-1672,3,0,0,0,718.807312
1139,-924,4,0,0,0,776.448059
1663,1441,1,1,0,2,87.882240
-661,146,2,0,0,0,931.293579
-87,-1779,3,0,0,0,701.587036
1096,-72,4,0,0,0,859.592834
1723,69,1,0,0,0,729.993225
-1131,663,2,0,0,0,741.198547
-734,-532,3,0,0,0,895.634216
1746,-303,4,0,0,0,722.168823
589,557,1,0,0,0,947.060059
-1193,1221,2,0,0,0,665.616272
-1891,-1847,3,0,0,0,589.006348
1931,-128,4,0,0,0,696.944153
995,1339,1,0,0,0,739.488831
-1319,76,2,0,0,0,738.978943
-859,-906,3,0,0,0,803.541077
1994,-1309,4,0,0,0,637.212341
1851,1489,1,1,0,2,99.072098
-1599,914,2,0,0,0,643.933228
-8,-1843,3,0,0,0,691.809937
1070,-401,4,0,0,0,848.212036
1311,1983,1,0,0,0,638.179871
-1507,168,2,1,0,2,63.779705
-1914,-787,3,1,0,3,156.393341
1986,-1661,4,0,0,0,613.869446
482,1063,1,0,0,0,842.108093
-1659,1346,2,0,0,0,601.698608
-1344,-1381,3,0,0,0,679.057129
1361,-1883,4,1,0,3,156.393341
78,329,1,1,0,0,258.999817
-1257,1434,2,0,0,0,634.023621
-416,-33,3,0,0,0,1119.251587
1861,-1951,4,0,0,0,602.335388
1355,1468,1,0,0,0,687.845093
-1699,963,2,1,0,2,64.074081
-255,-1755,3,1,0,3,156.393341
881,-1955,4,1,0,3,156.393341
350,1365,1,0,0,0,787.937805
-913,714,2,0,0,0,776.562622
-1165,-146,3,0,0,0,821.199036
1329,-160,4,0,0,0,802.700378
611,1499,1,0,0,0,748.125732
-1672,1296,2,0,0,0,604.489990
-1933,-1898,3,0,0,0,582.045471
928,-612,4,0,0,0,856.136597
59,271,1,1,0,0,333.593323
-784,1452,2,0,0,0,675.309326
-953,-311,3,0,0,0,866.671875
983,-1320,4,0,0,0,743.367737
976,1921,1,0,0,0,666.221985
-933,12,2,0,0,0,838.900635
-861,-1692,3,1,0,3,156.393341
1016,-1491,4,1,0,3,156.393341
1766,1499,1,1,0,2,102.875473
-1381,185,2,0,0,0,723.733765
-1905,-969,3,1,0,3,156.393341
1578,-1838,4,0,0,0,632.802429
167,770,1,0,0,0,955.265198
-1793,1236,2,0,0,0,596.249512
-1502,-201,3,0,0,0,747.899170
1633,-864,4,0,0,0,710.232239
768,1046,1,1,0,2,513.163818
-1404,1026,2,0,0,0,660.334167
-1672,-1678,3,0,0,0,620.166809
934,-812,4,0,0,0,825.250977
38,1415,1,0,0,0,786.645508
-1745,1200,2,0,0,0,604.178223
-1212,-1765,3,1,0,3,156.393341
601,-649,4,1,0,3,156.393341
550,1771,1,0,0,0,709.155701
-630,524,2,1,0,2,118.474403
-1090,-1663,3,1,0,3,156.393341
994,-613,4,0,0,0,841.948669
1022,424,1,0,0,0,857.478333
-1446,1033,2,0,0,0,654.139160
-772,-1709,3,0,0,0,686.845276
1197,-1195,4,0,0,0,735.530457
1680,490,1,0,0,0,725.765320
-532,1610,2,0,0,0,667.539246
-766,-1620,3,1,0,3,156.393341
1510,-1517,4,0,0,0,668.124512
1712,1646,1,0,0,0,638.451294
-1819,1157,2,0,0,0,599.126282
-305,-1186,3,0,0,0,809.096252
419,-1603,4,0,0,0,741.448975
120,499,1,0,0,0,1078.838745
-1678,796,2,1,0,2,52.641987
-924,-511,3,0,0,0,851.729187
1372,-242,4,0,0,0,791.214478
608,1628,1,0,0,0,727.766113
-1904,397,2,0,0,0,628.400208
-384,-1889,3,0,0,0,678.969482
1214,-874,4,0,0,0,770.782166
259,1343,1,0,0,0,796.508789
-1231,743,2,0,0,0,714.722290
-1613,-723,3,0,0,0,703.765747
1578,-1326,4,0,0,0,678.910217
640,799,1,0,0,0,879.850769
-1902,959,2,0,0,0,602.532532
-1438,-1279,3,1,0,3,156.393341
1111,-394,4,0,0,0,839.257935
1105,1401,1,0,0,0,720.197510
-1410,114,2,1,0,3,156.393341
-763,-1986,3,0,0,0,650.784668
611,-514,4,0,0,0,951.434265
579,1837,1,0,0,0,698.300903
-1618,1794,2,1,0,2,29.768291
-677,-704,3,1,0,3,156.393341
853,-1653,4,1,0,3,156.393341
85,683,1,0,0,0,994.228333
-1270,113,2,0,0,0,749.183777
-1311,-337,3,0,0,0,780.308655
1626,-38,4,0,0,0,746.763611
857,317,1,0,0,0,912.574829
-190,578,2,0,0,0,962.035217
-397,-1449,3,0,0,0,750.369141
1501,-673,4,1,0,3,156.393341
1224,14,1,0,0,0,828.414307
-1559,1260,2,1,0,2,49.372627
-683,-765,3,0,0,0,860.123718
820,-1957,4,1,0,3,156.393341
479,1896,1,0,0,0,693.952515
-1044,228,2,0,0,0,799.902100
-1317,-903,3,0,0,0,732.882202
1193,-1073,4,0,0,0,750.652405
427,1541,1,1,0,2,181.771942
-117,1310,2,1,0,2,200.317947
-754,-920,3,0,0,0,817.454529
1861,-1859,4,1,0,3,156.393341
167,1368,1,0,0,0,794.329834
-895,88,2,0,0,0,849.503784
-528,-810,3,0,0,0,877.070740
1194,-1193,4,0,0,0,736.130737
284,953,1,0,0,0,888.212097
-1195,1947,2,0,0,0,582.675110
-234,-984,3,0,0,0,864.105591
96,-1313,4,1,0,3,156.393341
1688,979,1,0,0,0,694.570435
-1724,1087,2,1,0,2,53.508701
-378,-1534,3,0,0,0,735.943115
858,-361,4,1,0,3,156.393341
1121,1347,1,0,0,0,725.365723
-1065,1822,2,1,0,2,88.541008
-1561,-393,3,0,0,0,730.580261
1454,-973,4,0,0,0,725.842896
190,1445,1,0,0,0,778.260254
-913,1294,2,0,0,0,687.067383
-1612,-100,3,0,0,0,729.622253
597,-625,4,0,0,0,928.597168
840,905,1,0,0,0,825.916626
-1983,1297,2,0,0,0,572.324463
-472,-1772,3,1,0,3,156.393341
611,-1517,4,1,0,3,156.393341
727,200,1,1,0,2,130.941788
-723,1955,2,0,0,0,608.694031
-1128,-648,3,0,0,0,791.726562
39,-532,4,0,0,0,1067.705688
-1411,1090,2,0,0,0,653.192688
-979,-1917,3,1,0,3,156.393341
539,-1016,4,0,0,0,846.342834
-1716,1462,2,0,0,0,586.438538
-855,-1052,3,1,0,3,156.393341
1353,-138,4,0,0,0,798.136963
-83,217,2,1,0,0,341.587250
-1879,-82,3,1,0,3,156.393341
1503,-379,4,0,0,0,760.570374
-1726,92,2,1,0,2,44.552124
-66,-1807,3,0,0,0,697.267517
-1274,1822,2,0,0,0,590.381592
-641,-1605,3,0,0,0,710.214661
-1017,822,2,0,0,0,741.931213
-1737,-552,3,0,0,0,694.997803
-1315,491,2,1,0,2,23.857094
-418,-1439,3,0,0,0,751.118713
-524,-1013,3,0,0,0,829.552124
-248,-1419,3,0,0,0,762.443359
-1809,-136,3,0,0,0,696.335266
-1396,-163,3,1,0,3,156.393341
-1309,-1112,3,0,0,0,711.994263
-1934,-732,3,0,0,0,658.900208
-898,-1940,3,0,0,0,649.415894
-1965,-631,3,0,0,0,659.462036
-1154,-476,3,0,0,0,803.580200
-179,-1986,3,0,0,0,669.286804
-1313,-1516,3,1,0,3,156.393341


each generation good chromosome number
4,7,9,