each times' max average throughput
692.499390,672.518799,683.557495,699.216431,673.628113,678.409546,668.111816,674.003418,705.734131,694.295227,699.900574,668.608032,701.955078,699.516174,698.476929,678.923767,709.461304,673.950867,695.664673,679.781860,704.676270,682.339783,675.599243,699.542053,692.052979,703.200256,674.313416,711.616638,693.861023,702.591553,658.877869,697.608765,700.995728,678.303467,694.336243,688.188416,667.257568,681.290161,691.174438,698.010376,673.772278,683.373962,707.912659,682.705811,693.384155,684.225525,698.620789,697.720459,671.473877,663.499634,675.910400,698.813232,677.106873,683.289856,705.403442,690.292908,678.627563,686.208923,660.760681,685.850525,695.889587,657.332947,689.596558,674.112549,687.192444,675.434509,665.251221,671.397888,679.765930,686.927368,691.832581,685.421631,653.520630,701.922974,690.810791,685.213501,693.414429,693.777710,674.084839,676.644226,693.211487,692.707031,702.816406,721.100159,687.062317,659.379456,687.454529,704.430603,693.673584,677.423889,679.164062,677.381165,664.729858,677.344910,699.399048,697.290405,687.833984,687.546387,670.619141,687.291260,
avg. throughput in all test times
686.203979
avg. BS TX power in all test times
MBS area 1,MBS area 2,MBS area 3,CBSD 1,CBSD 2,CBSD 3,CBSD 4,CBSD 5,CBSD 6,CBSD 7,
8.375,8.462,8.700,0.200,0.246,0.203,0.260,0.303,0.231,0.290,
avg. mbs all power,avg. cbsd enable number,avg. mbs area all power,avg. cbsd all power
42.338,2.000,25.538,1.732
avg. max avg. throughput generation number in all test times
0.900000
avg. number of relay UE
23

the max average throughput times

BS TX power
MBS area 1,MBS area 2,MBS area 3,CBSD 1,CBSD 2,CBSD 3,CBSD 4,CBSD 5,CBSD 6,CBSD 7,
6.250,6.250,10.000,0.000,0.750,0.000,0.000,0.000,0.000,0.500,
max average throughput
687.291260

x,y,area,be blocked (1 : NLOS / 0 : LOS),be blocked number (>=1 : CBSD(x) / 0 : no),connect bs number (>=1 : CBSD / 0 : MBS),throughput (unit : M bps)
1783,223,1,0,0,0,650.974670
752,-635,2,1,0,7,374.886017
-685,-745,3,1,0,2,219.597702
393,1320,1,0,0,0,727.060059
1556,-1500,2,1,0,7,270.912720
-1545,208,3,0,0,0,758.928772
586,234,1,0,0,0,951.541321
856,-457,2,0,0,0,827.632935
-584,-498,3,0,0,0,962.824158
510,645,1,0,0,0,875.281982
1670,-95,2,0,0,0,671.428162
-1878,-1881,3,0,0,0,606.393433
102,1468,1,0,0,0,708.087769
1987,-163,2,0,0,0,621.354614
-1719,-1329,3,1,0,2,131.317429
1863,1037,1,0,0,0,602.255554
1295,-1381,2,0,0,0,636.084900
-107,-1044,3,0,0,0,872.699402
852,739,1,0,0,2,880.770386
616,-563,2,0,0,0,871.024048
-1858,1925,3,1,0,2,164.762039
1485,592,1,0,0,0,684.373657
827,-1248,2,0,0,0,703.148071
-837,670,3,0,0,0,866.549500
363,1551,1,0,0,0,685.402527
156,-1256,2,0,0,0,751.299438
-1147,-1392,3,0,0,0,717.105835
554,1901,1,0,0,0,623.302246
1253,-874,2,0,0,0,697.362305
-1713,1267,3,1,0,2,189.995850
25,1958,1,1,0,2,354.232178
1141,-392,2,0,0,0,765.047241
-1326,-1062,3,1,0,2,160.690292
1258,396,1,0,0,0,739.485840
633,-331,2,0,0,0,915.808350
-463,1754,3,0,0,0,715.458923
1696,1735,1,0,0,0,565.627991
645,-1376,2,0,0,0,698.871948
-508,1822,3,0,0,0,703.489563
1107,1189,1,0,0,0,679.777466
774,-1139,2,0,0,7,1047.205200
-1965,1006,3,0,0,0,659.303772
876,1501,1,1,0,2,555.417664
1482,-196,2,0,0,0,703.576355
-191,1114,3,1,0,2,433.068726
44,1071,1,0,0,0,799.016724
491,-1709,2,0,0,0,653.969421
-1068,-1935,3,0,0,0,658.964661
1471,671,1,0,0,0,681.143066
14,-483,2,0,0,0,1028.458740
-117,-144,3,0,0,0,1372.341064
748,1345,1,1,0,2,647.424744
531,-634,2,0,0,0,873.632629
-554,766,3,0,0,0,902.785278
343,364,1,1,0,2,533.124084
1648,-1203,2,0,0,0,614.766479
-17,-85,3,1,0,0,822.392761
1965,113,1,1,0,2,319.553223
990,-128,2,1,0,2,405.063477
-1312,921,3,0,0,0,750.930969
1243,565,1,0,0,0,729.543213
838,-1785,2,0,0,0,624.478149
-756,1115,3,1,0,2,309.839783
1450,441,1,0,0,0,699.643616
1219,-1127,2,0,0,0,673.580933
-191,1204,3,0,0,0,829.597351
965,728,1,1,0,2,775.991760
171,-1700,2,0,0,0,665.364075
-1367,1438,3,0,0,0,689.812561
495,385,1,0,0,0,953.326111
1116,-1679,2,0,0,0,618.176697
-157,-572,3,1,0,2,276.222717
905,521,1,0,0,0,806.528503
1609,-1336,2,1,0,7,271.584808
-258,1419,3,0,0,0,781.266418
497,362,1,0,0,0,959.004639
1220,-357,2,0,0,0,750.052795
-1591,-951,3,0,0,0,709.291565
1774,659,1,1,0,2,404.096924
1031,-1736,2,0,0,0,617.751831
-567,-24,3,1,0,2,295.045380
998,-593,2,0,0,0,776.104980
-310,799,3,0,0,0,931.034180
-1147,-1793,3,0,0,0,669.721802
-1707,-1902,3,1,0,2,111.543571
-664,1559,3,1,0,2,303.149841
-32,253,3,0,0,0,1280.579102
-1853,297,3,0,0,0,705.745544
-1251,-1575,3,0,0,0,685.902283
-296,-867,3,0,0,0,911.823486
-600,-515,3,0,0,0,954.239319
-929,1276,3,0,0,0,755.375244
-1178,513,3,0,0,0,814.479919
-777,-800,3,0,0,0,855.208191
-202,628,3,0,0,0,1006.454163
-227,-1759,3,0,0,0,721.927917
-41,968,3,0,0,0,895.706604
-272,173,3,0,0,0,1212.977783
-924,-1422,3,0,0,0,734.779358
-151,952,3,0,0,0,897.186768


each generation good chromosome number
4,9,10,