the max average throughput times

BS TX power
MBS area 1,MBS area 2,CBSD 1,CBSD 2,CBSD 3,CBSD 4,CBSD 5,CBSD 6,
10.000,10.000,0.000,1.000,0.000,1.000,0.750,0.000,
max average power
671.771484

x,y,area,be blocked (1 : NLOS / 0 : LOS),be blocked number (>=1 : CBSD(x) / 0 : no),connect bs number (>=1 : CBSD / 0 : MBS),throughput (unit : M bps)
1283,1205,1,0,0,0,724.108093
-100,-103,2,0,0,0,1446.354980
1433,1677,1,0,0,0,659.521973
-1043,578,2,1,0,5,323.191101
273,-251,1,1,0,0,226.466675
-537,-1217,2,1,0,4,310.275909
35,-483,1,0,0,0,1095.588501
-1838,-1792,2,1,0,4,158.765839
419,1346,1,0,0,0,787.825500
-1434,948,2,0,0,0,730.884521
1479,589,1,0,0,0,752.911377
-1550,1761,2,0,0,0,641.947510
1117,889,1,1,0,2,325.176392
-551,674,2,0,0,0,926.521545
364,-1755,1,0,0,0,718.911743
-310,-1647,2,0,0,0,738.167480
294,-1758,1,0,0,0,720.505127
-576,180,2,0,0,0,1032.132568
1611,1535,1,1,0,2,193.699722
-1311,-1830,2,0,0,0,653.721191
1180,53,1,0,0,0,838.673950
-1035,-3,2,0,0,0,876.694458
594,-1503,1,0,0,0,748.590454
-1420,-372,2,0,0,0,776.202332
284,-636,1,1,0,4,196.226837
-80,659,2,0,0,0,1004.646301
886,224,1,0,0,0,912.534363
-1643,731,2,0,0,0,717.965393
399,583,1,0,0,0,986.707886
-357,1638,2,0,0,0,738.076294
1845,338,1,0,0,0,705.889893
-803,-766,2,0,0,0,856.622192
525,90,1,1,0,2,224.792374
-1654,1756,2,0,0,0,633.998840
1693,-775,1,1,0,2,124.923470
-1870,1800,2,0,0,0,613.154419
1060,383,1,0,0,0,852.167725
-1935,-1451,2,0,0,0,633.257446
1711,641,1,0,0,0,713.405396
-1331,-1370,2,0,0,0,700.687744
1649,-1349,1,0,0,0,669.452454
-841,696,2,0,0,0,861.357361
1714,-162,1,0,0,0,730.449585
-1466,-231,2,0,0,0,773.055908
510,-1690,1,0,0,0,723.274048
-1606,972,2,0,0,0,705.655945
1370,-868,1,1,0,2,127.901863
-62,-1897,2,1,0,4,175.391052
1842,-432,1,1,0,2,137.288803
-1508,-810,2,1,0,4,237.131180
1668,895,1,0,0,0,703.269775
-250,1944,2,1,0,5,323.191101
1774,-1753,1,0,0,0,624.511414
-1137,1969,2,0,0,0,650.874390
549,1744,1,0,0,0,713.210876
-1383,-483,2,0,0,0,776.790405
1645,352,1,0,0,0,737.088013
-1800,-48,2,0,0,0,717.589600
1889,-1667,1,0,0,0,621.631653
-1709,1270,2,0,0,0,669.623413
467,1844,1,0,0,0,701.871155
-1293,202,2,1,0,5,323.191101
1376,73,1,0,0,0,794.376038
-202,-357,2,0,0,0,1143.472290
1255,236,1,0,0,0,816.243774
-1606,-897,2,0,0,0,711.468933
705,-616,1,0,0,0,905.582275
-1491,-1362,2,0,0,0,684.758057
0,1244,1,0,0,0,823.771973
-1728,1841,2,0,0,0,621.004089
466,-1244,1,1,0,4,172.965591
-759,33,2,0,0,0,965.762207
1879,849,1,0,0,0,678.806458
-1717,-1498,2,0,0,0,650.258789
936,209,1,0,0,0,898.639648
-688,1838,2,0,0,0,692.933716
1494,1823,1,1,0,2,181.439560
-1578,1532,2,0,0,0,660.367249
721,-1633,1,0,0,0,720.075928
-262,38,2,0,0,0,1269.780884
186,805,1,1,0,5,323.191101
-1181,-940,2,0,0,0,768.194946
1715,527,1,0,0,0,718.625305
-1618,1999,2,0,0,0,615.774963
1156,342,1,0,0,0,832.806702
-822,-849,2,0,0,0,838.542603
1543,-1351,1,0,0,0,680.341309
-629,1814,2,1,0,5,323.191101
1883,-189,1,0,0,0,703.343201
-1454,-1023,2,0,0,0,721.244446
1270,1595,1,0,0,0,682.020996
-1742,407,2,0,0,0,719.461731
837,710,1,0,0,0,859.799622
-342,1526,2,0,0,0,758.025146
956,-51,1,1,0,2,206.009705
-1631,-914,2,0,0,0,706.817383
1241,-565,1,0,0,0,797.388977
-1008,-1321,2,0,0,0,740.618774
1333,-1153,1,0,0,0,723.730225
-1554,472,2,1,0,5,323.191101
1358,-1387,1,1,0,4,111.531502
-1487,-1130,2,1,0,4,232.398468
761,1676,1,0,0,0,711.289001
-172,118,2,0,0,0,1338.561401
773,-1049,1,0,0,0,810.437866
-1588,-1071,2,1,0,4,220.621338
195,-253,1,0,0,0,1215.609741
-20,-1994,2,0,0,0,688.369812
1332,1186,1,1,0,2,255.115295
-1798,386,2,0,0,0,711.555481
111,-645,1,0,0,0,1008.738342
-868,611,2,0,0,0,869.423157
1367,-691,1,0,0,0,763.984863
-1729,-257,2,1,0,5,323.191101
213,-1922,1,0,0,0,697.161926
-691,-585,2,0,0,0,915.226440
1590,1670,1,0,0,0,646.867493
-1470,-1190,2,0,0,0,703.519531
1831,-298,1,0,0,0,709.054810
-29,-1751,2,0,0,0,725.562134
1187,-761,1,0,0,0,787.766724
-748,536,2,0,0,0,910.543335
1233,-892,1,0,0,0,765.845703
-16,-644,2,0,0,0,1013.303284
811,551,1,0,0,0,892.278931
-727,-1804,2,0,0,0,695.506897
312,625,1,0,0,0,989.955383
-1003,996,2,0,0,0,787.050781
1008,125,1,0,0,0,882.108948
-505,1012,2,0,0,0,851.165588
1453,1921,1,1,0,2,176.117447
-1162,-1761,2,1,0,4,202.937042
987,805,1,0,0,0,816.997681
-253,1935,2,1,0,5,323.191101
861,-174,1,1,0,2,193.371002
-293,583,2,1,0,5,323.191101
1931,-1483,1,0,0,0,631.359863
-1367,598,2,0,0,0,771.514160
1382,-1606,1,1,0,4,107.312767
-1531,-1994,2,1,0,4,163.320038
1649,574,1,1,0,2,207.221893
-558,-1380,2,0,0,0,772.194946
612,-1088,1,0,0,0,822.776184
-1091,1084,2,0,0,0,762.816833
968,745,1,0,0,0,829.022644
-1231,-155,2,0,0,0,824.531067
1123,-571,1,0,0,0,820.135620
-659,982,2,0,0,0,838.324280
1888,1167,1,0,0,0,657.754761
-1966,1181,2,0,0,0,648.407104
1966,-1754,1,0,0,0,608.897278
-77,204,2,0,0,0,1325.761475
198,-1667,1,0,0,0,737.689087
-326,1041,2,0,0,0,861.567688
206,1765,1,1,0,5,323.191101
-1808,-1641,2,0,0,0,630.552551
516,783,1,0,0,0,905.112488
-1934,-1482,2,0,0,0,631.152649
396,-751,1,0,0,0,933.743103
-1210,509,2,0,0,0,808.315979
426,-1752,1,0,0,0,717.206787
-1662,-1870,2,0,0,0,623.620605
1113,-924,1,0,0,0,780.411621
-491,831,2,1,0,5,323.191101
1968,-650,1,0,0,0,677.332031
-1173,-236,2,0,0,0,834.967957
1122,97,1,0,0,0,852.394165
-1829,-1607,2,0,0,0,631.368835
1253,-1632,1,1,0,4,112.793076
-161,1528,2,0,0,0,763.098206
976,1720,1,1,0,2,222.552231
-1503,1322,2,1,0,5,323.191101
706,1186,1,0,0,0,793.898010
-1566,1419,2,1,0,5,323.191101
313,-1621,1,1,0,4,169.718567
-1371,-342,2,0,0,0,787.153015
1626,-1934,1,0,0,0,620.804077
-605,-600,2,0,0,0,932.706055
1647,-623,1,0,0,0,723.986755
-626,-206,2,1,0,4,255.427795
991,1886,1,0,0,0,669.450195
-625,1981,2,0,0,0,676.685669
1845,-349,1,1,0,2,141.450409
-216,1570,2,0,0,0,754.208313
1399,81,1,0,0,0,789.535583
-1627,1722,2,0,0,0,639.156982
636,1526,1,0,0,0,742.077148
-1893,-34,2,0,0,0,703.215454
440,695,1,1,0,2,329.895386
-11,1485,2,1,0,5,323.191101
220,-489,1,0,0,0,1066.205566
-22,-492,2,0,0,0,1090.731201
1722,950,1,0,0,0,692.333191
-974,-292,2,0,0,0,881.795166
883,-1428,1,1,0,4,137.055313
-1008,-1616,2,0,0,0,701.511780
1844,277,1,0,0,0,707.576843
-1500,455,2,0,0,0,757.358521
88,1059,1,1,0,5,323.191101
-1884,-207,2,0,0,0,702.908325
1044,1065,1,0,0,0,771.651917
-1158,-800,2,0,0,0,788.282532
1694,792,1,0,0,0,706.762268
-1892,-1688,2,0,0,0,619.809509
361,-1296,1,0,0,0,801.256226
-1493,1729,2,0,0,0,649.535400
1817,299,1,0,0,0,711.171021
-1851,-1124,2,0,0,0,664.790710
1179,-1303,1,1,0,4,121.809189
-1223,-48,2,0,0,0,828.446899
518,-1354,1,0,0,0,779.788635
-228,1367,2,0,0,0,792.723022
1268,-1981,1,1,0,4,104.920372
-904,140,2,0,0,0,912.251282
1439,-272,1,0,0,0,776.875427
-454,-1100,2,0,0,0,836.534546
602,520,1,1,0,2,316.394226
-1165,-847,2,1,0,4,313.083191
1698,-1610,1,0,0,0,642.683472
-1466,-528,2,1,0,4,232.925247
117,-1957,1,0,0,0,693.233093
-1512,-481,2,0,0,0,753.869019
1017,-1971,1,0,0,0,657.966431
-52,1186,2,0,0,0,837.228638
1652,-337,1,0,0,0,736.443848
-725,731,2,0,0,0,878.213928
683,-1959,1,1,0,4,131.898117
-690,1121,2,0,0,0,807.520874
467,30,1,0,0,0,1105.465210
-1414,1667,2,0,0,0,662.114197
1167,227,1,1,0,2,231.040619
-1046,-1623,2,0,0,0,697.591370
322,1274,1,1,0,2,275.079041
-1275,-391,2,0,0,0,803.773865
383,454,1,0,0,0,1036.705444
-219,570,2,0,0,0,1028.734741
1996,-1113,1,0,0,0,649.417664
-1503,-292,2,1,0,4,210.920227
1308,1981,1,0,0,0,638.578979
-11,-397,2,0,0,0,1152.786255
1482,-676,1,0,0,0,746.331421
-1246,-733,2,0,0,0,780.599548
15,994,1,1,0,5,323.191101
-1707,89,2,0,0,0,732.508667
1793,1496,1,0,0,0,643.268616
-958,548,2,0,0,0,858.207886
1120,-928,1,0,0,0,778.838989
-447,398,2,0,0,0,1034.512329
265,314,1,0,0,0,1142.986084
-1311,-1931,2,0,0,0,643.409424
734,164,1,0,0,0,968.666870
-567,1326,2,1,0,5,323.191101
474,-970,1,0,0,0,864.546692
-1621,-1614,2,0,0,0,649.148987
1654,1037,1,1,0,2,212.649033
-1940,-1570,2,0,0,0,624.319336
1998,1224,1,1,0,2,171.018951
-782,582,2,0,0,0,893.946960
1265,205,1,0,0,0,815.231018
-1013,1420,2,1,0,5,323.191101
1351,-1117,1,0,0,0,725.279907
-633,1865,2,0,0,0,691.921997
310,1403,1,0,0,0,782.348877
-1844,1767,2,0,0,0,617.752319
1626,-338,1,0,0,0,740.773987
-1008,998,2,0,0,0,786.044617
1206,568,1,0,0,0,803.890747
-812,-1352,2,1,0,4,288.101257
716,-1319,1,0,0,0,769.839355
-1154,1694,2,0,0,0,680.501038
149,-1731,1,0,0,0,727.836609
-986,1185,2,0,0,0,762.145813
1567,1513,1,0,0,0,663.122742
-795,-638,2,0,0,0,881.082764
1138,-1821,1,0,0,0,667.201477
-770,976,2,1,0,5,323.191101
1458,1895,1,0,0,0,636.530823
-1803,1420,2,0,0,0,648.209656
1519,-484,1,0,0,0,752.501282
-5,-46,2,0,0,0,1773.041138
338,1241,1,0,0,0,814.177917
-1776,-80,2,0,0,0,721.247742
1317,1521,1,0,0,0,685.820862
-373,-1674,2,0,0,0,731.548340
1373,1437,1,0,0,0,689.320496
-512,-924,2,0,0,0,870.812439
118,-346,1,0,0,0,1176.689453
-702,808,2,0,0,0,867.026062
777,1992,1,0,0,0,668.424194
-496,-1588,2,0,0,0,740.273621
551,-1798,1,0,0,0,705.153625
-482,-553,2,0,0,0,975.853638
115,-1912,1,0,0,0,699.885315
-879,-1349,2,0,0,0,749.660339
1516,841,1,1,0,2,234.015701
-1213,1930,2,1,0,5,323.191101
351,1215,1,0,0,0,819.029846
-905,955,2,0,0,0,807.661011
1892,-1333,1,1,0,2,96.265823
-1572,-182,2,0,0,0,754.622986
208,576,1,1,0,5,323.191101
-1076,-1741,2,0,0,0,680.926819
363,477,1,0,0,0,1034.076538
-1883,1256,2,0,0,0,652.163818
1350,1339,1,0,0,0,701.990112
-287,1364,2,0,0,0,791.072632
687,-271,1,0,0,0,973.918030
-355,1285,2,0,0,0,803.875366
1306,-1699,1,0,0,0,667.786682
-537,826,2,0,0,0,890.889404
735,-948,1,0,0,0,834.236023
-711,1221,2,0,0,0,787.170410
874,1102,1,1,0,2,381.171112
-1309,1088,2,0,0,0,733.718140
963,1751,1,1,0,2,218.761658
-359,1748,2,0,0,0,720.172363
95,-1007,1,0,0,0,883.315979
-221,1939,2,0,0,0,694.541016
1142,-443,1,0,0,0,828.218506
-325,310,2,0,0,0,1117.306763
357,-1545,1,1,0,4,170.276993
-322,1821,2,0,0,0,709.958252
938,-754,1,0,0,0,833.296387
-1240,-1308,2,1,0,4,252.612503
1459,1223,1,0,0,0,701.634521
-1847,351,2,0,0,0,705.226318
917,-1496,1,0,0,0,724.999634
-735,1288,2,0,0,0,773.274292
849,-1508,1,0,0,0,728.966248
-1596,529,2,0,0,0,737.233582
193,1295,1,0,0,0,809.060913
-340,-1715,2,0,0,0,726.031189
886,-677,1,0,0,0,855.254944
-189,939,2,0,0,0,899.005432
875,1534,1,1,0,2,256.893127
-75,-935,2,1,0,4,250.829102
671,1548,1,0,0,0,736.248657
-189,1168,2,0,0,0,838.186584
704,-666,1,0,0,0,895.635010
-322,1724,2,0,0,0,725.141418
1902,245,1,0,0,0,699.547791
-1636,-389,2,0,0,0,737.195068
1155,-596,1,1,0,2,149.804794
-1439,73,2,0,0,0,781.548279
707,335,1,0,0,0,957.302185
-1124,-405,2,0,0,0,835.392944
1802,797,1,0,0,0,691.793091
-1614,-279,2,1,0,5,323.191101
182,699,1,0,0,0,980.315735
-245,1585,2,0,0,0,750.782227
306,1108,1,1,0,2,294.375824
-318,-1885,2,0,0,0,700.456848
1526,1377,1,1,0,2,213.292923
-359,1374,2,0,0,0,785.710266
1168,111,1,0,0,0,840.611145
-1206,-952,2,1,0,4,298.101837
1257,1306,1,0,0,0,715.685669
-928,1214,2,0,0,0,764.671021
1090,1708,1,0,0,0,683.805908
-816,1493,2,0,0,0,733.833008
1230,-1537,1,0,0,0,692.056702
-1545,-906,2,0,0,0,719.119934
1477,-1729,1,0,0,0,650.840271
-1566,-35,2,0,0,0,757.559753
340,1363,1,0,0,0,788.834473
-282,394,2,0,0,0,1095.437256
1107,-621,1,1,0,2,148.889069
-574,636,2,0,0,0,931.137939
50,1139,1,1,0,5,323.191101
-991,-107,2,0,0,0,887.534302
1231,-1413,1,0,0,0,706.148254
-274,-1754,2,0,0,0,721.655579
15,-1426,1,0,0,0,784.508362
-640,329,2,0,0,0,981.392700
184,-327,1,1,0,0,222.472595
-1631,-1400,2,0,0,0,666.920654
697,535,1,0,0,0,923.855896
-362,1937,2,0,0,0,691.770935
743,1399,1,0,0,0,754.340149
-1513,-1546,2,0,0,0,665.104370
1000,1348,1,0,0,0,737.739441
-1280,1963,2,0,0,0,642.255127
880,1546,1,1,0,2,254.443481
-1512,-1108,2,1,0,4,229.879364
1710,-716,1,0,0,0,709.246765
-1549,-1639,2,0,0,0,653.212769
1814,1806,1,0,0,0,617.107971
-1990,81,2,1,0,5,323.191101
1167,-1574,1,1,0,4,118.078537
-1883,-422,2,0,0,0,697.763062
1201,1473,1,0,0,0,702.120422
-125,1568,2,0,0,0,756.355896
437,-529,1,1,0,4,177.650757
-1985,1724,2,0,0,0,609.498108
1576,-432,1,0,0,0,745.409851
-1306,-1834,2,0,0,0,653.677063
843,-1885,1,0,0,0,678.389038
-808,-987,2,0,0,0,816.569336
1695,337,1,0,0,0,729.362915
-399,-360,2,0,0,0,1065.565186
1150,424,1,0,0,0,828.040161
-891,1902,2,0,0,0,673.524414
386,810,1,0,0,0,917.816406
-1151,-459,2,0,0,0,824.896301
730,858,1,0,0,0,852.306763
-182,750,2,0,0,0,961.227478
41,1788,1,0,0,0,719.532959
-1816,-1128,2,0,0,0,668.472595
95,-238,1,0,0,0,1279.175171
-1244,-1188,2,0,0,0,730.699158
997,-1908,1,1,0,4,118.444443
-1279,-1717,2,1,0,4,201.005432
563,-1784,1,0,0,0,706.650818
-1314,-14,2,1,0,5,323.191101
698,-1436,1,0,0,0,752.067993
-1292,-326,2,0,0,0,804.013733
296,411,1,0,0,0,1082.645874
-431,847,2,0,0,0,901.263000
502,1257,1,0,0,0,799.510803
-1922,1475,2,0,0,0,632.768860
1,823,1,0,0,0,942.707092
-1999,-944,2,0,0,0,658.897949
1008,1831,1,0,0,0,674.919922
-1727,1740,2,0,0,0,629.401001
133,1071,1,0,0,0,864.651367
-765,-1724,2,0,0,0,704.306274
1479,-1822,1,0,0,0,641.856812
-1276,-995,2,1,0,4,278.554901
801,803,1,0,0,0,850.353516
-1414,504,2,1,0,5,323.191101
407,108,1,1,0,2,221.699951
-63,756,2,0,0,0,966.178589
1775,634,1,1,0,2,194.757751
-1319,-509,2,0,0,0,786.991943
1167,-1503,1,1,0,4,119.382957
-177,169,2,0,0,0,1292.463135
741,1014,1,1,0,2,476.880707
-894,-1694,2,0,0,0,699.889038
1601,695,1,0,0,0,726.528992
-89,1896,2,0,0,0,702.493103
1639,-1238,1,0,0,0,679.903015
-1271,-1723,2,1,0,4,200.883881
598,1969,1,0,0,0,679.375366
-1627,1957,2,0,0,0,618.751648
573,-921,1,0,0,0,863.195740
-1304,1954,2,0,0,0,641.561768
1056,1987,1,0,0,0,653.843018
-1429,-944,2,0,0,0,731.950073
1691,-343,1,0,0,0,729.817688
-125,1627,2,0,0,0,745.821350
533,1430,1,0,0,0,765.039978
-351,-1244,2,1,0,4,275.111694
1156,886,1,0,0,0,778.449219
-1553,409,2,0,0,0,750.401123
96,373,1,0,0,0,1161.633667
-76,1770,2,0,0,0,722.244141
1278,1957,1,0,0,0,643.000610
-184,27,2,0,0,0,1371.672241
718,-1244,1,1,0,4,152.297836
-273,-442,2,0,0,0,1075.328125
1039,-1962,1,0,0,0,657.681030
-284,399,2,0,0,0,1092.339966
1386,1563,1,0,0,0,675.072327
-1637,-73,2,1,0,5,323.191101
1666,-830,1,0,0,0,708.097046
-915,-1071,2,0,0,0,788.043335
56,-1365,1,0,0,0,796.844727
-1824,-1946,2,0,0,0,605.414307
1568,171,1,1,0,2,190.860611
-1380,1105,2,0,0,0,722.850342
819,591,1,0,0,0,883.743347
-1234,1494,2,1,0,5,323.191101
133,-257,1,0,0,0,1244.113647
-907,-1183,2,0,0,0,771.782532
-1220,-1020,2,0,0,0,753.226501
-1121,-952,2,0,0,0,775.659424
-1183,1067,2,0,0,0,752.706726
-945,-91,2,0,0,0,901.560425
-382,-676,2,1,0,4,315.527649
-726,198,2,0,0,0,968.506897
-1139,730,2,0,0,0,799.654663
-1726,-1200,2,0,0,0,673.278931
-1269,1379,2,0,0,0,706.145203
-654,1379,2,0,0,0,765.017273
-765,-517,2,0,0,0,909.574707
-1099,-453,2,1,0,4,282.548950
-1426,1723,2,0,0,0,655.575623
-60,260,2,1,0,0,348.748352
-712,-1538,2,0,0,0,734.952637
-1876,416,2,0,0,0,698.973022
-1695,-1625,2,1,0,4,178.390823
-1170,-1556,2,0,0,0,695.238892
-365,565,2,0,0,0,1000.847534
-584,-1637,2,0,0,0,727.729065
-1768,1260,2,1,0,5,323.191101
-1401,-361,2,0,0,0,780.371948
-29,-974,2,1,0,4,241.736984
-1398,975,2,0,0,0,733.332520
-665,1964,2,0,0,0,677.198914
-1074,-654,2,0,0,0,820.678162
