each times' max average throughput
645.619385,650.876892,648.950989,655.502747,650.688232,657.774963,645.330383,661.079163,638.720215,650.391113,656.308350,649.873779,667.747009,661.028748,645.322754,655.436340,635.101257,654.294189,645.669800,662.095581,638.327576,643.169006,652.439331,646.857544,649.791626,655.538391,661.396118,650.786682,652.999695,668.522339,647.562866,664.916016,636.508728,649.630432,659.387268,668.454041,652.095825,665.559204,668.380798,652.510315,650.629578,642.480957,641.937500,637.786865,653.340881,652.095398,634.922485,660.427490,646.838440,645.678040,654.793640,634.948547,646.855347,651.166382,641.526733,667.035522,649.118835,656.186951,656.145691,652.278992,648.951355,659.679443,654.376953,661.758850,656.745544,657.707336,659.397339,647.577576,647.587524,656.588257,650.950073,637.703125,638.422485,658.042053,645.547974,651.022400,667.018555,647.605591,640.731873,644.930847,649.041199,640.022278,655.615417,651.073669,639.091492,660.601624,649.297058,648.153564,654.061035,658.129150,654.347351,652.808411,648.315674,649.747742,658.037109,625.205444,639.648621,661.837463,644.048767,648.754150,
avg. throughput in all test times
651.190186
avg. BS TX power in all test times
MBS area 1,MBS area 2,CBSD 1,CBSD 2,CBSD 3,CBSD 4,CBSD 5,CBSD 6,
9.225,9.600,0.319,0.346,0.379,0.474,0.346,0.447,
avg. mbs all power,avg. cbsd enable number,avg. mbs area all power,avg. cbsd all power
42.000,3.000,18.825,2.311
avg. max avg. throughput generation number in all test times
0.940000
avg. number of relay UE
104

the max average throughput times

BS TX power
MBS area 1,MBS area 2,CBSD 1,CBSD 2,CBSD 3,CBSD 4,CBSD 5,CBSD 6,
10.000,8.750,0.000,0.000,0.875,0.500,0.500,0.500,
max average throughput
648.754150

x,y,area,be blocked (1 : NLOS / 0 : LOS),be blocked number (>=1 : CBSD(x) / 0 : no),connect bs number (>=1 : CBSD / 0 : MBS),throughput (unit : M bps)
1283,1205,1,0,0,0,724.108093
-100,-103,2,0,0,0,1427.091431
1433,1677,1,0,0,0,659.521973
-1043,578,2,1,0,5,246.543900
273,-251,1,1,0,0,226.466675
-537,-1217,2,1,0,4,202.906555
35,-483,1,0,0,0,1095.588501
-1838,-1792,2,1,0,4,91.753265
419,1346,1,0,0,0,787.825500
-1434,948,2,0,0,0,711.749939
1479,589,1,0,0,0,752.911377
-1550,1761,2,0,0,0,622.923645
1117,889,1,1,0,6,236.768768
-551,674,2,0,0,0,907.290588
364,-1755,1,0,0,0,718.911743
-310,-1647,2,0,0,0,719.026550
294,-1758,1,0,0,0,720.505127
-576,180,2,0,0,0,1012.884216
1611,1535,1,1,0,6,115.735497
-1311,-1830,2,0,0,0,634.678467
1180,53,1,0,0,0,838.673950
-1035,-3,2,0,0,0,857.477356
594,-1503,1,0,0,0,748.590454
-1420,-372,2,0,0,0,757.032837
284,-636,1,1,0,3,175.671738
-80,659,2,0,0,0,985.401306
886,224,1,0,0,0,912.534363
-1643,731,2,0,0,0,698.843018
399,583,1,0,0,0,986.707886
-357,1638,2,0,0,0,718.935425
1845,338,1,0,0,0,705.889893
-803,-766,2,0,0,0,837.412109
525,90,1,1,0,6,151.910217
-1654,1756,2,0,0,0,614.988586
1693,-775,1,1,0,3,177.365250
-1870,1800,2,0,0,0,594.183655
1060,383,1,0,0,0,852.167725
-1935,-1451,2,0,0,0,614.248474
1711,641,1,0,0,0,713.405396
-1331,-1370,2,0,0,0,681.583435
1649,-1349,1,0,0,0,669.452454
-841,696,2,0,0,0,842.145508
1714,-162,1,0,0,0,730.449585
-1466,-231,2,0,0,0,753.888428
510,-1690,1,0,0,0,723.274048
-1606,972,2,0,0,0,686.546265
1370,-868,1,1,0,3,234.931076
-62,-1897,2,1,0,3,111.812073
1842,-432,1,1,0,3,150.121307
-1508,-810,2,1,0,4,148.553345
1668,895,1,0,0,0,703.269775
-250,1944,2,1,0,5,156.743408
1774,-1753,1,0,0,0,624.511414
-1137,1969,2,0,0,0,631.836060
549,1744,1,0,0,0,713.210876
-1383,-483,2,0,0,0,757.620483
1645,352,1,0,0,0,737.088013
-1800,-48,2,0,0,0,698.467590
1889,-1667,1,0,0,0,621.631653
-1709,1270,2,0,0,0,650.557556
467,1844,1,0,0,0,701.871155
-1293,202,2,1,0,5,168.849930
1376,73,1,0,0,0,794.376038
-202,-357,2,0,0,0,1124.215210
1255,236,1,0,0,0,816.243774
-1606,-897,2,0,0,0,692.353088
705,-616,1,0,0,0,905.582275
-1491,-1362,2,0,0,0,665.672485
0,1244,1,0,0,0,823.771973
-1728,1841,2,0,0,0,602.017700
466,-1244,1,1,0,3,187.926041
-759,33,2,0,0,0,946.523254
1879,849,1,0,0,0,678.806458
-1717,-1498,2,0,0,0,631.221436
936,209,1,0,0,0,898.639648
-688,1838,2,0,0,0,673.838257
1494,1823,1,1,0,6,100.308029
-1578,1532,2,0,0,0,641.314575
721,-1633,1,0,0,0,720.075928
-262,38,2,0,0,0,1250.519531
186,805,1,1,0,5,169.991791
-1181,-940,2,0,0,0,749.030762
1715,527,1,0,0,0,718.625305
-1618,1999,2,0,0,0,596.798889
1156,342,1,0,0,0,832.806702
-822,-849,2,0,0,0,819.339722
1543,-1351,1,0,0,0,680.341309
-629,1814,2,1,0,5,188.172821
1883,-189,1,0,0,0,703.343201
-1454,-1023,2,0,0,0,702.118896
1270,1595,1,0,0,0,682.020996
-1742,407,2,0,0,0,700.337952
837,710,1,0,0,0,859.799622
-342,1526,2,0,0,0,738.868347
956,-51,1,1,0,3,166.183517
-1631,-914,2,0,0,0,687.706421
1241,-565,1,0,0,0,797.388977
-1008,-1321,2,0,0,0,721.475769
1333,-1153,1,0,0,0,723.730225
-1554,472,2,1,0,5,169.267548
1358,-1387,1,1,0,3,186.914307
-1487,-1130,2,1,0,4,145.063538
761,1676,1,0,0,0,711.289001
-172,118,2,0,0,0,1319.298828
773,-1049,1,0,0,0,810.437866
-1588,-1071,2,1,0,4,136.401962
195,-253,1,0,0,0,1215.609741
-20,-1994,2,0,0,0,669.279785
1332,1186,1,1,0,6,162.869431
-1798,386,2,0,0,0,692.439575
111,-645,1,0,0,0,1008.738342
-868,611,2,0,0,0,850.208435
1367,-691,1,0,0,0,763.984863
-1729,-257,2,1,0,4,111.451042
213,-1922,1,0,0,0,697.161926
-691,-585,2,0,0,0,895.998230
1590,1670,1,0,0,0,646.867493
-1470,-1190,2,0,0,0,684.412109
1831,-298,1,0,0,0,709.054810
-29,-1751,2,0,0,0,706.432495
1187,-761,1,0,0,0,787.766724
-748,536,2,0,0,0,891.316284
1233,-892,1,0,0,0,765.845703
-16,-644,2,0,0,0,994.057190
811,551,1,0,0,0,892.278931
-727,-1804,2,0,0,0,676.408386
312,625,1,0,0,0,989.955383
-1003,996,2,0,0,0,767.874329
1008,125,1,0,0,0,882.108948
-505,1012,2,0,0,0,831.957581
1453,1921,1,1,0,6,95.220192
-1162,-1761,2,1,0,4,123.469467
987,805,1,0,0,0,816.997681
-253,1935,2,1,0,5,157.787094
861,-174,1,1,0,3,180.254166
-293,583,2,1,0,5,223.356949
1931,-1483,1,0,0,0,631.359863
-1367,598,2,0,0,0,752.347778
1382,-1606,1,1,0,3,161.906494
-1531,-1994,2,1,0,4,94.971344
1649,574,1,1,0,6,170.442581
-558,-1380,2,0,0,0,753.028076
612,-1088,1,0,0,0,822.776184
-1091,1084,2,0,0,0,743.656494
968,745,1,0,0,0,829.022644
-1231,-155,2,0,0,0,805.334473
1123,-571,1,0,0,0,820.135620
-659,982,2,0,0,0,819.121521
1888,1167,1,0,0,0,657.754761
-1966,1181,2,0,0,0,629.372742
1966,-1754,1,0,0,0,608.897278
-77,204,2,0,0,0,1306.499146
198,-1667,1,0,0,0,737.689087
-326,1041,2,0,0,0,842.355774
206,1765,1,1,0,5,140.742035
-1808,-1641,2,0,0,0,611.548401
516,783,1,0,0,0,905.112488
-1934,-1482,2,0,0,0,612.147400
396,-751,1,0,0,0,933.743103
-1210,509,2,0,0,0,789.127502
426,-1752,1,0,0,0,717.206787
-1662,-1870,2,0,0,0,604.629272
1113,-924,1,0,0,0,780.411621
-491,831,2,1,0,5,310.435944
1968,-650,1,0,0,0,677.332031
-1173,-236,2,0,0,0,815.766663
1122,97,1,0,0,0,852.394165
-1829,-1607,2,0,0,0,612.363281
1253,-1632,1,1,0,3,165.097397
-161,1528,2,0,0,0,743.937683
976,1720,1,1,0,6,113.172813
-1503,1322,2,1,0,5,188.765686
706,1186,1,0,0,0,793.898010
-1566,1419,2,1,0,5,174.987747
313,-1621,1,1,0,3,145.500381
-1371,-342,2,0,0,0,767.976501
1626,-1934,1,0,0,0,620.804077
-605,-600,2,0,0,0,913.473694
1647,-623,1,0,0,0,723.986755
-626,-206,2,1,0,4,162.085403
991,1886,1,0,0,0,669.450195
-625,1981,2,0,0,0,657.610352
1845,-349,1,1,0,3,146.163483
-216,1570,2,0,0,0,735.054382
1399,81,1,0,0,0,789.535583
-1627,1722,2,0,0,0,620.137756
636,1526,1,0,0,0,742.077148
-1893,-34,2,0,0,0,684.108337
440,695,1,1,0,6,167.714554
-11,1485,2,1,0,5,179.471451
220,-489,1,0,0,0,1066.205566
-22,-492,2,0,0,0,1071.477539
1722,950,1,0,0,0,692.333191
-974,-292,2,0,0,0,862.576355
883,-1428,1,1,0,3,198.040573
-1008,-1616,2,0,0,0,682.406616
1844,277,1,0,0,0,707.576843
-1500,455,2,0,0,0,738.202209
88,1059,1,1,0,5,185.659836
-1884,-207,2,0,0,0,683.801636
1044,1065,1,0,0,0,771.651917
-1158,-800,2,0,0,0,769.105408
1694,792,1,0,0,0,706.762268
-1892,-1688,2,0,0,0,600.825500
361,-1296,1,0,0,0,801.256226
-1493,1729,2,0,0,0,630.499268
1817,299,1,0,0,0,711.171021
-1851,-1124,2,0,0,0,645.731628
1179,-1303,1,1,0,3,214.184616
-1223,-48,2,0,0,0,809.248535
518,-1354,1,0,0,0,779.788635
-228,1367,2,0,0,0,773.543213
1268,-1981,1,1,0,3,133.223923
-904,140,2,0,0,0,893.023743
1439,-272,1,0,0,0,776.875427
-454,-1100,2,0,0,0,817.332581
602,520,1,1,0,6,196.310333
-1165,-847,2,1,0,4,205.002563
1698,-1610,1,0,0,0,642.683472
-1466,-528,2,1,0,4,145.451721
117,-1957,1,0,0,0,693.233093
-1512,-481,2,0,0,0,734.715393
1017,-1971,1,0,0,0,657.966431
-52,1186,2,0,0,0,818.026367
1652,-337,1,0,0,0,736.443848
-725,731,2,0,0,0,858.996277
683,-1959,1,1,0,3,134.727097
-690,1121,2,0,0,0,788.332764
467,30,1,0,0,0,1105.465210
-1414,1667,2,0,0,0,643.058960
1167,227,1,1,0,6,210.650085
-1046,-1623,2,0,0,0,678.490540
322,1274,1,1,0,5,152.586136
-1275,-391,2,0,0,0,784.587830
383,454,1,0,0,0,1036.705444
-219,570,2,0,0,0,1009.486816
1996,-1113,1,0,0,0,649.417664
-1503,-292,2,1,0,4,129.295288
1308,1981,1,0,0,0,638.578979
-11,-397,2,0,0,0,1133.528809
1482,-676,1,0,0,0,746.331421
-1246,-733,2,0,0,0,761.427185
15,994,1,1,0,5,197.109116
-1707,89,2,0,0,0,713.372681
1793,1496,1,0,0,0,643.268616
-958,548,2,0,0,0,838.997192
1120,-928,1,0,0,0,778.838989
-447,398,2,0,0,0,1015.263672
265,314,1,0,0,0,1142.986084
-1311,-1931,2,0,0,0,624.383118
734,164,1,0,0,0,968.666870
-567,1326,2,1,0,5,286.492920
474,-970,1,0,0,0,864.546692
-1621,-1614,2,0,0,0,630.113403
1654,1037,1,1,0,6,150.213455
-1940,-1570,2,0,0,0,605.326721
1998,1224,1,1,0,6,112.196777
-782,582,2,0,0,0,874.724487
1265,205,1,0,0,0,815.231018
-1013,1420,2,1,0,5,251.060455
1351,-1117,1,0,0,0,725.279907
-633,1865,2,0,0,0,672.827759
310,1403,1,0,0,0,782.348877
-1844,1767,2,0,0,0,598.772339
1626,-338,1,0,0,0,740.773987
-1008,998,2,0,0,0,766.868835
1206,568,1,0,0,0,803.890747
-812,-1352,2,1,0,4,186.368805
716,-1319,1,0,0,0,769.839355
-1154,1694,2,0,0,0,661.420837
149,-1731,1,0,0,0,727.836609
-986,1185,2,0,0,0,742.985962
1567,1513,1,0,0,0,663.122742
-795,-638,2,0,0,0,861.864197
1138,-1821,1,0,0,0,667.201477
-770,976,2,1,0,5,601.214294
1458,1895,1,0,0,0,636.530823
-1803,1420,2,0,0,0,629.175537
1519,-484,1,0,0,0,752.501282
-5,-46,2,0,0,0,1753.776733
338,1241,1,0,0,0,814.177917
-1776,-80,2,0,0,0,702.122192
1317,1521,1,0,0,0,685.820862
-373,-1674,2,0,0,0,712.413208
1373,1437,1,0,0,0,689.320496
-512,-924,2,0,0,0,851.597290
118,-346,1,0,0,0,1176.689453
-702,808,2,0,0,0,847.812195
777,1992,1,0,0,0,668.424194
-496,-1588,2,0,0,0,721.130920
551,-1798,1,0,0,0,705.153625
-482,-553,2,0,0,0,956.612976
115,-1912,1,0,0,0,699.885315
-879,-1349,2,0,0,0,730.510010
1516,841,1,1,0,6,182.939865
-1213,1930,2,1,0,5,160.054382
351,1215,1,0,0,0,819.029846
-905,955,2,0,0,0,788.472839
1892,-1333,1,1,0,3,144.110397
-1572,-182,2,0,0,0,735.468750
208,576,1,1,0,5,159.055817
-1076,-1741,2,0,0,0,661.846008
363,477,1,0,0,0,1034.076538
-1883,1256,2,0,0,0,633.123535
1350,1339,1,0,0,0,701.990112
-287,1364,2,0,0,0,771.893799
687,-271,1,0,0,0,973.918030
-355,1285,2,0,0,0,784.689270
1306,-1699,1,0,0,0,667.786682
-537,826,2,0,0,0,871.667786
735,-948,1,0,0,0,834.236023
-711,1221,2,0,0,0,767.993896
874,1102,1,1,0,6,181.638596
-1309,1088,2,0,0,0,714.581116
963,1751,1,1,0,6,110.709877
-359,1748,2,0,0,0,701.047852
95,-1007,1,0,0,0,883.315979
-221,1939,2,0,0,0,675.443665
1142,-443,1,0,0,0,828.218506
-325,310,2,0,0,0,1098.051270
357,-1545,1,1,0,3,153.690033
-322,1821,2,0,0,0,690.843994
938,-754,1,0,0,0,833.296387
-1240,-1308,2,1,0,4,159.999496
1459,1223,1,0,0,0,701.634521
-1847,351,2,0,0,0,686.117065
917,-1496,1,0,0,0,724.999634
-735,1288,2,0,0,0,754.106750
849,-1508,1,0,0,0,728.966248
-1596,529,2,0,0,0,718.093506
193,1295,1,0,0,0,809.060913
-340,-1715,2,0,0,0,706.901123
886,-677,1,0,0,0,855.254944
-189,939,2,0,0,0,879.781494
875,1534,1,1,0,6,128.047134
-75,-935,2,1,0,4,158.678787
671,1548,1,0,0,0,736.248657
-189,1168,2,0,0,0,818.983887
704,-666,1,0,0,0,895.635010
-322,1724,2,0,0,0,706.012146
1902,245,1,0,0,0,699.547791
-1636,-389,2,0,0,0,718.054993
1155,-596,1,1,0,3,254.694260
-1439,73,2,0,0,0,762.375305
707,335,1,0,0,0,957.302185
-1124,-405,2,0,0,0,816.191528
1802,797,1,0,0,0,691.793091
-1614,-279,2,1,0,4,120.320061
182,699,1,0,0,0,980.315735
-245,1585,2,0,0,0,731.630981
306,1108,1,1,0,5,157.493195
-318,-1885,2,0,0,0,681.352844
1526,1377,1,1,0,6,131.843414
-359,1374,2,0,0,0,766.534668
1168,111,1,0,0,0,840.611145
-1206,-952,2,1,0,4,193.822769
1257,1306,1,0,0,0,715.685669
-928,1214,2,0,0,0,745.509338
1090,1708,1,0,0,0,683.805908
-816,1493,2,0,0,0,714.695862
1230,-1537,1,0,0,0,692.056702
-1545,-906,2,0,0,0,699.996460
1477,-1729,1,0,0,0,650.840271
-1566,-35,2,0,0,0,738.403259
340,1363,1,0,0,0,788.834473
-282,394,2,0,0,0,1076.183228
1107,-621,1,1,0,3,269.631897
-574,636,2,0,0,0,911.905945
50,1139,1,1,0,5,189.810379
-991,-107,2,0,0,0,868.313721
1231,-1413,1,0,0,0,706.148254
-274,-1754,2,0,0,0,702.529602
15,-1426,1,0,0,0,784.508362
-640,329,2,0,0,0,962.151123
184,-327,1,1,0,0,222.472595
-1631,-1400,2,0,0,0,647.858521
697,535,1,0,0,0,923.855896
-362,1937,2,0,0,0,672.676880
743,1399,1,0,0,0,754.340149
-1513,-1546,2,0,0,0,646.044800
1000,1348,1,0,0,0,737.739441
-1280,1963,2,0,0,0,623.230713
880,1546,1,1,0,6,127.018112
-1512,-1108,2,1,0,4,143.208008
1710,-716,1,0,0,0,709.246765
-1549,-1639,2,0,0,0,634.170837
1814,1806,1,0,0,0,617.107971
-1990,81,2,1,0,5,114.596786
1167,-1574,1,1,0,3,174.789902
-1883,-422,2,0,0,0,678.662048
1201,1473,1,0,0,0,702.120422
-125,1568,2,0,0,0,737.200378
437,-529,1,1,0,3,188.760178
-1985,1724,2,0,0,0,590.534851
1576,-432,1,0,0,0,745.409851
-1306,-1834,2,0,0,0,634.634399
843,-1885,1,0,0,0,678.389038
-808,-987,2,0,0,0,797.376648
1695,337,1,0,0,0,729.362915
-399,-360,2,0,0,0,1046.313477
1150,424,1,0,0,0,828.040161
-891,1902,2,0,0,0,654.453308
386,810,1,0,0,0,917.816406
-1151,-459,2,0,0,0,805.699585
730,858,1,0,0,0,852.306763
-182,750,2,0,0,0,941.989380
41,1788,1,0,0,0,719.532959
-1816,-1128,2,0,0,0,649.408386
95,-238,1,0,0,0,1279.175171
-1244,-1188,2,0,0,0,711.564758
997,-1908,1,1,0,3,142.273758
-1279,-1717,2,1,0,4,122.063248
563,-1784,1,0,0,0,706.650818
-1314,-14,2,1,0,5,147.004684
698,-1436,1,0,0,0,752.067993
-1292,-326,2,0,0,0,784.827576
296,411,1,0,0,0,1082.645874
-431,847,2,0,0,0,882.038391
502,1257,1,0,0,0,799.510803
-1922,1475,2,0,0,0,613.760803
1,823,1,0,0,0,942.707092
-1999,-944,2,0,0,0,639.847412
1008,1831,1,0,0,0,674.919922
-1727,1740,2,0,0,0,610.398987
133,1071,1,0,0,0,864.651367
-765,-1724,2,0,0,0,685.197998
1479,-1822,1,0,0,0,641.856812
-1276,-995,2,1,0,4,179.261520
801,803,1,0,0,0,850.353516
-1414,504,2,1,0,5,187.307190
407,108,1,1,0,0,184.779480
-63,756,2,0,0,0,946.939575
1775,634,1,1,0,6,152.688004
-1319,-509,2,0,0,0,767.815613
1167,-1503,1,1,0,3,183.908707
-177,169,2,0,0,0,1273.201294
741,1014,1,1,0,6,184.387283
-894,-1694,2,0,0,0,680.785645
1601,695,1,0,0,0,726.528992
-89,1896,2,0,0,0,683.386841
1639,-1238,1,0,0,0,679.903015
-1271,-1723,2,1,0,4,121.974800
598,1969,1,0,0,0,679.375366
-1627,1957,2,0,0,0,599.769653
573,-921,1,0,0,0,863.195740
-1304,1954,2,0,0,0,622.538574
1056,1987,1,0,0,0,653.843018
-1429,-944,2,0,0,0,712.814575
1691,-343,1,0,0,0,729.817688
-125,1627,2,0,0,0,726.674011
533,1430,1,0,0,0,765.039978
-351,-1244,2,1,0,4,176.700256
1156,886,1,0,0,0,778.449219
-1553,409,2,0,0,0,731.250183
96,373,1,0,0,0,1161.633667
-76,1770,2,0,0,0,703.117615
1278,1957,1,0,0,0,643.000610
-184,27,2,0,0,0,1352.409302
718,-1244,1,1,0,3,218.320084
-273,-442,2,0,0,0,1056.075562
1039,-1962,1,0,0,0,657.681030
-284,399,2,0,0,0,1073.086182
1386,1563,1,0,0,0,675.072327
-1637,-73,2,1,0,5,126.061394
1666,-830,1,0,0,0,708.097046
-915,-1071,2,0,0,0,768.866272
56,-1365,1,0,0,0,796.844727
-1824,-1946,2,0,0,0,586.459717
1568,171,1,1,0,6,159.742157
-1380,1105,2,0,0,0,703.723267
819,591,1,0,0,0,883.743347
-1234,1494,2,1,0,5,209.542633
133,-257,1,0,0,0,1244.113647
-907,-1183,2,0,0,0,752.615967
-1220,-1020,2,0,0,0,734.073303
-1121,-952,2,0,0,0,756.490295
-1183,1067,2,0,0,0,733.553955
-945,-91,2,0,0,0,882.335815
-382,-676,2,1,0,4,206.828049
-726,198,2,0,0,0,949.267517
-1139,730,2,0,0,0,780.470886
-1726,-1200,2,0,0,0,654.208069
-1269,1379,2,0,0,0,687.034973
-654,1379,2,0,0,0,745.855347
-765,-517,2,0,0,0,890.347900
-1099,-453,2,1,0,4,182.234024
-1426,1723,2,0,0,0,636.530029
-60,260,2,1,0,0,331.309845
-712,-1538,2,0,0,0,715.814514
-1876,416,2,0,0,0,679.870605
-1695,-1625,2,1,0,4,105.716591
-1170,-1556,2,0,0,0,676.140747
-365,565,2,0,0,0,981.603088
-584,-1637,2,0,0,0,708.597412
-1768,1260,2,1,0,5,158.711075
-1401,-361,2,0,0,0,761.199768
-29,-974,2,1,0,4,151.954025
-1398,975,2,0,0,0,714.195862
-665,1964,2,0,0,0,658.122925
-1074,-654,2,0,0,0,801.483459


each generation good chromosome number
10,10,10,