the max average throughput times

BS TX power
MBS area 1,MBS area 2,MBS area 3,MBS area 4,CBSD 1,CBSD 2,CBSD 3,CBSD 4,CBSD 5,CBSD 6,CBSD 7,CBSD 8,CBSD 9,
8.750,8.750,8.750,8.750,0.000,0.500,0.000,0.000,0.000,0.000,0.000,0.000,0.750,
max average power
604.697876

x,y,area,be blocked (1 : NLOS / 0 : LOS),be blocked number (>=1 : CBSD(x) / 0 : no),connect bs number (>=1 : CBSD / 0 : MBS),throughput (unit : M bps)
174,657,1,0,0,0,978.616272
-535,1043,2,0,0,0,821.665771
-1883,-1058,3,1,0,9,73.286949
229,-1843,4,0,0,0,689.620544
488,1434,1,0,0,0,748.018127
-1029,807,2,0,0,0,790.223083
-1905,-621,3,1,0,9,73.286949
278,-1087,4,0,0,0,834.260010
1994,522,1,1,0,2,97.120094
-277,1776,2,0,0,0,698.971741
-1128,-1204,3,0,0,0,723.520020
529,-1153,4,0,0,0,798.955872
1168,862,1,0,0,0,760.233032
-1007,1853,2,0,0,0,653.287964
-161,-1384,3,0,0,0,772.003784
441,-1970,4,0,0,0,665.768555
1386,1829,1,0,0,0,629.201599
-962,284,2,0,0,0,866.504517
-1523,-54,3,0,0,0,746.281738
804,-1814,4,0,0,0,670.703491
1472,992,1,0,0,0,702.563538
-578,583,2,1,0,9,73.286949
-1054,-1547,3,1,0,9,73.286949
532,-457,4,0,0,0,969.564270
1580,1441,1,1,0,2,97.120094
-27,212,2,0,0,0,1312.293701
-451,-136,3,0,0,0,1084.308350
1274,-616,4,0,0,0,767.550781
1216,731,1,0,0,0,766.801270
-1416,292,2,0,0,0,761.391846
-1666,-1865,3,0,0,0,604.751099
1651,-15,4,0,0,0,723.308289
1770,649,1,0,0,0,685.330688
-1880,1695,2,0,0,0,601.303101
-639,-1689,3,0,0,0,697.642883
1231,-1679,4,0,0,0,656.969604
1262,1003,1,0,0,0,730.166992
-1666,93,2,1,0,9,73.286949
-2000,-977,3,0,0,0,637.895142
551,-553,4,1,0,2,97.120094
427,909,1,0,0,0,866.145752
-1495,1053,2,0,0,0,694.054810
-1661,-1382,3,0,0,0,646.363525
942,-1211,4,1,0,2,97.120094
444,84,1,0,0,0,1096.298584
-836,1891,2,0,0,0,658.947083
-571,-1132,3,0,0,0,799.115417
1599,-552,4,0,0,0,716.358337
1643,430,1,0,0,0,715.219299
-142,1619,2,0,0,0,727.832092
-279,-66,3,0,0,0,1227.531982
1819,-375,4,0,0,0,689.608521
1439,1545,1,1,0,2,97.120094
-1971,1109,2,0,0,0,633.360291
-1539,-243,3,0,0,0,739.931763
1763,-470,4,1,0,2,97.120094
1910,613,1,0,0,0,667.585693
-1215,107,2,0,0,0,810.245972
-716,-1587,3,0,0,0,708.105347
634,-362,4,0,0,0,957.993958
1718,1546,1,0,0,0,627.177063
-25,1880,2,1,0,9,73.286949
-1972,-1707,3,0,0,0,592.806030
1694,-1634,4,0,0,0,621.996460
1191,1937,1,0,0,0,631.816528
-909,1048,2,0,0,0,773.251099
-1661,-642,3,1,0,9,73.286949
387,-1645,4,0,0,0,716.644531
215,629,1,0,0,0,985.014221
-1907,396,2,1,0,9,73.286949
-1032,-516,3,1,0,9,73.286949
1754,-1489,4,0,0,0,628.462463
1123,1107,1,0,0,0,736.487671
-1092,1356,2,0,0,0,708.106628
-497,-870,3,0,0,0,866.818237
1908,-1604,4,1,0,2,97.120094
149,331,1,0,0,0,1159.471924
-1089,764,2,1,0,9,73.286949
-1770,-1090,3,0,0,0,657.411682
1569,-561,4,0,0,0,720.680054
974,729,1,0,0,0,810.978027
-1417,1488,2,1,0,9,73.286949
-1298,-982,3,0,0,0,727.409302
1792,-1028,4,0,0,0,659.171814
1292,1173,1,0,0,0,707.447021
-1369,1746,2,0,0,0,638.814636
-293,-1758,3,1,0,9,73.286949
1154,-1973,4,0,0,0,630.336548
945,1239,1,0,0,0,739.897766
-997,359,2,1,0,9,73.286949
-1663,-701,3,0,0,0,697.821655
596,-585,4,1,0,2,97.120094
578,900,1,0,0,0,848.011353
-578,1427,2,1,0,9,73.286949
-298,-530,3,0,0,0,1010.712646
1145,-1966,4,1,0,9,73.286949
335,1465,1,0,0,0,750.290222
-433,1859,2,0,0,0,681.783142
-1147,-1299,3,0,0,0,709.444519
1539,-1464,4,0,0,0,651.244141
1820,42,1,0,0,0,695.330383
-1378,118,2,1,0,9,73.286949
-102,-537,3,0,0,0,1041.419556
1074,-606,4,0,0,0,807.088806
1104,1081,1,1,0,2,97.120094
-1278,1156,2,1,0,9,73.286949
-585,-1735,3,0,0,0,693.686829
867,-1474,4,0,0,0,713.245605
560,840,1,0,0,0,864.642761
-884,819,2,0,0,0,813.713745
-118,-1101,3,0,0,0,838.048828
1331,-1820,4,0,0,0,634.219910
552,550,1,0,0,0,939.215454
-609,1865,2,1,0,9,73.286949
-65,-1910,3,1,0,9,73.286949
127,-1783,4,1,0,9,73.286949
1999,280,1,0,0,0,665.802917
-1757,1413,2,1,0,9,73.286949
-1120,-1381,3,0,0,0,702.077637
1050,-1796,4,1,0,2,97.120094
191,1495,1,0,0,0,749.463257
-629,385,2,0,0,0,955.086243
-600,-1815,3,0,0,0,681.357605
1224,-1242,4,0,0,0,707.656555
1046,1119,1,1,0,2,97.120094
-1712,1852,2,0,0,0,602.339172
-1064,-389,3,1,0,9,73.286949
46,-934,4,0,0,0,886.686829
341,825,1,1,0,2,97.120094
-85,1216,2,0,0,0,810.419434
-1801,-8,3,0,0,0,698.407532
11,-1432,4,0,0,0,764.135620
340,1706,1,0,0,0,708.350647
-1317,318,2,1,0,9,73.286949
-541,-341,3,0,0,0,996.166748
1077,-1177,4,0,0,0,733.143372
738,1950,1,0,0,0,656.550537
-678,616,2,0,0,0,892.624390
-557,-1056,3,0,0,0,816.394836
1680,-748,4,0,0,0,692.434998
1530,1716,1,0,0,0,628.680176
-508,28,2,1,0,9,73.286949
-1193,-1247,3,0,0,0,710.630066
111,-144,4,0,0,0,1358.927856
1431,590,1,0,0,0,741.817627
-915,37,2,1,0,9,73.286949
-197,-1685,3,1,0,9,73.286949
1515,-1673,4,0,0,0,633.934509
292,528,1,1,0,2,97.120094
-376,1349,2,1,0,9,73.286949
-664,-609,3,0,0,0,897.397705
552,-1611,4,0,0,0,714.442688
784,1815,1,0,0,0,671.728149
-705,477,2,1,0,9,73.286949
-125,-1211,3,0,0,0,810.781067
39,-47,4,0,0,0,1673.688110
1197,747,1,0,0,0,768.393188
-1170,1643,2,0,0,0,666.015259
-1236,-1158,3,0,0,0,716.000488
1448,-941,4,1,0,2,97.120094
1384,180,1,0,0,0,771.525513
-481,1527,2,0,0,0,732.142456
-1345,-828,3,0,0,0,736.025208
1019,-1889,4,0,0,0,648.275330
1357,1565,1,1,0,2,97.120094
-1386,1369,2,1,0,9,73.286949
-1534,-424,3,0,0,0,733.839294
1469,-350,4,0,0,0,748.898743
332,908,1,1,0,2,97.120094
-668,14,2,0,0,0,983.536743
-686,-532,3,0,0,0,908.101624
1240,-1999,4,0,0,0,622.150452
122,1643,1,0,0,0,723.924316
-697,1176,2,0,0,0,777.476135
-1709,-266,3,1,0,9,73.286949
109,-1721,4,1,0,2,97.120094
915,808,1,0,0,0,810.012878
-1508,1064,2,0,0,0,691.412537
-171,-1989,3,0,0,0,668.959290
1360,-1098,4,0,0,0,706.977112
161,721,1,0,0,0,954.584839
-1858,21,2,1,0,9,73.286949
-1644,-1429,3,0,0,0,644.062500
1954,-504,4,0,0,0,665.882507
1619,855,1,0,0,0,693.697876
-1720,1704,2,0,0,0,613.947144
-1290,-259,3,0,0,0,788.461975
959,-1682,4,0,0,0,677.704468
354,912,1,0,0,0,873.696350
-1356,1705,2,1,0,9,73.286949
-1855,-369,3,0,0,0,684.404846
1199,-1755,4,1,0,2,97.120094
116,332,1,0,0,0,1168.601440
-515,1157,2,1,0,9,73.286949
-1125,-618,3,0,0,0,795.576050
1066,-1998,4,0,0,0,632.980835
1557,1517,1,0,0,0,644.641724
-427,255,2,0,0,0,1068.648682
-1373,-1700,3,0,0,0,643.153137
746,-667,4,0,0,0,867.177551
445,827,1,0,0,0,885.460510
-97,446,2,0,0,0,1093.408936
-1595,-1327,3,1,0,9,73.286949
718,-1672,4,0,0,0,695.462341
521,71,1,0,0,0,1052.598145
-149,882,2,0,0,0,899.479187
-1224,-1881,3,1,0,9,73.286949
1147,-1409,4,0,0,0,695.904602
273,1974,1,0,0,0,669.467773
-523,106,2,1,0,9,73.286949
-945,-1219,3,0,0,0,742.831238
410,-748,4,0,0,0,913.160767
167,68,1,0,0,0,1361.321411
-476,589,2,1,0,9,73.286949
-1936,-1223,3,0,0,0,629.809082
1058,-588,4,1,0,2,97.120094
642,1541,1,0,0,0,720.146179
-615,631,2,0,0,0,903.816101
-1954,-1792,3,0,0,0,588.154175
1955,-612,4,0,0,0,661.583374
783,1235,1,0,0,0,758.133789
-613,383,2,1,0,9,73.286949
-1800,-651,3,1,0,9,73.286949
853,-1626,4,0,0,0,692.876648
918,114,1,0,0,0,889.807678
-1047,488,2,0,0,0,825.883789
-88,-1268,3,0,0,0,798.392700
1187,-334,4,0,0,0,807.106506
164,1313,1,0,0,0,786.837769
-124,1767,2,0,0,0,703.163635
-146,-1257,3,0,0,0,799.661743
1100,-1600,4,0,0,0,676.898376
567,541,1,0,0,0,937.572327
-1494,1500,2,0,0,0,652.189148
-607,-1469,3,0,0,0,734.209106
1632,-1999,4,0,0,0,595.825317
1485,1412,1,0,0,0,661.501831
-367,92,2,0,0,0,1147.513672
-1338,-1762,3,1,0,9,73.286949
1815,-254,4,0,0,0,693.418335
1587,647,1,0,0,0,712.619324
-1283,1384,2,0,0,0,685.031433
-1055,-1148,3,0,0,0,739.733459
882,-90,4,0,0,0,902.039551
691,672,1,0,0,0,877.969421
-26,1704,2,0,0,0,714.232056
-149,-1928,3,0,0,0,678.064087
669,-1415,4,0,0,0,738.625244
1954,1123,1,0,0,0,634.352051
-691,1525,2,0,0,0,719.312500
-236,-281,3,1,0,0,214.954773
1301,-1212,4,0,0,0,702.078186
1348,241,1,1,0,2,97.120094
-198,1870,2,0,0,0,686.056824
-422,-1726,3,0,0,0,702.277100
1488,-302,4,1,0,2,97.120094
784,1024,1,0,0,0,794.214783
-1079,389,2,0,0,0,827.923157
-1920,-1551,3,1,0,9,73.286949
638,-1798,4,0,0,0,681.921265
1513,749,1,1,0,2,97.120094
-1413,882,2,1,0,9,73.286949
-1019,-1214,3,0,0,0,735.020142
28,-1037,4,1,0,9,73.286949
1812,812,1,0,0,0,670.497375
-518,396,2,1,0,9,73.286949
-282,-1073,3,0,0,0,837.495483
904,-657,4,1,0,2,97.120094
118,786,1,0,0,0,933.513794
-422,1943,2,0,0,0,670.112366
-1704,-240,3,0,0,0,711.451782
1306,-552,4,0,0,0,766.992188
324,521,1,0,0,0,1008.118713
-384,1476,2,1,0,9,73.286949
-551,-648,3,1,0,9,73.286949
1283,-1723,4,0,0,0,648.023682
144,1756,1,0,0,0,704.695618
-1275,1528,2,0,0,0,669.856812
-317,-945,3,1,0,9,73.286949
1164,-1921,4,0,0,0,635.312317
401,1480,1,0,0,0,744.516541
-1950,834,2,0,0,0,651.679993
-392,-1102,3,1,0,9,73.286949
175,-881,4,1,0,9,73.286949
1665,849,1,1,0,2,97.120094
-463,1741,2,0,0,0,698.328796
-592,-522,3,0,0,0,935.528137
1301,-1047,4,0,0,0,720.045227
154,1728,1,0,0,0,709.126038
-135,1169,2,0,0,0,820.549133
-262,-905,3,0,0,0,884.530640
1282,-94,4,0,0,0,795.157043
87,1427,1,0,0,0,764.615540
-541,1850,2,0,0,0,678.992310
-1830,-483,3,0,0,0,684.204834
506,-731,4,1,0,2,97.120094
1582,424,1,0,0,0,725.614990
-581,1203,2,1,0,9,73.286949
-1966,-1738,3,0,0,0,591.081665
112,-1410,4,1,0,9,73.286949
579,1219,1,0,0,0,781.180420
-1179,1092,2,1,0,9,73.286949
-1875,-1197,3,0,0,0,638.070435
190,-1325,4,0,0,0,783.524231
1040,802,1,0,0,0,788.992249
-375,1282,2,1,0,9,73.286949
-224,-1684,3,0,0,0,715.135742
384,-792,4,0,0,0,904.125427
356,1164,1,0,0,0,810.831055
-231,488,2,0,0,0,1044.969971
-279,-769,3,0,0,0,925.211365
1938,-1501,4,0,0,0,610.429443
1477,1009,1,0,0,0,700.365051
-423,1458,2,0,0,0,747.382263
-1278,-123,3,0,0,0,795.500854
263,-426,4,0,0,0,1066.743042
1732,1216,1,1,0,2,97.120094
-961,1336,2,0,0,0,724.237061
-1730,-1187,3,0,0,0,654.764709
669,-969,4,0,0,0,820.369019
801,735,1,0,0,0,843.342041
-883,970,2,0,0,0,789.343811
-1983,-1655,3,1,0,9,73.286949
182,-1365,4,0,0,0,775.373657
877,1962,1,0,0,0,647.907654
-1679,548,2,0,0,0,704.002136
-821,-1631,3,1,0,9,73.286949
1854,-1953,4,0,0,0,583.743042
1551,1234,1,0,0,0,671.017761
-1167,1437,2,0,0,0,690.545715
-1840,-846,3,1,0,9,73.286949
1490,-958,4,1,0,2,97.120094
1056,1845,1,0,0,0,651.012024
-571,485,2,0,0,0,950.548889
-280,-1727,3,0,0,0,706.708923
1033,-534,4,0,0,0,823.968506
695,769,1,0,0,0,857.054688
-1094,1578,2,1,0,9,73.286949
-496,-1962,3,0,0,0,665.066467
254,-779,4,0,0,0,924.748291
1546,1111,1,0,0,0,682.528198
-1132,719,2,0,0,0,782.991333
-92,-1732,3,1,0,9,73.286949
1387,-1202,4,0,0,0,693.000366
24,303,1,1,0,0,281.719696
-1882,985,2,0,0,0,651.233582
-505,-1770,3,0,0,0,692.180664
213,-12,4,1,0,0,420.871887
1791,721,1,0,0,0,678.518372
-84,1119,2,1,0,9,73.286949
-955,-1778,3,0,0,0,665.841064
547,-1815,4,0,0,0,683.756653
1778,1414,1,0,0,0,632.085876
-233,1408,2,1,0,2,97.120094
-1533,-285,3,0,0,0,739.710815
1513,-1246,4,0,0,0,674.206116
242,1619,1,0,0,0,725.763306
-226,923,2,0,0,0,882.064697
-347,-753,3,1,0,9,73.286949
1517,-665,4,0,0,0,722.391907
877,756,1,0,0,0,825.205017
-1212,1770,2,0,0,0,648.425171
-1733,-1417,3,0,0,0,636.274658
709,-1498,4,1,0,2,97.120094
641,895,1,1,0,2,97.120094
-1209,320,2,0,0,0,803.047241
-492,-909,3,0,0,0,857.866089
760,-705,4,0,0,0,857.022583
1460,130,1,0,0,0,757.451782
-1361,554,2,0,0,0,756.736328
-341,-1109,3,0,0,0,824.616699
1334,-1937,4,0,0,0,622.203979
1948,1030,1,0,0,0,640.770081
-759,1898,2,0,0,0,662.200256
-527,-1370,3,0,0,0,757.042908
1754,-33,4,0,0,0,705.930908
561,103,1,0,0,0,1029.143555
-711,356,2,0,0,0,933.391357
-1382,-1835,3,1,0,9,73.286949
1163,-1907,4,0,0,0,636.900635
1878,1272,1,1,0,2,97.120094
-742,757,2,0,0,0,850.608765
-236,-1787,3,0,0,0,698.169617
1297,-1717,4,0,0,0,647.546082
1199,1337,1,0,0,0,699.225952
-1676,1503,2,0,0,0,634.668457
-27,-583,3,0,0,0,1022.523926
97,-61,4,1,0,0,683.135132
609,1332,1,0,0,0,757.678711
-1389,860,2,0,0,0,726.342407
-1289,-257,3,0,0,0,788.762085
1115,-1344,4,0,0,0,707.241699
1983,1672,1,1,0,2,97.120094
-1739,1512,2,0,0,0,628.016174
-682,-1645,3,0,0,0,701.644104
1073,-611,4,0,0,0,806.717163
210,991,1,0,0,0,863.660400
-461,1265,2,0,0,0,781.848755
-494,-689,3,0,0,0,914.922607
521,-1155,4,0,0,0,799.294189
81,1393,1,0,0,0,771.587830
-70,513,2,0,0,0,1057.053223
-801,-1528,3,0,0,0,710.720093
610,-1162,4,0,0,0,789.197388
404,1340,1,1,0,2,97.120094
-666,129,2,1,0,9,73.286949
-1806,-533,3,0,0,0,685.668091
1165,-809,4,0,0,0,766.894531
89,758,1,0,0,0,945.202942
-1151,645,2,0,0,0,787.664001
-1711,-1340,3,0,0,0,644.714905
1485,-1260,4,0,0,0,676.035522
1873,1993,1,0,0,0,579.343750
-658,607,2,0,0,0,899.247742
-1230,-1416,3,0,0,0,686.792725
1889,-37,4,0,0,0,684.704773
502,1528,1,0,0,0,730.822998
-1963,432,2,0,0,0,667.014221
-716,-401,3,0,0,0,924.298462
1391,-545,4,0,0,0,751.986572
1946,638,1,0,0,0,661.672180
-1656,1784,2,1,0,9,73.286949
-1339,-1628,3,0,0,0,653.427612
1019,-935,4,0,0,0,774.149170
154,242,1,0,0,0,1227.386475
-1405,1691,2,0,0,0,641.420776
-1229,-468,3,0,0,0,788.604614
1558,-1479,4,0,0,0,648.023926
1008,1690,1,1,0,2,97.120094
-1861,605,2,1,0,9,73.286949
-831,-1782,3,1,0,9,73.286949
937,-1336,4,0,0,0,726.667969
990,1470,1,1,0,2,97.120094
-76,1862,2,0,0,0,688.639709
-304,-274,3,1,0,9,73.286949
1924,-881,4,0,0,0,652.319763
838,1431,1,1,0,2,97.120094
-329,539,2,0,0,0,999.807129
-1051,-1515,3,0,0,0,691.678955
556,-1811,4,0,0,0,683.938782
1186,1413,1,0,0,0,691.538452
-890,67,2,1,0,9,73.286949
-1970,-1105,3,0,0,0,633.717224
1130,-86,4,0,0,0,831.382263
1957,139,1,1,0,2,97.120094
-1906,126,2,0,0,0,681.573608
-1787,-71,3,0,0,0,700.418640
313,-1148,4,0,0,0,817.357300
1126,148,1,0,0,0,830.769348
-548,356,2,0,0,0,989.932861
-847,-1494,3,0,0,0,712.022461
1101,-1851,4,0,0,0,647.296692
743,1915,1,1,0,2,97.120094
-1130,301,2,0,0,0,822.355103
-615,-142,3,0,0,0,999.942078
467,-502,4,1,0,0,61.060978
458,698,1,0,0,0,919.356262
-1293,609,2,0,0,0,764.697754
-1360,-998,3,1,0,9,73.286949
663,-214,4,1,0,2,97.120094
1142,1715,1,0,0,0,659.932068
-561,976,2,0,0,0,833.298645
-1853,-2,3,0,0,0,690.264160
551,-1061,4,1,0,9,73.286949
104,1325,1,0,0,0,785.565674
-1167,1265,2,0,0,0,711.408508
-940,-211,3,0,0,0,878.115845
1236,-1793,4,0,0,0,644.129639
779,1404,1,1,0,2,97.120094
-943,588,2,0,0,0,837.012329
-577,-613,3,0,0,0,916.952393
1889,-1951,4,1,0,2,97.120094
959,1651,1,0,0,0,681.700195
-268,655,2,0,0,0,966.958496
-1441,-165,3,0,0,0,760.475830
1607,-1398,4,1,0,9,73.286949
366,839,1,0,0,0,892.841431
-1268,173,2,1,0,9,73.286949
-448,-619,3,0,0,0,944.861755
517,-1185,4,0,0,0,793.501221
1488,946,1,0,0,0,704.475037
-1411,1133,2,0,0,0,697.048767
-905,-1962,3,0,0,0,646.375061
1307,-375,4,0,0,0,779.014587
1961,454,1,0,0,0,666.603210
-1866,1058,2,0,0,0,648.441467
-1474,-1942,3,0,0,0,611.971558
354,-27,4,0,0,0,1165.869629
229,1329,1,0,0,0,781.379211
-1327,1467,2,0,0,0,671.576782
-1899,-735,3,0,0,0,663.300110
915,-564,4,1,0,2,97.120094
521,794,1,0,0,0,882.244751
-856,706,2,0,0,0,837.458069
-1041,-780,3,0,0,0,791.743958
769,-106,4,0,0,0,940.312744
1020,399,1,1,0,2,97.120094
-1428,1049,2,1,0,9,73.286949
-762,-592,3,1,0,9,73.286949
1489,-747,4,0,0,0,720.749817
1808,1537,1,0,0,0,619.661316
-152,605,2,1,0,9,73.286949
-637,-1425,3,0,0,0,739.411499
643,-1581,4,0,0,0,713.802734
1443,77,1,0,0,0,761.539124
-1385,511,2,0,0,0,755.406250
-158,-387,3,0,0,0,1118.765503
39,-851,4,0,0,0,913.533936
102,1289,1,0,0,0,793.465881
-1214,651,2,0,0,0,775.279053
-513,-1503,3,0,0,0,734.449341
1094,-759,4,0,0,0,785.040039
1398,1999,1,1,0,2,97.120094
-1284,1007,2,0,0,0,726.676575
-1321,-1637,3,1,0,9,73.286949
858,-1100,4,1,0,2,97.120094
901,1587,1,0,0,0,694.632263
-186,955,2,0,0,0,875.274902
-946,-622,3,0,0,0,831.661987
1831,-1225,4,0,0,0,640.841187
1126,641,1,1,0,2,97.120094
-1481,1669,2,0,0,0,637.195068
-1996,-432,3,0,0,0,662.468445
365,-57,4,0,0,0,1154.404541
1072,391,1,0,0,0,829.406128
-142,1529,2,0,0,0,744.101990
-98,-1041,3,0,0,0,854.545654
796,-1899,4,0,0,0,660.119446
991,248,1,1,0,2,97.120094
-794,768,2,0,0,0,838.738647
-220,-635,3,1,0,9,73.286949
134,-1367,4,0,0,0,776.110291
1338,674,1,0,0,0,751.177979
-940,1821,2,0,0,0,661.479004
-823,-104,3,0,0,0,921.191101
1726,-1568,4,1,0,2,97.120094
845,607,1,0,0,0,855.975586
-203,151,2,1,0,0,352.188477
-945,-1829,3,0,0,0,660.171631
1292,-600,4,0,0,0,765.647217
1605,1635,1,0,0,0,629.661987
-1693,763,2,0,0,0,689.648438
-347,-1993,3,0,0,0,665.171387
692,-782,4,0,0,0,854.927368
913,416,1,0,0,0,866.429443
-395,1624,2,0,0,0,719.809631
-890,-1695,3,0,0,0,680.931824
1775,-194,4,0,0,0,700.873535
1465,1717,1,0,0,0,633.929993
-1067,1574,2,0,0,0,682.862793
-1923,-814,3,0,0,0,656.111694
200,-1123,4,0,0,0,829.509705
1733,1510,1,0,0,0,628.738708
-1519,1841,2,0,0,0,618.018005
-1179,-1671,3,0,0,0,662.070557
947,-426,4,0,0,0,856.533447
1352,1230,1,0,0,0,694.184814
-1457,1994,2,0,0,0,608.315186
-698,-1927,3,0,0,0,661.448669
1851,-1009,4,0,0,0,653.396301
842,1351,1,1,0,2,97.120094
-354,1749,2,1,0,9,73.286949
-1732,-882,3,1,0,9,73.286949
968,-114,4,0,0,0,874.759094
1497,1645,1,1,0,2,97.120094
-1751,1288,2,0,0,0,644.659790
-388,-391,3,1,0,9,73.286949
157,-1706,4,1,0,9,73.286949
1497,102,1,1,0,2,97.120094
-1501,166,2,0,0,0,748.892700
-1033,-508,3,1,0,9,73.286949
1772,-1704,4,1,0,2,97.120094
956,1836,1,1,0,2,97.120094
-488,1870,2,0,0,0,678.230103
-958,-664,3,0,0,0,823.287964
1349,-1705,4,0,0,0,644.603149
1606,1268,1,0,0,0,661.907471
-916,1305,2,0,0,0,733.322510
-1667,-1125,3,0,0,0,666.854675
125,-915,4,0,0,0,890.291260
1794,1925,1,0,0,0,590.295593
-247,1153,2,0,0,0,819.965637
-232,-939,3,0,0,0,876.969055
1715,-575,4,1,0,9,73.286949
1245,1901,1,0,0,0,631.999268
-160,583,2,0,0,0,1012.365356
-833,-1277,3,1,0,9,73.286949
257,-1820,4,0,0,0,692.581299
721,1453,1,0,0,0,728.390869
-1892,1852,2,0,0,0,588.554810
-698,-636,3,1,0,9,73.286949
1642,-121,4,0,0,0,724.110657
192,17,1,0,0,0,1342.076782
-1104,1370,2,0,0,0,705.090759
-1048,-1744,3,0,0,0,663.527161
470,-252,4,0,0,0,1048.525269
1385,266,1,0,0,0,768.525574
-1425,1573,2,0,0,0,651.461182
-850,-171,3,0,0,0,908.461060
1964,-302,4,0,0,0,670.287048
1054,738,1,0,0,0,794.879150
-329,391,2,0,0,0,1060.838745
-1184,-1440,3,1,0,9,73.286949
1970,-1156,4,0,0,0,630.533264
912,731,1,0,0,0,822.502136
-761,1094,2,0,0,0,784.793762
-281,-770,3,0,0,0,924.640259
1602,-1601,4,0,0,0,632.946350
1295,211,1,0,0,0,789.263794
-1385,802,2,0,0,0,732.235413
-377,-506,3,0,0,0,1000.023071
1791,-528,4,0,0,0,688.078796
382,1058,1,0,0,0,833.526794
-1311,1840,2,1,0,9,73.286949
-1052,-680,3,0,0,0,802.586487
422,-246,4,0,0,0,1073.843750
1531,1594,1,1,0,2,97.120094
-647,103,2,0,0,0,989.199646
-138,-1913,3,0,0,0,680.406616
874,-1687,4,1,0,2,97.120094
1763,65,1,1,0,2,97.120094
-1531,1951,2,0,0,0,607.120667
-1769,-11,3,1,0,9,73.286949
432,-1289,4,0,0,0,779.071106
1918,1531,1,0,0,0,610.102234
-1908,1040,2,1,0,9,73.286949
-280,-629,3,0,0,0,974.885315
1651,-1226,4,0,0,0,660.488403
558,1754,1,1,0,2,97.120094
-1424,1919,2,1,0,9,73.286949
-1410,-1710,3,0,0,0,639.118164
1059,-561,4,0,0,0,815.307800
40,1521,1,0,0,0,746.739685
-1327,1671,2,0,0,0,649.942200
-1115,-1012,3,1,0,9,73.286949
858,-1555,4,0,0,0,702.411621
1981,1240,1,0,0,0,624.005493
-661,1929,2,1,0,9,73.286949
-1389,-188,3,0,0,0,770.291626
1380,-1295,4,0,0,0,684.235229
1560,159,1,0,0,0,738.093933
-432,1321,2,0,0,0,772.723938
-1130,-235,3,1,0,9,73.286949
77,-192,4,0,0,0,1321.689331
498,1331,1,0,0,0,766.334961
-1307,356,2,0,0,0,780.097473
-349,-1151,3,0,0,0,814.270569
1272,-1031,4,0,0,0,725.698059
27,1048,1,0,0,0,853.791199
-1545,706,2,1,0,9,73.286949
-1575,-1426,3,0,0,0,651.171936
1626,-1012,4,0,0,0,680.819092
575,301,1,0,0,0,991.908447
-1490,917,2,0,0,0,706.706177
-161,-393,3,1,0,0,168.570618
1478,-204,4,0,0,0,752.360352
671,1940,1,0,0,0,660.996887
-897,860,2,0,0,0,804.885071
-858,-1300,3,0,0,0,740.014893
0,-549,4,0,0,0,1040.156982
1854,90,1,0,0,0,689.773132
-231,921,2,0,0,0,882.288513
-1591,-818,3,0,0,0,700.329346
10,-449,4,1,0,0,152.344330
1822,890,1,1,0,2,97.120094
-1517,268,2,0,0,0,743.185791
-1603,-1468,3,0,0,0,644.669312
1719,-1318,4,1,0,2,97.120094
554,1021,1,1,0,2,97.120094
-1263,1634,2,0,0,0,659.269653
-1940,-477,3,0,0,0,668.752686
729,-453,4,1,0,2,97.120094
742,785,1,1,0,2,97.120094
-193,1809,2,0,0,0,695.521973
-444,-879,3,0,0,0,871.796509
1072,-1863,4,0,0,0,647.865051
1921,269,1,0,0,0,677.179382
-932,470,2,1,0,9,73.286949
-1200,-749,3,0,0,0,767.660767
827,-1089,4,0,0,0,777.394409
1455,1788,1,0,0,0,627.916565
-254,979,2,0,0,0,864.113159
-1725,-1656,3,0,0,0,617.486633
1253,-513,4,0,0,0,780.239014
936,1215,1,0,0,0,744.448242
-1728,202,2,0,0,0,708.315186
-1677,-1865,3,0,0,0,603.917908
1310,-1068,4,0,0,0,716.597961
1025,1554,1,1,0,2,97.120094
-519,1746,2,0,0,0,695.170227
-763,-700,3,1,0,9,73.286949
1842,-772,4,0,0,0,668.830750
1193,645,1,0,0,0,779.762146
-382,1921,2,0,0,0,674.411682
-601,-1548,3,0,0,0,721.662842
200,-571,4,0,0,0,1012.147827
512,1831,1,0,0,0,682.912537
-1457,1880,2,0,0,0,619.005371
-1338,-1032,3,0,0,0,716.670959
1836,-1434,4,1,0,2,97.120094
1340,283,1,1,0,2,97.120094
-1737,92,2,0,0,0,708.369751
-9,-560,3,1,0,9,73.286949
1020,-456,4,0,0,0,835.466736
1567,1564,1,0,0,0,639.426697
-352,1947,2,0,0,0,671.515015
-1792,-1484,3,1,0,9,73.286949
1201,-1999,4,0,0,0,624.620728
613,587,1,0,0,0,914.606140
-1137,1463,2,0,0,0,690.283813
-392,-301,3,0,0,0,1070.460571
1227,-1774,4,0,0,0,646.860168
715,738,1,1,0,2,97.120094
-520,1495,2,0,0,0,735.405029
-1889,-1253,3,1,0,9,73.286949
1346,-321,4,0,0,0,773.986450
395,1684,1,0,0,0,709.976379
-1420,1279,2,0,0,0,681.435486
-1357,-776,3,0,0,0,738.986511
1791,-182,4,0,0,0,698.533997
219,1812,1,0,0,0,694.592041
-1266,1776,2,0,0,0,643.697754
-1437,-1558,3,0,0,0,651.861511
325,-728,4,0,0,0,932.629639
1622,558,1,0,0,0,712.372192
-504,768,2,0,0,0,891.820374
-920,-1056,3,0,0,0,770.520630
1328,-1269,4,0,0,0,692.772095
59,152,1,0,0,0,1390.359863
-1145,1745,2,1,0,9,73.286949
-1530,-1768,3,0,0,0,623.881409
1062,-1995,4,0,0,0,633.551514
239,1979,1,0,0,0,669.382935
-1875,1082,2,0,0,0,645.829834
-1044,-1692,3,0,0,0,670.131409
1043,-1913,4,0,0,0,643.983337
994,660,1,1,0,2,97.120094
-577,1339,2,0,0,0,758.972839
-645,-969,3,1,0,9,73.286949
1860,-1700,4,1,0,2,97.120094
1786,698,1,0,0,0,680.469421
-634,835,2,0,0,0,853.771729
-92,-622,3,0,0,0,1001.046509
881,-1804,4,0,0,0,667.347778
1050,1134,1,0,0,0,742.261597
-1348,1086,2,1,0,9,73.286949
-770,-162,3,0,0,0,936.410278
1017,-816,4,0,0,0,791.061035
227,258,1,0,0,0,1175.268311
-57,1174,2,0,0,0,820.888062
-716,-1269,3,0,0,0,759.164246
734,-1345,4,1,0,9,73.286949
1067,1560,1,1,0,2,97.120094
-1474,631,2,0,0,0,731.709778
-1434,-1886,3,0,0,0,620.113770
95,-1837,4,0,0,0,692.363647
138,1938,1,0,0,0,676.713257
-313,1160,2,0,0,0,814.572144
-546,-686,3,0,0,0,905.246338
1556,-1741,4,1,0,2,97.120094
315,586,1,0,0,0,984.768127
-1523,631,2,0,0,0,723.747070
-684,-921,3,1,0,9,73.286949
622,-1201,4,1,0,2,97.120094
785,941,1,0,0,0,808.896484
-42,974,2,0,0,0,874.695374
-956,-258,3,0,0,0,870.213745
1661,-651,4,0,0,0,701.122498
1753,1575,1,1,0,2,97.120094
-254,800,2,0,0,0,917.804810
-1473,-1395,3,0,0,0,664.360413
1120,-1647,4,1,0,2,97.120094
441,1169,1,0,0,0,803.326721
-1625,1206,2,1,0,9,73.286949
-918,-1256,3,0,0,0,740.364319
650,-978,4,0,0,0,821.152771
827,989,1,1,0,2,97.120094
-975,1860,2,1,0,9,73.286949
-1732,-1381,3,1,0,9,73.286949
1553,-1547,4,0,0,0,642.263367
528,1140,1,1,0,2,97.120094
-1585,455,2,0,0,0,723.664795
-1505,-80,3,0,0,0,749.468323
146,-1673,4,0,0,0,718.439331
1030,890,1,1,0,2,97.120094
-34,1914,2,0,0,0,680.954224
-1882,-764,3,0,0,0,664.018433
355,-1134,4,0,0,0,817.753113
539,1242,1,1,0,2,97.120094
-36,909,2,1,0,9,73.286949
-1093,-1794,3,1,0,9,73.286949
1889,-1219,4,0,0,0,635.053955
1000,362,1,0,0,0,849.660461
-1223,1941,2,0,0,0,629.283630
-48,-1571,3,1,0,2,97.120094
371,-1773,4,0,0,0,696.762146
746,312,1,0,0,0,928.551880
-1068,195,2,0,0,0,843.729248
-225,-183,3,0,0,0,1224.206787
343,-1179,4,0,0,0,808.324829
1839,1737,1,0,0,0,601.487732
-420,880,2,0,0,0,874.640747
-1993,-1998,3,0,0,0,570.468567
829,-830,4,1,0,2,97.120094
699,1270,1,1,0,2,97.120094
-1884,679,2,0,0,0,668.061279
-164,-613,3,0,0,0,998.403137
1634,-1363,4,0,0,0,650.741821
214,898,1,0,0,0,890.401001
-741,552,2,0,0,0,890.133423
-1600,-370,3,0,0,0,724.847595
201,-201,4,0,0,0,1230.000977
114,1234,1,0,0,0,805.674316
-869,1714,2,0,0,0,679.850281
-1632,-243,3,0,0,0,723.495056
1168,-1171,4,0,0,0,722.812805
1929,1151,1,0,0,0,635.292297
-691,886,2,0,0,0,833.846680
-528,-95,3,0,0,0,1046.809448
158,-1823,4,0,0,0,693.864319
262,1457,1,0,0,0,754.608643
-1291,678,2,0,0,0,758.938049
-827,-84,3,1,0,9,73.286949
1760,-476,4,1,0,2,97.120094
1733,253,1,0,0,0,706.411377
-351,496,2,0,0,0,1010.902527
-1371,-1834,3,1,0,9,73.286949
1932,-289,4,1,0,2,97.120094
709,1350,1,0,0,0,746.112671
-1185,512,2,0,0,0,793.944214
-1168,-1844,3,0,0,0,643.469299
832,-1995,4,1,0,9,73.286949
747,1477,1,0,0,0,722.599609
-648,660,2,1,0,9,73.286949
-397,-1283,3,0,0,0,782.567627
871,-1712,4,0,0,0,679.980896
321,750,1,1,0,2,97.120094
-248,1156,2,0,0,0,819.200073
-1333,-412,3,0,0,0,771.615540
1749,-1469,4,0,0,0,630.540771
1690,1652,1,0,0,0,620.829285
-284,1303,2,0,0,0,784.591125
-925,-1993,3,0,0,0,641.592590
1939,-1639,4,0,0,0,600.449280
1372,100,1,1,0,2,97.120094
-1923,1148,2,0,0,0,636.142456
-1837,-688,3,0,0,0,673.974609
248,-630,4,0,0,0,979.719055
1017,444,1,0,0,0,837.428528
-765,1881,2,0,0,0,664.095947
-1432,-368,3,1,0,9,73.286949
713,-1971,4,0,0,0,655.045776
753,1353,1,0,0,0,741.712280
-1061,1782,2,0,0,0,658.065796
-27,-1011,3,0,0,0,864.128296
107,-869,4,0,0,0,905.640686
1286,118,1,0,0,0,793.827576
-1666,826,2,1,0,9,73.286949
-1421,-1917,3,0,0,0,618.080994
1032,-43,4,1,0,2,97.120094
956,950,1,0,0,0,781.556885
-1271,575,2,0,0,0,771.657410
-1320,-152,3,0,0,0,785.641907
1084,-334,4,0,0,0,831.123047
1691,1060,1,0,0,0,669.041077
-336,395,2,0,0,0,1056.595825
-1742,-1332,3,0,0,0,642.151672
756,-58,4,1,0,2,97.120094
557,643,1,0,0,0,913.935913
-1354,5,2,0,0,0,780.226135
-248,-1880,3,0,0,0,683.658386
1268,-26,4,0,0,0,799.022766
1392,1766,1,0,0,0,634.993896
-1134,1503,2,1,0,9,73.286949
-587,-710,3,0,0,0,890.998901
1106,-1943,4,0,0,0,636.636230
743,721,1,1,0,2,97.120094
-1131,670,2,0,0,0,788.721191
-1344,-759,3,0,0,0,742.624634
144,-1062,4,0,0,0,847.447021
203,472,1,0,0,0,1059.262329
-707,991,2,0,0,0,810.802002
-411,-1468,3,0,0,0,746.189026
1324,-54,4,1,0,2,97.120094
890,1501,1,1,0,2,97.120094
-1142,1147,2,1,0,9,73.286949
-977,-100,3,0,0,0,872.577515
824,-253,4,1,0,2,97.120094
41,1993,1,0,0,0,669.376892
-1733,310,2,0,0,0,704.920959
-631,-1511,3,0,0,0,725.679993
1493,-810,4,0,0,0,715.179565
556,356,1,0,0,0,986.982605
-687,1432,2,0,0,0,734.425720
-1266,-992,3,0,0,0,730.821289
149,-842,4,0,0,0,912.457703
1809,1389,1,0,0,0,630.955200
-1521,1616,2,0,0,0,638.750000
-1967,-675,3,0,0,0,657.288818
758,-1367,4,0,0,0,739.008423
1693,827,1,1,0,2,97.120094
-384,183,2,0,0,0,1113.727661
-374,-407,3,0,0,0,1038.197876
1592,-1352,4,0,0,0,656.051514
885,695,1,0,0,0,833.417419
-1675,154,2,0,0,0,717.977966
-492,-395,3,0,0,0,1000.050720
1371,-91,4,0,0,0,776.013123
1446,1024,1,0,0,0,703.080383
-1526,461,2,0,0,0,733.372314
-1494,-764,3,0,0,0,718.668640
1495,-1667,4,0,0,0,636.197083
1931,1659,1,0,0,0,599.680359
-334,1712,2,1,0,2,97.120094
-375,-1650,3,0,0,0,716.277344
1478,-1633,4,0,0,0,640.900269
51,393,1,0,0,0,1134.152100
-10,1423,2,0,0,0,765.947083
-319,-1924,3,0,0,0,675.632507
1525,-1522,4,0,0,0,647.182434
1027,621,1,0,0,0,814.891113
-1976,399,2,0,0,0,666.175842
-1069,-1475,3,0,0,0,695.148132
421,-329,4,0,0,0,1047.979736
547,1965,1,0,0,0,662.818420
-1401,835,2,1,0,9,73.286949
-1694,-1158,3,1,0,9,73.286949
1059,-419,4,0,0,0,829.961914
1266,1798,1,0,0,0,641.360168
-1405,1953,2,1,0,9,73.286949
-308,-733,3,1,0,9,73.286949
1914,-1359,4,0,0,0,622.751587
1149,261,1,1,0,2,97.120094
-1733,1584,2,0,0,0,622.698608
-1853,-1079,3,0,0,0,648.549194
471,-1579,4,1,0,9,73.286949
728,924,1,1,0,2,97.120094
-590,1256,2,0,0,0,773.172668
-1353,-858,3,0,0,0,731.936462
865,1399,1,0,0,0,724.395386
-1888,1834,2,1,0,9,73.286949
-669,-1650,3,0,0,0,701.693115
400,1771,1,0,0,0,696.097656
-267,1943,2,0,0,0,674.025818
-370,-753,3,0,0,0,917.929016
1116,302,1,0,0,0,825.635193
-319,1303,2,0,0,0,782.896667
-1082,-713,3,0,0,0,792.851257
265,950,1,0,0,0,871.359558
-1201,1356,2,0,0,0,696.763672
-1555,-678,3,0,0,0,715.549500
1079,362,1,1,0,2,97.120094
-1405,186,2,1,0,9,73.286949
-446,-1659,3,0,0,0,711.937439
501,1057,1,0,0,0,822.276550
-293,1773,2,0,0,0,699.039368
-536,-1373,3,0,0,0,755.862549
1496,1835,1,1,0,2,97.120094
-1998,961,2,1,0,9,73.286949
-750,-1952,3,1,0,9,73.286949
752,1369,1,0,0,0,739.218994
-1095,1928,2,0,0,0,639.001953
-1209,-1134,3,1,0,9,73.286949
1120,805,1,0,0,0,774.914246
-1866,160,2,0,0,0,687.216187
-1941,-89,3,1,0,9,73.286949
1504,1423,1,0,0,0,658.541260
-1786,804,2,0,0,0,674.409973
-1195,-258,3,1,0,9,73.286949
888,668,1,0,0,0,837.038635
-1748,1058,2,0,0,0,662.323914
-763,-1890,3,1,0,9,73.286949
1296,1888,1,1,0,2,97.120094
-1758,304,2,0,0,0,701.110962
-1738,-1016,3,0,0,0,666.558777
1714,345,1,0,0,0,706.901123
-182,808,2,0,0,0,921.643250
-440,-741,3,0,0,0,910.207153
144,1065,1,0,0,0,846.649902
-1064,1925,2,0,0,0,641.296509
-1550,-1715,3,0,0,0,627.121521
1297,1785,1,1,0,2,97.120094
-1147,1651,2,0,0,0,666.964294
-1128,-936,3,0,0,0,757.453064
439,935,1,0,0,0,858.054688
-1842,330,2,0,0,0,687.448547
-1378,-640,3,0,0,0,747.146667
350,1979,1,0,0,0,667.051636
-1015,-848,3,1,0,9,73.286949
1335,628,1,0,0,0,755.586487
-1547,-1949,3,0,0,0,606.165955
426,1393,1,0,0,0,759.238098
-1566,-1541,3,1,0,9,73.286949
148,743,1,1,0,2,97.120094
-1731,-1490,3,0,0,0,630.554321
715,1786,1,0,0,0,679.538330
-1165,-1038,3,0,0,0,739.513062
-1908,-297,3,0,0,0,678.474182
-445,-607,3,0,0,0,949.218140
-722,-1561,3,0,0,0,711.607300
