each times' max average throughput
563.399231,0.000000,566.186707,0.000000,0.000000,548.115417,562.273499,0.000000,574.796631,0.000000,0.000000,0.000000,461.047180,0.000000,0.000000,0.000000,0.000000,570.180298,0.000000,0.000000,566.233215,566.841858,556.300415,0.000000,564.667358,0.000000,430.980591,470.669128,0.000000,0.000000,567.190674,559.604065,563.456909,0.000000,563.445923,571.573730,495.791931,460.713257,564.836060,0.000000,514.211365,0.000000,0.000000,513.067322,0.000000,557.020569,568.501404,568.206604,483.916718,464.000336,0.000000,0.000000,0.000000,0.000000,576.276794,515.653870,0.000000,0.000000,0.000000,558.669556,569.494629,0.000000,577.095764,567.042603,0.000000,564.372314,0.000000,573.807617,0.000000,574.399902,496.969940,576.341492,565.661804,445.827698,478.845123,0.000000,0.000000,557.599426,442.145569,0.000000,573.146729,558.620972,0.000000,554.800110,0.000000,0.000000,0.000000,519.346680,0.000000,449.660034,0.000000,0.000000,480.689972,525.169128,0.000000,460.409973,509.782593,567.274963,509.735687,565.044678,
avg. throughput in all test times
299.311218
avg. BS TX power in all test times
MBS area 1,MBS area 2,MBS area 3,MBS area 4,MBS area 5,CBSD 1,CBSD 2,CBSD 3,CBSD 4,CBSD 5,CBSD 6,CBSD 7,CBSD 8,CBSD 9,CBSD 10,
7.438,7.688,6.512,6.812,7.037,0.045,0.035,0.151,0.176,0.218,0.139,0.094,0.091,0.127,0.064,
avg. mbs all power,avg. cbsd enable number,avg. mbs area all power,avg. cbsd all power
46.888,1.000,35.487,1.140
avg. max avg. throughput generation number in all test times
0.530000
avg. number of relay UE
290

the max average throughput times

BS TX power
MBS area 1,MBS area 2,MBS area 3,MBS area 4,MBS area 5,CBSD 1,CBSD 2,CBSD 3,CBSD 4,CBSD 5,CBSD 6,CBSD 7,CBSD 8,CBSD 9,CBSD 10,
6.250,10.000,5.000,8.750,5.000,0.000,0.000,0.875,0.000,0.000,0.750,0.000,0.000,0.000,0.000,
max average throughput
565.044678

x,y,area,be blocked (1 : NLOS / 0 : LOS),be blocked number (>=1 : CBSD(x) / 0 : no),connect bs number (>=1 : CBSD / 0 : MBS),throughput (unit : M bps)
174,657,1,0,0,0,930.138916
1994,522,2,1,0,6,60.811241
-535,1043,3,0,0,0,741.293518
-1883,-1058,4,1,0,3,106.059853
229,-1843,5,0,0,0,609.790588
488,1434,1,0,0,0,699.798279
1168,862,2,0,0,0,779.404663
-1029,807,3,0,0,0,709.939148
-1905,-621,4,1,0,6,60.811241
278,-1087,5,0,0,0,753.857422
1386,1829,1,0,0,0,581.393494
1472,992,2,0,0,0,721.689514
-277,1776,3,0,0,0,619.085083
-1128,-1204,4,0,0,0,723.520020
529,-1153,5,0,0,0,718.645447
427,909,1,0,0,0,817.745483
1580,1441,2,1,0,6,60.811241
-1007,1853,3,0,0,0,573.716248
-161,-1384,4,0,0,0,772.003784
441,-1970,5,0,0,0,586.100769
1439,1545,1,1,0,6,60.811241
1216,731,2,0,0,0,785.976990
-962,284,3,0,0,0,786.035278
-1523,-54,4,0,0,0,746.281738
804,-1814,5,0,0,0,590.999878
1191,1937,1,0,0,0,583.995300
1770,649,2,0,0,0,704.439087
-578,583,3,1,0,6,60.811241
-1054,-1547,4,1,0,3,106.059853
532,-457,5,0,0,0,888.959167
215,629,1,0,0,0,936.533997
1262,1003,2,0,0,0,749.317078
-27,212,3,0,0,0,1231.570312
-451,-136,4,0,0,0,1084.308350
1274,-616,5,0,0,0,687.343567
149,331,1,0,0,0,1110.947876
444,84,2,0,0,0,1115.553955
-1416,292,3,0,0,0,681.207642
-1666,-1865,4,0,0,0,604.751099
1651,-15,5,0,0,0,643.290161
945,1239,1,0,0,0,691.696533
1643,430,2,0,0,0,734.356934
-1880,1695,3,0,0,0,522.233337
-639,-1689,4,0,0,0,697.642883
1231,-1679,5,0,0,0,577.368652
578,900,1,0,0,0,799.630188
1910,613,2,0,0,0,686.673645
-1666,93,3,1,0,6,60.811241
-2000,-977,4,0,0,0,637.895142
551,-553,5,1,0,3,106.059853
335,1465,1,0,0,0,702.065308
1718,1546,2,0,0,0,646.207947
-1495,1053,3,0,0,0,614.197510
-1661,-1382,4,0,0,0,646.363525
942,-1211,5,1,0,3,106.059853
560,840,1,0,0,0,816.244019
1123,1107,2,0,0,0,755.642700
-836,1891,3,0,0,0,579.330811
-571,-1132,4,0,0,0,799.115417
1599,-552,5,0,0,0,636.375549
191,1495,1,0,0,0,701.240234
974,729,2,0,0,6,60.811241
-142,1619,3,0,0,0,647.791870
-279,-66,4,0,0,0,1227.531982
1819,-375,5,0,0,0,609.778564
1046,1119,1,1,0,6,60.811241
1292,1173,2,0,0,0,726.577576
-1971,1109,3,0,0,0,553.960205
-1539,-243,4,0,0,0,739.931763
1763,-470,5,1,0,3,106.059853
341,825,1,1,0,6,60.811241
1820,42,2,0,0,0,714.449280
-1215,107,3,0,0,0,729.903564
-716,-1587,4,0,0,0,708.105347
634,-362,5,0,0,0,877.399719
340,1706,1,0,0,0,660.232788
1104,1081,2,1,0,6,60.811241
-25,1880,3,1,0,6,60.811241
-1972,-1707,4,0,0,0,592.806030
1694,-1634,5,0,0,0,542.705200
738,1950,1,0,0,0,608.615845
552,550,2,0,0,0,958.453064
-909,1048,3,0,0,0,693.023438
-1661,-642,4,1,0,6,60.811241
387,-1645,5,0,0,0,636.660217
1530,1716,1,0,0,0,580.874695
1999,280,2,0,0,0,684.888733
-1907,396,3,1,0,6,60.811241
-1032,-516,4,1,0,6,60.811241
1754,-1489,5,0,0,0,549.108276
292,528,1,1,0,6,60.811241
1431,590,2,0,0,0,760.976562
-1092,1356,3,0,0,0,628.168030
-497,-870,4,0,0,0,866.818237
1908,-1604,5,1,0,3,106.059853
784,1815,1,0,0,0,623.732849
1197,747,2,0,0,0,787.569885
-1089,764,3,1,0,6,60.811241
-1770,-1090,4,0,0,0,657.411682
1569,-561,5,0,0,0,640.675110
1357,1565,1,1,0,6,60.811241
1384,180,2,0,0,0,790.704163
-1417,1488,3,1,0,6,60.811241
-1298,-982,4,0,0,0,727.409302
1792,-1028,5,0,0,0,579.553772
332,908,1,1,0,6,60.811241
915,808,2,0,0,0,829.211609
-1369,1746,3,0,0,0,559.365173
-293,-1758,4,1,0,3,106.059853
1154,-1973,5,0,0,0,550.964600
122,1643,1,0,0,0,675.763062
1619,855,2,0,0,0,712.815063
-997,359,3,1,0,6,60.811241
-1663,-701,4,0,0,0,697.821655
596,-585,5,1,0,3,106.059853
161,721,1,0,0,0,906.119324
1557,1517,2,0,0,0,663.699280
-578,1427,3,1,0,6,60.811241
-298,-530,4,0,0,0,1010.712646
1145,-1966,5,1,0,3,106.059853
354,912,1,0,0,0,825.288879
521,71,2,0,0,0,1071.850342
-433,1859,3,0,0,0,602.003540
-1147,-1299,4,0,0,0,709.444519
1539,-1464,5,0,0,0,571.688965
116,332,1,0,0,0,1120.076172
167,68,2,0,0,0,1380.584351
-1378,118,3,1,0,6,60.811241
-102,-537,4,0,0,0,1041.419556
1074,-606,5,0,0,0,726.755127
445,827,1,0,0,0,837.042419
918,114,2,0,0,0,909.034302
-1278,1156,3,1,0,6,60.811241
-585,-1735,4,0,0,0,693.686829
867,-1474,5,0,0,0,633.279236
273,1974,1,0,0,0,621.481140
567,541,2,0,0,0,956.809631
-884,819,3,0,0,0,733.362000
-118,-1101,4,0,0,0,838.048828
1331,-1820,5,0,0,0,554.811890
642,1541,1,0,0,0,671.995056
1485,1412,2,0,0,0,680.582214
-609,1865,3,1,0,6,60.811241
-65,-1910,4,1,0,3,106.059853
127,-1783,5,1,0,3,106.059853
783,1235,1,0,0,0,709.892090
1587,647,2,0,0,0,731.754639
-1757,1413,3,1,0,6,60.811241
-1120,-1381,4,0,0,0,702.077637
1050,-1796,5,1,0,3,106.059853
164,1313,1,0,0,0,738.541809
691,672,2,0,0,0,897.192810
-629,385,3,0,0,0,874.494873
-600,-1815,4,0,0,0,681.357605
1224,-1242,5,0,0,0,627.720459
784,1024,1,0,0,0,745.906494
1954,1123,2,0,0,0,653.394226
-1712,1852,3,0,0,0,523.257568
-1064,-389,4,1,0,6,60.811241
46,-934,5,0,0,0,806.182861
118,786,1,0,0,0,885.060425
1348,241,2,1,0,6,60.811241
-85,1216,3,0,0,0,730.076599
-1801,-8,4,0,0,0,698.407532
11,-1432,5,0,0,0,683.941040
324,521,1,0,0,0,959.629333
1513,749,2,1,0,6,60.811241
-1317,318,3,1,0,6,60.811241
-541,-341,4,0,0,0,996.166748
1077,-1177,5,0,0,0,653.078125
144,1756,1,0,0,0,656.588684
1812,812,2,0,0,0,689.588928
-678,616,3,0,0,0,812.111145
-557,-1056,4,0,0,0,816.394836
1680,-748,5,0,0,0,612.587585
401,1480,1,0,0,0,696.304565
1665,849,2,1,0,6,60.811241
-508,28,3,1,0,6,60.811241
-1193,-1247,4,0,0,0,710.630066
111,-144,5,0,0,0,1278.201050
154,1728,1,0,0,0,661.005920
1582,424,2,0,0,0,744.761475
-915,37,3,1,0,6,60.811241
-197,-1685,4,1,0,3,106.059853
1515,-1673,5,0,0,0,554.529114
87,1427,1,0,0,0,716.360596
1040,802,2,0,0,0,808.180664
-376,1349,3,1,0,6,60.811241
-664,-609,4,0,0,0,897.397705
552,-1611,5,0,0,0,634.469971
579,1219,1,0,0,0,732.894287
1477,1009,2,0,0,0,719.488953
-705,477,3,1,0,6,60.811241
-125,-1211,4,0,0,0,810.781067
39,-47,5,0,0,0,1592.953491
356,1164,1,0,0,0,762.497314
1732,1216,2,1,0,6,60.811241
-1170,1643,3,0,0,0,586.345642
-1236,-1158,4,0,0,0,716.000488
1448,-941,5,1,0,3,106.059853
877,1962,1,0,0,0,600.010437
801,735,2,0,0,0,862.554382
-481,1527,3,0,0,0,652.081848
-1345,-828,4,0,0,0,736.025208
1019,-1889,5,0,0,0,568.744568
1056,1845,1,0,0,0,603.101074
1551,1234,2,0,0,0,690.109863
-1386,1369,3,1,0,6,60.811241
-1534,-424,4,0,0,0,733.839294
1469,-350,5,0,0,0,668.764282
695,769,1,0,0,0,808.663696
1546,1111,2,0,0,0,701.633545
-668,14,3,0,0,0,902.919556
-686,-532,4,0,0,0,908.101624
1240,-1999,5,0,0,0,542.857727
24,303,1,1,0,6,60.811241
1791,721,2,0,0,0,697.619263
-697,1176,3,0,0,0,697.233826
-1709,-266,4,1,0,6,60.811241
109,-1721,5,1,0,3,106.059853
242,1619,1,0,0,0,677.597229
1778,1414,2,0,0,0,651.124573
-1508,1064,3,0,0,0,611.571411
-171,-1989,4,0,0,0,668.959290
1360,-1098,5,0,0,0,627.044739
641,895,1,1,0,6,60.811241
877,756,2,0,0,0,844.410278
-1858,21,3,1,0,6,60.811241
-1644,-1429,4,0,0,0,644.062500
1954,-504,5,0,0,0,586.213867
1199,1337,1,0,0,0,651.135803
1460,130,2,0,0,0,776.621643
-1720,1704,3,0,0,0,534.738403
-1290,-259,4,0,0,0,788.461975
959,-1682,5,0,0,0,597.952148
609,1332,1,0,0,0,709.437988
1948,1030,2,0,0,0,659.821960
-1356,1705,3,1,0,6,60.811241
-1855,-369,4,0,0,0,684.404846
1199,-1755,5,1,0,3,106.059853
210,991,1,0,0,0,815.262573
561,103,2,0,0,0,1048.393555
-515,1157,3,1,0,6,60.811241
-1125,-618,4,0,0,0,795.576050
1066,-1998,5,0,0,0,553.584229
81,1393,1,0,0,0,723.319336
1878,1272,2,1,0,6,60.811241
-427,255,3,0,0,0,987.978821
-1373,-1700,4,0,0,0,643.153137
746,-667,5,0,0,0,786.707092
404,1340,1,1,0,6,60.811241
1983,1672,2,1,0,6,60.811241
-97,446,3,0,0,0,1012.728699
-1595,-1327,4,1,0,3,106.059853
718,-1672,5,0,0,0,615.596558
89,758,1,0,0,0,896.742615
1946,638,2,0,0,0,680.752747
-149,882,3,0,0,0,818.955566
-1224,-1881,4,1,0,3,106.059853
1147,-1409,5,0,0,0,616.036133
1873,1993,1,0,0,0,531.837769
1957,139,2,1,0,6,60.811241
-523,106,3,1,0,6,60.811241
-945,-1219,4,0,0,0,742.831238
410,-748,5,0,0,0,832.617981
502,1528,1,0,0,0,682.643982
1126,148,2,0,0,0,849.976929
-476,589,3,1,0,6,60.811241
-1936,-1223,4,0,0,0,629.809082
1058,-588,5,1,0,3,106.059853
154,242,1,0,0,0,1178.855469
1488,946,2,0,0,0,723.602844
-615,631,3,0,0,0,823.286194
-1954,-1792,4,0,0,0,588.154175
1955,-612,5,0,0,0,581.946899
1008,1690,1,1,0,6,60.811241
1961,454,2,0,0,0,685.689941
-613,383,3,1,0,6,60.811241
-1800,-651,4,1,0,6,60.811241
853,-1626,5,0,0,0,613.026489
990,1470,1,1,0,6,60.811241
1020,399,2,1,0,6,60.811241
-1047,488,3,0,0,0,745.501038
-88,-1268,4,0,0,0,798.392700
1187,-334,5,0,0,0,726.772766
838,1431,1,1,0,6,60.811241
1808,1537,2,0,0,0,638.679688
-124,1767,3,0,0,0,623.252747
-146,-1257,4,0,0,0,799.661743
1100,-1600,5,0,0,0,597.151550
1186,1413,1,0,0,0,643.473022
1443,77,2,0,0,0,780.711609
-1494,1500,3,0,0,0,572.626343
-607,-1469,4,0,0,0,734.209106
1632,-1999,5,0,0,0,516.819641
743,1915,1,1,0,6,60.811241
1126,641,2,1,0,6,60.811241
-367,92,3,0,0,0,1066.816162
-1338,-1762,4,1,0,3,106.059853
1815,-254,5,0,0,0,613.564880
458,698,1,0,0,0,870.912048
1072,391,2,0,0,0,848.613098
-1283,1384,3,0,0,0,605.230591
-1055,-1148,4,0,0,0,739.733459
882,-90,5,0,0,0,821.512207
1142,1715,1,0,0,0,611.983276
991,248,2,1,0,6,60.811241
-26,1704,3,0,0,0,634.260437
-149,-1928,4,0,0,0,678.064087
669,-1415,5,0,0,0,658.535034
104,1325,1,0,0,0,737.271912
1338,674,2,0,0,0,770.343567
-691,1525,3,0,0,0,639.314453
-236,-281,4,1,0,6,60.811241
1301,-1212,5,0,0,0,622.173462
779,1404,1,1,0,6,60.811241
845,607,2,0,0,0,875.192261
-198,1870,3,0,0,0,606.249390
-422,-1726,4,0,0,0,702.277100
1488,-302,5,1,0,6,60.811241
959,1651,1,0,0,0,633.668457
913,416,2,0,0,0,885.649414
-1079,389,3,0,0,0,747.535522
-1920,-1551,4,1,0,3,106.059853
638,-1798,5,0,0,0,602.140747
366,839,1,0,0,0,844.417114
1733,1510,2,0,0,0,647.772095
-1413,882,3,1,0,6,60.811241
-1019,-1214,4,0,0,0,735.020142
28,-1037,5,1,0,3,106.059853
229,1329,1,0,0,0,733.092773
1352,1230,2,0,0,0,713.302490
-518,396,3,1,0,6,60.811241
-282,-1073,4,0,0,0,837.495483
904,-657,5,1,0,3,106.059853
521,794,1,0,0,0,833.829468
1497,102,2,1,0,6,60.811241
-422,1943,3,0,0,0,590.413025
-1704,-240,4,0,0,0,711.451782
1306,-552,5,0,0,0,686.786987
102,1289,1,0,0,0,745.158875
1606,1268,2,0,0,0,680.988342
-384,1476,3,1,0,6,60.811241
-551,-648,4,1,0,3,106.059853
1283,-1723,5,0,0,0,568.495056
1398,1999,1,1,0,6,60.811241
192,17,2,0,0,0,1361.339600
-1275,1528,3,0,0,0,590.159302
-317,-945,4,1,0,3,106.059853
1164,-1921,5,0,0,0,555.894348
901,1587,1,0,0,0,646.556763
1385,266,2,0,0,0,787.702393
-1950,834,3,0,0,0,572.121338
-392,-1102,4,1,0,3,106.059853
175,-881,5,1,0,3,106.059853
1605,1635,1,0,0,0,581.851501
1054,738,2,0,0,6,60.811241
-463,1741,3,0,0,0,618.445923
-592,-522,4,0,0,0,935.528137
1301,-1047,5,0,0,0,640.043518
1465,1717,1,0,0,0,586.098267
912,731,2,0,0,0,841.706299
-135,1169,3,0,0,0,740.179688
-262,-905,4,0,0,0,884.530640
1282,-94,5,0,0,0,714.857910
842,1351,1,1,0,6,60.811241
1295,211,2,0,0,0,808.452332
-541,1850,3,0,0,0,599.231323
-1830,-483,4,0,0,0,684.204834
506,-731,5,1,0,3,106.059853
1497,1645,1,1,0,6,60.811241
1763,65,2,1,0,6,60.811241
-581,1203,3,1,0,6,60.811241
-1966,-1738,4,0,0,0,591.081665
112,-1410,5,1,0,3,106.059853
956,1836,1,1,0,6,60.811241
1918,1531,2,0,0,0,629.103760
-1179,1092,3,1,0,6,60.811241
-1875,-1197,4,0,0,0,638.070435
190,-1325,5,0,0,0,703.261719
1794,1925,1,0,0,0,542.714111
1981,1240,2,0,0,0,643.031128
-375,1282,3,1,0,6,60.811241
-224,-1684,4,0,0,0,715.135742
384,-792,5,0,0,0,823.595154
1245,1901,1,0,0,0,584.177063
1560,159,2,0,0,0,757.250122
-231,488,3,0,0,0,964.311768
-279,-769,4,0,0,0,925.211365
1938,-1501,5,0,0,0,531.258118
721,1453,1,0,0,0,680.218018
575,301,2,0,0,0,1011.154236
-423,1458,3,0,0,0,667.254150
-1278,-123,4,0,0,0,795.500854
263,-426,5,0,0,0,986.073975
382,1058,1,0,0,0,785.162659
1854,90,2,0,0,0,708.886230
-961,1336,3,0,0,0,644.214355
-1730,-1187,4,0,0,0,654.764709
669,-969,5,0,0,0,740.000061
1531,1594,1,1,0,6,60.811241
1822,890,2,1,0,6,60.811241
-883,970,3,0,0,0,709.062622
-1983,-1655,4,1,0,3,106.059853
182,-1365,5,0,0,0,695.138550
558,1754,1,1,0,6,60.811241
1921,269,2,0,0,0,696.278687
-1679,548,3,0,0,0,624.086487
-821,-1631,4,1,0,3,106.059853
1854,-1953,5,0,0,0,504.887543
40,1521,1,0,0,0,698.522644
1193,645,2,0,0,6,60.811241
-1167,1437,3,0,0,0,610.709900
-1840,-846,4,1,0,6,60.811241
1490,-958,5,1,0,3,106.059853
498,1331,1,0,0,0,718.076599
1340,283,2,1,0,6,60.811241
-571,485,3,0,0,0,869.962158
-280,-1727,4,0,0,0,706.708923
1033,-534,5,0,0,0,743.590454
27,1048,1,0,0,0,805.403687
1567,1564,2,0,0,0,658.476562
-1094,1578,3,1,0,6,60.811241
-496,-1962,4,0,0,0,665.066467
254,-779,5,0,0,0,844.190674
671,1940,1,0,0,0,613.043762
613,587,2,0,0,0,933.838745
-1132,719,3,0,0,0,702.730530
-92,-1732,4,1,0,3,106.059853
1387,-1202,5,0,0,0,613.149414
554,1021,1,1,0,6,60.811241
1622,558,2,0,0,0,731.507324
-1882,985,3,0,0,0,571.678528
-505,-1770,4,0,0,0,692.180664
213,-12,5,1,0,6,60.811241
742,785,1,1,0,6,60.811241
994,660,2,1,0,6,60.811241
-84,1119,3,1,0,6,60.811241
-955,-1778,4,0,0,0,665.841064
547,-1815,5,0,0,0,603.964111
1455,1788,1,0,0,0,580.115051
1786,698,2,0,0,0,699.572449
-233,1408,3,1,0,6,60.811241
-1533,-285,4,0,0,0,739.710815
1513,-1246,5,0,0,0,594.477844
936,1215,1,0,0,0,696.236450
1753,1575,2,1,0,6,60.811241
-226,923,3,0,0,0,801.568298
-347,-753,4,1,0,3,106.059853
1517,-665,5,0,0,0,642.378357
1025,1554,1,1,0,6,60.811241
1030,890,2,1,0,6,60.811241
-1212,1770,3,0,0,0,568.893188
-1733,-1417,4,0,0,0,636.274658
709,-1498,5,1,0,3,106.059853
512,1831,1,0,0,0,634.876465
1000,362,2,0,0,0,868.875000
-1209,320,3,0,0,0,722.724976
-492,-909,4,0,0,0,857.866089
760,-705,5,0,0,0,776.571411
715,738,1,1,0,6,60.811241
746,312,2,0,0,0,947.787415
-1361,554,3,0,0,0,676.570129
-341,-1109,4,0,0,0,824.616699
1334,-1937,5,0,0,0,542.910706
395,1684,1,0,0,0,661.853821
1839,1737,2,0,0,0,620.473022
-759,1898,3,0,0,0,582.559082
-527,-1370,4,0,0,0,757.042908
1754,-33,5,0,0,0,626.004395
219,1812,1,0,0,0,646.516663
1929,1151,2,0,0,0,654.335938
-711,356,3,0,0,0,852.823364
-1382,-1835,4,1,0,3,106.059853
1163,-1907,5,0,0,0,557.468262
59,152,1,0,0,0,1341.820923
1733,253,2,0,0,0,725.541016
-742,757,3,0,0,0,770.170532
-236,-1787,4,0,0,0,698.169617
1297,-1717,5,0,0,0,568.021423
239,1979,1,0,0,0,621.396606
1690,1652,2,0,0,0,639.849670
-1676,1503,3,0,0,0,555.256348
-27,-583,4,0,0,0,1022.523926
97,-61,5,1,0,0,603.346619
1050,1134,1,0,0,0,694.054810
1372,100,2,1,0,6,60.811241
-1389,860,3,0,0,0,646.309448
-1289,-257,4,0,0,0,788.762085
1115,-1344,5,0,0,0,627.307922
227,258,1,0,0,0,1126.742310
1017,444,2,0,0,0,856.638611
-1739,1512,3,0,0,0,548.666199
-682,-1645,4,0,0,0,701.644104
1073,-611,5,0,0,0,726.384460
1067,1560,1,1,0,6,60.811241
1286,118,2,0,0,0,813.018494
-461,1265,3,0,0,0,701.591797
-494,-689,4,0,0,0,914.922607
521,-1155,5,0,0,0,718.982727
138,1938,1,0,0,0,628.699402
956,950,2,0,0,0,800.741211
-70,513,3,0,0,0,976.388794
-801,-1528,4,0,0,0,710.720093
610,-1162,5,0,0,0,708.916687
315,586,1,0,0,0,936.288025
1691,1060,2,0,0,0,688.130859
-666,129,3,1,0,6,60.811241
-1806,-533,4,0,0,0,685.668091
1165,-809,5,0,0,0,686.689758
785,941,1,0,0,0,760.565613
743,721,2,1,0,6,60.811241
-1151,645,3,0,0,0,707.388123
-1711,-1340,4,0,0,0,644.714905
1485,-1260,5,0,0,0,596.294617
441,1169,1,0,0,0,755.004150
556,356,2,0,0,0,1006.227783
-658,607,3,0,0,0,818.724487
-1230,-1416,4,0,0,0,686.792725
1889,-37,5,0,0,0,604.906067
827,989,1,1,0,6,60.811241
1809,1389,2,0,0,0,649.992065
-1963,432,3,0,0,0,587.337280
-716,-401,4,0,0,0,924.298462
1391,-545,5,0,0,0,671.839417
528,1140,1,1,0,6,60.811241
1693,827,2,1,0,6,60.811241
-1656,1784,3,1,0,6,60.811241
-1339,-1628,4,0,0,0,653.427612
1019,-935,5,0,0,3,106.059853
539,1242,1,1,0,6,60.811241
885,695,2,0,0,0,852.625977
-1405,1691,3,0,0,0,561.948425
-1229,-468,4,0,0,0,788.604614
1558,-1479,5,0,0,0,568.495300
699,1270,1,1,0,6,60.811241
1446,1024,2,0,0,0,722.206848
-1861,605,3,1,0,6,60.811241
-831,-1782,4,1,0,3,106.059853
937,-1336,5,0,0,0,646.633423
214,898,1,0,0,0,841.978699
1931,1659,2,0,0,0,618.662170
-76,1862,3,0,0,0,608.815857
-304,-274,4,1,0,6,60.811241
1924,-881,5,0,0,0,572.755859
114,1234,1,0,0,0,757.348206
1027,621,2,0,0,6,60.811241
-329,539,3,0,0,0,919.177368
-1051,-1515,4,0,0,0,691.678955
556,-1811,5,0,0,0,604.145020
262,1457,1,0,0,0,706.374390
1149,261,2,1,0,6,60.811241
-890,67,3,1,0,6,60.811241
-1970,-1105,4,0,0,0,633.717224
1130,-86,5,0,0,0,750.986389
709,1350,1,0,0,0,697.897095
1116,302,2,0,0,0,844.840637
-1906,126,3,0,0,0,601.795410
-1787,-71,4,0,0,0,700.418640
313,-1148,5,0,0,0,736.996033
747,1477,1,0,0,0,674.441833
1079,362,2,1,0,6,60.811241
-548,356,3,0,0,0,909.310547
-847,-1494,4,0,0,0,712.022461
1101,-1851,5,0,0,0,567.774170
321,750,1,1,0,6,60.811241
1120,805,2,0,0,0,794.094849
-1130,301,3,0,0,0,741.981140
-615,-142,4,0,0,0,999.942078
467,-502,5,1,0,3,106.059853
753,1353,1,0,0,0,693.506836
1504,1423,2,0,0,0,677.617798
-1293,609,3,0,0,0,684.501038
-1360,-998,4,1,0,3,106.059853
663,-214,5,1,0,6,60.811241
557,643,1,0,0,0,865.495483
888,668,2,0,0,0,856.248596
-561,976,3,0,0,0,752.898254
-1853,-2,4,0,0,0,690.264160
551,-1061,5,1,0,3,106.059853
1392,1766,1,0,0,0,587.156921
1714,345,2,0,0,0,726.031189
-1167,1265,3,0,0,0,631.451965
-940,-211,4,0,0,0,878.115845
1236,-1793,5,0,0,0,564.633911
203,472,1,0,0,0,1010.756958
1335,628,2,0,0,0,774.755066
-943,588,3,0,0,0,756.603455
-577,-613,4,0,0,0,916.952393
1889,-1951,5,1,0,3,106.059853
890,1501,1,1,0,6,60.811241
-268,655,3,0,0,0,886.355774
-1441,-165,4,0,0,0,760.475830
1607,-1398,5,1,0,3,106.059853
41,1993,1,0,0,0,621.390625
-1268,173,3,1,0,6,60.811241
-448,-619,4,0,0,0,944.861755
517,-1185,5,0,0,0,713.207153
51,393,1,0,0,0,1085.631592
-1411,1133,3,0,0,0,617.173462
-905,-1962,4,0,0,0,646.375061
1307,-375,5,0,0,0,698.767090
547,1965,1,0,0,0,614.857910
-1866,1058,3,0,0,0,568.909363
-1474,-1942,4,0,0,0,611.971558
354,-27,5,0,0,0,1085.167603
1266,1798,1,0,0,0,593.492798
-1327,1467,3,0,0,0,591.867004
-1899,-735,4,0,0,0,663.300110
915,-564,5,1,0,3,106.059853
728,924,1,1,0,6,60.811241
-856,706,3,0,0,0,757.048218
-1041,-780,4,0,0,0,791.743958
769,-106,5,0,0,0,859.736938
865,1399,1,0,0,0,676.232910
-1428,1049,3,1,0,6,60.811241
-762,-592,4,1,0,6,60.811241
1489,-747,5,0,0,0,640.744507
400,1771,1,0,0,0,648.017395
-152,605,3,1,0,6,60.811241
-637,-1425,4,0,0,0,739.411499
643,-1581,5,0,0,0,633.833374
265,950,1,0,0,0,822.954285
-1385,511,3,0,0,0,675.245300
-158,-387,4,0,0,0,1118.765503
39,-851,5,0,0,0,832.990662
501,1057,1,0,0,0,773.926941
-1214,651,3,0,0,0,695.044312
-513,-1503,4,0,0,0,734.449341
1094,-759,5,0,0,0,704.772583
1496,1835,1,1,0,6,60.811241
-1284,1007,3,0,0,0,646.641907
-1321,-1637,4,1,0,3,106.059853
858,-1100,5,1,0,3,106.059853
752,1369,1,0,0,0,691.019470
-186,955,3,0,0,0,794.790039
-946,-622,4,0,0,0,831.661987
1831,-1225,5,0,0,0,561.373901
1296,1888,1,1,0,6,60.811241
-1481,1669,3,0,0,0,557.760071
-1996,-432,4,0,0,0,662.468445
365,-57,5,0,0,0,1073.705200
144,1065,1,0,0,0,798.270264
-142,1529,3,0,0,0,663.987793
-98,-1041,4,0,0,0,854.545654
796,-1899,5,0,0,0,580.494141
1297,1785,1,1,0,6,60.811241
-794,768,3,0,0,0,758.325928
-220,-635,4,1,0,3,106.059853
134,-1367,5,0,0,0,695.872681
439,935,1,0,0,0,809.662659
-940,1821,3,0,0,0,581.843323
-823,-104,4,0,0,0,921.191101
1726,-1568,5,1,0,3,106.059853
350,1979,1,0,0,0,619.074341
-203,151,3,1,0,6,60.811241
-945,-1829,4,0,0,0,660.171631
1292,-600,5,0,0,0,685.446960
426,1393,1,0,0,0,710.994080
-1693,763,3,0,0,0,609.818298
-347,-1993,4,0,0,0,665.171387
692,-782,5,0,0,0,774.480347
148,743,1,1,0,6,60.811241
-395,1624,3,0,0,0,639.809082
-890,-1695,4,0,0,0,680.931824
1775,-194,5,0,0,0,620.975830
715,1786,1,0,0,0,631.514221
-1067,1574,3,0,0,0,603.076111
-1923,-814,4,0,0,0,656.111694
200,-1123,5,0,0,0,749.118225
-1519,1841,3,0,0,0,538.766968
-1179,-1671,4,0,0,0,662.070557
947,-426,5,0,0,0,776.083252
-1457,1994,3,0,0,0,529.166870
-698,-1927,4,0,0,0,661.448669
1851,-1009,5,0,0,0,573.823669
-354,1749,3,1,0,6,60.811241
-1732,-882,4,1,0,6,60.811241
968,-114,5,0,0,0,794.275085
-1751,1288,3,0,0,0,565.159485
-388,-391,4,1,0,6,60.811241
157,-1706,5,1,0,3,106.059853
-1501,166,3,0,0,0,668.758240
-1033,-508,4,1,0,6,60.811241
1772,-1704,5,1,0,3,106.059853
-488,1870,3,0,0,0,598.474243
-958,-664,4,0,0,0,823.287964
1349,-1705,5,0,0,0,565.103333
-916,1305,3,0,0,0,653.256348
-1667,-1125,4,0,0,0,666.854675
125,-915,5,0,0,0,809.781555
-247,1153,3,0,0,0,739.597656
-232,-939,4,0,0,0,876.969055
1715,-575,5,1,0,3,106.059853
-160,583,3,0,0,0,931.726807
-833,-1277,4,1,0,3,106.059853
257,-1820,5,0,0,0,612.732971
-1892,1852,3,0,0,0,509.638031
-698,-636,4,1,0,3,106.059853
1642,-121,5,0,0,0,644.088562
-1104,1370,3,0,0,0,625.168945
-1048,-1744,4,0,0,0,663.527161
470,-252,5,0,0,0,967.865234
-1425,1573,3,0,0,0,571.904297
-850,-171,4,0,0,0,908.461060
1964,-302,5,0,0,0,590.586487
-329,391,3,0,0,0,980.172424
-1184,-1440,4,1,0,3,106.059853
1970,-1156,5,0,0,0,551.159485
-761,1094,3,0,0,0,704.527100
-281,-770,4,0,0,0,924.640259
1602,-1601,5,0,0,0,553.550049
-1385,802,3,0,0,0,652.174377
-377,-506,4,0,0,0,1000.023071
1791,-528,5,0,0,0,608.258545
-1311,1840,3,1,0,6,60.811241
-1052,-680,4,0,0,0,802.586487
422,-246,5,0,0,0,993.171509
-647,103,3,0,0,0,908.577942
-138,-1913,4,0,0,0,680.406616
874,-1687,5,1,0,3,106.059853
-1531,1951,3,0,0,0,527.985474
-1769,-11,4,1,0,6,60.811241
432,-1289,5,0,0,0,698.823425
-1908,1040,3,1,0,6,60.811241
-280,-629,4,0,0,0,974.885315
1651,-1226,5,0,0,0,580.860229
-1424,1919,3,1,0,6,60.811241
-1410,-1710,4,0,0,0,639.118164
1059,-561,5,0,0,0,734.951904
-1327,1671,3,0,0,0,570.397705
-1115,-1012,4,1,0,3,106.059853
858,-1555,5,0,0,0,622.505005
-661,1929,3,1,0,6,60.811241
-1389,-188,4,0,0,0,770.291626
1380,-1295,5,0,0,0,604.439575
-432,1321,3,0,0,0,692.498108
-1130,-235,4,1,0,6,60.811241
77,-192,5,0,0,0,1240.965210
-1307,356,3,0,0,0,699.846313
-349,-1151,4,0,0,0,814.270569
1272,-1031,5,0,0,0,645.668213
-1545,706,3,1,0,6,60.811241
-1575,-1426,4,0,0,0,651.171936
1626,-1012,5,0,0,0,601.045837
-1490,917,3,0,0,0,626.775330
-161,-393,4,1,0,6,60.811241
1478,-204,5,0,0,0,672.211670
-897,860,3,0,0,0,724.557556
-858,-1300,4,0,0,0,740.014893
0,-549,5,0,0,0,959.501465
-231,921,3,0,0,0,801.791748
-1591,-818,4,0,0,0,700.329346
10,-449,5,1,0,3,106.059853
-1517,268,3,0,0,0,663.075562
-1603,-1468,4,0,0,0,644.669312
1719,-1318,5,1,0,3,106.059853
-1263,1634,3,0,0,0,579.650818
-1940,-477,4,0,0,0,668.752686
729,-453,5,1,0,3,106.059853
-193,1809,3,0,0,0,615.655762
-444,-879,4,0,0,0,871.796509
1072,-1863,5,0,0,0,568.337769
-932,470,3,1,0,6,60.811241
-1200,-749,4,0,0,0,767.660767
827,-1089,5,0,0,0,697.152344
-254,979,3,0,0,0,783.648376
-1725,-1656,4,0,0,0,617.486633
1253,-513,5,0,0,0,699.987366
-1728,202,3,0,0,0,628.375427
-1677,-1865,4,0,0,0,603.917908
1310,-1068,5,0,0,0,636.613953
-519,1746,3,0,0,0,615.306152
-763,-700,4,1,0,3,106.059853
1842,-772,5,0,0,0,589.140625
-382,1921,3,0,0,0,594.682068
-601,-1548,4,0,0,0,721.662842
200,-571,5,0,0,0,931.509399
-1457,1880,3,0,0,0,539.744263
-1338,-1032,4,0,0,0,716.670959
1836,-1434,5,1,0,3,106.059853
-1737,92,3,0,0,0,628.429688
-9,-560,4,1,0,3,106.059853
1020,-456,5,0,0,0,755.061401
-352,1947,3,0,0,0,591.805725
-1792,-1484,4,1,0,3,106.059853
1201,-1999,5,0,0,0,545.303589
-1137,1463,3,0,0,0,610.449646
-392,-301,4,0,0,0,1070.460571
1227,-1774,5,0,0,0,567.341309
-520,1495,3,0,0,0,655.329346
-1889,-1253,4,1,0,3,106.059853
1346,-321,5,0,0,0,693.756226
-1420,1279,3,0,0,0,601.658142
-1357,-776,4,0,0,0,738.986511
1791,-182,5,0,0,0,618.649902
-1266,1776,3,0,0,0,564.205688
-1437,-1558,4,0,0,0,651.861511
325,-728,5,0,0,0,852.062561
-504,768,3,0,0,0,811.308350
-920,-1056,4,0,0,0,770.520630
1328,-1269,5,0,0,0,612.922607
-1145,1745,3,1,0,6,60.811241
-1530,-1768,4,0,0,0,623.881409
1062,-1995,5,0,0,0,554.149658
-1875,1082,3,0,0,0,566.319641
-1044,-1692,4,0,0,0,670.131409
1043,-1913,5,0,0,0,564.488831
-577,1339,3,0,0,0,678.797913
-645,-969,4,1,0,3,106.059853
1860,-1700,5,1,0,3,106.059853
-634,835,3,0,0,0,773.327026
-92,-622,4,0,0,0,1001.046509
881,-1804,5,0,0,0,587.668396
-1348,1086,3,1,0,6,60.811241
-770,-162,4,0,0,0,936.410278
1017,-816,5,0,0,3,106.059853
-57,1174,3,0,0,0,740.517761
-716,-1269,4,0,0,0,759.164246
734,-1345,5,1,0,3,106.059853
-1474,631,3,0,0,0,651.651184
-1434,-1886,4,0,0,0,620.113770
95,-1837,5,0,0,0,612.516663
-313,1160,3,0,0,0,734.218140
-546,-686,4,0,0,0,905.246338
1556,-1741,5,1,0,3,106.059853
-1523,631,3,0,0,0,643.726807
-684,-921,4,1,0,3,106.059853
622,-1201,5,1,0,3,106.059853
-42,974,3,0,0,0,794.211487
-956,-258,4,0,0,0,870.213745
1661,-651,5,0,0,0,621.223328
-254,800,3,0,0,0,837.255920
-1473,-1395,4,0,0,0,664.360413
1120,-1647,5,1,0,3,106.059853
-1625,1206,3,1,0,6,60.811241
-918,-1256,4,0,0,0,740.364319
650,-978,5,0,0,0,740.781799
-975,1860,3,1,0,6,60.811241
-1732,-1381,4,1,0,3,106.059853
1553,-1547,5,0,0,0,562.783691
-1585,455,3,0,0,0,643.644897
-1505,-80,4,0,0,0,749.468323
146,-1673,5,0,0,0,638.445801
-34,1914,3,0,0,0,601.180115
-1882,-764,4,0,0,0,664.018433
355,-1134,5,0,0,0,737.390808
-36,909,3,1,0,6,60.811241
-1093,-1794,4,1,0,3,106.059853
1889,-1219,5,0,0,0,555.638367
-1223,1941,3,0,0,0,549.921631
-48,-1571,4,1,0,3,106.059853
371,-1773,5,0,0,0,616.888550
-1068,195,3,0,0,0,763.305481
-225,-183,4,0,0,0,1224.206787
343,-1179,5,0,0,0,727.987732
-420,880,3,0,0,0,794.156982
-1993,-1998,4,0,0,0,570.468567
829,-830,5,1,0,3,106.059853
-1884,679,3,0,0,0,588.376709
-164,-613,4,0,0,0,998.403137
1634,-1363,5,0,0,0,571.190735
-741,552,3,0,0,0,809.624023
-1600,-370,4,0,0,0,724.847595
201,-201,5,0,0,0,1149.286987
-869,1714,3,0,0,0,600.083496
-1632,-243,4,0,0,0,723.495056
1168,-1171,5,0,0,0,642.797180
-691,886,3,0,0,0,753.445007
-528,-95,4,0,0,0,1046.809448
158,-1823,5,0,0,0,614.008118
-1291,678,3,0,0,0,678.763245
-827,-84,4,1,0,6,60.811241
1760,-476,5,1,0,3,106.059853
-351,496,3,0,0,0,930.264954
-1371,-1834,4,1,0,3,106.059853
1932,-289,5,1,0,6,60.811241
-1185,512,3,0,0,0,713.648743
-1168,-1844,4,0,0,0,643.469299
832,-1995,5,1,0,3,106.059853
-648,660,3,1,0,6,60.811241
-397,-1283,4,0,0,0,782.567627
871,-1712,5,0,0,0,600.213257
-248,1156,3,0,0,0,738.834045
-1333,-412,4,0,0,0,771.615540
1749,-1469,5,0,0,0,551.166870
-284,1303,3,0,0,0,704.325134
-925,-1993,4,0,0,0,641.592590
1939,-1639,5,0,0,0,521.389404
-1923,1148,3,0,0,0,556.716980
-1837,-688,4,0,0,0,673.974609
248,-630,5,0,0,0,899.105103
-765,1881,3,0,0,0,584.440552
-1432,-368,4,1,0,6,60.811241
713,-1971,5,0,0,0,575.460022
-1061,1782,3,0,0,0,578.456299
-27,-1011,4,0,0,0,864.128296
107,-869,5,0,0,0,825.108276
-1666,826,3,1,0,6,60.811241
-1421,-1917,4,0,0,0,618.080994
1032,-43,5,1,0,6,60.811241
-1271,575,3,0,0,0,691.435425
-1320,-152,4,0,0,0,785.641907
1084,-334,5,0,0,0,750.727783
-336,395,3,0,0,0,975.931580
-1742,-1332,4,0,0,0,642.151672
756,-58,5,1,0,6,60.811241
-1354,5,3,0,0,0,699.974548
-248,-1880,4,0,0,0,683.658386
1268,-26,5,0,0,0,718.712158
-1134,1503,3,1,0,6,60.811241
-587,-710,4,0,0,0,890.998901
1106,-1943,5,0,0,0,557.206238
-1131,670,3,0,0,0,708.441956
-1344,-759,4,0,0,0,742.624634
144,-1062,5,0,0,0,767.015381
-707,991,3,0,0,0,730.458130
-411,-1468,4,0,0,0,746.189026
1324,-54,5,1,0,6,60.811241
-1142,1147,3,1,0,6,60.811241
-977,-100,4,0,0,0,872.577515
824,-253,5,1,0,6,60.811241
-1733,310,3,0,0,0,625.000122
-631,-1511,4,0,0,0,725.679993
1493,-810,5,0,0,0,635.202942
-687,1432,3,0,0,0,654.354492
-1266,-992,4,0,0,0,730.821289
149,-842,5,0,0,0,831.915894
-1521,1616,3,0,0,0,559.301147
-1967,-675,4,0,0,0,657.288818
758,-1367,5,0,0,0,658.916504
-384,183,3,0,0,0,1033.040161
-374,-407,4,0,0,0,1038.197876
1592,-1352,5,0,0,0,576.457825
-1675,154,3,0,0,0,637.986816
-492,-395,4,0,0,0,1000.050720
1371,-91,5,0,0,0,695.775879
-1526,461,3,0,0,0,653.306030
-1494,-764,4,0,0,0,718.668640
1495,-1667,5,0,0,0,556.771057
-334,1712,3,1,0,6,60.811241
-375,-1650,4,0,0,0,716.277344
1478,-1633,5,0,0,0,561.432495
-10,1423,3,0,0,0,685.745728
-319,-1924,4,0,0,0,675.632507
1525,-1522,5,0,0,0,567.660828
-1976,399,3,0,0,0,586.505005
-1069,-1475,4,0,0,0,695.148132
421,-329,5,0,0,0,967.319946
-1401,835,3,1,0,6,60.811241
-1694,-1158,4,1,0,3,106.059853
1059,-419,5,0,0,0,749.569397
-1405,1953,3,1,0,6,60.811241
-308,-733,4,1,0,3,106.059853
1914,-1359,5,0,0,0,543.452881
-1733,1584,3,0,0,0,543.400391
-1853,-1079,4,0,0,0,648.549194
471,-1579,5,1,0,3,106.059853
-590,1256,3,0,0,0,692.945312
-1353,-858,4,0,0,0,731.936462
-1888,1834,3,1,0,6,60.811241
-669,-1650,4,0,0,0,701.693115
-267,1943,3,0,0,0,594.298828
-370,-753,4,0,0,0,917.929016
-319,1303,3,0,0,0,702.636230
-1082,-713,4,0,0,0,792.851257
-1201,1356,3,0,0,0,616.890076
-1555,-678,4,0,0,0,715.549500
-1405,186,3,1,0,6,60.811241
-446,-1659,4,0,0,0,711.937439
-293,1773,3,0,0,0,619.152344
-536,-1373,4,0,0,0,755.862549
-1998,961,3,1,0,6,60.811241
-750,-1952,4,1,0,3,106.059853
-1095,1928,3,0,0,0,559.550842
-1209,-1134,4,1,0,3,106.059853
-1866,160,3,0,0,0,607.401367
-1941,-89,4,1,0,6,60.811241
-1786,804,3,0,0,0,594.680298
-1195,-258,4,1,0,6,60.811241
-1748,1058,3,0,0,0,582.681824
-763,-1890,4,1,0,3,106.059853
-1758,304,3,0,0,0,621.211853
-1738,-1016,4,0,0,0,666.558777
-182,808,3,0,0,0,841.089478
-440,-741,4,0,0,0,910.207153
-1064,1925,3,0,0,0,561.825256
-1550,-1715,4,0,0,0,627.121521
-1147,1651,3,0,0,0,587.287720
-1128,-936,4,0,0,0,757.453064
-1842,330,3,0,0,0,607.632263
-1378,-640,4,0,0,0,747.146667
-1015,-848,4,1,0,3,106.059853
-1547,-1949,4,0,0,0,606.165955
-1566,-1541,4,1,0,3,106.059853
-1731,-1490,4,0,0,0,630.554321
-1165,-1038,4,0,0,0,739.513062
-1908,-297,4,0,0,0,678.474182
-445,-607,4,0,0,0,949.218140
-722,-1561,4,0,0,0,711.607300


each generation good chromosome number
1,1,1,