mbs coordinate
0,0

cbsd coordinate and channel
-970,900,2
740,900,1
980,-860,1
-750,-850,5
-750,1000,4
1050,600,2
760,-1135,3
-870,-1100,1
-1080,450,1
970,530,3

building coordinate
-885,985
-1055,815
830,810
650,990
1060,-860
900,-860
-830,-770
-670,-930
-668,1070
-832,930
965,675
1135,525
832,-1059
688,-1211
-965,-1035
-775,-1165
-1135,365
-1025,535
907,591
1033,469

area numbers
138,118,251,259,234,

x , y , block , block number
area 1
174,657,0,0
488,1434,0,0
1386,1829,0,0
427,909,0,0
1439,1545,1,0
1191,1937,0,0
215,629,0,0
149,331,0,0
945,1239,0,0
578,900,0,0
335,1465,0,0
560,840,0,0
191,1495,0,0
1046,1119,1,0
341,825,1,0
340,1706,0,0
738,1950,0,0
1530,1716,0,0
292,528,1,0
784,1815,0,0
1357,1565,1,0
332,908,1,0
122,1643,0,0
161,721,0,0
354,912,0,0
116,332,0,0
445,827,0,0
273,1974,0,0
642,1541,0,0
783,1235,0,0
164,1313,0,0
784,1024,0,0
118,786,0,0
324,521,0,0
144,1756,0,0
401,1480,0,0
154,1728,0,0
87,1427,0,0
579,1219,0,0
356,1164,0,0
877,1962,0,0
1056,1845,0,0
695,769,0,0
24,303,1,0
242,1619,0,0
641,895,1,0
1199,1337,0,0
609,1332,0,0
210,991,0,0
81,1393,0,0
404,1340,1,0
89,758,0,0
1873,1993,0,0
502,1528,0,0
154,242,0,0
1008,1690,1,0
990,1470,1,0
838,1431,1,0
1186,1413,0,0
743,1915,1,0
458,698,0,0
1142,1715,0,0
104,1325,0,0
779,1404,1,0
959,1651,0,0
366,839,0,0
229,1329,0,0
521,794,0,0
102,1289,0,0
1398,1999,1,0
901,1587,0,0
1605,1635,0,0
1465,1717,0,0
842,1351,1,0
1497,1645,1,0
956,1836,1,0
1794,1925,0,0
1245,1901,0,0
721,1453,0,0
382,1058,0,0
1531,1594,1,0
558,1754,1,0
40,1521,0,0
498,1331,0,0
27,1048,0,0
671,1940,0,0
554,1021,1,0
742,785,1,0
1455,1788,0,0
936,1215,0,0
1025,1554,1,0
512,1831,0,0
715,738,1,0
395,1684,0,0
219,1812,0,0
59,152,0,0
239,1979,0,0
1050,1134,0,0
227,258,0,0
1067,1560,1,0
138,1938,0,0
315,586,0,0
785,941,0,0
441,1169,0,0
827,989,1,0
528,1140,1,0
539,1242,1,0
699,1270,1,0
214,898,0,0
114,1234,0,0
262,1457,0,0
709,1350,0,0
747,1477,0,0
321,750,1,0
753,1353,0,0
557,643,0,0
1392,1766,0,0
203,472,0,0
890,1501,1,0
41,1993,0,0
51,393,0,0
547,1965,0,0
1266,1798,0,0
728,924,1,0
865,1399,0,0
400,1771,0,0
265,950,0,0
501,1057,0,0
1496,1835,1,0
752,1369,0,0
1296,1888,1,0
144,1065,0,0
1297,1785,1,0
439,935,0,0
350,1979,0,0
426,1393,0,0
148,743,1,0
715,1786,0,0
area 2
1994,522,1,0
1168,862,0,0
1472,992,0,0
1580,1441,1,0
1216,731,0,0
1770,649,0,0
1262,1003,0,0
444,84,0,0
1643,430,0,0
1910,613,0,0
1718,1546,0,0
1123,1107,0,0
974,729,0,0
1292,1173,0,0
1820,42,0,0
1104,1081,1,0
552,550,0,0
1999,280,0,0
1431,590,0,0
1197,747,0,0
1384,180,0,0
915,808,0,0
1619,855,0,0
1557,1517,0,0
521,71,0,0
167,68,0,0
918,114,0,0
567,541,0,0
1485,1412,0,0
1587,647,0,0
691,672,0,0
1954,1123,0,0
1348,241,1,0
1513,749,1,0
1812,812,0,0
1665,849,1,0
1582,424,0,0
1040,802,0,0
1477,1009,0,0
1732,1216,1,0
801,735,0,0
1551,1234,0,0
1546,1111,0,0
1791,721,0,0
1778,1414,0,0
877,756,0,0
1460,130,0,0
1948,1030,0,0
561,103,0,0
1878,1272,1,0
1983,1672,1,0
1946,638,0,0
1957,139,1,0
1126,148,0,0
1488,946,0,0
1961,454,0,0
1020,399,1,0
1808,1537,0,0
1443,77,0,0
1126,641,1,0
1072,391,0,0
991,248,1,0
1338,674,0,0
845,607,0,0
913,416,0,0
1733,1510,0,0
1352,1230,0,0
1497,102,1,0
1606,1268,0,0
192,17,0,0
1385,266,0,0
1054,738,0,0
912,731,0,0
1295,211,0,0
1763,65,1,0
1918,1531,0,0
1981,1240,0,0
1560,159,0,0
575,301,0,0
1854,90,0,0
1822,890,1,0
1921,269,0,0
1193,645,0,0
1340,283,1,0
1567,1564,0,0
613,587,0,0
1622,558,0,0
994,660,1,0
1786,698,0,0
1753,1575,1,0
1030,890,1,0
1000,362,0,0
746,312,0,0
1839,1737,0,0
1929,1151,0,0
1733,253,0,0
1690,1652,0,0
1372,100,1,0
1017,444,0,0
1286,118,0,0
956,950,0,0
1691,1060,0,0
743,721,1,0
556,356,0,0
1809,1389,0,0
1693,827,1,0
885,695,0,0
1446,1024,0,0
1931,1659,0,0
1027,621,0,0
1149,261,1,0
1116,302,0,0
1079,362,1,0
1120,805,0,0
1504,1423,0,0
888,668,0,0
1714,345,0,0
1335,628,0,0
area 3
-535,1043,0,0
-1029,807,0,0
-277,1776,0,0
-1007,1853,0,0
-962,284,0,0
-578,583,1,0
-27,212,0,0
-1416,292,0,0
-1880,1695,0,0
-1666,93,1,0
-1495,1053,0,0
-836,1891,0,0
-142,1619,0,0
-1971,1109,0,0
-1215,107,0,0
-25,1880,1,0
-909,1048,0,0
-1907,396,1,0
-1092,1356,0,0
-1089,764,1,0
-1417,1488,1,0
-1369,1746,0,0
-997,359,1,0
-578,1427,1,0
-433,1859,0,0
-1378,118,1,0
-1278,1156,1,0
-884,819,0,0
-609,1865,1,0
-1757,1413,1,0
-629,385,0,0
-1712,1852,0,0
-85,1216,0,0
-1317,318,1,0
-678,616,0,0
-508,28,1,0
-915,37,1,0
-376,1349,1,0
-705,477,1,0
-1170,1643,0,0
-481,1527,0,0
-1386,1369,1,0
-668,14,0,0
-697,1176,0,0
-1508,1064,0,0
-1858,21,1,0
-1720,1704,0,0
-1356,1705,1,0
-515,1157,1,0
-427,255,0,0
-97,446,0,0
-149,882,0,0
-523,106,1,0
-476,589,1,0
-615,631,0,0
-613,383,1,0
-1047,488,0,0
-124,1767,0,0
-1494,1500,0,0
-367,92,0,0
-1283,1384,0,0
-26,1704,0,0
-691,1525,0,0
-198,1870,0,0
-1079,389,0,0
-1413,882,1,0
-518,396,1,0
-422,1943,0,0
-384,1476,1,0
-1275,1528,0,0
-1950,834,0,0
-463,1741,0,0
-135,1169,0,0
-541,1850,0,0
-581,1203,1,0
-1179,1092,1,0
-375,1282,1,0
-231,488,0,0
-423,1458,0,0
-961,1336,0,0
-883,970,0,0
-1679,548,0,0
-1167,1437,0,0
-571,485,0,0
-1094,1578,1,0
-1132,719,0,0
-1882,985,0,0
-84,1119,1,0
-233,1408,1,0
-226,923,0,0
-1212,1770,0,0
-1209,320,0,0
-1361,554,0,0
-759,1898,0,0
-711,356,0,0
-742,757,0,0
-1676,1503,0,0
-1389,860,0,0
-1739,1512,0,0
-461,1265,0,0
-70,513,0,0
-666,129,1,0
-1151,645,0,0
-658,607,0,0
-1963,432,0,0
-1656,1784,1,0
-1405,1691,0,0
-1861,605,1,0
-76,1862,0,0
-329,539,0,0
-890,67,1,0
-1906,126,0,0
-548,356,0,0
-1130,301,0,0
-1293,609,0,0
-561,976,0,0
-1167,1265,0,0
-943,588,0,0
-268,655,0,0
-1268,173,1,0
-1411,1133,0,0
-1866,1058,0,0
-1327,1467,0,0
-856,706,0,0
-1428,1049,1,0
-152,605,1,0
-1385,511,0,0
-1214,651,0,0
-1284,1007,0,0
-186,955,0,0
-1481,1669,0,0
-142,1529,0,0
-794,768,0,0
-940,1821,0,0
-203,151,1,0
-1693,763,0,0
-395,1624,0,0
-1067,1574,0,0
-1519,1841,0,0
-1457,1994,0,0
-354,1749,1,0
-1751,1288,0,0
-1501,166,0,0
-488,1870,0,0
-916,1305,0,0
-247,1153,0,0
-160,583,0,0
-1892,1852,0,0
-1104,1370,0,0
-1425,1573,0,0
-329,391,0,0
-761,1094,0,0
-1385,802,0,0
-1311,1840,1,0
-647,103,0,0
-1531,1951,0,0
-1908,1040,1,0
-1424,1919,1,0
-1327,1671,0,0
-661,1929,1,0
-432,1321,0,0
-1307,356,0,0
-1545,706,1,0
-1490,917,0,0
-897,860,0,0
-231,921,0,0
-1517,268,0,0
-1263,1634,0,0
-193,1809,0,0
-932,470,1,0
-254,979,0,0
-1728,202,0,0
-519,1746,0,0
-382,1921,0,0
-1457,1880,0,0
-1737,92,0,0
-352,1947,0,0
-1137,1463,0,0
-520,1495,0,0
-1420,1279,0,0
-1266,1776,0,0
-504,768,0,0
-1145,1745,1,0
-1875,1082,0,0
-577,1339,0,0
-634,835,0,0
-1348,1086,1,0
-57,1174,0,0
-1474,631,0,0
-313,1160,0,0
-1523,631,0,0
-42,974,0,0
-254,800,0,0
-1625,1206,1,0
-975,1860,1,0
-1585,455,0,0
-34,1914,0,0
-36,909,1,0
-1223,1941,0,0
-1068,195,0,0
-420,880,0,0
-1884,679,0,0
-741,552,0,0
-869,1714,0,0
-691,886,0,0
-1291,678,0,0
-351,496,0,0
-1185,512,0,0
-648,660,1,0
-248,1156,0,0
-284,1303,0,0
-1923,1148,0,0
-765,1881,0,0
-1061,1782,0,0
-1666,826,1,0
-1271,575,0,0
-336,395,0,0
-1354,5,0,0
-1134,1503,1,0
-1131,670,0,0
-707,991,0,0
-1142,1147,1,0
-1733,310,0,0
-687,1432,0,0
-1521,1616,0,0
-384,183,0,0
-1675,154,0,0
-1526,461,0,0
-334,1712,1,0
-10,1423,0,0
-1976,399,0,0
-1401,835,1,0
-1405,1953,1,0
-1733,1584,0,0
-590,1256,0,0
-1888,1834,1,0
-267,1943,0,0
-319,1303,0,0
-1201,1356,0,0
-1405,186,1,0
-293,1773,0,0
-1998,961,1,0
-1095,1928,0,0
-1866,160,0,0
-1786,804,0,0
-1748,1058,0,0
-1758,304,0,0
-182,808,0,0
-1064,1925,0,0
-1147,1651,0,0
-1842,330,0,0
area 4
-1883,-1058,1,0
-1905,-621,1,0
-1128,-1204,0,0
-161,-1384,0,0
-1523,-54,0,0
-1054,-1547,1,0
-451,-136,0,0
-1666,-1865,0,0
-639,-1689,0,0
-2000,-977,0,0
-1661,-1382,0,0
-571,-1132,0,0
-279,-66,0,0
-1539,-243,0,0
-716,-1587,0,0
-1972,-1707,0,0
-1661,-642,1,0
-1032,-516,1,0
-497,-870,0,0
-1770,-1090,0,0
-1298,-982,0,0
-293,-1758,1,0
-1663,-701,0,0
-298,-530,0,0
-1147,-1299,0,0
-102,-537,0,0
-585,-1735,0,0
-118,-1101,0,0
-65,-1910,1,0
-1120,-1381,0,0
-600,-1815,0,0
-1064,-389,1,0
-1801,-8,0,0
-541,-341,0,0
-557,-1056,0,0
-1193,-1247,0,0
-197,-1685,1,0
-664,-609,0,0
-125,-1211,0,0
-1236,-1158,0,0
-1345,-828,0,0
-1534,-424,0,0
-686,-532,0,0
-1709,-266,1,0
-171,-1989,0,0
-1644,-1429,0,0
-1290,-259,0,0
-1855,-369,0,0
-1125,-618,0,0
-1373,-1700,0,0
-1595,-1327,1,0
-1224,-1881,1,0
-945,-1219,0,0
-1936,-1223,0,0
-1954,-1792,0,0
-1800,-651,1,0
-88,-1268,0,0
-146,-1257,0,0
-607,-1469,0,0
-1338,-1762,1,0
-1055,-1148,0,0
-149,-1928,0,0
-236,-281,1,0
-422,-1726,0,0
-1920,-1551,1,0
-1019,-1214,0,0
-282,-1073,0,0
-1704,-240,0,0
-551,-648,1,0
-317,-945,1,0
-392,-1102,1,0
-592,-522,0,0
-262,-905,0,0
-1830,-483,0,0
-1966,-1738,0,0
-1875,-1197,0,0
-224,-1684,0,0
-279,-769,0,0
-1278,-123,0,0
-1730,-1187,0,0
-1983,-1655,1,0
-821,-1631,1,0
-1840,-846,1,0
-280,-1727,0,0
-496,-1962,0,0
-92,-1732,1,0
-505,-1770,0,0
-955,-1778,0,0
-1533,-285,0,0
-347,-753,1,0
-1733,-1417,0,0
-492,-909,0,0
-341,-1109,0,0
-527,-1370,0,0
-1382,-1835,1,0
-236,-1787,0,0
-27,-583,0,0
-1289,-257,0,0
-682,-1645,0,0
-494,-689,0,0
-801,-1528,0,0
-1806,-533,0,0
-1711,-1340,0,0
-1230,-1416,0,0
-716,-401,0,0
-1339,-1628,0,0
-1229,-468,0,0
-831,-1782,1,0
-304,-274,1,0
-1051,-1515,0,0
-1970,-1105,0,0
-1787,-71,0,0
-847,-1494,0,0
-615,-142,0,0
-1360,-998,1,0
-1853,-2,0,0
-940,-211,0,0
-577,-613,0,0
-1441,-165,0,0
-448,-619,0,0
-905,-1962,0,0
-1474,-1942,0,0
-1899,-735,0,0
-1041,-780,0,0
-762,-592,1,0
-637,-1425,0,0
-158,-387,0,0
-513,-1503,0,0
-1321,-1637,1,0
-946,-622,0,0
-1996,-432,0,0
-98,-1041,0,0
-220,-635,1,0
-823,-104,0,0
-945,-1829,0,0
-347,-1993,0,0
-890,-1695,0,0
-1923,-814,0,0
-1179,-1671,0,0
-698,-1927,0,0
-1732,-882,1,0
-388,-391,1,0
-1033,-508,1,0
-958,-664,0,0
-1667,-1125,0,0
-232,-939,0,0
-833,-1277,1,0
-698,-636,1,0
-1048,-1744,0,0
-850,-171,0,0
-1184,-1440,1,0
-281,-770,0,0
-377,-506,0,0
-1052,-680,0,0
-138,-1913,0,0
-1769,-11,1,0
-280,-629,0,0
-1410,-1710,0,0
-1115,-1012,1,0
-1389,-188,0,0
-1130,-235,1,0
-349,-1151,0,0
-1575,-1426,0,0
-161,-393,1,0
-858,-1300,0,0
-1591,-818,0,0
-1603,-1468,0,0
-1940,-477,0,0
-444,-879,0,0
-1200,-749,0,0
-1725,-1656,0,0
-1677,-1865,0,0
-763,-700,1,0
-601,-1548,0,0
-1338,-1032,0,0
-9,-560,1,0
-1792,-1484,1,0
-392,-301,0,0
-1889,-1253,1,0
-1357,-776,0,0
-1437,-1558,0,0
-920,-1056,0,0
-1530,-1768,0,0
-1044,-1692,0,0
-645,-969,1,0
-92,-622,0,0
-770,-162,0,0
-716,-1269,0,0
-1434,-1886,0,0
-546,-686,0,0
-684,-921,1,0
-956,-258,0,0
-1473,-1395,0,0
-918,-1256,0,0
-1732,-1381,1,0
-1505,-80,0,0
-1882,-764,0,0
-1093,-1794,1,0
-48,-1571,1,0
-225,-183,0,0
-1993,-1998,0,0
-164,-613,0,0
-1600,-370,0,0
-1632,-243,0,0
-528,-95,0,0
-827,-84,1,0
-1371,-1834,1,0
-1168,-1844,0,0
-397,-1283,0,0
-1333,-412,0,0
-925,-1993,0,0
-1837,-688,0,0
-1432,-368,1,0
-27,-1011,0,0
-1421,-1917,0,0
-1320,-152,0,0
-1742,-1332,0,0
-248,-1880,0,0
-587,-710,0,0
-1344,-759,0,0
-411,-1468,0,0
-977,-100,0,0
-631,-1511,0,0
-1266,-992,0,0
-1967,-675,0,0
-374,-407,0,0
-492,-395,0,0
-1494,-764,0,0
-375,-1650,0,0
-319,-1924,0,0
-1069,-1475,0,0
-1694,-1158,1,0
-308,-733,1,0
-1853,-1079,0,0
-1353,-858,0,0
-669,-1650,0,0
-370,-753,0,0
-1082,-713,0,0
-1555,-678,0,0
-446,-1659,0,0
-536,-1373,0,0
-750,-1952,1,0
-1209,-1134,1,0
-1941,-89,1,0
-1195,-258,1,0
-763,-1890,1,0
-1738,-1016,0,0
-440,-741,0,0
-1550,-1715,0,0
-1128,-936,0,0
-1378,-640,0,0
-1015,-848,1,0
-1547,-1949,0,0
-1566,-1541,1,0
-1731,-1490,0,0
-1165,-1038,0,0
-1908,-297,0,0
-445,-607,0,0
-722,-1561,0,0
area 5
229,-1843,0,0
278,-1087,0,0
529,-1153,0,0
441,-1970,0,0
804,-1814,0,0
532,-457,0,0
1274,-616,0,0
1651,-15,0,0
1231,-1679,0,0
551,-553,1,0
942,-1211,1,0
1599,-552,0,0
1819,-375,0,0
1763,-470,1,0
634,-362,0,0
1694,-1634,0,0
387,-1645,0,0
1754,-1489,0,0
1908,-1604,1,0
1569,-561,0,0
1792,-1028,0,0
1154,-1973,0,0
596,-585,1,0
1145,-1966,1,0
1539,-1464,0,0
1074,-606,0,0
867,-1474,0,0
1331,-1820,0,0
127,-1783,1,0
1050,-1796,1,0
1224,-1242,0,0
46,-934,0,0
11,-1432,0,0
1077,-1177,0,0
1680,-748,0,0
111,-144,0,0
1515,-1673,0,0
552,-1611,0,0
39,-47,0,0
1448,-941,1,0
1019,-1889,0,0
1469,-350,0,0
1240,-1999,0,0
109,-1721,1,0
1360,-1098,0,0
1954,-504,0,0
959,-1682,0,0
1199,-1755,1,0
1066,-1998,0,0
746,-667,0,0
718,-1672,0,0
1147,-1409,0,0
410,-748,0,0
1058,-588,1,0
1955,-612,0,0
853,-1626,0,0
1187,-334,0,0
1100,-1600,0,0
1632,-1999,0,0
1815,-254,0,0
882,-90,0,0
669,-1415,0,0
1301,-1212,0,0
1488,-302,1,0
638,-1798,0,0
28,-1037,1,0
904,-657,1,0
1306,-552,0,0
1283,-1723,0,0
1164,-1921,0,0
175,-881,1,0
1301,-1047,0,0
1282,-94,0,0
506,-731,1,0
112,-1410,1,0
190,-1325,0,0
384,-792,0,0
1938,-1501,0,0
263,-426,0,0
669,-969,0,0
182,-1365,0,0
1854,-1953,0,0
1490,-958,1,0
1033,-534,0,0
254,-779,0,0
1387,-1202,0,0
213,-12,1,0
547,-1815,0,0
1513,-1246,0,0
1517,-665,0,0
709,-1498,1,0
760,-705,0,0
1334,-1937,0,0
1754,-33,0,0
1163,-1907,0,0
1297,-1717,0,0
97,-61,1,0
1115,-1344,0,0
1073,-611,0,0
521,-1155,0,0
610,-1162,0,0
1165,-809,0,0
1485,-1260,0,0
1889,-37,0,0
1391,-545,0,0
1019,-935,0,0
1558,-1479,0,0
937,-1336,0,0
1924,-881,0,0
556,-1811,0,0
1130,-86,0,0
313,-1148,0,0
1101,-1851,0,0
467,-502,1,0
663,-214,1,0
551,-1061,1,0
1236,-1793,0,0
1889,-1951,1,0
1607,-1398,1,0
517,-1185,0,0
1307,-375,0,0
354,-27,0,0
915,-564,1,0
769,-106,0,0
1489,-747,0,0
643,-1581,0,0
39,-851,0,0
1094,-759,0,0
858,-1100,1,0
1831,-1225,0,0
365,-57,0,0
796,-1899,0,0
134,-1367,0,0
1726,-1568,1,0
1292,-600,0,0
692,-782,0,0
1775,-194,0,0
200,-1123,0,0
947,-426,0,0
1851,-1009,0,0
968,-114,0,0
157,-1706,1,0
1772,-1704,1,0
1349,-1705,0,0
125,-915,0,0
1715,-575,1,0
257,-1820,0,0
1642,-121,0,0
470,-252,0,0
1964,-302,0,0
1970,-1156,0,0
1602,-1601,0,0
1791,-528,0,0
422,-246,0,0
874,-1687,1,0
432,-1289,0,0
1651,-1226,0,0
1059,-561,0,0
858,-1555,0,0
1380,-1295,0,0
77,-192,0,0
1272,-1031,0,0
1626,-1012,0,0
1478,-204,0,0
0,-549,0,0
10,-449,1,0
1719,-1318,1,0
729,-453,1,0
1072,-1863,0,0
827,-1089,0,0
1253,-513,0,0
1310,-1068,0,0
1842,-772,0,0
200,-571,0,0
1836,-1434,1,0
1020,-456,0,0
1201,-1999,0,0
1227,-1774,0,0
1346,-321,0,0
1791,-182,0,0
325,-728,0,0
1328,-1269,0,0
1062,-1995,0,0
1043,-1913,0,0
1860,-1700,1,0
881,-1804,0,0
1017,-816,0,0
734,-1345,1,0
95,-1837,0,0
1556,-1741,1,0
622,-1201,1,0
1661,-651,0,0
1120,-1647,1,0
650,-978,0,0
1553,-1547,0,0
146,-1673,0,0
355,-1134,0,0
1889,-1219,0,0
371,-1773,0,0
343,-1179,0,0
829,-830,1,0
1634,-1363,0,0
201,-201,0,0
1168,-1171,0,0
158,-1823,0,0
1760,-476,1,0
1932,-289,1,0
832,-1995,1,0
871,-1712,0,0
1749,-1469,0,0
1939,-1639,0,0
248,-630,0,0
713,-1971,0,0
107,-869,0,0
1032,-43,1,0
1084,-334,0,0
756,-58,1,0
1268,-26,0,0
1106,-1943,0,0
144,-1062,0,0
1324,-54,1,0
824,-253,1,0
1493,-810,0,0
149,-842,0,0
758,-1367,0,0
1592,-1352,0,0
1371,-91,0,0
1495,-1667,0,0
1478,-1633,0,0
1525,-1522,0,0
421,-329,0,0
1059,-419,0,0
1914,-1359,0,0
471,-1579,1,0

near cbsd peopel number
51
67
43
52
44
52
38
51
49
54
