each times' max average throughput
585.307922,572.425537,583.412537,569.597168,588.175720,568.768311,578.513367,557.838501,584.209473,571.110840,577.763306,574.625122,596.515503,563.718201,584.678467,576.572205,585.975708,583.612183,576.582520,586.294434,577.073547,574.096069,587.000610,0.000000,564.203552,575.047791,582.663757,489.989380,595.660767,577.387695,593.882080,587.845886,592.489014,585.375183,586.537964,579.947693,582.509888,583.064087,570.445984,588.217957,567.731079,0.000000,594.535400,573.979553,582.981873,570.194397,579.064026,585.264587,582.962585,601.592102,585.527283,583.407654,575.691833,595.330811,590.743958,588.231934,591.355103,577.800110,598.295288,0.000000,583.631836,567.122559,576.221313,540.995117,589.083740,594.142639,565.965454,572.135864,593.470398,575.164001,567.704773,554.893188,576.119568,595.652588,0.000000,568.833313,564.927795,583.935181,581.887207,587.799500,584.605957,576.555847,578.770203,579.735596,592.120911,0.000000,568.527466,592.610718,578.966492,582.480896,595.642517,571.149536,575.584412,595.641846,582.369690,583.982422,571.655334,581.575073,576.455872,592.145020,
avg. throughput in all test times
550.640808
avg. BS TX power in all test times
MBS area 1,MBS area 2,MBS area 3,MBS area 4,CBSD 1,CBSD 2,CBSD 3,CBSD 4,CBSD 5,CBSD 6,CBSD 7,CBSD 8,CBSD 9,
7.550,7.650,7.812,7.450,0.151,0.188,0.147,0.234,0.234,0.176,0.181,0.185,0.161,
avg. mbs all power,avg. cbsd enable number,avg. mbs area all power,avg. cbsd all power
47.188,2.000,30.462,1.658
avg. max avg. throughput generation number in all test times
0.790000
avg. number of relay UE
128

the max average throughput times

BS TX power
MBS area 1,MBS area 2,MBS area 3,MBS area 4,CBSD 1,CBSD 2,CBSD 3,CBSD 4,CBSD 5,CBSD 6,CBSD 7,CBSD 8,CBSD 9,
8.750,10.000,7.500,7.500,0.000,0.000,0.000,0.750,0.000,1.000,0.000,0.000,0.000,
max average throughput
592.145020

x,y,area,be blocked (1 : NLOS / 0 : LOS),be blocked number (>=1 : CBSD(x) / 0 : no),connect bs number (>=1 : CBSD / 0 : MBS),throughput (unit : M bps)
1962,690,1,0,0,0,657.261475
-1910,454,2,0,0,0,692.835938
-183,-1373,3,0,0,0,751.570618
1444,-1040,4,1,0,6,220.617523
1748,1058,1,0,0,0,662.323914
-1109,1844,2,1,0,4,110.337227
-198,-380,3,1,0,4,110.337227
1376,-1931,4,1,0,4,110.337227
1387,1268,1,0,0,0,686.239197
-506,1710,2,0,0,0,720.363647
-388,-42,3,0,0,0,1116.343384
1561,-1948,4,0,0,0,583.382202
669,1163,1,0,0,0,782.851990
-157,1450,2,0,0,0,778.055908
-999,-1702,3,0,0,0,650.231689
1709,-884,4,0,0,0,657.472412
713,324,1,0,0,0,937.765930
-263,1267,2,0,0,0,812.438904
-186,-1576,3,0,0,0,712.574280
1196,-939,4,0,0,0,724.816101
1513,279,1,0,0,0,743.555176
-1060,1706,2,1,0,4,110.337227
-357,-616,3,1,0,4,110.337227
848,-457,4,0,0,0,855.957153
1734,75,1,0,0,0,708.998474
-1154,490,2,1,0,4,110.337227
-58,-595,3,0,0,0,993.377380
1620,-1937,4,0,0,0,580.123962
1228,861,1,1,0,6,220.617523
-1207,940,2,1,0,4,110.337227
-1865,-1600,3,1,0,4,110.337227
919,-270,4,0,0,0,857.593628
1716,519,1,0,0,0,699.721863
-1831,95,2,0,0,0,712.414001
-244,-1228,3,1,0,4,110.337227
1601,-962,4,0,0,0,665.953979
236,1620,1,1,0,6,220.617523
-473,608,2,1,0,4,110.337227
-438,-1597,3,0,0,0,700.379150
522,-1580,4,1,0,4,110.337227
1316,534,1,0,0,0,766.516541
-796,1438,2,0,0,0,743.751221
-54,-1502,3,0,0,0,728.153870
887,-1777,4,0,0,0,648.423157
1390,441,1,1,0,6,220.617523
-1489,182,2,0,0,0,769.977844
-468,-1311,3,0,0,0,750.147095
970,-1395,4,0,0,0,693.021179
1953,782,1,1,0,6,220.617523
-1489,875,2,1,0,4,110.337227
-199,-1392,3,0,0,0,747.250732
1938,-236,4,1,0,6,220.617523
526,913,1,0,0,0,852.330750
-205,1233,2,0,0,0,822.405396
-883,-550,3,0,0,0,833.837830
873,-421,4,0,0,0,854.197876
1454,1485,1,1,0,6,220.617523
-197,839,2,1,0,6,220.617523
-44,-1142,3,0,0,0,806.798950
257,-327,4,1,0,4,110.337227
1832,1796,1,0,0,0,597.489258
-662,981,2,1,0,4,110.337227
-1009,-1272,3,0,0,0,706.033020
1577,-164,4,0,0,0,712.832947
679,653,1,1,0,6,220.617523
-141,207,2,1,0,0,373.913757
-915,-377,3,0,0,0,848.200684
1202,-710,4,0,0,0,749.323425
271,770,1,1,0,6,220.617523
-393,822,2,0,0,0,913.405945
-558,-875,3,0,0,0,834.530640
806,-1248,4,0,0,0,731.478088
1844,915,1,0,0,0,660.195435
-332,312,2,1,0,4,110.337227
-892,-1298,3,0,0,0,714.746460
1678,-979,4,0,0,0,654.723572
13,549,1,1,0,6,220.617523
-359,879,2,0,0,0,901.526062
-1970,-141,3,0,0,0,650.013184
190,-271,4,0,0,0,1163.877686
720,1577,1,1,0,6,220.617523
-854,1677,2,0,0,0,704.941589
-276,-1151,3,1,0,4,110.337227
280,-1532,4,0,0,0,717.961853
1323,523,1,1,0,6,220.617523
-642,1705,2,0,0,0,714.232056
-953,-1890,3,0,0,0,630.265991
1398,-1806,4,0,0,0,608.630066
391,245,1,0,0,0,1090.272461
-325,815,2,0,0,0,924.263794
-541,-576,3,0,0,0,912.976807
1218,-215,4,1,0,6,220.617523
807,916,1,0,0,0,809.991943
-219,319,2,1,0,4,110.337227
-1590,-784,3,0,0,0,680.876038
1754,-1440,4,0,0,0,610.438171
1900,1095,1,1,0,6,220.617523
-931,575,2,0,0,0,860.671997
-1205,-1278,3,0,0,0,683.514221
716,-1769,4,1,0,4,110.337227
215,323,1,0,0,0,1140.244019
-1338,1693,2,0,0,0,665.801941
-1341,-1329,3,0,0,0,662.880859
343,-744,4,0,0,0,902.585693
1007,728,1,0,0,0,804.901489
-1798,1430,2,0,0,0,647.925476
-1618,-732,3,0,0,0,680.377197
677,-680,4,0,0,0,857.081970
910,1472,1,1,0,6,220.617523
-1992,1187,2,0,0,0,645.265869
-669,-708,3,0,0,0,852.756653
1871,-107,4,0,0,0,664.997437
1153,333,1,0,0,0,814.898438
-513,1501,2,0,0,0,753.945129
-472,-822,3,0,0,0,860.603760
1830,-1692,4,0,0,0,583.829956
385,206,1,1,0,6,220.617523
-926,1050,2,0,0,0,789.812988
-1010,-1442,3,0,0,0,682.859558
1220,-324,4,0,0,0,778.234985
1423,321,1,0,0,0,758.829895
-1213,421,2,0,0,0,814.675415
-1388,-427,3,1,0,4,110.337227
1402,-924,4,0,0,0,696.408936
1114,931,1,0,0,0,760.199463
-803,206,2,1,0,4,110.337227
-1636,-696,3,0,0,0,680.052734
1087,-719,4,0,0,0,769.057983
1390,1492,1,1,0,6,220.617523
-653,419,2,0,0,0,959.700439
-1752,-712,3,0,0,0,662.404175
805,-1755,4,0,0,0,656.476807
119,719,1,0,0,0,958.502441
-1891,1184,2,0,0,0,656.275696
-1246,-873,3,0,0,0,724.661011
1812,-1070,4,0,0,0,631.931213
1249,1885,1,1,0,6,220.617523
-1800,517,2,1,0,4,110.337227
-131,-1449,3,1,0,4,110.337227
1651,-1128,4,0,0,0,646.494629
887,1461,1,1,0,6,220.617523
-244,1465,2,0,0,0,772.844727
-152,-1680,3,0,0,0,695.089050
1878,-1702,4,0,0,0,579.076172
1740,1427,1,0,0,0,634.782593
-806,1413,2,0,0,0,746.715454
-337,-520,3,0,0,0,983.039246
250,-47,4,0,0,0,1239.802368
1231,1763,1,0,0,0,647.754517
-242,666,2,0,0,0,985.835510
-1417,-171,3,0,0,0,742.971863
839,-1633,4,1,0,4,110.337227
587,1827,1,0,0,0,680.255676
-66,1160,2,0,0,0,843.416870
-1114,-1826,3,0,0,0,627.278870
1692,-1534,4,1,0,4,110.337227
1861,491,1,0,0,0,679.407715
-1610,66,2,1,0,4,110.337227
-1956,-256,3,1,0,4,110.337227
1431,-1065,4,0,0,0,679.102844
302,792,1,0,0,0,914.980530
-94,1076,2,1,0,6,220.617523
-698,-193,3,0,0,0,938.114624
419,-337,4,0,0,0,1023.927124
1496,1010,1,0,0,0,697.771362
-864,557,2,1,0,4,110.337227
-215,-285,3,0,0,0,1142.038818
507,-112,4,0,0,0,1034.012695
364,644,1,0,0,0,954.197083
-776,1667,2,0,0,0,711.586670
-1800,-91,3,1,0,4,110.337227
1441,-1631,4,0,0,0,622.343750
725,45,1,0,0,0,959.447327
-613,615,2,0,0,0,927.261414
-193,-1478,3,0,0,0,730.533142
1584,-1946,4,0,0,0,581.921753
1378,1103,1,0,0,0,704.178955
-461,317,2,0,0,0,1053.959229
-264,-938,3,0,0,0,852.648438
292,-189,4,0,0,0,1149.546631
1387,1441,1,0,0,0,668.426697
-1478,502,2,1,0,4,110.337227
-1303,-888,3,0,0,0,714.407227
169,-1347,4,0,0,0,757.342896
195,1926,1,0,0,0,677.754211
-1808,737,2,0,0,0,694.410767
-574,-72,3,0,0,0,1002.848267
1275,-1726,4,0,0,0,626.365845
1443,1353,1,0,0,0,671.582825
-1426,1400,2,1,0,4,110.337227
-283,-1311,3,0,0,0,760.823792
896,-1734,4,0,0,0,653.389221
979,199,1,0,0,0,867.661682
-1808,958,2,0,0,0,681.002930
-433,-316,3,1,0,4,110.337227
1385,-549,4,0,0,0,730.669128
1010,57,1,0,0,0,864.058044
-1835,1586,2,0,0,0,632.455994
-545,-1535,3,0,0,0,705.102844
100,-582,4,1,0,4,110.337227
1165,1095,1,0,0,0,732.525574
-1067,926,2,0,0,0,787.198914
-98,-165,3,0,0,0,1321.103394
811,-1833,4,0,0,0,645.803528
763,1679,1,0,0,0,691.620667
-1539,1466,2,1,0,4,110.337227
-19,-2000,3,0,0,0,646.416931
1706,-897,4,0,0,0,656.975342
1654,79,1,0,0,0,722.473206
-801,757,2,0,0,0,858.612305
-914,-1501,3,1,0,4,110.337227
1729,-1810,4,0,0,0,582.608398
644,853,1,0,0,0,848.229980
-213,1883,2,0,0,0,702.957886
-1135,-1552,3,0,0,0,657.673523
1495,-1087,4,0,0,0,668.935425
273,741,1,0,0,0,935.375000
-687,1650,2,1,0,6,220.617523
-532,-1217,3,0,0,0,763.619202
743,-1826,4,0,0,0,650.543030
1601,386,1,1,0,6,220.617523
-486,1752,2,0,0,0,714.815674
-567,-839,3,0,0,0,841.589539
1880,-979,4,1,0,6,220.617523
713,577,1,0,0,0,892.254639
-1852,1126,2,0,0,0,664.540771
-625,-222,3,1,0,4,110.337227
346,-915,4,0,0,0,851.531311
465,1337,1,0,0,0,767.460510
-368,1203,2,0,0,0,820.547363
-915,-1125,3,0,0,0,738.418152
1735,-1277,4,1,0,6,220.617523
165,1158,1,1,0,6,220.617523
-324,133,2,0,0,0,1189.048950
-1896,-1132,3,0,0,0,618.210205
648,-1029,4,0,0,0,788.959167
655,1951,1,1,0,6,220.617523
-954,1722,2,0,0,0,692.051697
-654,-11,3,0,0,0,967.449829
1628,-1875,4,0,0,0,584.878357
1283,1765,1,0,0,0,643.566467
-1153,1948,2,0,0,0,652.139282
-238,-869,3,1,0,4,110.337227
162,-1646,4,0,0,0,700.728699
428,900,1,0,0,0,868.364014
-1706,1110,2,1,0,4,110.337227
-319,-1820,3,0,0,0,669.037354
324,-77,4,0,0,0,1162.093018
1504,755,1,0,0,0,717.841309
-998,716,2,1,0,4,110.337227
-1949,-335,3,0,0,0,649.646240
272,-1687,4,0,0,0,691.393433
1913,488,1,0,0,0,672.136841
-1583,1319,2,0,0,0,679.001343
-837,-510,3,0,0,0,850.971680
1344,-768,4,1,0,6,220.617523
1588,409,1,0,0,0,725.266785
-1569,1901,2,0,0,0,627.859314
-1164,-997,3,0,0,0,722.555298
192,-1879,4,1,0,4,110.337227
254,1283,1,0,0,0,790.179688
-1126,849,2,1,0,4,110.337227
-1119,-807,3,0,0,0,752.712524
1573,-1889,4,0,0,0,587.743896
1419,252,1,0,0,0,762.304932
-1874,160,2,0,0,0,705.110413
-793,-112,3,1,0,4,110.337227
1203,-1048,4,0,0,0,711.038879
1918,1047,1,0,0,0,643.159180
-1253,648,2,1,0,4,110.337227
-1953,-762,3,1,0,4,110.337227
1817,-921,4,1,0,6,220.617523
1187,31,1,0,0,0,817.961975
-1894,1152,2,0,0,0,658.105408
-1239,-497,3,0,0,0,762.160706
1612,-354,4,0,0,0,701.342285
1901,1593,1,1,0,6,220.617523
-341,1884,2,0,0,0,700.011536
-656,-843,3,1,0,4,110.337227
1758,-854,4,0,0,0,653.003662
1958,1990,1,0,0,0,573.526245
-932,1631,2,0,0,0,705.462524
-1930,-1652,3,0,0,0,578.409241
1199,-994,4,1,0,6,220.617523
1973,1265,1,1,0,6,220.617523
-1998,729,2,1,0,4,110.337227
-82,-890,3,0,0,0,877.521606
1763,-329,4,0,0,0,677.564331
1540,310,1,0,0,0,737.580505
-988,480,2,0,0,0,859.575684
-832,-1914,3,0,0,0,634.287231
719,-5,4,0,0,0,940.180664
1995,1282,1,0,0,0,619.855774
-1672,1459,2,1,0,4,110.337227
-1144,-1830,3,0,0,0,624.738525
1793,-1951,4,0,0,0,566.486084
1932,1397,1,0,0,0,618.328430
-1231,146,2,0,0,0,824.784424
-1483,-1091,3,0,0,0,670.069946
1214,-1993,4,1,0,4,110.337227
328,1624,1,0,0,0,722.316345
-723,289,2,1,0,4,110.337227
-1980,-402,3,0,0,0,643.535706
1583,-1140,4,0,0,0,653.542175
489,948,1,1,0,6,220.617523
-1025,1250,2,0,0,0,748.520203
-361,-1016,3,0,0,0,823.533508
980,-1736,4,0,0,0,647.356628
174,1873,1,0,0,0,685.963806
-1275,1043,2,1,0,4,110.337227
-745,-389,3,1,0,4,110.337227
1278,-1563,4,0,0,0,643.736572
1901,1222,1,0,0,0,633.573059
-384,235,2,0,0,0,1116.624756
-132,-1672,3,0,0,0,696.732727
1139,-924,4,0,0,0,735.165466
1663,1441,1,1,0,6,220.617523
-661,146,2,0,0,0,999.015625
-87,-1779,3,0,0,0,679.533325
1096,-72,4,0,0,0,818.213562
1723,69,1,0,0,0,710.859497
-1131,663,2,0,0,0,808.687683
-734,-532,3,0,0,0,873.443542
1746,-303,4,0,0,0,680.987122
589,557,1,0,0,0,927.824646
-1193,1221,2,0,0,0,732.885986
-1891,-1847,3,0,0,0,567.171814
1931,-128,4,0,0,0,655.823853
995,1339,1,0,0,0,720.346802
-1319,76,2,0,0,0,806.463135
-859,-906,3,0,0,4,110.337227
1994,-1309,4,0,0,0,596.287903
1851,1489,1,1,0,6,220.617523
-1599,914,2,0,0,0,711.115662
-8,-1843,3,0,0,0,669.769226
1070,-401,4,0,0,0,806.842896
1311,1983,1,0,0,0,619.162354
-1507,168,2,1,0,4,110.337227
-1914,-787,3,1,0,4,110.337227
1986,-1661,4,0,0,0,573.046570
482,1063,1,0,0,0,822.903748
-1659,1346,2,0,0,0,668.667847
-1344,-1381,3,0,0,0,657.035034
1361,-1883,4,1,0,4,110.337227
78,329,1,1,0,6,220.617523
-1257,1434,2,0,0,0,701.161499
-416,-33,3,0,0,0,1097.022705
1861,-1951,4,0,0,0,561.569031
1355,1468,1,0,0,0,668.755737
-1699,963,2,1,0,4,110.337227
-255,-1755,3,1,0,4,110.337227
881,-1955,4,1,0,4,110.337227
350,1365,1,0,0,0,768.760864
-913,714,2,0,0,0,844.120911
-1165,-146,3,0,0,0,799.040955
1329,-160,4,0,0,0,761.381042
611,1499,1,0,0,0,728.976562
-1672,1296,2,0,0,0,671.475403
-1933,-1898,3,0,0,0,560.230957
928,-612,4,0,0,0,814.760010
59,271,1,1,0,0,316.355652
-784,1452,2,0,0,0,742.614075
-953,-311,3,0,0,0,844.491638
983,-1320,4,0,0,0,702.142029
976,1921,1,0,0,0,647.160889
-933,12,2,0,0,0,906.546326
-861,-1692,3,1,0,4,110.337227
1016,-1491,4,1,0,4,110.337227
1766,1499,1,1,0,6,220.617523
-1381,185,2,0,0,0,791.181885
-1905,-969,3,1,0,4,110.337227
1578,-1838,4,0,0,0,591.895935
167,770,1,0,0,0,936.028137
-1793,1236,2,0,0,0,663.186462
-1502,-201,3,0,0,0,725.794556
1633,-864,4,0,0,0,669.078003
768,1046,1,1,0,6,220.617523
-1404,1026,2,0,0,0,727.583801
-1672,-1678,3,0,0,0,598.253723
934,-812,4,0,0,0,783.905029
38,1415,1,0,0,0,767.469299
-1745,1200,2,0,0,0,671.161865
-1212,-1765,3,1,0,4,110.337227
601,-649,4,1,0,4,110.337227
550,1771,1,0,0,0,690.042297
-630,524,2,1,0,4,110.337227
-1090,-1663,3,1,0,4,110.337227
994,-613,4,0,0,0,800.585449
1022,424,1,0,0,0,838.267944
-1446,1033,2,0,0,0,721.364258
-772,-1709,3,0,0,0,664.811768
1197,-1195,4,0,0,0,694.320312
1680,490,1,0,0,0,706.635498
-532,1610,2,0,0,0,734.816101
-766,-1620,3,1,0,4,110.337227
1510,-1517,4,0,0,0,627.088501
1712,1646,1,0,0,0,619.433289
-1819,1157,2,0,0,0,666.080444
-305,-1186,3,0,0,0,786.945312
419,-1603,4,0,0,0,700.226746
120,499,1,0,0,0,1059.585938
-1678,796,2,1,0,4,110.337227
-924,-511,3,0,0,0,829.555420
1372,-242,4,0,0,0,749.910156
608,1628,1,0,0,0,708.634399
-1904,397,2,0,0,0,695.511414
-384,-1889,3,0,0,0,656.947266
1214,-874,4,0,0,0,729.508179
259,1343,1,0,0,0,777.326782
-1231,743,2,0,0,0,782.147278
-1613,-723,3,0,0,0,681.709534
1578,-1326,4,0,0,0,637.840820
640,799,1,0,0,0,860.632568
-1902,959,2,0,0,0,669.506653
-1438,-1279,3,1,0,4,110.337227
1111,-394,4,0,0,0,797.897400
1105,1401,1,0,0,0,701.072998
-1410,114,2,1,0,4,110.337227
-763,-1986,3,0,0,0,628.809265
611,-514,4,0,0,0,909.996155
579,1837,1,0,0,0,679.199280
-1618,1794,2,1,0,4,110.337227
-677,-704,3,1,0,4,110.337227
853,-1653,4,1,0,4,110.337227
85,683,1,0,0,0,974.984802
-1270,113,2,0,0,0,816.690063
-1311,-337,3,0,0,0,758.176880
1626,-38,4,0,0,0,705.531433
857,317,1,0,0,0,893.347229
-190,578,2,0,0,0,1029.773560
-397,-1449,3,0,0,0,728.262207
1501,-673,4,1,0,6,220.617523
1224,14,1,0,0,0,809.215942
-1559,1260,2,1,0,4,110.337227
-683,-765,3,0,0,4,110.337227
820,-1957,4,1,0,4,110.337227
479,1896,1,0,0,0,674.855896
-1044,228,2,0,0,0,867.497620
-1317,-903,3,0,0,0,710.792297
1193,-1073,4,0,0,0,709.413086
427,1541,1,1,0,6,220.617523
-117,1310,2,1,0,6,220.617523
-754,-920,3,0,0,4,110.337227
1861,-1859,4,1,0,4,110.337227
167,1368,1,0,0,0,775.149109
-895,88,2,0,0,0,917.160889
-528,-810,3,0,0,0,854.886414
1194,-1193,4,0,0,0,694.919128
284,953,1,0,0,0,868.991272
-1195,1947,2,0,0,0,649.525879
-234,-984,3,0,0,0,841.926697
96,-1313,4,1,0,4,110.337227
1688,979,1,0,0,0,675.473083
-1724,1087,2,1,0,4,110.337227
-378,-1534,3,0,0,0,713.850098
858,-361,4,1,0,6,220.617523
1121,1347,1,0,0,0,706.236267
-1065,1822,2,1,0,4,110.337227
-1561,-393,3,0,0,0,708.492798
1454,-973,4,0,0,0,684.652771
190,1445,1,0,0,0,759.089355
-913,1294,2,0,0,0,754.411499
-1612,-100,3,0,0,0,707.535828
597,-625,4,0,0,0,887.170593
840,905,1,0,0,0,806.719421
-1983,1297,2,0,0,0,639.103882
-472,-1772,3,1,0,4,110.337227
611,-1517,4,1,0,4,110.337227
727,200,1,1,0,6,220.617523
-723,1955,2,0,0,0,675.703064
-1128,-648,3,0,0,0,769.586670
39,-532,4,0,0,0,1026.231567
-1411,1090,2,0,0,0,720.414001
-979,-1917,3,1,0,4,110.337227
539,-1016,4,0,0,0,804.975464
-1716,1462,2,0,0,0,653.314026
-855,-1052,3,1,0,4,110.337227
1353,-138,4,0,0,0,756.823547
-83,217,2,1,0,0,404.234161
-1879,-82,3,1,0,4,110.337227
1503,-379,4,0,0,0,719.313477
-1726,92,2,1,0,4,110.337227
-66,-1807,3,0,0,0,675.219482
-1274,1822,2,0,0,0,657.282288
-641,-1605,3,0,0,0,688.150452
-1017,822,2,0,0,0,809.421997
-1737,-552,3,0,0,0,672.952759
-1315,491,2,1,0,4,110.337227
-418,-1439,3,0,0,0,729.011108
-524,-1013,3,0,0,0,807.389282
-248,-1419,3,0,0,0,740.325806
-1809,-136,3,0,0,0,674.288452
-1396,-163,3,1,0,4,110.337227
-1309,-1112,3,0,0,0,689.927673
-1934,-732,3,0,0,0,636.910339
-898,-1940,3,0,0,0,627.442993
-1965,-631,3,0,0,0,637.471252
-1154,-476,3,0,0,0,781.432739
-179,-1986,3,0,0,0,647.279907
-1313,-1516,3,1,0,4,110.337227


each generation good chromosome number
4,4,4,