446.318024,446.318024,446.318024,446.318024,446.318024,446.318024,446.318024,446.318024,446.318024,446.318024,446.318024,446.318024,446.318024,446.318024,446.318024,446.318024,446.318024,446.318024,446.318024,446.318024,446.318024,446.318024,446.318024,446.318024,446.318024,446.318024,446.318024,446.318024,446.318024,446.318024,446.318024,446.318024,446.318024,446.318024,446.318024,446.318024,446.318024,446.318024,446.318024,446.318024,446.318024,446.318024,446.318024,446.318024,446.318024,446.318024,446.318024,446.318024,446.318024,446.318024,446.318024,446.318024,446.318024,446.318024,446.318024,446.318024,446.318024,446.318024,446.318024,446.318024,446.318024,446.318024,446.318024,446.318024,446.318024,446.318024,446.318024,446.318024,446.318024,446.318024,446.318024,446.318024,446.318024,446.318024,446.318024,446.318024,446.318024,446.318024,446.318024,446.318024,446.318024,446.318024,446.318024,446.318024,446.318024,446.318024,446.318024,446.318024,446.318024,446.318024,446.318024,446.318024,446.318024,446.318024,446.318024,446.318024,446.318024,446.318024,446.318024,446.318024,

avg. max avg. throughput in test times
446.317780
avg. BS TX power in all test times
MBS area 1,MBS area 2,CBSD 1,CBSD 2,CBSD 3,CBSD 4,CBSD 5,CBSD 6,CBSD 7,CBSD 8,
10.000,10.000,1.000,0.000,1.000,0.000,1.000,1.000,0.000,0.000,
avg. mbs all power,avg. cbsd enable number,avg. mbs area all power,avg. cbsd all power
50.000,4.000,20.000,4.000
avg. number of relay UE
520

BS TX power
MBS area 1,MBS area 2,CBSD 1,CBSD 2,CBSD 3,CBSD 4,CBSD 5,CBSD 6,CBSD 7,CBSD 8,
10.000,10.000,1.000,0.000,1.000,0.000,1.000,1.000,0.000,0.000,
max average power
607.996704

x,y,area,be blocked (1 : NLOS / 0 : LOS),be blocked number (>=1 : CBSD(x) / 0 : no),connect bs number (>=1 : CBSD / 0 : MBS),throughput (unit : M bps)
909,367,1,1,0,6,93.005432
-578,-1092,2,1,0,3,46.136036
1689,235,1,0,0,0,733.188721
-193,-240,2,0,0,0,1226.142090
526,-1983,1,0,0,3,46.136036
-1427,-289,2,0,0,0,778.549622
1667,1114,1,1,0,6,93.005432
-567,-129,2,0,0,0,1042.830200
1126,-893,1,0,0,0,782.292114
-761,699,2,0,0,0,877.167358
94,1388,1,1,0,5,46.629562
-1799,67,2,0,0,5,46.629562
1800,-1835,1,0,0,3,46.136036
-1472,-903,2,0,0,0,729.574158
1532,-777,1,0,0,0,731.093506
-457,1674,2,0,0,0,728.190186
1147,1372,1,0,0,6,93.005432
-735,-620,2,0,0,0,897.882629
873,-1300,1,1,0,3,46.136036
-1158,1155,2,0,0,0,745.163635
1607,884,1,0,0,6,93.005432
-102,1546,2,0,0,0,760.697693
592,1075,1,0,0,0,827.675598
-991,-325,2,0,0,0,874.498169
205,694,1,1,0,5,46.629562
-1461,341,2,0,0,0,769.942261
1449,-1048,1,1,0,3,46.136036
-47,-1721,2,0,0,0,730.449036
1780,-1348,1,1,0,3,46.136036
-1091,-1929,2,0,0,3,46.136036
1373,-340,1,0,0,0,786.856445
-1589,1424,2,0,0,5,46.629562
184,-1473,1,0,0,0,772.986267
-1654,-1464,2,0,0,5,46.629562
165,923,1,0,0,0,905.143860
-280,142,2,0,0,0,1220.600464
726,1522,1,0,0,0,736.399048
-771,-827,2,0,0,0,851.255554
656,-1574,1,0,0,0,733.195251
-1973,1898,2,0,0,5,46.629562
223,-1745,1,0,0,0,724.263733
-322,36,2,0,0,0,1211.504395
1852,1732,1,0,0,6,93.005432
-1377,605,2,0,0,0,769.219910
1347,-1653,1,0,0,3,46.136036
-933,240,2,1,0,5,46.629562
1546,-804,1,0,0,0,726.985779
-1235,1923,2,0,0,5,46.629562
1231,1507,1,0,0,6,93.005432
-150,1224,2,1,0,5,46.629562
1376,-166,1,0,0,0,792.703857
-1823,-100,2,0,0,5,46.629562
1675,-738,1,1,0,3,46.136036
-962,728,2,0,0,0,832.596252
59,543,1,0,0,0,1060.884766
-53,904,2,1,0,5,46.629562
1953,689,1,0,0,6,93.005432
-585,1291,2,1,0,5,46.629562
1002,-1544,1,0,0,3,46.136036
-540,-922,2,0,0,0,867.527405
1758,1469,1,0,0,6,93.005432
-247,-1228,2,0,0,0,821.791870
9,1950,1,0,0,5,46.629562
-1094,1870,2,0,0,5,46.629562
1472,-1463,1,0,0,3,46.136036
-568,-1179,2,0,0,0,809.195740
1748,-1012,1,0,0,3,46.136036
-18,-719,2,1,0,3,46.136036
1862,717,1,0,0,6,93.005432
-95,776,2,1,0,5,46.629562
1842,9,1,1,0,3,46.136036
-543,-1126,2,0,0,0,822.367493
61,-1128,1,0,0,0,851.510559
-944,-347,2,0,0,0,884.947388
780,387,1,0,0,0,926.466125
-30,387,2,0,0,0,1159.391602
296,1677,1,0,0,0,733.583679
-1859,-102,2,0,0,5,46.629562
1899,1561,1,0,0,6,93.005432
-674,1558,2,0,0,0,734.491699
1311,-58,1,0,0,0,808.407410
-1952,-1419,2,1,0,5,46.629562
1472,1789,1,0,0,6,93.005432
-869,-557,2,0,0,0,877.479370
1781,-1685,1,0,0,3,46.136036
-301,-410,2,0,0,0,1081.434814
1988,-1945,1,1,0,3,46.136036
-169,1701,2,1,0,5,46.629562
324,-229,1,0,0,0,1153.072876
-1977,1041,2,1,0,5,46.629562
1371,-205,1,0,0,0,792.648804
-1331,-437,2,0,0,0,789.625732
316,212,1,1,0,3,46.136036
-152,-721,2,1,0,3,46.136036
788,627,1,0,0,0,884.588013
-398,-1715,2,0,0,0,724.038147
21,-773,1,0,0,0,960.661011
-930,667,2,1,0,5,46.629562
686,-1161,1,0,0,0,800.576660
-865,-1904,2,0,0,3,46.136036
796,-1092,1,0,0,0,799.980103
-838,690,2,0,0,0,862.979065
4,1932,1,0,0,5,46.629562
-1209,915,2,0,0,0,766.906128
10,456,1,0,0,0,1112.864380
-1777,-1195,2,0,0,5,46.629562
1654,-1460,1,0,0,3,46.136036
-586,465,2,0,0,0,970.211548
1329,-1349,1,0,0,3,46.136036
-794,573,2,0,0,0,892.662354
252,-1841,1,1,0,3,46.136036
-155,-1396,2,0,0,0,788.872864
1416,1486,1,0,0,6,93.005432
-840,1504,2,0,0,0,730.276550
1868,-341,1,0,0,3,46.136036
-1904,-1526,2,0,0,5,46.629562
976,1351,1,0,0,0,739.755676
-483,1693,2,1,0,5,46.629562
919,1444,1,0,0,0,732.120300
-419,1434,2,0,0,0,771.151978
1299,-503,1,1,0,3,46.136036
-586,-1802,2,0,0,3,46.136036
1489,1208,1,0,0,6,93.005432
-725,-607,2,0,0,0,902.720520
164,-660,1,0,0,0,997.682312
-1418,-67,2,0,0,0,785.820312
200,-935,1,0,0,0,899.511292
-652,994,2,1,0,5,46.629562
1454,448,1,0,0,0,765.916077
-628,1385,2,0,0,0,766.052979
511,-1512,1,1,0,3,46.136036
-711,-1872,2,0,0,3,46.136036
698,-1126,1,0,0,0,805.679626
-1137,1586,2,0,0,5,46.629562
834,-368,1,0,0,0,913.259155
-1706,-485,2,0,0,5,46.629562
1521,-889,1,0,0,3,46.136036
-1382,1402,2,0,0,1,189.445953
547,653,1,1,0,6,93.005432
-896,-1945,2,1,0,3,46.136036
1579,-1618,1,0,0,3,46.136036
-1640,951,2,0,0,5,46.629562
21,475,1,0,0,0,1100.878784
-216,-583,2,1,0,3,46.136036
1551,-620,1,0,0,0,739.125793
-1494,-559,2,0,0,0,752.337708
733,-1676,1,0,0,3,46.136036
-1327,-1755,2,1,0,3,46.136036
1745,1972,1,1,0,6,93.005432
-939,1606,2,0,0,5,46.629562
462,1560,1,0,0,0,746.670105
-133,1239,2,0,0,0,823.282654
664,40,1,0,0,0,1004.053772
-431,-768,2,0,0,0,923.194763
396,1423,1,0,0,0,774.416565
-1213,-1023,2,0,0,0,753.846558
148,217,1,0,0,0,1272.052368
-1427,-1379,2,0,0,3,46.136036
1396,452,1,0,0,0,776.313110
-91,1709,2,1,0,5,46.629562
1230,-940,1,0,0,0,760.938293
-1743,9,2,0,0,0,726.910461
447,-1884,1,0,0,3,46.136036
-1410,1940,2,0,0,5,46.629562
1064,-1639,1,0,0,3,46.136036
-1228,1161,2,0,0,0,735.777832
433,1697,1,0,0,0,725.541016
-1394,1325,2,0,0,5,46.629562
1097,901,1,1,0,6,93.005432
-206,1810,2,0,0,5,46.629562
1122,-1749,1,0,0,3,46.136036
-84,-1209,2,0,0,0,831.287292
1243,932,1,0,0,0,759.913330
-1240,1026,2,0,0,0,749.780334
1505,1903,1,0,0,6,93.005432
-1536,939,2,0,0,1,196.660019
1479,-1836,1,0,0,3,46.136036
-1679,463,2,1,0,5,46.629562
1137,1727,1,0,0,6,93.005432
-1540,503,2,0,0,0,747.891113
989,-1052,1,0,0,0,780.942444
-1119,1312,2,0,0,0,729.992493
809,1286,1,0,0,0,766.322327
-860,313,2,0,0,0,912.121704
768,1925,1,0,0,5,46.629562
-1490,-1015,2,0,0,5,46.629562
371,-407,1,0,0,0,1058.507202
-1077,-1038,2,0,0,0,770.801331
708,891,1,0,0,0,849.379700
-1337,1308,2,0,0,5,46.629562
1359,-110,1,0,0,0,797.414001
-899,637,2,1,0,1,298.147552
1571,-1055,1,0,0,3,46.136036
-1766,-658,2,0,0,5,46.629562
1820,-1032,1,0,0,3,46.136036
-1338,1410,2,0,0,5,46.629562
1560,1813,1,0,0,6,93.005432
-643,1664,2,1,0,5,46.629562
304,-989,1,1,0,3,46.136036
-306,166,2,1,0,5,46.629562
1536,1447,1,0,0,6,93.005432
-1916,-972,2,0,0,5,46.629562
128,-1355,1,0,0,0,797.922913
-386,-704,2,0,0,0,949.839722
87,1703,1,0,0,0,733.197021
-946,-542,2,0,0,0,861.722168
305,122,1,0,0,0,1207.535034
-1507,-1389,2,0,0,5,46.629562
939,1072,1,0,0,0,784.706177
-1392,1066,2,0,0,0,725.227234
690,148,1,0,0,0,987.021851
-1868,-352,2,1,0,5,46.629562
375,599,1,0,0,0,986.610718
-1171,1009,2,0,0,0,761.368652
1506,1314,1,0,0,6,93.005432
-1720,1424,2,0,0,5,46.629562
519,1426,1,1,0,5,46.629562
-1422,-921,2,1,0,5,46.629562
377,1269,1,1,0,5,46.629562
-61,-802,2,0,0,0,949.323669
582,-1034,1,0,0,0,837.373657
-777,-769,2,0,0,0,860.948364
233,541,1,0,0,0,1039.109619
-1527,-562,2,1,0,5,46.629562
755,-664,1,0,0,0,885.036438
-938,146,2,1,0,1,165.066940
1058,-1870,1,0,0,3,46.136036
-911,-648,2,1,0,5,46.629562
673,848,1,0,0,0,863.751892
-760,-1052,2,0,0,0,811.596191
299,-1058,1,0,0,0,859.311035
-1832,584,2,0,0,5,46.629562
1242,360,1,0,0,0,812.635864
-1614,972,2,0,0,5,46.629562
1711,531,1,1,0,6,93.005432
-1628,-989,2,1,0,5,46.629562
1372,1949,1,0,0,6,93.005432
-334,438,2,0,0,0,1058.455078
33,980,1,1,0,5,46.629562
-947,-318,2,0,0,0,886.897705
1831,-1640,1,0,0,3,46.136036
-1085,1147,2,0,0,0,755.282227
577,1265,1,0,0,0,791.792419
-117,1006,2,0,0,0,882.943481
1748,-1659,1,1,0,3,46.136036
-809,1674,2,0,0,5,46.629562
1034,224,1,1,0,6,93.005432
-986,1097,2,1,0,1,340.730408
1214,284,1,0,0,0,823.130615
-1254,468,2,0,0,0,802.724365
1231,1276,1,0,0,6,93.005432
-301,-698,2,1,0,3,46.136036
961,-499,1,0,0,0,863.691711
-73,368,2,0,0,0,1169.210205
816,-822,1,0,0,0,844.316528
-215,-1020,2,1,0,3,46.136036
1699,135,1,1,0,6,93.005432
-1303,-1903,2,0,0,3,46.136036
16,1743,1,0,0,0,726.902161
-637,625,2,1,0,5,46.629562
59,1538,1,0,0,0,762.599426
-1895,-643,2,0,0,5,46.629562
954,160,1,0,0,0,896.165894
-1703,-385,2,1,0,5,46.629562
1829,-927,1,0,0,3,46.136036
-1880,1681,2,0,0,5,46.629562
850,753,1,0,0,0,850.007263
-1165,-1873,2,0,0,3,46.136036
922,-354,1,1,0,3,46.136036
-948,-614,2,0,0,0,851.556335
404,721,1,0,0,0,941.494080
-201,1234,2,0,0,0,822.327576
216,-1530,1,0,0,0,761.474854
-16,-1820,2,0,0,3,46.136036
1460,898,1,0,0,0,731.714355
-1528,47,2,1,0,5,46.629562
1618,-1470,1,0,0,3,46.136036
-465,-1150,2,1,0,3,46.136036
1562,852,1,0,0,6,93.005432
-605,1254,2,0,0,0,791.392639
190,1701,1,0,0,0,732.129883
-1504,1054,2,0,0,5,46.629562
1731,-1885,1,0,0,3,46.136036
-1880,957,2,1,0,5,46.629562
564,854,1,0,0,0,879.931702
-1547,-1161,2,0,0,5,46.629562
1280,-623,1,0,0,0,785.015808
-1973,324,2,0,0,5,46.629562
1549,-781,1,0,0,0,728.274231
-1117,-456,2,0,0,0,832.576782
1307,303,1,0,0,0,802.042664
-687,509,2,0,0,0,931.712646
468,-802,1,0,0,0,907.943237
-1589,-827,2,1,0,5,46.629562
447,1559,1,0,0,0,747.580872
-1586,325,2,0,0,0,748.087463
353,459,1,0,0,0,1044.046021
-596,1622,2,0,0,0,729.386536
1096,1485,1,0,0,6,93.005432
-1299,-484,2,1,0,5,46.629562
1297,-452,1,1,0,3,46.136036
-1463,26,2,0,0,0,777.120911
1125,-1547,1,0,0,3,46.136036
-228,-479,2,0,0,0,1069.295410
2,-477,1,0,0,0,1099.946045
-771,677,2,0,0,0,879.197327
1997,966,1,0,0,6,93.005432
-1239,1804,2,1,0,5,46.629562
35,-971,1,1,0,3,46.136036
-869,-1805,2,1,0,3,46.136036
103,-314,1,1,0,3,46.136036
-1624,227,2,0,0,0,744.419250
683,818,1,0,0,0,868.294739
-779,489,2,1,0,1,238.468384
1729,-1192,1,0,0,3,46.136036
-99,495,2,0,0,0,1083.610962
634,-134,1,0,0,0,1011.604736
-1646,-403,2,0,0,0,734.985901
1897,1920,1,0,0,6,93.005432
-1578,-484,2,0,0,0,742.541504
1018,-1625,1,0,0,3,46.136036
-1964,1786,2,0,0,5,46.629562
846,1437,1,0,0,0,739.605469
-1912,-1319,2,1,0,5,46.629562
1118,732,1,0,0,0,803.189880
-307,1142,2,0,0,0,838.343994
738,-301,1,0,0,0,951.948547
-158,-1019,2,1,0,3,46.136036
1832,1614,1,0,0,6,93.005432
-1790,1358,2,1,0,5,46.629562
844,26,1,0,0,0,935.311279
-1644,6,2,0,0,0,743.681458
1098,-1878,1,0,0,3,46.136036
-1417,-859,2,0,0,0,741.417725
1344,-350,1,0,0,0,792.113770
-175,-2000,2,1,0,3,46.136036
349,-1737,1,1,0,3,46.136036
-41,-1282,2,1,0,3,46.136036
35,-1990,1,0,0,3,46.136036
-1906,983,2,0,0,5,46.629562
600,778,1,0,0,0,891.686584
-868,1490,2,0,0,0,729.991455
1267,1082,1,0,0,0,739.846619
-992,-614,2,0,0,0,842.238525
78,1599,1,1,0,5,46.629562
-1009,-1964,2,0,0,3,46.136036
945,1833,1,1,0,5,46.629562
-1140,611,2,1,0,1,221.640457
748,1129,1,0,0,0,799.346924
-613,-42,2,1,0,5,46.629562
1607,1981,1,0,0,6,93.005432
-1146,641,2,0,0,0,808.231140
24,167,1,0,0,0,1399.765991
-915,355,2,1,0,5,46.629562
362,-890,1,0,0,0,898.113525
-245,22,2,1,0,5,46.629562
814,-111,1,0,0,0,943.221069
-703,1609,2,0,0,0,724.804749
556,235,1,0,0,0,1032.059082
-1801,1588,2,1,0,5,46.629562
1800,254,1,1,0,6,93.005432
-483,554,2,0,0,0,975.299744
1946,1173,1,0,0,6,93.005432
-290,1431,2,0,0,0,777.738220
1499,1485,1,1,0,6,93.005432
-1976,-1904,2,1,0,3,46.136036
910,959,1,0,0,0,806.278564
-94,-1879,2,0,0,3,46.136036
1187,1597,1,0,0,6,93.005432
-132,-489,2,0,0,0,1082.641602
12,-1039,1,0,0,0,875.566223
-1437,-631,2,0,0,0,757.002319
1982,1173,1,0,0,6,93.005432
-517,1857,2,0,0,5,46.629562
1574,118,1,0,0,0,755.364624
-1042,857,2,0,0,0,800.442566
624,-712,1,0,0,0,902.359253
-319,1032,2,0,0,0,864.397583
647,-1494,1,1,0,3,46.136036
-62,-810,2,1,0,3,46.136036
1979,-317,1,0,0,3,46.136036
-1768,-499,2,0,0,5,46.629562
395,-1736,1,0,0,3,46.136036
-880,102,2,0,0,0,921.492920
556,-1988,1,0,0,3,46.136036
-61,1460,2,0,0,0,777.505371
519,973,1,0,0,0,858.441711
-426,651,2,0,0,0,958.911194
1124,108,1,0,0,0,851.630615
-260,-671,2,0,0,0,981.392700
1028,-543,1,0,0,0,843.238220
-1123,-357,2,0,0,0,839.359253
1535,533,1,1,0,6,93.005432
-137,623,2,0,0,0,1016.142639
61,1435,1,0,0,0,782.457642
-723,426,2,0,0,0,937.101624
167,-1288,1,0,0,0,811.380554
-510,813,2,0,0,0,898.437561
29,1283,1,0,0,0,814.821899
-1919,-1395,2,0,0,5,46.629562
416,-1018,1,0,0,0,859.237976
-258,1687,2,1,0,5,46.629562
1438,-244,1,1,0,3,46.136036
-768,1525,2,0,0,0,732.819214
1507,-1093,1,0,0,3,46.136036
-1808,-287,2,0,0,5,46.629562
991,-1236,1,0,0,0,754.310181
-1563,-289,2,1,0,5,46.629562
1002,-750,1,0,0,0,822.020203
-1025,1781,2,0,0,5,46.629562
1612,-569,1,0,0,0,732.482483
-1709,-529,2,0,0,5,46.629562
1764,1795,1,1,0,6,93.005432
-325,1073,2,0,0,0,853.686279
403,157,1,0,0,0,1128.192627
-812,-142,2,0,0,0,942.244446
927,602,1,0,0,0,857.775574
-782,-1263,2,1,0,3,46.136036
39,1192,1,1,0,5,46.629562
-1880,1487,2,0,0,5,46.629562
267,-289,1,0,0,0,1155.481323
-249,-1216,2,0,0,0,824.412537
396,-529,1,0,0,0,1005.968506
-821,1521,2,1,0,5,46.629562
677,-1691,1,0,0,3,46.136036
-1487,981,2,0,0,5,46.629562
387,1163,1,0,0,0,828.034302
-1253,139,2,0,0,0,819.940125
815,642,1,0,0,0,876.003662
-153,32,2,0,0,0,1421.800659
1822,536,1,0,0,6,93.005432
-150,525,2,0,0,0,1060.983887
799,1962,1,0,0,5,46.629562
-1614,-1715,2,0,0,3,46.136036
106,1537,1,1,0,5,46.629562
-587,-97,2,0,0,0,1036.226807
1441,-1253,1,0,0,3,46.136036
-1285,1812,2,0,0,5,46.629562
66,1119,1,0,0,0,853.736328
-1585,1617,2,1,0,5,46.629562
1354,1681,1,0,0,6,93.005432
-1912,1633,2,0,0,5,46.629562
538,-450,1,1,0,3,46.136036
-1668,998,2,0,0,5,46.629562
1679,450,1,0,0,0,727.695129
-1982,986,2,0,0,5,46.629562
1872,-1892,1,0,0,3,46.136036
-1943,-1827,2,0,0,5,46.629562
705,633,1,0,0,0,902.135437
-1213,1815,2,0,0,5,46.629562
632,-217,1,0,0,0,1002.751282
-956,716,2,1,0,1,304.637390
1154,241,1,0,0,0,839.232910
-838,1543,2,1,0,5,46.629562
152,422,1,0,0,0,1117.691040
-1358,-48,2,0,0,0,798.384583
1847,-927,1,0,0,3,46.136036
-323,-717,2,0,0,0,955.816406
1061,1549,1,0,0,6,93.005432
-689,855,2,0,0,0,859.670959
624,-972,1,0,0,0,845.110046
-1125,480,2,0,0,0,828.639893
896,-322,1,0,0,0,900.733032
-1454,-923,2,0,0,0,730.352600
917,1637,1,0,0,5,46.629562
-1747,1639,2,1,0,5,46.629562
1128,-422,1,1,0,3,46.136036
-1528,642,2,0,0,0,741.356018
207,-1160,1,1,0,3,46.136036
-1445,-1190,2,1,0,5,46.629562
156,-1818,1,0,0,3,46.136036
-580,-407,2,1,0,5,46.629562
1904,387,1,0,0,6,93.005432
-1189,140,2,0,0,0,834.797668
754,-933,1,0,0,0,834.228455
-1195,-1548,2,0,0,3,46.136036
613,-1911,1,0,0,3,46.136036
-1440,-1280,2,1,0,5,46.629562
1596,-513,1,0,0,0,738.081787
-753,-621,2,0,0,0,893.583496
1234,509,1,0,0,0,803.505005
-679,947,2,0,0,0,842.578125
1675,-235,1,0,0,0,735.529724
-1031,-1808,2,0,0,3,46.136036
1328,1398,1,0,0,6,93.005432
-1010,74,2,0,0,0,882.964478
1849,114,1,1,0,6,93.005432
-1186,1592,2,0,0,5,46.629562
3,-239,1,1,0,3,46.136036
-1790,-756,2,1,0,5,46.629562
980,182,1,0,0,0,887.535278
-524,-1084,2,0,0,0,833.170288
1391,1141,1,0,0,6,93.005432
-201,-1454,2,0,0,0,776.220032
1087,978,1,1,0,6,93.005432
-399,-1348,2,1,0,3,46.136036
340,-1723,1,1,0,3,46.136036
-222,-85,2,0,0,0,1300.845459
1080,730,1,1,0,6,93.005432
-1343,174,2,0,0,0,799.364075
667,108,1,1,0,3,46.136036
-1374,768,2,0,0,0,756.156006
1592,-1133,1,0,0,3,46.136036
-1710,92,2,0,0,0,731.980042
882,-1040,1,0,0,0,797.372070
-937,-1059,2,0,0,0,786.948303
1437,1838,1,0,0,6,93.005432
-199,-1781,2,0,0,3,46.136036
1620,-1525,1,0,0,3,46.136036
-1080,1870,2,0,0,5,46.629562
1117,-732,1,0,0,0,803.369934
-371,40,2,1,0,5,46.629562
1135,-1428,1,0,0,3,46.136036
-1426,1578,2,0,0,5,46.629562
282,-1978,1,0,0,3,46.136036
-913,1958,2,0,0,5,46.629562
1944,872,1,0,0,6,93.005432
-878,-1547,2,0,0,3,46.136036
1487,1660,1,0,0,6,93.005432
-1963,16,2,1,0,5,46.629562
350,-1603,1,1,0,3,46.136036
-1760,1151,2,1,0,5,46.629562
446,-1273,1,0,0,0,800.503174
-1462,235,2,0,0,0,773.699402
89,-558,1,0,0,0,1051.097778
-292,-27,2,0,0,0,1240.280762
1132,-498,1,0,0,0,825.464417
-616,-533,2,0,0,0,945.669373
1697,1757,1,0,0,6,93.005432
-757,1969,2,1,0,5,46.629562
581,1798,1,0,0,5,46.629562
-575,-1446,2,0,0,0,759.446350
1266,365,1,0,0,0,807.252197
-1290,1765,2,1,0,5,46.629562
683,376,1,0,0,0,958.296387
-968,1106,2,0,0,0,775.837830
1544,644,1,0,0,0,738.680908
-929,-1137,2,0,0,0,776.133972
931,-1719,1,0,0,3,46.136036
-549,-282,2,1,0,5,46.629562
683,-1328,1,1,0,3,46.136036
-1153,906,2,1,0,1,301.341156
487,-697,1,0,0,0,933.311890
-1402,1889,2,0,0,5,46.629562
1102,1878,1,0,0,5,46.629562
-812,707,2,1,0,1,280.577728
600,614,1,1,0,6,93.005432
-1275,866,2,0,0,0,762.196472
1297,1262,1,0,0,6,93.005432
-583,-1675,2,0,0,3,46.136036
1089,-1631,1,0,0,3,46.136036
-669,1796,2,0,0,5,46.629562
924,-1648,1,0,0,3,46.136036
-821,860,2,0,0,0,836.786194
1673,825,1,0,0,6,93.005432
-1416,920,2,1,0,5,46.629562
252,1121,1,1,0,5,46.629562
-84,1354,2,1,0,5,46.629562
1125,-1520,1,0,0,3,46.136036
-1486,1459,2,0,0,5,46.629562
885,1315,1,0,0,0,754.157410
-1735,425,2,1,0,5,46.629562
94,-26,1,0,0,0,1557.896851
-963,-1714,2,0,0,3,46.136036
604,731,1,0,0,0,901.901184
-692,628,2,0,0,0,906.114502
1250,1633,1,0,0,6,93.005432
-8,1553,2,0,0,0,760.020508
211,-1561,1,0,0,0,755.951050
-354,545,2,0,0,0,1010.773132
801,-1827,1,0,0,3,46.136036
-626,-1305,2,0,0,0,780.249878
921,725,1,0,0,0,840.891357
-1950,328,2,0,0,1,129.287552
962,-1889,1,0,0,3,46.136036
-1350,-601,2,0,0,0,774.287903
332,1398,1,1,0,5,46.629562
-732,-559,2,0,0,0,910.287598
1396,810,1,0,0,0,748.971558
-1235,-201,2,0,0,0,822.100769
501,-1561,1,1,0,3,46.136036
-575,861,2,0,0,0,876.598877
1152,-487,1,0,0,0,822.225037
-1640,-1799,2,1,0,3,46.136036
121,-566,1,0,0,0,1044.172241
-977,531,2,0,0,0,856.047913
364,-1976,1,1,0,3,46.136036
-631,1332,2,0,0,0,775.034119
251,920,1,0,0,0,900.273193
-1825,1308,2,1,0,1,144.534744
1487,-1459,1,0,0,3,46.136036
-1833,-235,2,0,0,5,46.629562
1813,-1560,1,0,0,3,46.136036
-1641,-868,2,0,0,5,46.629562
677,727,1,0,0,0,888.504456
-360,-1608,2,0,0,0,743.020020
240,1313,1,1,0,5,46.629562
-1661,758,2,0,0,5,46.629562
1720,1392,1,1,0,6,93.005432
-1975,-858,2,0,0,5,46.629562
1957,1427,1,0,0,6,93.005432
-5,504,2,0,0,0,1084.055786
831,-551,1,0,0,0,887.442749
-492,-1150,2,0,0,0,822.198242
1608,504,1,0,0,0,736.594788
-552,705,2,0,0,0,918.420105
1765,546,1,0,0,6,93.005432
-923,-793,2,0,0,0,830.113037
1674,-764,1,1,0,3,46.136036
-1921,-1615,2,0,0,5,46.629562
165,-283,1,0,0,0,1208.332764
-452,513,2,0,0,0,996.139648
1245,1073,1,0,0,0,743.756775
-481,-654,2,0,0,0,946.642700
612,-1279,1,1,0,3,46.136036
-1464,487,2,1,0,1,183.295929
1442,-1349,1,0,0,3,46.136036
-1825,-1894,2,0,0,3,46.136036
713,-235,1,0,0,0,969.192139
-610,-1135,2,0,0,0,813.657410
1586,-176,1,1,0,3,46.136036
-917,-337,2,0,0,0,893.310608
1553,1509,1,0,0,6,93.005432
-1824,-93,2,1,0,5,46.629562
381,895,1,0,0,0,894.563843
-1792,-590,2,0,0,5,46.629562
337,-1171,1,0,0,0,829.721924
-1863,922,2,0,0,5,46.629562
981,776,1,0,0,0,822.200806
-1929,128,2,0,0,5,46.629562
1856,477,1,0,0,6,93.005432
-398,-1641,2,0,0,0,736.010071
1938,-303,1,0,0,3,46.136036
-1604,1129,2,0,0,5,46.629562
1689,1769,1,0,0,6,93.005432
-798,1286,2,0,0,0,767.425964
389,-1843,1,0,0,3,46.136036
-1745,16,2,0,0,0,726.573303
246,-496,1,0,0,0,1056.974365
-338,1353,2,0,0,0,790.925720
1439,-203,1,0,0,0,779.087280
-92,-645,2,1,0,3,46.136036
1578,457,1,0,0,0,743.885315
-1582,1140,2,0,0,5,46.629562
1676,1033,1,0,0,6,93.005432
-26,1151,2,0,0,0,846.049438
1377,622,1,0,0,0,767.902100
-893,1629,2,0,0,5,46.629562
1164,1898,1,0,0,5,46.629562
-279,1345,2,0,0,0,795.274658
1259,-128,1,1,0,3,46.136036
-1979,1783,2,0,0,5,46.629562
1173,519,1,0,0,0,814.965088
-449,1568,2,0,0,0,745.957397
1265,-187,1,0,0,0,815.850037
-776,-294,2,0,0,0,940.327209
1984,-1348,1,0,0,3,46.136036
-1208,-1504,2,1,0,3,46.136036
1980,-113,1,0,0,3,46.136036
-592,-1921,2,1,0,3,46.136036
1997,1909,1,0,0,6,93.005432
-976,-312,2,1,0,5,46.629562
407,-176,1,1,0,3,46.136036
-301,-624,2,0,0,0,992.335266
1126,-1991,1,0,0,3,46.136036
-1103,1884,2,1,0,5,46.629562
1518,-1072,1,0,0,3,46.136036
-583,1142,2,0,0,0,815.073181
477,-812,1,1,0,3,46.136036
-1123,-852,2,0,0,0,787.843201
1899,-851,1,0,0,3,46.136036
-1920,-268,2,0,0,5,46.629562
1778,140,1,0,0,6,93.005432
-1716,1411,2,0,0,5,46.629562
1674,-981,1,0,0,3,46.136036
-1581,74,2,0,0,0,754.581421
1864,1181,1,0,0,6,93.005432
-64,-836,2,0,0,0,937.350159
1205,1515,1,0,0,6,93.005432
-1238,-880,2,0,0,0,766.398987
980,-1618,1,0,0,3,46.136036
-1539,-1089,2,0,0,5,46.629562
366,-1535,1,1,0,3,46.136036
-836,764,2,0,0,0,850.781128
1447,1901,1,0,0,6,93.005432
-1763,1360,2,0,0,5,46.629562
733,-432,1,0,0,0,933.125610
-1127,418,2,1,0,1,216.911392
6,1693,1,0,0,0,735.257690
-313,57,2,0,0,0,1216.767944
1086,-740,1,0,0,0,807.998108
-1339,-1015,2,0,0,0,737.432129
1093,366,1,0,0,0,845.710266
-514,-732,2,0,0,0,918.727234
1141,-295,1,1,0,3,46.136036
-1452,-699,2,1,0,5,46.629562
564,-1523,1,1,0,3,46.136036
-1959,-576,2,0,0,5,46.629562
982,-1520,1,0,0,3,46.136036
-1031,-1083,2,1,0,3,46.136036
278,-351,1,0,0,0,1118.195923
-1419,-1013,2,0,0,0,726.834961
462,-893,1,0,0,0,885.040222
-670,1387,2,0,0,0,762.372742
933,718,1,0,0,0,839.625122
-1400,1137,2,1,0,5,46.629562
1668,-86,1,0,0,0,739.145447
-1446,506,2,0,0,0,763.936951
241,-1800,1,0,0,3,46.136036
-1217,-155,2,0,0,0,827.768799
51,1760,1,0,0,0,724.011719
-233,-669,2,0,0,0,985.912964
1077,1478,1,0,0,6,93.005432
-1232,-777,2,0,0,0,778.434326
1133,176,1,0,0,0,847.227661
-331,1093,2,1,0,5,46.629562
55,1545,1,1,0,5,46.629562
-1703,809,2,1,0,1,168.300873
819,1526,1,1,0,5,46.629562
-330,850,2,0,0,0,913.186279
495,215,1,0,0,0,1064.347656
-257,-1636,2,0,0,0,741.586304
434,1809,1,1,0,5,46.629562
-314,-381,2,0,0,0,1090.014282
489,-87,1,0,0,0,1088.289795
-1671,-1611,2,0,0,3,46.136036
1145,-1000,1,0,0,0,766.151611
-1963,-275,2,1,0,5,46.629562
1926,1231,1,0,0,6,93.005432
-966,-230,2,0,0,0,888.621521
912,-254,1,0,0,0,902.368896
-838,-278,2,1,0,5,46.629562
1907,42,1,1,0,3,46.136036
-272,-1279,2,0,0,0,809.434387
681,1238,1,0,0,0,787.167358
-1856,1939,2,1,0,5,46.629562
861,729,1,0,0,0,851.887939
-698,865,2,0,0,0,856.171509
1715,-586,1,0,0,3,46.136036
-597,230,2,0,0,0,1015.291077
1254,-1250,1,1,0,3,46.136036
-655,-28,2,0,0,0,1008.246887
224,-1646,1,0,0,0,740.702698
-531,1493,2,0,0,0,754.239563
1605,712,1,1,0,6,93.005432
-1835,-1760,2,1,0,3,46.136036
627,1848,1,1,0,5,46.629562
-670,87,2,0,0,0,999.572937
1278,-245,1,0,0,0,810.829529
-230,411,2,0,0,0,1103.612305
145,773,1,0,0,0,955.784790
-610,-964,2,1,0,3,46.136036
221,1873,1,1,0,5,46.629562
-1443,1090,2,0,0,5,46.629562
455,1322,1,1,0,5,46.629562
-1979,-412,2,1,0,5,46.629562
1571,-757,1,0,0,0,726.770752
-502,-1250,2,0,0,0,800.893982
387,-1037,1,0,0,0,857.375183
-1423,1877,2,0,0,5,46.629562
1239,908,1,1,0,6,93.005432
-219,1403,2,1,0,5,46.629562
910,871,1,0,0,0,820.174561
-1086,493,2,0,0,0,835.893250
1387,413,1,1,0,6,93.005432
-1918,-1177,2,0,0,5,46.629562
93,1791,1,1,0,5,46.629562
-1879,-109,2,0,0,5,46.629562
581,-1116,1,0,0,0,820.512512
-512,-1466,2,1,0,3,46.136036
763,-669,1,0,0,0,882.382568
-1258,-1142,2,0,0,0,734.238525
444,-203,1,0,0,0,1093.251953
-1399,-104,2,0,0,0,789.224670
1821,397,1,0,0,6,93.005432
-1234,-511,2,0,0,0,803.340637
19,168,1,1,0,5,46.629562
-497,-219,2,0,0,0,1062.517700
1459,183,1,0,0,0,775.710938
-562,-1696,2,0,0,3,46.136036
1839,1436,1,0,0,6,93.005432
-1919,-769,2,0,0,5,46.629562
1041,-1756,1,0,0,3,46.136036
-1079,1546,2,0,0,5,46.629562
1739,1845,1,1,0,6,93.005432
-1484,276,2,0,0,0,768.190613
617,-1631,1,0,0,0,726.782043
-1316,595,2,0,0,0,780.869568
74,612,1,0,0,0,1025.993530
-779,-1305,2,0,0,0,766.223450
477,1506,1,0,0,0,755.124939
-380,-1211,2,1,0,3,46.136036
425,-1343,1,0,0,0,788.042786
-926,309,2,0,0,0,893.537231
1831,-838,1,0,0,3,46.136036
-1756,433,2,1,0,5,46.629562
341,-1963,1,0,0,3,46.136036
-1785,-1922,2,1,0,3,46.136036
574,258,1,0,0,0,1020.041260
-350,-1477,2,1,0,3,46.136036
55,-1418,1,0,0,0,785.924744
-1401,870,2,0,0,0,742.785950
641,721,1,0,0,0,896.936340
-114,834,2,0,0,0,936.215149
396,-1900,1,1,0,3,46.136036
-1607,655,2,0,0,0,728.173523
1489,116,1,1,0,6,93.005432
-791,-1883,2,0,0,3,46.136036
1738,-623,1,0,0,3,46.136036
-7,-1014,2,0,0,0,882.590210
1673,1130,1,0,0,6,93.005432
-174,-982,2,0,0,0,887.379517
1525,-227,1,0,0,0,762.101685
-508,341,2,0,0,0,1028.162231
1896,-593,1,0,0,3,46.136036
-1551,1215,2,0,0,5,46.629562
1092,863,1,0,0,0,791.489563
-1135,1366,2,0,0,5,46.629562
767,1877,1,0,0,5,46.629562
-448,1215,2,0,0,0,812.227051
1458,-186,1,0,0,0,775.830994
-1049,228,2,1,0,5,46.629562
128,518,1,0,0,0,1067.623169
-572,877,2,0,0,0,873.363647
615,752,1,1,0,6,93.005432
-807,639,2,1,0,1,262.325073
1173,1030,1,0,0,0,758.542969
-365,783,2,0,0,0,928.736084
1979,765,1,0,0,6,93.005432
-704,1363,2,0,0,0,763.544067
1601,1569,1,0,0,6,93.005432
-1222,233,2,1,0,5,46.629562
588,64,1,0,0,0,1037.922119
-1406,-440,2,1,0,5,46.629562
15,1935,1,1,0,5,46.629562
-724,-1431,2,1,0,3,46.136036
1927,-660,1,0,0,3,46.136036
-611,-1423,2,0,0,0,760.833374
1260,-898,1,1,0,3,46.136036
-61,-829,2,0,0,0,939.836487
64,-1615,1,0,0,0,748.564514
-376,-980,2,0,0,0,872.648315
486,409,1,0,0,0,1017.359619
-1197,-838,2,1,0,5,46.629562
826,-1812,1,0,0,3,46.136036
-925,-744,2,0,0,0,837.242798
493,-150,1,0,0,0,1077.667725
-1437,243,2,1,0,5,46.629562
223,1886,1,1,0,5,46.629562
-1434,1223,2,0,0,1,193.501740
311,-861,1,0,0,0,912.040527
-13,1143,2,0,0,0,848.110962
55,-657,1,1,0,3,46.136036
-194,-591,2,1,0,3,46.136036
389,1050,1,0,0,0,854.045227
-671,1034,2,0,0,0,826.410461
913,-1769,1,0,0,3,46.136036
-674,598,2,0,0,0,916.607849
395,1642,1,0,0,0,735.964478
-1666,-402,2,0,0,0,731.755371
1473,-1244,1,1,0,3,46.136036
-967,1573,2,0,0,5,46.629562
362,416,1,0,0,0,1058.122803
-1060,1574,2,1,0,5,46.629562
24,-1181,1,0,0,0,838.660828
-1813,826,2,0,0,5,46.629562
780,-69,1,0,0,0,957.046509
-1964,1589,2,0,0,5,46.629562
1182,-862,1,0,0,0,777.179688
-1375,1105,2,0,0,5,46.629562
1947,-1884,1,0,0,3,46.136036
-1404,-1685,2,0,0,3,46.136036
1255,1657,1,0,0,6,93.005432
-298,-1888,2,0,0,3,46.136036
1515,461,1,0,0,0,754.426392
-986,1730,2,0,0,5,46.629562
779,1194,1,1,0,6,93.005432
-1340,715,2,0,0,0,766.412598
1474,-1465,1,1,0,3,46.136036
-60,-1185,2,0,0,0,837.379211
838,-654,1,0,0,0,869.013062
-50,936,2,0,0,0,905.235168
1697,1329,1,1,0,6,93.005432
-367,-1298,2,0,0,0,800.499390
904,815,1,0,0,0,830.048584
-142,1300,2,0,0,0,809.405823
1223,385,1,1,0,6,93.005432
-1482,1800,2,0,0,5,46.629562
1576,1053,1,0,0,6,93.005432
-1239,-1032,2,0,0,0,749.234680
1940,1704,1,0,0,6,93.005432
-1743,-800,2,0,0,5,46.629562
1347,-1117,1,1,0,3,46.136036
-528,-1099,2,0,0,0,829.550110
1011,459,1,1,0,6,93.005432
-370,353,2,0,0,0,1079.878052
1170,-1236,1,0,0,0,733.749390
-163,1150,2,0,0,0,843.511414
1814,-1532,1,1,0,3,46.136036
-1318,966,2,0,0,0,745.416382
1468,-630,1,0,0,0,751.920532
-71,-1755,2,0,0,0,724.713135
1465,265,1,1,0,6,93.005432
-1311,677,2,0,0,0,774.726074
491,-61,1,1,0,3,46.136036
-564,-804,2,0,0,0,891.801880
1252,449,1,0,0,0,804.535583
-970,1010,2,0,0,0,789.737793
604,-312,1,0,0,0,997.787170
-1985,-1745,2,0,0,5,46.629562
1895,-1895,1,1,0,3,46.136036
-271,-110,2,1,0,5,46.629562
528,-677,1,0,0,0,930.522827
-1907,765,2,0,0,5,46.629562
571,-1764,1,0,0,3,46.136036
-521,-1416,2,0,0,0,768.312439
1257,1334,1,0,0,6,93.005432
-507,153,2,0,0,0,1069.791626
648,-1943,1,1,0,3,46.136036
-1941,-681,2,0,0,5,46.629562
1343,1987,1,0,0,6,93.005432
-1253,597,2,0,0,0,792.293945
134,-177,1,0,0,0,1320.576294
-1296,696,2,0,0,0,775.587280
1867,-435,1,0,0,3,46.136036
-1905,1202,2,0,0,5,46.629562
311,-897,1,1,0,3,46.136036
-75,-408,2,1,0,3,46.136036
1594,929,1,0,0,6,93.005432
-809,1254,2,0,0,0,771.468750
321,1837,1,0,0,5,46.629562
-1542,-1449,2,0,0,5,46.629562
1004,-1972,1,0,0,3,46.136036
-187,-1239,2,0,0,0,821.691284
940,748,1,0,0,0,833.819397
-178,194,2,0,0,0,1271.370239
208,1956,1,0,0,5,46.629562
-787,-114,2,0,0,0,952.603271
1935,-1800,1,1,0,3,46.136036
-1563,1493,2,1,0,5,46.629562
182,-1231,1,1,0,3,46.136036
-1261,663,2,0,0,0,784.791992
849,-1078,1,0,0,0,795.578064
-1716,496,2,0,0,5,46.629562
898,348,1,1,0,6,93.005432
-139,-1569,2,1,0,3,46.136036
1061,-513,1,0,0,0,839.326904
-1239,-376,2,0,0,0,812.263916
850,207,1,0,0,0,925.108337
-1536,952,2,0,0,5,46.629562
435,648,1,0,0,0,957.996948
-1128,-1587,2,1,0,3,46.136036
170,702,1,0,0,0,980.321533
1314,1724,1,0,0,6,93.005432
1854,-1194,1,0,0,3,46.136036
1890,-917,1,0,0,3,46.136036
618,-1279,1,0,0,0,785.638611
1090,-877,1,1,0,3,46.136036
1761,744,1,0,0,6,93.005432
1961,780,1,0,0,6,93.005432
980,-361,1,0,0,0,874.099670
1317,202,1,0,0,0,804.033691
85,-432,1,0,0,0,1123.049927
1052,-788,1,1,0,3,46.136036
1512,1325,1,1,0,6,93.005432
35,-477,1,0,0,0,1099.174438
263,-435,1,0,0,0,1081.606079
1103,1679,1,0,0,6,93.005432
1519,1809,1,0,0,6,93.005432
957,-1693,1,0,0,3,46.136036
692,-877,1,1,0,3,46.136036
729,486,1,0,0,0,924.678467
21,-1601,1,0,0,0,751.263123
921,-1174,1,1,0,3,46.136036
672,-1212,1,0,0,0,792.733887
5,1561,1,1,0,5,46.629562
927,-100,1,0,0,0,906.762085
138,-1758,1,1,0,3,46.136036
690,-102,1,0,0,0,990.388855
1356,968,1,0,0,0,739.859680
822,358,1,0,0,0,918.039856
1790,869,1,0,0,6,93.005432
58,-1030,1,0,0,0,877.634094
1943,-1836,1,0,0,3,46.136036
1516,-1698,1,0,0,3,46.136036
986,-911,1,0,0,0,801.878601
987,-990,1,0,0,0,790.231934
1671,1074,1,0,0,6,93.005432
107,462,1,0,0,0,1101.629150
1806,-1819,1,0,0,3,46.136036
111,-858,1,1,0,3,46.136036
1338,-1587,1,0,0,3,46.136036
1528,-938,1,0,0,3,46.136036
1101,-1840,1,1,0,3,46.136036
1096,1224,1,0,0,0,743.861084
1316,990,1,1,0,6,93.005432
925,1664,1,0,0,5,46.629562
664,296,1,0,0,0,978.453247
188,-1071,1,0,0,0,862.486328
1238,978,1,0,0,0,755.495728
