mbs coordinate
0,0

cbsd coordinate and channel
-970,900,2
740,900,1
980,-860,1
-750,-850,5
-750,1000,4
1050,600,2
760,-1135,3
-870,-1100,1
-1080,450,1
970,530,3
540,-1000,2
-1200,-300,3
-200,1170,7
820,1255,4
930,-1080,6
-1115,-505,2
-180,1230,3
500,1150,8
1200,-450,10
-500,-1100,7
-650,980,9
1180,450,9
700,-1160,7
-1050,-900,8
-1200,820,10
1200,1000,11
1340,-1120,12
-1440,-1280,10
-1160,1350,13
1420,960,14

building coordinate
-885,985
-1055,815
830,810
650,990
1060,-860
900,-860
-830,-770
-670,-930
-668,1070
-832,930
965,675
1135,525
832,-1059
688,-1211
-965,-1035
-775,-1165
-1135,365
-1025,535
907,591
1033,469
638,-906
442,-1094
-1275,-390
-1125,-210
-298,1123
-102,1217
910,1206
730,1304
1005,-1005
855,-1155
-1178,-407
-1052,-603
-120,1290
-240,1170
410,1240
590,1060
1275,-375
1125,-525
-577,-1023
-423,-1177
-600,1070
-710,890
1135,535
1225,365
743,-1077
657,-1243
-1138,-855
-962,-945
-1100,866
-1300,774
1100,1100
1300,900
1440,-1020
1240,-1220
-1540,-1180
-1340,-1380
-1060,1450
-1260,1250
1320,1060
1520,860

area numbers
302,300,320,278

x , y , block , block number
area 1
1049,827,0,0
1355,1082,0,0
1155,457,0,0
678,1983,0,0
115,774,0,0
1605,780,0,0
613,1280,0,0
1891,61,0,0
1570,1378,0,0
1513,264,0,0
1001,1219,0,0
1979,565,0,0
696,109,0,0
1326,173,0,0
1128,532,0,0
1775,1212,0,0
1597,1010,0,0
471,1464,0,0
429,721,0,0
1299,917,0,0
42,320,0,0
1565,324,0,0
1083,1508,0,0
1856,1239,0,0
685,1608,0,0
598,1771,0,0
230,603,0,0
1718,112,0,0
1298,520,0,0
952,913,0,0
873,1212,0,0
132,691,0,0
359,283,0,0
61,1130,0,0
446,1273,0,0
1748,1849,0,0
308,1148,0,0
1686,377,0,0
680,1279,0,0
944,443,0,0
553,1302,0,0
1116,1495,0,0
1314,76,0,0
1659,1966,0,0
891,635,0,0
1939,1959,0,0
1726,1026,0,0
669,1606,0,0
358,1757,0,0
708,874,0,0
1659,159,0,0
1583,788,0,0
1927,1373,0,0
420,276,0,0
1935,1943,0,0
96,1982,0,0
779,1707,0,0
286,976,0,0
34,1765,0,0
1940,1378,0,0
1836,1205,0,0
1609,1801,0,0
1201,1723,0,0
160,1622,0,0
1334,1963,0,0
1918,1405,0,0
1591,225,0,0
1409,1589,0,0
52,1052,0,0
522,318,0,0
1044,1200,0,0
1856,128,0,0
1364,678,0,0
1835,1260,0,0
395,1558,0,0
345,196,0,0
37,1445,0,0
1199,26,0,0
266,1089,0,0
1252,694,0,0
702,593,0,0
578,940,0,0
1780,1752,0,0
162,1951,0,0
700,619,0,0
1274,862,0,0
1147,491,0,0
1277,1586,0,0
1016,1800,0,0
1575,264,0,0
861,680,0,0
831,1600,0,0
796,928,0,0
18,761,0,0
1140,61,0,0
1157,791,0,0
144,1054,0,0
1750,1401,0,0
903,275,0,0
1013,553,0,0
237,1959,0,0
1868,1478,0,0
261,484,0,0
57,1135,0,0
1162,1325,0,0
1972,1133,0,0
910,1068,0,0
425,889,0,0
845,1991,0,0
1256,890,0,0
774,281,0,0
1525,67,0,0
1059,1193,0,0
931,826,0,0
1387,1396,0,0
1157,1154,0,0
1432,1288,0,0
1639,386,0,0
1885,1552,0,0
957,1962,0,0
1210,1906,0,0
326,875,0,0
1507,31,0,0
856,93,0,0
1084,1465,0,0
1607,205,0,0
1704,123,0,0
1009,1504,0,0
1013,983,0,0
1967,1050,0,0
652,759,0,0
133,1292,0,0
445,439,0,0
1692,1013,0,0
366,594,0,0
386,427,0,0
1003,1029,0,0
67,1676,0,0
481,692,0,0
1290,295,0,0
397,1799,0,0
1643,1645,0,0
1204,899,0,0
1329,1615,0,0
1054,1559,0,0
843,634,0,0
1805,323,0,0
674,1009,0,0
1556,1120,0,0
1338,1301,0,0
1162,1962,0,0
121,1906,0,0
714,762,0,0
1510,302,0,0
64,821,0,0
1507,118,0,0
1765,233,0,0
1054,1250,0,0
1829,1123,0,0
1571,788,0,0
1103,1393,0,0
1139,217,0,0
1997,1113,0,0
1736,597,0,0
404,150,0,0
31,418,0,0
573,1468,0,0
672,551,0,0
1702,692,0,0
707,1805,0,0
892,559,0,0
1878,396,0,0
851,421,0,0
1729,1368,0,0
165,963,0,0
286,1709,0,0
1294,1895,0,0
1284,976,0,0
9,997,0,0
813,1629,0,0
1068,1876,0,0
1702,3,0,0
1967,1559,0,0
1150,1287,0,0
1435,1440,0,0
1286,1823,0,0
1125,1372,0,0
923,1214,0,0
240,1876,0,0
1725,24,0,0
324,1367,0,0
119,903,0,0
1066,1027,0,0
1263,1598,0,0
836,930,0,0
139,1765,0,0
897,445,0,0
728,1379,0,0
1357,294,0,0
1768,673,0,0
1015,595,0,0
729,1369,0,0
1738,385,0,0
1213,1939,0,0
438,1588,0,0
1309,674,0,0
266,314,0,0
620,1691,0,0
1087,813,0,0
1965,717,0,0
1321,1841,0,0
768,1265,0,0
1090,160,0,0
638,1764,0,0
1517,1009,0,0
1477,1603,0,0
1404,1458,0,0
585,247,0,0
935,514,0,0
1822,1077,0,0
1758,1976,0,0
237,8,0,0
238,963,0,0
301,1147,0,0
157,1024,0,0
41,1113,0,0
996,1168,0,0
813,196,0,0
1802,1910,0,0
329,808,0,0
69,1226,0,0
1487,91,0,0
293,1778,0,0
464,1256,0,0
1900,524,0,0
1388,513,0,0
1237,1625,0,0
258,741,0,0
1337,208,0,0
961,706,0,0
569,1066,0,0
347,198,0,0
1047,973,0,0
215,1491,0,0
1260,994,0,0
1369,402,0,0
1157,1767,0,0
1351,75,0,0
703,1056,0,0
1008,1012,0,0
561,103,0,0
731,1108,0,0
1931,703,0,0
1416,295,0,0
116,60,0,0
614,1355,0,0
1749,1633,0,0
1105,480,0,0
857,839,0,0
97,1794,0,0
798,427,0,0
8,92,0,0
1963,1251,0,0
425,980,0,0
487,105,0,0
1380,1493,0,0
848,1709,0,0
688,136,0,0
902,645,0,0
1791,1229,0,0
554,920,0,0
535,1155,0,0
1513,102,0,0
1751,740,0,0
1770,1577,0,0
356,1448,0,0
74,3,0,0
1599,1198,0,0
1688,936,0,0
1072,417,0,0
950,386,0,0
1458,213,0,0
442,1602,0,0
512,1659,0,0
512,436,0,0
1725,825,0,0
1401,1688,0,0
540,1602,0,0
354,1048,0,0
879,961,0,0
352,1985,0,0
600,1495,0,0
1314,1189,0,0
992,1336,0,0
576,505,0,0
161,1094,0,0
1473,1628,0,0
1824,1920,0,0
1352,920,0,0
1187,821,0,0
1504,1122,0,0
1688,263,0,0
area 2
-1148,862,0,0
-75,318,0,0
-1211,1586,0,0
-1393,267,0,0
-1177,1634,0,0
-1390,1153,0,0
-1911,1494,0,0
-1190,15,0,0
-1318,1827,0,0
-139,136,0,0
-293,835,0,0
-765,1346,0,0
-1258,1551,0,0
-838,533,0,0
-1032,1742,0,0
-255,1672,0,0
-1834,322,0,0
-615,1476,0,0
-1562,647,0,0
-1153,333,0,0
-359,54,0,0
-1970,1114,0,0
-1976,1832,0,0
-1175,1484,0,0
-1440,873,0,0
-134,1995,0,0
-428,38,0,0
-52,1976,0,0
-111,430,0,0
-278,392,0,0
-1103,785,0,0
-1327,1521,0,0
-362,1939,0,0
-1511,604,0,0
-44,839,0,0
-226,1349,0,0
-39,678,0,0
-840,1182,0,0
-376,707,0,0
-3,617,0,0
-1354,1232,0,0
-1421,820,0,0
-1367,330,0,0
-939,901,0,0
-547,249,0,0
-328,1453,0,0
-802,197,0,0
-798,42,0,0
-933,1291,0,0
-335,829,0,0
-1353,1769,0,0
-1694,20,0,0
-568,1718,0,0
-524,717,0,0
-408,685,0,0
-652,1874,0,0
-1016,895,0,0
-372,1282,0,0
-1029,1092,0,0
-859,785,0,0
-1926,648,0,0
-1886,895,0,0
-606,851,0,0
-61,655,0,0
-640,1393,0,0
-117,577,0,0
-797,1129,0,0
-1014,218,0,0
-551,116,0,0
-420,356,0,0
-911,743,0,0
-1046,1090,0,0
-944,1285,0,0
-1361,39,0,0
-68,1141,0,0
-632,1591,0,0
-1615,1821,0,0
-319,104,0,0
-645,358,0,0
-464,268,0,0
-239,1093,0,0
-564,1697,0,0
-544,992,0,0
-985,1124,0,0
-1149,882,0,0
-424,1266,0,0
-276,1723,0,0
-296,783,0,0
-1733,894,0,0
-848,1940,0,0
-478,694,0,0
-590,1327,0,0
-694,383,0,0
-1876,621,0,0
-1870,174,0,0
-1575,1685,0,0
-1128,600,0,0
-644,1964,0,0
-358,651,0,0
-1890,1965,0,0
-486,1481,0,0
-1711,85,0,0
-169,446,0,0
-752,99,0,0
-1823,567,0,0
-1383,337,0,0
-742,224,0,0
-1092,412,0,0
-1583,635,0,0
-372,579,0,0
-1018,1047,0,0
-325,30,0,0
-369,1253,0,0
-1179,367,0,0
-1514,884,0,0
-104,1631,0,0
-497,1229,0,0
-1697,880,0,0
-412,864,0,0
-69,1337,0,0
-1500,775,0,0
-1869,1301,0,0
-665,1017,0,0
-1430,1367,0,0
-1010,1123,0,0
-290,1469,0,0
-555,175,0,0
-97,1105,0,0
-272,209,0,0
-535,1616,0,0
-210,702,0,0
-1245,354,0,0
-339,174,0,0
-855,406,0,0
-322,1768,0,0
-1365,33,0,0
-1069,1897,0,0
-1820,807,0,0
-1446,965,0,0
-1499,127,0,0
-1282,1950,0,0
-1882,597,0,0
-997,1179,0,0
-890,1746,0,0
-1844,1350,0,0
-1161,1695,0,0
-940,770,0,0
-1619,1021,0,0
-717,380,0,0
-1504,22,0,0
-807,117,0,0
-842,1040,0,0
-700,690,0,0
-1751,736,0,0
-695,393,0,0
-1674,773,0,0
-723,1065,0,0
-293,23,0,0
-1776,831,0,0
-1595,1973,0,0
-1385,1086,0,0
-266,1216,0,0
-1928,825,0,0
-944,1474,0,0
-1387,1844,0,0
-490,545,0,0
-1450,1013,0,0
-1027,1546,0,0
-1214,734,0,0
-472,8,0,0
-600,1985,0,0
-808,1076,0,0
-358,1147,0,0
-349,876,0,0
-1372,1652,0,0
-632,1702,0,0
-140,1267,0,0
-1168,762,0,0
-623,1805,0,0
-1234,677,0,0
-1489,1054,0,0
-763,24,0,0
-390,846,0,0
-1356,669,0,0
-709,1629,0,0
-1538,1545,0,0
-928,26,0,0
-1841,287,0,0
-72,494,0,0
-704,1168,0,0
-631,1735,0,0
-817,1161,0,0
-902,769,0,0
-1846,1711,0,0
-1860,1833,0,0
-1349,403,0,0
-422,776,0,0
-544,734,0,0
-581,835,0,0
-1239,1381,0,0
-1460,1217,0,0
-1320,1080,0,0
-1150,740,0,0
-468,96,0,0
-1848,694,0,0
-243,451,0,0
-445,362,0,0
-992,1339,0,0
-1514,1491,0,0
-320,1822,0,0
-40,1980,0,0
-159,1144,0,0
-35,887,0,0
-558,1591,0,0
-1798,667,0,0
-1108,1158,0,0
-1448,1051,0,0
-1122,338,0,0
-225,1908,0,0
-78,1163,0,0
-1277,201,0,0
-471,540,0,0
-1745,1312,0,0
-553,954,0,0
-1633,1526,0,0
-1189,44,0,0
-1461,1209,0,0
-1338,78,0,0
-1931,480,0,0
-643,1557,0,0
-1272,1859,0,0
-1320,1356,0,0
-821,473,0,0
-1169,1105,0,0
-467,959,0,0
-1868,712,0,0
-294,547,0,0
-1879,1338,0,0
-455,1629,0,0
-195,1690,0,0
-1505,14,0,0
-1639,114,0,0
-979,1666,0,0
-93,1291,0,0
-796,1820,0,0
-1094,850,0,0
-1542,1944,0,0
-444,1458,0,0
-896,1051,0,0
-1535,967,0,0
-1272,1990,0,0
-994,500,0,0
-373,534,0,0
-648,303,0,0
-1410,1859,0,0
-618,971,0,0
-1096,591,0,0
-966,1039,0,0
-506,697,0,0
-1260,987,0,0
-372,54,0,0
-1340,423,0,0
-744,375,0,0
-550,537,0,0
-797,1168,0,0
-1869,818,0,0
-475,662,0,0
-1717,282,0,0
-884,1580,0,0
-892,856,0,0
-589,1835,0,0
-101,94,0,0
-1345,200,0,0
-595,706,0,0
-1708,557,0,0
-332,1453,0,0
-766,1311,0,0
-632,1417,0,0
-1187,791,0,0
-1444,1667,0,0
-1344,90,0,0
-1097,651,0,0
-811,1132,0,0
-275,1438,0,0
-403,1599,0,0
-166,1973,0,0
-242,4,0,0
-1518,852,0,0
-1160,1506,0,0
-1968,261,0,0
-1649,1430,0,0
-1190,456,0,0
-803,1898,0,0
-204,1935,0,0
-1916,1697,0,0
-318,739,0,0
-491,470,0,0
-1754,1889,0,0
-836,1999,0,0
-255,844,0,0
area 3
-484,-637,0,0
-1628,-1719,0,0
-642,-1958,0,0
-1711,-1203,0,0
-1226,-645,0,0
-1721,-1144,0,0
-1941,-1652,0,0
-1683,-1104,0,0
-1647,-1193,0,0
-1290,-664,0,0
-402,-934,0,0
-1313,-1845,0,0
-35,-336,0,0
-1226,-1406,0,0
-1627,-1343,0,0
-1487,-317,0,0
-1633,-1578,0,0
-1965,-1425,0,0
-1670,-1655,0,0
-954,-1903,0,0
-48,-1576,0,0
-703,-856,0,0
-1053,-1171,0,0
-1980,-200,0,0
-237,-1197,0,0
-1908,-604,0,0
-323,-735,0,0
-1814,-1553,0,0
-1378,-1941,0,0
-44,-764,0,0
-145,-280,0,0
-1230,-1314,0,0
-1678,-1077,0,0
-145,-1389,0,0
-1674,-352,0,0
-1393,-1731,0,0
-750,-1961,0,0
-1457,-303,0,0
-1557,-973,0,0
-775,-323,0,0
-331,-872,0,0
-589,-609,0,0
-1030,-1652,0,0
-1036,-559,0,0
-1873,-1741,0,0
-488,-938,0,0
-1363,-303,0,0
-1766,-634,0,0
-1082,-1257,0,0
-32,-1497,0,0
-1696,-376,0,0
-108,-270,0,0
-923,-1478,0,0
-210,-7,0,0
-775,-687,0,0
-1879,-616,0,0
-1687,-365,0,0
-228,-1880,0,0
-304,-448,0,0
-402,-1805,0,0
-1399,-689,0,0
-358,-26,0,0
-110,-944,0,0
-1081,-1808,0,0
-724,-385,0,0
-1587,-689,0,0
-936,-1391,0,0
-1021,-956,0,0
-604,-356,0,0
-1142,-261,0,0
-740,-36,0,0
-1305,-1760,0,0
-1642,-615,0,0
-522,-1448,0,0
-589,-1524,0,0
-1697,-311,0,0
-927,-992,0,0
-1860,-121,0,0
-1919,-248,0,0
-1504,-1868,0,0
-1191,-180,0,0
-36,-593,0,0
-591,-480,0,0
-1173,-260,0,0
-162,-337,0,0
-1142,-480,0,0
-1813,-1092,0,0
-129,-466,0,0
-329,-699,0,0
-1498,-216,0,0
-1133,-1007,0,0
-1502,-1860,0,0
-1025,-1301,0,0
-1278,-1752,0,0
-1831,-889,0,0
-1198,-26,0,0
-860,-465,0,0
-230,-1154,0,0
-352,-1064,0,0
-985,-999,0,0
-1097,-158,0,0
-39,-1745,0,0
-655,-915,0,0
-1645,-1224,0,0
-1481,-1994,0,0
-457,-1044,0,0
-330,-1895,0,0
-910,-1792,0,0
-1520,-349,0,0
-23,-726,0,0
-1546,-299,0,0
-318,-1228,0,0
-153,-1007,0,0
-926,-906,0,0
-254,-1213,0,0
-1553,-951,0,0
-250,-1417,0,0
-1459,-755,0,0
-1396,-783,0,0
-654,-1896,0,0
-1547,-417,0,0
-777,-1000,0,0
-1241,-1905,0,0
-1885,-89,0,0
-1224,-582,0,0
-178,-1214,0,0
-1472,-1753,0,0
-1118,-409,0,0
-1343,-1868,0,0
-228,-1766,0,0
-94,-334,0,0
-431,-1093,0,0
-1725,-1984,0,0
-1906,-1114,0,0
-1610,-364,0,0
-1973,-1516,0,0
-355,-1757,0,0
-922,-610,0,0
-1844,-1937,0,0
-544,-188,0,0
-124,-1678,0,0
-7,-550,0,0
-1020,-1324,0,0
-1123,-270,0,0
-937,-997,0,0
-1941,-571,0,0
-1416,-1465,0,0
-1940,-1174,0,0
-1750,-1382,0,0
-803,-1838,0,0
-372,-865,0,0
-1256,-499,0,0
-1948,-1432,0,0
-796,-904,0,0
-997,-1889,0,0
-1642,-319,0,0
-619,-1611,0,0
-628,-1334,0,0
-170,-1028,0,0
-1824,-488,0,0
-1780,-857,0,0
-1548,-956,0,0
-1068,-249,0,0
-610,-754,0,0
-1721,-1610,0,0
-1827,-1623,0,0
-1928,-241,0,0
-1891,-1034,0,0
-1486,-156,0,0
-151,-1917,0,0
-1056,-1497,0,0
-1520,-1391,0,0
-200,-1090,0,0
-1306,-958,0,0
-1242,-1215,0,0
-1803,-1723,0,0
-33,-1447,0,0
-424,-1610,0,0
-1769,-45,0,0
-390,-1630,0,0
-357,-1669,0,0
-1199,-874,0,0
-1848,-1888,0,0
-1879,-233,0,0
-1432,-447,0,0
-737,-531,0,0
-1831,-1588,0,0
-789,-1831,0,0
-1399,-1268,0,0
-967,-936,0,0
-1629,-420,0,0
-610,-1329,0,0
-614,-548,0,0
-297,-982,0,0
-678,-1902,0,0
-493,-1850,0,0
-1915,-1500,0,0
-941,-1031,0,0
-348,-1987,0,0
-1866,-771,0,0
-1584,-634,0,0
-837,-56,0,0
-1821,-1896,0,0
-441,-1379,0,0
-926,-488,0,0
-1184,-479,0,0
-1596,-1917,0,0
-1796,-984,0,0
-1518,-420,0,0
-20,-919,0,0
-1183,-651,0,0
-209,-331,0,0
-1066,-827,0,0
-266,-844,0,0
-1016,-1177,0,0
-1875,-1059,0,0
-421,-173,0,0
-1069,-424,0,0
-1066,-962,0,0
-1901,-477,0,0
-705,-619,0,0
-883,-756,0,0
-1754,-1164,0,0
-1339,-362,0,0
-1088,-1194,0,0
-963,-893,0,0
-1744,-1250,0,0
-1654,-301,0,0
-1118,-415,0,0
-592,-1833,0,0
-1447,-475,0,0
-473,-642,0,0
-522,-774,0,0
-1690,-95,0,0
-1,-237,0,0
-1319,-1364,0,0
-1165,-1012,0,0
-1587,-1770,0,0
-1079,-1197,0,0
-297,-1061,0,0
-1947,-381,0,0
-980,-975,0,0
-1793,-561,0,0
-395,-81,0,0
-832,-1730,0,0
-535,-1312,0,0
-1783,-1155,0,0
-23,-1684,0,0
-1279,-855,0,0
-1621,-1403,0,0
-654,-131,0,0
-1526,-1447,0,0
-1535,-1199,0,0
-24,-1507,0,0
-504,-297,0,0
-7,-1165,0,0
-1807,-1691,0,0
-1209,-39,0,0
-1704,-1631,0,0
-1278,-413,0,0
-592,-1638,0,0
-1230,-336,0,0
-1116,-1186,0,0
-1991,-982,0,0
-1683,-1072,0,0
-942,-1102,0,0
-507,-390,0,0
-1154,-1731,0,0
-1692,-1108,0,0
-501,-532,0,0
-1523,-1178,0,0
-592,-1198,0,0
-1156,-1659,0,0
-207,-184,0,0
-470,-490,0,0
-1763,-414,0,0
-236,-297,0,0
-99,-895,0,0
-1169,-1727,0,0
-1781,-1238,0,0
-730,-970,0,0
-1139,-89,0,0
-1067,-1850,0,0
-125,-320,0,0
-110,-398,0,0
-1671,-196,0,0
-1825,-1826,0,0
-1392,-1799,0,0
-1568,-875,0,0
-1213,-209,0,0
-213,-396,0,0
-1827,-794,0,0
-72,-413,0,0
-1122,-72,0,0
-1452,-1222,0,0
-246,-996,0,0
-1064,-872,0,0
-1260,-1729,0,0
-1385,-704,0,0
-1299,-175,0,0
-1674,-1490,0,0
-1489,-1560,0,0
-443,-1258,0,0
-277,-1275,0,0
-1063,-911,0,0
-1082,-1708,0,0
-1863,-415,0,0
-307,-1540,0,0
-374,-1451,0,0
-1202,-109,0,0
-771,-1545,0,0
-693,-1824,0,0
-358,-398,0,0
-226,-1775,0,0
-1371,-733,0,0
-1071,-1151,0,0
-762,-1554,0,0
-1638,-1746,0,0
-919,-948,0,0
-740,-567,0,0
area 4
688,-471,0,0
1274,-1511,0,0
329,-1312,0,0
348,-885,0,0
377,-664,0,0
138,-1936,0,0
462,-1066,0,0
1917,-1867,0,0
1729,-714,0,0
1205,-1943,0,0
119,-865,0,0
348,-1392,0,0
618,-207,0,0
1956,-636,0,0
1589,-478,0,0
1142,-1774,0,0
1719,-2000,0,0
1690,-874,0,0
1771,-607,0,0
1918,-101,0,0
624,-862,0,0
445,-1702,0,0
384,-1032,0,0
312,-1561,0,0
1529,-1827,0,0
1272,-947,0,0
960,-881,0,0
1351,-1870,0,0
1044,-969,0,0
249,-274,0,0
254,-1275,0,0
1162,-1084,0,0
712,-1142,0,0
1768,-1904,0,0
1512,-37,0,0
259,-789,0,0
499,-1908,0,0
1873,-469,0,0
1375,-1048,0,0
719,-1263,0,0
1985,-763,0,0
1406,-1809,0,0
1252,-770,0,0
777,-936,0,0
1476,-561,0,0
64,-1091,0,0
426,-1507,0,0
914,-1983,0,0
937,-884,0,0
1360,-208,0,0
183,-1429,0,0
774,-1641,0,0
1820,-1455,0,0
119,-931,0,0
1673,-523,0,0
1,-1000,0,0
1398,-1032,0,0
1672,-1304,0,0
1063,-281,0,0
1907,-131,0,0
1928,-1107,0,0
212,-1939,0,0
1952,-360,0,0
231,-1316,0,0
1817,-1264,0,0
214,-1318,0,0
912,-573,0,0
426,-131,0,0
1178,-176,0,0
1346,-949,0,0
1282,-1080,0,0
369,-767,0,0
1674,-1341,0,0
605,-1102,0,0
1384,-1860,0,0
584,-1038,0,0
248,-1426,0,0
1092,-1652,0,0
1732,-123,0,0
1706,-1547,0,0
1284,-8,0,0
1327,-1454,0,0
1069,-776,0,0
610,-364,0,0
1693,-1553,0,0
390,-949,0,0
842,-883,0,0
1956,-1818,0,0
1244,-1813,0,0
1744,-267,0,0
555,-1885,0,0
1957,-1071,0,0
1813,-1083,0,0
1724,-932,0,0
1720,-1427,0,0
1851,-470,0,0
1185,-1821,0,0
1975,-1210,0,0
1520,-192,0,0
556,-1480,0,0
945,-690,0,0
594,-1964,0,0
1788,-797,0,0
1309,-7,0,0
1878,-962,0,0
904,-73,0,0
1232,-1093,0,0
943,-190,0,0
200,-1427,0,0
186,-237,0,0
1108,-1720,0,0
569,-415,0,0
1716,-469,0,0
623,-643,0,0
1079,-697,0,0
568,-257,0,0
1639,-1868,0,0
146,-1565,0,0
1403,-841,0,0
1931,-1168,0,0
110,-1244,0,0
651,-1897,0,0
1395,-146,0,0
461,-157,0,0
1531,-582,0,0
44,-466,0,0
121,-370,0,0
648,-1854,0,0
158,-1283,0,0
1283,-879,0,0
150,-1002,0,0
338,-1322,0,0
1090,-571,0,0
1726,-915,0,0
1836,-1126,0,0
640,-1984,0,0
334,-97,0,0
1051,-1056,0,0
971,-1908,0,0
1497,-753,0,0
1112,-1778,0,0
643,-1350,0,0
1241,-149,0,0
1969,-1844,0,0
1294,-712,0,0
1865,-23,0,0
1193,-1004,0,0
1011,-243,0,0
1909,-141,0,0
836,-1590,0,0
1625,-1716,0,0
137,-1862,0,0
762,-99,0,0
1664,-490,0,0
918,-1782,0,0
774,-836,0,0
1929,-297,0,0
762,-93,0,0
1366,-1515,0,0
1727,-718,0,0
1755,-987,0,0
216,-1368,0,0
731,-1003,0,0
1152,-1503,0,0
15,-1611,0,0
862,-1474,0,0
1700,-46,0,0
680,-41,0,0
1332,-739,0,0
503,-403,0,0
118,-854,0,0
98,-1216,0,0
1435,-408,0,0
912,-1773,0,0
1608,-532,0,0
344,-688,0,0
91,-832,0,0
1834,-1267,0,0
1511,-1451,0,0
702,-1534,0,0
657,-1822,0,0
528,-4,0,0
785,-1342,0,0
787,-862,0,0
1321,-986,0,0
1209,-1475,0,0
969,-1366,0,0
1571,-1737,0,0
1126,-665,0,0
1621,-1998,0,0
310,-86,0,0
942,-1469,0,0
868,-1433,0,0
751,-606,0,0
1047,-554,0,0
1424,-595,0,0
376,-1377,0,0
481,-1402,0,0
492,-231,0,0
1010,-1436,0,0
157,-1716,0,0
1683,-611,0,0
608,-1376,0,0
1275,-1430,0,0
942,-1023,0,0
559,-1412,0,0
936,-920,0,0
1035,-726,0,0
536,-1476,0,0
1626,-482,0,0
326,-1449,0,0
734,-983,0,0
1578,-707,0,0
1810,-1116,0,0
1251,-330,0,0
651,-996,0,0
758,-431,0,0
514,-770,0,0
515,-1669,0,0
1265,-930,0,0
84,-1336,0,0
1108,-1131,0,0
1914,-1012,0,0
714,-890,0,0
1658,-874,0,0
197,-565,0,0
1073,-1851,0,0
13,-804,0,0
591,-1366,0,0
853,-445,0,0
810,-1243,0,0
328,-2,0,0
1062,-1989,0,0
1139,-1745,0,0
1875,-538,0,0
1476,-930,0,0
1923,-1075,0,0
1511,-55,0,0
1772,-1056,0,0
1898,-1225,0,0
87,-847,0,0
1228,-738,0,0
450,-83,0,0
938,-1587,0,0
1028,-9,0,0
61,-1381,0,0
519,-337,0,0
1035,-1174,0,0
1056,-1327,0,0
1370,-862,0,0
1004,-1396,0,0
826,-1263,0,0
1426,-1270,0,0
1281,-1479,0,0
435,-1339,0,0
1666,-1643,0,0
438,-61,0,0
1013,-356,0,0
341,-1998,0,0
1011,-1335,0,0
1777,-167,0,0
963,-386,0,0
1138,-739,0,0
997,-1234,0,0
251,-1450,0,0
706,-173,0,0
1985,-1621,0,0
1465,-968,0,0
3,-385,0,0
754,-683,0,0
267,-527,0,0
1622,-564,0,0
1523,-1214,0,0
706,-1139,0,0
1734,-981,0,0
1524,-62,0,0
599,-335,0,0
359,-1909,0,0

near cbsd peopel number
66
70
62
64
71
64
62
57
58
62
60
64
61
61
63
66
61
63
49
57
74
64
61
61
65
65
63
66
59
59
