525.962769,522.384399,528.258362,528.258362,508.710205,527.244507,525.039734,525.039734,526.679565,530.393311,

avg. max avg. throughput in test times
524.797058
avg. BS TX power in all test times
MBS area 1,MBS area 2,MBS area 3,MBS area 4,CBSD 1,CBSD 2,CBSD 3,CBSD 4,CBSD 5,CBSD 6,CBSD 7,CBSD 8,CBSD 9,CBSD 10,CBSD 11,CBSD 12,CBSD 13,CBSD 14,CBSD 15,CBSD 16,CBSD 17,CBSD 18,CBSD 19,CBSD 20,CBSD 21,
10.000,10.000,8.750,10.000,0.100,0.200,0.100,0.100,0.200,0.200,0.200,0.600,0.000,0.400,0.200,0.200,0.000,0.000,0.300,0.400,0.000,0.400,0.100,0.000,0.300,
avg. mbs all power,avg. cbsd enable number,avg. mbs area all power,avg. cbsd all power
68.750,4.000,38.750,4.000
avg. number of relay UE
477

BS TX power
MBS area 1,MBS area 2,MBS area 3,MBS area 4,CBSD 1,CBSD 2,CBSD 3,CBSD 4,CBSD 5,CBSD 6,CBSD 7,CBSD 8,CBSD 9,CBSD 10,CBSD 11,CBSD 12,CBSD 13,CBSD 14,CBSD 15,CBSD 16,CBSD 17,CBSD 18,CBSD 19,CBSD 20,CBSD 21,
10.000,10.000,8.750,10.000,1.000,0.000,0.000,0.000,0.000,0.000,0.000,1.000,0.000,1.000,0.000,0.000,0.000,0.000,1.000,0.000,0.000,0.000,0.000,0.000,0.000,
max average power
530.393311

x,y,area,be blocked (1 : NLOS / 0 : LOS),be blocked number (>=1 : CBSD(x) / 0 : no),connect bs number (>=1 : CBSD / 0 : MBS),throughput (unit : M bps)
676,1005,1,0,0,0,831.457336
-1015,233,2,0,0,0,874.921204
-866,-1665,3,0,0,0,686.621155
1888,-1721,4,0,0,15,70.798386
536,410,1,0,0,0,999.912231
-316,1434,2,1,0,1,66.017136
-357,-409,3,1,0,8,152.136566
1113,-1545,4,1,0,15,70.798386
1084,1011,1,0,0,0,773.404480
-520,1235,2,0,0,0,802.397156
-843,-924,3,0,0,0,803.015686
1941,-1267,4,0,0,15,70.798386
873,33,1,1,0,10,63.614803
-1449,192,2,0,0,0,777.428406
-1544,-1717,3,0,0,0,627.433777
616,-1744,4,0,0,15,70.798386
797,360,1,0,0,0,925.210083
-1828,1030,2,0,0,1,66.017136
-1528,-119,3,0,0,0,744.654114
958,-287,4,0,0,0,886.580872
86,612,1,0,0,0,1025.266968
-1317,1187,2,0,0,1,66.017136
-382,-1562,3,0,0,0,730.879456
396,-588,4,1,0,15,70.798386
690,48,1,0,0,0,992.808472
-1743,1823,2,0,0,1,66.017136
-334,-1767,3,0,0,0,698.841492
824,-947,4,0,0,0,821.170715
1197,101,1,0,0,0,833.828735
-594,602,2,0,0,0,934.861816
-1744,-887,3,0,0,0,674.704712
1100,-1165,4,0,0,0,751.062744
974,382,1,0,0,0,873.588928
-1662,555,2,0,0,0,725.402222
-136,-1129,3,0,0,0,830.395691
1772,-1031,4,0,0,15,70.798386
738,1201,1,0,0,0,787.842407
-334,1478,2,0,0,0,767.085449
-1535,-1827,3,0,0,0,618.080505
190,-1274,4,0,0,0,813.756897
1570,284,1,0,0,0,752.278931
-1128,1359,2,0,0,1,66.017136
-1686,-302,3,0,0,0,712.784119
484,-1602,4,0,0,0,738.578857
1720,332,1,0,0,0,725.479004
-1738,604,2,1,0,1,66.017136
-433,-881,3,0,0,0,872.708740
1871,-935,4,0,0,15,70.798386
208,717,1,0,0,0,970.796814
-1665,1412,2,0,0,1,66.017136
-714,-311,3,0,0,0,939.378723
95,-703,4,0,0,0,985.516235
161,565,1,0,0,0,1039.869385
-434,1887,2,0,0,1,66.017136
-110,-1196,3,0,0,0,814.677185
338,-718,4,0,0,0,953.196289
739,399,1,0,0,0,936.873352
-469,1039,2,0,0,0,848.898987
-1868,-1,3,0,0,0,687.957458
272,-911,4,0,0,0,901.145874
1631,1570,1,1,0,10,63.614803
-805,1749,2,0,0,1,66.017136
-1818,-1192,3,0,0,0,644.628235
1965,-980,4,0,0,15,70.798386
496,628,1,0,0,0,950.784302
-430,1526,2,0,0,0,754.093140
-884,-1066,3,0,0,0,773.757385
302,-285,4,0,0,0,1139.936523
653,1616,1,0,0,0,726.922791
-311,1363,2,0,0,0,790.215515
-1829,-873,3,0,0,0,664.651672
1815,-1875,4,0,0,15,70.798386
983,590,1,0,0,0,847.257996
-1884,1620,2,0,0,1,66.017136
-1771,-1524,3,0,0,0,624.081970
1261,-450,4,0,0,0,802.637756
91,823,1,0,0,0,940.956848
-794,1798,2,0,0,1,66.017136
-868,-1993,3,0,0,0,644.643738
1128,-1950,4,0,0,15,70.798386
1567,1023,1,0,0,10,63.614803
-1855,172,2,0,0,8,152.136566
-169,-584,3,1,0,8,152.136566
53,-895,4,0,0,0,918.042358
699,415,1,0,0,0,946.260803
-1728,320,2,0,0,0,724.559021
-1486,-1557,3,1,0,8,152.136566
1319,-56,4,0,0,0,806.680786
296,1358,1,0,0,0,791.894653
-838,1071,2,0,0,0,798.165466
-1212,-641,3,0,0,0,776.630188
660,-1389,4,0,0,0,762.842285
191,1849,1,0,0,1,66.017136
-579,1833,2,0,0,1,66.017136
-1754,-932,3,0,0,0,670.408813
607,-544,4,0,0,0,945.486877
46,1961,1,0,0,1,66.017136
-709,1538,2,1,0,1,66.017136
-720,-845,3,0,0,0,837.311768
437,-1646,4,0,0,0,733.566772
669,1577,1,0,0,0,731.885864
-1428,449,2,0,0,0,770.582703
-1917,-557,3,0,0,0,668.967285
588,-578,4,0,0,0,942.176636
400,1303,1,0,0,0,797.504578
-660,1681,2,1,0,1,66.017136
-1110,-1273,3,0,0,0,716.803345
1217,-121,4,0,0,0,828.668213
1073,1586,1,1,0,10,63.614803
-1177,1461,2,0,0,1,66.017136
-901,-840,3,0,0,0,807.402161
690,-1027,4,0,0,0,825.332581
1870,1184,1,0,0,10,63.614803
-94,1127,2,0,0,0,851.188599
-647,-46,3,0,0,0,992.079834
1584,-96,4,0,0,0,753.825134
1665,140,1,0,0,0,739.032104
-821,1415,2,0,0,0,745.095093
-1761,-137,3,0,0,0,703.976990
704,-650,4,0,0,0,898.899658
1451,38,1,0,0,0,779.433411
-1140,434,2,0,0,0,829.417480
-502,-1646,3,1,0,8,152.136566
1570,-328,4,1,0,15,70.798386
416,394,1,0,0,0,1047.087036
-1988,1421,2,0,0,1,66.017136
-1370,-1923,3,0,0,0,621.093811
1160,-1799,4,0,0,15,70.798386
983,39,1,1,0,10,63.614803
-7,1036,2,0,0,0,876.411255
-85,-472,3,0,0,0,1079.131104
700,-851,4,0,0,0,858.665405
1011,1633,1,0,0,10,63.614803
-582,1238,2,0,0,0,796.459778
-731,-350,3,0,0,0,927.892456
1357,-1371,4,0,0,15,70.798386
1979,1658,1,0,0,10,63.614803
-831,152,2,0,0,0,935.179382
-882,-1502,3,0,0,0,707.977783
639,-171,4,0,0,0,1005.669983
1087,103,1,0,0,0,861.299438
-851,1179,2,1,0,1,66.017136
-189,-1884,3,1,0,8,152.136566
991,-1720,4,0,0,15,70.798386
203,747,1,0,0,0,960.360535
-1923,673,2,0,0,1,66.017136
-1680,-1667,3,1,0,8,152.136566
1166,-1013,4,0,0,0,761.585022
790,1981,1,0,0,10,63.614803
-1372,1961,2,1,0,1,66.017136
-1704,-1337,3,1,0,8,152.136566
889,-1851,4,1,0,15,70.798386
641,1453,1,0,0,0,753.607849
-316,1722,2,0,0,0,725.641663
-1409,-1959,3,0,0,0,614.898132
912,-1046,4,0,0,0,792.335632
342,1609,1,0,0,0,743.518433
-858,594,2,0,0,0,874.326965
-1621,-11,3,0,0,0,728.570129
203,-1271,4,0,0,0,813.975830
207,820,1,0,0,0,934.860046
-923,1222,2,0,0,0,764.043335
-1684,-1685,3,0,0,0,618.557922
612,-288,4,0,0,0,999.251648
1373,1289,1,0,0,10,63.614803
-704,1110,2,0,0,0,807.938232
-1613,-1474,3,0,0,0,643.173706
143,-1507,4,0,0,0,767.369690
59,828,1,0,0,0,940.232544
-198,0,2,0,0,0,1353.588257
-1110,-1405,3,1,0,8,152.136566
571,-563,4,0,0,0,950.198120
1767,52,1,0,0,10,63.614803
-14,122,2,0,0,0,1491.416992
-1844,-571,3,0,0,0,678.562378
189,-1747,4,0,0,0,724.589478
1927,685,1,1,0,10,63.614803
-60,1918,2,0,0,1,66.017136
-1164,-586,3,0,0,0,791.217712
236,-178,4,0,0,0,1237.972778
1149,604,1,0,0,0,811.535339
-991,1390,2,0,0,0,732.881470
-548,-1810,3,0,0,0,684.435974
413,-1423,4,0,0,0,773.514221
570,1954,1,0,0,10,63.614803
-1053,162,2,1,0,1,66.017136
-1208,-783,3,0,0,0,762.630981
119,-1741,4,0,0,0,726.575317
551,1799,1,0,0,10,63.614803
-462,1265,2,0,0,0,800.960083
-294,-1020,3,0,0,0,850.196777
41,-406,4,0,0,0,1144.967773
830,1552,1,0,0,0,724.131775
-1133,1518,2,0,0,1,66.017136
-1171,-1472,3,0,0,0,685.979126
1912,-1718,4,0,0,15,70.798386
1426,831,1,0,0,0,742.557373
-1316,1585,2,1,0,1,66.017136
-1484,-1681,3,0,0,0,635.796509
1256,-581,4,0,0,0,793.140747
97,631,1,0,0,0,1015.904602
-1129,1232,2,0,0,0,738.999084
-1894,-1263,3,0,0,0,631.487732
757,-822,4,0,0,0,854.630371
294,1751,1,0,0,10,63.614803
-243,883,2,0,0,0,911.920837
-846,-1443,3,0,0,0,719.575562
1294,-852,4,0,0,0,760.708313
1257,589,1,0,0,0,792.252808
-1380,999,2,0,0,0,733.462280
-297,-331,3,0,0,0,1100.906372
623,-360,4,0,0,0,981.423828
1549,901,1,0,0,10,63.614803
-1031,98,2,0,0,0,876.515991
-535,-1705,3,0,0,0,700.649719
690,-23,4,0,0,0,993.344177
1809,1641,1,1,0,10,63.614803
-861,1346,2,0,0,0,751.858032
-600,-902,3,0,0,0,844.346375
991,-1183,4,0,0,0,761.835144
1011,1020,1,0,0,0,782.487183
-647,1177,2,1,0,1,66.017136
-203,-1242,3,0,0,0,801.249146
508,-901,4,0,0,0,876.878540
1348,1483,1,0,0,10,63.614803
-1616,1581,2,0,0,1,66.017136
-1297,-1589,3,0,0,0,661.224609
126,-1965,4,0,0,8,152.136566
1850,1018,1,0,0,10,63.614803
-1037,1480,2,0,0,1,66.017136
-122,-409,3,0,0,0,1112.758667
1393,-1178,4,0,0,15,70.798386
106,110,1,0,0,0,1428.427612
-1703,1194,2,0,0,1,66.017136
-754,-1975,3,0,0,0,652.600281
1157,-1098,4,0,0,0,752.352539
739,1116,1,0,0,0,802.721558
-11,1349,2,0,0,0,800.465515
-832,-1783,3,0,0,0,673.108154
504,-1181,4,0,0,0,814.660767
793,1844,1,0,0,10,63.614803
-1686,255,2,1,0,1,66.017136
-352,-1346,3,1,0,8,152.136566
1338,-989,4,0,0,0,740.242371
582,841,1,0,0,0,880.125122
-985,1364,2,0,0,0,737.047974
-1762,-859,3,0,0,0,674.174927
1776,-1127,4,0,0,15,70.798386
692,859,1,1,0,10,63.614803
-258,1894,2,0,0,1,66.017136
-773,-1558,3,0,0,0,708.404724
1321,-1229,4,0,0,15,70.798386
13,1810,1,0,0,1,66.017136
-204,1951,2,0,0,1,66.017136
-618,-1549,3,0,0,0,720.430359
402,-1791,4,0,0,15,70.798386
113,1915,1,0,0,1,66.017136
-1925,1245,2,0,0,1,66.017136
-1209,-96,3,0,0,0,811.876282
975,-1308,4,0,0,0,745.889404
692,796,1,0,0,0,871.256714
-1268,818,2,0,0,0,768.284180
-209,-427,3,0,0,0,1081.660034
448,-1986,4,0,0,15,70.798386
1402,946,1,1,0,10,63.614803
-340,108,2,0,0,0,1183.740234
-1950,-1781,3,0,0,0,589.266968
1970,-1039,4,0,0,15,70.798386
1755,9,1,0,0,0,724.943787
-465,1538,2,0,0,0,750.257690
-1478,-934,3,1,0,8,152.136566
1091,-974,4,0,0,0,777.260925
1187,1552,1,0,0,10,63.614803
-201,1678,2,0,0,0,735.768799
-556,-552,3,0,0,0,937.649780
1958,-479,4,1,0,15,70.798386
1660,1899,1,0,0,10,63.614803
-759,1730,2,1,0,1,66.017136
-1834,-303,3,1,0,8,152.136566
1022,-1118,4,0,0,0,767.187378
1768,1578,1,0,0,10,63.614803
-434,1889,2,0,0,1,66.017136
-268,-504,3,0,0,0,1028.917603
1190,-1010,4,0,0,0,758.580078
280,300,1,0,0,0,1143.346069
-1229,899,2,0,0,0,765.679016
-44,-1901,3,0,0,0,682.871826
1598,-862,4,0,0,15,70.798386
9,1481,1,0,0,0,773.648926
-890,1939,2,1,0,1,66.017136
-1966,-858,3,0,0,0,648.441467
564,-1280,4,0,0,0,790.068115
268,858,1,0,0,0,917.300049
-200,1141,2,1,0,1,66.017136
-138,-1604,3,0,0,0,730.542236
16,-1029,4,1,0,8,152.136566
536,26,1,0,0,0,1065.979614
-762,1688,2,0,0,1,66.017136
-945,-1095,3,0,0,0,761.273132
705,-1536,4,0,0,0,735.756958
1672,956,1,0,0,10,63.614803
-1524,1513,2,0,0,1,66.017136
-1120,-786,3,0,0,0,777.214233
515,-381,4,0,0,0,1014.912231
1352,63,1,1,0,10,63.614803
-1162,201,2,1,0,1,66.017136
-1803,-629,3,0,0,0,681.662292
1280,-1748,4,0,0,15,70.798386
964,1931,1,0,0,10,63.614803
-1166,1569,2,0,0,1,66.017136
-108,-1589,3,0,0,0,733.632812
1996,-352,4,0,0,15,70.798386
639,1844,1,0,0,10,63.614803
-1836,813,2,0,0,1,66.017136
-1820,-485,3,0,0,0,685.591431
740,-1902,4,0,0,15,70.798386
113,441,1,0,0,0,1113.410278
-1976,955,2,1,0,1,66.017136
-292,-594,3,0,0,0,986.247925
1283,-1224,4,1,0,15,70.798386
1329,2,1,0,0,0,804.768127
-1396,1084,2,0,0,1,66.017136
-794,-42,3,0,0,0,933.404480
1143,-1351,4,0,0,15,70.798386
813,1435,1,0,0,0,742.759949
-102,318,2,1,0,1,66.017136
-851,-683,3,0,0,0,842.267334
1730,-1223,4,0,0,15,70.798386
1784,1156,1,0,0,10,63.614803
-483,467,2,0,0,0,1001.189331
-1251,-1067,3,0,0,0,724.497864
463,-1649,4,0,0,0,731.930908
286,880,1,0,0,0,908.954163
-263,584,2,0,0,0,1014.968689
-1841,-1821,3,0,0,0,594.850342
166,-1782,4,0,0,8,152.136566
934,1858,1,0,0,10,63.614803
-165,1549,2,0,0,0,759.145325
-1723,-1327,3,0,0,0,644.517456
1249,-1898,4,0,0,15,70.798386
245,1360,1,0,0,0,793.551941
-1798,1748,2,0,0,1,66.017136
-1147,-1437,3,0,0,0,692.491333
1990,-1891,4,1,0,15,70.798386
1340,773,1,0,0,0,761.140259
-943,1768,2,0,0,1,66.017136
-502,-870,3,1,0,8,152.136566
564,-1613,4,0,0,0,732.602112
1330,1591,1,0,0,10,63.614803
-883,847,2,0,0,0,828.536804
-1791,-848,3,1,0,8,152.136566
333,-379,4,0,0,0,1083.778442
1676,1775,1,0,0,10,63.614803
-1119,188,2,0,0,0,850.230896
-340,-111,3,0,0,0,1163.738770
1013,-872,4,0,0,0,803.125000
777,1731,1,0,0,10,63.614803
-1220,1339,2,1,0,1,66.017136
-1456,-1154,3,0,0,0,689.514526
1664,-984,4,0,0,15,70.798386
715,686,1,0,0,0,889.241150
-1611,92,2,0,0,0,749.034058
-1776,-368,3,0,0,0,696.395081
1451,-766,4,0,0,0,744.245911
207,682,1,1,0,10,63.614803
-1075,908,2,0,0,0,788.346191
-1053,-1513,3,1,0,8,152.136566
1371,-646,4,0,0,0,767.027954
1354,1367,1,0,0,10,63.614803
-1710,1002,2,0,0,1,66.017136
-802,-787,3,0,0,0,833.835815
247,-1282,4,0,0,0,809.880066
778,1667,1,0,0,10,63.614803
-47,1850,2,0,0,1,66.017136
-981,-596,3,0,0,0,827.703125
384,-1747,4,1,0,15,70.798386
1712,627,1,0,0,10,63.614803
-992,1,2,0,0,0,888.912354
-1807,-1410,3,0,0,0,629.550903
853,-1323,4,1,0,15,70.798386
1962,1933,1,0,0,10,63.614803
-1945,1808,2,0,0,1,66.017136
-1174,-100,3,0,0,0,820.187439
22,-1572,4,1,0,8,152.136566
581,661,1,0,0,0,923.399963
-319,418,2,0,0,0,1071.848755
-1437,-709,3,0,0,0,731.887634
1042,-1147,4,0,0,0,760.646790
92,952,1,0,0,0,899.425781
-1086,869,2,0,0,0,791.688232
-974,-1281,3,0,0,0,730.665100
1212,-779,4,0,0,0,781.566406
484,1505,1,1,0,10,63.614803
-350,452,2,0,0,0,1047.741943
-78,-231,3,0,0,0,1274.277100
1722,-1510,4,1,0,15,70.798386
540,919,1,0,0,0,868.225220
-1113,1214,2,0,0,0,743.162598
-437,-721,3,0,0,0,916.523865
425,-338,4,0,0,0,1062.567139
443,684,1,0,0,0,945.547607
-1960,24,2,0,0,8,152.136566
-1766,-1541,3,0,0,0,623.187683
722,-1943,4,0,0,15,70.798386
1662,644,1,1,0,10,63.614803
-935,771,2,0,0,0,831.294128
-895,-1018,3,1,0,8,152.136566
1998,-568,4,0,0,15,70.798386
311,504,1,1,0,10,63.614803
-1684,910,2,0,0,1,66.017136
-742,-1238,3,0,0,0,761.881042
1053,-477,4,0,0,0,844.875305
976,656,1,0,0,0,839.947266
-1021,1505,2,0,0,1,66.017136
-1658,-607,3,0,0,0,704.090698
238,-61,4,0,0,0,1291.323608
600,1861,1,0,0,10,63.614803
-436,668,2,0,0,0,951.705017
-332,-1284,3,0,0,0,786.181641
1492,-790,4,0,0,0,736.066284
524,992,1,0,0,0,853.493408
-1967,149,2,0,0,8,152.136566
-299,-1946,3,1,0,8,152.136566
1039,-1960,4,0,0,15,70.798386
983,338,1,0,0,0,875.450439
-470,1735,2,0,0,1,66.017136
-771,-821,3,0,0,0,833.164246
985,-1859,4,0,0,15,70.798386
1352,1509,1,0,0,10,63.614803
-465,977,2,0,0,0,863.908875
-1179,-442,3,0,0,0,801.101257
380,-683,4,0,0,0,957.581360
344,1679,1,0,0,0,731.744812
-1301,1735,2,1,0,1,66.017136
-1358,-33,3,0,0,0,779.296143
1854,-32,4,0,0,10,63.614803
1574,101,1,0,0,0,755.579163
-1104,114,2,0,0,0,856.593384
-75,-1065,3,0,0,0,848.544617
1476,-666,4,0,0,0,748.026733
532,358,1,0,0,0,1014.630676
-1793,382,2,0,0,1,66.017136
-1367,-542,3,0,0,0,756.522766
1318,-1500,4,0,0,15,70.798386
1432,478,1,0,0,0,768.148010
-151,971,2,0,0,0,891.633179
-1114,-856,3,0,0,0,769.630554
391,-342,4,0,0,0,1075.353638
188,1240,1,0,0,0,821.430359
-1819,1922,2,0,0,1,66.017136
-1278,-1525,3,0,0,0,669.910767
1040,-1570,4,1,0,15,70.798386
887,443,1,0,0,0,889.065613
-1044,970,2,0,0,0,784.710999
-1462,-1234,3,0,0,0,681.124023
1691,-1301,4,0,0,15,70.798386
1317,1696,1,0,0,10,63.614803
-153,1136,2,0,0,0,847.310791
-747,-986,3,0,0,0,806.194458
1486,-425,4,1,0,15,70.798386
1148,1590,1,0,0,10,63.614803
-690,956,2,0,0,0,839.208191
-1814,-173,3,1,0,8,152.136566
541,-906,4,0,0,0,871.122681
34,146,1,0,0,0,1433.870239
-1581,659,2,0,0,0,731.917603
-1259,-744,3,1,0,8,152.136566
1602,-108,4,0,0,0,750.458069
310,1099,1,0,0,0,848.410400
-1719,1727,2,0,0,1,66.017136
-1213,-1324,3,0,0,0,699.262695
1135,-1359,4,1,0,15,70.798386
471,1368,1,0,0,0,780.362122
-214,301,2,0,0,0,1173.744263
-1214,-1185,3,0,0,0,715.533875
1351,-777,4,1,0,15,70.798386
1639,1520,1,1,0,10,63.614803
-1205,515,2,0,0,0,808.811646
-657,-1267,3,0,0,0,765.105286
908,-289,4,0,0,0,900.497559
9,896,1,0,0,0,918.210388
-1450,1380,2,0,0,1,66.017136
-380,-1151,3,0,0,0,812.042175
18,-1659,4,0,0,0,741.060974
727,1646,1,0,0,10,63.614803
-1218,1191,2,0,0,0,733.481934
-243,-77,3,0,0,0,1261.439331
808,-1717,4,1,0,15,70.798386
1333,1832,1,1,0,10,63.614803
-804,939,2,0,0,0,825.585693
-678,-1779,3,0,0,0,682.524658
388,-146,4,0,0,0,1140.413086
1638,1269,1,0,0,10,63.614803
-1520,16,2,0,0,0,766.174316
-1667,-1653,3,0,0,0,622.725586
107,-117,4,0,0,0,1417.696777
1602,1724,1,1,0,10,63.614803
-663,1030,2,0,0,0,828.213196
-1221,-1662,3,0,0,0,659.673462
1487,-697,4,0,0,0,743.989380
1677,997,1,0,0,10,63.614803
-84,958,2,0,0,0,897.852234
-382,-1476,3,0,0,0,746.154724
449,-1537,4,1,0,15,70.798386
944,1340,1,0,0,0,744.535156
-542,1002,2,1,0,1,66.017136
-1683,-536,3,0,0,0,703.981812
1223,-974,4,1,0,15,70.798386
1675,1528,1,0,0,10,63.614803
-503,1230,2,0,0,0,804.795410
-539,-799,3,0,0,0,877.991699
1688,-1091,4,0,0,15,70.798386
190,1931,1,1,0,1,66.017136
-601,1487,2,0,0,0,750.775452
-1390,-527,3,0,0,0,753.413025
1632,-1983,4,0,0,15,70.798386
238,586,1,0,0,0,1018.592529
-64,1324,2,0,0,0,805.516541
-750,-610,3,0,0,0,877.114502
98,-107,4,0,0,0,1443.279907
46,228,1,0,0,0,1307.129883
-1583,1678,2,0,0,1,66.017136
-687,-1936,3,0,0,0,660.786133
1025,-1972,4,1,0,15,70.798386
1861,218,1,0,0,10,63.614803
-638,593,2,0,0,0,926.366394
-1571,-385,3,0,0,0,729.198730
1166,-1140,4,0,0,0,746.015137
912,770,1,0,0,0,835.671143
-576,1364,2,0,0,0,773.725342
-380,-999,3,0,0,0,848.222900
90,-627,4,0,0,0,1018.164856
402,958,1,1,0,10,63.614803
-751,315,2,0,0,0,945.738464
-1340,-1575,3,0,0,0,658.898682
1618,-377,4,0,0,0,740.673462
1104,612,1,0,0,0,819.576172
-1976,1840,2,1,0,1,66.017136
-767,-28,3,0,0,0,943.582458
132,-119,4,0,0,0,1384.761841
367,1389,1,0,0,0,782.383484
-837,1489,2,0,0,0,732.708923
-362,-1140,3,1,0,8,152.136566
1416,-59,4,0,0,0,786.296997
1171,518,1,0,0,0,815.466187
-552,238,2,0,0,0,1033.256226
-1205,-1172,3,0,0,0,718.166992
889,-1737,4,0,0,15,70.798386
743,1769,1,0,0,10,63.614803
-1473,745,2,0,0,0,742.519592
-1291,-36,3,0,0,0,793.805603
1290,-806,4,0,0,0,765.983154
1846,611,1,0,0,10,63.614803
-1413,1680,2,0,0,1,66.017136
-133,-364,3,0,0,0,1140.598022
1290,-89,4,0,0,0,812.648254
1629,1210,1,0,0,10,63.614803
-674,59,2,0,0,0,999.166809
-970,-1826,3,1,0,8,152.136566
1434,-1983,4,0,0,15,70.798386
1274,1228,1,0,0,10,63.614803
-1173,1532,2,0,0,1,66.017136
-287,-812,3,0,0,0,910.395142
1852,-1708,4,0,0,15,70.798386
1688,128,1,0,0,0,735.285645
-1984,1485,2,0,0,1,66.017136
-711,-1375,3,0,0,0,741.800476
833,-1535,4,0,0,0,726.346191
1605,583,1,0,0,0,732.796326
-217,688,2,0,0,0,980.673218
-1390,-118,3,0,0,0,771.660461
1320,-1193,4,1,0,15,70.798386
357,175,1,1,0,10,63.614803
-1065,930,2,0,0,0,786.971802
-887,-1574,3,0,0,0,697.502319
1328,-713,4,1,0,15,70.798386
199,551,1,0,0,0,1040.683838
-1389,1270,2,1,0,1,66.017136
-272,-96,3,0,0,0,1225.782837
880,-1364,4,0,0,0,747.329895
1403,1947,1,1,0,10,63.614803
-1438,1536,2,1,0,1,66.017136
-753,-883,3,0,0,0,824.559326
459,-1630,4,0,0,0,735.192932
232,576,1,1,0,10,63.614803
-568,1693,2,1,0,1,66.017136
-928,-916,3,0,0,0,791.052917
15,-450,4,0,0,0,1116.593628
1898,567,1,0,0,10,63.614803
-853,1771,2,0,0,1,66.017136
-1495,-59,3,0,0,0,751.562866
1634,-1006,4,0,0,15,70.798386
833,1934,1,0,0,10,63.614803
-715,1210,2,0,0,0,788.692139
-911,-1198,3,1,0,8,152.136566
820,-1437,4,0,0,0,741.857178
1673,378,1,0,0,0,731.528442
-199,563,2,1,0,1,66.017136
-214,-442,3,1,0,8,152.136566
324,-1134,4,1,0,15,70.798386
1795,1123,1,0,0,10,63.614803
-1780,50,2,1,0,8,152.136566
-980,-168,3,1,0,8,152.136566
1169,-871,4,0,0,0,778.187561
1127,203,1,0,0,0,847.592346
-1171,1929,2,0,0,1,66.017136
-876,-670,3,0,0,0,839.208923
286,-1638,4,0,0,0,740.425049
864,1621,1,0,0,10,63.614803
-736,404,2,0,0,0,936.957153
-1935,-1430,3,0,0,0,615.727234
1197,-1763,4,1,0,15,70.798386
1596,1317,1,0,0,10,63.614803
-173,1288,2,1,0,1,66.017136
-154,-363,3,0,0,0,1135.596436
1854,-1255,4,0,0,15,70.798386
1591,252,1,0,0,0,749.530823
-1671,1611,2,0,0,1,66.017136
-609,-739,3,0,0,0,879.850769
1034,-1578,4,1,0,15,70.798386
1723,894,1,0,0,10,63.614803
-1020,306,2,0,0,0,868.494751
-187,-1731,3,0,0,0,708.100342
239,-934,4,1,0,8,152.136566
649,1798,1,0,0,10,63.614803
-1943,1495,2,0,0,1,66.017136
-1846,-402,3,1,0,8,152.136566
840,-644,4,0,0,0,870.244080
1597,57,1,0,0,0,751.822937
-308,516,2,0,0,0,1033.347168
-1019,-1517,3,1,0,8,152.136566
1623,-1507,4,0,0,15,70.798386
1304,1653,1,0,0,10,63.614803
-1819,1101,2,0,0,1,66.017136
-1313,-1308,3,1,0,8,152.136566
593,-655,4,0,0,0,922.252991
872,510,1,0,0,0,883.680908
-907,699,2,0,0,0,847.601929
-1331,-1394,3,0,0,0,679.007141
1306,-1736,4,0,0,15,70.798386
576,1203,1,0,0,0,803.735229
-1894,216,2,0,0,8,152.136566
-886,-317,3,0,0,0,884.885193
350,-906,4,1,0,15,70.798386
931,1113,1,0,0,0,779.522949
-456,1257,2,0,0,0,803.009888
-810,-617,3,0,0,0,862.180481
1878,-1168,4,0,0,15,70.798386
526,1234,1,0,0,0,802.092651
-1944,879,2,0,0,1,66.017136
-753,-75,3,0,0,0,947.660156
582,-1107,4,0,0,0,822.234375
1985,1810,1,0,0,10,63.614803
-97,1715,2,0,0,0,731.099304
-156,-460,3,0,0,0,1075.462769
1895,-1945,4,0,0,15,70.798386
150,1489,1,1,0,10,63.614803
-1289,402,2,0,0,0,800.212830
-1577,-628,3,1,0,8,152.136566
1503,-583,4,0,0,0,749.303467
1652,1179,1,0,0,10,63.614803
-1720,1239,2,1,0,1,66.017136
-208,-61,3,0,0,0,1308.208130
1971,-830,4,0,0,15,70.798386
921,1611,1,0,0,10,63.614803
-927,442,2,0,0,0,878.934631
-885,-61,3,0,0,0,901.870850
1015,-1061,4,0,0,0,776.124878
201,875,1,0,0,0,917.650208
-214,1345,2,0,0,0,797.736084
-1966,-1384,3,0,0,0,615.936646
1135,-42,4,0,0,0,849.953674
949,90,1,0,0,0,900.383972
-295,1030,2,0,0,0,866.742920
-784,-128,3,0,0,0,933.668945
1194,-443,4,1,0,15,70.798386
431,1531,1,0,0,0,753.174316
-1647,1927,2,0,0,1,66.017136
-211,-407,3,0,0,0,1092.137573
725,-1180,4,1,0,15,70.798386
607,1095,1,0,0,0,821.931274
-1498,390,2,0,0,0,760.961975
-1456,-332,3,0,0,0,752.098755
312,-1088,4,0,0,0,850.949951
960,946,1,1,0,10,63.614803
-568,1349,2,1,0,1,66.017136
-1797,-1171,3,0,0,0,648.468506
1658,-546,4,0,0,0,726.488708
1511,1672,1,0,0,10,63.614803
-311,618,2,1,0,1,66.017136
-11,-1748,3,0,0,0,706.957214
757,-508,4,0,0,0,913.236145
1956,697,1,0,0,10,63.614803
-673,979,2,0,0,0,837.017395
-888,-1254,3,0,0,0,743.916260
894,-428,4,0,0,0,889.153381
542,1555,1,0,0,0,743.203674
-1101,1157,2,0,0,0,751.980774
-1247,-785,3,0,0,0,755.941223
450,-1369,4,1,0,15,70.798386
1679,1431,1,0,0,10,63.614803
-1320,1714,2,0,0,1,66.017136
-1496,-314,3,1,0,8,152.136566
866,-177,4,0,0,0,922.140137
1123,521,1,1,0,10,63.614803
-1189,1772,2,0,0,1,66.017136
-1127,-335,3,0,0,0,820.801941
1945,-263,4,0,0,10,63.614803
1923,1669,1,0,0,10,63.614803
-93,1712,2,0,0,0,731.636780
-1232,-1952,3,0,0,0,627.537842
1938,-1872,4,0,0,15,70.798386
223,52,1,1,0,10,63.614803
-579,905,2,0,0,0,865.950073
-1376,-455,3,0,0,0,760.701538
1544,-1464,4,0,0,15,70.798386
1823,1542,1,0,0,10,63.614803
-1861,1605,2,0,0,1,66.017136
-596,-700,3,0,0,0,891.585693
1660,-1732,4,0,0,15,70.798386
492,1168,1,1,0,10,63.614803
-129,1984,2,0,0,1,66.017136
-1994,-514,3,0,0,0,660.105408
799,-1795,4,0,0,15,70.798386
39,824,1,0,0,0,942.035156
-483,798,2,0,0,0,906.635620
-1578,-709,3,0,0,0,709.934143
1437,-1477,4,1,0,15,70.798386
1486,815,1,0,0,0,734.951111
-433,1690,2,0,0,0,726.653137
-1178,-1524,3,0,0,0,679.181946
417,-815,4,0,0,0,912.028137
1078,1901,1,0,0,10,63.614803
-1969,1991,2,0,0,1,66.017136
-1389,-324,3,0,0,0,765.291626
284,-1142,4,0,0,0,839.749207
641,824,1,0,0,0,874.213928
-1149,228,2,0,0,0,841.067505
-98,-957,3,1,0,8,152.136566
1478,-1566,4,1,0,15,70.798386
380,998,1,0,0,0,867.688965
-61,225,2,0,0,0,1306.475586
-415,-475,3,0,0,0,1000.137024
623,-402,4,0,0,0,972.780396
198,430,1,0,0,0,1102.135742
-1591,1224,2,0,0,1,66.017136
-199,-1059,3,0,0,0,845.889465
1769,-1866,4,0,0,15,70.798386
978,1093,1,0,0,0,776.445801
-1170,233,2,0,0,0,835.817993
-818,-1588,3,0,0,0,700.756653
1964,-1552,4,0,0,15,70.798386
579,1745,1,0,0,10,63.614803
-837,907,2,0,0,0,826.049500
-46,-1081,3,0,0,0,844.705688
1024,-1062,4,0,0,0,774.767456
632,1535,1,0,0,0,740.902527
-502,94,2,0,0,0,1080.247681
-1379,-593,3,0,0,0,750.618408
146,-1720,4,0,0,0,729.693298
159,1098,1,1,0,10,63.614803
-549,1473,2,1,0,1,66.017136
-1144,-988,3,0,0,0,748.620972
452,-1476,4,0,0,0,761.756226
1149,1499,1,1,0,10,63.614803
-1086,1327,2,0,0,0,731.601013
-751,-275,3,0,0,0,931.722229
1686,-1535,4,0,0,15,70.798386
1732,1839,1,0,0,10,63.614803
-879,96,2,0,0,0,922.034912
-1396,-146,3,0,0,0,769.892822
1715,-99,4,0,0,0,731.080139
221,43,1,0,0,0,1316.521729
-1067,1463,2,0,0,1,66.017136
-1603,-351,3,1,0,8,152.136566
1163,-1943,4,0,0,15,70.798386
1916,1199,1,1,0,10,63.614803
-617,16,2,1,0,8,152.136566
-467,-1292,3,0,0,0,776.056274
945,-1767,4,0,0,15,70.798386
1678,262,1,0,0,0,734.357910
-773,1887,2,0,0,1,66.017136
-286,-1150,3,1,0,8,152.136566
1723,-110,4,1,0,10,63.614803
1459,264,1,0,0,0,773.326050
-345,977,2,0,0,0,876.383240
-931,-589,3,0,0,0,839.516174
1562,-617,4,0,0,0,737.564880
1968,1667,1,0,0,10,63.614803
-307,1642,2,0,0,0,739.104675
-776,-1054,3,0,0,0,789.970947
1170,-687,4,1,0,15,70.798386
1316,341,1,0,0,0,798.254883
-175,622,2,0,0,0,1012.431702
-1659,-41,3,0,0,0,721.847107
1156,-1004,4,0,0,0,764.096069
1871,1140,1,1,0,10,63.614803
-744,241,2,0,0,0,957.409729
-1667,-1269,3,0,0,0,655.174683
921,-1121,4,0,0,0,779.567139
1588,1197,1,0,0,10,63.614803
-1310,1099,2,0,0,0,732.404175
-1537,-935,3,0,0,0,698.720032
937,-203,4,0,0,0,898.733276
1934,800,1,1,0,10,63.614803
-658,597,2,0,0,0,920.656982
-702,-890,3,0,0,0,831.314331
1348,-853,4,0,0,0,752.326599
1677,1528,1,0,0,10,63.614803
-1267,1601,2,1,0,1,66.017136
-699,-492,3,0,0,0,912.556396
505,-1193,4,0,0,0,812.111633
701,1413,1,0,0,0,755.562317
-1094,148,2,1,0,1,66.017136
-1420,-793,3,0,0,0,727.619324
1241,-835,4,0,0,0,770.805664
1880,1714,1,0,0,10,63.614803
-603,125,2,0,0,0,1026.291748
-582,-850,3,0,0,0,858.828430
99,-1249,4,0,0,0,821.717834
1446,1187,1,0,0,10,63.614803
-45,1311,2,0,0,0,808.519226
-132,-997,3,1,0,8,152.136566
1436,-1947,4,0,0,15,70.798386
1812,906,1,1,0,10,63.614803
-669,357,2,0,0,0,966.302612
-1184,-108,3,0,0,0,817.596497
1986,-971,4,0,0,15,70.798386
340,11,1,0,0,0,1197.453979
-663,119,2,1,0,8,152.136566
-18,-1613,3,0,0,0,729.977356
450,-1365,4,0,0,0,782.264343
260,1930,1,0,0,10,63.614803
-1541,1187,2,0,0,1,66.017136
-1067,-371,3,0,0,0,832.299683
1732,-1613,4,0,0,15,70.798386
1777,1794,1,0,0,10,63.614803
-1938,1411,2,1,0,1,66.017136
-771,-1290,3,0,0,0,750.284424
1873,-1324,4,1,0,15,70.798386
1238,1001,1,0,0,0,752.895264
-1337,91,2,0,0,0,802.379211
-638,-259,3,0,0,0,974.859802
1995,-1909,4,0,0,15,70.798386
1031,713,1,0,0,0,821.577881
-178,807,2,0,0,0,941.520142
-575,-258,3,0,0,0,1000.376831
924,-129,4,0,0,0,906.581970
1205,1742,1,0,0,10,63.614803
-662,1476,2,0,0,0,748.317566
-1325,-1886,3,0,0,0,627.952637
1087,-553,4,0,0,0,829.473328
1614,1405,1,0,0,10,63.614803
-165,1331,2,0,0,0,802.144409
-1469,-1199,3,0,0,0,683.671997
1797,-1247,4,0,0,15,70.798386
851,1057,1,0,0,0,798.775635
-1835,1760,2,0,0,1,66.017136
-1306,-646,3,1,0,8,152.136566
1357,-754,4,0,0,0,760.133911
625,1299,1,1,0,10,63.614803
-223,1016,2,0,0,0,875.257202
-1156,-1114,3,0,0,0,731.347900
633,-1265,4,1,0,15,70.798386
1110,940,1,0,0,0,778.830933
-4,1904,2,0,0,1,66.017136
-1688,-397,3,0,0,0,709.256592
757,-1099,4,0,0,0,803.584534
886,893,1,1,0,10,63.614803
-1351,32,2,0,0,0,799.968750
-1325,-1967,3,0,0,0,619.826294
1739,-1593,4,0,0,15,70.798386
1396,1851,1,0,0,10,63.614803
-1138,1833,2,0,0,1,66.017136
-1929,-1809,3,0,0,0,588.879761
1680,-253,4,0,0,0,734.254395
1864,458,1,0,0,10,63.614803
-674,1170,2,0,0,0,800.208801
-1294,-74,3,0,0,0,792.781067
1095,-592,4,0,0,0,823.590576
291,1906,1,1,0,10,63.614803
-1246,1762,2,0,0,1,66.017136
-134,-1725,3,0,0,0,709.894836
1977,-1119,4,0,0,15,70.798386
732,637,1,0,0,0,895.264221
-1164,1828,2,0,0,1,66.017136
-1036,-1592,3,1,0,8,152.136566
172,-1552,4,0,0,0,758.457031
170,1262,1,1,0,10,63.614803
-629,1398,2,0,0,0,763.748047
-360,-1643,3,0,0,0,717.992554
1390,-1665,4,0,0,15,70.798386
1731,438,1,1,0,10,63.614803
-910,994,2,0,0,0,800.764954
-1600,-1562,3,0,0,0,636.597656
566,-1837,4,0,0,15,70.798386
1856,1612,1,1,0,10,63.614803
-922,593,2,0,0,0,860.150757
-1186,-1630,3,0,0,0,666.185608
48,-1981,4,0,0,8,152.136566
1579,704,1,0,0,0,729.254089
-1518,1919,2,0,0,1,66.017136
-966,-1293,3,0,0,0,729.816956
1578,-1123,4,0,0,15,70.798386
235,1608,1,0,0,0,747.004028
-1944,11,2,0,0,8,152.136566
-409,-1508,3,0,0,0,739.120239
1659,-1625,4,0,0,15,70.798386
1997,293,1,0,0,10,63.614803
-849,760,2,0,0,0,849.018494
-133,-828,3,0,0,0,918.059082
901,-85,4,1,0,10,63.614803
333,420,1,0,0,0,1066.322021
-940,619,2,0,0,0,852.568054
-1918,-1184,3,0,0,0,634.314514
1380,-104,4,0,0,0,793.131958
624,1692,1,0,0,10,63.614803
-1474,631,2,0,0,0,750.861145
-1211,-1839,3,0,0,0,640.980957
1979,-1247,4,0,0,15,70.798386
1041,1788,1,0,0,10,63.614803
-1595,107,2,0,0,0,751.721130
-9,-1265,3,0,0,0,799.756897
416,-1437,4,0,0,0,770.759766
1355,785,1,0,0,0,757.637634
-1435,268,2,0,0,0,777.793030
-618,-1148,3,0,0,0,791.087769
754,-9,4,0,0,0,967.918640
1181,1318,1,0,0,10,63.614803
-397,1682,2,0,0,0,729.356079
-511,-961,3,0,0,0,842.999634
655,-1632,4,0,0,0,724.370483
172,358,1,0,0,0,1152.769775
-1261,451,2,0,0,0,802.565552
-1539,-621,3,0,0,0,721.836792
878,-1963,4,0,0,15,70.798386
894,650,1,0,0,0,857.775330
-1084,1431,2,0,0,1,66.017136
-304,-108,3,0,0,0,1193.486328
1361,-1427,4,0,0,15,70.798386
1404,1135,1,0,0,10,63.614803
-1362,1504,2,0,0,1,66.017136
-245,-1049,3,0,0,0,845.970825
209,-1624,4,0,0,0,744.838562
1094,394,1,0,0,0,843.191467
-719,713,2,0,0,0,882.998901
-439,-668,3,0,0,0,931.875549
1252,-1927,4,0,0,15,70.798386
1612,376,1,0,0,0,741.723633
-1454,530,2,1,0,1,66.017136
-656,-514,3,0,0,0,919.860474
1628,-1386,4,0,0,15,70.798386
457,481,1,1,0,10,63.614803
-760,1761,2,0,0,1,66.017136
-1994,-210,3,0,0,0,667.718201
155,-1354,4,1,0,8,152.136566
943,992,1,0,0,0,796.310608
-216,1940,2,0,0,1,66.017136
-300,-1145,3,1,0,8,152.136566
739,-820,4,1,0,15,70.798386
852,796,1,0,0,0,842.401245
-869,1551,2,0,0,1,66.017136
-1134,-135,3,0,0,0,829.172729
728,-34,4,0,0,0,977.738586
1059,636,1,1,0,10,63.614803
-305,20,2,1,0,8,152.136566
-335,-1566,3,0,0,0,732.059143
636,-1013,4,0,0,0,835.064514
1639,611,1,0,0,0,725.899048
-1452,349,2,0,0,0,771.268738
-1433,-182,3,0,0,0,761.646790
1471,-1342,4,1,0,15,70.798386
829,1473,1,0,0,0,735.724426
-1391,1387,2,0,0,1,66.017136
-1625,-1783,3,0,0,0,614.977600
1219,-775,4,1,0,15,70.798386
304,1139,1,0,0,0,839.239258
-1360,1594,2,0,0,1,66.017136
-1285,-1212,3,0,0,0,703.964172
152,-1660,4,0,0,0,739.707764
33,1615,1,0,0,0,748.729614
-1520,1461,2,0,0,1,66.017136
-588,-1404,3,0,0,0,746.620728
1009,-777,4,0,0,0,817.031494
1331,1455,1,0,0,10,63.614803
-410,560,2,0,0,0,991.819031
-284,-358,3,0,0,0,1093.066772
1050,-1225,4,0,0,0,749.070374
1795,376,1,0,0,10,63.614803
-1518,1833,2,0,0,1,66.017136
-1006,-1776,3,0,0,0,662.620239
678,-1206,4,0,0,0,793.214233
1249,554,1,0,0,0,796.802063
-1785,576,2,0,0,1,66.017136
-1211,-366,3,0,0,0,799.741516
1164,-352,4,0,0,0,830.305298
572,319,1,1,0,10,63.614803
-1786,1119,2,0,0,1,66.017136
-202,-1554,3,1,0,8,152.136566
1581,-490,4,0,0,0,741.737244
424,1528,1,0,0,0,754.036926
-380,1634,2,0,0,0,737.879272
-1695,-997,3,0,0,0,673.266113
1803,-498,4,0,0,15,70.798386
871,878,1,1,0,10,63.614803
-1177,1255,2,0,0,0,730.627869
-1480,-440,3,0,0,0,742.529419
1950,-1673,4,0,0,15,70.798386
358,313,1,0,0,0,1100.836182
-844,16,2,0,0,0,935.396301
-794,-1574,3,1,0,8,152.136566
706,-971,4,0,0,0,834.001526
1940,1230,1,0,0,10,63.614803
-539,1313,2,0,0,0,785.871765
-559,-884,3,0,0,0,854.459961
347,-1777,4,0,0,8,152.136566
1532,1381,1,0,0,10,63.614803
-591,1953,2,0,0,1,66.017136
-1755,-1823,3,0,0,0,601.393433
162,-1246,4,0,0,0,820.899719
506,1199,1,0,0,0,810.801758
-647,860,2,0,0,0,865.459351
-1639,-1868,3,0,0,0,606.535461
1724,-1923,4,0,0,15,70.798386
533,1625,1,1,0,10,63.614803
-877,703,2,0,0,0,852.957336
-1113,-899,3,0,0,0,764.399902
205,-1613,4,0,0,0,746.846252
1995,895,1,0,0,10,63.614803
-1624,828,2,0,0,1,66.017136
-955,-1415,3,0,0,0,713.741882
273,-1894,4,0,0,8,152.136566
849,1283,1,0,0,0,762.722778
-54,930,2,1,0,1,66.017136
-607,-662,3,0,0,0,898.302246
437,-1886,4,1,0,15,70.798386
1088,304,1,0,0,0,851.504517
-1802,1915,2,0,0,1,66.017136
-1875,-1197,3,0,0,0,638.070435
307,-1034,4,0,0,0,864.815186
2,1059,1,0,0,0,870.096436
-1379,1258,2,1,0,1,66.017136
-1440,-196,3,0,0,0,759.909790
1959,-817,4,0,0,15,70.798386
191,46,1,0,0,0,1355.839111
-689,194,2,0,0,0,982.926880
-1633,-663,3,0,0,0,704.604065
1124,-1887,4,0,0,15,70.798386
1807,730,1,0,0,10,63.614803
-1008,424,2,0,0,0,860.858093
-229,-259,3,0,0,0,1173.533447
1897,-978,4,1,0,15,70.798386
1694,554,1,0,0,10,63.614803
-582,1312,2,0,0,0,782.658203
-153,-975,3,0,0,0,871.166138
90,-245,4,0,0,0,1273.878662
945,349,1,0,0,0,884.481323
-1118,1149,2,0,0,0,750.900696
-638,-1226,3,0,0,0,774.334534
1651,-849,4,0,0,15,70.798386
1939,1306,1,0,0,10,63.614803
-1502,20,2,0,0,0,769.585388
-502,-793,3,0,0,0,885.640320
1560,-1693,4,0,0,15,70.798386
460,1349,1,0,0,0,784.671082
-1650,919,2,1,0,1,66.017136
-1656,-1108,3,1,0,8,152.136566
1686,-1790,4,0,0,15,70.798386
601,926,1,1,0,10,63.614803
-1859,1304,2,1,0,1,66.017136
-1542,-1960,3,0,0,0,605.534912
1112,-165,4,0,0,0,852.908264
1411,752,1,0,0,0,751.667725
-1272,367,2,0,0,0,805.876831
-825,-257,3,0,0,0,909.435059
1567,-797,4,1,0,15,70.798386
1401,1462,1,0,0,10,63.614803
-1446,1737,2,1,0,1,66.017136
-704,-423,3,1,0,8,152.136566
492,-1847,4,0,0,15,70.798386
117,905,1,0,0,0,912.958862
-1694,310,2,0,0,0,730.367432
-402,-1585,3,0,0,0,726.079041
1305,-1941,4,1,0,15,70.798386
913,1259,1,0,0,0,759.617798
-261,147,2,0,0,0,1234.144775
-1364,-684,3,0,0,0,745.917358
820,-806,4,0,0,0,846.423462
456,1095,1,0,0,0,837.467407
-1252,874,2,0,0,0,764.892700
-1377,-1318,3,0,0,0,682.180786
54,-1377,4,0,0,0,794.350281
674,568,1,0,0,0,922.950806
-1631,397,2,1,0,1,66.017136
-1403,-179,3,0,0,0,767.700073
1130,-80,4,0,0,0,850.701782
13,1470,1,0,0,0,775.784058
-1857,1210,2,1,0,1,66.017136
-468,-418,3,0,0,0,1001.630920
567,-1014,4,0,0,0,843.445679
1055,1898,1,0,0,10,63.614803
-1244,1873,2,0,0,1,66.017136
-586,-559,3,0,0,0,928.108276
425,-652,4,0,0,0,958.803650
1302,314,1,0,0,0,802.543335
-378,1827,2,0,0,1,66.017136
-1580,-553,3,0,0,0,719.358582
1753,-918,4,0,0,15,70.798386
862,754,1,1,0,10,63.614803
-521,1267,2,1,0,1,66.017136
-1020,-926,3,0,0,0,775.257874
1941,-1176,4,0,0,15,70.798386
1615,1245,1,0,0,10,63.614803
-1384,554,2,1,0,1,66.017136
-467,-836,3,0,0,0,879.853333
358,-1901,4,0,0,8,152.136566
80,1789,1,1,0,1,66.017136
-247,1520,2,0,0,0,762.448914
-218,-852,3,0,0,0,904.365784
404,-1105,4,0,0,0,839.809326
1083,130,1,0,0,0,861.588135
-226,1895,2,0,0,1,66.017136
-109,-517,3,0,0,0,1051.203125
770,-863,4,0,0,0,844.732239
1121,1929,1,0,0,10,63.614803
-1317,655,2,0,0,0,775.621643
-1527,-636,3,0,0,0,722.773071
173,-1179,4,0,0,0,836.143677
568,572,1,0,0,0,948.683105
-1684,499,2,0,0,0,724.722717
-472,-1225,3,0,0,0,789.108582
787,-586,4,0,0,0,892.062927
1915,797,1,0,0,10,63.614803
-1690,426,2,0,0,0,726.936646
-1392,-1260,3,0,0,0,686.495972
1121,-1820,4,0,0,15,70.798386
1464,1408,1,0,0,10,63.614803
-1074,983,2,0,0,0,778.555420
-1912,-1998,3,0,0,0,576.205566
1744,-1581,4,0,0,15,70.798386
509,791,1,0,0,0,904.228149
-108,200,2,0,0,0,1313.776123
-484,-1217,3,0,0,0,789.782166
994,-1151,4,0,0,0,766.038879
1766,1711,1,0,0,10,63.614803
-823,1665,2,0,0,1,66.017136
-1306,-1880,3,0,0,0,629.912170
573,-630,4,0,0,0,932.864258
1307,992,1,0,0,0,744.237549
-429,325,2,0,0,0,1065.133911
-412,-773,3,0,0,0,905.516235
465,-414,4,1,0,15,70.798386
1685,1737,1,0,0,10,63.614803
-367,390,2,1,0,1,66.017136
-1486,-664,3,0,0,0,727.411316
1439,-337,4,0,0,0,774.249268
1835,452,1,0,0,10,63.614803
-1789,1944,2,0,0,1,66.017136
-331,-1374,3,0,0,0,767.916504
835,-1719,4,0,0,15,70.798386
927,177,1,0,0,0,903.271729
-1906,277,2,0,0,1,66.017136
-104,-106,3,1,0,0,572.411499
1583,-1926,4,0,0,15,70.798386
1837,1055,1,0,0,10,63.614803
-673,976,2,0,0,0,837.616516
635,-1781,4,0,0,15,70.798386
997,703,1,0,0,0,829.392273
-1816,402,2,0,0,1,66.017136
1045,-1860,4,0,0,15,70.798386
1911,147,1,1,0,10,63.614803
-1812,173,2,1,0,8,152.136566
1079,-80,4,0,0,0,863.922791
1543,443,1,0,0,0,750.512024
-125,522,2,0,0,0,1065.910889
748,1971,1,0,0,10,63.614803
-853,1136,2,0,0,0,785.614380
17,1274,1,1,0,1,66.017136
-1219,1800,2,1,0,1,66.017136
244,35,1,0,0,0,1290.380371
-280,421,2,1,0,1,66.017136
771,487,1,0,0,0,913.149902
-1432,1935,2,0,0,1,66.017136
814,703,1,0,0,0,865.633789
-1042,225,2,0,0,0,868.196411
1827,1194,1,0,0,10,63.614803
178,770,1,0,0,0,954.387146
1960,1290,1,0,0,10,63.614803
1026,1219,1,0,0,0,752.669373
1851,1863,1,1,0,10,63.614803
1589,1883,1,0,0,10,63.614803
1561,209,1,0,0,0,755.999695
974,1167,1,0,0,0,766.180115
791,1832,1,1,0,10,63.614803
1371,1550,1,1,0,10,63.614803
1891,563,1,1,0,10,63.614803
497,25,1,0,0,0,1087.738892
484,1699,1,0,0,10,63.614803
1508,41,1,0,0,0,768.359863
1901,1076,1,1,0,10,63.614803
