mbs coordinate
0,0

cbsd coordinate and channel
-970,900,2
740,900,1
980,-860,1
-750,-850,5
-750,1000,4
1050,600,2
760,-1135,3
-870,-1100,1
-1080,450,1
970,530,3
540,-1000,2
-1200,-300,3
-200,1170,7
820,1255,4
930,-1080,6
-1115,-505,2
-180,1230,3
500,1150,8
1200,-450,10
-500,-1100,7
-650,980,9
1180,450,9
700,-1160,7
-1050,-900,8
-1200,820,10
1200,1000,11
1340,-1120,12
-1440,-1280,10
-1160,1350,13
1420,960,14

building coordinate
-885,985
-1055,815
830,810
650,990
1060,-860
900,-860
-830,-770
-670,-930
-668,1070
-832,930
965,675
1135,525
832,-1059
688,-1211
-965,-1035
-775,-1165
-1135,365
-1025,535
907,591
1033,469
638,-906
442,-1094
-1275,-390
-1125,-210
-298,1123
-102,1217
910,1206
730,1304
1005,-1005
855,-1155
-1178,-407
-1052,-603
-120,1290
-240,1170
410,1240
590,1060
1275,-375
1125,-525
-577,-1023
-423,-1177
-600,1070
-710,890
1135,535
1225,365
743,-1077
657,-1243
-1138,-855
-962,-945
-1100,866
-1300,774
1100,1100
1300,900
1440,-1020
1240,-1220
-1540,-1180
-1340,-1380
-1060,1450
-1260,1250
1320,1060
1520,860

area numbers
314,291,291,304

x , y , block , block number
area 1
967,478,1,0
1929,475,1,0
1734,1307,0,0
978,539,1,0
1001,447,0,0
556,186,0,0
141,1803,1,0
78,1354,1,0
1199,684,1,0
1464,1903,0,0
782,998,0,0
849,632,0,0
279,1586,0,0
920,1273,0,0
412,106,1,0
334,1428,0,0
1348,311,0,0
647,667,0,0
116,862,0,0
555,1512,0,0
1218,1361,0,0
1980,1026,1,0
39,965,0,0
1694,714,0,0
1409,1955,0,0
765,1991,0,0
137,508,0,0
704,384,1,0
898,253,1,0
269,1968,0,0
812,1816,0,0
381,31,1,0
602,557,0,0
241,1990,0,0
227,1366,0,0
1634,1369,0,0
1406,175,1,0
1109,254,1,0
125,600,0,0
1759,149,0,0
1537,381,0,0
1244,1249,0,0
64,1429,0,0
833,1986,0,0
1090,648,1,0
936,1108,1,0
1675,622,0,0
95,1809,0,0
613,1526,0,0
1435,1018,1,0
546,635,0,0
997,1318,0,0
759,1302,0,0
400,1224,1,0
1599,794,0,0
543,1599,0,0
353,190,0,0
1319,16,0,0
87,1037,0,0
923,1194,0,0
92,801,0,0
1604,963,0,0
990,779,1,0
1051,607,0,0
676,1296,0,0
1868,866,0,0
1363,1683,1,0
1892,796,1,0
514,1977,1,0
125,1417,0,0
1307,1291,0,0
1861,1249,0,0
921,544,0,0
108,944,0,0
1073,627,0,0
1923,209,0,0
1613,1890,1,0
606,1302,1,0
1637,1,0,0
1321,1797,0,0
456,1114,0,0
948,86,0,0
1597,423,0,0
1450,188,1,0
874,1055,0,0
1818,142,0,0
1339,1083,1,0
370,1693,0,0
703,146,0,0
1145,1632,1,0
1814,228,1,0
1973,1432,1,0
1909,1318,1,0
1928,144,0,0
741,472,0,0
576,950,1,0
1800,712,0,0
1395,640,0,0
110,821,1,0
1347,1151,1,0
1139,1594,1,0
47,470,1,0
898,224,0,0
1070,1090,0,0
337,689,0,0
489,1095,0,0
1785,1228,0,0
1689,59,1,0
645,876,0,0
1536,1234,1,0
22,1069,0,0
1798,517,0,0
580,246,0,0
1718,542,1,0
1934,974,0,0
784,5,0,0
1663,726,0,0
1114,1669,0,0
979,206,0,0
868,719,0,0
584,196,0,0
110,1308,1,0
989,1041,0,0
1783,777,0,0
1784,1364,0,0
3,1774,0,0
1595,1593,0,0
1618,1940,1,0
1629,627,0,0
853,221,1,0
1524,1336,0,0
506,576,0,0
1330,265,0,0
1621,881,0,0
1361,1823,0,0
1136,12,0,0
91,1074,0,0
1217,1047,0,0
1759,559,1,0
1824,1177,0,0
133,324,1,0
229,1524,0,0
200,325,1,0
111,591,1,0
687,1801,1,0
831,1846,0,0
1575,1278,1,0
766,1511,1,0
170,1537,0,0
821,871,0,0
62,1802,1,0
993,1112,0,0
1560,646,0,0
887,804,0,0
1683,323,1,0
1293,1070,0,0
1033,1398,0,0
1792,1422,0,0
332,113,0,0
1219,1008,0,0
1974,498,0,0
355,1128,1,0
546,1192,0,0
427,506,0,0
1142,596,1,0
208,1798,0,0
1848,123,0,0
973,1939,0,0
1257,1330,0,0
1065,1985,0,0
209,1371,0,0
37,1819,0,0
349,1019,1,0
17,864,0,0
1445,934,0,0
48,575,0,0
490,1274,1,0
328,1574,0,0
1496,1667,0,0
723,1809,0,0
1212,1798,0,0
1329,1708,0,0
22,270,1,0
582,95,0,0
1647,1213,0,0
924,33,0,0
1214,776,0,0
1396,309,0,0
1696,1507,1,0
1548,1255,1,0
156,740,0,0
226,1865,1,0
673,1243,0,0
424,63,1,0
724,747,0,0
650,118,0,0
529,883,0,0
583,306,1,0
1753,840,0,0
475,1045,0,0
1248,567,0,0
89,558,1,0
1480,1873,0,0
1104,1221,0,0
1194,1180,0,0
682,985,0,0
473,1516,0,0
1579,959,0,0
344,1102,0,0
1249,564,1,0
968,681,0,0
102,224,0,0
1077,1596,0,0
1220,1971,0,0
727,475,0,0
1834,326,0,0
1188,1253,0,0
780,561,1,0
759,1593,0,0
539,301,0,0
459,1182,0,0
1053,308,0,0
765,521,0,0
1763,735,0,0
1764,387,0,0
578,1733,0,0
875,681,0,0
1569,1765,0,0
1036,437,0,0
1480,1561,0,0
1724,606,0,0
230,1551,0,0
818,1212,0,0
1162,1450,0,0
1981,705,0,0
1547,1083,0,0
1993,1349,0,0
1262,1498,0,0
1097,716,0,0
918,1741,0,0
639,981,0,0
311,39,0,0
917,1943,0,0
1518,646,0,0
1666,1012,0,0
1220,1230,0,0
101,731,0,0
1833,434,0,0
1204,782,0,0
190,1520,0,0
507,63,0,0
1919,997,1,0
209,695,1,0
372,1656,0,0
1544,1623,0,0
868,300,0,0
1693,1346,0,0
274,1089,1,0
1465,1637,0,0
569,314,0,0
1200,799,0,0
1270,1619,1,0
162,318,0,0
1890,32,0,0
494,1817,0,0
1931,674,0,0
1223,1220,0,0
325,1988,0,0
1838,701,1,0
1766,1802,0,0
1856,514,0,0
1705,642,0,0
1010,1836,0,0
843,1465,0,0
711,1208,0,0
1683,572,0,0
1558,656,1,0
1033,1804,0,0
1057,92,0,0
1668,730,0,0
862,715,1,0
1175,653,0,0
1496,796,0,0
1187,253,1,0
1036,1704,0,0
314,573,0,0
1719,389,0,0
1433,1189,0,0
1363,1601,1,0
475,1177,0,0
1984,1382,1,0
222,809,1,0
886,427,0,0
468,1162,0,0
318,1708,1,0
1948,1652,0,0
747,808,1,0
1597,670,0,0
304,586,0,0
1181,213,0,0
894,1530,0,0
1229,113,0,0
375,888,0,0
288,1448,0,0
987,276,0,0
1682,1171,0,0
831,193,0,0
233,1326,0,0
1909,1576,1,0
1785,405,0,0
1998,254,0,0
1891,1760,1,0
1333,225,1,0
1516,1255,0,0
area 2
-218,1657,0,0
-1686,1043,1,0
-1962,927,1,0
-329,435,0,0
-68,1011,1,0
-1200,1186,1,0
-330,483,0,0
-1536,1428,1,0
-455,1065,0,0
-1064,632,0,0
-368,1029,0,0
-1180,806,0,0
-295,1247,1,0
-1129,1617,1,0
-1117,940,1,0
-598,1861,0,0
-1297,431,0,0
-1967,418,1,0
-1637,1100,1,0
-895,600,0,0
-868,1486,0,0
-630,50,0,0
-549,1687,0,0
-1676,202,0,0
-1959,1431,0,0
-278,229,1,0
-1528,678,0,0
-39,415,1,0
-972,66,0,0
-219,1857,0,0
-1526,938,0,0
-224,998,0,0
-1291,715,1,0
-1682,1227,0,0
-213,227,1,0
-494,1123,0,0
-1563,1735,0,0
-693,1172,0,0
-843,1560,0,0
-1730,1437,0,0
-954,1225,0,0
-891,1592,0,0
-172,1926,0,0
-613,1392,0,0
-1211,1555,0,0
-1491,75,0,0
-694,747,0,0
-599,1411,0,0
-1708,190,0,0
-1505,595,0,0
-110,730,0,0
-990,1798,1,0
-1693,1152,0,0
-535,1656,0,0
-1904,1282,0,0
-1270,1685,0,0
-1265,1970,1,0
-130,1068,0,0
-221,1045,0,0
-1453,702,0,0
-74,1451,1,0
-917,1062,0,0
-283,1131,1,0
-1626,593,0,0
-725,1604,0,0
-1281,611,0,0
-51,1755,0,0
-193,1742,0,0
-1896,855,0,0
-1266,1696,0,0
-1199,476,0,0
-1667,1166,0,0
-1051,238,0,0
-1368,1467,0,0
-1102,1038,0,0
-1469,1079,0,0
-951,891,1,0
-1649,548,1,0
-1963,1438,0,0
-466,1037,0,0
-1622,1368,0,0
-1663,1363,0,0
-759,893,1,0
-1573,500,0,0
-952,219,0,0
-1693,1528,0,0
-125,1891,1,0
-1534,16,0,0
-77,567,0,0
-421,1113,0,0
-436,1127,0,0
-345,221,0,0
-1334,1495,0,0
-148,684,1,0
-291,1517,0,0
-1597,1987,0,0
-206,1246,1,0
-1048,514,0,0
-914,1337,0,0
-709,1373,0,0
-1395,1243,0,0
-1183,148,1,0
-778,51,1,0
-1369,1023,0,0
-201,1715,1,0
-657,1093,0,0
-1116,1994,0,0
-405,408,0,0
-1309,61,1,0
-254,1157,1,0
-1234,881,0,0
-1573,603,0,0
-992,337,0,0
-970,82,0,0
-1376,691,0,0
-346,1433,0,0
-351,1090,0,0
-224,552,1,0
-85,1767,0,0
-59,742,1,0
-1536,202,0,0
-541,1355,0,0
-1266,588,0,0
-1154,1587,0,0
-443,906,0,0
-22,560,1,0
-109,1834,0,0
-1377,588,0,0
-764,342,0,0
-1043,952,0,0
-529,1792,1,0
-1122,1944,1,0
-905,757,0,0
-1678,1646,0,0
-1051,1955,0,0
-531,985,0,0
-1267,1630,1,0
-1504,750,1,0
-1503,1609,0,0
-1499,1567,0,0
-167,1193,0,0
-694,1418,0,0
-1101,537,0,0
-1140,1972,1,0
-66,1794,0,0
-575,180,0,0
-517,889,1,0
-681,1682,0,0
-382,873,1,0
-894,89,0,0
-1191,610,0,0
-1261,395,0,0
-1852,1273,1,0
-603,1691,0,0
-746,840,0,0
-1693,1633,0,0
-689,58,0,0
-1199,187,0,0
-998,1503,0,0
-1181,1657,1,0
-1603,1245,0,0
-308,1521,0,0
-1452,816,0,0
-1288,1701,0,0
-257,1820,0,0
-1268,1802,0,0
-557,1560,0,0
-1630,1113,1,0
-291,1757,1,0
-1256,352,0,0
-417,728,0,0
-967,1168,1,0
-1710,926,0,0
-734,598,0,0
-778,133,0,0
-1623,1545,0,0
-1241,1610,1,0
-1021,596,0,0
-1034,480,0,0
-1248,1042,0,0
-1502,403,0,0
-1702,1336,0,0
-171,1186,0,0
-287,691,1,0
-268,170,0,0
-880,24,0,0
-1581,1451,1,0
-1380,1269,1,0
-1030,491,0,0
-254,1185,0,0
-552,958,0,0
-1756,647,0,0
-1505,1591,1,0
-1928,1372,1,0
-112,1091,1,0
-1081,414,1,0
-832,601,0,0
-1229,236,1,0
-46,1035,0,0
-1671,225,1,0
-1584,462,0,0
-604,400,0,0
-1097,457,0,0
-857,134,1,0
-1556,33,0,0
-1608,1,0,0
-1665,1608,0,0
-1815,231,1,0
-907,945,0,0
-1159,376,0,0
-1755,1486,0,0
-1980,239,1,0
-1264,1330,1,0
-1044,1548,0,0
-1895,1289,0,0
-1631,1340,1,0
-1174,240,0,0
-393,933,0,0
-84,820,0,0
-363,1713,1,0
-39,533,0,0
-1822,110,0,0
-1593,41,0,0
-907,672,0,0
-1428,249,0,0
-1631,1541,1,0
-1090,1665,1,0
-1896,105,0,0
-1235,117,0,0
-1355,290,0,0
-160,702,0,0
-894,466,0,0
-479,591,0,0
-885,1508,0,0
-797,807,0,0
-48,534,0,0
-1301,884,0,0
-1402,1258,0,0
-1428,1112,0,0
-1867,536,0,0
-743,1698,0,0
-1675,1826,0,0
-556,485,1,0
-1685,1757,1,0
-81,775,1,0
-688,1063,0,0
-1557,1379,0,0
-1460,1476,0,0
-311,1468,0,0
-885,1952,0,0
-625,813,0,0
-187,1903,0,0
-935,1854,0,0
-1245,326,0,0
-1486,258,0,0
-1760,224,1,0
-446,512,0,0
-523,1708,0,0
-1633,1303,0,0
-1076,586,0,0
-945,336,0,0
-898,1585,0,0
-1879,812,0,0
-105,348,0,0
-325,1914,0,0
-894,1122,0,0
-985,786,0,0
-789,970,0,0
-104,930,0,0
-460,803,0,0
-1113,1847,0,0
-147,1437,0,0
-1118,1331,0,0
-793,746,0,0
-1246,1879,0,0
-201,881,1,0
-1366,1132,0,0
-1536,624,0,0
-1916,872,0,0
-248,1906,0,0
-890,622,0,0
-1528,1180,1,0
-249,701,1,0
-557,656,0,0
-61,1656,0,0
-630,299,0,0
-1722,719,0,0
-1988,454,1,0
-1840,1790,0,0
-516,1306,0,0
-1281,960,0,0
area 3
-483,-712,1,0
-823,-1080,1,0
-1523,-1531,0,0
-857,-1822,1,0
-290,-197,0,0
-678,-1319,0,0
-1044,-622,0,0
-1069,-748,0,0
-75,-1839,1,0
-608,-893,0,0
-1769,-1669,0,0
-260,-140,0,0
-853,-1602,0,0
-1393,-864,1,0
-1315,-938,0,0
-1092,-114,0,0
-780,-842,0,0
-618,-980,1,0
-604,-1508,0,0
-374,-100,0,0
-970,-1203,0,0
-1093,-739,0,0
-507,-1687,0,0
-1518,-251,1,0
-404,-358,0,0
-251,-1975,0,0
-1572,-178,0,0
-1769,-1903,0,0
-1791,-1962,0,0
-646,-1878,0,0
-708,-705,0,0
-168,-836,0,0
-1288,-523,0,0
-919,-914,0,0
-950,-1291,0,0
-836,-405,0,0
-868,-759,0,0
-135,-432,0,0
-1730,-872,0,0
-1521,-718,0,0
-1653,-1347,0,0
-1206,-402,1,0
-598,-1696,1,0
-143,-1424,1,0
-72,-236,0,0
-1415,-1275,0,0
-337,-911,0,0
-1242,-1722,0,0
-1855,-698,1,0
-1269,-1258,0,0
-522,-1730,0,0
-78,-818,1,0
-1067,-1610,0,0
-1410,-51,0,0
-291,-1538,0,0
-1621,-1024,0,0
-1747,-1425,0,0
-1006,-818,1,0
-1150,-939,0,0
-737,-447,0,0
-360,-1875,0,0
-516,-896,0,0
-742,-1903,0,0
-266,-1848,0,0
-1439,-1617,0,0
-1124,-1828,0,0
-915,-821,0,0
-364,-1128,0,0
-228,-147,0,0
-635,-612,0,0
-925,-1157,0,0
-476,-1517,0,0
-436,-440,1,0
-1030,-1461,0,0
-499,-53,0,0
-1595,-271,0,0
-693,-1622,0,0
-1192,-7,0,0
-530,-1360,0,0
-451,-1306,0,0
-1014,-289,0,0
-1228,-1258,0,0
-1229,-764,0,0
-432,-1303,0,0
-1070,-590,0,0
-1466,-1173,1,0
-1986,-247,0,0
-1993,-954,0,0
-1775,-579,0,0
-85,-419,0,0
-138,-1440,0,0
-257,-525,0,0
-1038,-1509,1,0
-336,-501,1,0
-219,-1511,1,0
-1935,-1651,0,0
-1930,-922,0,0
-599,-1853,0,0
-603,-481,1,0
-847,-408,0,0
-819,-1454,0,0
-833,-1817,0,0
-610,-1452,0,0
-1672,-739,0,0
-1319,-1198,1,0
-1469,-1466,1,0
-1444,-617,0,0
-1546,-1740,0,0
-1626,-1654,1,0
-1480,-1557,0,0
-1562,-481,0,0
-344,-1202,0,0
-590,-1162,0,0
-1139,-16,0,0
-1763,-1545,0,0
-1861,-50,0,0
-753,-1140,0,0
-633,-471,0,0
-439,-126,1,0
-51,-247,1,0
-1459,-1855,0,0
-903,-461,0,0
-1220,-652,1,0
-466,-1117,1,0
-141,-1430,1,0
-1801,-867,0,0
-431,-1392,0,0
-1760,-1003,0,0
-251,-180,1,0
-815,-740,0,0
-607,-1254,1,0
-1612,-603,0,0
-164,-264,0,0
-1855,-785,1,0
-770,-1849,0,0
-1312,-1058,0,0
-1290,-1785,0,0
-792,-529,0,0
-470,-1959,1,0
-1715,-127,0,0
-920,-1458,1,0
-855,-1647,0,0
-1433,-916,0,0
-1096,-1553,0,0
-486,-449,1,0
-454,-311,0,0
-1740,-113,0,0
-371,-1574,0,0
-1258,-960,0,0
-1467,-1314,0,0
-499,-1573,0,0
-529,-1141,0,0
-1334,-1262,0,0
-1358,-1426,0,0
-222,-1339,1,0
-190,-805,0,0
-748,-1809,0,0
-556,-509,0,0
-673,-1882,0,0
-985,-341,0,0
-564,-649,1,0
-247,-656,0,0
-369,-1053,0,0
-119,-1342,0,0
-633,-551,0,0
-319,-205,0,0
-341,-1934,0,0
-365,-933,1,0
-188,-200,0,0
-888,-475,0,0
-1569,-361,0,0
-1806,-373,0,0
-1270,-1074,0,0
-540,-480,0,0
-618,-715,1,0
-284,-696,1,0
-264,-889,0,0
-1389,-1293,1,0
-1423,-1134,0,0
-487,-1247,0,0
-130,-1392,0,0
-1563,-1263,0,0
-269,-184,0,0
-778,-555,1,0
-229,-838,0,0
-438,-707,0,0
-912,-1571,1,0
-1095,-426,1,0
-1916,-892,0,0
-1583,-757,1,0
-1981,-644,0,0
-31,-1319,0,0
-609,-57,0,0
-1041,-1198,0,0
-1759,-709,1,0
-886,-1175,1,0
-331,-385,0,0
-998,-1129,0,0
-1865,-1086,0,0
-942,-1022,0,0
-1453,-1336,1,0
-783,-118,1,0
-1264,-1187,1,0
-272,-276,1,0
-1529,-381,0,0
-1287,-1347,0,0
-750,-1578,0,0
-32,-1598,0,0
-32,-638,0,0
-924,-860,0,0
-1378,-1373,0,0
-905,-215,0,0
-462,-448,0,0
-818,-627,0,0
-734,-752,0,0
-898,-1201,0,0
-1228,-1898,0,0
-1913,-224,0,0
-127,-1743,1,0
-1675,-528,0,0
-1850,-1130,0,0
-1652,-849,0,0
-310,-620,0,0
-406,-1404,0,0
-1691,-875,0,0
-618,-1621,0,0
-1335,-405,1,0
-61,-1402,0,0
-952,-1218,0,0
-33,-1233,0,0
-1547,-1158,0,0
-1158,-1465,0,0
-995,-253,0,0
-1004,-322,0,0
-278,-153,0,0
-93,-1416,0,0
-312,-1550,0,0
-142,-1731,0,0
-1507,-1287,0,0
-543,-601,0,0
-853,-1024,1,0
-1174,-526,0,0
-445,-1960,0,0
-822,-224,0,0
-1668,-763,1,0
-54,-1460,0,0
-1958,-526,0,0
-624,-1068,1,0
-1484,-895,1,0
-1602,-419,0,0
-640,-1061,0,0
-15,-1311,0,0
-492,-471,1,0
-1556,-722,0,0
-1945,-1408,1,0
-14,-1835,1,0
-1250,-1601,0,0
-1161,-895,0,0
-1722,-1372,1,0
-1571,-1449,1,0
-962,-76,0,0
-1332,-1856,1,0
-323,-1418,1,0
-367,-1869,1,0
-383,-257,0,0
-151,-215,0,0
-433,-1206,1,0
-1605,-1346,0,0
-1567,-1903,0,0
-1114,-1646,0,0
-1008,-1349,0,0
-648,-1721,1,0
-1708,-795,0,0
-117,-1383,0,0
-349,-569,0,0
-295,-1023,1,0
-1953,-1651,0,0
-1511,-1289,1,0
-1784,-1424,0,0
-600,-543,0,0
-972,-1225,0,0
-1861,-128,0,0
-438,-680,1,0
-789,-1659,0,0
-1600,-1616,0,0
-1589,-1700,1,0
-743,-1507,0,0
-913,-1127,0,0
-721,-197,0,0
-236,-1614,0,0
-674,-136,1,0
area 4
1301,-1175,0,0
1056,-1640,0,0
817,-879,1,0
1102,-806,0,0
1057,-269,0,0
425,-468,0,0
223,-1789,0,0
1932,-1084,0,0
523,-1848,0,0
1732,-83,0,0
209,-441,0,0
1969,-499,0,0
1351,-943,0,0
967,-946,0,0
457,-258,0,0
1594,-800,0,0
1631,-745,0,0
1185,-589,0,0
744,-429,0,0
732,-1500,0,0
354,-566,0,0
700,-1485,0,0
1866,-583,1,0
1195,-1625,0,0
1024,-1705,0,0
73,-1303,1,0
1206,-1541,0,0
497,-461,0,0
1068,-1709,0,0
946,-651,1,0
609,-1875,0,0
1156,-1725,0,0
363,-1670,0,0
793,-28,0,0
1965,-1115,1,0
860,-1731,0,0
380,-1806,0,0
1415,-400,0,0
742,-1816,0,0
898,-1564,0,0
445,-1745,0,0
347,-1254,1,0
770,-1651,1,0
935,-1574,1,0
12,-833,0,0
1539,-1050,1,0
668,-1486,0,0
633,-1924,1,0
606,-1389,0,0
647,-71,1,0
1171,-730,0,0
588,-737,0,0
278,-1092,0,0
1671,-305,0,0
898,-812,0,0
594,-1089,0,0
1262,-650,0,0
1391,-1514,0,0
1410,-873,0,0
381,-1535,0,0
1436,-1749,0,0
1190,-455,0,0
1685,-747,0,0
1912,-179,0,0
1900,-766,0,0
1755,-958,0,0
260,-1655,0,0
1058,-1017,0,0
1400,-1931,1,0
649,-1857,0,0
1874,-347,0,0
1716,-422,0,0
619,-1001,1,0
1801,-1496,0,0
1524,-1284,0,0
1975,-1593,1,0
869,-1845,1,0
1616,-429,0,0
34,-337,0,0
1168,-216,0,0
362,-601,0,0
1540,-25,0,0
181,-1141,0,0
117,-944,0,0
1289,-437,1,0
1190,-1137,0,0
1347,-965,0,0
1128,-396,0,0
64,-551,0,0
1203,-619,0,0
1090,-54,0,0
1706,-1015,0,0
1034,-1291,0,0
1515,-567,0,0
1276,-1726,0,0
1221,-1614,1,0
34,-1558,0,0
1149,-333,0,0
1398,-678,0,0
903,-1766,0,0
1464,-554,0,0
1229,-453,0,0
1616,-1617,0,0
300,-26,0,0
180,-915,1,0
789,-897,0,0
980,-1474,1,0
1842,-1448,0,0
1980,-786,1,0
1576,-915,0,0
672,-932,0,0
1967,-83,1,0
143,-1217,0,0
340,-389,1,0
1372,-1460,0,0
997,-862,0,0
594,-1563,0,0
1351,-1066,0,0
9,-1049,0,0
1607,-1207,0,0
1382,-1155,0,0
66,-362,0,0
844,-1431,0,0
937,-782,1,0
1785,-1663,1,0
1244,-297,0,0
1563,-1858,0,0
1395,-1164,1,0
489,-1988,0,0
1342,-1458,1,0
1004,-811,0,0
715,-1038,0,0
667,-1869,0,0
182,-1570,0,0
984,-809,0,0
1435,-148,0,0
1779,-726,0,0
210,-1828,0,0
1251,-1164,0,0
1539,-232,0,0
1180,-243,0,0
1270,-979,0,0
658,-786,1,0
830,-652,0,0
21,-55,1,0
66,-1574,1,0
953,-1095,0,0
398,-1385,0,0
34,-744,0,0
931,-603,0,0
1231,-1572,0,0
1704,-969,1,0
1445,-711,1,0
1333,-1601,0,0
528,-563,1,0
126,-1058,0,0
1676,-1285,0,0
833,-846,0,0
1277,-1301,0,0
585,-1275,0,0
1197,-1277,0,0
257,-130,0,0
1370,-869,0,0
41,-1767,0,0
1262,-1739,0,0
1367,-227,0,0
312,-502,0,0
1046,-1779,1,0
1057,-1252,0,0
379,-582,0,0
1138,-1684,0,0
1616,-744,0,0
1387,-1729,0,0
506,-583,0,0
925,-1203,0,0
672,-1443,0,0
10,-1163,0,0
198,-761,0,0
1746,-531,0,0
1882,-429,0,0
890,-1262,1,0
1440,-377,0,0
905,-729,1,0
1492,-308,0,0
1589,-1031,0,0
1408,-1038,1,0
898,-1730,0,0
300,-606,1,0
71,-79,1,0
1667,-683,0,0
1099,-1797,0,0
689,-1509,1,0
449,-456,0,0
1545,-1139,0,0
990,-1783,0,0
1390,-675,0,0
338,-817,0,0
1059,-1158,0,0
1747,-895,0,0
573,-183,1,0
913,-797,1,0
518,-1879,0,0
346,-1593,1,0
202,-426,0,0
1306,-744,0,0
890,-374,0,0
1476,-1195,0,0
117,-1463,0,0
87,-564,0,0
1219,-1371,1,0
666,-132,1,0
1553,-1999,0,0
1785,-810,1,0
1619,-37,0,0
55,-1208,0,0
1251,-665,1,0
971,-1023,0,0
1372,-945,0,0
791,-445,0,0
1365,-575,0,0
137,-686,0,0
783,-709,0,0
197,-1359,1,0
630,-1127,0,0
1083,-1729,0,0
534,-196,0,0
641,-1171,0,0
1752,-36,1,0
198,-104,0,0
105,-316,1,0
812,-1150,1,0
432,-454,0,0
456,-1980,1,0
322,-752,0,0
1060,-1353,0,0
1207,-143,0,0
1493,-571,1,0
1371,-928,1,0
436,-101,0,0
410,-1703,0,0
1121,-950,0,0
935,-1718,1,0
890,-968,0,0
1597,-905,0,0
1069,-470,1,0
410,-948,0,0
1809,-881,0,0
272,-368,1,0
1596,-772,0,0
1030,-1680,0,0
1910,-48,0,0
1975,-634,1,0
1529,-571,0,0
1255,-949,0,0
1450,-1734,1,0
1102,-719,1,0
271,-1780,0,0
1213,-751,0,0
654,-297,0,0
683,-1140,0,0
63,-416,0,0
523,-927,0,0
971,-1549,1,0
1365,-471,0,0
402,-699,0,0
504,-615,1,0
1211,-847,0,0
77,-1296,0,0
441,-1321,0,0
39,-825,0,0
1959,-398,0,0
1012,-1359,0,0
1396,-1960,0,0
639,-1272,0,0
125,-315,0,0
134,-22,0,0
1215,-128,0,0
1841,-60,1,0
1374,-1956,0,0
1314,-903,0,0
404,-694,0,0
623,-395,0,0
63,-1200,0,0
378,-1986,1,0
1978,-116,0,0
134,-1726,0,0
126,-1413,0,0
1379,-1683,0,0
339,-1660,0,0
1741,-1338,1,0
640,-817,0,0
1819,-538,0,0
1603,-1414,0,0
268,-1867,0,0
1739,-1310,1,0
926,-1101,0,0
507,-750,0,0
908,-1408,0,0
954,-1100,0,0
116,-1233,0,0
1995,-286,0,0
917,-1653,0,0
551,-1503,0,0
524,-239,0,0

near cbsd peopel number
57
66
78
75
58
60
65
66
66
63
60
50
69
60
78
53
61
61
59
71
59
62
64
60
66
65
74
63
60
71
