mbs coordinate
0,0

cbsd coordinate and channel
-970,900,2
740,900,1
980,-860,1
-750,-850,5
-750,1000,4
1050,600,2
760,-1135,3
-870,-1100,1
-1080,450,1
970,530,3

building coordinate
-885,985
-1055,815
830,810
650,990
1060,-860
900,-860
-830,-770
-670,-930
-668,1070
-832,930
965,675
1135,525
832,-1059
688,-1211
-965,-1035
-775,-1165
-1135,365
-1025,535
907,591
1033,469

area numbers
61,73,129,105,132,

x , y , block , block number
area 1
24,1130,0,0
170,360,0,0
826,859,0,0
208,1235,0,0
446,577,0,0
706,1904,0,0
985,1346,1,0
4,1389,1,0
493,1919,0,0
1089,1685,0,0
427,1302,0,0
768,819,1,0
61,1770,1,0
93,1290,1,0
294,1916,1,0
293,868,0,0
682,1968,0,0
632,1914,0,0
980,1535,0,0
1645,1666,0,0
1283,1306,0,0
590,1468,1,0
1198,1745,0,0
450,1274,1,0
745,1837,1,0
1342,1368,0,0
540,1144,0,0
1081,1719,0,0
1066,1629,0,0
298,774,1,0
862,1768,0,0
45,886,0,0
625,1862,0,0
567,1019,0,0
10,63,1,0
344,510,1,0
432,1447,0,0
104,1149,0,0
1074,1309,1,0
102,254,1,0
1846,1870,0,0
967,1468,0,0
438,821,1,0
1604,1797,1,0
0,1987,0,0
674,998,0,0
870,1796,0,0
287,1222,0,0
316,1659,0,0
24,720,0,0
440,1820,0,0
81,462,1,0
1869,1879,0,0
1083,1832,0,0
651,916,0,0
356,939,0,0
390,681,1,0
96,1354,0,0
1629,1953,0,0
1166,1978,0,0
1399,1603,0,0
area 2
1394,524,0,0
1589,1139,0,0
1454,344,1,0
744,182,0,0
1907,96,0,0
1913,422,1,0
1587,347,0,0
1353,384,0,0
1693,1378,0,0
601,101,0,0
931,679,0,0
1665,104,0,0
1348,133,0,0
1719,1625,0,0
486,337,1,0
1051,286,0,0
1679,827,0,0
1097,214,0,0
1703,364,0,0
1214,835,1,0
1813,76,0,0
213,151,0,0
1521,161,1,0
1369,1230,0,0
1950,1886,0,0
436,369,1,0
1738,473,0,0
981,590,0,0
1474,647,1,0
1432,698,0,0
474,40,0,0
1981,638,1,0
1027,686,1,0
1869,380,0,0
1216,1100,0,0
503,142,0,0
819,135,1,0
1358,455,0,0
1019,690,0,0
556,498,1,0
1793,636,0,0
1489,1227,0,0
1931,1326,0,0
1910,26,0,0
1862,1280,0,0
1227,243,1,0
1618,532,1,0
396,382,1,0
1895,1609,0,0
1936,365,1,0
1353,577,0,0
1590,708,1,0
159,138,0,0
1739,1188,0,0
1944,1385,0,0
541,102,1,0
312,153,0,0
1164,661,0,0
1570,178,0,0
901,38,0,0
1833,566,0,0
1067,421,0,0
1651,1202,0,0
1299,586,0,0
1564,1199,0,0
1974,1514,1,0
1904,1629,0,0
1370,662,0,0
974,645,0,0
1046,274,0,0
1990,748,0,0
1778,740,1,0
1846,1676,0,0
area 3
-639,1858,0,0
-711,1002,1,0
-1621,874,0,0
-163,1741,0,0
-1651,122,0,0
-169,896,0,0
-1374,1320,1,0
-26,539,0,0
-1843,1071,0,0
-808,1261,1,0
-8,1796,0,0
-1349,1104,0,0
-1420,524,1,0
-904,685,0,0
-508,86,0,0
-1936,1690,0,0
-407,1874,0,0
-1649,1459,1,0
-1879,691,0,0
-629,789,1,0
-1483,1515,0,0
-1059,1583,0,0
-283,288,0,0
-191,647,0,0
-473,425,0,0
-911,1757,1,0
-1871,1574,1,0
-562,107,0,0
-1581,1181,0,0
-134,533,0,0
-480,1509,0,0
-836,1390,0,0
-1167,1580,1,0
-1590,1681,0,0
-208,1260,1,0
-1529,208,1,0
-1792,1459,0,0
-998,1779,0,0
-270,124,0,0
-1284,417,0,0
-1330,342,1,0
-464,1136,0,0
-1514,1489,0,0
-1258,1860,0,0
-675,989,0,0
-1151,1277,0,0
-1820,1873,0,0
-357,1656,1,0
-501,1078,1,0
-330,264,0,0
-917,850,0,0
-109,641,0,0
-1077,633,0,0
-860,1181,1,0
-1303,1007,0,0
-1753,226,0,0
-976,752,0,0
-1987,837,0,0
-289,1669,0,0
-823,136,1,0
-1558,1680,0,0
-1983,898,0,0
-28,811,0,0
-594,516,0,0
-530,495,0,0
-439,309,0,0
-1911,1007,0,0
-1336,1146,0,0
-1429,1536,0,0
-1559,256,0,0
-1836,1311,1,0
-1423,911,0,0
-109,927,1,0
-787,572,0,0
-1555,1294,0,0
-36,1497,0,0
-1807,750,0,0
-1245,1085,0,0
-1963,1711,0,0
-634,864,0,0
-501,901,0,0
-583,1321,0,0
-666,797,0,0
-869,896,0,0
-1898,247,0,0
-1867,204,0,0
-729,1817,0,0
-44,1331,0,0
-1252,439,0,0
-740,426,0,0
-1281,999,0,0
-530,267,1,0
-1342,1010,0,0
-821,321,1,0
-491,316,0,0
-726,1551,0,0
-1229,990,1,0
-1923,1921,0,0
-1289,1408,1,0
-861,1055,0,0
-900,874,1,0
-817,1124,1,0
-514,67,0,0
-800,232,0,0
-1787,117,0,0
-1271,537,1,0
-1297,1728,0,0
-1700,404,1,0
-1426,1032,1,0
-1989,1282,0,0
-1012,1400,0,0
-299,1095,1,0
-1496,1171,0,0
-1739,1640,0,0
-665,1620,0,0
-1078,1024,0,0
-1257,1319,0,0
-910,311,0,0
-1671,979,0,0
-1414,796,0,0
-1706,124,0,0
-832,84,0,0
-1556,1843,0,0
-853,1622,0,0
-941,250,1,0
-986,1652,0,0
-1171,1346,0,0
-241,1286,0,0
-1780,334,1,0
area 4
-1103,-297,1,0
-1548,-1430,0,0
-1089,-1397,1,0
-1172,-1785,0,0
-1263,-1522,0,0
-99,-509,1,0
-438,-820,1,0
-406,-850,0,0
-390,-1209,1,0
-1787,-1661,1,0
-86,-1999,0,0
-1442,-1523,0,0
-1862,-115,0,0
-1564,-1096,0,0
-648,-298,1,0
-290,-738,1,0
-1071,-787,0,0
-515,-743,0,0
-1444,-1310,0,0
-282,-830,1,0
-1986,-703,0,0
-1210,-137,0,0
-917,-1103,1,0
-45,-696,0,0
-475,-623,1,0
-51,-1295,0,0
-734,-1623,0,0
-1467,-940,0,0
-995,-1670,1,0
-1837,-1196,0,0
-658,-1470,0,0
-71,-338,1,0
-357,-1675,1,0
-1333,-556,0,0
-859,-149,0,0
-1786,-1540,0,0
-846,-1306,0,0
-764,-955,1,0
-1773,-1643,0,0
-1735,-1062,0,0
-1572,-1891,1,0
-1973,-335,0,0
-1817,-840,1,0
-1384,-81,1,0
-1610,-1520,0,0
-1237,-329,0,0
-1006,-227,0,0
-1895,-1826,1,0
-1337,-1139,1,0
-189,-845,1,0
-326,-1238,0,0
-1979,-432,0,0
-884,-898,1,0
-3,-1721,0,0
-878,-320,0,0
-712,-708,0,0
-35,-1885,1,0
-1210,-271,0,0
-1835,-238,0,0
-469,-965,0,0
-1957,-912,0,0
-1620,-470,0,0
-1369,-1239,0,0
-512,-446,0,0
-60,-1310,1,0
-1213,-1593,0,0
-488,-1537,0,0
-1865,-1289,1,0
-555,-1473,0,0
-1934,-579,0,0
-1400,-852,0,0
-1089,-1379,0,0
-1803,-1877,1,0
-1314,-825,0,0
-1378,-805,0,0
-718,-1154,0,0
-330,-1937,0,0
-1937,-1893,1,0
-1500,-815,0,0
-1244,-366,1,0
-1454,-295,0,0
-1368,-1610,0,0
-1553,-1237,0,0
-662,-426,0,0
-648,-780,0,0
-1613,-217,0,0
-298,-1674,0,0
-846,-1988,1,0
-110,-1217,0,0
-841,-666,0,0
-1290,-1140,0,0
-439,-734,0,0
-1284,-1112,0,0
-695,-1830,0,0
-1627,-1774,0,0
-1225,-766,1,0
-882,-454,1,0
-980,-1372,0,0
-1509,-1600,1,0
-1859,-115,0,0
-1206,-1121,1,0
-1475,-1939,0,0
-1778,-337,0,0
-933,-280,1,0
-1961,-996,1,0
area 5
1102,-110,0,0
647,-1338,0,0
516,-614,0,0
169,-54,0,0
1272,-834,0,0
358,-1158,0,0
1128,-1171,1,0
463,-34,0,0
307,-1107,1,0
416,-220,0,0
2,-60,1,0
1403,-922,0,0
1767,-345,0,0
428,-1826,0,0
836,-878,0,0
372,-482,0,0
1088,-230,0,0
7,-1633,0,0
769,-1112,0,0
1500,-992,0,0
936,-1582,1,0
813,-1802,1,0
394,-1785,0,0
1270,-620,0,0
137,-750,0,0
630,-1413,0,0
1024,-879,0,0
1420,-937,0,0
1129,-714,0,0
909,-1799,0,0
361,-1597,0,0
1750,-1454,0,0
1214,-1447,0,0
1832,-1328,0,0
1946,-608,0,0
29,-1883,0,0
766,-1203,0,0
711,-1344,0,0
695,-174,0,0
1475,-926,0,0
1921,-1497,0,0
1799,-150,0,0
964,-33,1,0
1065,-961,0,0
355,-1819,0,0
363,-1638,1,0
1697,-649,1,0
1717,-209,0,0
754,-471,0,0
297,-1171,0,0
747,-1952,1,0
683,-1187,0,0
34,-293,1,0
1820,-1759,0,0
144,-1394,0,0
1323,-695,0,0
43,-1181,0,0
24,-618,0,0
1233,-792,0,0
185,-1575,0,0
525,-913,0,0
526,-1642,0,0
1478,-32,0,0
183,-704,0,0
1237,-172,0,0
213,-80,1,0
1738,-207,0,0
302,-23,0,0
806,-803,0,0
843,-128,0,0
1184,-509,1,0
346,-526,1,0
1704,-1650,0,0
1631,-1071,0,0
295,-428,0,0
1431,-1851,1,0
1345,-771,1,0
1193,-720,0,0
318,-1216,0,0
825,-474,0,0
1123,-1002,0,0
390,-335,0,0
1889,-656,0,0
1436,-1024,0,0
178,-808,0,0
1854,-1118,0,0
382,-1453,0,0
708,-1382,0,0
208,-75,0,0
659,-746,0,0
1450,-889,0,0
1916,-1815,0,0
643,-742,0,0
1690,-1403,0,0
404,-1424,0,0
878,-896,0,0
1304,-1831,0,0
1268,-634,0,0
246,-1215,1,0
1050,-117,0,0
482,-1921,1,0
903,-881,0,0
340,-15,1,0
1152,-1066,0,0
863,-540,0,0
1390,-1156,0,0
1431,-1448,1,0
228,-454,0,0
838,-1297,0,0
1147,-935,0,0
1973,-402,0,0
1549,-1670,0,0
592,-178,0,0
1222,-423,1,0
392,-1291,0,0
435,-1479,1,0
536,-356,1,0
419,-1767,0,0
1043,-1968,0,0
1459,-996,0,0
905,-785,0,0
1601,-491,0,0
658,-1353,0,0
1855,-169,1,0
856,-1992,1,0
70,-998,0,0
841,-945,0,0
1621,-1539,1,0
561,-1178,0,0
7,-890,1,0
988,-191,0,0
80,-457,0,0

near cbsd peopel number
31
21
38
21
26
23
34
21
21
25
