the max average throughput times

BS TX power
MBS area 1,MBS area 2,MBS area 3,MBS area 4,CBSD 1,CBSD 2,CBSD 3,CBSD 4,CBSD 5,CBSD 6,
10.000,8.750,10.000,6.250,0.000,0.000,0.500,0.000,0.000,0.500,
max average power
670.798889

x,y,area,be blocked (1 : NLOS / 0 : LOS),be blocked number (>=1 : CBSD(x) / 0 : no),connect bs number (>=1 : CBSD / 0 : MBS),throughput (unit : M bps)
131,205,1,0,0,0,1294.168823
-1326,886,2,0,0,0,733.255249
-117,-1872,3,0,0,0,705.897949
1726,-1445,4,0,0,0,586.858032
708,3,1,0,0,0,986.078796
-217,1541,2,1,0,6,336.490356
-958,-1683,3,0,0,0,696.749084
177,-1044,4,0,0,0,802.525391
197,646,1,0,0,0,999.681519
-899,1663,2,0,0,0,684.541260
-872,-541,3,1,0,6,230.336563
842,-1435,4,0,0,0,672.955017
1407,550,1,1,0,6,873.253479
-1420,668,2,1,0,6,203.086014
-1189,-1187,3,0,0,0,737.455322
1710,-924,4,0,0,0,628.586609
1314,299,1,1,0,6,833.573181
-1016,718,2,0,0,0,804.553040
-1700,-577,3,0,0,0,718.448364
382,-387,4,0,0,0,994.412659
1726,903,1,0,0,0,695.070923
-1777,1693,2,0,0,0,610.071777
-1058,-46,3,0,0,0,870.097168
682,-229,4,0,0,0,913.758301
1474,1888,1,0,0,0,636.022034
-1788,1359,2,0,0,0,635.349365
-1719,-1585,3,0,0,0,642.894897
988,-1953,4,1,0,6,194.512955
1948,451,1,0,0,0,687.592346
-1370,1002,2,0,0,0,715.390442
-194,-291,3,1,0,6,346.628326
1076,-271,4,1,0,6,543.621460
1740,21,1,1,0,6,531.566895
-664,484,2,0,0,0,923.936340
-47,-871,3,0,0,0,925.957520
1471,-1584,4,0,0,0,598.350037
1526,1204,1,1,0,6,589.408447
-1337,921,2,0,0,0,728.131714
-679,-1816,3,0,0,0,696.419495
271,-801,4,1,0,6,331.416290
717,1357,1,0,0,0,763.412903
-799,440,2,0,0,0,893.854614
-105,-1807,3,1,0,6,183.276443
345,-499,4,0,0,0,962.877563
594,657,1,0,0,0,921.551636
-22,754,2,0,0,0,948.577332
-1761,-471,3,1,0,6,154.981430
1963,-1662,4,1,0,6,206.489426
977,1201,1,0,0,0,760.912537
-971,1074,2,0,0,0,760.980652
-451,-863,3,0,0,0,894.262085
1809,-835,4,0,0,0,621.534851
949,1243,1,0,0,0,758.024353
-1670,436,2,0,0,0,710.594543
-1420,-194,3,0,0,0,783.079346
1891,-182,4,1,0,6,444.637878
1535,263,1,0,0,0,759.218201
-1926,851,2,1,0,6,156.606369
-844,-614,3,0,0,0,874.283264
1265,-1169,4,1,0,6,297.663971
1200,1897,1,0,0,0,654.540527
-1920,355,2,1,0,6,157.099106
-473,-1558,3,0,0,0,746.450867
1957,-132,4,0,0,0,625.994629
1202,1217,1,0,0,0,732.306458
-1401,1510,2,0,0,0,660.015564
-1801,-1847,3,0,0,0,614.893860
657,-1521,4,0,0,0,674.152588
1143,1710,1,0,0,0,679.510986
-1378,689,2,0,0,0,743.156067
-557,-670,3,0,0,0,926.279907
162,-162,4,0,0,0,1243.696045
1513,1858,1,1,0,6,391.023865
-1082,854,2,0,0,0,775.094360
-1699,-67,3,0,0,0,734.022217
385,-1073,4,0,0,0,781.324463
1689,1427,1,0,0,0,658.842224
-1056,662,2,1,0,6,247.171951
-1550,-874,3,0,0,0,720.984924
264,93,1,0,0,0,1253.716187
-349,1087,2,1,0,6,357.362915
-1569,-294,3,0,0,0,752.130249
1840,917,1,0,0,0,679.648071
-1068,1551,2,0,0,0,685.648010
-1709,-1201,3,0,0,0,675.101440
158,1907,1,0,0,0,700.172729
-1744,-28,3,0,0,0,726.712830
1671,1672,1,1,0,6,418.144318
-272,-535,3,0,0,0,1033.711304
431,1326,1,1,0,6,510.743652
-1312,-1415,3,1,0,6,147.962341
1109,1450,1,0,0,0,713.664124
-1736,-1015,3,1,0,6,140.103882
1394,290,1,0,0,0,784.958740
-1742,-441,3,0,0,0,718.176819
1299,231,1,0,0,0,806.856995
326,318,1,0,0,0,1113.305908
1751,447,1,0,0,0,716.554688
1363,1798,1,0,0,0,653.076355
1383,1442,1,1,0,6,529.672119
