each times' max average throughput
555.895813,556.083069,554.287231,0.000000,551.629944,554.997559,0.000000,555.779358,0.000000,0.000000,0.000000,552.669128,546.884644,0.000000,0.000000,557.840027,555.325317,0.000000,552.332825,0.000000,554.780273,554.987610,554.977356,554.664917,0.000000,0.000000,0.000000,552.968201,0.000000,0.000000,556.341614,558.624084,555.569214,0.000000,556.637451,0.000000,557.241211,553.190002,552.177856,0.000000,0.000000,0.000000,550.448059,0.000000,0.000000,555.962158,0.000000,0.000000,548.993713,552.847290,553.545654,0.000000,0.000000,0.000000,0.000000,0.000000,0.000000,554.941589,0.000000,0.000000,0.000000,0.000000,0.000000,0.000000,0.000000,0.000000,0.000000,0.000000,0.000000,551.761963,0.000000,0.000000,0.000000,0.000000,0.000000,0.000000,0.000000,0.000000,0.000000,0.000000,0.000000,0.000000,0.000000,0.000000,0.000000,0.000000,551.463013,0.000000,0.000000,0.000000,0.000000,0.000000,0.000000,0.000000,0.000000,0.000000,549.365417,0.000000,0.000000,0.000000,
avg. throughput in all test times
177.252151
avg. BS TX power in all test times
MBS area 1,MBS area 2,MBS area 3,MBS area 4,MBS area 5,MBS area 6,MBS area 7,MBS area 8,CBSD 1,CBSD 2,CBSD 3,CBSD 4,CBSD 5,CBSD 6,
6.512,5.912,6.325,6.050,6.650,5.912,5.950,5.887,0.000,0.000,0.000,0.000,0.000,0.000,
avg. mbs all power,avg. cbsd enable number,avg. mbs area all power,avg. cbsd all power
49.200,0.000,49.200,0.000
avg. max avg. throughput generation number in all test times
0.260000
avg. number of relay UE
0



the max average throughput times

BS TX power
MBS area 1,MBS area 2,MBS area 3,MBS area 4,MBS area 5,MBS area 6,MBS area 7,MBS area 8,CBSD 1,CBSD 2,CBSD 3,CBSD 4,CBSD 5,CBSD 6,
7.500,6.250,6.250,5.000,5.000,7.500,5.000,5.000,0.000,0.000,0.000,0.000,0.000,0.000,
max average throughput
549.365417

x,y,area,be blocked (1 : NLOS / 0 : LOS),be blocked number (>=1 : CBSD(x) / 0 : no),connect bs number (>=1 : CBSD / 0 : MBS),throughput (unit : M bps)
1113,1173,1,1,0,0,4.883523
1645,1182,2,0,0,0,616.830078
-1095,1089,3,0,0,0,694.265259
-618,1202,4,1,0,0,5.562055
-296,-695,5,0,0,0,867.578003
-1639,-1571,6,1,0,0,1.783551
1715,-1093,7,0,0,0,584.011719
250,-796,8,0,0,0,838.981262
1492,1704,1,0,0,0,611.003662
849,288,2,0,0,0,850.400269
-1914,1570,3,0,0,0,559.941528
-145,830,4,1,0,0,21.690495
-885,-1354,5,0,0,0,649.136902
-1751,-1426,6,1,0,0,1.812257
1496,-485,7,0,0,0,657.174744
1692,-1931,8,0,0,0,518.255371
1199,1925,1,0,0,0,610.628479
1805,361,2,1,0,0,2.778977
-1343,1043,3,1,0,0,3.516138
-1282,1829,4,0,0,0,557.481201
-655,-1282,5,0,0,0,682.428467
-1174,-104,6,1,0,0,12.288880
1996,-1794,7,0,0,0,505.837341
95,-1622,8,0,0,0,647.868347
384,451,1,1,0,0,76.590164
1114,632,2,0,0,0,747.887817
-665,475,3,1,0,0,28.955093
-621,1228,4,0,0,0,695.344177
-895,-1674,5,0,0,0,603.574463
-1893,-325,6,1,0,0,2.933829
1755,-1642,7,0,0,0,536.814392
537,-1124,8,0,0,0,723.859619
631,1870,1,0,0,0,650.222717
1458,175,2,1,0,0,5.423450
-1458,462,3,1,0,0,4.810500
-75,525,4,1,0,0,72.301300
-473,-1568,5,1,0,0,3.152218
-1150,-349,6,0,0,0,792.345215
1831,-175,7,0,0,0,612.533875
819,-1152,8,0,0,0,687.677246
976,1555,1,0,0,0,670.872192
429,149,2,0,0,0,1046.344482
-684,305,3,1,0,0,36.601105
-409,1582,4,0,0,0,646.251526
-494,-1852,5,0,0,0,600.816772
-874,-844,6,0,0,0,789.205505
1140,-743,7,0,0,0,698.552307
1338,-1556,8,0,0,0,581.447754
67,401,1,0,0,0,1104.547852
1760,1077,2,0,0,0,611.577148
-1797,1758,3,0,0,0,555.595703
-269,1722,4,1,0,0,2.620529
-249,-1248,5,0,0,0,717.735352
-1483,-238,6,0,0,0,728.343262
1156,-111,7,0,0,0,743.971436
145,-278,8,0,0,0,1121.004639
1473,1493,1,1,0,0,2.258573
1878,1136,2,0,0,0,594.027344
-695,680,3,0,0,0,827.047852
-966,1275,4,0,0,0,652.321777
-384,-1107,5,1,0,0,8.450884
-1722,-1436,6,0,0,0,613.867981
1053,-138,7,0,0,0,769.629761
315,-712,8,0,0,0,858.886353
387,1625,1,0,0,0,697.888306
1753,372,2,1,0,0,3.009374
-1743,695,3,0,0,0,638.616821
-1131,1637,4,0,0,0,590.212158
-746,-967,5,0,0,0,729.525330
-528,-50,6,0,0,0,1027.892822
1392,-577,7,0,0,0,669.383972
582,-1269,8,0,0,0,691.213745
277,709,1,1,0,0,41.148281
623,80,2,0,0,0,952.858398
-1442,637,3,0,0,0,688.377869
-296,823,4,0,0,0,825.420959
-423,-1514,5,1,0,0,3.559871
-1991,-196,6,1,0,0,2.599096
1285,-35,7,0,0,0,714.850098
512,-811,8,0,0,0,798.909912
51,1051,1,0,0,0,830.551331
1929,1169,2,1,0,0,1.517052
-1831,437,3,0,0,0,637.710815
-124,833,4,0,0,0,836.289734
-269,-352,5,1,0,0,108.141319
-1684,-1045,6,0,0,0,649.025146
1366,-929,7,1,0,0,3.072606
1103,-1684,8,1,0,0,1.706053
300,473,1,0,0,0,1012.157227
1897,1250,2,1,0,0,1.484918
-1012,285,3,0,0,0,804.577515
-157,1568,4,1,0,0,3.534096
-693,-1797,5,0,0,0,599.450378
-1784,-638,6,0,0,0,661.875854
1429,-1416,7,0,0,0,587.088196
959,-1377,8,1,0,0,2.933037
201,884,1,0,0,0,873.429871
1942,1104,2,1,0,0,1.561446
-1399,858,3,0,0,0,676.871460
-423,1335,4,0,0,0,690.330566
-1282,-1655,5,1,0,0,1.517988
-1082,-189,6,0,0,0,818.207947
1113,-385,7,0,0,0,739.951172
261,-827,8,0,0,0,827.865601
1598,1944,1,1,0,0,1.311818
1237,470,2,0,0,0,738.525208
-1903,359,3,0,0,0,629.630432
-1545,1920,4,0,0,0,529.755188
-196,-1768,5,0,0,0,622.052185
-1245,-246,6,1,0,0,9.925518
834,-300,7,1,0,0,18.825047
1489,-1879,8,0,0,0,537.509399
1168,1250,1,0,0,0,691.062195
1951,1627,2,1,0,0,1.063549
-596,244,3,0,0,0,945.656738
-757,879,4,0,0,0,744.287476
-1244,-1393,5,0,0,0,608.196594
-736,-193,6,0,0,0,923.875854
1467,-658,7,0,0,0,650.864380
640,-1982,8,0,0,0,577.253479
486,1400,1,0,0,0,732.190308
961,175,2,1,0,0,17.651924
-544,410,3,0,0,0,929.482300
-778,1627,4,0,0,0,618.140991
-668,-1980,5,0,0,0,576.319763
-1336,-514,6,0,0,0,742.132324
1546,-343,7,1,0,0,3.483069
324,-1743,8,0,0,0,623.009888
471,1097,1,0,0,0,794.252869
998,133,2,0,0,0,817.022949
-1309,211,3,0,0,0,737.958618
-1191,1996,4,0,0,0,546.237793
-384,-1381,5,1,0,0,4.677231
-1542,-636,6,1,0,0,4.455688
1538,-412,7,1,0,0,3.427373
350,-651,8,0,0,0,873.851868
8,956,1,0,0,0,858.137085
1719,32,2,0,0,0,663.577576
-1726,34,3,1,0,0,3.362094
-1105,1992,4,0,0,0,551.922974
-1164,-1709,5,0,0,0,579.304138
-1757,-641,6,0,0,0,665.574585
839,-246,7,0,0,0,825.516479
80,-508,8,1,0,0,77.698296
97,462,1,1,0,0,125.318787
1745,210,2,0,0,0,657.286804
-1533,1456,3,1,0,0,1.839988
-265,1606,4,0,0,0,647.353088
-508,-1133,5,0,0,0,724.785645
-1333,-826,6,0,0,0,715.982117
579,-121,7,0,0,0,938.013184
746,-1682,8,1,0,0,2.230092
40,1467,1,0,0,0,734.992676
1628,521,2,0,0,0,665.237610
-1005,683,3,0,0,0,762.993835
-296,1644,4,0,0,0,639.964600
-1114,-1991,5,0,0,0,551.488647
-1871,-1162,6,0,0,0,618.952087
146,-124,7,1,0,0,388.825104
50,-910,8,0,0,0,813.581665
969,1588,1,1,0,0,3.225698
1130,395,2,0,0,0,767.295532
-1747,748,3,0,0,0,635.002380
-91,1749,4,1,0,0,2.582964
-1436,-1607,5,0,0,0,567.586792
-1850,-310,6,0,0,0,664.732971
1987,-1178,7,1,0,0,1.131445
673,-1406,8,0,0,0,659.706787
1031,1793,1,1,0,0,2.354270
1284,787,2,0,0,0,701.459778
-639,407,3,0,0,0,898.862732
-469,609,4,0,0,0,862.571777
-77,-459,5,0,0,0,1007.107422
-1892,-668,6,0,0,0,645.509888
1842,-1484,7,0,0,0,541.297302
1316,-1808,8,0,0,0,557.143250
492,1778,1,0,0,0,669.490601
1272,875,2,0,0,0,694.345459
-1054,132,3,0,0,0,801.621277
-100,1666,4,0,0,0,640.210022
-701,-1480,5,0,0,0,645.622620
-864,-4,6,0,0,0,887.271301
1822,-1332,7,0,0,0,554.536072
1165,-1663,8,1,0,0,1.662843
1425,1829,1,1,0,0,1.675100
1717,201,2,0,0,0,662.015625
-1172,203,3,0,0,0,769.123840
-1373,1441,4,1,0,0,1.764729
-1243,-1431,5,0,0,0,603.988770
-690,-140,6,0,0,0,946.237305
791,-741,7,0,0,0,763.779846
1288,-1734,8,1,0,0,1.382561
776,1972,1,1,0,0,2.189918
1633,174,2,1,0,0,3.898176
-1851,1292,3,0,0,0,586.066406
-1048,1735,4,0,0,0,584.952332
-303,-929,5,0,0,0,793.546387
-1873,-1104,6,0,0,0,622.635803
845,-188,7,0,0,0,828.379150
261,-965,8,0,0,0,787.002808
1194,1976,1,1,0,0,1.696535
940,27,2,1,0,0,19.644018
-318,238,3,0,0,0,1084.973755
-146,968,4,0,0,0,793.022156
-861,-1060,5,0,0,0,697.530029
-1881,-988,6,0,0,0,629.189331
1949,-1574,7,0,0,0,525.142212
264,-1773,8,0,0,0,619.866028
527,881,1,0,0,0,837.649109
1979,1576,2,0,0,0,553.809937
-1300,726,3,0,0,0,704.712463
-1232,1870,4,0,0,0,556.748230
-370,-1797,5,0,0,0,613.253357
-1885,-1391,6,0,0,0,601.405640
1854,-1540,7,1,0,0,0.996560
614,-1692,8,0,0,0,618.691406
1281,1850,1,0,0,0,612.851135
131,39,2,1,0,0,560.007812
-992,785,3,0,0,0,751.441345
-1174,1644,4,1,0,0,1.688308
-965,-1205,5,0,0,0,662.466919
-1658,-398,6,0,0,0,692.011719
1024,-505,7,0,0,0,748.845764
1299,-1601,8,0,0,0,580.134216
156,1694,1,0,0,0,692.672302
1898,1499,2,1,0,0,1.231781
-1003,693,3,0,0,0,762.049744
-558,1248,4,0,0,0,697.227539
-932,-1007,5,1,0,0,5.320453
-1542,-285,6,0,0,0,715.992676
1302,-1119,7,0,0,0,632.162964
251,-1364,8,0,0,0,693.104370
1194,1942,1,0,0,0,609.150024
1522,560,2,0,0,0,680.270508
-1803,1036,3,1,0,0,1.933282
-1554,1690,4,0,0,0,549.712463
-937,-1785,5,1,0,0,1.698728
-1515,-571,6,1,0,0,4.865483
773,-772,7,0,0,0,761.506836
137,-157,8,0,0,0,1238.873657
332,890,1,0,0,0,859.987488
1116,195,2,0,0,0,783.111938
-1143,295,3,1,0,0,10.265127
-245,951,4,0,0,0,792.112732
-221,-1115,5,1,0,0,9.230987
-1997,-1941,6,0,0,0,552.433716
1963,-1927,7,0,0,0,498.938934
368,-442,8,0,0,0,946.097351
262,1277,1,1,0,0,9.181436
1254,930,2,0,0,0,691.151367
-1916,1808,3,0,0,0,542.391846
-1007,1234,4,0,0,0,653.552734
-633,-1675,5,0,0,0,620.172302
-1867,-1780,6,0,0,0,574.085571
1388,-161,7,1,0,0,5.042644
1050,-1267,8,1,0,0,3.108378
515,1820,1,0,0,0,662.357056
1731,1482,2,0,0,0,583.386719
-770,67,3,0,0,0,893.104980
-609,641,4,0,0,0,822.294006
-1129,-1622,5,1,0,0,1.802644
-1805,-219,6,0,0,0,673.638184
947,-413,7,0,0,0,777.543213
240,-975,8,0,0,0,785.732239
365,564,1,0,0,0,959.750305
576,324,2,0,0,0,938.211060
-222,173,3,0,0,0,1184.334473
-183,882,4,1,0,0,17.985792
-744,-1020,5,0,0,0,720.015503
-773,-363,6,1,0,0,30.302038
1545,-490,7,1,0,0,3.251023
493,-1407,8,1,0,0,4.164278
635,1482,1,0,0,0,708.030396
1375,453,2,0,0,0,712.766296
-1357,257,3,0,0,0,726.257812
-16,1779,4,0,0,0,622.013672
-1761,-1805,5,0,0,0,523.295044
-1982,-956,6,0,0,0,619.205566
1948,-1745,7,1,0,0,0.780560
1226,-1737,8,0,0,0,571.424927
329,1666,1,0,0,0,693.176575
1823,1214,2,0,0,0,594.625183
-1828,893,3,0,0,0,615.591553
-1057,1252,4,1,0,0,3.148045
-864,-1878,5,0,0,0,579.377075
-1586,-365,6,0,0,0,705.352844
1945,-348,7,0,0,0,592.189819
1593,-1701,8,0,0,0,545.494324
771,968,1,1,0,0,10.675972
672,387,2,0,0,0,892.152710
-1613,1181,3,0,0,0,620.576294
-670,1859,4,0,0,0,592.166138
-892,-1290,5,0,0,0,657.954895
-1912,-1609,6,0,0,0,583.082458
1041,-806,7,0,0,0,708.007019
1756,-1885,8,0,0,0,517.298157
1030,1679,1,0,0,0,650.777649
1603,299,2,0,0,0,678.706787
-1257,693,3,0,0,0,715.215820
-181,253,4,0,0,0,1123.279907
-178,-930,5,0,0,0,802.593811
-1634,-1258,6,1,0,0,2.375114
1246,-810,7,0,0,0,673.338379
1044,-1865,8,0,0,0,569.932617
1034,1704,1,0,0,0,647.404236
1209,130,2,0,0,0,762.793091
-1113,1110,3,0,0,0,689.201355
-923,1926,4,0,0,0,570.142151
-651,-1219,5,0,0,0,694.129761
-896,-431,6,0,0,0,846.852112
1962,-1911,7,0,0,0,500.150726
623,-1797,8,0,0,0,603.022217
191,469,1,0,0,0,1041.222290
1074,1009,2,0,0,0,707.682983
-509,429,3,1,0,0,49.696369
-323,1787,4,0,0,0,616.173828
-163,-1059,5,0,0,0,767.081665
-1922,-1053,6,0,0,0,620.367004
752,-437,7,0,0,0,827.022339
12,-192,8,0,0,0,1261.915283
733,1885,1,1,0,0,2.516390
1592,228,2,0,0,0,682.662598
-1470,214,3,1,0,0,5.242344
-439,1723,4,0,0,0,622.177979
-135,-1096,5,0,0,0,758.422241
-1141,-1122,6,0,0,0,710.183472
1438,-1200,7,0,0,0,607.389587
511,-663,8,0,0,0,838.039246
642,1274,1,0,0,0,743.105408
1998,190,2,0,0,0,619.456543
-1363,755,3,0,0,0,691.717407
-201,931,4,0,0,0,800.908325
-1274,-1822,5,0,0,0,558.789917
-1410,-831,6,1,0,0,4.712458
1117,-43,7,0,0,0,754.923218
793,-1508,8,1,0,0,2.803284
115,1371,1,0,0,0,753.509521
784,215,2,0,0,0,878.564392
-1223,501,3,0,0,0,738.880920
-419,949,4,1,0,0,12.025481
-244,-1269,5,0,0,0,713.345764
-1726,-1643,6,0,0,0,596.562256
1418,-138,7,0,0,0,685.411316
30,-654,8,1,0,0,42.849972
812,977,1,0,0,0,776.399353
940,202,2,0,0,0,830.281250
-1879,598,3,1,0,0,2.264702
-1123,1280,4,0,0,0,634.494507
-822,-1726,5,1,0,0,1.990016
-879,-593,6,0,0,0,828.348877
974,-82,7,1,0,0,14.263311
416,-773,8,0,0,0,824.364563
30,647,1,0,0,0,970.282410
898,431,2,1,0,0,16.703035
-1877,210,3,0,0,0,636.760620
-384,1687,4,0,0,0,629.953979
-664,-791,5,0,0,0,777.651184
-1619,-367,6,0,0,0,699.671082
507,-73,7,0,0,0,979.481079
919,-1640,8,0,0,0,606.327515
193,559,1,0,0,0,996.499695
1765,278,2,0,0,0,652.588257
-203,170,3,0,0,0,1201.943726
-1361,1857,4,0,0,0,548.918457
-1086,-1176,5,0,0,0,652.121704
-1195,-636,6,1,0,0,8.226617
616,-102,7,1,0,0,48.404930
93,-216,8,1,0,0,308.090607
1944,1995,1,0,0,0,552.367310
1791,1615,2,1,0,0,1.242386
-740,275,3,0,0,0,887.009521
-938,1728,4,0,0,0,593.588806
-948,-1517,5,0,0,0,620.453308
-1780,-1114,6,0,0,0,632.538879
1260,-116,7,0,0,0,719.376953
555,-697,8,0,0,0,820.090698
1670,971,2,0,0,0,630.336853
-1978,1908,3,0,0,0,530.476013
-247,717,4,0,0,0,866.458496
-649,-1631,5,0,0,0,625.830811
-1896,-562,6,1,0,0,2.690331
1562,-1484,7,1,0,0,1.393071
34,-302,8,0,0,0,1130.006348
1610,330,2,0,0,0,676.466919
-736,114,3,0,0,0,903.782166
-1085,1953,4,0,0,0,557.405762
-1348,-1559,5,0,0,0,580.234741
-1574,-1133,6,0,0,0,655.214539
1367,-1272,7,1,0,0,2.134567
1579,-1628,8,0,0,0,553.164673
1979,391,2,0,0,0,618.007996
-1781,25,3,0,0,0,653.481750
-1092,1586,4,0,0,0,599.511475
-1099,-1279,5,0,0,0,637.268188
-513,-443,6,0,0,0,957.188293
1831,-581,7,0,0,0,600.192566
1273,-1931,8,0,0,0,547.633484
506,320,2,1,0,0,64.641937
-1033,658,3,1,0,0,9.224372
-227,1287,4,0,0,0,710.122803
-23,-63,5,0,0,0,1565.943237
-1662,-1082,6,0,0,0,648.840698
1321,-812,7,0,0,0,661.206055
1558,-1611,8,0,0,0,556.523987
714,570,2,0,0,0,844.964233
-937,534,3,0,0,0,797.258240
-601,1639,4,0,0,0,627.403198
-1324,-1500,5,0,0,0,588.642761
-533,-18,6,0,0,0,1026.298340
1350,-261,7,0,0,0,695.571472
22,-1891,8,0,0,0,604.640503
1938,685,2,0,0,0,612.665527
-1660,1423,3,0,0,0,595.116882
-51,289,4,1,0,0,227.492004
-980,-1428,5,0,0,0,629.661255
-1372,-377,6,0,0,0,743.863342
1928,-1731,7,0,0,0,515.684875
118,-359,8,1,0,0,148.453522
1350,294,2,0,0,0,726.149780
-1053,752,3,1,0,0,7.859859
-19,1598,4,0,0,0,652.590759
-961,-1263,5,0,0,0,654.575623
-979,-400,6,0,0,0,829.099182
1042,-603,7,0,0,0,733.642822
96,-332,8,0,0,0,1092.928711
436,177,2,0,0,0,1036.104004
-1606,469,3,0,0,0,671.363159
-1437,1990,4,0,0,0,530.879150
-201,-321,5,0,0,0,1066.525391
-1823,-1500,6,1,0,0,1.587338
1121,-490,7,0,0,0,729.032471
866,-1832,8,0,0,0,585.033264
995,980,2,0,0,0,723.068115
-972,886,3,0,0,0,740.279419
-898,1766,4,0,0,0,591.427612
-705,-1579,5,1,0,0,2.682481
-1930,-468,6,0,0,0,648.443726
711,-502,7,0,0,0,826.822510
1412,-1754,8,1,0,0,1.221123
1314,1057,2,0,0,0,669.102112
-837,762,3,0,0,0,783.366028
-432,1069,4,0,0,0,746.036072
-755,-847,5,0,0,0,750.636292
-1696,-861,6,1,0,0,3.020153
1225,-481,7,0,0,0,708.117188
604,-1267,8,1,0,0,4.976215
931,481,2,0,0,0,805.522827
-1657,1258,3,0,0,0,609.236145
-688,1752,4,1,0,0,2.084365
-831,-1510,5,1,0,0,2.708830
-1739,-925,6,0,0,0,650.784668
1179,-645,7,0,0,0,702.120422
113,-1285,8,0,0,0,713.853088
1949,221,2,1,0,0,2.300539
-1176,282,3,0,0,0,764.362854
-614,-1528,5,0,0,0,644.037231
-990,-182,6,0,0,0,843.309448
1745,-1175,7,0,0,0,574.418335
1718,1078,2,0,0,0,616.467957
-1654,1054,3,0,0,0,626.018372
-602,-1165,5,0,0,0,709.142334
1573,-787,7,0,0,0,625.261780
1488,557,2,0,0,0,686.135681
-1725,1254,3,1,0,0,1.793098
-969,-1980,5,0,0,0,561.194153
1925,-820,7,0,0,0,575.950317
1098,986,2,1,0,0,5.345132
-1238,517,3,0,0,0,734.578613
1350,-847,7,0,0,0,653.378235
1936,1394,2,0,0,0,570.401184
-1719,1631,3,0,0,0,572.309021
766,-645,7,1,0,0,13.309109
955,608,2,0,0,0,783.312744
-1217,531,3,1,0,0,7.288544
896,-229,7,0,0,0,809.376526
1011,823,2,0,0,0,742.816650
-1008,679,3,0,0,0,762.936584
1038,-123,7,0,0,0,774.193054
1287,1123,2,0,0,0,665.449402
-1611,273,3,0,0,0,678.125122
721,547,2,0,0,0,847.686340
-1940,673,3,0,0,0,612.953064
1617,193,2,1,0,0,3.996506
-1815,1811,3,1,0,0,1.034558
548,461,2,0,0,0,915.083496
-1512,1246,3,0,0,0,626.313782
1738,1403,2,0,0,0,589.059387
-1946,1768,3,0,0,0,542.944885
1406,1012,2,0,0,0,661.420044
-1264,843,3,0,0,0,698.937317
1610,493,2,0,0,0,669.539551
-1484,1208,3,0,0,0,633.042908
1125,176,2,0,0,0,781.651184
-1363,299,3,0,0,0,723.307495
968,830,2,0,0,0,749.161072
-1708,164,3,0,0,0,664.149902
1048,103,2,0,0,0,804.117249
-347,237,3,0,0,0,1068.733032
1721,1473,2,0,0,0,585.065125
-560,453,3,1,0,0,40.557335


each generation good chromosome number
2,1,0,