mbs coordinate
0,0

cbsd coordinate and channel
-970,900,2
740,900,1
980,-860,1
-750,-850,5
-750,1000,4
1050,600,2
760,-1135,3
-870,-1100,1
-1080,450,1
970,530,3
540,-1000,2
-1200,-300,3
-200,1170,7
820,1255,4
930,-1080,6
-1115,-505,2
-180,1230,3
500,1150,8
1200,-450,10
-500,-1100,7
-650,980,9
1180,450,9
700,-1160,7
-1050,-900,8
-1200,820,10
1200,1000,11
1340,-1120,12
-1440,-1280,10
-1160,1350,13
1420,960,14

building coordinate
-885,985
-1055,815
830,810
650,990
1060,-860
900,-860
-830,-770
-670,-930
-668,1070
-832,930
965,675
1135,525
832,-1059
688,-1211
-965,-1035
-775,-1165
-1135,365
-1025,535
907,591
1033,469
638,-906
442,-1094
-1275,-390
-1125,-210
-298,1123
-102,1217
910,1206
730,1304
1005,-1005
855,-1155
-1178,-407
-1052,-603
-120,1290
-240,1170
410,1240
590,1060
1275,-375
1125,-525
-577,-1023
-423,-1177
-600,1070
-710,890
1135,535
1225,365
743,-1077
657,-1243
-1138,-855
-962,-945
-1100,866
-1300,774
1100,1100
1300,900
1440,-1020
1240,-1220
-1540,-1180
-1340,-1380
-1060,1450
-1260,1250
1320,1060
1520,860

area numbers
293,304,280,323

x , y , block , block number
area 1
865,701,0,0
1836,241,1,0
940,1828,0,0
1001,571,0,0
1341,922,1,0
427,189,1,0
1923,1804,1,0
492,1590,0,0
275,1570,0,0
823,688,1,0
1000,507,0,0
1314,1735,0,0
66,68,1,0
1254,22,0,0
192,1937,0,0
95,1988,0,0
737,504,0,0
856,203,1,0
227,240,0,0
452,1116,1,0
1833,824,0,0
536,1615,0,0
1152,940,0,0
462,1937,0,0
1216,863,0,0
1420,1705,0,0
1587,782,0,0
67,85,1,0
1236,1221,1,0
293,1423,0,0
467,1649,0,0
1810,1093,0,0
1429,518,1,0
12,523,0,0
620,416,1,0
224,887,0,0
774,365,0,0
1066,1407,0,0
548,1906,0,0
343,1194,1,0
269,1901,0,0
52,964,0,0
1989,516,1,0
186,919,0,0
1025,780,0,0
338,442,1,0
232,1982,0,0
682,1539,0,0
898,496,1,0
1237,234,0,0
178,226,1,0
953,1545,1,0
16,861,1,0
410,766,0,0
1704,240,0,0
1234,1927,0,0
1861,1384,1,0
1551,1549,1,0
904,1942,1,0
352,866,1,0
1309,133,0,0
1279,260,0,0
305,1469,0,0
972,161,0,0
1187,120,0,0
658,292,0,0
1090,962,1,0
1287,1035,0,0
1530,1329,1,0
1475,356,0,0
545,347,0,0
1077,635,0,0
1574,1288,1,0
1252,273,0,0
1331,1700,1,0
1672,919,0,0
1430,1503,0,0
308,874,0,0
1090,1873,0,0
249,1930,1,0
633,1137,0,0
1014,577,1,0
1481,1108,1,0
1399,1537,0,0
948,801,0,0
679,1538,1,0
551,495,0,0
286,1388,0,0
1036,901,1,0
1386,613,0,0
132,441,0,0
1620,1100,1,0
172,691,0,0
1674,1384,1,0
1840,32,0,0
913,757,1,0
1608,237,1,0
67,154,0,0
1934,665,0,0
1082,139,0,0
1781,593,1,0
532,451,1,0
601,109,1,0
779,1075,0,0
1150,665,0,0
1344,71,1,0
314,1336,1,0
1032,1162,1,0
1332,1849,0,0
1635,1206,0,0
452,1554,0,0
441,1247,0,0
1575,1530,1,0
1656,1873,0,0
850,1902,0,0
177,1549,1,0
0,561,0,0
1582,1811,0,0
548,913,0,0
1634,657,1,0
471,96,0,0
926,149,0,0
73,1823,0,0
1662,1912,1,0
905,476,0,0
1594,94,0,0
887,624,0,0
311,1659,0,0
1225,789,0,0
115,1456,0,0
1966,753,0,0
571,1993,0,0
1593,1030,0,0
1128,1341,0,0
1605,1688,1,0
1458,954,1,0
839,1392,0,0
615,1546,1,0
991,1421,0,0
1080,487,1,0
624,1329,0,0
137,313,0,0
727,187,0,0
637,1974,1,0
716,1751,0,0
1448,148,0,0
1076,273,1,0
919,598,0,0
254,1399,0,0
930,1372,0,0
1088,1078,0,0
1093,948,0,0
555,643,0,0
1992,653,1,0
288,875,1,0
1909,17,0,0
1023,1312,0,0
101,1513,1,0
1942,412,1,0
384,149,1,0
261,1144,0,0
1284,1648,0,0
1062,1194,1,0
1723,1664,0,0
1920,420,1,0
1032,1750,0,0
504,1158,0,0
690,659,0,0
891,1910,0,0
315,400,1,0
1599,665,1,0
1844,1311,0,0
687,264,0,0
806,278,0,0
1746,864,0,0
1988,430,0,0
1628,954,0,0
1743,9,1,0
374,909,0,0
1866,150,1,0
265,1980,0,0
1192,100,0,0
1488,1840,0,0
557,1945,0,0
1468,1743,1,0
1555,673,0,0
889,704,1,0
1249,215,1,0
590,945,0,0
1007,278,0,0
1038,1160,0,0
230,1265,0,0
1118,835,1,0
1327,1268,0,0
629,461,0,0
1124,291,1,0
1806,259,0,0
269,1198,1,0
1199,1736,1,0
1791,23,0,0
431,319,0,0
1722,725,1,0
560,174,0,0
997,189,0,0
1803,51,0,0
46,1543,1,0
882,663,0,0
951,1129,1,0
334,1313,0,0
1338,1491,0,0
890,1267,1,0
205,1359,1,0
1698,1678,0,0
1665,449,1,0
1849,1125,1,0
1013,811,0,0
51,947,0,0
121,1690,1,0
1966,658,1,0
365,287,1,0
1130,1239,0,0
52,504,0,0
580,1742,0,0
1950,869,1,0
925,926,1,0
154,1141,0,0
1567,1432,1,0
1734,453,1,0
265,1950,1,0
1484,161,0,0
345,1570,1,0
1495,636,1,0
1195,34,0,0
1607,439,0,0
1135,1487,0,0
1577,436,0,0
1688,495,1,0
979,1858,0,0
1433,743,0,0
486,1630,0,0
194,279,0,0
671,1368,1,0
504,519,0,0
549,1128,0,0
1075,1076,1,0
300,1543,0,0
1808,416,0,0
317,1712,0,0
370,274,0,0
722,1181,0,0
382,1661,0,0
1414,1975,0,0
1157,1805,0,0
1740,854,0,0
1794,1791,0,0
1307,867,1,0
1042,1191,0,0
3,964,1,0
1272,704,1,0
1211,448,0,0
1637,1739,1,0
632,138,1,0
1936,749,0,0
750,1639,0,0
526,218,0,0
1078,1537,0,0
370,734,0,0
1444,1065,0,0
193,89,1,0
672,1272,0,0
1800,1942,0,0
475,395,0,0
1639,1533,0,0
1327,972,0,0
591,1671,1,0
1934,625,1,0
1574,1353,1,0
1341,1476,0,0
1164,1030,0,0
1433,1304,1,0
16,52,0,0
1926,707,0,0
519,358,0,0
982,835,0,0
381,1800,0,0
867,1842,0,0
365,1064,1,0
1985,1735,0,0
1209,1086,0,0
1795,83,1,0
10,334,0,0
891,1590,0,0
721,902,0,0
area 2
-1613,248,1,0
-110,81,0,0
-1989,949,0,0
-66,511,0,0
-866,1646,0,0
-1367,878,1,0
-1244,957,0,0
-1054,100,0,0
-332,1034,0,0
-558,616,1,0
-14,117,1,0
-1451,1287,0,0
-356,919,1,0
-27,959,0,0
-572,780,0,0
-1113,436,0,0
-1664,1158,0,0
-46,423,0,0
-155,383,0,0
-1270,1312,0,0
-281,1757,0,0
-1336,1194,0,0
-665,1897,0,0
-1428,1560,0,0
-1690,99,0,0
-366,950,0,0
-1096,1538,0,0
-1774,1593,1,0
-1018,5,0,0
-287,1171,0,0
-1661,1103,0,0
-622,508,1,0
-1488,1920,0,0
-480,939,1,0
-1439,1138,0,0
-976,1025,0,0
-612,1702,1,0
-1939,1010,0,0
-1841,1426,0,0
-557,994,1,0
-1806,800,0,0
-5,1567,0,0
-1477,1991,0,0
-1244,203,0,0
-581,1137,0,0
-1630,291,0,0
-1387,331,0,0
-628,1038,1,0
-1821,404,0,0
-728,815,0,0
-215,657,0,0
-1049,1687,1,0
-610,1059,1,0
-1151,360,1,0
-1938,875,0,0
-793,438,0,0
-496,394,0,0
-652,1609,0,0
-975,1685,0,0
-1520,1709,0,0
-1518,239,0,0
-1219,1785,0,0
-291,559,0,0
-1001,1743,0,0
-1236,744,1,0
-1872,585,1,0
-365,455,0,0
-1270,1922,0,0
-1829,442,0,0
-392,62,0,0
-1103,1939,0,0
-1871,544,0,0
-702,1455,1,0
-997,1811,1,0
-1351,1410,0,0
-95,762,0,0
-1492,230,0,0
-1878,790,1,0
-1886,788,0,0
-1386,905,1,0
-1025,1631,0,0
-1150,1864,0,0
-1062,1347,0,0
-1928,770,0,0
-160,44,0,0
-115,639,0,0
-292,995,1,0
-1203,448,0,0
-1667,799,0,0
-1043,824,0,0
-1515,965,0,0
-1910,1141,0,0
-1442,1992,0,0
-1490,1413,1,0
-660,597,1,0
-935,1131,0,0
-1130,1831,1,0
-1447,1595,0,0
-697,1577,0,0
-420,1329,0,0
-1947,477,1,0
-1466,1664,0,0
-913,475,0,0
-1606,768,1,0
-1888,1187,1,0
-1459,754,0,0
-99,597,0,0
-982,1312,1,0
-780,1530,1,0
-588,332,0,0
-1863,1528,0,0
-1540,1947,1,0
-1384,255,0,0
-183,364,0,0
-811,1858,1,0
-608,593,0,0
-554,1094,0,0
-923,541,0,0
-1144,619,0,0
-1850,210,1,0
-325,1082,1,0
-569,1141,1,0
-154,1817,1,0
-881,74,1,0
-1883,511,0,0
-124,830,1,0
-1678,1291,0,0
-788,97,0,0
-1978,1689,0,0
-910,1019,1,0
-747,62,0,0
-1522,1870,1,0
-1154,1620,0,0
-1962,45,0,0
-267,1331,1,0
-1653,1034,1,0
-1885,1987,0,0
-867,413,1,0
-810,16,0,0
-373,1403,1,0
-917,382,1,0
-1969,1065,1,0
-1701,363,0,0
-1304,255,0,0
-1039,738,0,0
-1233,362,0,0
-1765,1083,0,0
-1319,951,1,0
-1799,22,0,0
-61,1092,1,0
-1561,1599,1,0
-1563,1831,0,0
-1902,728,1,0
-494,1723,0,0
-630,1374,0,0
-77,1987,0,0
-1965,1370,0,0
-988,562,1,0
-1610,673,0,0
-99,1650,0,0
-1275,59,1,0
-1615,541,0,0
-808,803,0,0
-1684,139,1,0
-150,85,1,0
-608,1922,0,0
-521,1362,0,0
-1666,613,0,0
-869,321,0,0
-583,526,1,0
-1821,310,1,0
-599,249,1,0
-36,1096,0,0
-1185,465,1,0
-248,1973,0,0
-1985,1899,0,0
-490,1461,0,0
-1472,1860,1,0
-1822,1423,1,0
-1842,292,0,0
-1678,1080,0,0
-1652,1,0,0
-1173,1732,0,0
-44,1508,1,0
-1288,104,0,0
-705,1292,1,0
-577,1555,0,0
-217,414,1,0
-1340,1855,1,0
-1551,17,0,0
-388,1416,1,0
-639,1486,0,0
-673,610,0,0
-459,1502,1,0
-782,1079,1,0
-885,836,1,0
-291,837,1,0
-1119,1002,1,0
-1279,557,0,0
-841,1292,0,0
-502,978,1,0
-918,1769,0,0
-1133,245,0,0
-247,251,0,0
-365,186,0,0
-1960,724,1,0
-1274,1488,0,0
-293,200,1,0
-1191,34,0,0
-664,1826,0,0
-745,218,0,0
-534,401,1,0
-1777,1922,1,0
-776,1322,0,0
-1712,1800,0,0
-227,975,0,0
-263,735,0,0
-1595,1035,1,0
-564,859,1,0
-854,416,0,0
-1987,1359,0,0
-1284,789,0,0
-1168,1800,0,0
-90,734,1,0
-463,1477,0,0
-477,1724,1,0
-1877,934,0,0
-1002,1811,1,0
-1880,990,0,0
-1126,545,0,0
-901,63,0,0
-1013,309,1,0
-835,1049,0,0
-911,660,0,0
-1079,1916,0,0
-998,333,0,0
-1801,1429,1,0
-18,1197,1,0
-179,1367,0,0
-377,732,1,0
-1076,1935,0,0
-688,1281,1,0
-1295,928,1,0
-156,985,1,0
-852,794,1,0
-635,1388,0,0
-70,1218,0,0
-1551,339,0,0
-1400,328,1,0
-71,1280,1,0
-913,830,1,0
-217,661,0,0
-1199,267,1,0
-561,478,0,0
-1630,821,0,0
-1049,1130,0,0
-1725,138,1,0
-1485,1358,0,0
-452,260,0,0
-1826,1192,0,0
-778,528,0,0
-358,1946,1,0
-99,970,0,0
-1601,1147,1,0
-842,99,1,0
-251,729,0,0
-1841,264,0,0
-227,64,0,0
-1374,1147,0,0
-1076,840,1,0
-1873,87,0,0
-1945,454,0,0
-152,1417,0,0
-1145,468,0,0
-1196,1101,0,0
-655,1263,1,0
-1783,1259,0,0
-1877,1293,1,0
-189,174,1,0
-1458,1350,0,0
-1960,363,1,0
-1715,1497,1,0
-1397,152,0,0
-1606,975,0,0
-1388,513,1,0
-1091,1841,0,0
-1576,221,0,0
-1550,237,0,0
-383,1684,0,0
-1989,769,0,0
-811,1086,1,0
-1764,1757,0,0
-1622,1845,0,0
-1538,1281,1,0
-256,1293,0,0
-1538,1581,1,0
-387,645,0,0
-85,24,0,0
-1713,1036,0,0
-649,1409,0,0
-497,1090,0,0
-52,940,0,0
-649,42,0,0
-1419,1772,0,0
area 3
-1396,-382,0,0
-1263,-766,0,0
-1260,-1233,0,0
-1052,-1554,0,0
-820,-274,0,0
-636,-1860,0,0
-1274,-891,0,0
-283,-443,0,0
-632,-1992,1,0
-1834,-1080,0,0
-1579,-1274,1,0
-209,-5,0,0
-1985,-514,0,0
-661,-1046,1,0
-743,-298,1,0
-134,-671,0,0
-1617,-649,1,0
-1604,-371,1,0
-736,-1401,0,0
-1580,-1234,0,0
-1787,-504,0,0
-698,-552,0,0
-226,-767,0,0
-1176,-455,0,0
-1586,-237,0,0
-1407,-1849,1,0
-1666,-786,0,0
-1231,-1545,0,0
-1253,-1825,0,0
-697,-678,1,0
-1084,-167,1,0
-1412,-1986,0,0
-478,-1451,0,0
-91,-1765,1,0
-481,-1073,0,0
-1462,-286,0,0
-1415,-1139,1,0
-190,-1902,1,0
-478,-61,0,0
-19,-1659,0,0
-1341,-1591,0,0
-512,-1970,0,0
-1021,-198,1,0
-588,-1750,1,0
-1441,-1275,0,0
-1403,-50,1,0
-598,-1743,0,0
-1964,-1158,1,0
-1361,-141,0,0
-1670,-1587,1,0
-1639,-1275,1,0
-371,-1649,0,0
-11,-1572,0,0
-781,-470,1,0
-869,-1207,1,0
-893,-1744,1,0
-1447,-1810,0,0
-77,-1393,1,0
-9,-1540,0,0
-868,-198,1,0
-1009,-1913,0,0
-1722,-1260,0,0
-1146,-1952,1,0
-545,-535,1,0
-1581,-1632,0,0
-1296,-1412,0,0
-915,-1162,0,0
-1222,-692,1,0
-1614,-1382,1,0
-517,-556,0,0
-508,-90,1,0
-368,-603,0,0
-474,-1739,0,0
-1560,-962,0,0
-1388,-1973,1,0
-1845,-1353,1,0
-390,-1634,0,0
-1474,-87,1,0
-720,-413,0,0
-544,-1982,1,0
-408,-56,0,0
-1114,-1935,0,0
-265,-1467,0,0
-1659,-773,0,0
-1495,-1735,1,0
-1725,-629,0,0
-1078,-284,0,0
-254,-1664,1,0
-394,-1626,0,0
-1833,-1611,0,0
-1829,-1131,0,0
-1043,-422,0,0
-1364,-1814,1,0
-613,-1109,0,0
-925,-1023,0,0
-1485,-1298,0,0
-246,-728,1,0
-1313,-1936,0,0
-321,-1111,1,0
-1731,-547,0,0
-1802,-189,0,0
-189,-1362,0,0
-926,-679,0,0
-1444,-625,0,0
-1886,-829,0,0
-918,-1602,1,0
-1493,-1946,0,0
-1877,-1483,1,0
-617,-26,1,0
-766,-455,0,0
-334,-56,1,0
-587,-138,1,0
-475,-246,0,0
-512,-1155,0,0
-375,-1254,0,0
-1488,-1144,0,0
-471,-1671,0,0
-1262,-729,1,0
-1628,-1433,0,0
-1165,-1171,0,0
-673,-989,0,0
-1828,-1459,0,0
-1057,-1406,0,0
-961,-1075,1,0
-140,-575,1,0
-1198,-1736,0,0
-1434,-1983,1,0
-614,-1572,0,0
-1868,-188,1,0
-868,-980,1,0
-1438,-1883,1,0
-1776,-1764,0,0
-989,-212,0,0
-201,-18,1,0
-1677,-194,0,0
-690,-111,0,0
-860,-1030,0,0
-1467,-947,0,0
-1608,-1723,1,0
-771,-1707,0,0
-1121,-1281,1,0
-901,-50,0,0
-564,-1172,0,0
-616,-1943,0,0
-420,-374,1,0
-1138,-1614,0,0
-230,-1959,1,0
-1622,-199,1,0
-1184,-71,1,0
-203,-1978,0,0
-1790,-1160,0,0
-373,-1518,1,0
-768,-757,1,0
-270,-635,0,0
-734,-150,0,0
-376,-450,0,0
-1742,-365,1,0
-1719,-808,0,0
-1898,-917,0,0
-322,-1732,0,0
-1204,-51,0,0
-1195,-1270,0,0
-682,-146,0,0
-73,-1222,0,0
-1397,-902,0,0
-1065,-1894,0,0
-1902,-524,1,0
-1589,-1464,0,0
-192,-21,1,0
-801,-1765,0,0
-1392,-1290,1,0
-274,-520,0,0
-1359,-351,1,0
-1807,-1752,0,0
-1917,-1932,1,0
-1963,-1207,1,0
-130,-1188,0,0
-1544,-1039,1,0
-159,-745,0,0
-1562,-804,1,0
-254,-566,1,0
-1595,-272,0,0
-475,-1485,0,0
-575,-1162,0,0
-1249,-1229,1,0
-1281,-1162,1,0
-393,-1370,0,0
-1197,-220,0,0
-1126,-1255,0,0
-622,-1714,1,0
-1302,-1161,1,0
-860,-1689,1,0
-1952,-182,1,0
-777,-1733,0,0
-1701,-1461,0,0
-130,-1054,1,0
-1968,-306,1,0
-363,-18,1,0
-1103,-934,0,0
-736,-81,1,0
-679,-1375,0,0
-1102,-1885,1,0
-232,-648,0,0
-1906,-122,0,0
-1655,-223,0,0
-1716,-1855,1,0
-1690,-1662,0,0
-66,-107,0,0
-922,-1835,0,0
-76,-870,0,0
-1178,-1246,0,0
-1665,-1460,1,0
-1903,-1480,1,0
-709,-1196,0,0
-456,-19,1,0
-1033,-1620,1,0
-255,-1688,0,0
-916,-1089,0,0
-170,-1280,0,0
-671,-438,0,0
-693,-1407,0,0
-1918,-753,1,0
-1680,-771,1,0
-1220,-1740,0,0
-644,-1655,0,0
-1896,-1134,0,0
-1505,-39,0,0
-1606,-710,1,0
-634,-980,1,0
-35,-1938,1,0
-826,-1824,0,0
-1663,-433,0,0
-1529,-97,1,0
-1665,-1103,1,0
-1242,-1434,0,0
-1057,-1947,0,0
-297,-555,0,0
-672,-1728,0,0
-691,-1193,0,0
-907,-890,0,0
-805,-854,1,0
-1249,-1587,1,0
-1363,-1207,0,0
-521,-464,1,0
-218,-848,0,0
-8,-594,0,0
-278,-352,0,0
-1452,-566,1,0
-306,-954,0,0
-1206,-1500,1,0
-1213,-1995,0,0
-1510,-406,0,0
-908,-328,1,0
-192,-1294,1,0
-311,-991,1,0
-1905,-1965,0,0
-1982,-1238,0,0
-409,-1172,0,0
-677,-849,1,0
-1921,-1895,1,0
-1575,-1689,0,0
-561,-1425,1,0
-71,-100,0,0
-296,-839,1,0
-1975,-1393,0,0
-416,-856,0,0
-1502,-1270,0,0
-276,-1683,0,0
-1092,-1789,0,0
-301,-1957,0,0
-743,-1613,0,0
-532,-25,0,0
-1434,-512,0,0
-1372,-1521,0,0
-867,-430,0,0
-1680,-1839,0,0
-758,-1788,0,0
-1996,-853,0,0
-1951,-1872,0,0
-1855,-798,1,0
area 4
202,-1381,1,0
692,-1845,0,0
484,-92,0,0
1419,-285,0,0
1166,-834,0,0
917,-1705,0,0
1378,-1084,0,0
1221,-1827,1,0
296,-1255,1,0
1770,-370,0,0
745,-1712,0,0
1226,-375,0,0
162,-1129,1,0
479,-253,0,0
1396,-56,1,0
574,-903,1,0
1655,-291,1,0
413,-1715,1,0
877,-1739,0,0
645,-1156,1,0
1604,-1186,0,0
1798,-1076,1,0
1191,-945,1,0
494,-886,0,0
258,-1655,1,0
49,-264,1,0
1101,-1591,0,0
665,-1832,0,0
228,-795,0,0
1587,-1176,0,0
1920,-932,0,0
1257,-612,0,0
296,-1280,0,0
29,-847,0,0
945,-418,1,0
729,-524,1,0
61,-1204,1,0
275,-1058,0,0
1165,-352,0,0
1114,-1492,1,0
230,-1050,0,0
945,-884,0,0
749,-191,0,0
1377,-485,0,0
1486,-1282,1,0
1708,-925,1,0
1329,-697,1,0
740,-1898,1,0
1785,-1815,0,0
409,-99,0,0
49,-1879,0,0
401,-1371,0,0
810,-375,0,0
820,-1107,1,0
653,-510,0,0
1345,-1244,1,0
1146,-1970,1,0
1120,-1286,0,0
788,-651,0,0
681,-809,1,0
1305,-1189,1,0
807,-1414,1,0
510,-343,0,0
334,-1488,1,0
1541,-1468,0,0
1200,-590,0,0
489,-1267,1,0
1641,-1984,0,0
1578,-1566,0,0
164,-976,1,0
1348,-1562,0,0
1062,-100,0,0
1342,-1556,1,0
873,-1872,0,0
1521,-795,0,0
926,-1211,0,0
162,-742,1,0
1657,-653,0,0
498,-1932,1,0
1224,-1937,0,0
1750,-1528,0,0
1269,-1033,0,0
1376,-1018,0,0
1346,-487,1,0
1015,-1640,0,0
81,-1442,0,0
1050,-1455,1,0
1618,-1491,1,0
1312,-1198,0,0
1165,-156,1,0
1812,-1233,0,0
515,-85,1,0
711,-198,1,0
679,-1562,1,0
1907,-1877,1,0
1764,-592,1,0
970,-419,0,0
1231,-226,0,0
1210,-1071,1,0
1654,-131,1,0
539,-310,1,0
226,-490,1,0
1744,-276,1,0
1633,-845,0,0
394,-1768,1,0
973,-1230,1,0
561,-629,0,0
1466,-1250,1,0
1854,-1347,0,0
527,-774,0,0
1337,-1959,1,0
834,-1295,0,0
533,-564,0,0
393,-1700,0,0
237,-1611,0,0
1853,-1224,1,0
1940,-1680,0,0
750,-335,0,0
831,-281,1,0
1020,-690,0,0
1535,-1512,0,0
1426,-1227,0,0
97,-123,1,0
213,-560,0,0
771,-1960,1,0
1506,-1047,0,0
1876,-1695,1,0
834,-1245,0,0
1610,-825,0,0
216,-1183,0,0
1126,-1367,0,0
401,-1754,0,0
725,-365,0,0
601,-812,0,0
1331,-1545,1,0
1208,-1575,1,0
125,-1110,1,0
488,-833,1,0
1158,-691,0,0
1166,-480,0,0
540,-846,1,0
1371,-1847,0,0
1799,-1761,0,0
1774,-1695,0,0
1798,-80,0,0
977,-1187,0,0
1551,-884,1,0
264,-1755,0,0
838,-666,1,0
1867,-272,1,0
885,-1930,0,0
258,-1307,0,0
1914,-1522,1,0
728,-596,0,0
1019,-376,1,0
1032,-153,0,0
930,-1539,0,0
1487,-1654,0,0
1683,-1132,0,0
773,-1786,0,0
1672,-887,1,0
1951,-725,1,0
28,-1677,0,0
31,-1891,0,0
1004,-515,1,0
299,-480,0,0
171,-1217,0,0
1030,-1016,1,0
1210,-929,0,0
1846,-1796,0,0
1154,-1837,1,0
1992,-1625,0,0
1978,-1585,1,0
1269,-337,1,0
1768,-1369,0,0
809,-819,1,0
765,-852,1,0
663,-713,0,0
1674,-362,1,0
808,-338,0,0
1533,-372,1,0
432,-1571,0,0
337,-1586,0,0
97,-1419,0,0
1021,-250,1,0
1300,-1602,0,0
1672,-172,1,0
1083,-108,0,0
1752,-1711,1,0
853,-303,0,0
1592,-656,0,0
1873,-915,1,0
834,-1762,1,0
232,-414,1,0
867,-1461,1,0
1860,-1932,0,0
911,-1155,1,0
335,-978,1,0
1322,-1227,0,0
376,-1903,0,0
472,-671,1,0
1488,-595,0,0
1450,-1337,0,0
104,-348,1,0
1908,-1509,1,0
1892,-257,0,0
1312,-1638,0,0
629,-1679,0,0
1492,-1354,1,0
1665,-1502,1,0
1166,-1505,1,0
517,-529,0,0
1795,-1888,0,0
987,-364,0,0
1909,-260,1,0
1087,-304,0,0
324,-721,1,0
1062,-1097,0,0
694,-1179,1,0
438,-1493,0,0
106,-1200,0,0
487,-1224,1,0
1023,-247,0,0
1937,-93,1,0
1232,-1618,0,0
999,-1611,0,0
569,-804,0,0
1810,-1754,1,0
1237,-1948,1,0
123,-322,0,0
246,-1773,0,0
1651,-1809,1,0
182,-499,0,0
769,-175,1,0
1595,-1370,0,0
380,-899,1,0
529,-1629,0,0
1973,-1020,0,0
1447,-1303,1,0
168,-583,1,0
864,-1803,0,0
1683,-1973,0,0
202,-1385,0,0
1722,-1933,1,0
1559,-1105,0,0
839,-97,0,0
121,-1771,0,0
327,-935,0,0
1009,-1128,0,0
545,-823,0,0
777,-1631,0,0
1739,-139,1,0
406,-1993,1,0
1024,-1714,1,0
607,-709,1,0
160,-166,1,0
1427,-669,1,0
388,-442,0,0
538,-785,0,0
1636,-1404,1,0
350,-1119,0,0
736,-989,1,0
134,-339,0,0
305,-191,1,0
526,-410,0,0
1343,-1342,0,0
1158,-264,1,0
1595,-749,0,0
1498,-1930,0,0
1431,-437,0,0
354,-1422,1,0
814,-95,0,0
1575,-1,0,0
1929,-1377,0,0
561,-508,1,0
839,-1340,1,0
1397,-1108,0,0
435,-464,0,0
1944,-1226,0,0
381,-1567,0,0
648,-1494,1,0
1778,-1737,1,0
1188,-1735,0,0
1504,-377,1,0
1197,-1445,1,0
1237,-806,1,0
1618,-592,0,0
593,-1751,1,0
550,-327,1,0
1064,-1556,1,0
629,-936,0,0
511,-1700,1,0
1811,-248,1,0
1497,-172,0,0
1251,-55,0,0
1386,-297,1,0
1730,-1909,0,0
720,-1265,0,0
573,-1899,0,0
1353,-1024,1,0
1442,-1948,0,0
663,-1742,1,0
880,-1345,1,0
18,-642,1,0
1738,-623,0,0
341,-270,1,0
1285,-38,1,0
1315,-1978,0,0
782,-906,0,0
1669,-578,0,0
289,-462,0,0
523,-951,1,0
1185,-1167,0,0
1598,-753,0,0
537,-1270,0,0
128,-1124,0,0
563,-1205,0,0
1877,-733,0,0
1148,-1391,0,0
1475,-1604,1,0
1085,-831,0,0
59,-130,0,0
1376,-1427,1,0

near cbsd peopel number
60
65
66
40
59
64
65
42
57
62
67
51
63
54
68
38
62
52
60
50
60
64
64
41
50
66
68
56
54
60
