each times' max average throughput
534.109741,533.635132,534.608521,534.196533,534.141663,533.451355,534.307007,534.519897,534.636536,533.525757,
avg. throughput in all test times
534.113220
avg. BS TX power in all test times
MBS area 1,MBS area 2,MBS area 3,MBS area 4,CBSD 1,CBSD 2,CBSD 3,CBSD 4,CBSD 5,CBSD 6,CBSD 7,CBSD 8,CBSD 9,CBSD 10,CBSD 11,CBSD 12,CBSD 13,CBSD 14,CBSD 15,CBSD 16,CBSD 17,CBSD 18,CBSD 19,CBSD 20,CBSD 21,CBSD 22,CBSD 23,CBSD 24,
9.000,9.750,9.250,9.500,0.000,0.213,0.213,0.438,0.338,0.112,0.000,0.000,0.050,0.138,0.087,0.162,0.275,0.100,0.125,0.000,0.250,0.000,0.400,0.100,0.100,0.287,0.262,0.200,
avg. mbs all power,avg. cbsd enable number,avg. mbs area all power,avg. cbsd all power
75.000,5.000,37.500,3.850
avg. max avg. throughput generation number in all test times
8.400000
avg. number of relay UE
427



the max average throughput times

BS TX power
MBS area 1,MBS area 2,MBS area 3,MBS area 4,CBSD 1,CBSD 2,CBSD 3,CBSD 4,CBSD 5,CBSD 6,CBSD 7,CBSD 8,CBSD 9,CBSD 10,CBSD 11,CBSD 12,CBSD 13,CBSD 14,CBSD 15,CBSD 16,CBSD 17,CBSD 18,CBSD 19,CBSD 20,CBSD 21,CBSD 22,CBSD 23,CBSD 24,
10.000,10.000,8.750,8.750,0.000,0.000,0.000,1.000,0.000,0.000,0.000,0.000,0.500,0.000,0.000,0.000,0.750,0.000,0.000,0.000,0.750,0.000,0.500,0.000,0.000,0.000,0.000,0.000,
max average throughput
533.525757

x,y,area,be blocked (1 : NLOS / 0 : LOS),be blocked number (>=1 : CBSD(x) / 0 : no),connect bs number (>=1 : CBSD / 0 : MBS),throughput (unit : M bps)
865,701,1,0,0,0,855.683655
-1613,248,2,1,0,9,129.737717
-1396,-382,3,0,0,0,761.088806
202,-1381,4,1,0,19,58.040565
1836,241,1,1,0,19,58.040565
-110,81,2,0,0,0,1460.679321
-1263,-766,3,0,0,0,755.236328
692,-1845,4,0,0,0,672.681396
940,1828,1,0,0,0,679.692261
-1989,949,2,0,0,0,659.789307
-1260,-1233,3,0,0,0,704.528870
484,-92,4,0,0,0,1071.375366
1001,571,1,0,0,0,845.771179
-66,511,2,0,0,0,1077.706787
-1052,-1554,3,0,0,0,686.643738
1419,-285,4,0,0,0,761.085510
1341,922,1,1,0,17,125.221642
-866,1646,2,0,0,0,708.311401
-820,-274,3,0,0,0,909.280457
1166,-834,4,0,0,0,763.830261
427,189,1,1,0,0,153.912903
-1367,878,2,1,0,9,129.737717
-636,-1860,3,0,0,0,673.374817
917,-1705,4,0,0,0,677.738342
1923,1804,1,1,0,17,125.221642
-1244,957,2,0,0,0,756.987427
-1274,-891,3,0,0,0,740.560120
1378,-1084,4,0,0,0,706.101440
492,1590,1,0,0,0,740.149170
-1054,100,2,0,0,0,870.169495
-283,-443,3,0,0,0,1052.673340
1221,-1827,4,1,0,19,58.040565
275,1570,1,0,0,0,752.562744
-332,1034,2,0,0,0,862.852417
-632,-1992,3,1,0,4,119.872543
296,-1255,4,1,0,19,58.040565
823,688,1,1,0,13,128.976944
-558,616,2,1,0,9,129.737717
-1834,-1080,3,0,0,0,650.671631
1770,-370,4,0,0,0,697.258972
1000,507,1,0,0,0,853.675415
-14,117,2,1,0,0,690.239319
-1579,-1274,3,1,0,4,119.872543
745,-1712,4,0,0,0,688.099182
1314,1735,1,0,0,0,663.359070
-1451,1287,2,0,0,0,696.310120
-209,-5,3,0,0,0,1318.644043
1226,-375,4,0,0,0,795.912048
66,68,1,1,0,0,783.970093
-356,919,2,1,0,13,254.621246
-1985,-514,3,0,0,0,661.316467
162,-1129,4,1,0,19,58.040565
1254,22,1,0,0,0,821.425049
-27,959,2,0,0,0,898.540527
-661,-1046,3,1,0,4,119.872543
479,-253,4,0,0,0,1044.011108
192,1937,1,0,0,0,695.284363
-572,780,2,0,0,0,896.186157
-743,-298,3,1,0,9,129.737717
1396,-56,4,1,0,19,58.040565
95,1988,1,0,0,0,688.919922
-1113,436,2,0,0,0,835.245422
-134,-671,3,0,0,0,976.672852
574,-903,4,1,0,19,58.040565
737,504,1,0,0,0,919.238586
-1664,1158,2,0,0,0,683.649353
-1617,-649,3,1,0,4,119.872543
1655,-291,4,1,0,19,58.040565
856,203,1,1,0,19,58.040565
-46,423,2,0,0,0,1132.904541
-1604,-371,3,1,0,9,129.737717
413,-1715,4,1,0,19,58.040565
227,240,1,0,0,0,1205.913696
-155,383,2,0,0,0,1141.378052
-736,-1401,3,0,0,0,735.458191
877,-1739,4,0,0,0,676.019714
452,1116,1,1,0,17,125.221642
-1270,1312,2,0,0,0,713.583801
-1580,-1234,3,0,0,0,667.753052
645,-1156,4,1,0,19,58.040565
1833,824,1,0,0,0,686.141479
-281,1757,2,0,0,0,721.001526
-1787,-504,3,0,0,0,689.691467
1604,-1186,4,0,0,0,669.172852
536,1615,1,0,0,0,733.802551
-1336,1194,2,0,0,0,719.000610
-698,-552,3,0,0,0,900.965759
1798,-1076,4,1,0,19,58.040565
1152,940,1,0,0,0,772.523132
-665,1897,2,0,0,0,686.071838
-226,-767,3,0,0,0,931.780945
1191,-945,4,1,0,19,58.040565
462,1937,1,0,0,0,688.766846
-1428,1560,2,0,0,0,671.552429
-1176,-455,3,0,0,0,800.685181
494,-886,4,0,0,0,863.261169
1216,863,1,0,0,0,771.699280
-1690,99,2,0,0,0,735.276855
-1586,-237,3,0,0,0,731.669006
258,-1655,4,1,0,19,58.040565
1420,1705,1,0,0,0,657.841553
-366,950,2,0,0,0,881.445435
-1407,-1849,3,1,0,4,119.872543
49,-264,4,1,0,0,328.875458
1587,782,1,0,0,0,722.636597
-1096,1538,2,0,0,0,703.934021
-1666,-786,3,0,0,0,691.951660
1101,-1591,4,0,0,0,677.907654
67,85,1,1,0,0,726.761414
-1774,1593,2,1,0,9,129.737717
-1231,-1545,3,0,0,0,671.965637
665,-1832,4,0,0,0,675.823853
1236,1221,1,1,0,17,125.221642
-1018,5,2,0,0,0,881.460083
-1253,-1825,3,0,0,0,639.454224
228,-795,4,0,0,0,922.059204
293,1423,1,0,0,0,779.165466
-287,1171,2,0,0,0,832.776123
-697,-678,3,1,0,4,119.872543
1587,-1176,4,0,0,0,671.996521
467,1649,1,0,0,0,731.749084
-1661,1103,2,0,0,0,688.402222
-1084,-167,3,1,0,9,129.737717
1920,-932,4,0,0,0,649.884338
1810,1093,1,0,0,0,671.617493
-622,508,2,1,0,9,129.737717
-1412,-1986,3,0,0,0,612.117432
1257,-612,4,0,0,0,771.029602
1429,518,1,1,0,19,58.040565
-1488,1920,2,0,0,0,632.022522
-478,-1451,3,0,0,0,745.576660
296,-1280,4,0,0,0,788.891296
12,523,1,0,0,0,1073.322754
-480,939,2,1,0,13,235.112747
-91,-1765,3,1,0,4,119.872543
29,-847,4,0,0,0,915.024292
620,416,1,1,0,13,130.338943
-1439,1138,2,0,0,0,712.236084
-481,-1073,3,0,0,0,820.767090
945,-418,4,1,0,19,58.040565
224,887,1,0,0,0,912.229004
-976,1025,2,0,0,0,786.679077
-1462,-286,3,0,0,0,752.803223
729,-524,4,1,0,19,58.040565
774,365,1,0,0,0,931.466431
-612,1702,2,1,0,17,125.221642
-1415,-1139,3,1,0,4,119.872543
61,-1204,4,1,0,4,119.872543
1066,1407,1,0,0,0,723.283081
-1939,1010,2,0,0,0,662.068542
-190,-1902,3,1,0,4,119.872543
275,-1058,4,0,0,0,841.748779
548,1906,1,0,0,0,689.935974
-1841,1426,2,0,0,0,644.058289
-478,-61,3,0,0,0,1077.760986
1165,-352,4,0,0,0,810.879761
343,1194,1,1,0,17,125.221642
-557,994,2,1,0,13,226.381226
-19,-1659,3,0,0,0,721.915833
1114,-1492,4,1,0,19,58.040565
269,1901,1,0,0,0,699.216187
-1806,800,2,0,0,0,691.086548
-1341,-1591,3,0,0,0,657.129089
230,-1050,4,0,0,0,846.595337
52,964,1,0,0,0,896.738831
-5,1567,2,0,0,0,757.446777
-512,-1970,3,0,0,0,663.416504
945,-884,4,0,0,0,793.246277
1989,516,1,1,0,19,58.040565
-1477,1991,2,0,0,0,626.226746
-1021,-198,3,1,0,9,129.737717
749,-191,4,0,0,0,941.540649
186,919,1,0,0,0,905.143372
-1244,203,2,0,0,0,819.993164
-588,-1750,3,1,0,4,119.872543
1377,-485,4,0,0,0,758.601746
1025,780,1,0,0,0,813.770020
-581,1137,2,0,0,0,816.278381
-1441,-1275,3,0,0,0,679.496399
1486,-1282,4,1,0,19,58.040565
338,442,1,1,0,13,149.308670
-1630,291,2,0,0,0,741.636719
-1403,-50,3,1,0,9,129.737717
1708,-925,4,1,0,19,58.040565
232,1982,1,0,0,0,688.164490
-1387,331,2,0,0,0,784.534607
-598,-1743,3,0,0,0,691.854675
1329,-697,4,1,0,19,58.040565
682,1539,1,0,0,0,736.899841
-628,1038,2,1,0,13,215.210815
-1964,-1158,3,1,0,4,119.872543
740,-1898,4,1,0,19,58.040565
898,496,1,1,0,19,58.040565
-1821,404,2,0,0,0,707.486511
-1361,-141,3,0,0,0,777.213745
1785,-1815,4,0,0,0,599.693359
1237,234,1,0,0,0,820.339233
-728,815,2,0,0,0,861.054504
-1670,-1587,3,1,0,4,119.872543
409,-99,4,0,0,0,1116.839600
178,226,1,1,0,0,319.409912
-215,657,2,0,0,0,992.968201
-1639,-1275,3,1,0,4,119.872543
49,-1879,4,0,0,0,686.180664
953,1545,1,1,0,17,125.221642
-1049,1687,2,1,0,17,125.221642
-371,-1649,3,0,0,0,716.591919
401,-1371,4,0,0,0,764.858643
16,861,1,1,0,13,231.520386
-610,1059,2,1,0,13,220.227127
-11,-1572,3,0,0,0,737.371155
810,-375,4,0,0,0,900.092590
410,766,1,0,0,0,927.096924
-1151,360,2,1,0,9,129.737717
-781,-470,3,1,0,4,119.872543
820,-1107,4,1,0,19,58.040565
1704,240,1,0,0,0,730.586060
-1938,875,2,0,0,0,670.005676
-869,-1207,3,1,0,4,119.872543
653,-510,4,0,0,0,921.533936
1234,1927,1,0,0,0,649.055237
-793,438,2,0,0,0,915.053162
-893,-1744,3,1,0,4,119.872543
1345,-1244,4,1,0,19,58.040565
1861,1384,1,1,0,17,125.221642
-496,394,2,0,0,0,1018.156494
-1447,-1810,3,0,0,0,626.425598
1146,-1970,4,1,0,19,58.040565
1551,1549,1,1,0,17,125.221642
-652,1609,2,0,0,0,728.054199
-77,-1393,3,1,0,4,119.872543
1120,-1286,4,0,0,0,714.039795
904,1942,1,1,0,17,125.221642
-975,1685,2,0,0,0,695.245911
-9,-1540,3,0,0,0,743.272461
788,-651,4,0,0,0,861.080322
352,866,1,1,0,13,183.033600
-1520,1709,2,0,0,0,649.191589
-868,-198,3,1,0,9,129.737717
681,-809,4,1,0,19,58.040565
1309,133,1,0,0,0,807.651123
-1518,239,2,0,0,0,763.053345
-1009,-1913,3,0,0,0,646.094421
1305,-1189,4,1,0,19,58.040565
1279,260,1,0,0,0,809.971985
-1219,1785,2,0,0,0,665.321167
-1722,-1260,3,0,0,0,649.951233
807,-1414,4,1,0,19,58.040565
305,1469,1,0,0,0,769.930420
-291,559,2,0,0,0,1019.633545
-1146,-1952,3,1,0,4,119.872543
510,-343,4,0,0,0,1007.609802
972,161,1,0,0,0,890.880249
-1001,1743,2,0,0,0,686.099487
-545,-535,3,1,0,4,119.872543
334,-1488,4,1,0,19,58.040565
1187,120,1,0,0,0,835.799744
-1236,744,2,1,0,9,129.737717
-1581,-1632,3,0,0,0,632.022278
1541,-1468,4,0,0,0,650.679626
658,292,1,0,0,0,981.285095
-1872,585,2,1,0,9,129.737717
-1296,-1412,3,0,0,0,680.610840
1200,-590,4,0,0,0,783.814941
1090,962,1,1,0,17,125.221642
-365,455,2,0,0,0,1041.929077
-915,-1162,3,0,0,0,754.872314
489,-1267,4,1,0,19,58.040565
1287,1035,1,0,0,0,742.370178
-1270,1922,2,0,0,0,647.136597
-1222,-692,3,1,0,4,119.872543
1641,-1984,4,0,0,0,596.472717
1530,1329,1,1,0,17,125.221642
-1829,442,2,0,0,0,704.983887
-1614,-1382,3,1,0,4,119.872543
1578,-1566,4,0,0,0,638.243164
1475,356,1,0,0,0,766.690796
-392,62,2,0,0,0,1152.989502
-517,-556,3,0,0,0,946.709534
164,-976,4,1,0,19,58.040565
545,347,1,0,0,0,1012.457764
-1103,1939,2,0,0,0,656.315857
-508,-90,3,1,0,9,129.737717
1348,-1562,4,0,0,0,659.543762
1077,635,1,0,0,0,822.328125
-1871,544,2,0,0,0,694.992249
-368,-603,3,0,0,0,967.481995
1062,-100,4,0,0,0,848.798096
1574,1288,1,1,0,17,125.221642
-702,1455,2,1,0,17,125.221642
-474,-1739,3,0,0,0,698.181458
1342,-1556,4,1,0,19,58.040565
1252,273,1,0,0,0,815.250000
-997,1811,2,1,0,17,125.221642
-1560,-962,3,0,0,0,693.405518
873,-1872,4,0,0,0,659.223206
1331,1700,1,1,0,17,125.221642
-1351,1410,2,0,0,0,694.363281
-1388,-1973,3,1,0,4,119.872543
1521,-795,4,0,0,0,712.215698
1672,919,1,0,0,0,701.014404
-95,762,2,0,0,0,962.675354
-1845,-1353,3,1,0,4,119.872543
926,-1211,4,0,0,0,746.185730
1430,1503,1,0,0,0,677.053284
-1492,230,2,0,0,0,768.157104
-390,-1634,3,0,0,0,718.347168
162,-742,4,1,0,19,58.040565
308,874,1,0,0,0,908.526855
-1878,790,2,1,0,9,129.737717
-1474,-87,3,1,0,9,129.737717
1657,-653,4,0,0,0,701.603088
1090,1873,1,0,0,0,664.587952
-1886,788,2,0,0,0,681.300049
-720,-413,3,0,0,0,921.018555
498,-1932,4,1,0,19,58.040565
249,1930,1,1,0,17,125.221642
-1386,905,2,1,0,9,129.737717
-544,-1982,3,1,0,4,119.872543
1224,-1937,4,0,0,0,629.637451
633,1137,1,0,0,0,810.816895
-1025,1631,2,0,0,0,698.263184
-408,-56,3,0,0,0,1123.065308
1750,-1528,4,0,0,0,625.701233
1014,577,1,1,0,19,58.040565
-1150,1864,2,0,0,0,661.556274
-1114,-1935,3,0,0,0,637.014771
1269,-1033,4,0,0,0,725.885193
1481,1108,1,1,0,17,125.221642
-1062,1347,2,0,0,0,731.507080
-265,-1467,3,0,0,0,752.604614
1376,-1018,4,0,0,0,712.984436
1399,1537,1,0,0,0,676.533997
-1928,770,2,0,0,0,676.848145
-1659,-773,3,0,0,0,693.799438
1346,-487,4,1,0,19,58.040565
948,801,1,0,0,0,824.445374
-160,44,2,0,0,0,1404.552734
-1495,-1735,3,1,0,4,119.872543
1015,-1640,4,0,0,0,678.813782
679,1538,1,1,0,17,125.221642
-115,639,2,0,0,0,1011.044861
-1725,-629,3,0,0,0,692.885986
81,-1442,4,0,0,0,761.693970
551,495,1,0,0,0,973.070801
-292,995,2,1,0,13,292.824890
-1078,-284,3,0,0,0,836.112854
1050,-1455,4,1,0,19,58.040565
286,1388,1,0,0,0,786.311096
-1203,448,2,0,0,0,814.736023
-254,-1664,3,1,0,4,119.872543
1618,-1491,4,1,0,19,58.040565
1036,901,1,1,0,17,125.221642
-1667,799,2,0,0,0,710.060181
-394,-1626,3,0,0,0,719.516907
1312,-1198,4,0,0,0,702.304749
1386,613,1,0,0,0,767.040100
-1043,824,2,0,0,0,804.720947
-1833,-1611,3,0,0,0,611.704285
1165,-156,4,1,0,19,58.040565
132,441,1,0,0,0,1110.207153
-1515,965,2,0,0,0,718.292053
-1829,-1131,3,0,0,0,647.727722
1812,-1233,4,0,0,0,642.304443
1620,1100,1,1,0,17,125.221642
-1910,1141,2,0,0,0,657.073669
-1043,-422,3,0,0,0,833.453552
515,-85,4,1,0,19,58.040565
172,691,1,0,0,0,984.423279
-1442,1992,2,0,0,0,628.520264
-1364,-1814,3,1,0,4,119.872543
711,-198,4,1,0,19,58.040565
1674,1384,1,1,0,17,125.221642
-1490,1413,2,1,0,9,129.737717
-613,-1109,3,0,0,0,799.277771
679,-1562,4,1,0,19,58.040565
1840,32,1,0,0,0,711.351135
-660,597,2,1,0,9,129.737717
-925,-1023,3,0,0,0,774.934692
1907,-1877,4,1,0,19,58.040565
913,757,1,1,0,13,124.598663
-935,1131,2,0,0,0,776.295410
-1485,-1298,3,0,0,0,672.419006
1764,-592,4,1,0,19,58.040565
1608,237,1,1,0,19,58.040565
-1130,1831,2,1,0,17,125.221642
-246,-728,3,1,0,4,119.872543
970,-419,4,0,0,0,851.527527
67,154,1,0,0,0,1401.089600
-1447,1595,2,0,0,0,666.375061
-1313,-1936,3,0,0,0,623.742371
1231,-226,4,0,0,0,802.830872
1934,665,1,0,0,0,681.141357
-697,1577,2,0,0,0,730.029480
-321,-1111,3,1,0,4,119.872543
1210,-1071,4,1,0,19,58.040565
1082,139,1,0,0,0,861.557068
-420,1329,2,0,0,0,791.089294
-1731,-547,3,0,0,0,696.135620
1654,-131,4,1,0,19,58.040565
1781,593,1,1,0,19,58.040565
-1947,477,2,1,0,9,129.737717
-1802,-189,3,0,0,0,696.685730
539,-310,4,1,0,19,58.040565
532,451,1,1,0,13,137.812424
-1466,1664,2,0,0,0,657.997559
-189,-1362,3,0,0,0,775.796936
226,-490,4,1,0,19,58.040565
601,109,1,1,0,19,58.040565
-913,475,2,0,0,0,878.321655
-926,-679,3,0,0,0,827.600586
1744,-276,4,1,0,19,58.040565
779,1075,1,0,0,0,805.075928
-1606,768,2,1,0,9,129.737717
-1444,-625,3,0,0,0,737.112915
1633,-845,4,0,0,0,692.485535
1150,665,1,0,0,0,804.891846
-1888,1187,2,1,0,9,129.737717
-1886,-829,3,0,0,0,659.970703
394,-1768,4,1,0,19,58.040565
1344,71,1,1,0,19,58.040565
-1459,754,2,0,0,0,743.977783
-918,-1602,3,1,0,4,119.872543
973,-1230,4,1,0,19,58.040565
314,1336,1,1,0,17,125.221642
-99,597,2,0,0,0,1031.329468
-1493,-1946,3,0,0,0,610.261108
561,-629,4,0,0,0,916.614685
1032,1162,1,1,0,17,125.221642
-982,1312,2,1,0,13,161.353592
-1877,-1483,3,1,0,4,119.872543
1466,-1250,4,1,0,19,58.040565
1332,1849,1,0,0,0,650.233215
-780,1530,2,1,0,17,125.221642
-617,-26,3,1,0,9,129.737717
1854,-1347,4,0,0,0,629.594910
1635,1206,1,0,0,0,683.031372
-588,332,2,0,0,0,999.731201
-766,-455,3,0,0,0,900.625549
527,-774,4,0,0,0,886.303406
452,1554,1,0,0,0,748.185974
-1863,1528,2,0,0,0,634.334778
-334,-56,3,1,0,0,242.553375
1337,-1959,4,1,0,19,58.040565
441,1247,1,0,0,0,806.138184
-1540,1947,2,1,0,17,125.221642
-587,-138,3,1,0,9,129.737717
834,-1295,4,0,0,0,743.218018
1575,1530,1,1,0,17,125.221642
-1384,255,2,0,0,0,788.317627
-475,-246,3,0,0,0,1047.647461
533,-564,4,0,0,0,940.411194
1656,1873,1,0,0,0,623.818176
-183,364,2,0,0,0,1145.429443
-512,-1155,3,0,0,0,800.128784
393,-1700,4,0,0,0,707.481995
850,1902,1,0,0,0,675.856018
-811,1858,2,1,0,17,125.221642
-375,-1254,3,0,0,0,789.966919
237,-1611,4,0,0,0,727.281616
177,1549,1,1,0,17,125.221642
-608,593,2,0,0,0,933.644104
-1488,-1144,3,0,0,0,686.592712
1853,-1224,4,1,0,19,58.040565
0,561,1,0,0,0,1053.173340
-554,1094,2,0,0,0,827.898926
-471,-1671,3,0,0,0,708.917480
1940,-1680,4,0,0,0,597.399475
1582,1811,1,0,0,0,634.903015
-923,541,2,0,0,0,867.159058
-1262,-729,3,1,0,4,119.872543
750,-335,4,0,0,0,924.027466
548,913,1,0,0,0,868.515442
-1144,619,2,0,0,0,810.949524
-1628,-1433,3,0,0,0,645.297180
831,-281,4,1,0,19,58.040565
1634,657,1,1,0,19,58.040565
-1850,210,2,1,0,9,129.737717
-1165,-1171,3,0,0,0,723.179871
1020,-690,4,0,0,0,807.487549
471,96,1,0,0,0,1097.729980
-325,1082,2,1,0,13,317.294739
-673,-989,3,0,0,0,815.824524
1535,-1512,4,0,0,0,647.174438
926,149,1,0,0,0,905.058105
-569,1141,2,1,0,13,233.264023
-1828,-1459,3,0,0,0,623.789368
1426,-1227,4,0,0,0,685.939453
73,1823,1,0,0,0,713.824158
-154,1817,2,1,0,17,125.221642
-1057,-1406,3,0,0,0,705.166199
97,-123,4,1,0,0,549.768738
1662,1912,1,1,0,17,125.221642
-881,74,2,1,0,9,129.737717
-961,-1075,3,1,0,4,119.872543
213,-560,4,0,0,0,1014.959839
905,476,1,0,0,0,880.180786
-1883,511,2,0,0,0,694.606873
-140,-575,3,1,0,4,119.872543
771,-1960,4,1,0,19,58.040565
1594,94,1,0,0,0,752.047058
-124,830,2,1,0,13,239.004959
-1198,-1736,3,0,0,0,653.248108
1506,-1047,4,0,0,0,693.184082
887,624,1,0,0,0,863.247803
-1678,1291,2,0,0,0,671.246704
-1434,-1983,3,1,0,4,119.872543
1876,-1695,4,1,0,19,58.040565
311,1659,1,0,0,0,736.124939
-788,97,2,0,0,0,953.062439
-614,-1572,3,0,0,0,717.027100
834,-1245,4,0,0,0,751.110168
1225,789,1,0,0,0,778.326355
-1978,1689,2,0,0,0,612.558350
-1868,-188,3,1,0,9,129.737717
1610,-825,4,0,0,0,697.130981
115,1456,1,0,0,0,777.650696
-910,1019,2,1,0,9,129.737717
-868,-980,3,1,0,4,119.872543
216,-1183,4,0,0,0,814.316040
1966,753,1,0,0,0,672.856140
-747,62,2,0,0,0,969.637939
-1438,-1883,3,1,0,4,119.872543
1126,-1367,4,0,0,0,703.213928
571,1993,1,0,0,0,677.246643
-1522,1870,2,1,0,17,125.221642
-1776,-1764,3,0,0,0,604.476501
401,-1754,4,0,0,0,698.688110
1593,1030,1,0,0,0,702.659607
-1154,1620,2,0,0,0,689.102600
-989,-212,3,0,0,0,864.097961
725,-365,4,0,0,0,927.456970
1128,1341,1,0,0,0,725.383606
-1962,45,2,0,0,0,692.937988
-201,-18,3,1,0,0,443.723419
601,-812,4,0,0,0,864.452942
1605,1688,1,1,0,17,125.221642
-267,1331,2,1,0,17,125.221642
-1677,-194,3,0,0,0,716.937256
1331,-1545,4,1,0,19,58.040565
1458,954,1,1,0,17,125.221642
-1653,1034,2,1,0,9,129.737717
-690,-111,3,0,0,0,970.579102
1208,-1575,4,1,0,19,58.040565
839,1392,1,0,0,0,746.966187
-1885,1987,2,0,0,0,597.880615
-860,-1030,3,0,0,0,782.822510
125,-1110,4,1,0,4,119.872543
615,1546,1,1,0,17,125.221642
-867,413,2,1,0,9,129.737717
-1467,-947,3,0,0,0,707.272949
488,-833,4,1,0,19,58.040565
991,1421,1,0,0,0,728.657532
-810,16,2,0,0,0,947.238464
-1608,-1723,3,1,0,4,119.872543
1158,-691,4,0,0,0,781.397888
1080,487,1,1,0,19,58.040565
-373,1403,2,1,0,17,125.221642
-771,-1707,3,0,0,0,687.186279
1166,-480,4,0,0,0,800.689209
624,1329,1,0,0,0,776.146851
-917,382,2,1,0,9,129.737717
-1121,-1281,3,1,0,4,119.872543
540,-846,4,1,0,19,58.040565
137,313,1,0,0,0,1196.191895
-1969,1065,2,1,0,9,129.737717
-901,-50,3,0,0,0,896.950500
1371,-1847,4,0,0,0,628.532043
727,187,1,0,0,0,969.216675
-1701,363,2,0,0,0,727.523132
-564,-1172,3,0,0,0,791.778076
1799,-1761,4,0,0,0,602.861206
637,1974,1,1,0,17,125.221642
-1304,255,2,0,0,0,804.833557
-616,-1943,3,0,0,0,663.015320
1774,-1695,4,0,0,0,610.163696
716,1751,1,0,0,0,703.453369
-1039,738,2,0,0,0,816.822876
-420,-374,3,1,0,4,119.872543
1798,-80,4,0,0,0,698.604614
1448,148,1,0,0,0,778.633606
-1233,362,2,0,0,0,814.438049
-1138,-1614,3,0,0,0,672.051514
977,-1187,4,0,0,0,743.768127
1076,273,1,1,0,19,58.040565
-1765,1083,2,0,0,0,677.578674
-230,-1959,3,1,0,4,119.872543
1551,-884,4,1,0,19,58.040565
919,598,1,0,0,0,860.098938
-1319,951,2,1,0,9,129.737717
-1622,-199,3,1,0,9,129.737717
264,-1755,4,0,0,0,702.614624
254,1399,1,0,0,0,785.357483
-1799,22,2,0,0,0,717.829224
-1184,-71,3,1,0,9,129.737717
838,-666,4,1,0,19,58.040565
930,1372,1,0,0,0,741.338623
-61,1092,2,1,0,13,313.320496
-203,-1978,3,0,0,0,670.099304
1867,-272,4,1,0,19,58.040565
1088,1078,1,0,0,0,764.005798
-1561,1599,2,1,0,13,108.273659
-1790,-1160,3,0,0,0,650.050964
885,-1930,4,0,0,0,651.360901
1093,948,1,0,0,0,780.356079
-1563,1831,2,0,0,0,634.581116
-373,-1518,3,1,0,4,119.872543
258,-1307,4,0,0,0,784.886353
555,643,1,0,0,0,933.612000
-1902,728,2,1,0,9,129.737717
-768,-757,3,1,0,4,119.872543
1914,-1522,4,1,0,19,58.040565
1992,653,1,1,0,19,58.040565
-494,1723,2,0,0,0,718.900940
-270,-635,3,0,0,0,974.253235
728,-596,4,0,0,0,884.931458
288,875,1,1,0,13,192.425705
-630,1374,2,0,0,0,767.791382
-734,-150,3,0,0,0,950.551453
1019,-376,4,1,0,19,58.040565
1909,17,1,0,0,0,700.840393
-77,1987,2,0,0,0,689.175720
-376,-450,3,0,0,0,1021.151672
1032,-153,4,0,0,0,855.185669
1023,1312,1,0,0,0,740.267822
-1965,1370,2,0,0,0,635.999512
-1742,-365,3,1,0,9,129.737717
930,-1539,4,0,0,0,698.860352
101,1513,1,1,0,17,125.221642
-988,562,2,1,0,9,129.737717
-1719,-808,3,0,0,0,683.185120
1487,-1654,4,0,0,0,638.114990
1942,412,1,1,0,19,58.040565
-1610,673,2,0,0,0,726.585388
-1898,-917,3,0,0,0,653.428101
1683,-1132,4,0,0,0,664.424377
384,149,1,1,0,0,191.740417
-99,1650,2,0,0,0,742.122986
-322,-1732,3,0,0,0,704.730835
773,-1786,4,0,0,0,676.242920
261,1144,1,0,0,0,840.578491
-1275,59,2,1,0,9,129.737717
-1204,-51,3,0,0,0,813.713745
1672,-887,4,1,0,19,58.040565
1284,1648,1,0,0,0,675.052979
-1615,541,2,0,0,0,733.536072
-1195,-1270,3,0,0,0,707.647766
1951,-725,4,1,0,19,58.040565
1062,1194,1,1,0,17,125.221642
-808,803,2,0,0,0,849.099365
-682,-146,3,0,0,0,971.164612
28,-1677,4,0,0,0,718.802002
1723,1664,1,0,0,0,636.012024
-1684,139,2,1,0,9,129.737717
-73,-1222,3,0,0,0,809.192932
31,-1891,4,0,0,0,684.418396
1920,420,1,1,0,19,58.040565
-150,85,2,1,0,0,528.065491
-1397,-902,3,0,0,0,721.262817
1004,-515,4,1,0,19,58.040565
1032,1750,1,0,0,0,683.036133
-608,1922,2,0,0,0,685.263062
-1065,-1894,3,0,0,0,644.765015
299,-480,4,0,0,0,1031.614380
504,1158,1,0,0,0,819.429932
-521,1362,2,0,0,0,778.100769
-1902,-524,3,1,0,9,129.737717
171,-1217,4,0,0,0,808.073303
690,659,1,0,0,0,900.118164
-1666,613,2,0,0,0,721.667908
-1589,-1464,3,0,0,0,646.382568
1030,-1016,4,1,0,19,58.040565
891,1910,1,0,0,0,672.540039
-869,321,2,0,0,0,908.617126
-192,-21,3,1,0,0,461.881927
1210,-929,4,0,0,0,745.991943
315,400,1,1,0,13,147.183365
-583,526,2,1,0,9,129.737717
-801,-1765,3,0,0,0,677.398804
1846,-1796,4,0,0,0,596.382935
1599,665,1,1,0,19,58.040565
-1821,310,2,1,0,9,129.737717
-1392,-1290,3,1,0,4,119.872543
1154,-1837,4,1,0,19,58.040565
1844,1311,1,0,0,0,652.280151
-599,249,2,1,0,9,129.737717
-274,-520,3,0,0,0,1020.482422
1992,-1625,4,0,0,0,596.911133
687,264,1,0,0,0,974.910889
-36,1096,2,0,0,0,860.057495
-1359,-351,3,1,0,9,129.737717
1978,-1585,4,1,0,19,58.040565
806,278,1,0,0,0,932.528687
-1185,465,2,1,0,9,129.737717
-1807,-1752,3,0,0,0,602.923096
1269,-337,4,1,0,19,58.040565
1746,864,1,0,0,0,695.051086
-248,1973,2,0,0,0,689.170715
-1917,-1932,3,1,0,4,119.872543
1768,-1369,4,0,0,0,636.593628
1988,430,1,0,0,0,682.706543
-1985,1899,2,0,0,0,597.030579
-1963,-1207,3,1,0,4,119.872543
809,-819,4,1,0,19,58.040565
1628,954,1,0,0,0,704.181519
-490,1461,2,0,0,0,762.254761
-130,-1188,3,0,0,0,816.106628
765,-852,4,1,0,19,58.040565
1743,9,1,1,0,19,58.040565
-1472,1860,2,1,0,17,125.221642
-1544,-1039,3,1,0,4,119.872543
663,-713,4,0,0,0,875.074951
374,909,1,0,0,0,891.556580
-1822,1423,2,1,0,9,129.737717
-159,-745,3,0,0,0,945.742737
1674,-362,4,1,0,19,58.040565
1866,150,1,1,0,19,58.040565
-1842,292,2,0,0,0,707.529053
-1562,-804,3,1,0,4,119.872543
808,-338,4,0,0,0,905.547119
265,1980,1,0,0,0,687.860168
-1678,1080,2,0,0,0,688.166748
-254,-566,3,1,0,4,119.872543
1533,-372,4,1,0,19,58.040565
1192,100,1,0,0,0,835.044556
-1652,1,2,0,0,0,742.290771
-1595,-272,3,0,0,0,729.103027
432,-1571,4,0,0,0,727.109924
1488,1840,1,0,0,0,639.479004
-1173,1732,2,0,0,0,674.686890
-475,-1485,3,0,0,0,739.738281
337,-1586,4,0,0,0,728.504456
557,1945,1,0,0,0,684.227722
-44,1508,2,1,0,17,125.221642
-575,-1162,3,0,0,0,792.699341
97,-1419,4,0,0,0,766.093079
1468,1743,1,1,0,17,125.221642
-1288,104,2,0,0,0,812.842712
-1249,-1229,3,1,0,4,119.872543
1021,-250,4,1,0,19,58.040565
1555,673,1,0,0,0,735.024170
-705,1292,2,1,0,13,201.199295
-1281,-1162,3,1,0,4,119.872543
1300,-1602,4,0,0,0,659.561829
889,704,1,1,0,13,124.798752
-577,1555,2,0,0,0,741.147156
-393,-1370,3,0,0,0,765.499695
1672,-172,4,1,0,19,58.040565
1249,215,1,1,0,19,58.040565
-217,414,2,1,0,13,165.985626
-1197,-220,3,0,0,0,810.871948
1083,-108,4,0,0,0,843.010498
590,945,1,0,0,0,855.509705
-1340,1855,2,1,0,17,125.221642
-1126,-1255,3,0,0,0,717.292847
1752,-1711,4,1,0,19,58.040565
1007,278,1,0,0,0,874.019043
-1551,17,2,0,0,0,760.377014
-622,-1714,3,1,0,4,119.872543
853,-303,4,0,0,0,896.048828
1038,1160,1,0,0,0,759.357117
-388,1416,2,1,0,17,125.221642
-1302,-1161,3,1,0,4,119.872543
1592,-656,4,0,0,0,711.278687
230,1265,1,0,0,0,814.282227
-639,1486,2,0,0,0,748.334167
-860,-1689,3,1,0,4,119.872543
1873,-915,4,1,0,19,58.040565
1118,835,1,1,0,17,125.221642
-673,610,2,0,0,0,914.294128
-1952,-182,3,1,0,9,129.737717
834,-1762,4,1,0,19,58.040565
1327,1268,1,0,0,0,712.109009
-459,1502,2,1,0,17,125.221642
-777,-1733,3,0,0,0,683.217041
232,-414,4,1,0,0,137.234100
629,461,1,0,0,0,958.226013
-782,1079,2,1,0,13,189.368988
-1701,-1461,3,0,0,0,635.799500
867,-1461,4,1,0,19,58.040565
1124,291,1,1,0,19,58.040565
-885,836,2,1,0,9,129.737717
-130,-1054,3,1,0,4,119.872543
1860,-1932,4,0,0,0,584.906982
1806,259,1,0,0,0,713.821655
-291,837,2,1,0,13,239.874664
-1968,-306,3,1,0,9,129.737717
911,-1155,4,1,0,19,58.040565
269,1198,1,1,0,17,125.221642
-1119,1002,2,1,0,9,129.737717
-363,-18,3,1,0,0,218.187592
335,-978,4,1,0,19,58.040565
1199,1736,1,1,0,17,125.221642
-1279,557,2,0,0,0,790.834351
-1103,-934,3,0,0,0,761.484924
1322,-1227,4,0,0,0,697.986877
1791,23,1,0,0,0,719.104309
-841,1292,2,0,0,0,762.138245
-736,-81,3,1,0,9,129.737717
376,-1903,4,0,0,0,677.172302
431,319,1,0,0,0,1066.205078
-502,978,2,1,0,13,236.460312
-679,-1375,3,0,0,0,744.488037
472,-671,4,1,0,19,58.040565
1722,725,1,1,0,19,58.040565
-918,1769,2,0,0,0,688.526367
-1102,-1885,3,1,0,4,119.872543
1488,-595,4,0,0,0,731.858643
560,174,1,0,0,0,1040.400879
-1133,245,2,0,0,0,844.083557
-232,-648,3,0,0,0,974.980530
1450,-1337,4,0,0,0,672.417542
997,189,1,0,0,0,882.382568
-247,251,2,0,0,0,1187.475952
-1906,-122,3,0,0,0,681.612549
104,-348,4,1,0,0,218.408951
1803,51,1,0,0,0,717.099792
-365,186,2,0,0,0,1143.842896
-1655,-223,3,0,0,0,720.047974
1908,-1509,4,1,0,19,58.040565
46,1543,1,1,0,17,125.221642
-1960,724,2,1,0,9,129.737717
-1716,-1855,3,1,0,4,119.872543
1892,-257,4,0,0,0,681.691162
882,663,1,0,0,0,858.275879
-1274,1488,2,0,0,0,693.468384
-1690,-1662,3,0,0,0,619.987305
1312,-1638,4,0,0,0,654.683228
951,1129,1,1,0,17,125.221642
-293,200,2,1,0,0,241.882355
-66,-107,3,0,0,0,1465.379150
629,-1679,4,0,0,0,699.692444
334,1313,1,0,0,0,799.238892
-1191,34,2,0,0,0,836.177490
-922,-1835,3,0,0,0,660.879456
1492,-1354,4,1,0,19,58.040565
1338,1491,1,0,0,0,687.048828
-664,1826,2,0,0,0,695.801270
-76,-870,3,0,0,0,906.381653
1665,-1502,4,1,0,19,58.040565
890,1267,1,1,0,17,125.221642
-745,218,2,0,0,0,959.561951
-1178,-1246,3,0,0,0,712.472107
1166,-1505,4,1,0,19,58.040565
205,1359,1,1,0,17,125.221642
-534,401,2,1,0,9,129.737717
-1665,-1460,3,1,0,4,119.872543
517,-529,4,0,0,0,954.223877
1698,1678,1,0,0,0,636.977478
-1777,1922,2,1,0,17,125.221642
-1903,-1480,3,1,0,4,119.872543
1795,-1888,4,0,0,0,593.141052
1665,449,1,1,0,19,58.040565
-776,1322,2,0,0,0,763.759155
-709,-1196,3,0,0,0,772.617493
987,-364,4,0,0,0,852.795532
1849,1125,1,1,0,17,125.221642
-1712,1800,2,0,0,0,625.640930
-456,-19,3,1,0,0,147.841370
1909,-260,4,1,0,19,58.040565
1013,811,1,0,0,0,811.631531
-227,975,2,0,0,0,886.290283
-1033,-1620,3,1,0,4,119.872543
1087,-304,4,0,0,0,832.541687
51,947,1,0,0,0,901.863770
-263,735,2,0,0,0,957.934448
-255,-1688,3,0,0,0,713.736084
324,-721,4,1,0,19,58.040565
121,1690,1,1,0,17,125.221642
-1595,1035,2,1,0,9,129.737717
-916,-1089,3,0,0,0,765.950867
1062,-1097,4,0,0,0,745.738708
1966,658,1,1,0,19,58.040565
-564,859,2,1,0,13,208.911057
-170,-1280,3,0,0,0,793.863892
694,-1179,4,1,0,19,58.040565
365,287,1,1,0,0,155.525421
-854,416,2,0,0,0,901.390442
-671,-438,3,0,0,0,931.169556
438,-1493,4,0,0,0,740.326782
1130,1239,1,0,0,0,737.998413
-1987,1359,2,0,0,0,634.593140
-693,-1407,3,0,0,0,738.034729
106,-1200,4,0,0,0,813.810669
52,504,1,0,0,0,1082.543091
-1284,789,2,0,0,0,768.648376
-1918,-753,3,1,0,4,119.872543
487,-1224,4,1,0,19,58.040565
580,1742,1,0,0,0,712.015137
-1168,1800,2,0,0,0,667.414307
-1680,-771,3,1,0,4,119.872543
1023,-247,4,0,0,0,852.682068
1950,869,1,1,0,19,58.040565
-90,734,2,1,0,13,214.837967
-1220,-1740,3,0,0,0,651.111755
1937,-93,4,1,0,19,58.040565
925,926,1,1,0,17,125.221642
-463,1477,2,0,0,0,760.974304
-644,-1655,3,0,0,0,702.431274
1232,-1618,4,0,0,0,663.668396
154,1141,1,0,0,0,846.036316
-477,1724,2,1,0,17,125.221642
-1896,-1134,3,0,0,0,640.033264
999,-1611,4,0,0,0,683.761169
1567,1432,1,1,0,17,125.221642
-1877,934,2,0,0,0,674.043884
-1505,-39,3,0,0,0,749.776794
569,-804,4,0,0,0,871.737061
1734,453,1,1,0,19,58.040565
-1002,1811,2,1,0,17,125.221642
-1606,-710,3,1,0,4,119.872543
1810,-1754,4,1,0,19,58.040565
265,1950,1,1,0,17,125.221642
-1880,990,2,0,0,0,670.226074
-634,-980,3,1,0,4,119.872543
1237,-1948,4,1,0,19,58.040565
1484,161,1,0,0,0,771.392822
-1126,545,2,0,0,0,822.167419
-35,-1938,3,1,0,4,119.872543
123,-322,4,0,0,0,1174.391602
345,1570,1,1,0,17,125.221642
-901,63,2,0,0,0,915.919434
-826,-1824,3,0,0,0,668.105408
246,-1773,4,0,0,0,700.166687
1495,636,1,1,0,19,58.040565
-1013,309,2,1,0,9,129.737717
-1663,-433,3,0,0,0,711.847107
1651,-1809,4,1,0,19,58.040565
1195,34,1,0,0,0,835.213867
-835,1049,2,0,0,0,802.237061
-1529,-97,3,1,0,9,129.737717
182,-499,4,0,0,0,1049.685303
1607,439,1,0,0,0,739.890198
-911,660,2,0,0,0,852.708862
-1665,-1103,3,1,0,4,119.872543
769,-175,4,1,0,19,58.040565
1135,1487,1,0,0,0,706.660156
-1079,1916,2,0,0,0,660.420410
-1242,-1434,3,0,0,0,683.538574
1595,-1370,4,0,0,0,654.148438
1577,436,1,0,0,0,745.054504
-998,333,2,0,0,0,871.981323
-1057,-1947,3,0,0,0,639.238342
380,-899,4,1,0,19,58.040565
1688,495,1,1,0,19,58.040565
-1801,1429,2,1,0,9,129.737717
-297,-555,3,0,0,0,1000.723694
529,-1629,4,0,0,0,712.799744
979,1858,1,0,0,0,673.553040
-18,1197,2,1,0,17,125.221642
-672,-1728,3,0,0,0,690.099304
1973,-1020,4,0,0,0,638.512146
1433,743,1,0,0,0,748.937561
-179,1367,2,0,0,0,794.222839
-691,-1193,3,0,0,0,775.042175
1447,-1303,4,1,0,19,58.040565
486,1630,1,0,0,0,733.922668
-377,732,2,1,0,13,210.173203
-907,-890,3,0,0,0,798.465637
168,-583,4,1,0,19,58.040565
194,279,1,0,0,0,1197.758301
-1076,1935,2,0,0,0,658.464539
-805,-854,3,1,0,4,119.872543
864,-1803,4,0,0,0,668.531860
671,1368,1,1,0,17,125.221642
-688,1281,2,1,0,13,204.725967
-1249,-1587,3,1,0,4,119.872543
1683,-1973,4,0,0,0,594.429993
504,519,1,0,0,0,979.860291
-1295,928,2,1,0,9,129.737717
-1363,-1207,3,0,0,0,695.310791
202,-1385,4,0,0,0,770.704224
549,1128,1,0,0,0,821.353333
-156,985,2,1,0,13,296.527557
-521,-464,3,1,0,4,119.872543
1722,-1933,4,1,0,19,58.040565
1075,1076,1,1,0,17,125.221642
-852,794,2,1,0,9,129.737717
-218,-848,3,0,0,0,905.637390
1559,-1105,4,0,0,0,681.464111
300,1543,1,0,0,0,756.553284
-635,1388,2,0,0,0,764.991760
-8,-594,3,0,0,0,1017.417603
839,-97,4,0,0,0,916.014282
1808,416,1,0,0,0,709.031677
-70,1218,2,0,0,0,829.372253
-278,-352,3,0,0,0,1098.435547
121,-1771,4,0,0,0,702.552734
317,1712,1,0,0,0,727.226746
-1551,339,2,0,0,0,753.697083
-1452,-566,3,1,0,4,119.872543
327,-935,4,0,0,0,870.117920
370,274,1,0,0,0,1110.158813
-1400,328,2,1,0,9,129.737717
-306,-954,3,0,0,0,866.840759
1009,-1128,4,0,0,0,748.270691
722,1181,1,0,0,0,793.069824
-71,1280,2,1,0,17,125.221642
-1206,-1500,3,1,0,4,119.872543
545,-823,4,0,0,0,871.118896
382,1661,1,0,0,0,733.341614
-913,830,2,1,0,9,129.737717
-1213,-1995,3,0,0,0,624.281067
777,-1631,4,0,0,0,697.517944
1414,1975,1,0,0,0,632.035034
-217,661,2,0,0,0,991.129395
-1510,-406,3,0,0,0,738.909668
1739,-139,4,1,0,19,58.040565
1157,1805,1,0,0,0,667.648682
-1199,267,2,1,0,9,129.737717
-908,-328,3,1,0,9,129.737717
406,-1993,4,1,0,19,58.040565
1740,854,1,0,0,0,696.494873
-561,478,2,0,0,0,974.501831
-192,-1294,3,1,0,4,119.872543
1024,-1714,4,1,0,19,58.040565
1794,1791,1,0,0,0,619.873535
-1630,821,2,0,0,0,713.726013
-311,-991,3,1,0,4,119.872543
607,-709,4,1,0,19,58.040565
1307,867,1,1,0,17,125.221642
-1049,1130,2,0,0,0,762.092590
-1905,-1965,3,0,0,0,579.153076
160,-166,4,1,0,0,389.310333
1042,1191,1,0,0,0,754.626770
-1725,138,2,1,0,9,129.737717
-1982,-1238,3,0,0,0,624.031494
1427,-669,4,1,0,19,58.040565
3,964,1,1,0,13,256.672028
-1485,1358,2,0,0,0,685.769348
-409,-1172,3,0,0,0,805.196594
388,-442,4,0,0,0,1020.302368
1272,704,1,1,0,19,58.040565
-452,260,2,0,0,0,1074.257690
-677,-849,3,1,0,4,119.872543
538,-785,4,0,0,0,881.640625
1211,448,1,0,0,0,813.061157
-1826,1192,2,0,0,0,662.807617
-1921,-1895,3,1,0,4,119.872543
1636,-1404,4,1,0,19,58.040565
1637,1739,1,1,0,17,125.221642
-778,528,2,0,0,0,904.341248
-1575,-1689,3,0,0,0,627.398193
350,-1119,4,0,0,0,821.604431
632,138,1,1,0,19,58.040565
-358,1946,2,1,0,17,125.221642
-561,-1425,3,1,0,4,119.872543
736,-989,4,1,0,19,58.040565
1936,749,1,0,0,0,676.881042
-99,970,2,0,0,0,893.878418
-71,-100,3,0,0,0,1472.526733
134,-339,4,0,0,0,1158.256592
750,1639,1,0,0,0,717.301941
-1601,1147,2,1,0,9,129.737717
-296,-839,3,1,0,4,119.872543
305,-191,4,1,0,0,221.535294
526,218,1,0,0,0,1048.895264
-842,99,2,1,0,9,129.737717
-1975,-1393,3,0,0,0,614.456360
526,-410,4,0,0,0,984.068359
1078,1537,1,0,0,0,705.638367
-251,729,2,0,0,0,961.513794
-416,-856,3,0,0,0,881.621155
1343,-1342,4,0,0,0,683.312500
370,734,1,0,0,0,943.063660
-1841,264,2,0,0,0,708.323730
-1502,-1270,3,0,0,0,673.197021
1158,-264,4,1,0,19,58.040565
1444,1065,1,0,0,0,718.607178
-227,64,2,0,0,0,1303.119873
-276,-1683,3,0,0,0,714.016663
1595,-749,4,0,0,0,704.660889
193,89,1,1,0,0,440.717407
-1374,1147,2,0,0,0,719.315491
-1092,-1789,3,0,0,0,655.053284
1498,-1930,4,0,0,0,611.377563
672,1272,1,0,0,0,781.997375
-1076,840,2,1,0,9,129.737717
-301,-1957,3,0,0,0,671.305664
1431,-437,4,0,0,0,751.548462
1800,1942,1,0,0,0,607.477478
-1873,87,2,0,0,0,705.994568
-743,-1613,3,0,0,0,702.428467
354,-1422,4,1,0,19,58.040565
475,395,1,0,0,0,1025.376343
-1945,454,2,0,0,0,687.913452
-532,-25,3,0,0,0,1048.908447
814,-95,4,0,0,0,924.691650
1639,1533,1,0,0,0,654.603210
-152,1417,2,0,0,0,784.699890
-1434,-512,3,0,0,0,746.525452
1575,-1,4,0,0,0,736.831299
1327,972,1,0,0,0,743.525452
-1145,468,2,0,0,0,825.405823
-1372,-1521,3,0,0,0,661.608704
1929,-1377,4,0,0,0,620.017273
591,1671,1,1,0,17,125.221642
-1196,1101,2,0,0,0,746.910278
-867,-430,3,0,0,0,876.808533
561,-508,4,1,0,19,58.040565
1934,625,1,1,0,19,58.040565
-655,1263,2,1,0,13,211.788025
-1680,-1839,3,0,0,0,605.879395
839,-1340,4,1,0,19,58.040565
1574,1353,1,1,0,17,125.221642
-1783,1259,2,0,0,0,662.536682
-758,-1788,3,0,0,0,676.841309
1397,-1108,4,0,0,0,701.277649
1341,1476,1,0,0,0,688.354736
-1877,1293,2,1,0,9,129.737717
-1996,-853,3,0,0,0,645.062683
435,-464,4,0,0,0,997.740601
1164,1030,1,0,0,0,759.787231
-189,174,2,1,0,0,363.779388
-1951,-1872,3,0,0,0,582.589172
1944,-1226,4,0,0,0,628.770203
1433,1304,1,1,0,17,125.221642
-1458,1350,2,0,0,0,689.386841
-1855,-798,3,1,0,4,119.872543
381,-1567,4,0,0,0,730.056702
16,52,1,0,0,0,1726.310059
-1960,363,2,1,0,9,129.737717
648,-1494,4,1,0,19,58.040565
1926,707,1,0,0,0,680.230042
-1715,1497,2,1,0,9,129.737717
1778,-1737,4,1,0,19,58.040565
519,358,1,0,0,0,1019.501892
-1397,152,2,0,0,0,788.736572
1188,-1735,4,0,0,0,654.127625
982,835,1,0,0,0,813.551575
-1606,975,2,0,0,0,705.419006
1504,-377,4,1,0,19,58.040565
381,1800,1,0,0,0,711.413025
-1388,513,2,1,0,9,129.737717
1197,-1445,4,1,0,19,58.040565
867,1842,1,0,0,0,682.443787
-1091,1841,2,0,0,0,668.181458
1237,-806,4,1,0,19,58.040565
365,1064,1,1,0,17,125.221642
-1576,221,2,0,0,0,753.010193
1618,-592,4,0,0,0,711.105347
1985,1735,1,0,0,0,608.717468
-1550,237,2,0,0,0,757.262512
593,-1751,4,1,0,19,58.040565
1209,1086,1,0,0,0,746.993958
-383,1684,2,0,0,0,729.557312
550,-327,4,1,0,19,58.040565
1795,83,1,1,0,19,58.040565
-1989,769,2,0,0,0,669.185913
1064,-1556,4,1,0,19,58.040565
10,334,1,0,0,0,1202.611816
-811,1086,2,1,0,13,185.055176
629,-936,4,0,0,0,832.795593
891,1590,1,0,0,0,714.111755
-1764,1757,2,0,0,0,625.001099
511,-1700,4,1,0,19,58.040565
721,902,1,0,0,0,845.187134
-1622,1845,2,0,0,0,628.815002
1811,-248,4,1,0,19,58.040565
-1538,1281,2,1,0,9,129.737717
1497,-172,4,0,0,0,749.520996
-256,1293,2,0,0,0,807.136047
1251,-55,4,0,0,0,802.685242
-1538,1581,2,1,0,13,109.965706
1386,-297,4,1,0,19,58.040565
-387,645,2,0,0,0,968.630676
1730,-1909,4,0,0,0,596.300598
-85,24,2,0,0,0,1586.505249
720,-1265,4,0,0,0,759.461487
-1713,1036,2,0,0,0,687.250854
573,-1899,4,0,0,0,670.793579
-649,1409,2,0,0,0,760.341675
1353,-1024,4,1,0,19,58.040565
-497,1090,2,0,0,0,834.618286
1442,-1948,4,0,0,0,613.655334
-52,940,2,0,0,0,903.977478
663,-1742,4,1,0,19,58.040565
-649,42,2,0,0,0,1010.560425
880,-1345,4,1,0,19,58.040565
-1419,1772,2,0,0,0,651.322083
18,-642,4,1,0,4,119.872543
1738,-623,4,0,0,0,691.302979
341,-270,4,1,0,0,161.537552
1285,-38,4,1,0,19,58.040565
1315,-1978,4,0,0,0,619.396790
782,-906,4,0,0,0,815.692932
1669,-578,4,0,0,0,703.988342
289,-462,4,0,0,0,1042.294556
523,-951,4,1,0,19,58.040565
1185,-1167,4,0,0,0,721.216248
1598,-753,4,0,0,0,703.943848
537,-1270,4,0,0,0,775.001526
128,-1124,4,0,0,0,831.891113
563,-1205,4,0,0,0,785.358215
1877,-733,4,0,0,0,666.294006
1148,-1391,4,0,0,0,698.005737
1475,-1604,4,1,0,19,58.040565
1085,-831,4,0,0,0,777.553040
59,-130,4,0,0,0,1428.696167
1376,-1427,4,1,0,19,58.040565


each generation good chromosome number
300,295,291,294,279,283,287,274,284,276,277,275,271,277,273,282,271,279,277,278,279,282,284,286,278,281,286,286,287,283,286,286,283,277,291,287,289,284,282,285,284,289,289,288,295,290,285,291,288,288,287,292,291,291,282,293,291,288,292,291,292,292,295,290,287,295,291,290,291,291,290,288,292,296,291,295,290,294,288,292,294,290,294,291,297,292,291,292,292,293,297,294,292,294,291,298,296,294,295,289,