mbs coordinate
0,0

cbsd coordinate and channel
-970,900,2
740,900,1
980,-860,1
-750,-850,5
-750,1000,4
1050,600,2
760,-1135,3
-870,-1100,1
-1080,450,1
970,530,3
540,-1000,2
-1200,-300,3
-200,1170,7
820,1255,4
930,-1080,6
-1115,-505,2
-180,1230,3
500,1150,8
1200,-450,10
-500,-1100,7
-650,980,9
1180,450,9
700,-1160,7
-1050,-900,8
-1200,820,10
1200,1000,11
1340,-1120,12
-1440,-1280,10
-1160,1350,13
1420,960,14

building coordinate
-885,985
-1055,815
830,810
650,990
1060,-860
900,-860
-830,-770
-670,-930
-668,1070
-832,930
965,675
1135,525
832,-1059
688,-1211
-965,-1035
-775,-1165
-1135,365
-1025,535
907,591
1033,469
638,-906
442,-1094
-1275,-390
-1125,-210
-298,1123
-102,1217
910,1206
730,1304
1005,-1005
855,-1155
-1178,-407
-1052,-603
-120,1290
-240,1170
410,1240
590,1060
1275,-375
1125,-525
-577,-1023
-423,-1177
-600,1070
-710,890
1135,535
1225,365
743,-1077
657,-1243
-1138,-855
-962,-945
-1100,866
-1300,774
1100,1100
1300,900
1440,-1020
1240,-1220
-1540,-1180
-1340,-1380
-1060,1450
-1260,1250
1320,1060
1520,860

area numbers
289,302,321,288

x , y , block , block number
area 1
1655,191,1,0
1641,1802,1,0
48,837,0,0
102,920,0,0
848,187,0,0
567,492,0,0
65,1205,0,0
168,604,0,0
773,444,0,0
1388,1119,0,0
1083,544,0,0
1319,733,0,0
447,1917,1,0
1099,1352,0,0
1696,1777,0,0
144,796,0,0
902,467,0,0
457,878,0,0
732,1590,0,0
1115,540,1,0
1636,430,0,0
1408,900,0,0
1561,210,0,0
758,117,0,0
632,122,0,0
928,287,0,0
508,1250,0,0
1744,275,0,0
776,532,0,0
1483,1813,0,0
400,965,0,0
1158,918,0,0
225,282,0,0
488,1885,0,0
1385,1240,0,0
1591,1616,1,0
625,1354,0,0
1919,385,0,0
10,237,0,0
626,925,0,0
885,1479,0,0
326,457,0,0
962,190,0,0
942,448,0,0
743,431,0,0
1441,130,0,0
207,489,0,0
1943,920,0,0
827,572,1,0
833,972,0,0
1918,732,0,0
294,1550,0,0
69,219,0,0
1196,826,1,0
1631,1674,0,0
512,712,0,0
1907,783,0,0
911,927,0,0
1713,1569,0,0
435,1893,0,0
1028,1658,0,0
1677,304,0,0
1635,1501,0,0
1704,288,0,0
1487,637,1,0
1283,329,0,0
802,1610,1,0
594,1669,0,0
232,785,0,0
1945,624,0,0
1505,1859,0,0
1800,1043,0,0
1257,1130,1,0
1498,1999,0,0
1203,783,0,0
481,281,0,0
57,1523,0,0
214,523,1,0
467,1486,0,0
1580,218,0,0
1742,1001,0,0
1501,1101,1,0
1402,190,0,0
747,1212,0,0
65,1330,0,0
388,664,0,0
813,400,0,0
1856,747,1,0
1656,1852,0,0
536,899,0,0
755,441,0,0
1677,246,0,0
562,480,0,0
978,1059,0,0
1586,273,0,0
824,1854,0,0
1897,1374,0,0
1181,872,1,0
23,1162,0,0
1853,1885,0,0
559,1434,0,0
385,1055,0,0
1060,1067,0,0
1190,705,0,0
1030,536,0,0
1966,553,0,0
1164,120,0,0
1378,222,0,0
1522,1278,0,0
108,1139,1,0
1926,1038,0,0
53,202,0,0
610,1206,0,0
1096,50,0,0
115,875,0,0
614,1603,0,0
1716,846,0,0
745,330,0,0
704,240,0,0
86,1293,1,0
722,1342,0,0
947,605,0,0
1072,1212,0,0
1618,992,0,0
201,1897,0,0
1485,624,0,0
1408,49,0,0
1837,1704,0,0
471,864,0,0
606,1989,0,0
1935,1320,0,0
118,1791,0,0
1278,245,0,0
1823,400,0,0
412,415,0,0
777,1122,0,0
1936,1710,0,0
1537,1766,0,0
1418,1059,0,0
248,93,0,0
1478,339,0,0
941,1029,0,0
829,1067,0,0
1419,245,0,0
1506,53,1,0
1336,713,0,0
1377,720,0,0
485,300,0,0
351,284,0,0
1190,1650,0,0
1684,463,0,0
561,742,0,0
246,1185,1,0
931,999,0,0
306,1194,0,0
368,1133,0,0
1737,1934,0,0
1171,254,0,0
616,844,0,0
21,34,0,0
1614,821,0,0
252,760,0,0
1145,1648,0,0
920,656,0,0
599,313,0,0
1961,1836,0,0
1904,1640,1,0
593,1577,0,0
328,603,0,0
220,1609,0,0
666,929,0,0
1941,257,0,0
1537,1848,1,0
813,1374,0,0
906,73,0,0
1501,504,0,0
73,422,0,0
293,694,0,0
1790,1889,0,0
596,1250,0,0
397,1831,0,0
940,1023,0,0
601,1020,0,0
412,1018,0,0
939,992,0,0
0,596,0,0
1413,1194,0,0
366,566,0,0
1650,402,0,0
50,189,0,0
1659,1306,0,0
1511,1363,0,0
942,1110,0,0
195,463,0,0
1256,1433,0,0
1658,1487,0,0
935,651,0,0
1,1808,0,0
1904,825,0,0
1209,321,0,0
1384,1106,0,0
1823,1306,0,0
1964,980,0,0
142,555,0,0
648,1455,0,0
1987,341,0,0
876,51,0,0
1118,293,0,0
1378,342,0,0
937,871,0,0
1747,233,0,0
694,696,0,0
1716,1290,0,0
667,995,0,0
292,66,1,0
1772,1098,0,0
1631,1172,0,0
1859,551,0,0
1907,292,0,0
1510,1158,0,0
73,448,0,0
375,1191,0,0
1245,1424,1,0
960,153,0,0
395,629,0,0
383,844,0,0
1118,200,0,0
1737,1805,0,0
1224,1493,0,0
1929,1975,0,0
1854,1093,0,0
452,830,1,0
300,1969,0,0
1815,1975,0,0
1430,44,0,0
1200,849,0,0
307,1436,0,0
921,1791,0,0
86,1343,0,0
433,1483,0,0
40,216,0,0
457,608,0,0
372,1322,0,0
1852,1815,0,0
1034,625,0,0
1258,695,0,0
70,124,0,0
1009,873,0,0
1892,1116,0,0
880,1798,0,0
806,896,0,0
1075,492,1,0
1508,1744,0,0
482,795,0,0
1568,1605,0,0
1283,1137,0,0
36,383,0,0
1894,492,0,0
1418,159,0,0
634,1016,0,0
246,1349,0,0
256,671,0,0
1494,394,0,0
115,50,0,0
1098,405,0,0
1143,695,0,0
923,542,0,0
882,1119,0,0
621,1714,0,0
543,1267,0,0
333,835,1,0
429,111,0,0
481,1514,0,0
73,150,0,0
718,558,0,0
1663,819,0,0
1509,1143,0,0
591,629,0,0
800,1248,0,0
582,1575,0,0
255,529,0,0
1302,1898,0,0
851,489,0,0
11,910,0,0
1110,255,0,0
259,269,0,0
1139,1122,0,0
1403,233,0,0
124,652,0,0
area 2
-770,1799,0,0
-1996,176,0,0
-1163,1342,0,0
-922,1350,1,0
-1172,974,0,0
-17,1333,0,0
-831,1338,0,0
-1009,614,0,0
-343,118,0,0
-921,1877,0,0
-818,970,0,0
-722,1464,0,0
-1684,528,0,0
-1280,1959,0,0
-1300,168,1,0
-1581,1350,0,0
-753,600,0,0
-1531,648,0,0
-639,191,0,0
-1517,47,0,0
-336,1836,0,0
-107,128,0,0
-526,1290,0,0
-997,1267,0,0
-486,639,0,0
-1449,1853,0,0
-1963,942,0,0
-859,224,0,0
-1274,465,0,0
-1293,346,0,0
-1693,1082,0,0
-1364,955,0,0
-984,113,0,0
-1624,999,0,0
-308,1008,0,0
-889,759,0,0
-459,960,0,0
-532,1652,0,0
-889,395,0,0
-637,1047,0,0
-619,1318,0,0
-394,368,0,0
-1616,1000,0,0
-1410,909,0,0
-122,1752,0,0
-496,398,0,0
-1332,570,0,0
-320,1512,0,0
-259,1541,0,0
-987,779,0,0
-148,304,0,0
-1779,579,0,0
-1460,1751,0,0
-777,1972,0,0
-928,432,0,0
-717,350,0,0
-1751,856,0,0
-1754,1397,0,0
-745,1511,0,0
-1298,1428,0,0
-684,1690,0,0
-692,1798,0,0
-1676,528,0,0
-1916,729,0,0
-683,740,0,0
-1223,1788,0,0
-50,1839,0,0
-411,868,0,0
-400,624,0,0
-1525,221,0,0
-957,484,0,0
-1962,249,0,0
-1441,670,0,0
-154,968,0,0
-1218,250,0,0
-575,809,0,0
-1275,1815,0,0
-1385,1459,0,0
-774,871,0,0
-1990,480,0,0
-1968,553,0,0
-231,513,0,0
-564,787,0,0
-1598,1533,1,0
-1155,553,0,0
-1932,562,0,0
-1880,1756,0,0
-1627,1336,0,0
-469,1871,0,0
-1821,1084,0,0
-350,46,0,0
-668,1711,0,0
-51,1220,0,0
-896,1396,0,0
-1247,1150,0,0
-1628,1713,0,0
-459,1022,0,0
-57,904,0,0
-1437,1276,0,0
-1621,1622,0,0
-960,1011,0,0
-1518,378,0,0
-583,524,0,0
-880,202,0,0
-1802,1564,0,0
-704,715,0,0
-1960,1854,0,0
-1433,912,0,0
-130,357,0,0
-1752,109,0,0
-228,1747,0,0
-1662,982,0,0
-1114,697,0,0
-435,677,0,0
-604,1900,0,0
-907,520,0,0
-102,1763,0,0
-69,1369,0,0
-11,1112,0,0
-986,1892,0,0
-1212,1776,0,0
-559,1251,1,0
-649,1572,0,0
-48,950,0,0
-864,328,0,0
-1858,880,0,0
-558,535,0,0
-947,580,0,0
-1835,988,0,0
-751,1772,0,0
-137,563,0,0
-802,1189,0,0
-122,155,0,0
-1040,1625,0,0
-781,1859,0,0
-1445,1854,0,0
-951,910,0,0
-328,1378,1,0
-1733,884,0,0
-1318,1379,0,0
-40,273,0,0
-1259,1494,0,0
-1269,117,0,0
-933,594,0,0
-1529,868,1,0
-514,1050,0,0
-1995,672,0,0
-504,830,0,0
-185,1913,0,0
-1756,789,0,0
-209,1907,0,0
-160,342,0,0
-340,627,0,0
-94,872,0,0
-503,1796,0,0
-854,1214,0,0
-1949,1305,0,0
-590,1249,0,0
-1177,1477,0,0
-1993,658,0,0
-117,794,0,0
-453,799,0,0
-1526,1076,0,0
-297,934,0,0
-456,1865,0,0
-1821,321,0,0
-1283,1256,0,0
-405,187,0,0
-1626,1446,0,0
-227,1859,0,0
-1410,489,0,0
-1213,1852,0,0
-68,921,0,0
-348,1861,0,0
-765,290,0,0
-579,1709,0,0
-947,237,0,0
-919,1936,0,0
-1451,904,0,0
-1003,402,0,0
-1110,892,0,0
-1639,1493,0,0
-1976,831,0,0
-1421,736,0,0
-1540,699,0,0
-1478,985,0,0
-803,523,0,0
-1877,921,0,0
-730,885,0,0
-74,1568,1,0
-1017,1165,0,0
-176,1233,0,0
-825,94,0,0
-258,73,0,0
-1135,1487,0,0
-21,1618,0,0
-262,219,0,0
-672,151,0,0
-979,1775,0,0
-1979,1346,0,0
-1943,1172,0,0
-895,716,0,0
-226,168,0,0
-572,82,0,0
-1007,1082,0,0
-313,34,0,0
-1810,678,0,0
-1933,1846,0,0
-73,483,0,0
-655,1936,0,0
-1725,6,0,0
-279,1686,0,0
-118,304,0,0
-849,1883,0,0
-1291,1973,0,0
-391,600,0,0
-997,1616,0,0
-1995,1271,0,0
-826,1514,0,0
-1753,770,0,0
-220,442,0,0
-463,1645,0,0
-1935,1132,0,0
-939,164,0,0
-1424,1227,0,0
-138,168,0,0
-1669,594,0,0
-1060,1170,0,0
-1183,1006,0,0
-31,1690,0,0
-1466,1849,0,0
-685,578,0,0
-1716,1872,1,0
-834,1382,0,0
-1322,1734,0,0
-1241,661,0,0
-333,1951,0,0
-1234,672,0,0
-747,1366,0,0
-1616,963,1,0
-164,275,0,0
-884,1853,0,0
-1534,25,0,0
-70,1470,0,0
-579,85,0,0
-1231,1396,0,0
-44,1438,0,0
-283,1548,0,0
-429,900,0,0
-904,1200,0,0
-1955,18,0,0
-572,1769,0,0
-1577,1910,0,0
-704,1624,0,0
-1643,1862,0,0
-1688,1890,0,0
-986,802,0,0
-858,923,0,0
-1826,13,0,0
-709,1028,0,0
-1713,757,0,0
-1507,434,0,0
-1336,1899,0,0
-1418,1641,0,0
-1464,258,0,0
-58,640,0,0
-1824,660,0,0
-1661,34,0,0
-238,1034,0,0
-993,1858,0,0
-1408,1687,0,0
-1988,1587,0,0
-1477,1851,0,0
-1351,1420,1,0
-1236,603,0,0
-1937,980,0,0
-1138,825,0,0
-166,1942,0,0
-1951,1862,0,0
-126,1832,0,0
-1141,1896,0,0
-555,174,0,0
-1143,1808,0,0
-306,1443,0,0
-46,893,0,0
-1469,803,0,0
-233,1662,0,0
-1167,322,0,0
-1538,709,0,0
-1629,1977,0,0
-1747,896,0,0
-1093,1692,0,0
-728,668,0,0
-509,1177,0,0
-940,756,0,0
-1369,1673,0,0
-1263,1020,1,0
-1316,1286,0,0
-442,1648,0,0
-594,1201,0,0
-1113,1405,0,0
-1764,305,0,0
area 3
-834,-661,0,0
-65,-1961,0,0
-409,-1106,0,0
-1770,-715,0,0
-1703,-671,0,0
-684,-249,0,0
-914,-1825,0,0
-27,-548,0,0
-556,-224,0,0
-1573,-861,0,0
-1590,-1471,0,0
-423,-945,0,0
-386,-277,0,0
-1859,-323,0,0
-704,-1224,1,0
-1005,-172,0,0
-817,-1423,0,0
-1933,-1665,0,0
-1733,-556,0,0
-168,-1405,0,0
-130,-123,0,0
-1359,-1959,0,0
-1213,-1171,0,0
-1395,-178,0,0
-1264,-1931,0,0
-1594,-1521,0,0
-1467,-734,0,0
-210,-86,0,0
-1001,-293,0,0
-1787,-1860,0,0
-989,-1933,0,0
-461,-1626,0,0
-1989,-128,0,0
-937,-1818,0,0
-1168,-157,0,0
-42,-202,0,0
-1470,-805,0,0
-864,-1214,0,0
-908,-151,0,0
-1833,-1138,0,0
-1543,-494,0,0
-1866,-152,0,0
-228,-1101,0,0
-1993,-1285,0,0
-1386,-1350,0,0
-1829,-1216,0,0
-1980,-216,0,0
-1073,-1202,0,0
-126,-1200,0,0
-1050,-996,0,0
-24,-700,0,0
-134,-1680,0,0
-1531,-1136,0,0
-1227,-1143,0,0
-1152,-1064,0,0
-1824,-1879,0,0
-864,-1514,0,0
-6,-693,0,0
-391,-1922,0,0
-106,-1028,0,0
-230,-1619,0,0
-943,-1064,0,0
-188,-1135,0,0
-1806,-1680,0,0
-216,-37,0,0
-190,-841,0,0
-421,-156,1,0
-1711,-1140,0,0
-1612,-959,0,0
-1178,-525,0,0
-437,-1433,0,0
-216,-652,0,0
-801,-1367,0,0
-1175,-1519,1,0
-1648,-1612,0,0
-131,-1603,0,0
-1699,-140,0,0
-438,-1369,0,0
-201,-1776,1,0
-868,-1562,0,0
-625,-1376,0,0
-477,-782,0,0
-1515,-1386,0,0
-795,-1345,0,0
-1013,-662,0,0
-1382,-1759,0,0
-589,-334,0,0
-857,-205,0,0
-132,-1717,0,0
-1244,-33,0,0
-182,-524,0,0
-1223,-1661,0,0
-1903,-1658,0,0
-87,-1535,0,0
-34,-690,0,0
-1106,-240,0,0
-688,-1986,0,0
-392,-536,0,0
-1315,-416,0,0
-79,-135,0,0
-864,-668,0,0
-224,-1192,0,0
-677,-1647,1,0
-638,-914,0,0
-1862,-1705,0,0
-1278,-27,0,0
-71,-703,0,0
-631,-1813,0,0
-1880,-1424,0,0
-1090,-13,0,0
-714,-427,0,0
-1652,-497,0,0
-1172,-699,0,0
-1837,-801,0,0
-79,-1861,0,0
-1416,-1060,0,0
-396,-1675,0,0
-1573,-1427,0,0
-377,-138,0,0
-1209,-1425,0,0
-20,-610,0,0
-764,-758,0,0
-1895,-272,0,0
-586,-569,0,0
-853,-548,1,0
-1961,-1043,0,0
-1146,-909,0,0
-219,-1697,0,0
-1412,-443,0,0
-182,-125,0,0
-79,-88,0,0
-1295,-1132,0,0
-1660,-776,0,0
-597,-1266,0,0
-1374,-1493,0,0
-530,-909,0,0
-1229,-1003,0,0
-1534,-1548,0,0
-105,-1035,0,0
-1894,-1141,0,0
-1878,-849,0,0
-1690,-1480,0,0
-1875,-1557,0,0
-308,-479,0,0
-289,-545,0,0
-13,-825,0,0
-322,-1974,0,0
-1845,-881,0,0
-1775,-365,0,0
-1786,-1752,0,0
-12,-996,0,0
-506,-127,0,0
-819,-870,0,0
-108,-156,0,0
-1963,-1964,0,0
-1595,-708,0,0
-1889,-789,0,0
-1468,-1254,0,0
-282,-1346,0,0
-808,-538,0,0
-806,-640,0,0
-1350,-1599,0,0
-1293,-471,0,0
-1493,-37,0,0
-1802,-349,0,0
-1281,-1491,0,0
-1862,-1293,0,0
-747,-195,0,0
-385,-1123,0,0
-914,-371,0,0
-800,-1749,0,0
-1636,-15,1,0
-1446,-121,0,0
-114,-421,0,0
-670,-1951,0,0
-1390,-1018,0,0
-233,-1114,0,0
-88,-75,0,0
-1240,-997,0,0
-1113,-434,0,0
-816,-1967,0,0
-581,-1241,0,0
-1829,-264,0,0
-1101,-1108,0,0
-984,-765,0,0
-416,-1939,0,0
-1173,-1615,0,0
-72,-1344,0,0
-1641,-538,0,0
-1218,-984,0,0
-1726,-524,0,0
-772,-1105,0,0
-225,-1171,0,0
-277,-1076,0,0
-1889,-731,0,0
-1199,-312,0,0
-29,-1406,0,0
-583,-593,0,0
-1885,-1298,0,0
-1021,-1128,0,0
-646,-374,0,0
-159,-837,0,0
-219,-1889,0,0
-1857,-910,0,0
-385,-157,0,0
-1737,-789,0,0
-1848,-1372,0,0
-526,-640,0,0
-680,-219,0,0
-42,-204,0,0
-1293,-135,0,0
-1235,-654,0,0
-1031,-1679,0,0
-574,-222,0,0
-1951,-315,0,0
-1437,-665,0,0
-1485,-488,0,0
-566,-829,0,0
-1596,-965,0,0
-991,-1141,0,0
-522,-1126,1,0
-1184,-1219,0,0
-366,-704,0,0
-502,-1519,0,0
-664,-1829,0,0
-1133,-744,0,0
-1501,-350,0,0
-1938,-283,0,0
-1595,-877,0,0
-912,-1357,0,0
-1613,-1796,0,0
-672,-928,0,0
-1080,-1192,0,0
-421,-1212,0,0
-1510,-1150,0,0
-1811,-1644,0,0
-146,-381,0,0
-1928,-1042,0,0
-1179,-1837,0,0
-1517,-1517,0,0
-529,-1211,0,0
-1333,-1160,0,0
-1980,-1463,0,0
-1345,-628,0,0
-280,-659,0,0
-1077,-950,0,0
-938,-682,0,0
-1126,-374,0,0
-1464,-904,0,0
-1889,-1593,0,0
-1209,-538,0,0
-414,-1915,0,0
-1640,-53,0,0
-1419,-306,0,0
-1951,-1863,0,0
-714,-1370,0,0
-1454,-1360,0,0
-361,-1792,0,0
-613,-975,0,0
-415,-832,0,0
-72,-1889,0,0
-210,-304,0,0
-500,-1660,0,0
-164,-369,0,0
-1968,-1052,0,0
-1306,-1790,0,0
-422,-224,0,0
-234,-714,0,0
-287,-330,0,0
-1940,-1904,0,0
-22,-29,0,0
-354,-1964,0,0
-1787,-1811,0,0
-640,-1532,0,0
-1150,-1107,0,0
-1130,-154,0,0
-1762,-1240,1,0
-1023,-1443,0,0
-829,-1231,0,0
-1645,-579,0,0
-1083,-1869,0,0
-979,-1008,1,0
-1686,-1703,0,0
-1755,-561,0,0
-1221,-824,0,0
-855,-1625,0,0
-558,-985,0,0
-843,-335,1,0
-1305,-887,0,0
-1133,-636,0,0
-1177,-463,0,0
-857,-1606,0,0
-1205,-625,0,0
-460,-1461,0,0
-47,-399,0,0
-1440,-747,0,0
-271,-797,0,0
-551,-1326,0,0
-74,-780,1,0
-93,-592,0,0
-1652,-451,0,0
-1914,-1694,0,0
-1678,-1071,0,0
-18,-541,0,0
-308,-1976,0,0
-258,-241,0,0
-1927,-1561,0,0
-1795,-1716,0,0
-740,-414,0,0
-478,-98,0,0
-99,-349,0,0
-983,-784,0,0
-448,-1794,0,0
-491,-449,0,0
-535,-1297,0,0
-1205,-810,0,0
-1070,-1824,0,0
-634,-1240,0,0
-1647,-1229,0,0
-1400,-82,0,0
-1357,-204,0,0
area 4
3,-770,1,0
831,-1578,0,0
827,-1074,0,0
1047,-395,0,0
1039,-986,0,0
1033,-158,0,0
1332,-1054,0,0
1424,-1403,0,0
1063,-1156,1,0
463,-1447,0,0
1566,-817,0,0
1310,-1917,0,0
1651,-489,0,0
480,-570,0,0
6,-1455,0,0
1983,-813,0,0
672,-194,0,0
1905,-542,0,0
190,-1872,0,0
750,-955,0,0
1671,-1994,0,0
1338,-898,0,0
1529,-792,0,0
1603,-1127,0,0
1073,-1549,0,0
1500,-537,0,0
390,-191,0,0
699,-306,0,0
1733,-1587,0,0
202,-320,0,0
1408,-1485,0,0
885,-607,0,0
1993,-1220,0,0
295,-315,0,0
426,-577,0,0
1409,-161,0,0
670,-483,0,0
663,-432,0,0
1535,-623,0,0
266,-139,0,0
673,-413,0,0
1764,-1476,0,0
1168,-1955,0,0
1706,-1574,0,0
815,-257,0,0
1398,-611,0,0
1852,-578,0,0
1796,-353,0,0
1599,-1551,0,0
122,-881,0,0
957,-1172,0,0
309,-986,0,0
623,-1234,1,0
237,-1143,0,0
1656,-1516,0,0
1912,-1282,0,0
773,-62,0,0
684,-714,0,0
1045,-908,0,0
186,-970,0,0
735,-214,0,0
269,-1169,1,0
962,-172,0,0
1656,-630,0,0
1999,-42,0,0
335,-1171,0,0
74,-134,0,0
1653,-236,0,0
366,-1174,0,0
1328,-1043,1,0
839,-1489,0,0
1015,-984,0,0
471,-1327,0,0
764,-435,0,0
425,-765,0,0
672,-1151,0,0
446,-1602,0,0
612,-209,0,0
1688,-1615,0,0
1445,-1476,0,0
1819,-819,0,0
1368,-1512,0,0
1882,-1979,0,0
507,-1838,0,0
1622,-1029,0,0
212,-1309,0,0
306,-1074,0,0
952,-183,0,0
280,-477,0,0
915,-1014,0,0
1893,-35,0,0
789,-604,0,0
619,-565,0,0
1690,-1375,0,0
1861,-1254,0,0
1576,-1891,0,0
138,-1720,0,0
146,-221,0,0
1353,-1254,0,0
965,-655,0,0
990,-1769,0,0
1270,-458,0,0
916,-1238,0,0
1924,-1696,0,0
267,-1403,0,0
856,-147,0,0
1923,-1417,0,0
156,-1829,0,0
581,-1099,0,0
1830,-357,0,0
1270,-520,0,0
747,-1329,0,0
580,-721,0,0
301,-1019,0,0
174,-722,0,0
1757,-1433,0,0
727,-931,0,0
434,-352,0,0
1578,-369,0,0
941,-739,0,0
1034,-916,0,0
1894,-702,0,0
1871,-1812,0,0
1573,-1947,0,0
1830,-1741,0,0
57,-186,0,0
609,-1215,0,0
461,-941,0,0
902,-426,0,0
1836,-1465,0,0
1228,-1932,0,0
1060,-1048,1,0
688,-1276,1,0
893,-745,0,0
1028,-111,0,0
1718,-972,1,0
1790,-941,0,0
1341,-290,0,0
1616,-1587,0,0
1037,-880,0,0
1714,-54,0,0
622,-1575,0,0
1224,-227,0,0
1479,-1189,0,0
828,-1933,0,0
976,-862,0,0
341,-1218,0,0
1700,-1534,0,0
118,-280,0,0
950,-704,0,0
1843,-1225,0,0
874,-429,0,0
1188,-1453,0,0
843,-244,0,0
443,-1478,0,0
1573,-1961,0,0
1768,-1155,0,0
717,-1959,1,0
40,-229,0,0
837,-1916,0,0
176,-2,0,0
404,-895,0,0
1737,-1236,0,0
506,-1074,0,0
986,-1857,1,0
1320,-487,0,0
283,-1888,0,0
1200,-577,0,0
1526,-435,0,0
699,-76,1,0
38,-1843,0,0
1835,-1130,0,0
764,-526,0,0
1438,-1263,0,0
1808,-790,0,0
691,-1155,1,0
388,-1235,0,0
1050,-434,0,0
603,-342,0,0
1069,-1175,0,0
197,-909,0,0
388,-1377,0,0
1580,-803,0,0
477,-1511,0,0
1663,-770,0,0
1394,-376,0,0
125,-1085,0,0
239,-956,0,0
1810,-1326,0,0
1745,-305,0,0
1663,-412,0,0
1326,-724,0,0
870,-161,0,0
150,-710,0,0
1053,-168,0,0
1128,-892,0,0
397,-973,0,0
1248,-393,0,0
1604,-1821,0,0
71,-1627,0,0
665,-1881,0,0
1464,-27,0,0
1959,-1679,0,0
1381,-1254,0,0
1333,-1120,0,0
40,-1427,0,0
418,-1131,0,0
1571,-302,0,0
1748,-969,0,0
326,-1909,0,0
874,-1889,0,0
754,-881,0,0
36,-937,0,0
850,-1346,0,0
1282,-1616,0,0
141,-884,0,0
1798,-1947,0,0
271,-721,0,0
1044,-102,0,0
517,-820,0,0
867,-689,0,0
1935,-1259,0,0
1438,-1841,0,0
541,-1367,0,0
1676,-836,0,0
1049,-782,0,0
203,-494,0,0
1214,-31,0,0
729,-172,0,0
1270,-1123,0,0
533,-997,0,0
589,-995,0,0
614,-1904,0,0
1155,-567,0,0
1758,-528,0,0
49,-1786,0,0
1802,-522,0,0
1788,-1388,0,0
1697,-1252,0,0
1676,-1191,0,0
911,-95,1,0
791,-1398,0,0
989,-1801,0,0
1385,-1554,1,0
1865,-299,0,0
1563,-1157,0,0
24,-1787,0,0
1516,-1189,0,0
1931,-58,0,0
235,-1070,0,0
30,-818,0,0
1860,-1947,0,0
360,-431,0,0
288,-1045,0,0
259,-923,0,0
1209,-1185,0,0
431,-1674,0,0
935,-1270,0,0
235,-149,0,0
240,-35,0,0
1627,-1320,0,0
1688,-937,0,0
169,-160,0,0
1375,-220,0,0
1610,-1290,0,0
1723,-851,0,0
1013,-957,0,0
1170,-1445,0,0
743,-1695,0,0
476,-1925,1,0
482,-1995,0,0
1029,-780,0,0
829,-851,0,0
1663,-1384,0,0
1975,-1109,0,0
1829,-1055,0,0
969,-700,0,0
710,-1470,0,0
633,-1965,0,0
734,-1949,0,0
1454,-443,0,0
1330,-1913,0,0
247,-788,0,0
196,-313,0,0
771,-336,1,0
207,-654,0,0
347,-301,0,0
1092,-1942,0,0

near cbsd peopel number
59
77
58
62
59
66
67
65
51
67
71
52
52
58
59
59
54
68
59
59
61
68
64
62
63
59
60
61
56
51
