the max average throughput times

BS TX power
MBS area 1,MBS area 2,MBS area 3,MBS area 4,CBSD 1,CBSD 2,CBSD 3,CBSD 4,CBSD 5,
10.000,10.000,10.000,10.000,1.000,0.000,0.500,0.500,0.875,
max average power
639.955688

x,y,area,be blocked (1 : NLOS / 0 : LOS),be blocked number (>=1 : CBSD(x) / 0 : no),connect bs number (>=1 : CBSD / 0 : MBS),throughput (unit : M bps)
967,478,1,1,0,3,93.204109
-218,1657,2,0,0,0,738.962830
-483,-712,3,1,0,4,138.709656
1301,-1175,4,0,0,0,725.264282
1929,475,1,1,0,3,93.204109
-1686,1043,2,1,0,1,181.488159
-823,-1080,3,1,0,4,138.709656
1056,-1640,4,0,0,0,694.685059
1734,1307,1,0,0,0,664.017883
-1962,927,2,1,0,1,152.895401
-1523,-1531,3,0,0,0,665.587158
817,-879,4,1,0,3,93.204109
978,539,1,1,0,3,93.204109
-329,435,2,0,0,0,1061.302979
-857,-1822,3,1,0,4,138.709656
1102,-806,4,0,0,0,797.023499
1001,447,1,0,0,0,860.141418
-68,1011,2,1,0,5,182.180481
-290,-197,3,0,0,0,1188.762207
1057,-269,4,0,0,0,861.609619
556,186,1,0,0,0,1040.461182
-1200,1186,2,1,0,1,246.471100
-678,-1319,3,0,0,0,773.256409
425,-468,4,0,0,0,1018.733643
141,1803,1,1,0,5,129.988403
-330,483,2,0,0,0,1041.109741
-1044,-622,3,0,0,0,830.497803
223,-1789,4,0,0,0,717.239014
78,1354,1,1,0,5,156.268265
-1536,1428,2,1,0,1,176.018021
-1069,-748,3,0,0,0,810.071472
1932,-1084,4,0,0,0,658.299011
1199,684,1,1,0,3,93.204109
-455,1065,2,0,0,0,844.347595
-75,-1839,3,1,0,4,138.709656
523,-1848,4,0,0,0,699.120361
1464,1903,1,0,0,0,635.341125
-1064,632,2,0,0,0,825.267883
-608,-893,3,0,0,0,864.357117
1732,-83,4,0,0,0,728.400452
782,998,1,0,0,0,818.303223
-368,1029,2,0,0,0,861.047668
-1769,-1669,3,0,0,0,631.675659
209,-441,4,0,0,0,1093.362671
849,632,1,0,0,0,870.258240
-1180,806,2,0,0,0,783.920898
-260,-140,3,0,0,0,1238.270264
1969,-499,4,0,0,0,683.090149
279,1586,1,0,0,0,749.616272
-295,1247,2,1,0,5,208.140961
-853,-1602,3,0,0,0,715.322998
1351,-943,4,0,0,0,743.063110
920,1273,1,0,0,0,756.781189
-1129,1617,2,1,0,1,180.940338
-1393,-864,3,1,0,4,138.709656
967,-946,4,0,0,0,799.671570
412,106,1,1,0,0,181.594147
-1117,940,2,1,0,1,330.065735
-1315,-938,3,0,0,0,748.743225
457,-258,4,0,0,0,1072.408813
334,1428,1,0,0,0,776.472046
-598,1861,2,0,0,0,694.077454
-1092,-114,3,0,0,0,859.705078
1594,-800,4,0,0,0,720.332214
1348,311,1,0,0,0,793.236450
-1297,431,2,0,0,0,796.721069
-780,-842,3,0,0,0,846.932678
1631,-745,4,0,0,0,718.792969
647,667,1,0,0,0,907.731262
-1967,418,2,1,0,1,142.796112
-618,-980,3,1,0,4,138.709656
1185,-589,4,0,0,0,806.002075
116,862,1,0,0,0,926.783447
-1637,1100,2,1,0,1,185.936646
-604,-1508,3,0,0,0,747.113159
744,-429,4,0,0,0,930.432251
555,1512,1,0,0,0,749.564880
-895,600,2,0,0,0,865.109741
-374,-100,3,0,0,0,1160.152710
732,-1500,4,0,0,0,739.340698
1218,1361,1,0,0,0,713.515137
-868,1486,2,0,0,0,730.566650
-970,-1203,3,0,0,0,761.441528
354,-566,4,0,0,0,1003.023010
1980,1026,1,1,0,3,93.204109
-630,50,2,0,0,0,1018.823486
-1093,-739,3,0,0,0,806.856262
700,-1485,4,0,0,0,744.082581
39,965,1,0,0,0,896.623474
-549,1687,2,0,0,0,721.847656
-507,-1687,3,0,0,0,723.881531
1866,-583,4,1,0,3,93.204109
1694,714,1,0,0,0,711.655884
-1676,202,2,0,0,0,736.085693
-1518,-251,3,1,0,4,138.709656
1195,-1625,4,0,0,0,685.090698
1409,1955,1,0,0,0,634.291748
-1959,1431,2,0,0,0,632.387451
-404,-358,3,0,0,0,1064.283325
1024,-1705,4,0,0,0,689.121216
765,1991,1,0,0,0,669.128662
-278,229,2,1,0,0,236.568649
-251,-1975,3,0,0,0,688.831177
73,-1303,4,1,0,4,138.709656
137,508,1,0,0,0,1071.667480
-1528,678,2,0,0,0,738.896301
-1572,-178,3,0,0,0,754.705688
1206,-1541,4,0,0,0,693.770752
704,384,1,1,0,3,93.204109
-39,415,2,1,0,0,187.968842
-1769,-1903,3,0,0,0,612.862122
497,-461,4,0,0,0,998.609497
898,253,1,1,0,3,93.204109
-972,66,2,0,0,0,894.114929
-1791,-1962,3,0,0,0,606.552734
1068,-1709,4,0,0,0,685.348999
269,1968,1,0,0,0,689.491150
-219,1857,2,0,0,0,706.782410
-646,-1878,3,0,0,0,689.534119
946,-651,4,1,0,3,93.204109
812,1816,1,0,0,0,689.063416
-1526,938,2,0,0,0,719.090454
-708,-705,3,0,0,0,886.846375
609,-1875,4,0,0,0,691.642273
381,31,1,1,0,0,216.181503
-224,998,2,0,0,0,880.101135
-168,-836,3,0,0,0,932.488953
1156,-1725,4,0,0,0,676.786072
602,557,1,0,0,0,943.705200
-1291,715,2,1,0,1,245.574310
-1288,-523,3,0,0,0,791.843201
363,-1670,4,0,0,0,732.562866
241,1990,1,0,0,0,686.875916
-1682,1227,2,0,0,0,676.035767
-919,-914,3,0,0,0,811.967651
793,-28,4,0,0,0,953.227173
227,1366,1,0,0,0,792.961792
-213,227,2,1,0,0,289.427277
-950,-1291,3,0,0,0,750.953369
1965,-1115,4,1,0,3,93.204109
1634,1369,1,0,0,0,669.291565
-494,1123,2,0,0,0,827.763794
-836,-405,3,0,0,0,907.827637
860,-1731,4,0,0,0,697.295410
1406,175,1,1,0,3,93.204109
-1563,1735,2,0,0,0,643.260132
-868,-759,3,0,0,0,845.612976
380,-1806,4,0,0,0,710.532654
1109,254,1,1,0,3,93.204109
-693,1172,2,0,0,0,797.812561
-135,-432,3,0,0,0,1115.090576
1415,-400,4,0,0,0,775.707153
125,600,1,0,0,0,1027.670166
-843,1560,2,0,0,0,721.989868
-1730,-872,3,0,0,0,696.633423
742,-1816,4,0,0,0,693.051331
1759,149,1,0,0,0,723.270264
-1730,1437,2,0,0,0,653.996460
-1521,-718,3,0,0,0,737.136841
898,-1564,4,0,0,0,717.139832
1537,381,1,0,0,0,754.438721
-954,1225,2,0,0,0,760.087769
-1653,-1347,3,0,0,0,669.206726
445,-1745,4,0,0,0,717.556641
1244,1249,1,0,0,0,723.673096
-891,1592,2,0,0,0,713.837463
-1206,-402,3,1,0,4,138.709656
347,-1254,4,1,0,3,93.204109
64,1429,1,0,0,0,783.632751
-172,1926,2,0,0,0,697.176758
-598,-1696,3,1,0,4,138.709656
770,-1651,4,1,0,3,93.204109
833,1986,1,0,0,0,666.367554
-613,1392,2,0,0,0,766.002075
-143,-1424,3,1,0,4,138.709656
935,-1574,4,1,0,3,93.204109
1090,648,1,1,0,3,93.204109
-1211,1555,2,0,0,0,691.714417
-72,-236,3,0,0,0,1290.098022
12,-833,4,0,0,0,939.197754
936,1108,1,1,0,5,99.722694
-1491,75,2,0,0,0,771.358765
-1415,-1275,3,0,0,0,701.498718
1539,-1050,4,1,0,3,93.204109
1675,622,1,0,0,0,719.807129
-694,747,2,0,0,0,881.003113
-337,-911,3,0,0,0,894.974609
668,-1486,4,0,0,0,746.270935
95,1809,1,0,0,0,715.867859
-599,1411,2,0,0,0,763.767700
-1242,-1722,3,0,0,0,670.436646
633,-1924,4,1,0,3,93.204109
613,1526,1,0,0,0,743.592712
-1708,190,2,0,0,0,730.966858
-1855,-698,3,1,0,4,138.709656
606,-1389,4,0,0,0,767.052917
1435,1018,1,1,0,3,93.204109
-1505,595,2,0,0,0,748.195312
-1269,-1258,3,0,0,0,719.788452
647,-71,4,1,0,3,93.204109
546,635,1,0,0,0,937.688721
-110,730,2,0,0,0,974.026428
-522,-1730,3,0,0,0,716.573547
1171,-730,4,0,0,0,793.965149
997,1318,1,0,0,0,742.184204
-990,1798,2,1,0,5,163.468048
-78,-818,3,1,0,4,138.709656
588,-737,4,0,0,0,903.554260
759,1302,1,0,0,0,768.641602
-1693,1152,2,0,0,0,680.773560
-1067,-1610,3,0,0,0,697.501343
278,-1092,4,0,0,0,852.229126
400,1224,1,1,0,5,132.116333
-535,1656,2,0,0,0,727.362488
-1410,-51,3,0,0,0,787.578186
1671,-305,4,0,0,0,734.311340
1599,794,1,0,0,0,720.044006
-1904,1282,2,0,0,0,648.168030
-291,-1538,3,0,0,0,757.762146
898,-812,4,0,0,0,831.580078
543,1599,1,0,0,0,735.991699
-1270,1685,2,0,0,0,672.213928
-1621,-1024,3,0,0,0,699.602905
594,-1089,4,0,0,0,824.589905
353,190,1,0,0,0,1150.087769
-1265,1970,2,1,0,1,142.587509
-1747,-1425,3,0,0,0,653.299011
1262,-650,4,0,0,0,785.825073
1319,16,1,0,0,0,806.918396
-130,1068,2,0,0,0,865.544312
-1006,-818,3,1,0,4,138.709656
1391,-1514,4,0,0,0,679.628235
87,1037,1,0,0,0,875.130554
-221,1045,2,0,0,0,867.630554
-1150,-939,3,0,0,0,772.944885
1410,-873,4,0,0,0,741.184937
923,1194,1,0,0,0,768.245117
-1453,702,2,0,0,0,749.021484
-737,-447,3,0,0,0,929.381348
381,-1535,4,0,0,0,754.790649
92,801,1,0,0,0,948.626160
-74,1451,2,1,0,5,165.806732
-360,-1875,3,0,0,0,700.814697
1436,-1749,4,0,0,0,652.223511
1604,963,1,0,0,0,706.627930
-917,1062,2,0,0,0,789.172424
-516,-896,3,0,0,0,876.985535
1190,-455,4,0,0,0,816.915100
990,779,1,1,0,3,93.204109
-283,1131,2,1,0,5,214.305023
-742,-1903,3,0,0,0,681.504578
1685,-747,4,0,0,0,710.903259
1051,607,1,0,0,0,830.865356
-1626,593,2,0,0,0,728.934814
-266,-1848,3,0,0,0,707.215088
1912,-179,4,0,0,0,699.153320
676,1296,1,0,0,0,777.419861
-725,1604,2,0,0,0,724.093018
-1439,-1617,3,0,0,0,664.917664
1900,-766,4,0,0,0,680.657532
1868,866,1,0,0,0,679.212830
-1281,611,2,0,0,0,785.886658
-1124,-1828,3,0,0,0,667.391418
1755,-958,4,0,0,0,687.603638
1363,1683,1,1,0,5,77.116203
-51,1755,2,0,0,0,724.826416
-915,-821,3,0,0,0,827.182251
260,-1655,4,0,0,0,738.273804
1892,796,1,1,0,3,93.204109
-193,1742,2,0,0,0,725.330017
-364,-1128,3,0,0,0,837.680420
1058,-1017,4,0,0,0,776.277527
514,1977,1,1,0,5,104.544388
-1896,855,2,0,0,0,676.326538
-228,-147,3,0,0,0,1262.742065
1400,-1931,4,1,0,3,93.204109
125,1417,1,0,0,0,785.229797
-1266,1696,2,0,0,0,671.348633
-635,-612,3,0,0,0,922.789917
649,-1857,4,0,0,0,692.264099
1307,1291,1,0,0,0,711.846558
-1199,476,2,0,0,0,813.324280
-925,-1157,3,0,0,0,773.594421
1874,-347,4,0,0,0,701.323730
1861,1249,1,0,0,0,654.974304
-1667,1166,2,0,0,0,682.658325
-476,-1517,3,0,0,0,753.279663
1716,-422,4,0,0,0,722.973694
921,544,1,0,0,0,867.213440
-1051,238,2,0,0,0,865.082458
-436,-440,3,1,0,4,138.709656
619,-1001,4,1,0,3,93.204109
108,944,1,0,0,0,901.322144
-1368,1467,2,0,0,0,686.686218
-1030,-1461,3,0,0,0,719.676453
1801,-1496,4,0,0,0,642.519104
1073,627,1,0,0,0,824.058167
-1102,1038,2,0,0,0,767.347778
-499,-53,3,0,0,0,1085.327637
1524,-1284,4,0,0,0,688.557007
1923,209,1,0,0,0,697.079224
-1469,1079,2,0,0,0,714.102234
-1595,-271,3,0,0,0,748.282043
1975,-1593,4,1,0,3,93.204109
1613,1890,1,1,0,5,67.200668
-951,891,2,1,0,1,518.623230
-693,-1622,3,0,0,0,723.507141
869,-1845,4,1,0,3,93.204109
606,1302,1,1,0,5,116.814522
-1649,548,2,1,0,1,177.140198
-1192,-7,3,0,0,0,836.048157
1616,-429,4,0,0,0,738.843628
1637,1,1,0,0,0,744.907349
-1963,1438,2,0,0,0,631.524536
-530,-1360,3,0,0,0,777.829834
34,-337,4,0,0,0,1198.700928
1321,1797,1,0,0,0,656.375488
-466,1037,2,0,0,0,849.671082
-451,-1306,3,0,0,0,793.596375
1168,-216,4,0,0,0,837.067444
456,1114,1,0,0,0,833.239807
-1622,1368,2,0,0,0,670.612366
-1014,-289,3,0,0,0,871.355530
362,-601,4,0,0,0,988.698120
948,86,1,0,0,0,900.796753
-1663,1363,2,0,0,0,666.822510
-1228,-1258,3,0,0,0,724.458618
1540,-25,4,0,0,0,762.399475
1597,423,1,0,0,0,742.278442
-759,893,2,1,0,5,357.583130
-1229,-764,3,0,0,0,780.302368
181,-1141,4,0,0,0,845.057983
1450,188,1,1,0,3,93.204109
-1573,500,2,0,0,0,742.541992
-432,-1303,3,0,0,0,795.460205
117,-944,4,0,0,0,900.999390
874,1055,1,0,0,0,796.035461
-952,219,2,0,0,0,893.339661
-1070,-590,3,0,0,0,828.930908
1289,-437,4,1,0,3,93.204109
1818,142,1,0,0,0,713.969116
-1693,1528,2,0,0,0,650.013184
-1466,-1173,3,1,0,4,138.709656
1190,-1137,4,0,0,0,743.358398
1339,1083,1,1,0,3,93.204109
-125,1891,2,1,0,5,138.828430
-1986,-247,3,0,0,0,687.338501
1347,-965,4,0,0,0,741.424805
370,1693,1,0,0,0,728.570374
-1534,16,2,0,0,0,763.542542
-1993,-954,3,0,0,0,659.043396
1128,-396,4,0,0,0,835.211792
703,146,1,0,0,0,982.038757
-77,567,2,0,0,0,1047.471191
-1775,-579,3,0,0,0,707.214844
64,-551,4,0,0,0,1056.427612
1145,1632,1,1,0,5,85.653877
-421,1113,2,0,0,0,836.545410
-85,-419,3,0,0,0,1131.524414
1203,-619,4,0,0,0,799.643066
1814,228,1,1,0,3,93.204109
-436,1127,2,0,0,0,832.123047
-138,-1440,3,0,0,0,780.404785
1090,-54,4,0,0,0,861.439758
1973,1432,1,1,0,3,93.204109
-345,221,2,0,0,0,1143.804199
-257,-525,3,0,0,0,1041.327148
1706,-1015,4,0,0,0,689.662537
1909,1318,1,1,0,3,93.204109
-1334,1495,2,0,0,0,687.004089
-1038,-1509,3,1,0,4,138.709656
1034,-1291,4,0,0,0,741.937561
1928,144,1,0,0,0,697.220459
-148,684,2,1,0,5,182.482346
-336,-501,3,1,0,4,138.709656
1515,-567,4,0,0,0,748.323364
741,472,1,0,0,0,923.887268
-291,1517,2,0,0,0,761.570129
-219,-1511,3,1,0,4,138.709656
1276,-1726,4,0,0,0,667.320435
576,950,1,1,0,5,120.901474
-1597,1987,2,0,0,0,618.277710
-1935,-1651,3,0,0,0,618.904114
1221,-1614,4,1,0,3,93.204109
1800,712,1,0,0,0,696.875305
-206,1246,2,1,0,5,194.698151
-1930,-922,3,0,0,0,668.324524
34,-1558,4,0,0,0,759.033142
1395,640,1,0,0,0,763.407654
-1048,514,2,0,0,0,842.086365
-599,-1853,3,0,0,0,695.149353
1149,-333,4,0,0,0,835.021790
110,821,1,1,0,5,158.568619
-914,1337,2,0,0,0,747.981079
-603,-481,3,1,0,4,138.709656
1398,-678,4,0,0,0,759.888611
1347,1151,1,1,0,3,93.204109
-709,1373,2,0,0,0,761.459717
-847,-408,3,0,0,0,904.372864
903,-1766,4,0,0,0,689.898499
1139,1594,1,1,0,5,86.373573
-1395,1243,2,0,0,0,707.000977
-819,-1454,3,0,0,0,739.389343
1464,-554,4,0,0,0,757.756897
47,470,1,1,0,0,150.676682
-1183,148,2,1,0,1,175.110657
-833,-1817,3,0,0,0,687.690063
1229,-453,4,0,0,0,808.945496
898,224,1,0,0,0,908.889648
-778,51,2,1,0,4,138.709656
-610,-1452,3,0,0,0,755.999451
1616,-1617,4,0,0,0,649.325867
1070,1090,1,0,0,0,764.792786
-1369,1023,2,0,0,0,732.561584
-1672,-739,3,0,0,0,713.263733
300,-26,4,0,0,0,1232.631958
337,689,1,0,0,0,963.012756
-201,1715,2,1,0,5,156.169724
-1319,-1198,3,1,0,4,138.709656
180,-915,4,1,0,3,93.204109
489,1095,1,0,0,0,834.314331
-657,1093,2,0,0,0,816.634216
-1469,-1466,3,1,0,4,138.709656
789,-897,4,0,0,0,835.420227
1785,1228,1,0,0,0,664.649719
-1116,1994,2,0,0,0,649.453247
-1444,-617,3,0,0,0,756.845520
980,-1474,4,1,0,3,93.204109
1689,59,1,1,0,3,93.204109
-405,408,2,0,0,0,1046.125366
-1546,-1740,3,0,0,0,644.191040
1842,-1448,4,0,0,0,642.309692
645,876,1,0,0,0,862.362732
-1309,61,2,1,0,1,161.448120
-1626,-1654,3,1,0,4,138.709656
1980,-786,4,1,0,3,93.204109
1536,1234,1,1,0,3,93.204109
-254,1157,2,1,0,5,207.679688
-1480,-1557,3,0,0,0,667.091309
1576,-915,4,0,0,0,714.154053
22,1069,1,0,0,0,867.330750
-1234,881,2,0,0,0,766.905640
-1562,-481,3,0,0,0,745.366760
672,-932,4,0,0,0,846.622375
1798,517,1,0,0,0,706.631714
-1573,603,2,0,0,0,736.682922
-344,-1202,3,0,0,0,822.329346
1967,-83,4,1,0,3,93.204109
580,246,1,0,0,0,1019.722717
-992,337,2,0,0,0,873.190674
-590,-1162,3,0,0,0,810.402771
143,-1217,4,0,0,0,828.110901
1718,542,1,1,0,3,93.204109
-970,82,2,0,0,0,894.345093
-1139,-16,3,0,0,0,849.109985
340,-389,4,1,0,3,93.204109
1934,974,1,0,0,0,664.807251
-1376,691,2,0,0,0,762.482422
-1763,-1545,3,0,0,0,642.165955
1372,-1460,4,0,0,0,687.025452
784,5,1,0,0,0,956.689636
-346,1433,2,0,0,0,774.979858
-1861,-50,3,0,0,0,708.040710
997,-862,4,0,0,0,807.163574
1663,726,1,0,0,0,715.382385
-351,1090,2,0,0,0,847.596375
-753,-1140,3,0,0,0,796.825562
594,-1563,4,0,0,0,738.827759
1114,1669,1,0,0,0,686.578186
-224,552,2,1,0,5,180.973068
-633,-471,3,0,0,0,954.861694
1351,-1066,4,0,0,0,730.569702
979,206,1,0,0,0,886.473877
-85,1767,2,0,0,0,722.663025
-439,-126,3,1,0,4,138.709656
9,-1049,4,0,0,0,872.817505
868,719,1,0,0,0,852.156860
-59,742,2,1,0,5,174.851761
-51,-247,3,1,0,0,371.126770
1607,-1207,4,0,0,0,686.126160
584,196,1,0,0,0,1026.201416
-1536,202,2,0,0,0,760.722656
-1459,-1855,3,0,0,0,640.245850
1382,-1155,4,0,0,0,717.517090
110,1308,1,1,0,5,154.941971
-541,1355,2,0,0,0,777.950928
-903,-461,3,0,0,0,882.634460
66,-362,4,0,0,0,1174.802368
989,1041,1,0,0,0,782.537354
-1266,588,2,0,0,0,790.656433
-1220,-652,3,1,0,4,138.709656
844,-1431,4,0,0,0,740.671204
1783,777,1,0,0,0,695.511658
-1154,1587,2,0,0,0,692.981995
-466,-1117,3,1,0,4,138.709656
937,-782,4,1,0,3,93.204109
1784,1364,1,0,0,0,654.412170
-443,906,2,0,0,0,884.161133
-141,-1430,3,1,0,4,138.709656
1785,-1663,4,1,0,3,93.204109
3,1774,1,0,0,0,721.860718
-22,560,2,1,0,5,161.554169
-1801,-867,3,0,0,0,687.693054
1244,-297,4,0,0,0,815.801575
1595,1593,1,0,0,0,653.326050
-109,1834,2,0,0,0,711.825195
-431,-1392,3,0,0,0,778.307678
1563,-1858,4,0,0,0,632.153198
1618,1940,1,1,0,5,66.530281
-1377,588,2,0,0,0,770.513062
-1760,-1003,3,0,0,0,683.867188
1395,-1164,4,1,0,3,93.204109
1629,627,1,0,0,0,726.503296
-764,342,2,0,0,0,937.828674
-251,-180,3,1,0,0,292.347931
489,-1988,4,0,0,0,680.844666
853,221,1,1,0,3,93.204109
-1043,952,2,0,0,0,787.329407
-815,-740,3,0,0,0,858.947266
1342,-1458,4,1,0,3,93.204109
1524,1336,1,0,0,0,683.732544
-529,1792,2,1,0,5,164.710770
-607,-1254,3,1,0,4,138.709656
1004,-811,4,0,0,0,813.189453
506,576,1,0,0,0,963.129700
-1122,1944,2,1,0,1,147.249130
-1612,-603,3,0,0,0,730.540710
715,-1038,4,0,0,0,820.000000
1330,265,1,0,0,0,798.957153
-905,757,2,0,0,0,838.997437
-164,-264,3,0,0,0,1223.515503
667,-1869,4,0,0,0,689.757507
1621,881,1,0,0,0,710.626526
-1678,1646,2,0,0,0,641.394958
-1855,-785,3,1,0,4,138.709656
182,-1570,4,0,0,0,754.983765
1361,1823,1,0,0,0,650.711487
-1051,1955,2,0,0,0,657.748779
-770,-1849,3,0,0,0,687.106873
984,-809,4,0,0,0,816.949402
1136,12,1,0,0,0,849.881104
-531,985,2,0,0,0,854.233032
-1312,-1058,3,0,0,0,736.542847
1435,-148,4,0,0,0,781.197327
91,1074,1,0,0,0,865.019226
-1267,1630,2,1,0,1,174.333511
-1290,-1785,3,0,0,0,659.977478
1779,-726,4,0,0,0,698.992859
1217,1047,1,0,0,0,750.500916
-1504,750,2,1,0,1,207.362991
-792,-529,3,0,0,0,900.637207
210,-1828,4,0,0,0,711.390930
1759,559,1,1,0,3,93.204109
-1503,1609,2,0,0,0,660.049194
-470,-1959,3,1,0,4,138.709656
1251,-1164,4,0,0,0,732.600586
1824,1177,1,0,0,0,664.100220
-1499,1567,2,0,0,0,664.397766
-1715,-127,3,0,0,0,730.773193
1539,-232,4,0,0,0,759.398682
133,324,1,1,0,0,246.407150
-167,1193,2,0,0,0,833.020996
-920,-1458,3,1,0,4,138.709656
1180,-243,4,0,0,0,832.990173
229,1524,1,0,0,0,762.230774
-694,1418,2,0,0,0,755.309448
-855,-1647,3,0,0,0,708.960449
1270,-979,4,0,0,0,750.832886
200,325,1,1,0,0,216.754150
-1101,537,2,0,0,0,828.203613
-1433,-916,3,0,0,0,733.949890
658,-786,4,1,0,3,93.204109
111,591,1,1,0,5,151.007843
-1140,1972,2,1,0,1,144.638000
-1096,-1553,3,0,0,0,702.084961
830,-652,4,0,0,0,871.059692
687,1801,1,1,0,5,102.006134
-66,1794,2,0,0,0,718.454407
-486,-449,3,1,0,4,138.709656
21,-55,4,1,0,0,989.507263
831,1846,1,0,0,0,684.053101
-575,180,2,0,0,0,1032.588623
-454,-311,3,0,0,0,1058.722778
66,-1574,4,1,0,4,138.709656
1575,1278,1,1,0,3,93.204109
-517,889,2,1,0,5,274.147400
-1740,-113,3,0,0,0,726.804749
953,-1095,4,0,0,0,779.406921
766,1511,1,1,0,5,104.423096
-681,1682,2,0,0,0,715.372070
-371,-1574,3,0,0,0,748.411011
398,-1385,4,0,0,0,781.508179
170,1537,1,0,0,0,761.251953
-382,873,2,1,0,5,235.121765
-1258,-960,3,0,0,0,754.631287
34,-744,4,0,0,0,971.486328
821,871,1,0,0,0,834.861877
-894,89,2,0,0,0,917.448059
-1467,-1314,3,0,0,0,691.930542
931,-603,4,0,0,0,856.761963
62,1802,1,1,0,5,134.498199
-1191,610,2,0,0,0,802.801331
-499,-1573,3,0,0,0,742.594666
1231,-1572,4,0,0,0,688.006470
993,1112,1,0,0,0,771.753052
-1261,395,2,0,0,0,806.413147
-529,-1141,3,0,0,0,820.630188
1704,-969,4,1,0,3,93.204109
1560,646,1,0,0,0,736.028503
-1852,1273,2,1,0,1,156.192795
-1334,-1262,3,0,0,0,711.962585
1445,-711,4,1,0,3,93.204109
887,804,1,0,0,0,834.811340
-603,1691,2,0,0,0,718.441345
-1358,-1426,3,0,0,0,691.968994
1333,-1601,4,0,0,0,675.856506
1683,323,1,1,0,3,93.204109
-746,840,2,0,0,0,853.096619
-222,-1339,3,1,0,4,138.709656
528,-563,4,1,0,3,93.204109
1293,1070,1,0,0,0,737.757568
-1693,1633,2,0,0,0,641.190063
-190,-805,3,0,0,0,941.269104
126,-1058,4,0,0,0,868.342041
1033,1398,1,0,0,0,727.697388
-689,58,2,0,0,0,992.904663
-748,-1809,3,0,0,0,693.663696
1676,-1285,4,0,0,0,671.955139
1792,1422,1,0,0,0,649.129395
-1199,187,2,0,0,0,830.912354
-556,-509,3,0,0,0,968.015076
833,-846,4,0,0,0,837.197571
332,113,1,0,0,0,1188.663574
-998,1503,2,0,0,0,717.029114
-673,-1882,3,0,0,0,687.708679
1277,-1301,4,0,0,0,714.053650
1219,1008,1,0,0,0,754.754089
-1181,1657,2,1,0,1,174.600723
-985,-341,3,0,0,0,874.657227
585,-1275,4,0,0,0,789.236816
1974,498,1,0,0,0,682.443054
-1603,1245,2,0,0,0,683.309692
-564,-649,3,1,0,4,138.709656
1197,-1277,4,0,0,0,725.716736
355,1128,1,1,0,5,136.834366
-308,1521,2,0,0,0,760.233032
-247,-656,3,0,0,0,988.961670
257,-130,4,0,0,0,1245.479126
546,1192,1,0,0,0,808.666748
-1452,816,2,0,0,0,739.942322
-369,-1053,3,0,0,0,855.064636
1370,-869,4,0,0,0,747.484375
427,506,1,0,0,0,1005.405640
-1288,1701,2,0,0,0,669.033081
-119,-1342,3,0,0,0,800.844971
41,-1767,4,0,0,0,722.917053
1142,596,1,1,0,3,93.204109
-257,1820,2,0,0,0,711.697388
-633,-551,3,0,0,0,937.084412
1262,-1739,4,0,0,0,667.025757
208,1798,1,0,0,0,716.105408
-1268,1802,2,0,0,0,659.838989
-319,-205,3,0,0,0,1166.135376
1367,-227,4,0,0,0,792.757080
1848,123,1,0,0,0,709.518738
-557,1560,2,0,0,0,741.518005
-341,-1934,3,0,0,0,692.746216
312,-502,4,0,0,0,1038.124878
973,1939,1,0,0,0,664.277344
-1630,1113,2,1,0,1,186.317871
-365,-933,3,1,0,4,138.709656
1046,-1779,4,1,0,3,93.204109
1257,1330,1,0,0,0,712.953491
-291,1757,2,1,0,5,157.847717
-188,-200,3,0,0,0,1259.350098
1057,-1252,4,0,0,0,744.640991
1065,1985,1,0,0,0,653.529114
-1256,352,2,0,0,0,810.141174
-888,-475,3,0,0,0,884.574646
379,-582,4,0,0,0,991.620056
209,1371,1,0,0,0,792.525146
-417,728,2,0,0,0,937.169678
-1569,-361,3,0,0,0,749.680298
1138,-1684,4,0,0,0,682.919067
37,1819,1,0,0,0,714.623657
-967,1168,2,1,0,1,276.329010
-1806,-373,3,0,0,0,710.754333
1616,-744,4,0,0,0,721.047607
349,1019,1,1,0,5,137.925476
-1710,926,2,0,0,0,695.558655
-1270,-1074,3,0,0,0,740.345459
1387,-1729,4,0,0,0,658.138489
17,864,1,0,0,0,928.645264
-734,598,2,0,0,0,902.352966
-540,-480,3,0,0,0,980.239807
506,-583,4,0,0,0,961.154602
1445,934,1,0,0,0,730.626587
-778,133,2,0,0,0,954.759216
-618,-715,3,1,0,4,138.709656
925,-1203,4,0,0,0,766.661255
48,575,1,0,0,0,1045.064941
-1623,1545,2,0,0,0,655.036011
-284,-696,3,1,0,4,138.709656
672,-1443,4,0,0,0,752.941406
490,1274,1,1,0,5,124.839676
-1241,1610,2,1,0,1,177.736664
-264,-889,3,0,0,0,908.312866
10,-1163,4,0,0,0,843.128052
328,1574,1,0,0,0,750.069458
-1021,596,2,0,0,0,838.421814
-1389,-1293,3,1,0,4,138.709656
198,-761,4,0,0,0,955.838196
1496,1667,1,0,0,0,655.156860
-1034,480,2,0,0,0,848.890625
-1423,-1134,3,0,0,0,714.590942
1746,-531,4,0,0,0,713.745911
723,1809,1,0,0,0,695.043762
-1248,1042,2,0,0,0,746.875000
-487,-1247,3,0,0,0,802.673340
1882,-429,4,0,0,0,697.678833
1212,1798,1,0,0,0,664.420349
-1502,403,2,0,0,0,759.631653
-130,-1392,3,0,0,0,790.210205
890,-1262,4,1,0,3,93.204109
1329,1708,1,0,0,0,664.975403
-1702,1336,2,0,0,0,665.030579
-1563,-1263,3,0,0,0,686.167358
1440,-377,4,0,0,0,772.197205
22,270,1,1,0,0,342.805176
-171,1186,2,0,0,0,834.545532
-269,-184,3,0,0,0,1209.814819
905,-729,4,1,0,3,93.204109
582,95,1,0,0,0,1038.786377
-287,691,2,1,0,5,201.299835
-778,-555,3,1,0,4,138.709656
1492,-308,4,0,0,0,765.537537
1647,1213,1,0,0,0,681.093567
-268,170,2,0,0,0,1217.473633
-229,-838,3,0,0,0,927.129333
1589,-1031,4,0,0,0,703.084656
924,33,1,0,0,0,909.178284
-880,24,2,0,0,0,923.308105
-438,-707,3,0,0,0,939.684143
1408,-1038,4,1,0,3,93.204109
1214,776,1,0,0,0,781.553589
-1581,1451,2,1,0,1,170.313232
-912,-1571,3,1,0,4,138.709656
898,-1730,4,0,0,0,694.889465
1396,309,1,0,0,0,783.761902
-1380,1269,2,1,0,1,207.886902
-1095,-426,3,1,0,4,138.709656
300,-606,4,1,0,3,93.204109
1696,1507,1,1,0,5,68.011307
-1030,491,2,0,0,0,848.622498
-1916,-892,3,0,0,0,671.746216
71,-79,4,1,0,0,734.841553
1548,1255,1,1,0,3,93.204109
-254,1185,2,0,0,0,831.286804
-1583,-757,3,1,0,4,138.709656
1667,-683,4,0,0,0,717.453918
156,740,1,0,0,0,967.074951
-552,958,2,0,0,0,857.689148
-1981,-644,3,0,0,0,675.889160
1099,-1797,4,0,0,0,672.699951
226,1865,1,1,0,5,122.452179
-1756,647,2,0,0,0,706.547668
-31,-1319,3,0,0,0,806.860291
689,-1509,4,1,0,3,93.204109
673,1243,1,0,0,0,787.054077
-1505,1591,2,1,0,1,164.690186
-609,-57,3,0,0,0,1028.244995
449,-456,4,0,0,0,1015.210754
424,63,1,1,0,0,179.252213
-1928,1372,2,1,0,1,146.126038
-1041,-1198,3,0,0,0,753.790344
1545,-1139,4,0,0,0,699.286804
724,747,1,0,0,0,875.230652
-112,1091,2,1,0,5,187.508667
-1759,-709,3,1,0,4,138.709656
990,-1783,4,0,0,0,681.943420
650,118,1,0,0,0,1006.045227
-1081,414,2,1,0,1,217.450806
-886,-1175,3,1,0,4,138.709656
1390,-675,4,0,0,0,761.464722
529,883,1,0,0,0,878.275879
-832,601,2,0,0,0,879.107544
-331,-385,3,0,0,0,1081.945801
338,-817,4,0,0,0,922.057678
583,306,1,1,0,3,93.204109
-1229,236,2,1,0,1,183.752975
-998,-1129,3,0,0,0,768.682190
1059,-1158,4,0,0,0,757.042419
1753,840,1,0,0,0,695.671021
-46,1035,2,0,0,0,876.411804
-1865,-1086,3,0,0,0,665.767273
1747,-895,4,0,0,0,692.879944
475,1045,1,0,0,0,846.901367
-1671,225,2,1,0,1,154.703842
-942,-1022,3,0,0,0,791.889587
573,-183,4,1,0,3,93.204109
1248,567,1,0,0,0,795.875427
-1584,462,2,0,0,0,742.638245
-1453,-1336,3,1,0,4,138.709656
913,-797,4,1,0,3,93.204109
89,558,1,1,0,5,151.483658
-604,400,2,0,0,0,979.464600
-783,-118,3,1,0,4,138.709656
518,-1879,4,0,0,0,694.902283
1480,1873,1,0,0,0,636.986450
-1097,457,2,0,0,0,836.926941
-1264,-1187,3,1,0,4,138.709656
346,-1593,4,1,0,3,93.204109
1104,1221,1,0,0,0,743.316589
-857,134,2,1,0,1,175.987900
-272,-276,3,1,0,0,211.621765
202,-426,4,0,0,0,1103.314209
1194,1180,1,0,0,0,737.692078
-1556,33,2,0,0,0,759.405762
-1529,-381,3,0,0,0,755.849182
1306,-744,4,0,0,0,769.409302
682,985,1,0,0,0,834.594299
-1608,1,2,0,0,0,750.035889
-1287,-1347,3,0,0,0,707.835938
890,-374,4,0,0,0,896.742371
473,1516,1,0,0,0,753.613892
-1665,1608,2,0,0,0,645.774475
-750,-1578,3,0,0,0,726.230103
1476,-1195,4,0,0,0,702.339722
1579,959,1,0,0,0,710.243347
-1815,231,2,1,0,1,145.285873
-32,-1598,3,0,0,0,751.768555
117,-1463,4,0,0,0,776.250549
344,1102,1,0,0,0,845.263184
-907,945,2,0,0,0,808.943481
-32,-638,3,0,0,0,1015.728577
87,-564,4,0,0,0,1048.245117
1249,564,1,1,0,3,93.204109
-1159,376,2,0,0,0,829.736816
-924,-860,3,0,0,0,819.574646
1219,-1371,4,1,0,3,93.204109
968,681,1,0,0,0,838.100403
-1755,1486,2,0,0,0,647.641785
-1378,-1373,3,0,0,0,695.466370
666,-132,4,1,0,3,93.204109
102,224,1,0,0,0,1290.810669
-1980,239,2,1,0,1,134.922180
-905,-215,3,0,0,0,907.439331
1553,-1999,4,0,0,0,620.279541
1077,1596,1,0,0,0,698.403748
-1264,1330,2,1,0,1,213.297394
-462,-448,3,0,0,0,1013.596741
1785,-810,4,1,0,3,93.204109
1220,1971,1,0,0,0,645.366577
-1044,1548,2,0,0,0,707.199463
-818,-627,3,0,0,0,877.906433
1619,-37,4,0,0,0,748.004761
727,475,1,0,0,0,927.230774
-1895,1289,2,0,0,0,648.607117
-734,-752,3,0,0,0,872.324158
55,-1208,4,0,0,0,831.919922
1834,326,1,0,0,0,707.874939
-1631,1340,2,1,0,1,173.630280
-898,-1201,3,0,0,0,770.069641
1251,-665,4,1,0,3,93.204109
1188,1253,1,0,0,0,729.614441
-1174,240,2,0,0,0,834.541504
-1228,-1898,3,0,0,0,652.521851
971,-1023,4,0,0,0,787.674377
780,561,1,1,0,3,93.204109
-393,933,2,0,0,0,883.054016
-1913,-224,3,0,0,0,698.303406
1372,-945,4,0,0,0,739.877869
759,1593,1,0,0,0,723.387573
-84,820,2,0,0,0,942.255615
-127,-1743,3,1,0,4,138.709656
791,-445,4,0,0,0,914.525391
539,301,1,0,0,0,1025.575928
-363,1713,2,1,0,5,165.964951
-1675,-528,3,0,0,0,724.743591
1365,-575,4,0,0,0,773.622192
459,1182,1,0,0,0,818.278442
-39,533,2,0,0,0,1067.166992
-1850,-1130,3,0,0,0,664.491638
137,-686,4,0,0,0,989.543701
1053,308,1,0,0,0,859.918457
-1822,110,2,0,0,0,713.689758
-1652,-849,3,0,0,0,708.699829
783,-709,4,0,0,0,870.831665
765,521,1,0,0,0,908.875183
-1593,41,2,0,0,0,752.630310
-310,-620,3,0,0,0,992.178284
197,-1359,4,1,0,3,93.204109
1763,735,1,0,0,0,700.690491
-907,672,2,0,0,0,851.721863
-406,-1404,3,0,0,0,777.456177
630,-1127,4,0,0,0,813.078064
1764,387,1,0,0,0,716.745422
-1428,249,2,0,0,0,779.819702
-1691,-875,3,0,0,0,701.607117
1083,-1729,4,0,0,0,681.835388
578,1733,1,0,0,0,713.449463
-1631,1541,2,1,0,1,159.833862
-618,-1621,3,0,0,0,728.264465
534,-196,4,0,0,0,1049.174683
875,681,1,0,0,0,856.876953
-1090,1665,2,1,0,1,175.980133
-1335,-405,3,1,0,4,138.709656
641,-1171,4,0,0,0,803.481995
1569,1765,1,0,0,0,640.059509
-1896,105,2,0,0,0,702.369873
-61,-1402,3,0,0,0,789.129272
1752,-36,4,1,0,3,93.204109
1036,437,1,0,0,0,852.851685
-1235,117,2,0,0,0,824.575256
-952,-1218,3,0,0,0,761.338440
198,-104,4,0,0,0,1318.441040
1480,1561,1,0,0,0,666.705566
-1355,290,2,0,0,0,792.764160
-33,-1233,3,0,0,0,826.223267
105,-316,4,1,0,0,264.540253
1724,606,1,0,0,0,713.362122
-160,702,2,0,0,0,981.235962
-1547,-1158,3,0,0,0,697.364075
812,-1150,4,1,0,3,93.204109
230,1551,1,0,0,0,757.272339
-894,466,2,0,0,0,884.259277
-1158,-1465,3,0,0,0,707.160461
432,-454,4,0,0,0,1021.247437
818,1212,1,0,0,0,777.320740
-479,591,2,0,0,0,965.375427
-995,-253,3,0,0,0,879.024353
456,-1980,4,1,0,3,93.204109
1162,1450,1,0,0,0,708.582092
-885,1508,2,0,0,0,726.009277
-1004,-322,3,0,0,0,871.357849
322,-752,4,0,0,0,944.449280
1981,705,1,0,0,0,673.204041
-797,807,2,0,0,0,850.348206
-278,-153,3,0,0,0,1217.518066
1060,-1353,4,0,0,0,730.925781
1547,1083,1,0,0,0,703.956665
-48,534,2,0,0,0,1066.236206
-93,-1416,3,0,0,0,785.927795
1207,-143,4,0,0,0,830.451294
1993,1349,1,0,0,0,634.671692
-1301,884,2,0,0,0,756.367249
-312,-1550,3,0,0,0,754.879150
1493,-571,4,1,0,3,93.204109
1262,1498,1,0,0,0,693.489746
-1402,1258,2,0,0,0,704.678284
-142,-1731,3,0,0,0,727.933289
1371,-928,4,1,0,3,93.204109
1097,716,1,0,0,0,808.910645
-1428,1112,2,0,0,0,716.120300
-1507,-1287,3,0,0,0,690.144043
436,-101,4,0,0,0,1118.331177
918,1741,1,0,0,0,692.110779
-1867,536,2,0,0,0,695.884216
-543,-601,3,0,0,0,947.305786
410,-1703,4,0,0,0,725.493652
639,981,1,0,0,0,841.225159
-743,1698,2,0,0,0,709.309387
-853,-1024,3,1,0,4,138.709656
1121,-950,4,0,0,0,775.912231
311,39,1,0,0,0,1221.072510
-1675,1826,2,0,0,0,626.358826
-1174,-526,3,0,0,0,814.123352
935,-1718,4,1,0,3,93.204109
917,1943,1,0,0,0,667.045105
-556,485,2,1,0,5,202.375793
-445,-1960,3,0,0,0,686.114563
890,-968,4,0,0,0,807.821106
1518,646,1,0,0,0,742.683594
-1685,1757,2,1,0,1,142.078796
-822,-224,3,0,0,0,932.738708
1597,-905,4,0,0,0,712.080078
1666,1012,1,0,0,0,694.874634
-81,775,2,1,0,5,178.973755
-1668,-763,3,1,0,4,138.709656
1069,-470,4,1,0,3,93.204109
1220,1230,1,0,0,0,728.658813
-688,1063,2,0,0,0,818.680786
-54,-1460,3,0,0,0,777.559387
410,-948,4,0,0,0,877.290955
101,731,1,0,0,0,974.142334
-1557,1379,2,0,0,0,676.325073
-1958,-526,3,0,0,0,683.629272
1809,-881,4,0,0,0,685.795715
1833,434,1,0,0,0,704.675232
-1460,1476,2,0,0,0,676.845093
-624,-1068,3,1,0,4,138.709656
272,-368,4,1,0,3,93.204109
1204,782,1,0,0,0,782.583557
-311,1468,2,0,0,0,769.882263
-1484,-895,3,1,0,4,138.709656
1596,-772,4,0,0,0,722.037659
190,1520,1,0,0,0,763.964661
-885,1952,2,0,0,0,667.746582
-1602,-419,3,0,0,0,741.616577
1030,-1680,4,0,0,0,691.760376
507,63,1,0,0,0,1080.149048
-625,813,2,0,0,0,879.358154
-640,-1061,3,0,0,0,824.911438
1910,-48,4,0,0,0,700.611511
1919,997,1,1,0,3,93.204109
-187,1903,2,0,0,0,700.377380
-15,-1311,3,0,0,0,808.669739
1975,-634,4,1,0,3,93.204109
209,695,1,1,0,5,146.010681
-935,1854,2,0,0,0,676.799927
-492,-471,3,1,0,4,138.709656
1529,-571,4,0,0,0,745.760620
372,1656,1,0,0,0,734.537292
-1245,326,2,0,0,0,814.006165
-1556,-722,3,0,0,0,731.498962
1255,-949,4,0,0,0,756.276245
1544,1623,1,0,0,0,655.123779
-1486,258,2,0,0,0,768.422180
-1945,-1408,3,1,0,4,138.709656
1450,-1734,4,1,0,3,93.204109
868,300,1,0,0,0,911.118652
-1760,224,2,1,0,1,148.590866
-14,-1835,3,1,0,4,138.709656
1102,-719,4,1,0,3,93.204109
1693,1346,1,0,0,0,665.144531
-446,512,2,0,0,0,998.130493
-1250,-1601,3,0,0,0,683.099182
271,-1780,4,0,0,0,717.610229
274,1089,1,1,0,5,144.065903
-523,1708,2,0,0,0,719.884399
-1161,-895,3,0,0,0,776.591858
1213,-751,4,0,0,0,784.390503
1465,1637,1,0,0,0,660.695374
-1633,1303,2,0,0,0,675.054993
-1722,-1372,3,1,0,4,138.709656
654,-297,4,0,0,0,981.926880
569,314,1,0,0,0,1010.767822
-1076,586,2,0,0,0,828.145996
-1571,-1449,3,1,0,4,138.709656
683,-1140,4,0,0,0,804.780762
1200,799,1,0,0,0,781.385498
-945,336,2,0,0,0,885.750061
-962,-76,3,0,0,0,896.859192
63,-416,4,0,0,0,1136.142822
1270,1619,1,1,0,5,81.097176
-898,1585,2,0,0,0,714.256470
-1332,-1856,3,1,0,4,138.709656
523,-927,4,0,0,0,868.644409
162,318,1,0,0,0,1183.622437
-1879,812,2,0,0,0,680.888367
-323,-1418,3,1,0,4,138.709656
971,-1549,4,1,0,3,93.204109
1890,32,1,0,0,0,703.674683
-105,348,2,0,0,0,1178.329468
-367,-1869,3,1,0,4,138.709656
1365,-471,4,0,0,0,780.925781
494,1817,1,0,0,0,704.784912
-325,1914,2,0,0,0,696.034546
-383,-257,3,0,0,0,1109.641235
402,-699,4,0,0,0,948.595032
1931,674,1,0,0,0,681.125732
-894,1122,2,0,0,0,782.794006
-151,-215,3,0,0,0,1271.983521
504,-615,4,1,0,3,93.204109
1223,1220,1,0,0,0,729.481262
-985,786,2,0,0,0,820.058594
-433,-1206,3,1,0,4,138.709656
1211,-847,4,0,0,0,774.273010
325,1988,1,0,0,0,685.473633
-789,970,2,0,0,0,822.303345
-1605,-1346,3,0,0,0,674.295715
77,-1296,4,0,0,0,811.490173
1838,701,1,1,0,3,93.204109
-104,930,2,0,0,0,905.708008
-1567,-1903,3,0,0,0,627.827759
441,-1321,4,0,0,0,791.319946
1766,1802,1,0,0,0,621.212097
-460,803,2,0,0,0,908.918457
-1114,-1646,3,0,0,0,689.312683
39,-825,4,0,0,0,941.686401
1856,514,1,0,0,0,698.334839
-1113,1847,2,0,0,0,665.995667
-1008,-1349,3,0,0,0,736.787720
1959,-398,4,0,0,0,687.664673
1705,642,1,0,0,0,714.232056
-147,1437,2,0,0,0,780.821594
-648,-1721,3,1,0,4,138.709656
1012,-1359,4,0,0,0,735.020630
1010,1836,1,0,0,0,674.189758
-1118,1331,2,0,0,0,727.697876
-1708,-795,3,0,0,0,704.632996
1396,-1960,4,0,0,0,634.706726
843,1465,1,0,0,0,735.729248
-793,746,2,0,0,0,862.124084
-117,-1383,3,0,0,0,792.296997
639,-1272,4,0,0,0,785.031677
711,1208,1,0,0,0,789.460876
-1246,1879,2,0,0,0,653.284485
-349,-569,3,0,0,0,1003.058655
125,-315,4,0,0,0,1198.543823
1683,572,1,0,0,0,721.288757
-201,881,2,1,0,5,200.438553
-295,-1023,3,1,0,4,138.709656
134,-22,4,0,0,0,1462.397827
1558,656,1,1,0,3,93.204109
-1366,1132,2,0,0,0,721.847351
-1953,-1651,3,0,0,0,617.373413
1215,-128,4,0,0,0,828.968567
1033,1804,1,0,0,0,676.469971
-1536,624,2,0,0,0,741.266052
-1511,-1289,3,1,0,4,138.709656
1841,-60,4,1,0,3,93.204109
1057,92,1,0,0,0,869.554871
-1916,872,2,0,0,0,672.879456
-1784,-1424,3,0,0,0,649.755493
1374,-1956,4,0,0,0,636.604919
1668,730,1,0,0,0,714.407715
-248,1906,2,0,0,0,698.899109
-600,-543,3,0,0,0,947.569763
1314,-903,4,0,0,0,752.479309
862,715,1,1,0,3,93.204109
-890,622,2,0,0,0,862.900940
-972,-1225,3,0,0,0,758.038513
404,-694,4,0,0,0,949.786072
1175,653,1,0,0,0,801.487000
-1528,1180,2,1,0,1,196.207291
-1861,-128,3,0,0,0,707.468140
623,-395,4,0,0,0,974.250183
1496,796,1,0,0,0,734.990417
-249,701,2,1,0,5,196.867813
-438,-680,3,1,0,4,138.709656
63,-1200,4,0,0,0,833.733215
1187,253,1,1,0,3,93.204109
-557,656,2,0,0,0,929.845947
-789,-1659,3,0,0,0,711.852112
378,-1986,4,1,0,3,93.204109
1036,1704,1,0,0,0,688.352722
-61,1656,2,0,0,0,741.402649
-1600,-1616,3,0,0,0,650.826782
1978,-116,4,0,0,0,690.198059
314,573,1,0,0,0,1009.217163
-630,299,2,0,0,0,990.448853
-1589,-1700,3,1,0,4,138.709656
134,-1726,4,0,0,0,728.862793
1719,389,1,0,0,0,723.730957
-1722,719,2,0,0,0,707.363708
-743,-1507,3,0,0,0,737.434631
126,-1413,4,0,0,0,786.017639
1433,1189,1,0,0,0,707.983337
-1988,454,2,1,0,1,142.464294
-913,-1127,3,0,0,0,779.648132
1379,-1683,4,0,0,0,663.439819
1363,1601,1,1,0,5,77.972443
-1840,1790,2,0,0,0,616.296753
-721,-197,3,0,0,0,970.461670
339,-1660,4,0,0,0,735.045837
475,1177,1,0,0,0,817.997070
-516,1306,2,0,0,0,788.942017
-236,-1614,3,0,0,0,745.932495
1741,-1338,4,1,0,3,93.204109
1984,1382,1,1,0,3,93.204109
-1281,960,2,0,0,0,751.323669
-674,-136,3,1,0,4,138.709656
640,-817,4,0,0,0,875.910095
222,809,1,1,0,5,147.461578
1819,-538,4,0,0,0,702.673462
886,427,1,0,0,0,891.382568
1603,-1414,4,0,0,0,668.511230
468,1162,1,0,0,0,821.766602
268,-1867,4,0,0,0,704.301697
318,1708,1,1,0,5,124.033203
1739,-1310,4,1,0,3,93.204109
1948,1652,1,0,0,0,617.726318
926,-1101,4,0,0,0,781.989807
747,808,1,1,0,5,109.501617
507,-750,4,0,0,0,915.254028
1597,670,1,0,0,0,728.753723
908,-1408,4,0,0,0,738.258423
304,586,1,0,0,0,1006.247559
954,-1100,4,0,0,0,778.531433
1181,213,1,0,0,0,834.116028
116,-1233,4,0,0,0,825.058960
894,1530,1,0,0,0,722.177368
1995,-286,4,0,0,0,685.330872
1229,113,1,0,0,0,826.050232
917,-1653,4,0,0,0,703.667908
375,888,1,0,0,0,897.176636
551,-1503,4,0,0,0,751.320862
288,1448,1,0,0,0,774.554749
524,-239,4,0,0,0,1045.599365
987,276,1,0,0,0,879.529114
1682,1171,1,0,0,0,680.534729
831,193,1,0,0,0,932.352295
233,1326,1,0,0,0,801.047729
1909,1576,1,1,0,3,93.204109
1785,405,1,0,0,0,712.897888
1998,254,1,0,0,0,685.517578
1891,1760,1,1,0,5,60.974400
1333,225,1,1,0,3,93.204109
1516,1255,1,0,0,0,692.130127
