each times' max average throughput
562.614136,564.759888,563.466553,565.449524,566.629578,563.861450,560.449280,560.875671,564.539795,562.082153,562.720520,558.931946,566.190796,564.255676,560.422363,563.826294,563.299438,560.256287,565.365173,563.957153,563.229553,567.117065,565.635437,562.405457,562.389709,558.140015,561.802917,563.534912,565.638672,566.833313,565.833252,563.935913,563.872681,556.679993,565.530823,562.645752,564.794495,555.135864,566.026733,559.763428,563.277222,564.448547,565.331909,561.437744,559.372925,557.923706,564.573425,560.668457,562.501648,553.622131,564.391724,565.262329,559.594238,563.636475,561.431396,565.609680,565.124451,561.783569,562.691589,566.352295,563.982239,562.691589,562.691589,563.867065,566.051453,562.691589,561.595886,562.691589,562.691589,562.691589,562.345825,562.691589,562.691589,561.516174,566.885559,562.691589,564.057068,562.691589,562.691589,564.654175,564.911560,562.691589,562.691589,560.892273,565.643921,562.691589,561.925903,562.691589,562.691589,561.612305,562.345825,562.691589,562.691589,560.043945,562.691589,562.691589,562.826721,562.691589,562.691589,558.449585,
avg. throughput in all test times
562.867615
avg. BS TX power in all test times
MBS area 1,MBS area 2,MBS area 3,MBS area 4,MBS area 5,MBS area 6,MBS area 7,CBSD 1,CBSD 2,CBSD 3,CBSD 4,CBSD 5,CBSD 6,CBSD 7,CBSD 8,CBSD 9,CBSD 10,
7.075,6.525,6.762,6.613,7.262,6.400,8.613,0.000,0.000,0.000,0.000,0.000,0.000,0.000,0.000,0.000,0.000,
avg. mbs all power,avg. cbsd enable number,avg. mbs area all power,avg. cbsd all power
49.250,0.000,49.250,0.000
avg. max avg. throughput generation number in all test times
1.000000
avg. number of relay UE
0



the max average throughput times

BS TX power
MBS area 1,MBS area 2,MBS area 3,MBS area 4,MBS area 5,MBS area 6,MBS area 7,CBSD 1,CBSD 2,CBSD 3,CBSD 4,CBSD 5,CBSD 6,CBSD 7,CBSD 8,CBSD 9,CBSD 10,
6.250,5.000,6.250,7.500,6.250,6.250,8.750,0.000,0.000,0.000,0.000,0.000,0.000,0.000,0.000,0.000,0.000,
max average throughput
558.449585

x,y,area,be blocked (1 : NLOS / 0 : LOS),be blocked number (>=1 : CBSD(x) / 0 : no),connect bs number (>=1 : CBSD / 0 : MBS),throughput (unit : M bps)
1036,1759,1,1,0,0,2.042591
1153,159,2,0,0,0,743.331177
-1646,1316,3,0,0,0,605.574341
-524,1973,4,1,0,0,2.447722
-305,-769,5,1,0,0,28.006941
-1812,-768,6,0,0,0,625.039429
598,-1941,7,0,0,0,664.036987
1661,1820,1,0,0,0,561.261169
836,352,2,0,0,0,814.938049
-416,197,3,1,0,0,116.601715
-278,1459,4,0,0,0,731.554138
-84,-1788,5,0,0,0,652.075623
-590,-17,6,0,0,0,970.778809
892,-162,7,0,0,0,895.611755
1033,1600,1,0,0,0,634.389099
1990,1721,2,0,0,0,511.399963
-439,53,3,0,0,0,1054.033936
-1557,1679,4,0,0,0,607.889465
-602,-989,5,0,0,0,776.866577
-580,-308,6,0,0,0,940.032654
1435,-1998,7,0,0,0,609.430481
1123,1955,1,0,0,0,586.409119
235,83,2,1,0,0,286.172119
-1888,1762,3,0,0,0,548.001160
-691,1401,4,0,0,0,717.086487
-797,-1228,5,0,0,0,709.565796
-1279,-1187,6,0,0,0,659.349915
1799,-294,7,0,0,0,694.956299
191,992,1,0,0,0,816.054382
996,962,2,1,0,0,5.178894
-1401,682,3,0,0,0,691.709595
-1785,1807,4,0,0,0,578.465027
-116,-1684,5,0,0,0,668.827759
-906,-649,6,0,0,0,787.826782
618,-1515,7,0,0,0,725.901306
405,1290,1,0,0,0,732.350281
1109,960,2,0,0,0,677.084656
-1078,475,3,0,0,0,771.899109
-66,1111,4,1,0,0,14.481692
-332,-1490,5,0,0,0,697.581055
-1731,-100,6,0,0,0,661.164185
1618,-1534,7,1,0,0,2.193814
704,1641,1,0,0,0,652.767761
1346,811,2,0,0,0,657.394653
-1755,1456,3,1,0,0,1.468388
-42,1772,4,0,0,0,680.922302
-1628,-1973,5,1,0,0,1.041866
-1862,-1789,6,0,0,0,548.035828
86,-721,7,1,0,0,52.967861
1315,1318,1,0,0,0,640.849976
1374,1252,2,1,0,0,2.163423
-964,405,3,1,0,0,14.549530
-890,1799,4,0,0,0,645.417175
-547,-1450,5,0,0,0,693.263000
-1265,-1174,6,0,0,0,662.493774
1234,-250,7,0,0,0,801.114624
464,961,1,0,0,0,800.293152
1562,688,2,1,0,0,2.788609
-1111,615,3,0,0,0,750.346436
-706,1687,4,0,0,0,671.986755
-318,-1836,5,1,0,0,2.680033
-1824,-224,6,1,0,0,2.792658
144,-245,7,0,0,0,1230.074219
160,666,1,1,0,0,46.204041
1770,1553,2,0,0,0,542.575012
-886,150,3,0,0,0,849.730469
-504,1582,4,0,0,0,699.624756
-567,-831,5,0,0,0,817.256042
-544,-96,6,0,0,0,989.874390
90,-1693,7,0,0,0,715.716858
1464,1795,1,0,0,0,578.752686
1660,854,2,0,0,0,608.321716
-1168,639,3,0,0,0,736.777161
-434,1205,4,1,0,0,9.664777
-127,-381,5,0,0,0,1081.790283
-1400,-619,6,0,0,0,696.794617
1692,-335,7,0,0,0,710.782532
10,694,1,0,0,0,924.090454
1186,855,2,0,0,0,678.008606
-1442,988,3,1,0,0,3.239992
-18,1607,4,0,0,0,708.957703
-146,-374,5,0,0,0,1081.877930
-375,-153,6,0,0,0,1079.357788
219,-1986,7,0,0,0,668.716064
1035,1880,1,0,0,0,600.409119
507,476,2,0,0,0,891.393677
-1216,703,3,0,0,0,721.428711
-998,1589,4,0,0,0,664.638672
-531,-703,5,1,0,0,23.560028
-774,-683,6,0,0,0,809.848755
940,-120,7,0,0,0,882.864868
669,1983,1,0,0,0,607.550415
1239,964,2,1,0,0,3.574233
-1381,159,3,1,0,0,6.371896
-241,1212,4,0,0,0,784.344055
-505,-1784,5,1,0,0,2.719919
-667,-112,6,0,0,0,931.546631
1998,-333,7,0,0,0,664.807495
662,707,1,0,0,0,828.167236
1563,1426,2,0,0,0,572.802856
-785,727,3,1,0,0,13.624393
-305,1928,4,0,0,0,653.365173
-813,-859,5,1,0,0,10.208047
-1882,-1118,6,0,0,0,594.781250
1661,-324,7,0,0,0,716.238586
531,1499,1,0,0,0,685.877136
1220,121,2,0,0,0,728.430420
-724,15,3,0,0,0,911.868713
-584,1592,4,0,0,0,693.587769
-678,-1081,5,1,0,0,8.186438
-1021,-867,6,0,0,0,735.041565
1498,-202,7,0,0,0,748.625549
1259,1326,1,0,0,0,646.001709
1681,1622,2,0,0,0,544.831604
-1899,1346,3,0,0,0,577.370667
-11,1248,4,0,0,0,781.494263
-237,-1081,5,0,0,0,789.842712
-1847,-1528,6,0,0,0,569.043579
814,-97,7,0,0,0,924.609375
42,1142,1,1,0,0,11.274428
1050,12,2,1,0,0,11.611722
-1431,479,3,0,0,0,700.881592
-117,339,4,1,0,0,205.522568
-1049,-1614,5,0,0,0,631.345825
-1559,-883,6,0,0,0,651.801086
703,-1009,7,0,0,0,807.886963
85,355,1,0,0,0,1109.328613
1557,890,2,0,0,0,619.727539
-1480,662,3,0,0,0,680.348877
-435,725,4,0,0,0,893.510620
-1926,-1964,5,1,0,0,0.838348
-461,-213,6,1,0,0,94.579422
943,-991,7,1,0,0,9.266892
164,356,1,0,0,0,1088.804321
1659,1586,2,0,0,0,549.801697
-641,161,3,0,0,0,938.194580
-229,1190,4,0,0,0,789.954041
-720,-1825,5,0,0,0,625.929810
-1562,-381,6,0,0,0,682.742493
1611,-728,7,0,0,0,703.728760
793,1029,1,0,0,0,743.812439
1131,673,2,0,0,0,708.108398
-1994,1076,3,0,0,0,585.003357
-151,256,4,0,0,0,1194.907104
-535,-1427,5,0,0,0,698.059021
-930,-495,6,0,0,0,803.986206
1476,-747,7,0,0,0,722.754150
153,344,1,0,0,0,1100.416504
1906,108,2,1,0,0,1.998361
-1819,820,3,1,0,0,2.186480
-1321,1474,4,0,0,0,649.395081
-840,-1457,5,0,0,0,669.877686
-844,-108,6,0,0,0,865.435608
125,-1906,7,1,0,0,3.473584
25,1576,1,1,0,0,4.401300
465,80,2,1,0,0,94.400887
-1351,143,3,0,0,0,730.982483
-562,1510,4,0,0,0,708.229126
-194,-1910,5,0,0,0,632.103882
-1603,-503,6,0,0,0,670.172607
1873,-573,7,0,0,0,674.400696
757,871,1,0,0,0,777.816223
966,676,2,1,0,0,8.298695
-1699,798,3,0,0,0,638.522644
-1189,1451,4,0,0,0,664.711914
-1172,-1841,5,0,0,0,595.642517
-1401,-238,6,0,0,0,718.085205
113,-134,7,1,0,0,502.384857
1057,1543,1,1,0,0,2.650403
864,351,2,0,0,0,806.969910
-1575,425,3,0,0,0,678.586182
-1008,1188,4,0,0,0,717.844543
-975,-1725,5,0,0,0,623.101685
-1498,-735,6,0,0,0,672.129333
1679,-1069,7,1,0,0,3.074020
190,571,1,0,0,0,965.200256
1647,341,2,0,0,0,638.009338
-1607,1100,3,0,0,0,628.038452
-1043,1981,4,1,0,0,1.859480
-115,-366,5,0,0,0,1094.989868
-1684,-9,6,0,0,0,669.499939
1940,-593,7,0,0,0,664.377930
146,1825,1,1,0,0,2.823912
1572,476,2,0,0,0,644.776550
-498,496,3,0,0,0,920.463928
-798,1599,4,0,0,0,678.581421
-6,-1941,5,0,0,0,628.977661
-708,-227,6,0,0,0,904.275940
995,-1730,7,0,0,0,669.046875
165,1957,1,0,0,0,625.632202
237,195,2,0,0,0,1127.170898
-1602,1590,3,0,0,0,586.092773
-160,348,4,0,0,0,1121.749512
-1365,-1545,5,0,0,0,611.820435
-1209,-604,6,0,0,0,732.477966
584,-1991,7,1,0,0,2.717100
1675,1901,1,0,0,0,553.386841
1513,344,2,1,0,0,3.700093
-257,40,3,0,0,0,1207.095459
-1765,1947,4,0,0,0,568.826355
-1507,-1991,5,0,0,0,557.500061
-747,-259,6,1,0,0,31.666864
1107,-403,7,1,0,0,14.257048
222,453,1,0,0,0,1016.039551
1628,1215,2,0,0,0,584.329712
-1704,90,3,0,0,0,665.732666
-1095,1502,4,0,0,0,667.337219
-527,-613,5,0,0,0,880.181519
-992,-383,6,0,0,0,801.314331
793,-1259,7,0,0,0,753.146851
544,1783,1,0,0,0,640.493530
1162,752,2,0,0,0,693.682068
-426,4,3,0,0,0,1064.775513
-825,1259,4,0,0,0,727.723816
-673,-1312,5,1,0,0,5.357892
-1633,-949,6,1,0,0,2.574348
801,-1493,7,1,0,0,4.951523
434,1517,1,0,0,0,688.118286
1617,301,2,1,0,0,3.112653
-1970,621,3,0,0,0,611.276428
-1073,1229,4,1,0,0,4.756645
-1547,-1840,5,1,0,0,1.254322
-1123,-341,6,0,0,0,772.968872
215,-161,7,1,0,0,328.743500
222,1677,1,0,0,0,668.212341
1156,427,2,0,0,0,726.948242
-1146,446,3,0,0,0,759.563110
-268,388,4,0,0,0,1061.776611
-118,-1524,5,0,0,0,697.202148
-418,-182,6,0,0,0,1045.226318
302,-238,7,0,0,0,1142.859619
792,1753,1,0,0,0,631.543030
705,660,2,0,0,0,796.930298
-868,230,3,1,0,0,22.347090
-94,848,4,0,0,0,890.897949
-37,-1711,5,0,0,0,664.892578
-1702,-1458,6,0,0,0,588.109619
1959,-1901,7,0,0,0,579.888306
307,1194,1,0,0,0,758.838745
1091,1007,2,1,0,0,4.215682
-1270,553,3,0,0,0,725.417847
-711,1075,4,0,0,0,772.253723
-30,-1668,5,1,0,0,3.720843
-1363,-754,6,0,0,0,691.806396
1250,-25,7,0,0,0,803.135132
340,1038,1,0,0,0,793.608704
1211,502,2,0,0,0,709.234436
-1810,391,3,1,0,0,2.730180
-852,1414,4,0,0,0,701.266846
-68,-331,5,0,0,0,1131.595337
-1608,-1458,6,0,0,0,597.183716
1023,-355,7,1,0,0,18.110811
1643,1906,1,1,0,0,1.094122
991,783,2,0,0,0,719.904541
-1840,816,3,0,0,0,618.633911
-310,1226,4,0,0,0,777.713257
-161,-390,5,1,0,0,138.681351
-1700,-946,6,0,0,0,628.321655
1543,-35,7,1,0,0,6.514886
383,1023,1,0,0,0,793.587769
672,524,2,0,0,0,832.903748
-1504,1241,3,0,0,0,627.676636
-333,1926,4,0,0,0,652.985596
-158,-755,5,0,0,0,893.684448
-1434,-345,6,0,0,0,707.430908
242,-608,7,1,0,0,68.350052
222,1387,1,0,0,0,721.415100
1812,1214,2,1,0,0,1.343087
-764,492,3,1,0,0,21.618633
-1805,1850,4,0,0,0,573.524536
-38,-326,5,0,0,0,1140.000854
-249,-82,6,0,0,0,1204.819336
1558,-152,7,0,0,0,738.585388
1504,1993,1,0,0,0,557.523865
984,63,2,1,0,0,13.911866
-1750,283,3,0,0,0,654.837646
-317,657,4,1,0,0,45.942623
-42,-467,5,1,0,0,112.217049
-1528,-46,6,0,0,0,697.177734
1007,-1469,7,0,0,0,701.605103
1048,1846,1,1,0,0,1.818133
881,428,2,0,0,0,792.871460
-1969,1080,3,1,0,0,1.536945
-628,771,4,0,0,0,846.816223
-936,-1960,5,1,0,0,1.697861
-1210,-742,6,1,0,0,5.993721
149,-305,7,0,0,0,1178.812866
320,554,1,0,0,0,947.557373
1142,134,2,0,0,0,746.822083
-1365,937,3,1,0,0,3.805425
-378,503,4,0,0,0,978.631714
-1425,-1594,5,1,0,0,1.779475
-1575,-802,6,0,0,0,655.692200
1614,-955,7,0,0,0,686.830688
591,1478,1,0,0,0,685.605774
1937,1408,2,1,0,0,1.015962
-1945,1062,3,0,0,0,591.299744
-311,888,4,1,0,0,23.237085
-718,-1693,5,1,0,0,2.786990
-795,-142,6,1,0,0,29.902603
258,-1938,7,0,0,0,674.925171
1635,1887,1,0,0,0,557.525818
1387,911,2,1,0,0,3.031807
-763,548,3,0,0,0,836.957764
-1498,1712,4,0,0,0,609.754333
-1129,-1885,5,0,0,0,593.718689
-1382,-665,6,1,0,0,4.771504
1531,-1815,7,0,0,0,619.485779
775,923,1,0,0,0,765.342346
1397,1251,2,0,0,0,607.035034
-1316,47,3,0,0,0,739.924683
-577,1921,4,0,0,0,645.606079
-522,-1885,5,0,0,0,626.794861
-1540,-206,6,1,0,0,4.592060
445,-333,7,0,0,0,1036.607666
599,1481,1,1,0,0,4.229712
1999,1137,2,0,0,0,549.238098
-1863,1362,3,0,0,0,579.799927
-658,1109,4,0,0,0,772.106934
-98,-1519,5,0,0,0,698.403748
-1472,-412,6,0,0,0,697.200378
1317,-214,7,0,0,0,784.444275
109,1101,1,0,0,0,789.918701
939,361,2,0,0,0,785.189453
-1511,143,3,1,0,0,4.920677
-542,610,4,0,0,0,903.731567
-12,-1518,5,0,0,0,699.177917
-1345,-121,6,1,0,0,6.936716
1616,-946,7,1,0,0,3.684167
188,1581,1,0,0,0,685.541443
1280,650,2,0,0,0,683.234619
-1803,1350,3,1,0,0,1.523434
-26,747,4,1,0,0,43.144875
-435,-1007,5,0,0,0,792.382019
-1777,-1174,6,0,0,0,602.572449
49,-1181,7,0,0,0,819.270020
121,1494,1,0,0,0,702.813538
1412,1236,2,0,0,0,606.839783
-1698,1042,3,0,0,0,621.561401
-1689,1826,4,0,0,0,584.396729
-852,-1314,5,1,0,0,4.486117
-906,-525,6,0,0,0,805.740479
1831,-714,7,0,0,0,673.439087
666,1325,1,0,0,0,705.872803
1021,195,2,0,0,0,775.793152
-1181,612,3,0,0,0,737.039612
-829,1348,4,0,0,0,713.374451
-491,-1037,5,1,0,0,11.144614
-179,-166,6,1,0,0,322.305756
619,-1866,7,0,0,0,673.337158
393,1706,1,1,0,0,3.225294
882,179,2,0,0,0,817.198486
-1438,730,3,0,0,0,681.874573
-930,1895,4,0,0,0,631.043518
-1121,-1460,5,0,0,0,644.099854
-822,-555,6,0,0,0,821.339722
1088,-322,7,0,0,0,831.031860
498,631,1,0,0,0,881.805786
983,833,2,0,0,0,714.181763
-384,141,3,1,0,0,147.098724
-859,981,4,1,0,0,9.174625
-555,-1177,5,0,0,0,743.331970
-1280,-1170,6,1,0,0,3.317310
1847,-10,7,0,0,0,691.188110
1351,1592,1,0,0,0,608.206848
984,291,2,0,0,0,779.499512
-824,549,3,0,0,0,821.827698
-595,1459,4,0,0,0,714.617615
-401,-1474,5,0,0,0,697.387451
-1787,-788,6,1,0,0,2.330327
449,-1835,7,0,0,0,684.739197
39,1496,1,0,0,0,703.269226
1570,29,2,0,0,0,657.608337
-1969,1705,3,0,0,0,545.594849
-212,1465,4,0,0,0,732.519287
-146,-1310,5,0,0,0,739.647827
-1925,-604,6,1,0,0,2.115451
1316,-828,7,0,0,0,740.531616
1109,1562,1,1,0,0,2.468215
1855,1146,2,0,0,0,564.282715
-1999,1831,3,0,0,0,534.334961
-102,1498,4,1,0,0,6.074523
-425,-640,5,1,0,0,34.200695
-975,-857,6,1,0,0,7.786682
615,-697,7,1,0,0,27.673668
879,1688,1,1,0,0,2.516762
475,265,2,0,0,0,962.179993
-1471,444,3,0,0,0,695.710754
-1696,1910,4,1,0,0,1.254663
-104,-511,5,0,0,0,1006.483521
-1957,-1707,6,1,0,0,0.995877
551,-911,7,1,0,0,18.994774
828,923,1,0,0,0,757.183594
484,123,2,0,0,0,986.800293
-1704,972,3,0,0,0,625.952820
-590,1913,4,0,0,0,646.156799
-125,-822,5,1,0,0,27.625010
-660,-613,6,1,0,0,22.154154
1227,-1889,7,0,0,0,634.503723
294,934,1,0,0,0,825.028931
1577,165,2,0,0,0,654.832886
-1113,310,3,0,0,0,777.473877
-1291,1828,4,0,0,0,614.410156
-679,-1472,5,0,0,0,680.393311
-935,-215,6,0,0,0,830.897705
1330,-1605,7,0,0,0,656.623291
1537,1632,1,0,0,0,588.018433
1834,1379,2,1,0,0,1.154207
-981,918,3,1,0,0,7.041514
-1029,1233,4,0,0,0,709.159973
-395,-1663,5,0,0,0,665.248901
-521,-335,6,0,0,0,956.880981
1846,-1402,7,0,0,0,626.335083
901,1090,1,0,0,0,719.478638
1725,890,2,0,0,0,597.237366
-1085,464,3,0,0,0,771.402161
-528,1224,4,0,0,0,762.577759
-207,-1872,5,1,0,0,2.596005
-1975,-1660,6,0,0,0,548.275696
1296,-1978,7,0,0,0,620.653809
1181,1331,1,0,0,0,653.763794
509,449,2,0,0,0,898.391235
-1423,54,3,1,0,0,5.936575
-1082,1622,4,0,0,0,653.688110
-842,-1011,5,0,0,0,740.171326
-1864,-1134,6,0,0,0,595.714355
1179,-1425,7,0,0,0,690.804565
758,1576,1,0,0,0,658.716858
1229,1141,2,0,0,0,638.846680
-1242,876,3,1,0,0,4.900680
-335,1800,4,0,0,0,671.653381
-892,-997,5,0,0,0,735.398254
-1935,-146,6,1,0,0,2.375385
307,-1946,7,0,0,0,672.744934
32,1717,1,0,0,0,663.910034
948,939,2,0,0,0,704.167419
-1849,1575,3,0,0,0,565.321472
-1271,1938,4,1,0,0,1.677225
-483,-962,5,0,0,0,797.801758
-1031,-7,6,0,0,0,810.193665
1595,-1157,7,0,0,0,672.689392
1121,1719,1,0,0,0,613.119446
1370,1151,2,1,0,0,2.423371
-874,275,3,0,0,0,844.138367
-902,1069,4,0,0,0,748.774963
-509,-1897,5,1,0,0,2.291450
-1002,-276,6,1,0,0,14.802670
1788,-1823,7,0,0,0,598.823730
1391,1769,1,0,0,0,586.937744
1717,646,2,0,0,0,613.283081
-1884,771,3,1,0,0,2.059851
-315,1371,4,0,0,0,747.134827
-969,-1780,5,1,0,0,2.087196
-1055,-668,6,0,0,0,755.169006
1070,-1848,7,0,0,0,649.728394
1155,1835,1,0,0,0,597.490967
1791,621,2,0,0,0,603.968567
-1029,95,3,0,0,0,809.538635
-483,802,4,0,0,0,864.166748
-44,-573,5,0,0,0,978.477295
-943,-89,6,1,0,0,19.250654
1496,-1591,7,0,0,0,643.327515
1366,1830,1,0,0,0,582.783142
1435,1095,2,0,0,0,617.886047
-524,460,3,0,0,0,922.768921
-1377,1757,4,0,0,0,615.124268
-1036,-1577,5,0,0,0,637.040833
-1417,-974,6,0,0,0,663.549500
1390,-1673,7,0,0,0,644.476379
1310,1637,1,0,0,0,607.031555
1587,255,2,0,0,0,650.944824
-1537,1107,3,0,0,0,635.940430
-465,1370,4,0,0,0,739.083191
-189,-933,5,0,0,0,833.140259
-1060,-686,6,0,0,0,751.988586
969,-926,7,1,0,0,9.832884
420,1170,1,0,0,0,756.458740
153,102,2,0,0,0,1274.939209
-1401,46,3,1,0,0,6.217925
-522,717,4,0,0,0,879.745850
-60,-608,5,0,0,0,960.841492
-730,-425,6,0,0,0,867.532959
209,-1867,7,0,0,0,686.329407
547,646,1,0,0,0,866.929260
1346,1074,2,0,0,0,631.303772
-1980,102,3,0,0,0,622.936646
-1489,1534,4,1,0,0,2.133568
-316,-1258,5,0,0,0,744.261230
-1656,-390,6,1,0,0,3.510868
490,-759,7,0,0,0,896.618652
11,1577,1,0,0,0,688.267517
344,35,2,1,0,0,174.303650
-862,456,3,1,0,0,17.734943
-310,975,4,0,0,0,838.630554
-292,-1316,5,0,0,0,733.215942
-1372,-856,6,1,0,0,4.080007
13,-1942,7,0,0,0,676.840332
793,1918,1,0,0,0,609.915710
676,557,2,0,0,0,824.993042
-918,220,3,1,0,0,19.434267
-748,1406,4,0,0,0,711.556213
-998,-1942,5,0,0,0,595.508362
-1824,-1049,6,1,0,0,1.866475
1209,-1561,7,0,0,0,672.111755
871,893,1,0,0,0,755.460205
1497,303,2,1,0,0,3.876815
-1651,1357,3,0,0,0,601.597534
-14,558,4,0,0,0,1013.157410
-136,-224,5,1,0,0,295.247986
-931,-132,6,0,0,0,836.679077
1225,-670,7,1,0,0,8.731343
1221,1840,1,0,0,0,592.298218
1117,267,2,0,0,0,747.163513
-1198,934,3,0,0,0,698.986084
-1065,1269,4,0,0,0,700.257446
-246,-1325,5,0,0,0,733.293274
-1158,-401,6,0,0,0,760.560059
898,-160,7,0,0,0,893.854126
1006,1311,1,0,0,0,674.900818
406,335,2,1,0,0,73.589951
-424,51,3,1,0,0,135.472824
-218,871,4,0,0,0,876.204712
-33,-1913,5,1,0,0,2.477327
-1202,-781,6,0,0,0,715.601074
1908,-812,7,0,0,0,658.113403
211,1479,1,0,0,0,703.754456
1652,668,2,0,0,0,621.554382
-1589,400,3,0,0,0,677.320251
-893,1977,4,0,0,0,623.268494
-451,-1854,5,0,0,0,633.854919
-1026,-326,6,0,0,0,797.774719
1374,-498,7,0,0,0,758.297424
527,1292,1,1,0,0,6.302142
1902,1724,2,0,0,0,518.294800
-962,158,3,1,0,0,17.750013
-1669,1794,4,0,0,0,588.653748
-109,-1718,5,0,0,0,663.219543
-1085,-239,6,0,0,0,788.719177
684,-1918,7,1,0,0,2.872879
251,1186,1,1,0,0,9.503301
835,329,2,0,0,0,817.999084
-950,724,3,1,0,0,9.920846
-780,1336,4,0,0,0,719.872314
-538,-1755,5,0,0,0,644.892029
-1841,-1380,6,0,0,0,580.657166
531,-564,7,0,0,0,940.921143
70,464,1,0,0,0,1036.906250
174,81,2,0,0,0,1262.583252
-951,929,3,0,0,0,737.190552
-824,1912,4,0,0,0,634.972595
-384,-700,5,1,0,0,30.841236
-868,-355,6,0,0,0,837.451538
681,-1853,7,0,0,0,672.149414
1606,1821,1,0,0,0,565.420837
605,311,2,0,0,0,897.747803
-1129,396,3,0,0,0,767.442810
-884,1107,4,0,0,0,745.116272
-829,-1528,5,1,0,0,3.293374
-983,-374,6,0,0,0,804.473999
251,-1388,7,1,0,0,8.476768
130,1775,1,0,0,0,653.709656
1016,726,2,0,0,0,723.160767
-1971,653,3,0,0,0,609.794312
-705,1383,4,0,0,0,718.892639
-170,-1341,5,1,0,0,6.917177
-349,-250,6,0,0,0,1062.561035
1086,-1561,7,0,0,0,682.856750
125,1850,1,0,0,0,642.015625
1614,111,2,0,0,0,649.094543
-1664,935,3,1,0,0,2.495076
-366,1648,4,0,0,0,694.870300
-512,-1831,5,0,0,0,634.876465
-861,-94,6,0,0,0,860.328247
1239,-763,7,0,0,0,759.552002
773,1131,1,0,0,0,728.591553
1756,1618,2,0,0,0,538.648193
-1576,227,3,0,0,0,685.518860
-348,733,4,0,0,0,905.356628
-115,-1023,5,0,0,0,810.634827
-947,-94,6,0,0,0,833.229919
982,-518,7,0,0,0,837.285767
127,1591,1,0,0,0,684.837708
1710,1424,2,0,0,0,558.529358
-1591,1097,3,1,0,0,2.404632
-1286,1761,4,0,0,0,621.795654
-570,-1180,5,0,0,0,741.317993
-1456,-729,6,0,0,0,679.117676
1937,-1541,7,0,0,0,607.669495
818,1017,1,0,0,0,742.482544
1435,1019,2,0,0,0,625.082886
-1875,278,3,1,0,0,2.547096
-192,762,4,0,0,0,914.588379
-1027,-1986,5,0,0,0,588.778809
-1588,-587,6,1,0,0,3.562018
1175,-1645,7,1,0,0,2.935649
1787,1936,1,0,0,0,542.360168
682,52,2,1,0,0,38.214428
-967,777,3,0,0,0,757.061829
-696,1344,4,1,0,0,5.933456
-573,-1281,5,0,0,0,721.688782
-827,-393,6,0,0,0,844.330933
548,-1971,7,1,0,0,2.833626
1058,1181,1,0,0,0,686.718628
413,169,2,0,0,0,1019.235535
-1522,474,3,1,0,0,4.256799
-356,1366,4,0,0,0,746.135864
-286,-361,5,0,0,0,1042.295288
-1487,-83,6,1,0,0,5.202851
1760,-1511,7,0,0,0,626.138977
237,1500,1,0,0,0,699.072327
1480,1053,2,0,0,0,616.108582
-1925,862,3,1,0,0,1.853181
-526,1760,4,0,0,0,670.716553
-470,-1055,5,0,0,0,777.575256
-1539,-270,6,0,0,0,690.916382
1681,-735,7,1,0,0,3.913894
340,1581,1,0,0,0,681.084045
1824,689,2,0,0,0,595.962952
-1922,924,3,1,0,0,1.793251
-282,1499,4,0,0,0,723.926880
-942,-1808,5,0,0,0,615.001831
-449,-36,6,0,0,0,1048.701782
1565,-462,7,1,0,0,5.531637
1389,1908,1,0,0,0,573.456360
1213,153,2,1,0,0,7.464422
-1638,1231,3,1,0,0,2.020156
-1854,1914,4,0,0,0,564.894714
-44,-1580,5,0,0,0,687.619934
-1711,-1529,6,0,0,0,581.417358
803,-48,7,0,0,0,930.046082
862,1406,1,1,0,0,3.849656
1852,410,2,0,0,0,603.783386
-753,218,3,1,0,0,32.400799
-1391,1759,4,0,0,0,613.823486
-1567,-1577,5,0,0,0,590.391541
-744,-163,6,1,0,0,34.998657
1908,-513,7,0,0,0,671.919983
884,1574,1,0,0,0,649.649963
1946,382,2,1,0,0,1.784010
-653,278,3,1,0,0,42.151939
-477,489,4,0,0,0,954.938171
-837,-1456,5,1,0,0,3.648052
-764,-332,6,0,0,0,871.542664
548,-205,7,0,0,0,1021.801758
1040,1538,1,0,0,0,641.646179
1195,684,2,0,0,0,695.173767
-1059,1049,3,0,0,0,704.402344
-547,1838,4,0,0,0,658.427429
-397,-858,5,0,0,0,835.127686
-1992,-868,6,0,0,0,596.880920
1917,-1623,7,0,0,0,603.501587
1264,1626,1,0,0,0,612.110962
1542,379,2,0,0,0,654.421692
-747,336,3,0,0,0,876.397339
-495,511,4,0,0,0,943.233215
-641,-1192,5,0,0,0,732.066711
-1869,-975,6,0,0,0,605.490723
1412,-872,7,0,0,0,721.838562
42,1275,1,0,0,0,749.032043
1014,141,2,1,0,0,12.491549
-862,285,3,0,0,0,846.772705
-53,1896,4,0,0,0,661.560791
-1509,-1707,5,1,0,0,1.472202
-1585,-470,6,0,0,0,674.776794
22,-692,7,0,0,0,973.281128
330,1525,1,0,0,0,691.321289
1808,1490,2,0,0,0,543.999084
-1009,892,3,0,0,0,733.482422
-508,1636,4,0,0,0,690.679626
-326,-1930,5,0,0,0,626.591431
-434,-174,6,1,0,0,112.869919
1444,-910,7,1,0,0,4.845129
1227,1473,1,1,0,0,2.462686
1554,754,2,0,0,0,630.430420
-451,408,3,0,0,0,962.159485
-338,1010,4,0,0,0,827.068542
-1426,-1739,5,0,0,0,587.124084
-1897,-1598,6,1,0,0,1.142315
7,-1469,7,0,0,0,756.817993
334,495,1,0,0,0,967.429810
1362,767,2,0,0,0,658.911743
-1133,283,3,0,0,0,774.396851
-1158,1621,4,0,0,0,647.554077
-412,-619,5,0,0,0,904.246887
-1243,-49,6,0,0,0,756.259094
1111,-1251,7,1,0,0,5.138620
232,1522,1,0,0,0,695.146118
408,324,2,0,0,0,974.588135
-320,165,3,0,0,0,1113.305908
-890,1050,4,1,0,0,7.836307
-396,-1571,5,0,0,0,680.554810
-1699,-864,6,0,0,0,634.153320
835,-855,7,0,0,0,816.106140
572,705,1,0,0,0,846.783081
569,394,2,0,0,0,892.778198
-841,141,3,0,0,0,864.808350
-1266,1327,4,0,0,0,671.165344
-259,-969,5,0,0,0,818.112000
-988,-965,6,1,0,0,6.495142
908,-323,7,0,0,0,878.011658
1514,1656,1,0,0,0,587.772278
744,465,2,0,0,0,824.518433
-1529,527,3,0,0,0,681.061707
-157,802,4,0,0,0,903.302063
-1353,-157,6,0,0,0,730.238281
503,-58,7,0,0,0,1063.484985
397,1213,1,0,0,0,748.891907
59,42,2,0,0,0,1543.777954
-923,531,3,1,0,0,13.811568
-427,1784,4,0,0,0,671.110168
-893,-863,6,0,0,0,756.745178
392,-1658,7,1,0,0,4.871269
148,1211,1,0,0,0,761.840698
1081,589,2,1,0,0,7.315765
-936,709,3,0,0,0,772.826355
-480,570,4,0,0,0,929.881836
-839,-59,6,0,0,0,868.773376
1426,-76,7,0,0,0,764.942383
28,1849,1,0,0,0,642.786682
1753,981,2,1,0,0,1.716845
-1893,1529,3,0,0,0,564.798340
-1348,1514,4,0,0,0,642.585266
-1423,-205,6,1,0,0,5.772192
966,-1785,7,0,0,0,664.234680
447,1818,1,0,0,0,639.271912
619,259,2,0,0,0,901.691956
-206,198,3,0,0,0,1179.981689
-270,781,4,0,0,0,900.102173
-542,-152,6,0,0,0,984.444824
511,-374,7,1,0,0,73.881119
280,1084,1,0,0,0,786.512268
728,603,2,0,0,0,803.074280
-789,200,3,0,0,0,878.207642
-713,1456,4,1,0,0,4.846276
-808,-582,6,0,0,0,820.192749
691,-1274,7,0,0,0,760.690674
1078,1912,1,1,0,0,1.645500
1132,938,2,0,0,0,676.435791
-706,407,3,0,0,0,877.868042
-453,1854,4,0,0,0,659.789856
-1871,-521,6,0,0,0,628.805237
1218,-1415,7,1,0,0,3.716486
523,1999,1,0,0,0,611.177002
1412,307,2,0,0,0,681.366882
-1545,935,3,1,0,0,2.941328
-446,1016,4,0,0,0,815.291382
-1693,-1367,6,0,0,0,596.477417
527,-1927,7,0,0,0,668.755188
306,1555,1,0,0,0,686.859070
898,868,2,0,0,0,723.115173
-1522,330,3,0,0,0,691.859436
-1533,1967,4,0,0,0,583.661133
-1112,-632,6,0,0,0,748.277710
1088,-1596,7,0,0,0,678.386536
827,981,1,0,0,0,747.375244
1389,380,2,0,0,0,682.347839
-1671,104,3,0,0,0,671.166138
-94,672,4,1,0,0,55.182674
-1954,-998,6,1,0,0,1.647388
1188,-1503,7,0,0,0,680.728149
177,1956,1,0,0,0,625.625183
243,242,2,0,0,0,1095.151245
-1630,210,3,1,0,0,3.889555
-69,1107,4,0,0,0,815.403503
-789,-634,6,1,0,0,15.960869
684,-1560,7,1,0,0,4.874179
122,893,1,0,0,0,848.871155
1217,528,2,0,0,0,705.829773
-1819,1145,3,0,0,0,599.973022
-624,1032,4,0,0,0,791.343689
-1576,-25,6,0,0,0,688.420044
334,-396,7,0,0,0,1056.890381
660,1052,1,0,0,0,756.737061
1217,309,2,0,0,0,721.585327
-582,294,3,1,0,0,52.363647
-1303,1597,4,0,0,0,637.845337
-1187,-599,6,1,0,0,7.260090
782,-907,7,0,0,0,815.511108
1298,1472,1,1,0,0,2.296849
1601,1491,2,1,0,0,1.330887
-1840,1256,3,0,0,0,589.797974
-68,437,4,0,0,0,1080.275024
-862,-554,6,0,0,0,811.969421
1326,-100,7,0,0,0,785.416504
1246,1301,1,1,0,0,2.963064
1140,650,2,0,0,0,708.936829
-1612,573,3,0,0,0,664.991211
-133,769,4,1,0,0,38.543629
-1790,-774,6,1,0,0,2.340497
1859,-949,7,1,0,0,2.669650
808,1996,1,0,0,0,599.448608
1479,503,2,1,0,0,3.626351
-1735,147,3,0,0,0,659.959656
-760,771,4,0,0,0,822.368042
-1537,-297,6,1,0,0,4.491318
7,-1811,7,0,0,0,696.823242
336,582,1,0,0,0,933.388794
1923,1879,2,0,0,0,505.330933
-1752,1696,3,0,0,0,564.211670
-1404,1486,4,1,0,0,2.437188
-930,-421,6,0,0,0,813.044006
1187,-981,7,0,0,0,743.293640
33,254,1,0,0,0,1211.520874
1188,46,2,0,0,0,737.240662
-1491,1390,3,1,0,0,2.051527
-569,1842,4,0,0,0,656.911133
-1306,-1137,6,0,0,0,661.542725
396,-659,7,0,0,0,943.088440
338,1187,1,0,0,0,758.524597
548,35,2,0,0,0,959.440247
-742,705,3,0,0,0,812.294434
-739,776,4,0,0,0,825.310852
-1626,-696,6,1,0,0,3.128793
848,-1830,7,0,0,0,666.027283
16,71,1,0,0,0,1574.546753
1388,436,2,0,0,0,679.418518
-1423,915,3,1,0,0,3.569686
-399,1259,4,0,0,0,765.242188
-1374,-947,6,0,0,0,672.105957
1349,-433,7,1,0,0,8.367815
131,1482,1,0,0,0,704.944641
1248,1087,2,0,0,0,642.609314
-1326,1281,3,0,0,0,643.637634
-767,784,4,0,0,0,818.625732
-629,-461,6,0,0,0,890.531738
1334,-30,7,0,0,0,784.430359
572,1754,1,1,0,0,2.760351
1118,19,2,0,0,0,754.837524
-756,40,3,0,0,0,899.072205
-833,1807,4,1,0,0,2.641521
-1193,-548,6,0,0,0,740.796692
752,-519,7,1,0,0,28.998762
1086,1438,1,0,0,0,650.162781
1280,341,2,0,0,0,706.252869
-1467,1051,3,1,0,0,2.947445
-1089,1512,4,0,0,0,666.634583
-1524,-1140,6,0,0,0,634.582336
567,-1309,7,1,0,0,8.202410
1098,1631,1,0,0,0,625.311768
1518,964,2,0,0,0,618.965576
-1832,1747,3,1,0,0,1.074799
1498,-1830,7,1,0,0,1.840582
1016,1371,1,0,0,0,665.723877
1666,1357,2,0,0,0,568.427979
-1503,1154,3,0,0,0,635.825012
494,-127,7,1,0,0,118.889458
228,749,1,0,0,0,889.394409
1894,1533,2,0,0,0,532.942383
-1087,650,3,0,0,0,751.102844
893,-1873,7,0,0,0,657.922058
422,719,1,1,0,0,27.422428
1608,481,2,0,0,0,638.608521
-1374,259,3,0,0,0,722.735535
354,-760,7,0,0,0,918.132202
1110,1776,1,0,0,0,607.342163
1961,1365,2,1,0,0,1.022810
-1287,1259,3,0,0,0,650.417419
81,-1040,7,1,0,0,20.114786
293,1834,1,0,0,0,641.548523
643,38,2,1,0,0,44.692642
-506,404,3,0,0,0,944.102051
793,-772,7,0,0,0,838.200439
1300,1833,1,1,0,0,1.533984
-1595,546,3,0,0,0,669.187683
848,-1171,7,0,0,0,761.390137
481,1731,1,0,0,0,651.023010
-739,565,3,0,0,0,839.776733
1325,-1960,7,0,0,0,620.523315
-415,26,3,0,0,0,1071.767212
558,-1079,7,0,0,0,811.416931
-1340,403,3,0,0,0,722.511963
1433,-1865,7,0,0,0,622.198975
-1407,137,3,0,0,0,719.584839
1229,-47,7,1,0,0,12.602822
-381,196,3,0,0,0,1063.128662
480,-902,7,0,0,0,861.182434
-1066,228,3,1,0,0,12.913992
304,-1185,7,0,0,0,809.382080
-1594,761,3,0,0,0,655.869263
665,-304,7,1,0,0,52.047157
-1992,1444,3,1,0,0,1.170346
1793,-557,7,1,0,0,3.655212
-1149,520,3,0,0,0,752.312500
924,-811,7,0,0,0,807.962463
-1684,710,3,1,0,0,2.838988
1275,-761,7,0,0,0,753.743469
-1400,714,3,0,0,0,689.263428
1583,-512,7,0,0,0,721.116821
-619,162,3,0,0,0,947.526001
847,-1628,7,1,0,0,3.910798
-1171,1016,3,0,0,0,693.156433
1071,-635,7,0,0,0,804.322266
-1765,1375,3,0,0,0,588.582520
694,-8,7,0,0,0,972.575867
-1991,1449,3,0,0,0,561.439453
1042,-1809,7,0,0,0,656.186462
-1981,1713,3,1,0,0,0.971024
1551,-788,7,0,0,0,708.326721
-1079,355,3,1,0,0,11.472395
866,-1331,7,1,0,0,5.992912
-902,793,3,0,0,0,766.344238
34,-1922,7,0,0,0,679.761902
-1552,83,3,1,0,0,4.587695
205,-486,7,1,0,0,110.918678
-1483,604,3,0,0,0,683.903381
1343,-357,7,0,0,0,772.766052
-1772,598,3,0,0,0,639.570923
1209,-1213,7,0,0,0,712.820862
-1240,839,3,1,0,0,5.122787
1101,-1230,7,0,0,0,723.356873
-1052,556,3,0,0,0,769.017639
188,-1064,7,0,0,0,845.104004
-1437,441,3,0,0,0,702.001953
1065,-1133,7,0,0,0,740.503418
-1958,592,3,1,0,0,2.030348
1273,-370,7,1,0,0,10.150736
-1635,1343,3,0,0,0,604.436829
1948,-331,7,0,0,0,671.896851
-1327,273,3,0,0,0,731.776306
1120,-1540,7,0,0,0,682.466370
1895,-1613,7,0,0,0,606.143494
1327,-500,7,0,0,0,766.950012
819,-1756,7,0,0,0,677.494995
1920,-236,7,0,0,0,677.960388
749,-845,7,0,0,0,832.424194
1001,-1414,7,0,0,0,709.521484
192,-64,7,1,0,0,442.535706
425,-569,7,1,0,0,55.982796
1637,-1281,7,0,0,0,657.420471
483,-875,7,1,0,0,22.663769
23,-1364,7,0,0,0,778.073792
1234,-244,7,0,0,0,801.383728
1696,-1989,7,0,0,0,592.183350
538,-1509,7,0,0,0,731.950317
1471,-875,7,0,0,0,712.996033
253,-1327,7,1,0,0,9.610886
1564,-1102,7,0,0,0,681.112427
583,-1318,7,0,0,0,762.308716
907,-268,7,0,0,0,883.431335
1772,-779,7,1,0,0,3.339275
1515,-700,7,1,0,0,5.176970
1752,-1633,7,0,0,0,617.033752
663,-1487,7,1,0,0,5.568310
1556,-405,7,0,0,0,730.913208
1704,-490,7,1,0,0,4.329952
463,-1665,7,0,0,0,710.229736
219,-551,7,1,0,0,85.974190
602,-1681,7,0,0,0,700.878052
1605,-697,7,0,0,0,706.666687
589,-638,7,0,0,0,908.035828
1559,-162,7,0,0,0,738.219604
1404,-1075,7,0,0,0,703.658325
88,-1382,7,0,0,0,773.768250
1122,-1237,7,1,0,0,5.166516
896,-1453,7,0,0,0,713.752930
1584,-1789,7,0,0,0,617.695557
430,-1997,7,0,0,0,662.390930
483,-170,7,0,0,0,1060.250854
1130,-679,7,0,0,0,787.902222
1307,-1295,7,0,0,0,692.292480
1702,-149,7,1,0,0,4.831009
1682,-410,7,0,0,0,709.720764
294,-1766,7,0,0,0,700.115356
1807,-1194,7,0,0,0,645.691528
1017,-1633,7,0,0,0,679.540100
1176,-1039,7,0,0,0,737.883301
541,-1171,7,1,0,0,10.986062
1335,-752,7,0,0,0,744.728455
311,-1955,7,1,0,0,3.124283
1174,-1709,7,0,0,0,658.141785
1582,-1529,7,0,0,0,641.212402
1686,-1884,7,1,0,0,1.508168
536,-1280,7,0,0,0,773.168396
1809,-1593,7,1,0,0,1.738937
775,-560,7,0,0,0,880.287231
75,-1244,7,0,0,0,804.054138
341,-320,7,0,0,0,1086.413330
849,-1993,7,0,0,0,645.631897
890,-575,7,0,0,0,850.722473
707,-1328,7,0,0,0,749.974182
1265,-53,7,0,0,0,799.512024
1470,-501,7,0,0,0,740.860413
678,-414,7,1,0,0,42.088852
98,-1841,7,1,0,0,3.857962
816,-1025,7,1,0,0,10.503137
286,-1085,7,0,0,0,834.240845
663,-1296,7,1,0,0,7.731091
1941,-743,7,0,0,0,657.460083
422,-1395,7,0,0,0,759.090332
1600,-234,7,0,0,0,729.281311
222,-1547,7,0,0,0,739.052979
1540,-258,7,0,0,0,739.307190
244,-787,7,0,0,0,923.138062
1727,-1531,7,0,0,0,627.581360
15,-1479,7,1,0,0,7.379998
1988,-338,7,0,0,0,666.083984
1639,-747,7,0,0,0,698.378357
1776,-218,7,1,0,0,4.214563
689,-994,7,1,0,0,13.224162
1671,-453,7,0,0,0,709.709961


each generation good chromosome number
9,8,9,