465.884003,465.884003,465.884003,465.884003,465.884003,465.884003,465.884003,465.884003,465.884003,465.884003,465.884003,465.884003,465.884003,465.884003,465.884003,465.884003,465.884003,465.884003,465.884003,465.884003,465.884003,465.884003,465.884003,465.884003,465.884003,465.884003,465.884003,465.884003,465.884003,465.884003,465.884003,465.884003,465.884003,465.884003,465.884003,465.884003,465.884003,465.884003,465.884003,465.884003,465.884003,465.884003,465.884003,465.884003,465.884003,465.884003,465.884003,465.884003,465.884003,465.884003,465.884003,465.884003,465.884003,465.884003,465.884003,465.884003,465.884003,465.884003,465.884003,465.884003,465.884003,465.884003,465.884003,465.884003,465.884003,465.884003,465.884003,465.884003,465.884003,465.884003,465.884003,465.884003,465.884003,465.884003,465.884003,465.884003,465.884003,465.884003,465.884003,465.884003,465.884003,465.884003,465.884003,465.884003,465.884003,465.884003,465.884003,465.884003,465.884003,465.884003,465.884003,465.884003,465.884003,465.884003,465.884003,465.884003,465.884003,465.884003,465.884003,465.884003,

avg. max avg. throughput in test times
465.883881
avg. BS TX power in all test times
MBS area 1,MBS area 2,CBSD 1,CBSD 2,CBSD 3,CBSD 4,CBSD 5,CBSD 6,CBSD 7,
10.000,10.000,1.000,0.000,0.000,1.000,0.000,1.000,1.000,
avg. mbs all power,avg. cbsd enable number,avg. mbs area all power,avg. cbsd all power
50.000,4.000,20.000,4.000
avg. number of relay UE
265

BS TX power
MBS area 1,MBS area 2,CBSD 1,CBSD 2,CBSD 3,CBSD 4,CBSD 5,CBSD 6,CBSD 7,
10.000,10.000,1.000,0.000,0.000,1.000,0.000,1.000,1.000,
max average power
620.237915

x,y,area,be blocked (1 : NLOS / 0 : LOS),be blocked number (>=1 : CBSD(x) / 0 : no),connect bs number (>=1 : CBSD / 0 : MBS),throughput (unit : M bps)
1283,1205,1,0,0,0,724.108093
-100,-103,2,0,0,0,1446.354980
1433,1677,1,0,0,6,74.804993
-1043,578,2,1,0,1,197.695999
273,-251,1,1,0,7,122.525536
-537,-1217,2,1,0,4,109.097481
35,-483,1,0,0,0,1095.588501
-1838,-1792,2,1,0,4,109.097481
419,1346,1,0,0,0,787.825500
-1434,948,2,0,0,0,730.884521
1479,589,1,0,0,0,752.911377
-1550,1761,2,0,0,1,96.626015
1117,889,1,1,0,6,180.219620
-551,674,2,0,0,0,926.521545
364,-1755,1,0,0,7,122.525536
-310,-1647,2,0,0,0,738.167480
294,-1758,1,0,0,7,122.525536
-576,180,2,0,0,0,1032.132568
1611,1535,1,1,0,6,81.820145
-1311,-1830,2,0,0,4,109.097481
1180,53,1,0,0,0,838.673950
-1035,-3,2,0,0,0,876.694458
594,-1503,1,0,0,0,748.590454
-1420,-372,2,0,0,0,776.202332
284,-636,1,1,0,7,122.525536
-80,659,2,0,0,0,1004.646301
886,224,1,0,0,0,912.534363
-1643,731,2,0,0,1,187.904678
399,583,1,0,0,0,986.707886
-357,1638,2,0,0,0,738.076294
1845,338,1,0,0,6,109.221985
-803,-766,2,0,0,0,856.622192
525,90,1,1,0,7,122.525536
-1654,1756,2,0,0,1,108.302582
1693,-775,1,1,0,7,122.525536
-1870,1800,2,0,0,1,93.605621
1060,383,1,0,0,0,852.167725
-1935,-1451,2,0,0,4,109.097481
1711,641,1,0,0,6,125.651176
-1331,-1370,2,0,0,4,109.097481
1649,-1349,1,0,0,7,122.525536
-841,696,2,0,0,0,861.357361
1714,-162,1,0,0,0,730.449585
-1466,-231,2,0,0,0,773.055908
510,-1690,1,0,0,7,122.525536
-1606,972,2,0,0,1,170.560120
1370,-868,1,1,0,7,122.525536
-62,-1897,2,1,0,7,122.525536
1842,-432,1,1,0,7,122.525536
-1508,-810,2,1,0,4,109.097481
1668,895,1,0,0,6,121.173828
-250,1944,2,1,0,1,84.208717
1774,-1753,1,0,0,7,122.525536
-1137,1969,2,0,0,1,65.499069
549,1744,1,0,0,7,122.525536
-1383,-483,2,0,0,0,776.790405
1645,352,1,0,0,0,737.088013
-1800,-48,2,0,0,4,109.097481
1889,-1667,1,0,0,7,122.525536
-1709,1270,2,0,0,1,152.252441
467,1844,1,0,0,4,109.097481
-1293,202,2,1,0,4,109.097481
1376,73,1,0,0,0,794.376038
-202,-357,2,0,0,0,1143.472290
1255,236,1,0,0,0,816.243774
-1606,-897,2,0,0,4,109.097481
705,-616,1,0,0,0,905.582275
-1491,-1362,2,0,0,4,109.097481
0,1244,1,0,0,0,823.771973
-1728,1841,2,0,0,4,109.097481
466,-1244,1,1,0,7,122.525536
-759,33,2,0,0,0,965.762207
1879,849,1,0,0,6,105.805351
-1717,-1498,2,0,0,4,109.097481
936,209,1,0,0,0,898.639648
-688,1838,2,0,0,1,110.525757
1494,1823,1,1,0,6,67.391022
-1578,1532,2,0,0,1,110.229599
721,-1633,1,0,0,7,122.525536
-262,38,2,0,0,0,1269.780884
186,805,1,1,0,4,109.097481
-1181,-940,2,0,0,0,768.194946
1715,527,1,0,0,6,125.194962
-1618,1999,2,0,0,4,109.097481
1156,342,1,0,0,0,832.806702
-822,-849,2,0,0,0,838.542603
1543,-1351,1,0,0,7,122.525536
-629,1814,2,1,0,1,126.332695
1883,-189,1,0,0,7,122.525536
-1454,-1023,2,0,0,4,109.097481
1270,1595,1,0,0,6,79.081055
-1742,407,2,0,0,1,141.016495
837,710,1,0,0,0,859.799622
-342,1526,2,0,0,0,758.025146
956,-51,1,1,0,7,122.525536
-1631,-914,2,0,0,4,109.097481
1241,-565,1,0,0,0,797.388977
-1008,-1321,2,0,0,0,740.618774
1333,-1153,1,0,0,7,122.525536
-1554,472,2,1,0,1,162.303345
1358,-1387,1,1,0,7,122.525536
-1487,-1130,2,1,0,4,109.097481
761,1676,1,0,0,7,122.525536
-172,118,2,0,0,0,1338.561401
773,-1049,1,0,0,0,810.437866
-1588,-1071,2,1,0,4,109.097481
195,-253,1,0,0,0,1215.609741
-20,-1994,2,0,0,7,122.525536
1332,1186,1,1,0,6,116.424393
-1798,386,2,0,0,1,119.007080
111,-645,1,0,0,0,1008.738342
-868,611,2,0,0,0,869.423157
1367,-691,1,0,0,0,763.984863
-1729,-257,2,1,0,4,109.097481
213,-1922,1,0,0,7,122.525536
-691,-585,2,0,0,0,915.226440
1590,1670,1,0,0,6,74.656509
-1470,-1190,2,0,0,4,109.097481
1831,-298,1,0,0,7,122.525536
-29,-1751,2,0,0,0,725.562134
1187,-761,1,0,0,0,787.766724
-748,536,2,0,0,0,910.543335
1233,-892,1,0,0,0,765.845703
-16,-644,2,0,0,0,1013.303284
811,551,1,0,0,0,892.278931
-727,-1804,2,0,0,4,109.097481
312,625,1,0,0,0,989.955383
-1003,996,2,0,0,0,787.050781
1008,125,1,0,0,0,882.108948
-505,1012,2,0,0,0,851.165588
1453,1921,1,1,0,6,62.928890
-1162,-1761,2,1,0,4,109.097481
987,805,1,0,0,0,816.997681
-253,1935,2,1,0,1,78.486969
861,-174,1,1,0,7,122.525536
-293,583,2,1,0,1,142.319626
1931,-1483,1,0,0,7,122.525536
-1367,598,2,0,0,0,771.514160
1382,-1606,1,1,0,7,122.525536
-1531,-1994,2,1,0,4,109.097481
1649,574,1,1,0,6,133.190643
-558,-1380,2,0,0,0,772.194946
612,-1088,1,0,0,0,822.776184
-1091,1084,2,0,0,0,762.816833
968,745,1,0,0,0,829.022644
-1231,-155,2,0,0,0,824.531067
1123,-571,1,0,0,0,820.135620
-659,982,2,0,0,0,838.324280
1888,1167,1,0,0,6,92.927071
-1966,1181,2,0,0,1,100.597397
1966,-1754,1,0,0,7,122.525536
-77,204,2,0,0,0,1325.761475
198,-1667,1,0,0,0,737.689087
-326,1041,2,0,0,0,861.567688
206,1765,1,1,0,4,109.097481
-1808,-1641,2,0,0,4,109.097481
516,783,1,0,0,0,905.112488
-1934,-1482,2,0,0,4,109.097481
396,-751,1,0,0,0,933.743103
-1210,509,2,0,0,0,808.315979
426,-1752,1,0,0,7,122.525536
-1662,-1870,2,0,0,4,109.097481
1113,-924,1,0,0,0,780.411621
-491,831,2,1,0,1,207.460815
1968,-650,1,0,0,7,122.525536
-1173,-236,2,0,0,0,834.967957
1122,97,1,0,0,0,852.394165
-1829,-1607,2,0,0,4,109.097481
1253,-1632,1,1,0,7,122.525536
-161,1528,2,0,0,0,763.098206
976,1720,1,1,0,6,64.776253
-1503,1322,2,1,0,1,143.434875
706,1186,1,0,0,0,793.898010
-1566,1419,2,1,0,1,96.429314
313,-1621,1,1,0,7,122.525536
-1371,-342,2,0,0,0,787.153015
1626,-1934,1,0,0,7,122.525536
-605,-600,2,0,0,0,932.706055
1647,-623,1,0,0,7,122.525536
-626,-206,2,1,0,4,109.097481
991,1886,1,0,0,7,122.525536
-625,1981,2,0,0,4,109.097481
1845,-349,1,1,0,7,122.525536
-216,1570,2,0,0,0,754.208313
1399,81,1,0,0,0,789.535583
-1627,1722,2,0,0,1,123.901924
636,1526,1,0,0,0,742.077148
-1893,-34,2,0,0,4,109.097481
440,695,1,1,0,7,122.525536
-11,1485,2,1,0,1,117.143250
220,-489,1,0,0,0,1066.205566
-22,-492,2,0,0,0,1090.731201
1722,950,1,0,0,6,113.619873
-974,-292,2,0,0,0,881.795166
883,-1428,1,1,0,7,122.525536
-1008,-1616,2,0,0,4,109.097481
1844,277,1,0,0,6,107.413307
-1500,455,2,0,0,0,757.358521
88,1059,1,1,0,4,109.097481
-1884,-207,2,0,0,4,109.097481
1044,1065,1,0,0,0,771.651917
-1158,-800,2,0,0,0,788.282532
1694,792,1,0,0,6,123.616943
-1892,-1688,2,0,0,4,109.097481
361,-1296,1,0,0,0,801.256226
-1493,1729,2,0,0,1,106.659958
1817,299,1,0,0,6,110.149925
-1851,-1124,2,0,0,4,109.097481
1179,-1303,1,1,0,7,122.525536
-1223,-48,2,0,0,0,828.446899
518,-1354,1,0,0,0,779.788635
-228,1367,2,0,0,0,792.723022
1268,-1981,1,1,0,7,122.525536
-904,140,2,0,0,0,912.251282
1439,-272,1,0,0,0,776.875427
-454,-1100,2,0,0,0,836.534546
602,520,1,1,0,6,119.881393
-1165,-847,2,1,0,4,109.097481
1698,-1610,1,0,0,7,122.525536
-1466,-528,2,1,0,4,109.097481
117,-1957,1,0,0,7,122.525536
-1512,-481,2,0,0,0,753.869019
1017,-1971,1,0,0,7,122.525536
-52,1186,2,0,0,0,837.228638
1652,-337,1,0,0,0,736.443848
-725,731,2,0,0,0,878.213928
683,-1959,1,1,0,7,122.525536
-690,1121,2,0,0,0,807.520874
467,30,1,0,0,0,1105.465210
-1414,1667,2,0,0,1,76.821213
1167,227,1,1,0,6,160.141968
-1046,-1623,2,0,0,4,109.097481
322,1274,1,1,0,4,109.097481
-1275,-391,2,0,0,0,803.773865
383,454,1,0,0,0,1036.705444
-219,570,2,0,0,0,1028.734741
1996,-1113,1,0,0,7,122.525536
-1503,-292,2,1,0,4,109.097481
1308,1981,1,0,0,6,59.277660
-11,-397,2,0,0,0,1152.786255
1482,-676,1,0,0,0,746.331421
-1246,-733,2,0,0,0,780.599548
15,994,1,1,0,4,109.097481
-1707,89,2,0,0,0,732.508667
1793,1496,1,0,0,6,80.423080
-958,548,2,0,0,0,858.207886
1120,-928,1,0,0,0,778.838989
-447,398,2,0,0,0,1034.512329
265,314,1,0,0,0,1142.986084
-1311,-1931,2,0,0,4,109.097481
734,164,1,0,0,0,968.666870
-567,1326,2,1,0,1,157.718674
474,-970,1,0,0,0,864.546692
-1621,-1614,2,0,0,4,109.097481
1654,1037,1,1,0,6,113.345070
-1940,-1570,2,0,0,4,109.097481
1998,1224,1,1,0,6,85.847656
-782,582,2,0,0,0,893.946960
1265,205,1,0,0,0,815.231018
-1013,1420,2,1,0,1,187.611526
1351,-1117,1,0,0,0,725.279907
-633,1865,2,0,0,1,96.075073
310,1403,1,0,0,0,782.348877
-1844,1767,2,0,0,1,81.614586
1626,-338,1,0,0,0,740.773987
-1008,998,2,0,0,0,786.044617
1206,568,1,0,0,0,803.890747
-812,-1352,2,1,0,4,109.097481
716,-1319,1,0,0,0,769.839355
-1154,1694,2,0,0,1,70.408554
149,-1731,1,0,0,0,727.836609
-986,1185,2,0,0,0,762.145813
1567,1513,1,0,0,6,83.768997
-795,-638,2,0,0,0,881.082764
1138,-1821,1,0,0,7,122.525536
-770,976,2,1,0,1,286.165985
1458,1895,1,0,0,6,64.059196
-1803,1420,2,0,0,1,83.894371
1519,-484,1,0,0,0,752.501282
-5,-46,2,0,0,0,1773.041138
338,1241,1,0,0,0,814.177917
-1776,-80,2,0,0,4,109.097481
1317,1521,1,0,0,6,84.694695
-373,-1674,2,0,0,0,731.548340
1373,1437,1,0,0,6,91.175674
-512,-924,2,0,0,0,870.812439
118,-346,1,0,0,0,1176.689453
-702,808,2,0,0,0,867.026062
777,1992,1,0,0,7,122.525536
-496,-1588,2,0,0,0,740.273621
551,-1798,1,0,0,7,122.525536
-482,-553,2,0,0,0,975.853638
115,-1912,1,0,0,7,122.525536
-879,-1349,2,0,0,0,749.660339
1516,841,1,1,0,6,140.998413
-1213,1930,2,1,0,1,65.566231
351,1215,1,0,0,0,819.029846
-905,955,2,0,0,0,807.661011
1892,-1333,1,1,0,7,122.525536
-1572,-182,2,0,0,0,754.622986
208,576,1,1,0,4,109.097481
-1076,-1741,2,0,0,4,109.097481
363,477,1,0,0,0,1034.076538
-1883,1256,2,0,0,1,112.040421
1350,1339,1,0,0,6,99.889458
-287,1364,2,0,0,0,791.072632
687,-271,1,0,0,0,973.918030
-355,1285,2,0,0,0,803.875366
1306,-1699,1,0,0,7,122.525536
-537,826,2,0,0,0,890.889404
735,-948,1,0,0,0,834.236023
-711,1221,2,0,0,0,787.170410
874,1102,1,1,0,6,117.057518
-1309,1088,2,0,0,0,733.718140
963,1751,1,1,0,6,62.733131
-359,1748,2,0,0,1,121.367455
95,-1007,1,0,0,0,883.315979
-221,1939,2,0,0,1,66.096924
1142,-443,1,0,0,0,828.218506
-325,310,2,0,0,0,1117.306763
357,-1545,1,1,0,7,122.525536
-322,1821,2,0,0,1,106.967079
938,-754,1,0,0,0,833.296387
-1240,-1308,2,1,0,4,109.097481
1459,1223,1,0,0,6,108.418083
-1847,351,2,0,0,4,109.097481
917,-1496,1,0,0,0,724.999634
-735,1288,2,0,0,0,773.274292
849,-1508,1,0,0,0,728.966248
-1596,529,2,0,0,0,737.233582
193,1295,1,0,0,0,809.060913
-340,-1715,2,0,0,0,726.031189
886,-677,1,0,0,0,855.254944
-189,939,2,0,0,0,899.005432
875,1534,1,1,0,6,72.138580
-75,-935,2,1,0,4,109.097481
671,1548,1,0,0,0,736.248657
-189,1168,2,0,0,0,838.186584
704,-666,1,0,0,0,895.635010
-322,1724,2,0,0,0,725.141418
1902,245,1,0,0,6,102.426514
-1636,-389,2,0,0,0,737.195068
1155,-596,1,1,0,7,122.525536
-1439,73,2,0,0,0,781.548279
707,335,1,0,0,0,957.302185
-1124,-405,2,0,0,0,835.392944
1802,797,1,0,0,6,113.410645
-1614,-279,2,1,0,4,109.097481
182,699,1,0,0,0,980.315735
-245,1585,2,0,0,0,750.782227
306,1108,1,1,0,4,109.097481
-318,-1885,2,0,0,4,109.097481
1526,1377,1,1,0,6,93.683876
-359,1374,2,0,0,0,785.710266
1168,111,1,0,0,0,840.611145
-1206,-952,2,1,0,4,109.097481
1257,1306,1,0,0,6,103.801605
-928,1214,2,0,0,0,764.671021
1090,1708,1,0,0,6,68.695030
-816,1493,2,0,0,0,733.833008
1230,-1537,1,0,0,7,122.525536
-1545,-906,2,0,0,4,109.097481
1477,-1729,1,0,0,7,122.525536
-1566,-35,2,0,0,0,757.559753
340,1363,1,0,0,0,788.834473
-282,394,2,0,0,0,1095.437256
1107,-621,1,1,0,7,122.525536
-574,636,2,0,0,0,931.137939
50,1139,1,1,0,4,109.097481
-991,-107,2,0,0,0,887.534302
1231,-1413,1,0,0,7,122.525536
-274,-1754,2,0,0,4,109.097481
15,-1426,1,0,0,0,784.508362
-640,329,2,0,0,0,981.392700
184,-327,1,1,0,7,122.525536
-1631,-1400,2,0,0,4,109.097481
697,535,1,0,0,0,923.855896
-362,1937,2,0,0,1,110.812531
743,1399,1,0,0,0,754.340149
-1513,-1546,2,0,0,4,109.097481
1000,1348,1,0,0,0,737.739441
-1280,1963,2,0,0,4,109.097481
880,1546,1,1,0,6,71.559990
-1512,-1108,2,1,0,4,109.097481
1710,-716,1,0,0,7,122.525536
-1549,-1639,2,0,0,4,109.097481
1814,1806,1,0,0,6,66.640610
-1990,81,2,1,0,4,109.097481
1167,-1574,1,1,0,7,122.525536
-1883,-422,2,0,0,4,109.097481
1201,1473,1,0,0,6,87.480629
-125,1568,2,0,0,0,756.355896
437,-529,1,1,0,7,122.525536
-1985,1724,2,0,0,1,83.447525
1576,-432,1,0,0,0,745.409851
-1306,-1834,2,0,0,4,109.097481
843,-1885,1,0,0,7,122.525536
-808,-987,2,0,0,0,816.569336
1695,337,1,0,0,0,729.362915
-399,-360,2,0,0,0,1065.565186
1150,424,1,0,0,0,828.040161
-891,1902,2,0,0,1,135.909256
386,810,1,0,0,0,917.816406
-1151,-459,2,0,0,0,824.896301
730,858,1,0,0,0,852.306763
-182,750,2,0,0,0,961.227478
41,1788,1,0,0,4,109.097481
-1816,-1128,2,0,0,4,109.097481
95,-238,1,0,0,0,1279.175171
-1244,-1188,2,0,0,0,730.699158
997,-1908,1,1,0,7,122.525536
-1279,-1717,2,1,0,4,109.097481
563,-1784,1,0,0,7,122.525536
-1314,-14,2,1,0,4,109.097481
698,-1436,1,0,0,0,752.067993
-1292,-326,2,0,0,0,804.013733
296,411,1,0,0,0,1082.645874
-431,847,2,0,0,0,901.263000
502,1257,1,0,0,0,799.510803
-1922,1475,2,0,0,1,100.572784
1,823,1,0,0,0,942.707092
-1999,-944,2,0,0,4,109.097481
1008,1831,1,0,0,6,60.183208
-1727,1740,2,0,0,1,103.845749
133,1071,1,0,0,0,864.651367
-765,-1724,2,0,0,4,109.097481
1479,-1822,1,0,0,7,122.525536
-1276,-995,2,1,0,4,109.097481
801,803,1,0,0,0,850.353516
-1414,504,2,1,0,1,135.396698
407,108,1,1,0,7,122.525536
-63,756,2,0,0,0,966.178589
1775,634,1,1,0,6,119.101761
-1319,-509,2,0,0,0,786.991943
1167,-1503,1,1,0,7,122.525536
-177,169,2,0,0,0,1292.463135
741,1014,1,1,0,6,113.376663
-894,-1694,2,0,0,4,109.097481
1601,695,1,0,0,0,726.528992
-89,1896,2,0,0,4,109.097481
1639,-1238,1,0,0,7,122.525536
-1271,-1723,2,1,0,4,109.097481
598,1969,1,0,0,7,122.525536
-1627,1957,2,0,0,1,93.694450
573,-921,1,0,0,0,863.195740
-1304,1954,2,0,0,1,66.011818
1056,1987,1,0,0,7,122.525536
-1429,-944,2,0,0,0,731.950073
1691,-343,1,0,0,0,729.817688
-125,1627,2,0,0,0,745.821350
533,1430,1,0,0,0,765.039978
-351,-1244,2,1,0,4,109.097481
1156,886,1,0,0,0,778.449219
-1553,409,2,0,0,0,750.401123
96,373,1,0,0,0,1161.633667
-76,1770,2,0,0,1,92.498970
1278,1957,1,0,0,6,59.891850
-184,27,2,0,0,0,1371.672241
718,-1244,1,1,0,7,122.525536
-273,-442,2,0,0,0,1075.328125
1039,-1962,1,0,0,7,122.525536
-284,399,2,0,0,0,1092.339966
1386,1563,1,0,0,6,81.843941
-1637,-73,2,1,0,4,109.097481
1666,-830,1,0,0,7,122.525536
-915,-1071,2,0,0,0,788.043335
56,-1365,1,0,0,0,796.844727
-1824,-1946,2,0,0,4,109.097481
1568,171,1,1,0,6,122.856255
-1380,1105,2,0,0,1,195.773453
819,591,1,0,0,0,883.743347
-1234,1494,2,1,0,1,145.872269
133,-257,1,0,0,0,1244.113647
-907,-1183,2,0,0,0,771.782532
-1220,-1020,2,0,0,0,753.226501
-1121,-952,2,0,0,0,775.659424
-1183,1067,2,0,0,0,752.706726
-945,-91,2,0,0,0,901.560425
-382,-676,2,1,0,4,109.097481
-726,198,2,0,0,0,968.506897
-1139,730,2,0,0,0,799.654663
-1726,-1200,2,0,0,4,109.097481
-1269,1379,2,0,0,1,100.267548
-654,1379,2,0,0,0,765.017273
-765,-517,2,0,0,0,909.574707
-1099,-453,2,1,0,4,109.097481
-1426,1723,2,0,0,1,138.571701
-60,260,2,1,0,4,109.097481
-712,-1538,2,0,0,0,734.952637
-1876,416,2,0,0,1,122.917084
-1695,-1625,2,1,0,4,109.097481
-1170,-1556,2,0,0,4,109.097481
-365,565,2,0,0,0,1000.847534
-584,-1637,2,0,0,0,727.729065
-1768,1260,2,1,0,1,126.693817
-1401,-361,2,0,0,0,780.371948
-29,-974,2,1,0,4,109.097481
-1398,975,2,0,0,0,733.332520
-665,1964,2,0,0,4,109.097481
-1074,-654,2,0,0,0,820.678162
