each times' max average throughput
566.174377,0.000000,0.000000,0.000000,0.000000,0.000000,0.000000,0.000000,0.000000,0.000000,0.000000,0.000000,0.000000,0.000000,594.974915,0.000000,0.000000,0.000000,0.000000,0.000000,0.000000,0.000000,0.000000,0.000000,0.000000,0.000000,0.000000,0.000000,0.000000,0.000000,0.000000,0.000000,0.000000,0.000000,0.000000,0.000000,0.000000,0.000000,0.000000,0.000000,0.000000,598.401855,569.980408,583.142029,0.000000,0.000000,0.000000,0.000000,0.000000,0.000000,0.000000,0.000000,0.000000,0.000000,0.000000,0.000000,0.000000,0.000000,0.000000,0.000000,0.000000,585.699707,0.000000,0.000000,0.000000,0.000000,0.000000,0.000000,0.000000,0.000000,0.000000,0.000000,0.000000,0.000000,0.000000,0.000000,0.000000,0.000000,0.000000,0.000000,0.000000,0.000000,0.000000,0.000000,0.000000,0.000000,0.000000,0.000000,0.000000,0.000000,0.000000,0.000000,581.708313,0.000000,0.000000,0.000000,0.000000,0.000000,0.000000,0.000000,
avg. throughput in all test times
40.800816
avg. BS TX power in all test times
MBS area 1,MBS area 2,MBS area 3,MBS area 4,CBSD 1,CBSD 2,CBSD 3,CBSD 4,CBSD 5,CBSD 6,CBSD 7,CBSD 8,CBSD 9,CBSD 10,CBSD 11,CBSD 12,CBSD 13,CBSD 14,CBSD 15,CBSD 16,CBSD 17,CBSD 18,CBSD 19,CBSD 20,CBSD 21,CBSD 22,CBSD 23,CBSD 24,CBSD 25,CBSD 26,CBSD 27,CBSD 28,CBSD 29,CBSD 30,
6.213,7.988,6.213,6.050,0.438,0.160,0.000,0.180,0.180,0.430,0.275,0.395,0.169,0.000,0.417,0.000,0.320,0.010,0.236,0.132,0.000,0.310,0.087,0.087,0.209,0.007,0.046,0.281,0.015,0.127,0.180,0.000,0.168,0.070,
avg. mbs all power,avg. cbsd enable number,avg. mbs area all power,avg. cbsd all power
72.588,6.000,26.462,4.931
avg. max avg. throughput generation number in all test times
0.070000
avg. number of relay UE
264

the max average throughput times

BS TX power
MBS area 1,MBS area 2,MBS area 3,MBS area 4,CBSD 1,CBSD 2,CBSD 3,CBSD 4,CBSD 5,CBSD 6,CBSD 7,CBSD 8,CBSD 9,CBSD 10,CBSD 11,CBSD 12,CBSD 13,CBSD 14,CBSD 15,CBSD 16,CBSD 17,CBSD 18,CBSD 19,CBSD 20,CBSD 21,CBSD 22,CBSD 23,CBSD 24,CBSD 25,CBSD 26,CBSD 27,CBSD 28,CBSD 29,CBSD 30,
6.250,7.500,6.250,5.000,0.000,0.875,0.000,0.000,0.000,0.000,0.000,1.000,0.000,0.000,0.000,0.000,0.000,0.000,0.000,0.000,0.000,0.000,1.000,0.000,0.000,0.000,0.500,0.000,0.000,0.500,0.000,0.000,1.000,0.000,
max average throughput
581.708313

x,y,area,be blocked (1 : NLOS / 0 : LOS),be blocked number (>=1 : CBSD(x) / 0 : no),connect bs number (>=1 : CBSD / 0 : MBS),throughput (unit : M bps)
967,478,1,0,0,0,797.202698
-1620,1398,2,1,0,29,88.660133
-267,-1127,3,0,0,0,776.770996
1424,-1999,4,0,0,0,530.909302
796,1416,1,0,0,0,679.804321
-218,1657,2,0,0,0,697.745483
-1422,-1886,3,1,0,8,66.042862
1307,-524,4,0,0,0,688.758301
555,44,1,1,0,19,114.327301
-388,1929,2,0,0,0,651.084961
-1336,-941,3,1,0,8,115.671547
1806,-1823,4,0,0,0,518.397339
144,1821,1,0,0,0,646.282654
-1686,1043,2,0,0,0,648.932434
-1175,-1974,3,0,0,0,581.096252
634,-823,4,1,0,23,148.605057
877,315,1,0,0,0,839.277649
-636,609,2,0,0,0,881.809814
-446,-1594,3,0,0,0,674.430786
168,-171,4,0,0,0,1198.443237
1718,1555,1,0,0,0,578.641174
-1422,1335,2,0,0,0,653.586304
-483,-712,3,1,0,19,69.501389
81,-1387,4,1,0,23,107.728851
867,556,1,0,0,0,810.489624
-1688,642,2,1,0,29,88.660133
-80,-133,3,0,0,0,1356.043335
752,-1073,4,1,0,23,225.909454
432,1324,1,1,0,26,93.305420
-1751,1954,2,1,0,29,88.660133
-1615,-948,3,0,0,0,639.190796
977,-567,4,1,0,19,188.167679
1079,832,1,0,0,0,730.144836
-1661,450,2,0,0,0,689.376282
-1001,-1055,3,0,0,0,711.460571
363,-861,4,0,0,0,806.410339
1646,213,1,0,0,0,673.653748
-1962,927,2,0,0,0,623.183960
-1348,-230,3,0,0,0,729.103271
1855,-687,4,0,0,0,591.868042
978,539,1,0,0,0,787.253418
-76,782,2,0,0,0,914.636963
-740,-1088,3,1,0,8,180.060089
590,-137,4,0,0,0,931.184021
955,641,1,1,0,26,133.762894
-1685,141,2,1,0,29,88.660133
-1156,-382,3,1,0,8,86.367729
132,-799,4,0,0,0,847.557983
1001,447,1,0,0,0,792.556946
-273,1312,2,0,0,0,761.058289
-1523,-1531,3,0,0,0,598.635864
1093,-416,4,0,0,0,741.959717
1292,387,1,0,0,0,733.065063
-1910,314,2,1,0,29,88.660133
-1844,-1136,3,0,0,0,597.805786
452,-1954,4,0,0,0,587.955627
418,243,1,0,0,0,1028.281006
-1170,722,2,0,0,0,753.712708
-101,-1807,3,0,0,0,648.928894
1056,-1640,4,0,0,0,595.849731
1590,556,1,0,0,0,669.434387
-1565,1344,2,1,0,29,88.660133
-1181,-1557,3,1,0,8,89.002426
662,-1946,4,0,0,0,580.984741
272,1735,1,1,0,29,88.660133
-1319,438,2,0,0,0,750.602783
-676,-857,3,0,0,0,793.803833
879,-140,4,0,0,0,820.379395
1510,1734,1,0,0,0,580.839844
-195,812,2,1,0,29,88.660133
-1311,-1758,3,0,0,0,594.265686
1315,-1116,4,1,0,19,125.828102
846,276,1,0,0,0,852.537781
-1027,817,2,1,0,29,88.660133
-197,-1410,3,0,0,0,717.556641
823,-717,4,0,0,0,761.759033
630,1908,1,0,0,0,619.129822
-806,1450,2,0,0,0,699.864197
-977,-1403,3,0,0,0,665.183167
1584,-1678,4,0,0,0,548.282166
211,1530,1,0,0,0,694.236572
-329,435,2,0,0,0,1019.829834
-1720,-735,3,1,0,8,61.094761
884,-792,4,0,0,0,737.722351
1204,1885,1,0,0,0,588.667725
-1564,78,2,0,0,0,716.389832
-986,-716,3,0,0,0,762.185669
1011,-1912,4,0,0,0,566.575562
1143,1558,1,0,0,0,630.257751
-1094,161,2,0,0,0,816.277344
-1851,-273,3,0,0,0,639.442932
1102,-806,4,0,0,0,697.597656
1469,194,1,0,0,0,706.106506
-573,298,2,0,0,0,971.101074
-654,-206,3,0,0,0,927.596130
1129,-1400,4,0,0,0,618.920593
303,1231,1,0,0,0,750.825562
-642,1836,2,0,0,0,654.386108
-1122,-1433,3,0,0,0,647.329773
1786,-497,4,0,0,0,610.298035
1390,898,1,0,0,0,674.495850
-1200,1186,2,0,0,0,695.034241
-1863,-67,3,1,0,29,88.660133
1841,-755,4,0,0,0,590.198669
1646,1334,1,1,0,26,118.196198
-330,483,2,0,0,0,999.641296
-128,-1354,3,1,0,23,92.084206
1200,-980,4,0,0,0,661.442871
1000,509,1,0,0,0,785.869019
-394,156,2,0,0,0,1092.597412
-102,-869,3,0,0,0,857.402771
68,-1898,4,1,0,23,84.027489
943,1767,1,1,0,26,95.137070
-931,1464,2,1,0,29,88.660133
-869,-1109,3,0,0,0,720.547180
1448,-116,4,1,0,19,156.390442
1642,1199,1,0,0,0,615.772705
-1985,665,2,0,0,0,633.412109
-1852,-1757,3,1,0,8,45.428028
513,-1098,4,0,0,0,731.736755
1966,640,1,0,0,0,611.002869
-1536,1428,2,1,0,29,88.660133
-218,-1110,3,0,0,0,783.544128
866,-594,4,0,0,0,772.856079
522,632,1,0,0,0,876.182434
-1340,1310,2,0,0,0,665.013489
-1728,-1981,3,1,0,8,45.558449
389,-1110,4,0,0,0,740.321228
587,1784,1,0,0,0,638.368164
-77,758,2,0,0,0,923.491272
-1044,-622,3,0,0,0,762.964050
601,-214,4,0,0,0,916.233398
1305,302,1,1,0,19,118.545845
-269,1057,2,1,0,29,88.660133
-115,-841,3,1,0,23,90.338074
1057,-1650,4,1,0,23,112.937508
504,153,1,0,0,0,1003.603821
-642,866,2,0,0,0,823.590088
-1496,-648,3,0,0,0,678.765259
1928,-668,4,0,0,0,583.071228
918,1885,1,0,0,0,607.029053
-541,269,2,0,0,0,990.324036
-1924,-1283,3,0,0,0,579.214050
952,-1638,4,0,0,0,604.125854
31,1655,1,0,0,0,674.418518
-592,1357,2,0,0,0,732.470398
-1868,-981,3,0,0,0,605.235352
632,-571,4,0,0,0,833.041443
1989,397,1,0,0,0,616.463684
-891,1328,2,0,0,0,710.368103
-1638,-592,3,0,0,0,659.880615
80,-624,4,1,0,23,94.337250
782,998,1,0,0,0,750.793579
-351,279,2,0,0,0,1076.312866
-457,-674,3,0,0,0,878.076355
1852,-1123,4,0,0,0,566.178040
1575,1698,1,0,0,0,578.791992
-1064,632,2,0,0,0,783.921631
-297,-290,3,0,0,0,1072.261719
1266,-455,4,0,0,0,701.826172
1181,72,1,0,0,0,770.638672
-122,109,2,0,0,0,1367.148804
-748,-132,3,0,0,0,898.122620
840,-346,4,1,0,19,162.998627
413,734,1,0,0,0,868.382751
-35,1551,2,1,0,29,88.660133
-796,-1129,3,0,0,0,726.200684
1385,-575,4,0,0,0,670.758728
454,206,1,0,0,0,1019.444397
-1975,936,2,0,0,0,621.144592
-697,-810,3,0,0,0,799.903564
1864,-95,4,0,0,0,608.378601
1914,894,1,0,0,0,604.889648
-221,319,2,1,0,0,180.350189
-793,-1492,3,0,0,0,668.547180
109,-1102,4,0,0,0,757.618958
1504,427,1,0,0,0,690.745239
-1272,1741,2,0,0,0,625.000610
-1514,-13,3,1,0,29,88.660133
926,-1569,4,1,0,23,129.212723
920,1273,1,1,0,26,140.410553
-348,667,2,0,0,0,927.134888
-1743,-432,3,1,0,29,88.660133
1645,-404,4,1,0,19,151.798203
1037,1543,1,0,0,0,641.267212
-145,514,2,1,0,0,96.763229
-325,-368,3,0,0,0,1023.862793
1839,-1833,4,0,0,0,515.095703
1204,1999,1,0,0,0,576.648621
-1434,1243,2,0,0,0,661.411255
-474,-1546,3,0,0,0,681.104126
1937,-1751,4,0,0,0,513.521057
112,595,1,0,0,0,963.449158
-1831,1929,2,1,0,29,88.660133
-1839,-1775,3,0,0,0,550.921509
1329,-203,4,0,0,0,702.010742
1150,1294,1,0,0,0,661.612732
-1318,1288,2,0,0,0,669.796326
-843,-1911,3,1,0,8,71.441978
1806,-1085,4,0,0,0,573.996521
412,106,1,1,0,0,136.488541
-617,1075,2,0,0,0,783.472534
-207,-1433,3,0,0,0,712.731812
925,-505,4,0,0,0,771.836792
368,446,1,1,0,19,89.167252
-1087,1858,2,1,0,29,88.660133
-997,-1548,3,1,0,8,67.843620
389,-1360,4,0,0,0,687.458618
225,1913,1,1,0,29,88.660133
-1129,1617,2,0,0,0,650.432739
-87,-38,3,0,0,0,1497.865356
1677,-411,4,0,0,0,630.534485
726,1939,1,0,0,0,610.603027
-1669,624,2,0,0,0,679.419800
-477,-569,3,1,0,19,70.255287
388,-128,4,0,0,0,1044.664062
1026,1224,1,0,0,0,684.644470
-1117,940,2,0,0,0,736.492004
-221,-56,3,0,0,0,1245.107178
1209,-1499,4,1,0,23,112.396240
244,1245,1,0,0,0,750.612366
-288,435,2,0,0,0,1032.641602
-1014,-410,3,0,0,0,793.217773
1423,-598,4,0,0,0,662.509827
1057,771,1,0,0,0,741.787354
-75,1257,2,0,0,0,778.930847
-756,-753,3,0,0,0,800.327454
35,-1724,4,0,0,0,630.910156
1244,1351,1,1,0,26,146.732300
-1967,418,2,1,0,29,88.660133
-608,-893,3,0,0,0,796.766235
619,-1040,4,0,0,0,732.128906
1482,61,1,0,0,0,705.816711
-288,875,2,1,0,29,88.660133
-758,-1180,3,1,0,8,189.013016
1125,-260,4,0,0,0,745.622253
1428,1657,1,0,0,0,594.989258
-967,850,2,1,0,29,88.660133
-28,-1936,3,1,0,23,78.605850
1175,-946,4,0,0,0,669.072998
393,1066,1,0,0,0,782.294617
-1562,1175,2,0,0,0,652.981567
-404,-902,3,0,0,0,822.350342
1614,-1885,4,0,0,0,527.805725
1141,396,1,1,0,26,112.874275
-1894,1093,2,0,0,0,620.991089
-179,-1624,3,0,0,0,678.148193
597,-1287,4,0,0,0,686.613586
1114,917,1,0,0,0,713.722717
-1416,1723,2,0,0,0,615.392639
-466,-826,3,0,0,0,834.219849
336,-48,4,0,0,0,1098.140625
1247,1287,1,1,0,26,159.103088
-1931,1457,2,0,0,0,592.300720
-1665,-289,3,0,0,0,668.505493
1480,-434,4,0,0,0,662.736328
829,32,1,0,0,0,872.720398
-995,1074,2,0,0,0,735.672791
-1898,-947,3,0,0,0,603.729492
274,-955,4,0,0,0,788.773926
820,23,1,1,0,19,132.598557
-956,821,2,0,0,0,778.722412
-1589,-671,3,0,0,0,662.654053
152,-570,4,0,0,0,938.788269
186,1538,1,0,0,0,693.362549
-1826,640,2,0,0,0,655.872009
-1270,-627,3,0,0,0,719.040161
1908,-391,4,0,0,0,596.275208
180,1941,1,0,0,0,627.759460
-1008,1997,2,0,0,0,614.529053
-1097,-1314,3,0,0,0,664.838379
753,-1354,4,0,0,0,661.447388
1061,1348,1,1,0,26,143.097961
-11,897,2,0,0,0,876.461060
-1457,-551,3,0,0,0,691.796570
1060,-1522,4,0,0,0,610.162476
790,1451,1,0,0,0,674.966370
-433,1938,2,0,0,0,648.465271
-1178,-1342,3,0,0,0,652.760986
1932,-1084,4,0,0,0,559.796082
982,751,1,0,0,0,758.043762
-1920,270,2,0,0,0,655.285217
-252,-485,3,0,0,0,992.940369
831,-853,4,0,0,0,736.763550
152,425,1,0,0,0,1048.111938
-96,1957,2,0,0,0,652.288696
-391,-1953,3,0,0,0,621.628601
811,-1747,4,1,0,23,113.853203
1973,1491,1,1,0,26,87.594818
-1006,1678,2,0,0,0,652.710815
-359,-1840,3,0,0,0,638.884033
1364,-1990,4,0,0,0,535.736755
1826,1893,1,0,0,0,542.842896
-626,1694,2,1,0,29,88.660133
-1702,-1297,3,0,0,0,601.232239
275,-371,4,0,0,0,1009.349854
95,1017,1,0,0,0,812.882385
-1139,209,2,0,0,0,803.008606
-1717,-474,3,0,0,0,653.473755
1476,-1959,4,1,0,23,75.902924
1100,1443,1,0,0,0,648.199158
-1967,1556,2,0,0,0,582.051208
-878,-997,3,0,0,0,737.397583
396,-1888,4,1,0,23,96.668083
667,1321,1,0,0,0,706.476501
-1690,1503,2,1,0,29,88.660133
-1732,-515,3,1,0,29,88.660133
691,-1741,4,0,0,0,607.360657
496,995,1,1,0,2,145.996231
-386,115,2,1,0,0,169.060745
-398,-217,3,0,0,0,1046.868896
75,-1431,4,1,0,23,105.704712
862,1359,1,0,0,0,682.470642
-619,1304,2,0,0,0,739.738770
-1238,-176,3,1,0,29,88.660133
1947,-570,4,0,0,0,584.704773
1594,1465,1,1,0,26,112.608192
-469,1530,2,0,0,0,710.177917
-1789,-1671,3,1,0,8,69.113243
612,-1065,4,1,0,23,210.364975
1343,525,1,0,0,0,713.902405
-938,1628,2,0,0,0,664.261780
-1822,-1565,3,0,0,0,568.485352
35,-632,4,0,0,0,918.497498
295,809,1,0,0,0,861.997437
-1682,194,2,1,0,29,88.660133
-1705,-1632,3,0,0,0,573.439453
80,-1941,4,0,0,0,597.005676
1512,35,1,1,0,19,135.792038
-866,21,2,0,0,0,886.523682
-63,-944,3,1,0,23,96.353653
1736,-257,4,0,0,0,625.905334
1521,1620,1,0,0,0,590.522644
-702,1916,2,0,0,0,640.704712
-361,-47,3,0,0,0,1110.109863
153,-1830,4,0,0,0,612.991760
1218,1361,1,1,0,26,145.373779
-1508,544,2,1,0,29,88.660133
-1393,-864,3,1,0,8,91.226654
1356,-1202,4,0,0,0,616.785828
1368,1732,1,1,0,26,99.688576
-868,1486,2,0,0,0,689.366760
-1165,-675,3,0,0,0,733.553162
1827,-1140,4,1,0,19,105.783684
1625,1605,1,0,0,0,582.734375
-270,1351,2,0,0,0,753.113281
-1848,-319,3,0,0,0,638.787354
1969,-499,4,0,0,0,584.351868
692,1434,1,0,0,0,685.523621
-852,526,2,0,0,0,844.828796
-480,-1243,3,0,0,0,736.542358
534,-106,4,0,0,0,961.916199
1505,195,1,1,0,19,122.435982
-417,1410,2,1,0,29,88.660133
-1925,-1730,3,1,0,8,55.258839
46,-1022,4,0,0,0,780.366455
1635,1980,1,0,0,0,549.608887
-1875,1351,2,0,0,0,605.270020
-1639,-895,3,1,0,8,71.013031
451,-1260,4,0,0,0,703.319580
1793,1001,1,1,0,26,114.313675
-1846,1334,2,1,0,29,88.660133
-248,-1325,3,1,0,23,84.610115
1020,-590,4,0,0,0,739.795715
39,965,1,1,0,29,88.660133
-71,564,2,0,0,0,1007.898193
-1600,-50,3,0,0,0,683.993042
823,-1650,4,0,0,0,611.835938
1237,583,1,0,0,0,729.099243
-1188,1545,2,1,0,29,88.660133
-886,-1497,3,0,0,0,660.234314
1981,-705,4,0,0,0,574.554871
1198,826,1,0,0,0,711.294556
-1328,1543,2,1,0,29,88.660133
-29,-1690,3,0,0,0,668.445740
967,-946,4,1,0,23,148.830627
1505,1941,1,0,0,0,562.167908
-1441,1065,2,0,0,0,677.817993
-1315,-938,3,0,0,0,681.417603
68,-483,4,0,0,0,993.587280
100,186,1,0,0,0,1267.199463
-1863,1730,2,1,0,29,88.660133
-1673,-1835,3,1,0,8,54.617268
457,-258,4,1,0,19,117.882500
1409,1955,1,0,0,0,567.547058
-615,1354,2,0,0,0,731.192505
-114,-1450,3,0,0,0,711.428650
761,-1215,4,1,0,23,239.253738
1883,608,1,0,0,0,623.497314
-251,617,2,0,0,0,962.207581
-546,-780,3,0,0,0,833.091492
1941,-1430,4,0,0,0,535.935547
460,929,1,0,0,0,808.629578
-549,1687,2,0,0,0,680.666565
-1407,-923,3,0,0,0,669.719788
1320,-1074,4,0,0,0,634.673950
765,1991,1,0,0,0,602.156738
-1996,107,2,0,0,0,646.591797
-652,-618,3,1,0,8,89.515327
558,-1426,4,0,0,0,664.787476
619,637,1,1,0,2,146.569000
-1303,597,2,0,0,0,741.774048
-568,-822,3,0,0,0,819.221802
524,-1420,4,0,0,0,668.106934
1982,859,1,0,0,0,598.553589
-1994,1762,2,1,0,29,88.660133
-401,-661,3,0,0,0,893.024536
1631,-745,4,1,0,19,142.030350
137,508,1,0,0,0,1003.911743
-951,223,2,0,0,0,851.954407
-114,-965,3,0,0,0,827.230957
90,-1959,4,0,0,0,594.326721
1582,1981,1,0,0,0,553.218750
-941,1119,2,0,0,0,736.065247
-1444,-1708,3,1,0,8,60.621136
1562,-1691,4,0,0,0,548.957092
44,911,1,1,0,29,88.660133
-1703,1185,2,1,0,29,88.660133
-109,-991,3,0,0,0,819.848938
640,-1498,4,1,0,23,148.626724
1615,1036,1,1,0,26,136.434189
-1782,810,2,0,0,0,652.565430
-812,-133,3,1,0,29,88.660133
1616,-493,4,0,0,0,636.724609
704,384,1,0,0,0,882.496399
-666,944,2,0,0,0,803.686279
-407,-584,3,1,0,8,74.406944
1362,-275,4,0,0,0,692.572021
1710,1685,1,0,0,0,568.622559
-1235,1797,2,0,0,0,621.810181
-1052,-390,3,0,0,0,785.900513
1303,-659,4,0,0,0,678.378784
188,127,1,1,0,0,350.937927
-978,1712,2,0,0,0,650.502441
-1333,-212,3,0,0,0,732.844666
1596,-252,4,0,0,0,649.454468
78,414,1,1,0,0,139.088348
-1500,1825,2,0,0,0,599.031494
-139,-630,3,0,0,0,945.147278
1561,-1612,4,0,0,0,556.170715
109,1913,1,0,0,0,632.657227
-1832,839,2,0,0,0,644.301270
-1412,-864,3,1,0,8,97.818550
1263,-955,4,0,0,0,655.228577
795,327,1,0,0,0,862.493408
-1581,1861,2,0,0,0,589.628540
-992,-1503,3,0,0,0,650.346008
1905,-1652,4,0,0,0,523.317749
1736,1594,1,1,0,26,95.808266
-673,898,2,0,0,0,812.040161
-138,-1676,3,1,0,23,83.261192
990,-800,4,1,0,19,157.592621
1748,25,1,1,0,19,121.415794
-460,306,2,1,0,0,89.777603
-1079,-24,3,0,0,0,797.049194
1460,-1642,4,0,0,0,562.116272
1615,442,1,0,0,0,671.138977
-1528,678,2,0,0,0,697.679077
-100,-1263,3,0,0,0,751.004272
1114,-764,4,0,0,0,700.651489
132,955,1,0,0,0,829.498596
-577,138,2,0,0,0,995.578613
-642,-1526,3,0,0,0,674.374023
1951,-1934,4,0,0,0,499.307648
745,378,1,1,0,19,104.963142
-516,269,2,0,0,0,1001.153870
-156,-18,3,1,0,0,501.457642
700,-1477,4,0,0,0,646.170105
1706,1670,1,0,0,0,570.202332
-39,415,2,1,0,0,158.974869
-571,-1804,3,0,0,0,636.233093
732,-1842,4,0,0,0,591.296509
1897,785,1,1,0,26,101.486374
-78,1685,2,0,0,0,695.099121
-1487,-804,3,0,0,0,668.413391
1713,-601,4,1,0,19,140.543442
1856,400,1,0,0,0,635.270020
-941,115,2,1,0,29,88.660133
-917,-1132,3,1,0,8,243.728821
811,-750,4,0,0,0,758.330444
879,563,1,0,0,0,806.641418
-972,66,2,0,0,0,852.709106
-1888,-211,3,0,0,0,635.098999
1543,-867,4,0,0,0,623.485535
351,550,1,0,0,0,941.902832
-1643,1499,2,1,0,29,88.660133
-1147,-249,3,1,0,29,88.660133
710,-1782,4,0,0,0,600.597229
24,1211,1,0,0,0,763.912476
-1762,393,2,0,0,0,675.679932
-854,-619,3,0,0,0,803.656250
1816,-1121,4,0,0,0,570.356689
1518,87,1,0,0,0,698.717529
-635,1376,2,0,0,0,725.782471
-429,-1610,3,0,0,0,672.545044
31,-1079,4,0,0,0,764.952698
1694,1582,1,0,0,0,578.567017
-1585,230,2,0,0,0,709.939880
-147,-1991,3,0,0,0,620.963074
1998,-1869,4,0,0,0,500.452728
272,414,1,0,0,0,1021.296021
-821,458,2,1,0,29,88.660133
-332,-278,3,0,0,0,1060.073730
413,-988,4,0,0,0,767.248901
295,231,1,0,0,0,1101.805664
-1657,626,2,0,0,0,681.114685
-668,-286,3,1,0,29,88.660133
1163,-1416,4,1,0,23,121.433975
1089,1481,1,0,0,0,644.477417
-779,672,2,0,0,0,837.031555
-217,-317,3,1,0,0,165.061508
980,-1066,4,1,0,23,158.125031
173,1229,1,0,0,0,756.917358
-999,911,2,0,0,0,758.519287
-970,-1203,3,0,0,0,694.075439
354,-566,4,0,0,0,903.160889
195,872,1,0,0,0,851.358643
-147,999,2,0,0,0,842.405823
-203,-998,3,0,0,0,813.725342
816,-1497,4,0,0,0,634.134277
1076,1011,1,0,0,0,707.134094
-358,928,2,1,0,29,88.660133
-1082,-352,3,1,0,8,87.309837
700,-1485,4,1,0,23,152.082153
654,179,1,1,0,19,112.777908
-1988,312,2,1,0,29,88.660133
-1516,-1685,3,1,0,8,55.531914
1505,-1970,4,0,0,0,528.086731
664,1191,1,0,0,0,729.920227
-1075,1289,2,0,0,0,696.522583
-957,-67,3,0,0,0,830.915161
779,-464,4,0,0,0,815.054016
1383,1254,1,0,0,0,640.076538
-583,1890,2,0,0,0,649.603577
-1239,-1370,3,0,0,0,643.102295
702,-1345,4,0,0,0,667.431824
783,449,1,0,0,0,848.454407
-1186,1957,2,1,0,29,88.660133
-1093,-739,3,1,0,8,104.840202
1195,-1625,4,1,0,23,105.892998
386,473,1,0,0,0,961.049561
-1705,1107,2,0,0,0,641.783691
-405,-1026,3,0,0,0,790.787659
766,-108,4,0,0,0,860.737732
602,557,1,0,0,0,876.022888
-1684,1422,2,0,0,0,618.745117
-342,-1230,3,0,0,0,748.813782
333,-1572,4,1,0,23,118.809357
1918,87,1,0,0,0,632.082336
-736,1965,2,0,0,0,632.748108
-507,-1687,3,0,0,0,656.646362
1469,-1147,4,0,0,0,608.785400
116,994,1,0,0,0,818.763855
-859,1289,2,0,0,0,719.507324
-252,-1717,3,0,0,0,660.916077
743,-1919,4,0,0,0,580.668335
317,1456,1,0,0,0,704.496399
-1170,895,2,1,0,29,88.660133
-1518,-251,3,1,0,29,88.660133
359,-536,4,0,0,0,913.021118
241,1990,1,1,0,29,88.660133
-1947,1772,2,0,0,0,568.319885
-412,-293,3,0,0,0,1015.417908
564,-303,4,0,0,0,915.208008
696,198,1,0,0,0,912.083557
-254,726,2,0,0,0,920.763245
-722,-1719,3,0,0,0,640.443481
1625,-1290,4,0,0,0,578.341797
1001,1813,1,0,0,0,610.531067
-1800,1811,2,0,0,0,576.974548
-1587,-1124,3,1,0,8,86.604836
887,-1436,4,0,0,0,637.006531
227,1366,1,1,0,2,90.779945
-705,1339,2,0,0,0,726.198425
-1753,-770,3,0,0,0,632.872253
73,-1303,4,0,0,0,710.522583
1857,992,1,0,0,0,605.851685
-482,1313,2,0,0,0,748.780518
-1828,-68,3,0,0,0,645.880188
1962,-1747,4,0,0,0,511.815460
584,1192,1,0,0,0,737.639465
-952,1705,2,0,0,0,653.248352
-820,-251,3,0,0,0,863.187134
1944,-166,4,1,0,19,115.572617
1634,1369,1,0,0,0,602.318665
-1946,1906,2,1,0,29,88.660133
-1470,-1174,3,0,0,0,637.885864
970,-1351,4,0,0,0,641.209106
1569,286,1,0,0,0,685.054016
-1734,649,2,0,0,0,668.461060
-1320,-626,3,1,0,8,88.527306
1368,-38,4,0,0,0,696.921570
1526,1637,1,0,0,0,588.508728
-858,345,2,0,0,0,867.708191
-787,-1400,3,0,0,0,683.054749
1247,-1302,4,0,0,0,618.237183
1797,199,1,0,0,0,649.218384
-1526,938,2,0,0,0,677.915405
-592,-535,3,0,0,0,883.932556
1493,-480,4,1,0,19,178.242126
1407,1769,1,0,0,0,585.689819
-1557,697,2,0,0,0,691.879028
-1113,-1769,3,0,0,0,607.931152
1167,-909,4,0,0,0,674.667542
1153,1147,1,0,0,0,679.460999
-1867,751,2,0,0,0,644.669067
-1118,-589,3,0,0,0,751.750366
1843,-802,4,0,0,0,587.342285
1226,1899,1,0,0,0,585.682312
-298,495,2,0,0,0,1003.206299
-1093,-59,3,1,0,29,88.660133
393,-191,4,0,0,0,1025.297119
452,1070,1,0,0,0,775.939697
-836,574,2,0,0,0,841.174622
-781,-1860,3,0,0,0,617.999512
855,-1426,4,0,0,0,641.291748
1219,41,1,1,0,19,145.877960
-257,674,2,0,0,0,939.252930
-1791,-1962,3,0,0,0,540.032227
1624,-1906,4,0,0,0,525.273499
687,1924,1,0,0,0,614.403687
-1895,308,2,0,0,0,658.100342
-1878,-1492,3,0,0,0,568.877563
434,-1711,4,0,0,0,624.244812
936,1523,1,0,0,0,652.449097
-224,998,2,0,0,0,838.705322
-1153,-1005,3,0,0,0,697.022644
449,-1071,4,0,0,0,743.972961
1889,1986,1,0,0,0,531.230957
-355,1537,2,0,0,0,714.289429
-905,-703,3,0,0,0,779.820435
600,-1792,4,0,0,0,604.843445
60,1675,1,0,0,0,670.852112
-1805,1480,2,0,0,0,602.436218
-483,-1316,3,0,0,0,721.990601
1725,-1528,4,1,0,19,90.353004
731,876,1,0,0,0,781.083496
-1608,1442,2,0,0,0,624.512390
-407,-1110,3,0,0,0,770.864136
1013,-623,4,0,0,0,737.155518
1440,765,1,0,0,0,678.716553
-1444,1843,2,0,0,0,601.569336
-829,-28,3,0,0,0,872.770691
535,-852,4,0,0,0,785.177063
1731,1626,1,1,0,26,94.240074
-441,1406,2,0,0,0,733.823975
-1288,-523,3,0,0,0,724.393372
1692,-337,4,1,0,19,144.175934
195,1869,1,0,0,0,638.208130
-1939,1954,2,0,0,0,555.705322
-1893,-1962,3,1,0,8,52.333809
929,-1310,4,0,0,0,651.190979
1310,1076,1,0,0,0,667.601257
-928,3,2,1,0,29,88.660133
-1214,-1520,3,0,0,0,628.348633
497,-461,4,0,0,0,898.751709
532,939,1,0,0,0,797.058044
-1291,715,2,0,0,0,733.389709
-8,-1628,3,0,0,0,679.167603
1692,-769,4,0,0,0,609.579285
1866,732,1,0,0,0,619.821777
-1592,1109,2,0,0,0,655.093689
-491,-919,3,0,0,0,807.165588
1063,-1189,4,1,0,23,144.903046
1436,1191,1,1,0,26,156.383942
-1057,770,2,0,0,0,768.079407
-718,-950,3,1,0,8,120.700333
624,-85,4,0,0,0,919.959900
1759,149,1,0,0,0,656.037476
-1905,948,2,0,0,0,628.766479
-38,-238,3,0,0,0,1229.073608
980,-299,4,0,0,0,779.927917
1580,1537,1,0,0,0,592.813232
-405,1770,2,1,0,29,88.660133
-868,-759,3,0,0,0,778.052063
1046,-41,4,0,0,0,773.769775
281,183,1,1,0,0,207.619217
-1667,1623,2,1,0,29,88.660133
-1624,-434,3,0,0,0,670.014954
1098,-1932,4,0,0,0,558.919434
1447,333,1,0,0,0,705.514099
-228,830,2,0,0,0,888.360291
-753,-779,3,0,0,0,795.939270
1558,-1381,4,0,0,0,577.364685
1259,1003,1,0,0,0,682.406372
-1270,807,2,0,0,0,727.822021
-1535,-7,3,1,0,29,88.660133
1774,-1737,4,0,0,0,527.668457
539,160,1,0,0,0,984.785095
-641,1536,2,0,0,0,698.928772
-288,-1562,3,0,0,0,686.226624
1596,-217,4,0,0,0,650.354553
414,1760,1,1,0,26,76.997185
-1166,1108,2,0,0,0,708.711670
-1729,-1655,3,0,0,0,569.481018
1429,-1320,4,0,0,0,596.608887
1041,823,1,0,0,0,737.713501
-150,1073,2,0,0,0,822.148743
-1593,-1190,3,0,0,0,622.108215
385,-1926,4,0,0,0,593.887451
573,815,1,0,0,0,820.052795
-126,1010,2,0,0,0,840.114807
-432,-43,3,1,0,0,131.181671
366,-548,4,0,0,0,906.896179
55,266,1,0,0,0,1194.580444
-848,798,2,0,0,0,801.420105
-1837,-176,3,0,0,0,643.373352
394,-4,4,0,0,0,1055.118164
153,1984,1,0,0,0,621.895386
-1682,1227,2,0,0,0,634.975098
-1943,-1489,3,0,0,0,563.111450
180,-1334,4,0,0,0,701.654175
1758,1686,1,0,0,0,564.515198
-1541,967,2,1,0,29,88.660133
-1465,-1730,3,0,0,0,584.856445
1772,-662,4,0,0,0,604.566589
421,833,1,0,0,0,838.818542
-1333,1068,2,0,0,0,691.513062
-1451,-1107,3,0,0,0,646.536194
1662,-1449,4,0,0,0,561.122131
95,1705,1,1,0,29,88.660133
-884,1596,2,0,0,0,672.660522
-1216,-700,3,0,0,0,721.734863
1623,-1058,4,0,0,0,597.774597
825,136,1,0,0,0,870.468079
-1583,1244,2,0,0,0,644.537781
-178,-901,3,0,0,0,843.457336
1537,-948,4,0,0,0,617.762817
470,25,1,0,0,0,1036.038940
-1817,259,2,0,0,0,670.958008
-1199,-366,3,1,0,8,81.016808
122,-1333,4,0,0,0,703.257690
154,656,1,1,0,29,88.660133
-155,946,2,0,0,0,857.361572
-556,-1907,3,1,0,23,60.314907
1057,-1621,4,0,0,0,598.100342
1331,936,1,1,0,26,202.843735
-755,1415,2,1,0,29,88.660133
-718,-429,3,0,0,0,870.376587
466,-1231,4,0,0,0,708.073181
89,660,1,0,0,0,935.995544
-1962,433,2,0,0,0,645.119019
-258,-819,3,0,0,0,862.811218
577,-910,4,0,0,0,765.467651
394,121,1,1,0,0,145.023056
-1976,557,2,0,0,0,638.970154
-1506,-422,3,0,0,0,690.641418
1119,-1733,4,1,0,23,103.161667
946,800,1,1,0,26,152.415451
-525,512,2,0,0,0,934.502991
-4,-408,3,0,0,0,1077.223755
1492,-756,4,1,0,19,155.341782
1619,1414,1,0,0,0,599.949280
-316,1615,2,0,0,0,702.174255
-1756,-1553,3,0,0,0,575.361511
1616,-660,4,1,0,19,149.222534
1687,807,1,0,0,0,639.585938
-1396,1090,2,0,0,0,681.142334
-1369,-765,3,0,0,0,689.867615
1860,-1602,4,0,0,0,530.857422
523,363,1,0,0,0,948.978455
-1885,864,2,1,0,29,88.660133
-1875,-1988,3,1,0,8,54.185169
1156,-1725,4,0,0,0,578.103943
804,151,1,0,0,0,876.759949
-534,56,2,0,0,0,1024.345459
-1653,-1347,3,0,0,0,602.234314
1709,-1993,4,1,0,19,72.239029
1074,113,1,0,0,0,796.873291
-1263,152,2,1,0,29,88.660133
-1904,-1746,3,0,0,0,547.905029
710,-44,4,0,0,0,884.872498
715,1069,1,0,0,0,746.706116
-1696,333,2,1,0,29,88.660133
-941,-1206,3,0,0,0,696.992981
1147,-1727,4,0,0,0,578.558594
1471,611,1,0,0,0,685.414062
-330,1123,2,0,0,0,799.931091
-657,-507,3,1,0,8,71.934410
1967,-1869,4,1,0,19,72.662750
622,837,1,1,0,2,178.298920
-660,1100,2,0,0,0,773.603760
-894,-29,3,0,0,0,851.058411
1874,-660,4,0,0,0,590.623352
1482,1314,1,0,0,0,623.222473
-455,1863,2,0,0,0,658.414368
-598,-506,3,1,0,8,79.900475
227,-445,4,0,0,0,986.702576
613,1526,1,0,0,0,676.284607
-586,957,2,0,0,0,812.050232
-1044,-551,3,0,0,0,771.297485
611,-287,4,0,0,0,899.960022
720,1501,1,0,0,0,672.789307
-954,1222,2,0,0,0,719.268677
-28,-1841,3,1,0,23,82.490700
1479,-1,4,0,0,0,674.715271
367,1766,1,0,0,0,649.890564
-1552,1349,2,1,0,29,88.660133
-1714,-199,3,0,0,0,662.546692
1809,-1845,4,0,0,0,516.460449
1305,1413,1,0,0,0,631.569275
-1143,179,2,0,0,0,803.278259
-1388,-160,3,0,0,0,722.941956
1733,-917,4,0,0,0,594.385864
1316,1281,1,1,0,26,156.301727
-120,1109,2,0,0,0,813.768494
-491,-607,3,0,0,0,890.208313
1284,-1954,4,0,0,0,544.570068
759,939,1,0,0,0,764.824829
-494,1123,2,0,0,0,786.414856
-305,-1266,3,0,0,0,743.126587
574,-1199,4,0,0,0,705.244934
1411,1400,1,1,0,26,131.267624
-1384,1697,2,1,0,29,88.660133
-1278,-920,3,0,0,0,688.691711
1573,-1596,4,1,0,19,90.043564
1029,974,1,0,0,0,718.933899
-1714,1157,2,0,0,0,636.901855
-1877,-28,3,0,0,0,638.502136
1608,-597,4,0,0,0,632.418945
1018,246,1,0,0,0,805.690735
-215,1611,2,0,0,0,705.735718
-510,-1981,3,0,0,0,614.038879
1800,-1168,4,0,0,0,568.820129
340,537,1,1,0,2,100.874519
-548,1763,2,0,0,0,669.275757
-143,-1424,3,0,0,0,716.057861
1939,-1415,4,0,0,0,537.162109
1065,1505,1,0,0,0,643.637146
-1731,688,2,0,0,0,666.731934
-1696,-1615,3,0,0,0,575.637634
896,-539,4,0,0,0,774.092651
1082,402,1,0,0,0,777.747314
-339,651,2,0,0,0,934.247925
-1135,-569,3,1,0,8,86.604668
522,-1418,4,0,0,0,668.592346
285,1777,1,0,0,0,650.527466
-172,484,2,0,0,0,1037.122070
-1153,-483,3,0,0,0,754.852173
541,-111,4,0,0,0,957.790161
604,1613,1,1,0,26,91.759270
-1918,1259,2,0,0,0,607.334656
-1842,-1434,3,1,0,8,63.598309
380,-1806,4,0,0,0,611.576660
462,945,1,0,0,0,804.434387
-167,693,2,0,0,0,942.667358
-1087,-1311,3,0,0,0,666.294250
1415,-400,4,0,0,0,676.372498
264,742,1,0,0,0,887.695923
-955,1315,2,0,0,0,705.751770
-465,-749,3,0,0,0,855.227417
727,-1948,4,0,0,0,577.733948
1199,1390,1,0,0,0,644.882263
-1419,445,2,0,0,0,731.189453
-1115,-1722,3,0,0,0,613.223877
313,-1226,4,0,0,0,719.377930
1801,807,1,0,0,0,624.244568
-1665,1148,2,0,0,0,643.252075
-313,-523,3,0,0,0,961.524658
254,-443,4,0,0,0,980.369629
67,662,1,0,0,0,936.251587
-693,1172,2,0,0,0,756.499329
-1524,-1454,3,0,0,0,605.717896
898,-1564,4,0,0,0,618.137207
518,1775,1,0,0,0,642.813232
-1921,136,2,0,0,0,657.218079
-236,-829,3,0,0,0,861.719849
221,-1651,4,0,0,0,640.769531
174,591,1,0,0,0,958.432556
-366,471,2,0,0,0,994.020935
-656,-1524,3,1,0,8,88.733902
685,-1567,4,0,0,0,633.262207
948,479,1,0,0,0,801.646301
-1068,343,2,0,0,0,812.161377
-338,-639,3,0,0,0,912.373962
635,-1766,4,1,0,23,112.608192
1053,1142,1,0,0,0,692.593384
-1536,997,2,1,0,29,88.660133
-1663,-1500,3,1,0,8,58.848595
199,-798,4,0,0,0,843.113098
613,369,1,0,0,0,915.335022
-1722,812,2,0,0,0,660.493164
-207,-1023,3,0,0,0,806.671936
1227,-1856,4,0,0,0,558.575500
759,1302,1,0,0,0,701.254028
-1541,1826,2,0,0,0,595.803589
-911,-1181,3,0,0,0,704.222229
1067,-828,4,1,0,19,158.757278
1516,657,1,0,0,0,674.945251
-746,1709,2,0,0,0,666.423767
-1406,-1547,3,0,0,0,607.869019
1924,-1418,4,1,0,19,89.861267
1224,449,1,0,0,0,742.788940
-698,1931,2,0,0,0,638.932068
-1562,-1563,3,0,0,0,592.112793
941,-11,4,1,0,19,143.567200
1378,1513,1,1,0,26,119.807945
-1384,1913,2,1,0,29,88.660133
-384,-146,3,0,0,0,1075.252075
880,-142,4,0,0,0,819.958557
1599,794,1,0,0,0,652.824158
-294,878,2,0,0,0,867.349731
-834,-878,3,0,0,0,763.976746
340,-1528,4,0,0,0,658.500427
345,88,1,0,0,0,1116.518677
-1138,342,2,0,0,0,795.594238
-715,-1797,3,0,0,0,630.005310
1222,-912,4,0,0,0,665.999451
1323,384,1,0,0,0,726.989563
-1730,1437,2,1,0,29,88.660133
-1384,-466,3,0,0,0,710.274536
1033,-829,4,0,0,0,706.281555
543,1599,1,0,0,0,668.710510
-527,479,2,0,0,0,942.942200
-1603,-1074,3,0,0,0,630.667664
347,-1254,4,1,0,23,144.705154
1061,209,1,1,0,19,126.046951
-1068,479,2,0,0,0,799.927063
-689,-1301,3,0,0,0,707.962463
1449,-1465,4,1,0,19,98.745476
1987,1596,1,0,0,0,551.726624
-1967,1042,2,0,0,0,615.934937
-700,-1750,3,0,0,0,637.350281
1704,-1812,4,0,0,0,527.151489
353,190,1,0,0,0,1082.310547
-1567,1814,2,0,0,0,594.883545
-217,-158,3,1,0,0,286.233765
7,-1573,4,0,0,0,657.109253
444,960,1,0,0,0,802.849792
-1230,709,2,0,0,0,744.497375
-85,-1165,3,0,0,0,774.326233
1491,-1613,4,0,0,0,562.201660
487,410,1,0,0,0,948.988831
-1065,1913,2,0,0,0,620.637024
-1671,-843,3,0,0,0,639.355042
832,-1976,4,1,0,23,93.815353
444,1492,1,1,0,26,88.510330
-401,261,2,0,0,0,1057.588379
-1476,-786,3,1,0,8,88.170685
1838,-1819,4,1,0,19,76.522118
1446,378,1,0,0,0,703.636475
-639,749,2,0,0,0,849.681702
-726,-1606,3,0,0,0,656.494873
466,-13,4,0,0,0,1006.632385
258,740,1,0,0,0,889.117737
-370,82,2,0,0,0,1124.809326
-1701,-1174,3,0,0,0,611.105530
773,-815,4,0,0,0,753.527222
843,541,1,0,0,0,818.500183
-1136,1389,2,0,0,0,677.413147
-65,-1710,3,0,0,0,664.920166
1901,-1881,4,1,0,19,73.375191
523,935,1,0,0,0,799.169983
-1651,1969,2,1,0,29,88.660133
-1318,-1140,3,0,0,0,659.729370
12,-833,4,0,0,0,839.412354
276,875,1,0,0,0,843.744873
-1571,1662,2,0,0,0,608.242554
-1280,-1264,3,0,0,0,650.653320
1446,-684,4,0,0,0,652.322266
603,350,1,0,0,0,922.788879
-954,1225,2,1,0,29,88.660133
-1255,-336,3,0,0,0,743.793030
854,-522,4,0,0,0,786.650513
1018,1396,1,0,0,0,662.175903
-414,995,2,0,0,0,823.676453
-425,-1303,3,0,0,0,728.458618
377,-669,4,0,0,0,862.852661
1769,1319,1,1,0,26,108.389450
-1944,1201,2,0,0,0,608.480225
-1168,-1861,3,0,0,0,593.728149
1067,-1910,4,0,0,0,563.327026
1537,589,1,0,0,0,676.028748
-1656,876,2,0,0,0,665.094299
-1258,-1120,3,0,0,0,669.448181
1690,-1214,4,0,0,0,577.515991
87,1037,1,1,0,29,88.660133
-537,11,2,0,0,0,1024.246704
-1045,-1427,3,0,0,0,655.485596
1124,-113,4,1,0,19,168.142487
659,1351,1,0,0,0,701.999939
-892,1158,2,0,0,0,736.133301
-1354,-243,3,0,0,0,727.399475
373,-659,4,0,0,0,866.881470
115,764,1,1,0,29,88.660133
-1858,1914,2,0,0,0,564.599121
-810,-463,3,0,0,0,838.927673
1418,-1532,4,1,0,19,95.399635
1505,1227,1,0,0,0,628.863037
-601,1008,2,0,0,0,799.173767
-639,-615,3,1,0,8,94.326210
1740,-932,4,0,0,0,592.477478
1895,998,1,0,0,0,600.983704
-891,1592,2,0,0,0,672.674622
-231,-1323,3,0,0,0,734.279602
152,-172,4,0,0,0,1210.961304
1073,458,1,0,0,0,774.679932
-1869,251,2,0,0,0,663.216553
-180,-1523,3,1,0,23,85.258705
1795,-1893,4,0,0,0,513.778076
765,845,1,1,0,2,226.479004
-132,745,2,1,0,29,88.660133
-552,-977,3,0,0,0,785.851562
484,-1271,4,1,0,23,170.507904
58,923,1,0,0,0,841.457642
-1522,1444,2,1,0,29,88.660133
-432,-1138,3,0,0,0,762.493774
1392,-559,4,0,0,0,670.676392
693,251,1,0,0,0,906.783630
-1613,937,2,0,0,0,666.319397
-467,-1943,3,0,0,0,620.690063
1319,-1054,4,0,0,0,636.915894
1201,76,1,0,0,0,765.775574
-1640,348,2,1,0,29,88.660133
-1673,-52,3,0,0,0,671.238892
605,-807,4,0,0,0,784.448547
1685,347,1,1,0,19,105.740860
-946,1178,2,1,0,29,88.660133
-197,-521,3,0,0,0,987.486694
712,-1012,4,1,0,23,201.685181
1555,1693,1,0,0,0,580.909058
-1452,1539,2,0,0,0,630.376892
-1553,-620,3,0,0,0,671.515808
219,-338,4,0,0,0,1048.801880
1412,539,1,1,0,26,124.048607
-238,1055,2,0,0,0,822.658997
-1789,-619,3,0,0,0,636.104919
1774,-1221,4,0,0,0,567.788574
1326,92,1,1,0,19,138.039673
-833,1092,2,0,0,0,754.004150
-1665,-1172,3,0,0,0,615.358887
668,-1486,4,1,0,23,151.585358
418,1798,1,0,0,0,643.290161
-1797,1396,2,0,0,0,609.669922
-328,-1116,3,1,0,8,103.440857
495,-1901,4,0,0,0,593.846069
1197,1805,1,0,0,0,597.805786
-983,1440,2,1,0,29,88.660133
-627,-1751,3,0,0,0,641.147278
252,-1353,4,0,0,0,695.307251
998,1681,1,0,0,0,626.941650
-1725,1500,2,1,0,29,88.660133
-1728,-78,3,0,0,0,661.844727
1524,-1613,4,0,0,0,559.317078
1604,963,1,0,0,0,639.465210
-1491,75,2,1,0,29,88.660133
-48,-969,3,1,0,23,97.997398
1084,-1456,4,0,0,0,616.290527
1924,990,1,0,0,0,598.077148
-615,1944,2,1,0,29,88.660133
-1240,-1079,3,1,0,8,131.424973
1265,-55,4,0,0,0,719.180603
869,1114,1,0,0,0,719.746948
-1802,721,2,1,0,29,88.660133
-1014,-1882,3,0,0,0,601.508179
968,-291,4,0,0,0,783.824280
396,1669,1,0,0,0,664.236450
-1123,1051,2,1,0,29,88.660133
-1067,-1610,3,0,0,0,630.380615
868,-556,4,0,0,0,778.192871
760,1829,1,0,0,0,623.225220
-1782,93,2,0,0,0,679.004395
-418,-1410,3,0,0,0,708.260071
688,-851,4,0,0,0,761.022705
1822,478,1,1,0,26,94.903046
-1964,1059,2,1,0,29,88.660133
-1907,-482,3,1,0,29,88.660133
223,-1767,4,0,0,0,621.702881
534,676,1,0,0,0,861.875854
-1263,598,2,0,0,0,749.038574
-168,-1089,3,0,0,0,791.089783
405,-1542,4,0,0,0,653.272644
806,1484,1,0,0,0,668.698486
-71,211,2,0,0,0,1278.269165
-600,-1418,3,0,0,0,695.120972
633,-1924,4,0,0,0,585.161499
414,1074,1,0,0,0,778.553406
-1276,430,2,0,0,0,759.689636
-350,-1690,3,1,0,23,72.707817
981,-12,4,0,0,0,792.399231
1950,183,1,1,0,19,102.613945
-730,649,2,1,0,29,88.660133
-804,-978,3,1,0,8,188.718948
777,-1144,4,0,0,0,693.927368
1371,701,1,0,0,0,695.101868
-730,1441,2,0,0,0,707.490051
-646,-1705,3,1,0,8,102.429779
1983,-1313,4,0,0,0,539.768982
198,1830,1,0,0,0,644.105591
-336,1240,2,0,0,0,773.176941
-1764,-1931,3,0,0,0,544.425964
606,-1389,4,1,0,23,169.296967
1588,982,1,0,0,0,640.041260
-199,178,2,1,0,0,311.241241
-154,-657,3,1,0,23,82.836632
1423,-201,4,0,0,0,682.927612
398,1964,1,0,0,0,619.895569
-1588,1338,2,1,0,29,88.660133
-166,-61,3,0,0,0,1318.374146
1098,-1260,4,0,0,0,639.819092
550,1278,1,1,0,2,105.559792
-206,845,2,0,0,0,885.364929
-1775,-1901,3,0,0,0,546.002014
1539,-1785,4,0,0,0,542.320557
834,1882,1,0,0,0,612.248352
-50,1750,2,0,0,0,684.458862
-1956,-965,3,1,0,8,51.961067
784,-1572,4,0,0,0,625.623901
1099,632,1,0,0,0,750.820801
-283,1591,2,0,0,0,707.380859
-372,-1188,3,0,0,0,756.048096
630,-694,4,0,0,0,805.516541
1490,1671,1,0,0,0,588.398621
-1674,1042,2,1,0,29,88.660133
-360,-1519,3,1,0,8,90.572212
1534,-456,4,0,0,0,652.192932
176,91,1,0,0,0,1285.593506
-1589,350,2,0,0,0,705.417786
-1193,-1299,3,0,0,0,656.295776
609,-1433,4,0,0,0,660.024109
14,149,1,1,0,0,521.686279
-104,674,2,1,0,29,88.660133
-1621,-1024,3,0,0,0,632.472290
588,-737,4,0,0,0,803.828918
598,568,1,0,0,0,874.411194
-1851,144,2,0,0,0,667.672485
-899,-163,3,0,0,0,844.951355
278,-1092,4,0,0,0,752.621033
233,1246,1,0,0,0,750.858093
-515,1420,2,0,0,0,726.720093
-636,-218,3,1,0,29,88.660133
1411,-134,4,1,0,19,162.118835
47,1009,1,0,0,0,816.090210
-813,131,2,0,0,0,901.103333
-1876,-332,3,1,0,29,88.660133
1369,-51,4,0,0,0,696.624390
214,645,1,0,0,0,930.171570
-1199,1695,2,0,0,0,635.767212
-763,-1271,3,0,0,0,705.975159
1972,-321,4,1,0,19,116.651146
137,527,1,0,0,0,994.020691
-1147,643,2,0,0,0,766.500610
-1835,-634,3,0,0,0,628.914856
701,-1243,4,0,0,0,684.941467
1857,1200,1,0,0,0,591.949280
-122,252,2,0,0,0,1212.141602
-1260,-1747,3,0,0,0,599.365295
898,-812,4,1,0,19,148.491119
296,389,1,0,0,0,1025.131470
-1824,109,2,0,0,0,672.224243
-23,-1159,3,0,0,0,776.515198
1409,-1322,4,0,0,0,598.553284
1112,1821,1,0,0,0,602.054443
-1857,712,2,0,0,0,648.029724
-1787,-414,3,0,0,0,645.091248
1197,-1150,4,0,0,0,641.766418
578,1439,1,0,0,0,693.078491
-810,1207,2,0,0,0,737.731384
-1527,-464,3,0,0,0,684.859314
866,-1122,4,1,0,23,192.995605
1353,1763,1,0,0,0,590.495728
-1741,619,2,0,0,0,669.033813
-423,-1624,3,0,0,0,670.492371
1265,-972,4,0,0,0,653.091919
1834,452,1,0,0,0,636.735596
-979,1428,2,0,0,0,687.637817
-1053,-1006,3,0,0,0,711.067078
1119,-958,4,0,0,0,675.864502
371,796,1,0,0,0,856.336792
-108,1674,2,1,0,29,88.660133
-896,-1600,3,0,0,0,645.173889
199,-764,4,0,0,0,854.877075
1683,1291,1,0,0,0,603.730957
-1512,510,2,0,0,0,710.997620
-1890,-798,3,0,0,0,613.210632
1244,-1397,4,0,0,0,607.742676
1401,1262,1,0,0,0,637.232361
-225,1936,2,0,0,0,653.796387
-737,-447,3,0,0,0,861.712036
594,-1089,4,0,0,0,725.064331
1727,1537,1,0,0,0,579.292725
-990,1798,2,1,0,29,88.660133
-1680,-331,3,0,0,0,664.743042
1289,-1505,4,0,0,0,591.377502
1984,519,1,0,0,0,613.321594
-906,530,2,1,0,29,88.660133
-1503,-1854,3,0,0,0,570.276917
836,-964,4,0,0,0,716.968933
1700,202,1,0,0,0,664.799500
-1749,-1261,3,0,0,0,599.074402
736,-1616,4,0,0,0,622.552063
243,610,1,0,0,0,940.071106
-1811,-1708,3,0,0,0,558.366516
730,-1852,4,1,0,23,104.676384
-878,-84,3,0,0,0,855.095459
1660,-938,4,0,0,0,602.312927
-974,-1611,3,1,0,8,68.529938
-266,-115,3,0,0,0,1175.904175
-886,-691,3,1,0,8,111.256439
-1372,-310,3,0,0,0,721.021423


each generation good chromosome number
0,0,0,0,0,0,0,0,0,0,0,0,0,0,0,0,0,0,0,0,0,0,0,0,0,0,0,0,0,0,0,0,0,0,0,0,0,0,0,0,0,0,0,0,0,0,0,0,0,0,0,0,0,0,0,0,0,0,0,0,0,0,0,0,0,0,0,0,0,0,0,0,0,0,0,0,0,0,0,0,0,0,0,0,0,0,0,0,0,0,0,0,0,0,0,0,0,0,0,0,