each times' max average throughput
530.236755,511.319489,0.000000,0.000000,0.000000,0.000000,526.450562,522.485168,528.442993,532.840759,500.501404,530.105469,532.184753,532.525635,528.272583,528.812561,532.179138,527.100891,521.949768,530.446960,0.000000,0.000000,0.000000,0.000000,0.000000,0.000000,0.000000,530.794983,516.166992,523.033875,509.255066,528.711609,528.499023,522.642395,529.704712,492.473022,492.461517,525.544861,529.366333,526.784607,527.638855,525.585327,529.544983,519.765076,523.566284,529.905640,528.392944,525.662048,531.784790,523.895630,491.068604,0.000000,0.000000,0.000000,496.391571,526.210693,511.310272,530.415100,520.947632,526.246460,531.103149,519.908936,527.367493,528.737671,525.700867,533.082764,525.852356,501.139008,500.274017,530.070923,531.959473,527.408325,528.554199,529.548645,516.736877,0.000000,0.000000,0.000000,0.000000,0.000000,0.000000,508.917969,527.309387,517.272949,533.291138,511.260315,524.424072,0.000000,0.000000,0.000000,0.000000,0.000000,530.340698,525.940063,517.130676,530.281921,525.877319,490.067719,0.000000,524.192261,
avg. throughput in all test times
386.633789
avg. BS TX power in all test times
MBS area 1,MBS area 2,MBS area 3,MBS area 4,CBSD 1,CBSD 2,CBSD 3,CBSD 4,CBSD 5,CBSD 6,CBSD 7,CBSD 8,CBSD 9,CBSD 10,CBSD 11,CBSD 12,CBSD 13,CBSD 14,CBSD 15,CBSD 16,CBSD 17,CBSD 18,CBSD 19,CBSD 20,CBSD 21,CBSD 22,CBSD 23,CBSD 24,CBSD 25,CBSD 26,
8.825,9.250,8.538,8.625,0.124,0.142,0.091,0.224,0.209,0.174,0.145,0.079,0.168,0.074,0.261,0.111,0.124,0.123,0.074,0.076,0.215,0.156,0.080,0.154,0.135,0.269,0.112,0.080,0.186,0.200,
avg. mbs all power,avg. cbsd enable number,avg. mbs area all power,avg. cbsd all power
72.662,4.000,35.237,3.785
avg. max avg. throughput generation number in all test times
56.240002
avg. number of relay UE
425

the max average throughput times

BS TX power
MBS area 1,MBS area 2,MBS area 3,MBS area 4,CBSD 1,CBSD 2,CBSD 3,CBSD 4,CBSD 5,CBSD 6,CBSD 7,CBSD 8,CBSD 9,CBSD 10,CBSD 11,CBSD 12,CBSD 13,CBSD 14,CBSD 15,CBSD 16,CBSD 17,CBSD 18,CBSD 19,CBSD 20,CBSD 21,CBSD 22,CBSD 23,CBSD 24,CBSD 25,CBSD 26,
8.750,10.000,7.500,8.750,0.000,0.000,0.000,0.750,0.000,0.000,0.875,0.000,0.875,0.000,0.000,0.000,0.000,0.000,0.875,0.000,0.000,0.875,0.000,0.000,0.000,0.000,0.000,0.000,0.000,0.000,
max average throughput
524.192261

x,y,area,be blocked (1 : NLOS / 0 : LOS),be blocked number (>=1 : CBSD(x) / 0 : no),connect bs number (>=1 : CBSD / 0 : MBS),throughput (unit : M bps)
865,701,1,0,0,0,836.473877
-1613,248,2,1,0,9,71.115486
-1396,-382,3,0,0,0,738.972351
202,-1381,4,1,0,7,135.326706
1836,241,1,1,0,15,80.365738
-110,81,2,0,0,0,1460.679321
-1263,-766,3,0,0,0,733.125244
692,-1845,4,0,0,0,672.681396
940,1828,1,0,0,0,660.613098
-1989,949,2,0,0,0,659.789307
-1260,-1233,3,0,0,0,682.471680
484,-92,4,0,0,0,1071.375366
1001,571,1,0,0,0,826.565369
-66,511,2,0,0,0,1077.706787
-1052,-1554,3,0,0,0,664.610535
1419,-285,4,0,0,0,761.085510
1341,922,1,1,0,18,106.212540
-866,1646,2,0,0,0,708.311401
-820,-274,3,0,0,0,887.085144
1166,-834,4,0,0,0,763.830261
427,189,1,1,0,0,141.571365
-1367,878,2,1,0,9,71.115486
-636,-1860,3,0,0,0,651.361145
917,-1705,4,0,0,0,677.738342
1923,1804,1,1,0,18,70.848808
-1244,957,2,0,0,0,756.987427
-1274,-891,3,0,0,0,718.462708
1378,-1084,4,0,0,0,706.101440
492,1590,1,0,0,0,721.006592
-1054,100,2,0,0,0,870.169495
-283,-443,3,0,0,0,1030.450562
1221,-1827,4,1,0,15,80.365738
275,1570,1,0,0,0,733.410095
-332,1034,2,0,0,0,862.852417
-632,-1992,3,1,0,7,135.326706
296,-1255,4,1,0,7,135.326706
823,688,1,1,0,18,133.406265
-558,616,2,1,0,9,71.115486
-1834,-1080,3,0,0,0,628.696411
1770,-370,4,0,0,0,697.258972
1000,507,1,0,0,0,834.466431
-14,117,2,1,0,0,690.239319
-1579,-1274,3,1,0,4,97.806015
745,-1712,4,0,0,0,688.099182
1314,1735,1,0,0,0,644.302002
-1451,1287,2,0,0,0,696.310120
-209,-5,3,0,0,0,1296.407227
1226,-375,4,0,0,0,795.912048
66,68,1,1,0,0,764.795593
-356,919,2,1,0,9,71.115486
-1985,-514,3,0,0,0,639.322754
162,-1129,4,1,0,7,135.326706
1254,22,1,0,0,0,802.229980
-27,959,2,0,0,0,898.540527
-661,-1046,3,1,0,4,189.824600
479,-253,4,0,0,0,1044.011108
192,1937,1,0,0,0,676.186218
-572,780,2,0,0,0,896.186157
-743,-298,3,1,0,9,71.115486
1396,-56,4,1,0,15,80.365738
95,1988,1,0,0,0,669.829224
-1113,436,2,0,0,0,835.245422
-134,-671,3,0,0,0,954.461304
574,-903,4,1,0,7,135.326706
737,504,1,0,0,0,900.009338
-1664,1158,2,0,0,0,683.649353
-1617,-649,3,1,0,9,71.115486
1655,-291,4,1,0,15,80.365738
856,203,1,1,0,15,80.365738
-46,423,2,0,0,0,1132.904541
-1604,-371,3,1,0,9,71.115486
413,-1715,4,1,0,7,135.326706
227,240,1,0,0,0,1186.654053
-155,383,2,0,0,0,1141.378052
-736,-1401,3,0,0,0,713.365906
877,-1739,4,0,0,0,676.019714
452,1116,1,1,0,18,276.587341
-1270,1312,2,0,0,0,713.583801
-1580,-1234,3,0,0,0,645.748413
645,-1156,4,1,0,7,135.326706
1833,824,1,0,0,0,667.054138
-281,1757,2,0,0,0,721.001526
-1787,-504,3,0,0,0,667.653931
1604,-1186,4,0,0,0,669.172852
536,1615,1,0,0,0,714.665405
-1336,1194,2,0,0,0,719.000610
-698,-552,3,0,0,0,878.773254
1798,-1076,4,1,0,15,80.365738
1152,940,1,0,0,0,753.356018
-665,1897,2,0,0,0,686.071838
-226,-767,3,0,0,0,909.579224
1191,-945,4,1,0,15,80.365738
462,1937,1,0,0,0,669.676331
-1428,1560,2,0,0,0,671.552429
-1176,-455,3,0,0,0,778.539246
494,-886,4,0,0,0,863.261169
1216,863,1,0,0,0,752.532776
-1690,99,2,0,0,0,735.276855
-1586,-237,3,0,0,0,709.580627
258,-1655,4,1,0,7,135.326706
1420,1705,1,0,0,0,638.792603
-366,950,2,0,0,0,881.445435
-1407,-1849,3,1,0,4,82.637321
49,-264,4,1,0,0,328.875458
1587,782,1,0,0,0,703.509705
-1096,1538,2,0,0,0,703.934021
-1666,-786,3,0,0,0,669.910767
1101,-1591,4,0,0,0,677.907654
67,85,1,1,0,0,707.630676
-1774,1593,2,1,0,9,71.115486
-1231,-1545,3,0,0,0,649.954468
665,-1832,4,0,0,0,675.823853
1236,1221,1,1,0,18,116.413971
-1018,5,2,0,0,0,881.460083
-1253,-1825,3,0,0,0,617.500366
228,-795,4,0,0,0,922.059204
293,1423,1,0,0,0,759.994019
-287,1171,2,0,0,0,832.776123
-697,-678,3,1,0,4,201.174103
1587,-1176,4,0,0,0,671.996521
467,1649,1,0,0,0,712.613770
-1661,1103,2,0,0,0,688.402222
-1084,-167,3,1,0,9,71.115486
1920,-932,4,0,0,0,649.884338
1810,1093,1,0,0,0,652.548889
-622,508,2,1,0,9,71.115486
-1412,-1986,3,0,0,0,590.223083
1257,-612,4,0,0,0,771.029602
1429,518,1,1,0,15,80.365738
-1488,1920,2,0,0,0,632.022522
-478,-1451,3,0,0,0,723.474182
296,-1280,4,0,0,0,788.891296
12,523,1,0,0,0,1054.070435
-480,939,2,1,0,9,71.115486
-91,-1765,3,1,0,7,135.326706
29,-847,4,0,0,0,915.024292
620,416,1,1,0,18,116.050087
-1439,1138,2,0,0,0,712.236084
-481,-1073,3,0,0,0,798.609253
945,-418,4,1,0,15,80.365738
224,887,1,0,0,0,893.001526
-976,1025,2,0,0,0,786.679077
-1462,-286,3,0,0,0,730.694336
729,-524,4,1,0,15,80.365738
774,365,1,0,0,0,912.234314
-612,1702,2,1,0,9,71.115486
-1415,-1139,3,1,0,4,113.268600
61,-1204,4,1,0,7,135.326706
1066,1407,1,0,0,0,704.155579
-1939,1010,2,0,0,0,662.068542
-190,-1902,3,1,0,7,135.326706
275,-1058,4,0,0,0,841.748779
548,1906,1,0,0,0,670.844055
-1841,1426,2,0,0,0,644.058289
-478,-61,3,0,0,0,1055.535278
1165,-352,4,0,0,0,810.879761
343,1194,1,1,0,18,211.885132
-557,994,2,1,0,9,71.115486
-19,-1659,3,0,0,0,699.838013
1114,-1492,4,1,0,15,80.365738
269,1901,1,0,0,0,680.113525
-1806,800,2,0,0,0,691.086548
-1341,-1591,3,0,0,0,635.142334
230,-1050,4,0,0,0,846.595337
52,964,1,0,0,0,877.515503
-5,1567,2,0,0,0,757.446777
-512,-1970,3,0,0,0,641.419006
945,-884,4,0,0,0,793.246277
1989,516,1,1,0,15,80.365738
-1477,1991,2,0,0,0,626.226746
-1021,-198,3,1,0,9,71.115486
749,-191,4,0,0,0,941.540649
186,919,1,0,0,0,885.917725
-1244,203,2,0,0,0,819.993164
-588,-1750,3,1,0,7,135.326706
1377,-485,4,0,0,0,758.601746
1025,780,1,0,0,0,794.578735
-581,1137,2,0,0,0,816.278381
-1441,-1275,3,0,0,0,657.473389
1486,-1282,4,1,0,15,80.365738
338,442,1,1,0,18,117.530640
-1630,291,2,0,0,0,741.636719
-1403,-50,3,1,0,9,71.115486
1708,-925,4,1,0,15,80.365738
232,1982,1,0,0,0,669.074707
-1387,331,2,0,0,0,784.534607
-598,-1743,3,0,0,0,669.813904
1329,-697,4,1,0,15,80.365738
682,1539,1,0,0,0,717.760010
-628,1038,2,1,0,9,71.115486
-1964,-1158,3,1,0,9,71.115486
740,-1898,4,1,0,7,135.326706
898,496,1,1,0,18,114.246849
-1821,404,2,0,0,0,707.486511
-1361,-141,3,0,0,0,755.084595
1785,-1815,4,0,0,0,599.693359
1237,234,1,0,0,0,801.144653
-728,815,2,0,0,0,861.054504
-1670,-1587,3,1,0,4,83.489105
409,-99,4,0,0,0,1116.839600
178,226,1,1,0,0,302.379974
-215,657,2,0,0,0,992.968201
-1639,-1275,3,1,0,4,94.341492
49,-1879,4,0,0,0,686.180664
953,1545,1,1,0,18,129.380508
-1049,1687,2,1,0,9,71.115486
-371,-1649,3,0,0,0,694.519897
401,-1371,4,0,0,0,764.858643
16,861,1,1,0,18,133.405914
-610,1059,2,1,0,9,71.115486
-11,-1572,3,0,0,0,715.276917
810,-375,4,0,0,0,900.092590
410,766,1,0,0,0,907.865845
-1151,360,2,1,0,9,71.115486
-781,-470,3,1,0,4,153.638474
820,-1107,4,1,0,7,135.326706
1704,240,1,0,0,0,711.451782
-1938,875,2,0,0,0,670.005676
-869,-1207,3,1,0,4,154.464264
653,-510,4,0,0,0,921.533936
1234,1927,1,0,0,0,630.019775
-793,438,2,0,0,0,915.053162
-893,-1744,3,1,0,4,99.529495
1345,-1244,4,1,0,15,80.365738
1861,1384,1,1,0,18,78.229294
-496,394,2,0,0,0,1018.156494
-1447,-1810,3,0,0,0,604.498718
1146,-1970,4,1,0,15,80.365738
1551,1549,1,1,0,18,90.581757
-652,1609,2,0,0,0,728.054199
-77,-1393,3,1,0,7,135.326706
1120,-1286,4,0,0,0,714.039795
904,1942,1,1,0,18,104.966743
-975,1685,2,0,0,0,695.245911
-9,-1540,3,0,0,0,721.172241
788,-651,4,0,0,0,861.080322
352,866,1,1,0,18,169.097580
-1520,1709,2,0,0,0,649.191589
-868,-198,3,1,0,9,71.115486
681,-809,4,1,0,7,135.326706
1309,133,1,0,0,0,788.463013
-1518,239,2,0,0,0,763.053345
-1009,-1913,3,0,0,0,624.127747
1305,-1189,4,1,0,15,80.365738
1279,260,1,0,0,0,790.782654
-1219,1785,2,0,0,0,665.321167
-1722,-1260,3,0,0,0,627.977356
807,-1414,4,1,0,7,135.326706
305,1469,1,0,0,0,750.765076
-291,559,2,0,0,0,1019.633545
-1146,-1952,3,1,0,4,83.887825
510,-343,4,0,0,0,1007.609802
972,161,1,0,0,0,871.658691
-1001,1743,2,0,0,0,686.099487
-545,-535,3,1,0,4,154.544678
334,-1488,4,1,0,7,135.326706
1187,120,1,0,0,0,816.598145
-1236,744,2,1,0,9,71.115486
-1581,-1632,3,0,0,0,610.083496
1541,-1468,4,0,0,0,650.679626
658,292,1,0,0,0,962.043518
-1872,585,2,1,0,9,71.115486
-1296,-1412,3,0,0,0,658.586426
1200,-590,4,0,0,0,783.814941
1090,962,1,1,0,18,127.508820
-365,455,2,0,0,0,1041.929077
-915,-1162,3,0,0,0,732.761597
489,-1267,4,1,0,7,135.326706
1287,1035,1,0,0,0,723.225708
-1270,1922,2,0,0,0,647.136597
-1222,-692,3,1,0,4,136.827148
1641,-1984,4,0,0,0,596.472717
1530,1329,1,1,0,18,95.006798
-1829,442,2,0,0,0,704.983887
-1614,-1382,3,1,0,4,92.555206
1578,-1566,4,0,0,0,638.243164
1475,356,1,0,0,0,747.527710
-392,62,2,0,0,0,1152.989502
-517,-556,3,0,0,0,924.504395
164,-976,4,1,0,7,135.326706
545,347,1,0,0,0,993.211792
-1103,1939,2,0,0,0,656.315857
-508,-90,3,1,0,9,71.115486
1348,-1562,4,0,0,0,659.543762
1077,635,1,0,0,0,803.132568
-1871,544,2,0,0,0,694.992249
-368,-603,3,0,0,0,945.272034
1062,-100,4,0,0,0,848.798096
1574,1288,1,1,0,18,92.862129
-702,1455,2,1,0,9,71.115486
-474,-1739,3,0,0,0,676.132446
1342,-1556,4,1,0,15,80.365738
1252,273,1,0,0,0,796.057922
-997,1811,2,1,0,9,71.115486
-1560,-962,3,0,0,0,671.362671
873,-1872,4,0,0,0,659.223206
1331,1700,1,1,0,18,97.941109
-1351,1410,2,0,0,0,694.363281
-1388,-1973,3,1,0,4,78.042801
1521,-795,4,0,0,0,712.215698
1672,919,1,0,0,0,681.909729
-95,762,2,0,0,0,962.675354
-1845,-1353,3,1,0,9,71.115486
926,-1211,4,0,0,0,746.185730
1430,1503,1,0,0,0,657.977478
-1492,230,2,0,0,0,768.157104
-390,-1634,3,0,0,0,696.273132
162,-742,4,1,0,7,135.326706
308,874,1,0,0,0,889.300354
-1878,790,2,1,0,9,71.115486
-1474,-87,3,1,0,9,71.115486
1657,-653,4,0,0,0,701.603088
1090,1873,1,0,0,0,645.529175
-1886,788,2,0,0,0,681.300049
-720,-413,3,0,0,0,898.819763
498,-1932,4,1,0,7,135.326706
249,1930,1,1,0,18,110.023880
-1386,905,2,1,0,9,71.115486
-544,-1982,3,1,0,7,135.326706
1224,-1937,4,0,0,0,629.637451
633,1137,1,0,0,0,791.627136
-1025,1631,2,0,0,0,698.263184
-408,-56,3,0,0,0,1100.836182
1750,-1528,4,0,0,0,625.701233
1014,577,1,1,0,18,113.908478
-1150,1864,2,0,0,0,661.556274
-1114,-1935,3,0,0,0,615.065796
1269,-1033,4,0,0,0,725.885193
1481,1108,1,1,0,18,98.848648
-1062,1347,2,0,0,0,731.507080
-265,-1467,3,0,0,0,730.495911
1376,-1018,4,0,0,0,712.984436
1399,1537,1,0,0,0,657.458862
-1928,770,2,0,0,0,676.848145
-1659,-773,3,0,0,0,671.756287
1346,-487,4,1,0,15,80.365738
948,801,1,0,0,0,805.248901
-160,44,2,0,0,0,1404.552734
-1495,-1735,3,1,0,4,84.618607
1015,-1640,4,0,0,0,678.813782
679,1538,1,1,0,18,150.864105
-115,639,2,0,0,0,1011.044861
-1725,-629,3,0,0,0,670.844055
81,-1442,4,0,0,0,761.693970
551,495,1,0,0,0,953.830566
-292,995,2,1,0,9,71.115486
-1078,-284,3,0,0,0,813.946838
1050,-1455,4,1,0,15,80.365738
286,1388,1,0,0,0,767.135132
-1203,448,2,0,0,0,814.736023
-254,-1664,3,1,0,7,135.326706
1618,-1491,4,1,0,15,80.365738
1036,901,1,1,0,18,130.435272
-1667,799,2,0,0,0,710.060181
-394,-1626,3,0,0,0,697.441772
1312,-1198,4,0,0,0,702.304749
1386,613,1,0,0,0,747.876770
-1043,824,2,0,0,0,804.720947
-1833,-1611,3,0,0,0,589.810913
1165,-156,4,1,0,15,80.365738
132,441,1,0,0,0,1090.952148
-1515,965,2,0,0,0,718.292053
-1829,-1131,3,0,0,0,625.757996
1812,-1233,4,0,0,0,642.304443
1620,1100,1,1,0,18,90.748055
-1910,1141,2,0,0,0,657.073669
-1043,-422,3,0,0,0,811.288635
515,-85,4,1,0,15,80.365738
172,691,1,0,0,0,965.181274
-1442,1992,2,0,0,0,628.520264
-1364,-1814,3,1,0,4,85.345436
711,-198,4,1,0,15,80.365738
1674,1384,1,1,0,18,86.777794
-1490,1413,2,1,0,9,71.115486
-613,-1109,3,0,0,0,777.132996
679,-1562,4,1,0,7,135.326706
1840,32,1,0,0,0,692.235413
-660,597,2,1,0,9,71.115486
-925,-1023,3,0,0,0,752.807251
1907,-1877,4,1,0,15,80.365738
913,757,1,1,0,18,132.697906
-935,1131,2,0,0,0,776.295410
-1485,-1298,3,0,0,0,650.407166
1764,-592,4,1,0,15,80.365738
1608,237,1,1,0,15,80.365738
-1130,1831,2,1,0,9,71.115486
-246,-728,3,1,0,7,135.326706
970,-419,4,0,0,0,851.527527
67,154,1,0,0,0,1381.826416
-1447,1595,2,0,0,0,666.375061
-1313,-1936,3,0,0,0,601.821350
1231,-226,4,0,0,0,802.830872
1934,665,1,0,0,0,662.060242
-697,1577,2,0,0,0,730.029480
-321,-1111,3,1,0,7,135.326706
1210,-1071,4,1,0,15,80.365738
1082,139,1,0,0,0,842.345154
-420,1329,2,0,0,0,791.089294
-1731,-547,3,0,0,0,674.089111
1654,-131,4,1,0,15,80.365738
1781,593,1,1,0,15,80.365738
-1947,477,2,1,0,9,71.115486
-1802,-189,3,0,0,0,674.638428
539,-310,4,1,0,7,135.326706
532,451,1,1,0,18,119.857292
-1466,1664,2,0,0,0,657.997559
-189,-1362,3,0,0,0,753.668884
226,-490,4,1,0,7,135.326706
601,109,1,1,0,15,80.365738
-913,475,2,0,0,0,878.321655
-926,-679,3,0,0,0,805.439026
1744,-276,4,1,0,15,80.365738
779,1075,1,0,0,0,785.889160
-1606,768,2,1,0,9,71.115486
-1444,-625,3,0,0,0,715.018738
1633,-845,4,0,0,0,692.485535
1150,665,1,0,0,0,785.705200
-1888,1187,2,1,0,9,71.115486
-1886,-829,3,0,0,0,637.979004
394,-1768,4,1,0,7,135.326706
1344,71,1,1,0,15,80.365738
-1459,754,2,0,0,0,743.977783
-918,-1602,3,1,0,4,109.490326
973,-1230,4,1,0,15,80.365738
314,1336,1,1,0,18,181.560059
-99,597,2,0,0,0,1031.329468
-1493,-1946,3,0,0,0,588.371216
561,-629,4,0,0,0,916.614685
1032,1162,1,1,0,18,137.031967
-982,1312,2,1,0,9,71.115486
-1877,-1483,3,1,0,9,71.115486
1466,-1250,4,1,0,15,80.365738
1332,1849,1,0,0,0,631.195923
-780,1530,2,1,0,9,71.115486
-617,-26,3,1,0,9,71.115486
1854,-1347,4,0,0,0,629.594910
1635,1206,1,0,0,0,663.947876
-588,332,2,0,0,0,999.731201
-766,-455,3,0,0,0,878.432922
527,-774,4,0,0,0,886.303406
452,1554,1,0,0,0,729.036804
-1863,1528,2,0,0,0,634.334778
-334,-56,3,1,0,0,224.721954
1337,-1959,4,1,0,15,80.365738
441,1247,1,0,0,0,786.950867
-1540,1947,2,1,0,9,71.115486
-587,-138,3,1,0,9,71.115486
834,-1295,4,0,0,0,743.218018
1575,1530,1,1,0,18,89.724251
-1384,255,2,0,0,0,788.317627
-475,-246,3,0,0,0,1025.425171
533,-564,4,0,0,0,940.411194
1656,1873,1,0,0,0,604.826477
-183,364,2,0,0,0,1145.429443
-512,-1155,3,0,0,0,777.983215
393,-1700,4,0,0,0,707.481995
850,1902,1,0,0,0,656.781738
-811,1858,2,1,0,9,71.115486
-375,-1254,3,0,0,0,767.828186
237,-1611,4,0,0,0,727.281616
177,1549,1,1,0,18,139.294159
-608,593,2,0,0,0,933.644104
-1488,-1144,3,0,0,0,664.559387
1853,-1224,4,1,0,15,80.365738
0,561,1,0,0,0,1033.922729
-554,1094,2,0,0,0,827.898926
-471,-1671,3,0,0,0,686.854797
1940,-1680,4,0,0,0,597.399475
1582,1811,1,0,0,0,615.891174
-923,541,2,0,0,0,867.159058
-1262,-729,3,1,0,4,133.342163
750,-335,4,0,0,0,924.027466
548,913,1,0,0,0,849.301086
-1144,619,2,0,0,0,810.949524
-1628,-1433,3,0,0,0,623.332031
831,-281,4,1,0,15,80.365738
1634,657,1,1,0,15,80.365738
-1850,210,2,1,0,9,71.115486
-1165,-1171,3,0,0,0,701.100403
1020,-690,4,0,0,0,807.487549
471,96,1,0,0,0,1078.475830
-325,1082,2,1,0,9,71.115486
-673,-989,3,0,0,0,793.669312
1535,-1512,4,0,0,0,647.174438
926,149,1,0,0,0,885.832520
-569,1141,2,1,0,9,71.115486
-1828,-1459,3,0,0,0,601.868286
1426,-1227,4,0,0,0,685.939453
73,1823,1,0,0,0,694.705933
-154,1817,2,1,0,18,101.916588
-1057,-1406,3,0,0,0,683.108215
97,-123,4,1,0,0,549.768738
1662,1912,1,1,0,18,77.861786
-881,74,2,1,0,9,71.115486
-961,-1075,3,1,0,4,167.037415
213,-560,4,0,0,0,1014.959839
905,476,1,0,0,0,860.962463
-1883,511,2,0,0,0,694.606873
-140,-575,3,1,0,7,135.326706
771,-1960,4,1,0,7,135.326706
1594,94,1,0,0,0,732.894775
-124,830,2,1,0,9,71.115486
-1198,-1736,3,0,0,0,631.268250
1506,-1047,4,0,0,0,693.184082
887,624,1,0,0,0,844.035278
-1678,1291,2,0,0,0,671.246704
-1434,-1983,3,1,0,4,76.601089
1876,-1695,4,1,0,15,80.365738
311,1659,1,0,0,0,716.985779
-788,97,2,0,0,0,953.062439
-614,-1572,3,0,0,0,694.954834
834,-1245,4,0,0,0,751.110168
1225,789,1,0,0,0,759.155396
-1978,1689,2,0,0,0,612.558350
-1868,-188,3,1,0,9,71.115486
1610,-825,4,0,0,0,697.130981
115,1456,1,0,0,0,758.480225
-910,1019,2,1,0,9,71.115486
-868,-980,3,1,0,4,202.748474
216,-1183,4,0,0,0,814.316040
1966,753,1,0,0,0,653.785889
-747,62,2,0,0,0,969.637939
-1438,-1883,3,1,0,4,80.408966
1126,-1367,4,0,0,0,703.213928
571,1993,1,0,0,0,658.170593
-1522,1870,2,1,0,9,71.115486
-1776,-1764,3,0,0,0,582.600891
401,-1754,4,0,0,0,698.688110
1593,1030,1,0,0,0,683.553162
-1154,1620,2,0,0,0,689.102600
-989,-212,3,0,0,0,841.919067
725,-365,4,0,0,0,927.456970
1128,1341,1,0,0,0,706.254150
-1962,45,2,0,0,0,692.937988
-201,-18,3,1,0,0,422.589935
601,-812,4,0,0,0,864.452942
1605,1688,1,1,0,18,85.192307
-267,1331,2,1,0,9,71.115486
-1677,-194,3,0,0,0,694.864807
1331,-1545,4,1,0,15,80.365738
1458,954,1,1,0,18,99.102768
-1653,1034,2,1,0,9,71.115486
-690,-111,3,0,0,0,948.368774
1208,-1575,4,1,0,15,80.365738
839,1392,1,0,0,0,727.817993
-1885,1987,2,0,0,0,597.880615
-860,-1030,3,0,0,0,760.689148
125,-1110,4,1,0,7,135.326706
615,1546,1,1,0,18,153.111542
-867,413,2,1,0,9,71.115486
-1467,-947,3,0,0,0,685.212036
488,-833,4,1,0,7,135.326706
991,1421,1,0,0,0,709.525024
-810,16,2,0,0,0,947.238464
-1608,-1723,3,1,0,4,81.235847
1158,-691,4,0,0,0,781.397888
1080,487,1,1,0,15,80.365738
-373,1403,2,1,0,9,71.115486
-771,-1707,3,0,0,0,665.152039
1166,-480,4,0,0,0,800.689209
624,1329,1,0,0,0,756.977356
-917,382,2,1,0,9,71.115486
-1121,-1281,3,1,0,4,128.454727
540,-846,4,1,0,7,135.326706
137,313,1,0,0,0,1176.932617
-1969,1065,2,1,0,9,71.115486
-901,-50,3,0,0,0,874.759338
1371,-1847,4,0,0,0,628.532043
727,187,1,0,0,0,949.977173
-1701,363,2,0,0,0,727.523132
-564,-1172,3,0,0,0,769.638062
1799,-1761,4,0,0,0,602.861206
637,1974,1,1,0,18,108.829826
-1304,255,2,0,0,0,804.833557
-616,-1943,3,0,0,0,641.018738
1774,-1695,4,0,0,0,610.163696
716,1751,1,0,0,0,684.346008
-1039,738,2,0,0,0,816.822876
-420,-374,3,1,0,9,71.115486
1798,-80,4,0,0,0,698.604614
1448,148,1,0,0,0,759.462524
-1233,362,2,0,0,0,814.438049
-1138,-1614,3,0,0,0,650.040222
977,-1187,4,0,0,0,743.768127
1076,273,1,1,0,15,80.365738
-1765,1083,2,0,0,0,677.578674
-230,-1959,3,1,0,7,135.326706
1551,-884,4,1,0,15,80.365738
919,598,1,0,0,0,840.887573
-1319,951,2,1,0,9,71.115486
-1622,-199,3,1,0,9,71.115486
264,-1755,4,0,0,0,702.614624
254,1399,1,0,0,0,766.182129
-1799,22,2,0,0,0,717.829224
-1184,-71,3,1,0,9,71.115486
838,-666,4,1,0,15,80.365738
930,1372,1,0,0,0,722.195007
-61,1092,2,1,0,18,133.375443
-203,-1978,3,0,0,0,648.090820
1867,-272,4,1,0,15,80.365738
1088,1078,1,0,0,0,744.844604
-1561,1599,2,1,0,9,71.115486
-1790,-1160,3,0,0,0,628.076965
885,-1930,4,0,0,0,651.360901
1093,948,1,0,0,0,761.183838
-1563,1831,2,0,0,0,634.581116
-373,-1518,3,1,0,7,135.326706
258,-1307,4,0,0,0,784.886353
555,643,1,0,0,0,914.379395
-1902,728,2,1,0,9,71.115486
-768,-757,3,1,0,4,241.898148
1914,-1522,4,1,0,15,80.365738
1992,653,1,1,0,15,80.365738
-494,1723,2,0,0,0,718.900940
-270,-635,3,0,0,0,952.042175
728,-596,4,0,0,0,884.931458
288,875,1,1,0,18,163.978989
-630,1374,2,0,0,0,767.791382
-734,-150,3,0,0,0,928.345398
1019,-376,4,1,0,15,80.365738
1909,17,1,0,0,0,681.735901
-77,1987,2,0,0,0,689.175720
-376,-450,3,0,0,0,998.932861
1032,-153,4,0,0,0,855.185669
1023,1312,1,0,0,0,721.125122
-1965,1370,2,0,0,0,635.999512
-1742,-365,3,1,0,9,71.115486
930,-1539,4,0,0,0,698.860352
101,1513,1,1,0,18,136.176880
-988,562,2,1,0,9,71.115486
-1719,-808,3,0,0,0,661.156921
1487,-1654,4,0,0,0,638.114990
1942,412,1,1,0,15,80.365738
-1610,673,2,0,0,0,726.585388
-1898,-917,3,0,0,0,631.447937
1683,-1132,4,0,0,0,664.424377
384,149,1,1,0,0,177.831375
-99,1650,2,0,0,0,742.122986
-322,-1732,3,0,0,0,682.673157
773,-1786,4,0,0,0,676.242920
261,1144,1,0,0,0,821.374817
-1275,59,2,1,0,9,71.115486
-1204,-51,3,0,0,0,791.559753
1672,-887,4,1,0,15,80.365738
1284,1648,1,0,0,0,655.979797
-1615,541,2,0,0,0,733.536072
-1195,-1270,3,0,0,0,685.586426
1951,-725,4,1,0,15,80.365738
1062,1194,1,1,0,18,133.405609
-808,803,2,0,0,0,849.099365
-682,-146,3,0,0,0,948.953918
28,-1677,4,0,0,0,718.802002
1723,1664,1,0,0,0,616.998291
-1684,139,2,1,0,9,71.115486
-73,-1222,3,0,0,0,787.041687
31,-1891,4,0,0,0,684.418396
1920,420,1,1,0,15,80.365738
-150,85,2,1,0,0,528.065491
-1397,-902,3,0,0,0,699.185730
1004,-515,4,1,0,15,80.365738
1032,1750,1,0,0,0,663.952698
-608,1922,2,0,0,0,685.263062
-1065,-1894,3,0,0,0,622.800842
299,-480,4,0,0,0,1031.614380
504,1158,1,0,0,0,800.235779
-521,1362,2,0,0,0,778.100769
-1902,-524,3,1,0,9,71.115486
171,-1217,4,0,0,0,808.073303
690,659,1,0,0,0,880.893860
-1666,613,2,0,0,0,721.667908
-1589,-1464,3,0,0,0,624.415405
1030,-1016,4,1,0,15,80.365738
891,1910,1,0,0,0,653.470215
-869,321,2,0,0,0,908.617126
-192,-21,3,1,0,0,440.618134
1210,-929,4,0,0,0,745.991943
315,400,1,1,0,0,119.329613
-583,526,2,1,0,9,71.115486
-801,-1765,3,0,0,0,655.379028
1846,-1796,4,0,0,0,596.382935
1599,665,1,1,0,15,80.365738
-1821,310,2,1,0,9,71.115486
-1392,-1290,3,1,0,4,108.867859
1154,-1837,4,1,0,15,80.365738
1844,1311,1,0,0,0,633.239685
-599,249,2,1,0,9,71.115486
-274,-520,3,0,0,0,998.263428
1992,-1625,4,0,0,0,596.911133
687,264,1,0,0,0,955.670410
-36,1096,2,0,0,0,860.057495
-1359,-351,3,1,0,9,71.115486
1978,-1585,4,1,0,15,80.365738
806,278,1,0,0,0,913.296387
-1185,465,2,1,0,9,71.115486
-1807,-1752,3,0,0,0,581.051453
1269,-337,4,1,0,15,80.365738
1746,864,1,0,0,0,675.953186
-248,1973,2,0,0,0,689.170715
-1917,-1932,3,1,0,9,71.115486
1768,-1369,4,0,0,0,636.593628
1988,430,1,0,0,0,663.623474
-1985,1899,2,0,0,0,597.030579
-1963,-1207,3,1,0,9,71.115486
809,-819,4,1,0,15,80.365738
1628,954,1,0,0,0,685.073364
-490,1461,2,0,0,0,762.254761
-130,-1188,3,0,0,0,793.951477
765,-852,4,1,0,15,80.365738
1743,9,1,1,0,15,80.365738
-1472,1860,2,1,0,9,71.115486
-1544,-1039,3,1,0,9,71.115486
663,-713,4,0,0,0,875.074951
374,909,1,0,0,0,872.334778
-1822,1423,2,1,0,9,71.115486
-159,-745,3,0,0,0,923.537842
1674,-362,4,1,0,15,80.365738
1866,150,1,1,0,15,80.365738
-1842,292,2,0,0,0,707.529053
-1562,-804,3,1,0,9,71.115486
808,-338,4,0,0,0,905.547119
265,1980,1,0,0,0,668.770752
-1678,1080,2,0,0,0,688.166748
-254,-566,3,1,0,7,135.326706
1533,-372,4,1,0,15,80.365738
1192,100,1,0,0,0,815.843201
-1652,1,2,0,0,0,742.290771
-1595,-272,3,0,0,0,707.017090
432,-1571,4,0,0,0,727.109924
1488,1840,1,0,0,0,620.459290
-1173,1732,2,0,0,0,674.686890
-475,-1485,3,0,0,0,717.641724
337,-1586,4,0,0,0,728.504456
557,1945,1,0,0,0,665.142761
-44,1508,2,1,0,18,124.350983
-575,-1162,3,0,0,0,770.558716
97,-1419,4,0,0,0,766.093079
1468,1743,1,1,0,18,89.990273
-1288,104,2,0,0,0,812.842712
-1249,-1229,3,1,0,4,122.377129
1021,-250,4,1,0,15,80.365738
1555,673,1,0,0,0,715.885986
-705,1292,2,1,0,9,71.115486
-1281,-1162,3,1,0,4,123.458488
1300,-1602,4,0,0,0,659.561829
889,704,1,1,0,18,130.350891
-577,1555,2,0,0,0,741.147156
-393,-1370,3,0,0,0,743.379578
1672,-172,4,1,0,15,80.365738
1249,215,1,1,0,15,80.365738
-217,414,2,1,0,9,71.115486
-1197,-220,3,0,0,0,788.719910
1083,-108,4,0,0,0,843.010498
590,945,1,0,0,0,836.300049
-1340,1855,2,1,0,9,71.115486
-1126,-1255,3,0,0,0,695.220276
1752,-1711,4,1,0,15,80.365738
1007,278,1,0,0,0,854.802734
-1551,17,2,0,0,0,760.377014
-622,-1714,3,1,0,7,135.326706
853,-303,4,0,0,0,896.048828
1038,1160,1,0,0,0,740.199341
-388,1416,2,1,0,9,71.115486
-1302,-1161,3,1,0,4,121.685211
1592,-656,4,0,0,0,711.278687
230,1265,1,0,0,0,795.090637
-639,1486,2,0,0,0,748.334167
-860,-1689,3,1,0,4,103.694054
1873,-915,4,1,0,15,80.365738
1118,835,1,1,0,18,120.402901
-673,610,2,0,0,0,914.294128
-1952,-182,3,1,0,9,71.115486
834,-1762,4,1,0,7,135.326706
1327,1268,1,0,0,0,692.992554
-459,1502,2,1,0,9,71.115486
-777,-1733,3,0,0,0,661.188538
232,-414,4,1,0,7,135.326706
629,461,1,0,0,0,938.988464
-782,1079,2,1,0,9,71.115486
-1701,-1461,3,0,0,0,613.852966
867,-1461,4,1,0,7,135.326706
1124,291,1,1,0,15,80.365738
-885,836,2,1,0,9,71.115486
-130,-1054,3,1,0,7,135.326706
1860,-1932,4,0,0,0,584.906982
1806,259,1,0,0,0,694.703430
-291,837,2,1,0,9,71.115486
-1968,-306,3,1,0,9,71.115486
911,-1155,4,1,0,15,80.365738
269,1198,1,1,0,18,188.453049
-1119,1002,2,1,0,9,71.115486
-363,-18,3,1,0,0,201.152695
335,-978,4,1,0,7,135.326706
1199,1736,1,1,0,18,103.385963
-1279,557,2,0,0,0,790.834351
-1103,-934,3,0,0,0,739.368408
1322,-1227,4,0,0,0,697.986877
1791,23,1,0,0,0,699.980835
-841,1292,2,0,0,0,762.138245
-736,-81,3,1,0,9,71.115486
376,-1903,4,0,0,0,677.172302
431,319,1,0,0,0,1046.953247
-502,978,2,1,0,9,71.115486
-679,-1375,3,0,0,0,722.386597
472,-671,4,1,0,7,135.326706
1722,725,1,1,0,15,80.365738
-918,1769,2,0,0,0,688.526367
-1102,-1885,3,1,0,4,88.028297
1488,-595,4,0,0,0,731.858643
560,174,1,0,0,0,1021.151672
-1133,245,2,0,0,0,844.083557
-232,-648,3,0,0,0,952.769104
1450,-1337,4,0,0,0,672.417542
997,189,1,0,0,0,863.163635
-247,251,2,0,0,0,1187.475952
-1906,-122,3,0,0,0,659.586670
104,-348,4,1,0,0,218.408951
1803,51,1,0,0,0,697.978333
-365,186,2,0,0,0,1143.842896
-1655,-223,3,0,0,0,697.972290
1908,-1509,4,1,0,15,80.365738
46,1543,1,1,0,18,129.438690
-1960,724,2,1,0,9,71.115486
-1716,-1855,3,1,0,4,73.550095
1892,-257,4,0,0,0,681.691162
882,663,1,0,0,0,839.065125
-1274,1488,2,0,0,0,693.468384
-1690,-1662,3,0,0,0,598.074646
1312,-1638,4,0,0,0,654.683228
951,1129,1,1,0,18,147.388626
-293,200,2,1,0,0,241.882355
-66,-107,3,0,0,0,1443.140747
629,-1679,4,0,0,0,699.692444
334,1313,1,0,0,0,780.055359
-1191,34,2,0,0,0,836.177490
-922,-1835,3,0,0,0,638.886536
1492,-1354,4,1,0,15,80.365738
1338,1491,1,0,0,0,667.960388
-664,1826,2,0,0,0,695.801270
-76,-870,3,0,0,0,884.187439
1665,-1502,4,1,0,15,80.365738
890,1267,1,1,0,18,153.911377
-745,218,2,0,0,0,959.561951
-1178,-1246,3,0,0,0,690.405212
1166,-1505,4,1,0,15,80.365738
205,1359,1,1,0,18,161.425842
-534,401,2,1,0,9,71.115486
-1665,-1460,3,1,0,4,87.671349
517,-529,4,0,0,0,954.223877
1698,1678,1,0,0,0,617.962036
-1777,1922,2,1,0,9,71.115486
-1903,-1480,3,1,0,9,71.115486
1795,-1888,4,0,0,0,593.141052
1665,449,1,1,0,15,80.365738
-776,1322,2,0,0,0,763.759155
-709,-1196,3,0,0,0,750.491882
987,-364,4,0,0,0,852.795532
1849,1125,1,1,0,18,79.609421
-1712,1800,2,0,0,0,625.640930
-456,-19,3,1,0,9,71.115486
1909,-260,4,1,0,15,80.365738
1013,811,1,0,0,0,792.441345
-227,975,2,0,0,0,886.290283
-1033,-1620,3,1,0,4,105.608902
1087,-304,4,0,0,0,832.541687
51,947,1,0,0,0,882.639038
-263,735,2,0,0,0,957.934448
-255,-1688,3,0,0,0,691.667419
324,-721,4,1,0,7,135.326706
121,1690,1,1,0,18,123.539162
-1595,1035,2,1,0,9,71.115486
-916,-1089,3,0,0,0,743.830627
1062,-1097,4,0,0,0,745.738708
1966,658,1,1,0,15,80.365738
-564,859,2,1,0,9,71.115486
-170,-1280,3,0,0,0,771.722534
694,-1179,4,1,0,7,135.326706
365,287,1,1,0,0,143.108749
-854,416,2,0,0,0,901.390442
-671,-438,3,0,0,0,908.968079
438,-1493,4,0,0,0,740.326782
1130,1239,1,0,0,0,718.857666
-1987,1359,2,0,0,0,634.593140
-693,-1407,3,0,0,0,715.939819
106,-1200,4,0,0,0,813.810669
52,504,1,0,0,0,1063.289917
-1284,789,2,0,0,0,768.648376
-1918,-753,3,1,0,9,71.115486
487,-1224,4,1,0,7,135.326706
580,1742,1,0,0,0,692.898804
-1168,1800,2,0,0,0,667.414307
-1680,-771,3,1,0,9,71.115486
1023,-247,4,0,0,0,852.682068
1950,869,1,1,0,15,80.365738
-90,734,2,1,0,9,71.115486
-1220,-1740,3,0,0,0,629.135803
1937,-93,4,1,0,15,80.365738
925,926,1,1,0,18,143.471756
-463,1477,2,0,0,0,760.974304
-644,-1655,3,0,0,0,680.376709
1232,-1618,4,0,0,0,663.668396
154,1141,1,0,0,0,826.830322
-477,1724,2,1,0,9,71.115486
-1896,-1134,3,0,0,0,618.078247
999,-1611,4,0,0,0,683.761169
1567,1432,1,1,0,18,91.703255
-1877,934,2,0,0,0,674.043884
-1505,-39,3,0,0,0,727.670410
569,-804,4,0,0,0,871.737061
1734,453,1,1,0,15,80.365738
-1002,1811,2,1,0,9,71.115486
-1606,-710,3,1,0,9,71.115486
1810,-1754,4,1,0,15,80.365738
265,1950,1,1,0,18,108.942047
-1880,990,2,0,0,0,670.226074
-634,-980,3,1,0,4,203.233643
1237,-1948,4,1,0,15,80.365738
1484,161,1,0,0,0,752.226501
-1126,545,2,0,0,0,822.167419
-35,-1938,3,1,0,7,135.326706
123,-322,4,0,0,0,1174.391602
345,1570,1,1,0,18,147.921951
-901,63,2,0,0,0,915.919434
-826,-1824,3,0,0,0,646.100220
246,-1773,4,0,0,0,700.166687
1495,636,1,1,0,15,80.365738
-1013,309,2,1,0,9,71.115486
-1663,-433,3,0,0,0,689.780884
1651,-1809,4,1,0,15,80.365738
1195,34,1,0,0,0,816.012451
-835,1049,2,0,0,0,802.237061
-1529,-97,3,1,0,9,71.115486
182,-499,4,0,0,0,1049.685303
1607,439,1,0,0,0,720.747803
-911,660,2,0,0,0,852.708862
-1665,-1103,3,1,0,9,71.115486
769,-175,4,1,0,15,80.365738
1135,1487,1,0,0,0,687.549316
-1079,1916,2,0,0,0,660.420410
-1242,-1434,3,0,0,0,661.509583
1595,-1370,4,0,0,0,654.148438
1577,436,1,0,0,0,725.907837
-998,333,2,0,0,0,871.981323
-1057,-1947,3,0,0,0,617.284912
380,-899,4,1,0,7,135.326706
1688,495,1,1,0,15,80.365738
-1801,1429,2,1,0,9,71.115486
-297,-555,3,0,0,0,978.507690
529,-1629,4,0,0,0,712.799744
979,1858,1,0,0,0,654.481873
-18,1197,2,1,0,18,138.468506
-672,-1728,3,0,0,0,668.061035
1973,-1020,4,0,0,0,638.512146
1433,743,1,0,0,0,729.787720
-179,1367,2,0,0,0,794.222839
-691,-1193,3,0,0,0,752.914673
1447,-1303,4,1,0,15,80.365738
486,1630,1,0,0,0,714.785461
-377,732,2,1,0,9,71.115486
-907,-890,3,0,0,0,776.321167
168,-583,4,1,0,7,135.326706
194,279,1,0,0,0,1178.499023
-1076,1935,2,0,0,0,658.464539
-805,-854,3,1,0,4,276.236511
864,-1803,4,0,0,0,668.531860
671,1368,1,1,0,18,178.269943
-688,1281,2,1,0,9,71.115486
-1249,-1587,3,1,0,4,100.579369
1683,-1973,4,0,0,0,594.429993
504,519,1,0,0,0,960.619019
-1295,928,2,1,0,9,71.115486
-1363,-1207,3,0,0,0,673.265564
202,-1385,4,0,0,0,770.704224
549,1128,1,0,0,0,802.158325
-156,985,2,1,0,9,71.115486
-521,-464,3,1,0,4,143.343903
1722,-1933,4,1,0,15,80.365738
1075,1076,1,1,0,18,131.644547
-852,794,2,1,0,9,71.115486
-218,-848,3,0,0,0,883.443420
1559,-1105,4,0,0,0,681.464111
300,1543,1,0,0,0,737.397583
-635,1388,2,0,0,0,764.991760
-8,-594,3,0,0,0,995.199280
839,-97,4,0,0,0,916.014282
1808,416,1,0,0,0,689.918396
-70,1218,2,0,0,0,829.372253
-278,-352,3,0,0,0,1076.208008
121,-1771,4,0,0,0,702.552734
317,1712,1,0,0,0,708.095520
-1551,339,2,0,0,0,753.697083
-1452,-566,3,1,0,9,71.115486
327,-935,4,0,0,0,870.117920
370,274,1,0,0,0,1090.903687
-1400,328,2,1,0,9,71.115486
-306,-954,3,0,0,0,844.660461
1009,-1128,4,0,0,0,748.270691
722,1181,1,0,0,0,773.889832
-71,1280,2,1,0,18,131.011856
-1206,-1500,3,1,0,4,107.630547
545,-823,4,0,0,0,871.118896
382,1661,1,0,0,0,714.204895
-913,830,2,1,0,9,71.115486
-1213,-1995,3,0,0,0,602.358826
777,-1631,4,0,0,0,697.517944
1414,1975,1,0,0,0,613.028259
-217,661,2,0,0,0,991.129395
-1510,-406,3,0,0,0,716.813660
1739,-139,4,1,0,15,80.365738
1157,1805,1,0,0,0,648.585571
-1199,267,2,1,0,9,71.115486
-908,-328,3,1,0,9,71.115486
406,-1993,4,1,0,7,135.326706
1740,854,1,0,0,0,677.395325
-561,478,2,0,0,0,974.501831
-192,-1294,3,1,0,7,135.326706
1024,-1714,4,1,0,7,135.326706
1794,1791,1,0,0,0,600.889404
-1630,821,2,0,0,0,713.726013
-311,-991,3,1,0,4,141.644012
607,-709,4,1,0,7,135.326706
1307,867,1,1,0,18,107.372627
-1049,1130,2,0,0,0,762.092590
-1905,-1965,3,0,0,0,557.347168
160,-166,4,1,0,0,389.310333
1042,1191,1,0,0,0,735.472534
-1725,138,2,1,0,9,71.115486
-1982,-1238,3,0,0,0,602.109802
1427,-669,4,1,0,15,80.365738
3,964,1,1,0,18,137.206131
-1485,1358,2,0,0,0,685.769348
-409,-1172,3,0,0,0,783.048096
388,-442,4,0,0,0,1020.302368
1272,704,1,1,0,18,104.794418
-452,260,2,0,0,0,1074.257690
-677,-849,3,1,0,4,258.427246
538,-785,4,0,0,0,881.640625
1211,448,1,0,0,0,793.870239
-1826,1192,2,0,0,0,662.807617
-1921,-1895,3,1,0,9,71.115486
1636,-1404,4,1,0,15,80.365738
1637,1739,1,1,0,18,82.728912
-778,528,2,0,0,0,904.341248
-1575,-1689,3,0,0,0,605.469238
350,-1119,4,0,0,0,821.604431
632,138,1,1,0,15,80.365738
-358,1946,2,1,0,9,71.115486
-561,-1425,3,1,0,4,124.546768
736,-989,4,1,0,7,135.326706
1936,749,1,0,0,0,657.805420
-99,970,2,0,0,0,893.878418
-71,-100,3,0,0,0,1450.288574
134,-339,4,0,0,0,1158.256592
750,1639,1,0,0,0,698.180237
-1601,1147,2,1,0,9,71.115486
-296,-839,3,1,0,4,142.601715
305,-191,4,1,0,0,221.535294
526,218,1,0,0,0,1029.645264
-842,99,2,1,0,9,71.115486
-1975,-1393,3,0,0,0,592.556458
526,-410,4,0,0,0,984.068359
1078,1537,1,0,0,0,686.528687
-251,729,2,0,0,0,961.513794
-416,-856,3,0,0,0,859.435364
1343,-1342,4,0,0,0,683.312500
370,734,1,0,0,0,923.829041
-1841,264,2,0,0,0,708.323730
-1502,-1270,3,0,0,0,651.183716
1158,-264,4,1,0,15,80.365738
1444,1065,1,0,0,0,699.484192
-227,64,2,0,0,0,1303.119873
-276,-1683,3,0,0,0,691.947876
1595,-749,4,0,0,0,704.660889
193,89,1,1,0,0,422.421051
-1374,1147,2,0,0,0,719.315491
-1092,-1789,3,0,0,0,633.070190
1498,-1930,4,0,0,0,611.377563
672,1272,1,0,0,0,762.824097
-1076,840,2,1,0,9,71.115486
-301,-1957,3,0,0,0,649.295349
1431,-437,4,0,0,0,751.548462
1800,1942,1,0,0,0,588.518433
-1873,87,2,0,0,0,705.994568
-743,-1613,3,0,0,0,680.373718
354,-1422,4,1,0,7,135.326706
475,395,1,0,0,0,1006.128784
-1945,454,2,0,0,0,687.913452
-532,-25,3,0,0,0,1026.685791
814,-95,4,0,0,0,924.691650
1639,1533,1,0,0,0,635.559143
-152,1417,2,0,0,0,784.699890
-1434,-512,3,0,0,0,724.422302
1575,-1,4,0,0,0,736.831299
1327,972,1,0,0,0,724.380066
-1145,468,2,0,0,0,825.405823
-1372,-1521,3,0,0,0,639.614258
1929,-1377,4,0,0,0,620.017273
591,1671,1,1,0,18,137.417252
-1196,1101,2,0,0,0,746.910278
-867,-430,3,0,0,0,854.624573
561,-508,4,1,0,7,135.326706
1934,625,1,1,0,15,80.365738
-655,1263,2,1,0,9,71.115486
-1680,-1839,3,0,0,0,584.000244
839,-1340,4,1,0,7,135.326706
1574,1353,1,1,0,18,92.291733
-1783,1259,2,0,0,0,662.536682
-758,-1788,3,0,0,0,654.822388
1397,-1108,4,0,0,0,701.277649
1341,1476,1,0,0,0,669.264709
-1877,1293,2,1,0,9,71.115486
-1996,-853,3,0,0,0,623.097900
435,-464,4,0,0,0,997.740601
1164,1030,1,0,0,0,740.629150
-189,174,2,1,0,0,363.779388
-1951,-1872,3,0,0,0,560.773132
1944,-1226,4,0,0,0,628.770203
1433,1304,1,1,0,18,101.163483
-1458,1350,2,0,0,0,689.386841
-1855,-798,3,1,0,9,71.115486
381,-1567,4,0,0,0,730.056702
16,52,1,0,0,0,1707.045654
-1960,363,2,1,0,9,71.115486
648,-1494,4,1,0,7,135.326706
1926,707,1,0,0,0,661.150146
-1715,1497,2,1,0,9,71.115486
1778,-1737,4,1,0,15,80.365738
519,358,1,0,0,0,1000.255005
-1397,152,2,0,0,0,788.736572
1188,-1735,4,0,0,0,654.127625
982,835,1,0,0,0,794.360413
-1606,975,2,0,0,0,705.419006
1504,-377,4,1,0,15,80.365738
381,1800,1,0,0,0,692.297302
-1388,513,2,1,0,9,71.115486
1197,-1445,4,1,0,15,80.365738
867,1842,1,0,0,0,663.361084
-1091,1841,2,0,0,0,668.181458
1237,-806,4,1,0,15,80.365738
365,1064,1,1,0,18,213.056656
-1576,221,2,0,0,0,753.010193
1618,-592,4,0,0,0,711.105347
1985,1735,1,0,0,0,589.755859
-1550,237,2,0,0,0,757.262512
593,-1751,4,1,0,7,135.326706
1209,1086,1,0,0,0,727.845703
-383,1684,2,0,0,0,729.557312
550,-327,4,1,0,7,135.326706
1795,83,1,1,0,15,80.365738
-1989,769,2,0,0,0,669.185913
1064,-1556,4,1,0,15,80.365738
10,334,1,0,0,0,1183.352295
-811,1086,2,1,0,9,71.115486
629,-936,4,0,0,0,832.795593
891,1590,1,0,0,0,694.993286
-1764,1757,2,0,0,0,625.001099
511,-1700,4,1,0,7,135.326706
721,902,1,0,0,0,825.981567
-1622,1845,2,0,0,0,628.815002
1811,-248,4,1,0,15,80.365738
-1538,1281,2,1,0,9,71.115486
1497,-172,4,0,0,0,749.520996
-256,1293,2,0,0,0,807.136047
1251,-55,4,0,0,0,802.685242
-1538,1581,2,1,0,9,71.115486
1386,-297,4,1,0,15,80.365738
-387,645,2,0,0,0,968.630676
1730,-1909,4,0,0,0,596.300598
-85,24,2,0,0,0,1586.505249
720,-1265,4,0,0,0,759.461487
-1713,1036,2,0,0,0,687.250854
573,-1899,4,0,0,0,670.793579
-649,1409,2,0,0,0,760.341675
1353,-1024,4,1,0,15,80.365738
-497,1090,2,0,0,0,834.618286
1442,-1948,4,0,0,0,613.655334
-52,940,2,0,0,0,903.977478
663,-1742,4,1,0,7,135.326706
-649,42,2,0,0,0,1010.560425
880,-1345,4,1,0,7,135.326706
-1419,1772,2,0,0,0,651.322083
18,-642,4,1,0,7,135.326706
1738,-623,4,0,0,0,691.302979
341,-270,4,1,0,0,161.537552
1285,-38,4,1,0,15,80.365738
1315,-1978,4,0,0,0,619.396790
782,-906,4,0,0,0,815.692932
1669,-578,4,0,0,0,703.988342
289,-462,4,0,0,0,1042.294556
523,-951,4,1,0,7,135.326706
1185,-1167,4,0,0,0,721.216248
1598,-753,4,0,0,0,703.943848
537,-1270,4,0,0,0,775.001526
128,-1124,4,0,0,0,831.891113
563,-1205,4,0,0,0,785.358215
1877,-733,4,0,0,0,666.294006
1148,-1391,4,0,0,0,698.005737
1475,-1604,4,1,0,15,80.365738
1085,-831,4,0,0,0,777.553040
59,-130,4,0,0,0,1428.696167
1376,-1427,4,1,0,15,80.365738


each generation good chromosome number
0,2,2,2,2,2,2,2,2,2,2,2,2,2,2,2,2,2,2,2,2,2,2,2,2,2,2,2,2,2,2,2,2,2,2,2,2,2,2,2,2,2,2,2,2,2,2,2,2,4,6,8,10,11,12,15,18,19,20,20,20,20,20,20,20,20,20,19,19,19,20,21,21,21,21,21,21,21,21,22,23,24,25,26,27,27,26,26,27,28,28,29,30,31,31,30,31,32,35,38,