Algorithm result,,,,,,,,,,,,,,,,,,,,
CBSD number,Modified GA,,,DP,,,HA,,,BARSPAA,,ES,,,,,,,,
5,642.429871,42.5,267,641.508057,12.4,267,635.020386,6.8,267,436.736145,635,642.926392,,,,,,,,
6,643.335876,49.799999,267,643.088684,17,267,643.335876,60.700001,267,433.827087,635,643.33606,,,,,,,,
7,643.299927,23.700001,267,643.316589,19.5,267,643.332581,35,267,437.970886,635,643.33606,,,,,,,,
8,643.270508,38.900002,267,643.277954,19,267,643.296448,38.299999,267,434.062164,635,643.33606,,,,,,,,
9,643.124023,43,267,642.867737,18.1,267,643.302856,28.9,267,432.26474,635,643.33606,,,,,,,,
10,642.814331,41,267,643.213196,17,267,643.407227,25.4,267,426.761169,635,643.594604,,,,,,,,
11,643.48645,38.299999,267,642.167175,29.9,266,643.709351,28.6,267,431.698242,635,643.987854,,,,,,,,
12,643.365723,39.299999,266,642.983948,28.299999,267,643.625,51.700001,266,427.68277,635,643.987854,,,,,,,,
13,643.55603,35.400002,267,643.150635,31,267,643.82251,40.599998,267,431.895264,635,643.987854,,,,,,,,
14,643.150696,35.900002,267,643.303345,34.200001,266,643.578796,40.099998,266,435.331879,635,643.987854,,,,,,,,
15,643.037598,47.200001,267,643.025024,41.200001,267,643.380981,26.299999,267,428.200867,635,643.987854,,,,,,,,
16,642.729675,51.700001,266,643.112976,49.599998,267,643.232239,29.6,267,432.27179,635,643.987854,,,,,,,,
17,642.374817,50.5,266,642.074707,49.099998,267,643.264221,26.5,267,431.349121,635,643.987854,,,,,,,,
18,642.438354,55.5,266,642.951599,51.700001,267,643.32959,39.599998,267,434.657806,635,643.987854,,,,,,,,
19,642.680298,63,267,642.893677,66.099998,267,643.318848,31.1,266,436.10025,635,643.987854,,,,,,,,
20,641.916809,61.900002,267,642.782166,74.099998,267,643.273071,43.599998,267,432.204102,635,643.987854,,,,,,,,
21,641.483643,73.900002,267,640.737122,75.699997,267,643.238831,35.200001,267,435.492859,635,644.163696,,,,,,,,
22,639.537231,55.400002,267,640.404907,69.5,267,643.335083,22.6,267,433.068207,635,644.163696,,,,,,,,
23,620.269287,73.099998,267,631.704468,74.019997,267,642.978027,22.200001,267,433.742493,635,644.163696,,,,,,,,
24,637.601746,75.139999,267,636.101746,76.269997,267,642.978943,47.700001,267,433.305298,635,644.163696,,,,,,,,
25,513.58667,63.310001,267,582.606201,72.010002,266,643.175476,26.9,267,433.90152,635,644.163696,,,,,,,,
26,387.375824,47.009998,267,462.364502,57.880001,266,643.2724,34.099998,266,434.330963,635,644.163696,,,,,,,,
27,308.227661,32.220001,266,321.301361,34.310001,266,643.114624,16.5,267,434.717468,635,644.163696,,,,,,,,
28,193.64801,17.02,266,128.006805,12.43,239,643.026367,23.9,267,434.749542,635,644.163696,,,,,,,,
29,107.558128,9.49,262,96.441689,6.17,265,642.635315,18,267,435.517334,635,644.163696,,,,,,,,
30,47.404625,2.52,229,40.800816,0.07,264,643.130493,29.1,267,435.21698,635,644.163696,,,,,,,,
,,,,,,,,,,,,,,,,,,,,
BS power,,,,,,,,,,,,,,,,,,,,
CBSD number,Modified GA,,,,DP,,,,HA,,,,BARSPAA,,,,ES,,,
5,10,10,10,10,10,10,10,10,10,9.75,9.75,9.875,10,10,10,10,10,10,10,10
6,10,10,10,10,10,10,10,10,10,10,10,10,10,10,10,10,10,10,10,10
7,10,10,10,10,10,10,10,10,10,10,10,10,10,10,10,10,10,10,10,10
8,10,10,10,10,10,10,10,10,10,10,10,10,10,10,10,10,10,10,10,10
9,10,10,10,10,10,10,10,10,10,10,10,10,10,10,10,10,10,10,10,10
10,10,10,10,10,10,10,10,10,10,10,10,10,10,10,10,10,10,10,10,10
11,10,10,10,10,10,10,10,10,10,10,10,10,10,10,10,10,10,10,10,10
12,10,10,10,10,10,10,10,10,10,10,10,10,10,10,10,10,10,10,10,10
13,10,10,10,10,10,10,10,10,10,10,10,10,10,10,10,10,10,10,10,10
14,10,10,10,10,10,10,10,10,10,10,10,10,10,10,10,10,10,10,10,10
15,10,10,10,10,10,10,10,10,10,10,10,10,10,10,10,10,10,10,10,10
16,10,10,10,10,10,10,10,10,10,10,10,10,10,10,10,10,10,10,10,10
17,10,10,10,10,10,9.875,10,10,10,10,10,10,10,10,10,10,10,10,10,10
18,10,10,10,10,10,10,10,10,10,10,10,10,10,10,10,10,10,10,10,10
19,10,10,10,10,10,10,10,10,10,10,10,10,10,10,10,10,10,10,10,10
20,10,9.875,10,10,10,10,10,10,10,10,10,10,10,10,10,10,10,10,10,10
21,9.875,10,10,10,10,10,9.75,9.875,10,10,10,10,10,10,10,10,10,10,10,10
22,9.75,9.875,10,9.875,9.875,9.875,10,10,10,10,10,10,10,10,10,10,10,10,10,10
23,9.85,9.762,9.875,9.85,9.875,9.75,9.8,9.762,10,10,10,10,10,10,10,10,10,10,10,10
24,9.688,9.75,9.7,9.788,9.8,9.575,9.6,9.625,10,10,10,10,10,10,10,10,10,10,10,10
25,9.438,9.625,9.55,9.512,9.512,9.488,9.312,9.413,10,10,10,10,10,10,10,10,10,10,10,10
26,8.837,8.7,8.762,8.9,9.012,9.288,8.613,8.675,10,10,10,10,10,10,10,10,10,10,10,10
27,8.462,8.337,8.188,7.588,8.15,8.262,8.725,8.6,10,10,10,10,10,10,10,10,10,10,10,10
28,7.225,7.5,8.2,8.413,7.012,7.4,7.762,7.95,10,10,10,10,10,10,10,10,10,10,10,10
29,7.412,7.312,7.825,6.55,7.525,8.363,9.1,8.1,10,10,10,10,10,10,10,10,10,10,10,10
30,5.688,5.325,5.625,7.6,6.213,7.988,6.213,6.05,10,10,10,10,10,10,10,10,10,10,10,10
,9.470192308,9.463884615,9.527884615,9.541384615,9.499,9.610153846,9.572115385,9.540384615,10,9.990384615,9.990384615,9.995192308,10,10,10,10,10,10,10,10