the max average throughput times

BS TX power
MBS area 1,MBS area 2,MBS area 3,MBS area 4,MBS area 5,MBS area 6,CBSD 1,CBSD 2,CBSD 3,CBSD 4,CBSD 5,CBSD 6,CBSD 7,CBSD 8,CBSD 9,
6.250,7.500,7.500,6.250,0.000,0.000,0.000,0.000,0.000,0.500,0.000,1.000,0.000,0.000,1.000,
max average power
346.210388

x,y,area,be blocked (1 : NLOS / 0 : LOS),be blocked number (>=1 : CBSD(x) / 0 : no),connect bs number (>=1 : CBSD / 0 : MBS),throughput (unit : M bps)
24,1130,1,0,0,0,783.785645
1394,524,2,0,0,0,730.786499
-1621,874,3,0,0,0,669.988098
-639,1858,4,0,0,0,625.506348
-1103,-297,5,1,0,9,200.012314
1102,-110,6,0,0,6,58.558975
170,360,1,0,0,0,1084.306274
1589,1139,2,0,0,0,652.915405
-1651,122,3,0,0,0,700.461121
-711,1002,4,1,0,9,200.012314
-1548,-1430,5,0,0,4,105.539955
647,-1338,6,0,0,6,58.558975
826,859,1,0,0,0,768.580566
1454,344,2,1,0,6,58.558975
-1374,1320,3,1,0,9,200.012314
-163,1741,4,0,0,0,658.748962
-1089,-1397,5,1,0,4,105.539955
516,-614,6,0,0,6,58.558975
208,1235,1,0,0,0,754.321228
744,182,2,0,0,0,921.969116
-1843,1071,3,0,0,0,628.265320
-169,896,4,0,0,0,845.537415
-1172,-1785,5,0,0,4,105.539955
169,-54,6,0,0,6,58.558975
446,577,1,0,0,0,909.839050
1907,96,2,0,0,0,659.658875
-1349,1104,3,0,0,0,685.694946
-26,539,4,0,0,0,996.620972
-1263,-1522,5,0,0,4,105.539955
1272,-834,6,0,0,6,58.558975
706,1904,1,0,0,0,616.121094
1913,422,2,1,0,6,58.558975
-1420,524,3,1,0,9,200.012314
-808,1261,4,1,0,9,200.012314
-99,-509,5,1,0,4,105.539955
358,-1158,6,0,0,6,58.558975
985,1346,1,1,0,6,58.558975
1587,347,2,0,0,0,705.875061
-904,685,3,0,0,0,808.978577
-8,1796,4,0,0,0,651.113281
-438,-820,5,1,0,4,105.539955
1128,-1171,6,1,0,6,58.558975
4,1389,1,1,0,6,58.558975
1353,384,2,0,0,0,747.192810
-508,86,3,0,0,0,1036.239746
-407,1874,4,0,0,0,632.421448
-406,-850,5,0,0,4,105.539955
463,-34,6,0,0,6,58.558975
493,1919,1,0,0,0,623.124939
1693,1378,2,0,0,0,621.490601
-1936,1690,3,0,0,0,575.151611
-629,789,4,1,0,9,200.012314
-390,-1209,5,1,0,4,105.539955
307,-1107,6,1,0,6,58.558975
1089,1685,1,0,0,0,619.561035
601,101,2,0,0,0,987.834778
-1649,1459,3,1,0,9,200.012314
-1483,1515,4,0,0,0,603.877991
-1787,-1661,5,1,0,4,105.539955
416,-220,6,0,0,6,58.558975
427,1302,1,0,0,0,728.527344
931,679,2,0,0,0,804.430054
-1879,691,3,0,0,0,646.140808
-1059,1583,4,0,0,0,634.378052
-86,-1999,5,0,0,4,105.539955
2,-60,6,1,0,6,58.558975
768,819,1,1,0,6,58.558975
1665,104,2,0,0,0,698.265930
-473,425,3,0,0,0,975.584778
-283,288,4,0,0,0,1080.240479
-1442,-1523,5,0,0,4,105.539955
1403,-922,6,0,0,6,58.558975
61,1770,1,1,0,6,58.558975
1348,133,2,0,0,0,757.981262
-1871,1574,3,1,0,9,200.012314
-191,647,4,0,0,0,932.286255
-1862,-115,5,0,0,9,200.012314
1767,-345,6,0,0,6,58.558975
93,1290,1,1,0,6,58.558975
1719,1625,2,0,0,0,598.651367
-562,107,3,0,0,0,1006.056396
-911,1757,4,1,0,9,200.012314
-1564,-1096,5,0,0,4,105.539955
428,-1826,6,0,0,6,58.558975
294,1916,1,1,0,6,58.558975
486,337,2,1,0,6,58.558975
-1581,1181,3,0,0,0,650.249756
-134,533,4,0,0,0,991.349365
-648,-298,5,1,0,4,105.539955
836,-878,6,0,0,6,58.558975
293,868,1,0,0,0,844.177551
1051,286,2,0,0,0,820.617554
-1529,208,3,1,0,9,200.012314
-480,1509,4,0,0,0,687.097290
-290,-738,5,1,0,4,105.539955
372,-482,6,0,0,6,58.558975
682,1968,1,0,0,0,608.910278
1679,827,2,0,0,0,665.368835
-1792,1459,3,0,0,0,605.293518
-836,1390,4,0,0,0,680.221008
-1071,-787,5,0,0,4,105.539955
1088,-230,6,0,0,6,58.558975
632,1914,1,0,0,0,618.235474
1097,214,2,0,0,0,813.200806
-270,124,3,0,0,0,1195.006836
-1167,1580,4,1,0,9,200.012314
-515,-743,5,0,0,4,105.539955
7,-1633,6,0,0,4,105.539955
980,1535,1,0,0,0,647.146606
1703,364,2,0,0,0,685.973877
-1284,417,3,0,0,0,758.942383
-1590,1681,4,0,0,0,579.055786
-1444,-1310,5,0,0,4,105.539955
769,-1112,6,0,0,6,58.558975
1645,1666,1,0,0,0,575.716248
1214,835,2,1,0,6,58.558975
-1330,342,3,1,0,9,200.012314
-208,1260,4,1,0,6,58.558975
-282,-830,5,1,0,4,105.539955
1500,-992,6,0,0,6,58.558975
1283,1306,1,0,0,0,645.645203
1813,76,2,0,0,0,674.211609
-1514,1489,3,0,0,0,629.346985
-998,1779,4,0,0,0,614.843933
-1986,-703,5,0,0,9,200.012314
936,-1582,6,1,0,6,58.558975
590,1468,1,1,0,6,58.558975
213,151,2,0,0,0,1232.286621
-330,264,3,0,0,0,1093.383179
-464,1136,4,0,0,0,760.175537
-1210,-137,5,0,0,9,200.012314
813,-1802,6,1,0,6,58.558975
1198,1745,1,0,0,0,604.330261
1521,161,2,1,0,6,58.558975
-917,850,3,0,0,0,780.963379
-1258,1860,4,0,0,0,587.557495
-917,-1103,5,1,0,4,105.539955
394,-1785,6,0,0,6,58.558975
450,1274,1,1,0,6,58.558975
1369,1230,2,0,0,0,670.175842
-1077,633,3,0,0,0,781.218262
-675,989,4,0,0,0,767.213318
-45,-696,5,0,0,4,105.539955
1270,-620,6,0,0,6,58.558975
745,1837,1,1,0,6,58.558975
1950,1886,2,0,0,0,559.834778
-1303,1007,3,0,0,0,701.974548
-1151,1277,4,0,0,0,663.599426
-475,-623,5,1,0,4,105.539955
137,-750,6,0,0,6,58.558975
1342,1368,1,0,0,0,632.620728
436,369,2,1,0,6,58.558975
-1753,226,3,0,0,0,681.728088
-1820,1873,4,0,0,0,544.837524
-51,-1295,5,0,0,4,105.539955
630,-1413,6,0,0,6,58.558975
540,1144,1,0,0,0,751.437073
1738,473,2,0,0,0,676.326843
-976,752,3,0,0,0,785.187927
-357,1656,4,1,0,6,58.558975
-734,-1623,5,0,0,4,105.539955
1024,-879,6,0,0,6,58.558975
1081,1719,1,0,0,0,616.125549
981,590,2,0,0,0,806.319702
-1987,837,3,0,0,0,625.010620
-501,1078,4,1,0,9,200.012314
-1467,-940,5,0,0,4,105.539955
1420,-937,6,0,0,6,58.558975
1066,1629,1,0,0,0,628.130493
1474,647,2,1,0,6,58.558975
-823,136,3,1,0,9,200.012314
-109,641,4,0,0,0,942.900940
-995,-1670,5,1,0,4,105.539955
1129,-714,6,0,0,6,58.558975
298,774,1,1,0,6,58.558975
1432,698,2,0,0,0,711.472168
-1983,898,3,0,0,0,622.282227
-860,1181,4,1,0,9,200.012314
-1837,-1196,5,0,0,4,105.539955
909,-1799,6,0,0,6,58.558975
862,1768,1,0,0,0,625.197693
474,40,2,0,0,0,1059.264526
-594,516,3,0,0,0,914.219543
-289,1669,4,0,0,0,667.839905
-658,-1470,5,0,0,4,105.539955
361,-1597,6,0,0,6,58.558975
45,886,1,0,0,0,853.425415
1981,638,2,1,0,6,58.558975
-530,495,3,0,0,0,937.710754
-1558,1680,4,0,0,0,581.837585
-71,-338,5,1,0,6,58.558975
1750,-1454,6,0,0,6,58.558975
625,1862,1,0,0,0,625.610413
1027,686,2,1,0,6,58.558975
-439,309,3,0,0,0,1024.390503
-28,811,4,0,0,0,879.082764
-357,-1675,5,1,0,4,105.539955
1214,-1447,6,0,0,6,58.558975
567,1019,1,0,0,0,774.811096
1869,380,2,0,0,0,659.984497
-1911,1007,3,0,0,0,624.483887
-1429,1536,4,0,0,0,606.854797
-1333,-556,5,0,0,4,105.539955
1832,-1328,6,0,0,6,58.558975
10,63,1,1,0,0,887.146301
1216,1100,2,0,0,0,703.204895
-1336,1146,3,0,0,0,682.917297
-109,927,4,1,0,6,58.558975
-859,-149,5,0,0,9,200.012314
1946,-608,6,0,0,6,58.558975
344,510,1,1,0,6,58.558975
503,142,2,0,0,0,1032.110840
-1559,256,3,0,0,0,713.851562
-36,1497,4,0,0,0,703.092468
-1786,-1540,5,0,0,4,105.539955
29,-1883,6,0,0,4,105.539955
432,1447,1,0,0,0,700.678650
819,135,2,1,0,6,58.558975
-1836,1311,3,1,0,9,200.012314
-634,864,4,0,0,0,799.082336
-846,-1306,5,0,0,4,105.539955
766,-1203,6,0,0,6,58.558975
104,1149,1,0,0,0,777.888855
1358,455,2,0,0,0,741.985657
-1423,911,3,0,0,0,694.619934
-501,901,4,0,0,0,810.221985
-764,-955,5,1,0,4,105.539955
711,-1344,6,0,0,6,58.558975
1074,1309,1,1,0,6,58.558975
1019,690,2,0,0,0,785.530579
-787,572,3,0,0,0,853.101929
-583,1321,4,0,0,0,713.513367
-1773,-1643,5,0,0,4,105.539955
695,-174,6,0,0,6,58.558975
102,254,1,1,0,0,278.980927
556,498,2,1,0,6,58.558975
-1555,1294,3,0,0,0,643.170898
-666,797,4,0,0,0,808.079163
-1735,-1062,5,0,0,4,105.539955
1475,-926,6,0,0,6,58.558975
1846,1870,1,0,0,0,543.110229
1793,636,2,0,0,0,660.701355
-1807,750,3,0,0,0,652.709839
-869,896,4,0,0,0,755.286255
-1572,-1891,5,1,0,4,105.539955
1921,-1497,6,0,0,6,58.558975
967,1468,1,0,0,0,657.241150
1489,1227,2,0,0,0,656.683472
-1245,1085,3,0,0,0,701.164246
-729,1817,4,0,0,0,626.526428
-1973,-335,5,0,0,9,200.012314
1799,-150,6,0,0,6,58.558975
438,821,1,1,0,6,58.558975
1931,1326,2,0,0,0,601.433105
-1963,1711,3,0,0,0,571.413940
-44,1331,4,0,0,0,736.700073
-1817,-840,5,1,0,4,105.539955
964,-33,6,1,0,6,58.558975
1604,1797,1,1,0,6,58.558975
1910,26,2,0,0,0,659.545044
-1898,247,3,0,0,0,658.973694
-726,1551,4,0,0,0,664.708130
-1384,-81,5,1,0,9,200.012314
1065,-961,6,0,0,6,58.558975
0,1987,1,0,0,0,622.309265
1862,1280,2,0,0,0,611.677063
-1867,204,3,0,0,0,664.380188
-1289,1408,4,1,0,9,200.012314
-1610,-1520,5,0,0,4,105.539955
355,-1819,6,0,0,6,58.558975
674,998,1,0,0,0,765.567261
1227,243,2,1,0,6,58.558975
-1252,439,3,0,0,0,763.935913
-861,1055,4,0,0,0,730.308533
-1237,-329,5,0,0,9,200.012314
363,-1638,6,1,0,6,58.558975
870,1796,1,0,0,0,621.076294
1618,532,2,1,0,6,58.558975
-740,426,3,0,0,0,890.673401
-817,1124,4,1,0,9,200.012314
-1006,-227,5,0,0,9,200.012314
1697,-649,6,1,0,6,58.558975
287,1222,1,0,0,0,753.667358
396,382,2,1,0,6,58.558975
-1281,999,3,0,0,0,705.876038
-1297,1728,4,0,0,0,598.492676
-1895,-1826,5,1,0,4,105.539955
1717,-209,6,0,0,6,58.558975
316,1659,1,0,0,0,668.686218
1895,1609,2,0,0,0,584.559082
-530,267,3,1,0,9,200.012314
-1012,1400,4,0,0,0,662.223572
-1337,-1139,5,1,0,4,105.539955
754,-471,6,0,0,6,58.558975
24,720,1,0,0,0,913.366455
1936,365,2,1,0,6,58.558975
-1342,1010,3,0,0,0,696.323425
-299,1095,4,1,0,9,200.012314
-189,-845,5,1,0,4,105.539955
297,-1171,6,0,0,6,58.558975
440,1820,1,0,0,0,639.228577
1353,577,2,0,0,0,734.338806
-821,321,3,1,0,9,200.012314
-665,1620,4,0,0,0,658.330627
-326,-1238,5,0,0,4,105.539955
747,-1952,6,1,0,6,58.558975
81,462,1,1,0,6,58.558975
1590,708,2,1,0,6,58.558975
-491,316,3,0,0,0,1000.169983
-1257,1319,4,0,0,0,647.009766
-1979,-432,5,0,0,9,200.012314
683,-1187,6,0,0,6,58.558975
1869,1879,1,0,0,0,540.698914
159,138,2,0,0,0,1294.378418
-1229,990,3,1,0,9,200.012314
-1556,1843,4,0,0,0,567.292114
-884,-898,5,1,0,4,105.539955
34,-293,6,1,0,6,58.558975
1083,1832,1,0,0,0,602.788574
1739,1188,2,0,0,0,631.698914
-1923,1921,3,0,0,0,559.285278
-853,1622,4,0,0,0,645.357300
-3,-1721,5,0,0,4,105.539955
1820,-1759,6,0,0,6,58.558975
651,916,1,0,0,0,785.438965
1944,1385,2,0,0,0,596.091919
-900,874,3,1,0,9,200.012314
-986,1652,4,0,0,0,631.503479
-878,-320,5,0,0,4,105.539955
144,-1394,6,0,0,4,105.539955
356,939,1,0,0,0,817.767456
541,102,2,1,0,6,58.558975
-514,67,3,0,0,0,1034.498901
-1171,1346,4,0,0,0,653.015930
-712,-708,5,0,0,4,105.539955
1323,-695,6,0,0,6,58.558975
390,681,1,1,0,6,58.558975
312,153,2,0,0,0,1149.823364
-800,232,3,0,0,0,897.809021
-241,1286,4,0,0,0,741.771484
-35,-1885,5,1,0,4,105.539955
43,-1181,6,0,0,4,105.539955
96,1354,1,0,0,0,731.224976
1164,661,2,0,0,0,761.382568
-1787,117,3,0,0,0,677.980713
-1210,-271,5,0,0,9,200.012314
24,-618,6,0,0,4,105.539955
1629,1953,1,0,0,0,552.326111
1570,178,2,0,0,0,713.818848
-1271,537,3,1,0,9,200.012314
-1835,-238,5,0,0,9,200.012314
1233,-792,6,0,0,6,58.558975
1166,1978,1,0,0,0,581.237610
901,38,2,0,0,0,874.945984
-1700,404,3,1,0,9,200.012314
-469,-965,5,0,0,4,105.539955
185,-1575,6,0,0,4,105.539955
1399,1603,1,0,0,0,602.860718
1833,566,2,0,0,0,658.319092
-1426,1032,3,1,0,9,200.012314
-1957,-912,5,0,0,9,200.012314
525,-913,6,0,0,6,58.558975
1067,421,2,0,0,0,805.742981
-1989,1282,3,0,0,0,598.548096
-1620,-470,5,0,0,9,200.012314
526,-1642,6,0,0,6,58.558975
1651,1202,2,0,0,0,640.473755
-1496,1171,3,0,0,0,661.100220
-1369,-1239,5,0,0,4,105.539955
1478,-32,6,0,0,6,58.558975
1299,586,2,0,0,0,743.418884
-1739,1640,3,0,0,0,595.684937
-512,-446,5,0,0,4,105.539955
183,-704,6,0,0,6,58.558975
1564,1199,2,0,0,0,650.639282
-1078,1024,3,0,0,0,731.249390
-60,-1310,5,1,0,4,105.539955
1237,-172,6,0,0,6,58.558975
1974,1514,2,1,0,6,58.558975
-910,311,3,0,0,0,856.443481
-1213,-1593,5,0,0,4,105.539955
213,-80,6,1,0,6,58.558975
1904,1629,2,0,0,0,582.307617
-1671,979,3,0,0,0,655.612671
-488,-1537,5,0,0,4,105.539955
1738,-207,6,0,0,6,58.558975
1370,662,2,0,0,0,724.629761
-1414,796,3,0,0,0,706.199036
-1865,-1289,5,1,0,4,105.539955
302,-23,6,0,0,6,58.558975
974,645,2,0,0,0,800.491028
-1706,124,3,0,0,0,691.106934
-555,-1473,5,0,0,4,105.539955
806,-803,6,0,0,6,58.558975
1046,274,2,0,0,0,822.717590
-832,84,3,0,0,0,896.680908
-1934,-579,5,0,0,9,200.012314
843,-128,6,0,0,6,58.558975
1990,748,2,0,0,0,629.022156
-941,250,3,1,0,9,200.012314
-1400,-852,5,0,0,4,105.539955
1184,-509,6,1,0,6,58.558975
1778,740,2,1,0,6,58.558975
-1780,334,3,1,0,9,200.012314
-1089,-1379,5,0,0,4,105.539955
346,-526,6,1,0,6,58.558975
1846,1676,2,0,0,0,583.717896
-1803,-1877,5,1,0,4,105.539955
1704,-1650,6,0,0,6,58.558975
-1314,-825,5,0,0,4,105.539955
1631,-1071,6,0,0,6,58.558975
-1378,-805,5,0,0,4,105.539955
295,-428,6,0,0,6,58.558975
-718,-1154,5,0,0,4,105.539955
1431,-1851,6,1,0,6,58.558975
-330,-1937,5,0,0,4,105.539955
1345,-771,6,1,0,6,58.558975
-1937,-1893,5,1,0,4,105.539955
1193,-720,6,0,0,6,58.558975
-1500,-815,5,0,0,4,105.539955
318,-1216,6,0,0,6,58.558975
-1244,-366,5,1,0,9,200.012314
825,-474,6,0,0,6,58.558975
-1454,-295,5,0,0,9,200.012314
1123,-1002,6,0,0,6,58.558975
-1368,-1610,5,0,0,4,105.539955
390,-335,6,0,0,6,58.558975
-1553,-1237,5,0,0,4,105.539955
1889,-656,6,0,0,6,58.558975
-662,-426,5,0,0,4,105.539955
1436,-1024,6,0,0,6,58.558975
-648,-780,5,0,0,4,105.539955
178,-808,6,0,0,6,58.558975
-1613,-217,5,0,0,9,200.012314
1854,-1118,6,0,0,6,58.558975
-298,-1674,5,0,0,4,105.539955
382,-1453,6,0,0,6,58.558975
-846,-1988,5,1,0,4,105.539955
708,-1382,6,0,0,6,58.558975
-110,-1217,5,0,0,4,105.539955
208,-75,6,0,0,6,58.558975
-841,-666,5,0,0,4,105.539955
659,-746,6,0,0,6,58.558975
-1290,-1140,5,0,0,4,105.539955
1450,-889,6,0,0,6,58.558975
-439,-734,5,0,0,4,105.539955
1916,-1815,6,0,0,6,58.558975
-1284,-1112,5,0,0,4,105.539955
643,-742,6,0,0,6,58.558975
-695,-1830,5,0,0,4,105.539955
1690,-1403,6,0,0,6,58.558975
-1627,-1774,5,0,0,4,105.539955
404,-1424,6,0,0,6,58.558975
-1225,-766,5,1,0,4,105.539955
878,-896,6,0,0,6,58.558975
-882,-454,5,1,0,4,105.539955
1304,-1831,6,0,0,6,58.558975
-980,-1372,5,0,0,4,105.539955
1268,-634,6,0,0,6,58.558975
-1509,-1600,5,1,0,4,105.539955
246,-1215,6,1,0,4,105.539955
-1859,-115,5,0,0,9,200.012314
1050,-117,6,0,0,6,58.558975
-1206,-1121,5,1,0,4,105.539955
482,-1921,6,1,0,6,58.558975
-1475,-1939,5,0,0,4,105.539955
903,-881,6,0,0,6,58.558975
-1778,-337,5,0,0,9,200.012314
340,-15,6,1,0,6,58.558975
-933,-280,5,1,0,9,200.012314
1152,-1066,6,0,0,6,58.558975
-1961,-996,5,1,0,4,105.539955
863,-540,6,0,0,6,58.558975
1390,-1156,6,0,0,6,58.558975
1431,-1448,6,1,0,6,58.558975
228,-454,6,0,0,6,58.558975
838,-1297,6,0,0,6,58.558975
1147,-935,6,0,0,6,58.558975
1973,-402,6,0,0,6,58.558975
1549,-1670,6,0,0,6,58.558975
592,-178,6,0,0,6,58.558975
1222,-423,6,1,0,6,58.558975
392,-1291,6,0,0,6,58.558975
435,-1479,6,1,0,6,58.558975
536,-356,6,1,0,6,58.558975
419,-1767,6,0,0,6,58.558975
1043,-1968,6,0,0,6,58.558975
1459,-996,6,0,0,6,58.558975
905,-785,6,0,0,6,58.558975
1601,-491,6,0,0,6,58.558975
658,-1353,6,0,0,6,58.558975
1855,-169,6,1,0,6,58.558975
856,-1992,6,1,0,6,58.558975
70,-998,6,0,0,4,105.539955
841,-945,6,0,0,6,58.558975
1621,-1539,6,1,0,6,58.558975
561,-1178,6,0,0,6,58.558975
7,-890,6,1,0,4,105.539955
988,-191,6,0,0,6,58.558975
80,-457,6,0,0,6,58.558975
