each times' max average throughput
0.000000,0.000000,0.000000,0.000000,0.000000,0.000000,0.000000,0.000000,0.000000,0.000000,0.000000,0.000000,0.000000,0.000000,0.000000,562.210815,0.000000,0.000000,0.000000,0.000000,0.000000,0.000000,0.000000,483.143860,0.000000,0.000000,555.785767,0.000000,555.916565,0.000000,0.000000,480.307129,0.000000,0.000000,0.000000,0.000000,0.000000,0.000000,0.000000,0.000000,0.000000,0.000000,0.000000,0.000000,553.600586,434.934418,0.000000,491.410431,0.000000,0.000000,0.000000,450.790192,0.000000,0.000000,504.939270,548.661255,456.770782,0.000000,0.000000,0.000000,0.000000,0.000000,0.000000,447.359375,0.000000,0.000000,0.000000,0.000000,0.000000,0.000000,0.000000,471.378296,0.000000,570.678101,486.589172,0.000000,0.000000,0.000000,484.746796,0.000000,0.000000,0.000000,0.000000,0.000000,0.000000,0.000000,0.000000,0.000000,0.000000,480.998901,0.000000,0.000000,0.000000,0.000000,0.000000,0.000000,0.000000,0.000000,433.851349,544.759949,
avg. throughput in all test times
99.988342
avg. BS TX power in all test times
MBS area 1,MBS area 2,MBS area 3,MBS area 4,MBS area 5,MBS area 6,CBSD 1,CBSD 2,CBSD 3,CBSD 4,CBSD 5,CBSD 6,CBSD 7,CBSD 8,CBSD 9,
6.213,5.325,6.238,5.800,5.588,5.450,0.013,0.142,0.030,0.000,0.056,0.189,0.054,0.027,0.027,
avg. mbs all power,avg. cbsd enable number,avg. mbs area all power,avg. cbsd all power
40.312,0.000,34.612,0.539
avg. max avg. throughput generation number in all test times
0.170000
avg. number of relay UE
135

the max average throughput times

BS TX power
MBS area 1,MBS area 2,MBS area 3,MBS area 4,MBS area 5,MBS area 6,CBSD 1,CBSD 2,CBSD 3,CBSD 4,CBSD 5,CBSD 6,CBSD 7,CBSD 8,CBSD 9,
5.000,5.000,5.000,7.500,6.250,6.250,0.000,0.000,0.000,0.000,0.000,0.000,0.875,0.000,0.750,
max average throughput
544.759949

x,y,area,be blocked (1 : NLOS / 0 : LOS),be blocked number (>=1 : CBSD(x) / 0 : no),connect bs number (>=1 : CBSD / 0 : MBS),throughput (unit : M bps)
24,1130,1,0,0,0,751.750366
1394,524,2,0,0,0,672.744629
-1621,874,3,0,0,0,612.183899
-639,1858,4,0,0,0,651.494568
-1103,-297,5,1,0,9,290.927002
1102,-110,6,0,0,0,789.634766
170,360,1,0,0,0,1052.133057
1589,1139,2,0,0,0,595.197937
-1651,122,3,0,0,0,642.525391
-711,1002,4,1,0,9,290.927002
-1548,-1430,5,0,0,0,605.573364
647,-1338,6,0,0,7,82.426270
826,859,1,0,0,0,736.562744
1454,344,2,1,0,7,82.426270
-1374,1320,3,1,0,9,290.927002
-163,1741,4,0,0,0,684.802002
-1089,-1397,5,1,0,7,82.426270
516,-614,6,0,0,0,882.456177
208,1235,1,0,0,0,722.321655
744,182,2,0,0,0,863.593872
-1843,1071,3,0,0,0,570.692810
-169,896,4,0,0,0,871.772217
-1172,-1785,5,0,0,0,601.829102
169,-54,6,0,0,0,1317.454712
446,577,1,0,0,0,877.711975
1907,96,2,0,0,0,601.906189
-1349,1104,3,0,0,0,627.819763
-26,539,4,0,0,0,1022.900513
-1263,-1522,5,0,0,0,623.631836
1272,-834,6,0,0,0,698.615479
706,1904,1,0,0,0,584.431335
1913,422,2,1,0,7,82.426270
-1420,524,3,1,0,9,290.927002
-808,1261,4,1,0,9,290.927002
-99,-509,5,1,0,7,82.426270
358,-1158,6,0,0,0,763.713745
985,1346,1,1,0,7,82.426270
1587,347,2,0,0,0,647.918701
-904,685,3,0,0,0,750.746948
-8,1796,4,0,0,0,677.153015
-438,-820,5,1,0,7,82.426270
1128,-1171,6,1,0,7,82.426270
4,1389,1,1,0,7,82.426270
1353,384,2,0,0,0,689.102112
-508,86,3,0,0,0,977.798096
-407,1874,4,0,0,0,658.424438
-406,-850,5,0,0,0,836.167419
463,-34,6,0,0,0,1039.997192
493,1919,1,0,0,0,591.411377
1693,1378,2,0,0,0,563.962341
-1936,1690,3,0,0,0,517.988220
-629,789,4,1,0,9,290.927002
-390,-1209,5,1,0,7,82.426270
307,-1107,6,1,0,7,82.426270
1089,1685,1,0,0,0,587.859497
601,101,2,0,0,0,929.414978
-1649,1459,3,1,0,9,290.927002
-1483,1515,4,0,0,0,629.815125
-1787,-1661,5,1,0,7,82.426270
416,-220,6,0,0,0,1036.083740
427,1302,1,0,0,0,696.565552
931,679,2,0,0,0,746.206909
-1879,691,3,0,0,0,588.460632
-1059,1583,4,0,0,0,660.385315
-86,-1999,5,0,0,0,620.332031
2,-60,6,1,0,0,913.356323
768,819,1,1,0,7,82.426270
1665,104,2,0,0,0,640.338745
-473,425,3,0,0,0,917.171814
-283,288,4,0,0,0,1106.530396
-1442,-1523,5,0,0,0,606.933655
1403,-922,6,0,0,0,670.381409
61,1770,1,1,0,7,82.426270
1348,133,2,0,0,0,699.861389
-1871,1574,3,1,0,9,290.927002
-191,647,4,0,0,0,958.552063
-1862,-115,5,0,0,0,640.278687
1767,-345,6,0,0,0,650.423462
93,1290,1,1,0,7,82.426270
1719,1625,2,0,0,0,541.288391
-562,107,3,0,0,0,947.627747
-911,1757,4,1,0,9,290.927002
-1564,-1096,5,0,0,0,633.596863
428,-1826,6,0,0,0,638.763306
294,1916,1,1,0,7,82.426270
486,337,2,1,0,7,82.426270
-1581,1181,3,0,0,0,592.546753
-134,533,4,0,0,0,1017.627808
-648,-298,5,1,0,7,82.426270
836,-878,6,0,0,7,82.426270
293,868,1,0,0,0,812.088379
1051,286,2,0,0,0,762.365173
-1529,208,3,1,0,9,290.927002
-480,1509,4,0,0,0,713.195312
-290,-738,5,1,0,7,82.426270
372,-482,6,0,0,0,961.831421
682,1968,1,0,0,0,577.246277
1679,827,2,0,0,0,607.587341
-1792,1459,3,0,0,0,547.879761
-836,1390,4,0,0,0,706.308716
-1071,-787,5,0,0,0,737.274414
1088,-230,6,0,0,0,788.452148
632,1914,1,0,0,0,586.538391
1097,214,2,0,0,0,754.961548
-270,124,3,0,0,0,1136.528687
-1167,1580,4,1,0,9,290.927002
-515,-743,5,0,0,0,847.998718
7,-1633,6,0,0,0,678.291870
980,1535,1,0,0,0,615.359680
1703,364,2,0,0,0,628.097229
-1284,417,3,0,0,0,700.820007
-1590,1681,4,0,0,0,604.924072
-1444,-1310,5,0,0,0,627.708679
769,-1112,6,0,0,7,82.426270
1645,1666,1,0,0,0,544.188721
1214,835,2,1,0,7,82.426270
-1330,342,3,1,0,9,290.927002
-208,1260,4,1,0,9,290.927002
-282,-830,5,1,0,7,82.426270
1500,-992,6,0,0,0,650.743042
1283,1306,1,0,0,0,613.862488
1813,76,2,0,0,0,616.387695
-1514,1489,3,0,0,0,571.767517
-998,1779,4,0,0,0,640.807861
-1986,-703,5,0,0,0,605.662964
936,-1582,6,1,0,7,82.426270
590,1468,1,1,0,7,82.426270
213,151,2,0,0,0,1173.804565
-330,264,3,0,0,0,1034.923828
-464,1136,4,0,0,0,786.355286
-1210,-137,5,0,0,0,762.377563
813,-1802,6,1,0,7,82.426270
1198,1745,1,0,0,0,572.683228
1521,161,2,1,0,7,82.426270
-917,850,3,0,0,0,722.788391
-1258,1860,4,0,0,0,613.450745
-917,-1103,5,1,0,7,82.426270
394,-1785,6,0,0,0,646.082642
450,1274,1,1,0,7,82.426270
1369,1230,2,0,0,0,612.370972
-1077,633,3,0,0,0,723.042664
-675,989,4,0,0,0,793.398743
-45,-696,5,0,0,0,922.690491
1270,-620,6,0,0,0,719.664856
745,1837,1,1,0,7,82.426270
1950,1886,2,0,0,0,502.819946
-1303,1007,3,0,0,0,644.033203
-1151,1277,4,0,0,0,689.660767
-475,-623,5,1,0,7,82.426270
137,-750,6,0,0,0,897.043335
1342,1368,1,0,0,0,600.876648
436,369,2,1,0,7,82.426270
-1753,226,3,0,0,0,623.870178
-1820,1873,4,0,0,0,570.589111
-51,-1295,5,0,0,0,744.499634
630,-1413,6,0,0,7,82.426270
540,1144,1,0,0,0,719.441345
1738,473,2,0,0,0,618.493164
-976,752,3,0,0,0,727.003418
-357,1656,4,1,0,9,290.927002
-734,-1623,5,0,0,0,653.468201
1024,-879,6,0,0,0,732.893005
1081,1719,1,0,0,0,584.435791
981,590,2,0,0,0,748.092712
-1987,837,3,0,0,0,567.459106
-501,1078,4,1,0,9,290.927002
-1467,-940,5,0,0,0,659.778076
1420,-937,6,0,0,0,666.586365
1066,1629,1,0,0,0,596.400635
1474,647,2,1,0,7,82.426270
-823,136,3,1,0,9,290.927002
-109,641,4,0,0,0,969.169617
-995,-1670,5,1,0,7,82.426270
1129,-714,6,0,0,0,735.818420
298,774,1,1,0,7,82.426270
1432,698,2,0,0,0,653.495300
-1983,898,3,0,0,0,564.748657
-860,1181,4,1,0,9,290.927002
-1837,-1196,5,0,0,0,594.392822
909,-1799,6,0,0,0,618.240234
862,1768,1,0,0,0,593.477356
474,40,2,0,0,0,1000.815063
-594,516,3,0,0,0,855.850952
-289,1669,4,0,0,0,693.908508
-658,-1470,5,0,0,0,682.253357
361,-1597,6,0,0,0,677.543762
45,886,1,0,0,0,821.329834
1981,638,2,1,0,7,82.426270
-530,495,3,0,0,0,879.322998
-1558,1680,4,0,0,0,607.714172
-71,-338,5,1,0,7,82.426270
1750,-1454,6,0,0,0,583.826477
625,1862,1,0,0,0,593.888672
1027,686,2,1,0,7,82.426270
-439,309,3,0,0,0,965.953613
-28,811,4,0,0,0,905.331848
-357,-1675,5,1,0,7,82.426270
1214,-1447,6,0,0,0,636.745605
567,1019,1,0,0,0,742.785950
1869,380,2,0,0,0,602.230103
-1911,1007,3,0,0,0,566.935791
-1429,1536,4,0,0,0,632.799377
-1333,-556,5,0,0,0,713.438110
1832,-1328,6,0,0,0,585.390442
10,63,1,1,0,0,855.030457
1216,1100,2,0,0,0,645.258545
-1336,1146,3,0,0,0,625.054138
-109,927,4,1,0,7,82.426270
-859,-149,5,0,0,0,858.436890
1946,-608,6,0,0,0,614.989807
344,510,1,1,0,7,82.426270
503,142,2,0,0,0,973.670959
-1559,256,3,0,0,0,655.866211
-36,1497,4,0,0,0,729.212036
-1786,-1540,5,0,0,0,573.669739
29,-1883,6,0,0,0,637.590149
432,1447,1,0,0,0,668.765991
819,135,2,1,0,7,82.426270
-1836,1311,3,1,0,9,290.927002
-634,864,4,0,0,0,825.291138
-846,-1306,5,0,0,0,692.097473
766,-1203,6,0,0,7,82.426270
104,1149,1,0,0,0,745.860168
1358,455,2,0,0,0,683.909912
-1423,911,3,0,0,0,636.707336
-501,901,4,0,0,0,836.437744
-764,-955,5,1,0,7,82.426270
711,-1344,6,0,0,7,82.426270
1074,1309,1,1,0,7,82.426270
1019,690,2,0,0,0,727.345581
-787,572,3,0,0,0,794.800354
-583,1321,4,0,0,0,739.645569
-1773,-1643,5,0,0,0,566.680847
695,-174,6,0,0,0,914.949951
102,254,1,1,0,7,82.426270
556,498,2,1,0,7,82.426270
-1555,1294,3,0,0,0,585.507751
-666,797,4,0,0,0,834.293640
-1735,-1062,5,0,0,0,615.624573
1475,-926,6,0,0,0,659.899963
1846,1870,1,0,0,0,511.750946
1793,636,2,0,0,0,602.943298
-1807,750,3,0,0,0,594.993713
-869,896,4,0,0,0,781.461487
-1572,-1891,5,1,0,7,82.426270
1921,-1497,6,0,0,0,564.560852
967,1468,1,0,0,0,625.426819
1489,1227,2,0,0,0,598.946167
-1245,1085,3,0,0,0,643.226013
-729,1817,4,0,0,0,652.516785
-1973,-335,5,0,0,0,620.276794
1799,-150,6,0,0,0,649.651489
438,821,1,1,0,7,82.426270
1931,1326,2,0,0,0,544.048584
-1963,1711,3,0,0,0,514.285400
-44,1331,4,0,0,0,762.857666
-1817,-840,5,1,0,7,82.426270
964,-33,6,1,0,7,82.426270
1604,1797,1,1,0,7,82.426270
1910,26,2,0,0,0,601.792908
-1898,247,3,0,0,0,601.224243
-726,1551,4,0,0,0,690.771606
-1384,-81,5,1,0,9,290.927002
1065,-961,6,0,0,7,82.426270
0,1987,1,0,0,0,590.598389
1862,1280,2,0,0,0,554.216614
-1867,204,3,0,0,0,606.603394
-1289,1408,4,1,0,9,290.927002
-1610,-1520,5,0,0,0,591.541992
355,-1819,6,0,0,0,642.154175
674,998,1,0,0,0,733.553162
1227,243,2,1,0,7,82.426270
-1252,439,3,0,0,0,705.801086
-861,1055,4,0,0,0,756.459534
-1237,-329,5,0,0,0,748.063721
363,-1638,6,1,0,7,82.426270
870,1796,1,0,0,0,589.369629
1618,532,2,1,0,7,82.426270
-740,426,3,0,0,0,832.327454
-817,1124,4,1,0,9,290.927002
-1006,-227,5,0,0,0,810.118713
1697,-649,6,1,0,7,82.426270
287,1222,1,0,0,0,721.668640
396,382,2,1,0,7,82.426270
-1281,999,3,0,0,0,647.919678
-1297,1728,4,0,0,0,624.415894
-1895,-1826,5,1,0,7,82.426270
1717,-209,6,0,0,0,661.859070
316,1659,1,0,0,0,636.843018
1895,1609,2,0,0,0,527.311951
-530,267,3,1,0,9,290.927002
-1012,1400,4,0,0,0,688.282593
-1337,-1139,5,1,0,7,82.426270
754,-471,6,0,0,0,852.817078
24,720,1,0,0,0,881.237793
1936,365,2,1,0,7,82.426270
-1342,1010,3,0,0,0,638.404236
-299,1095,4,1,0,9,290.927002
-189,-845,5,1,0,7,82.426270
297,-1171,6,0,0,0,764.662415
440,1820,1,0,0,0,607.464478
1353,577,2,0,0,0,676.285889
-821,321,3,1,0,9,290.927002
-665,1620,4,0,0,0,684.382935
-326,-1238,5,0,0,0,748.018921
747,-1952,6,1,0,7,82.426270
81,462,1,1,0,7,82.426270
1590,708,2,1,0,7,82.426270
-491,316,3,0,0,0,941.743896
-1257,1319,4,0,0,0,673.041626
-1979,-432,5,0,0,0,616.833069
683,-1187,6,0,0,7,82.426270
1869,1879,1,0,0,0,509.353638
159,138,2,0,0,0,1235.891479
-1229,990,3,1,0,9,290.927002
-1556,1843,4,0,0,0,593.123352
-884,-898,5,1,0,7,82.426270
34,-293,6,1,0,7,82.426270
1083,1832,1,0,0,0,571.147461
1739,1188,2,0,0,0,574.104736
-1923,1921,3,0,0,0,502.276031
-853,1622,4,0,0,0,671.386292
-3,-1721,5,0,0,0,663.294312
1820,-1759,6,0,0,0,553.672058
651,916,1,0,0,0,753.401917
1944,1385,2,0,0,0,538.749146
-900,874,3,1,0,9,290.927002
-986,1652,4,0,0,0,657.504517
-878,-320,5,0,0,0,838.463257
144,-1394,6,0,0,0,722.076233
356,939,1,0,0,0,785.699158
541,102,2,1,0,7,82.426270
-514,67,3,0,0,0,976.058167
-1171,1346,4,0,0,0,679.059143
-712,-708,5,0,0,0,817.802856
1323,-695,6,0,0,0,703.665161
390,681,1,1,0,7,82.426270
312,153,2,0,0,0,1091.352051
-800,232,3,0,0,0,839.455566
-241,1286,4,0,0,0,767.934143
-35,-1885,5,1,0,7,82.426270
43,-1181,6,0,0,0,770.981201
96,1354,1,0,0,0,699.258911
1164,661,2,0,0,0,703.254150
-1787,117,3,0,0,0,620.139282
-1210,-271,5,0,0,0,757.181030
24,-618,6,0,0,0,957.319641
1629,1953,1,0,0,0,520.915405
1570,178,2,0,0,0,655.833862
-1271,537,3,1,0,9,290.927002
-1835,-238,5,0,0,0,642.608032
1233,-792,6,0,0,0,709.274719
1166,1978,1,0,0,0,549.685181
901,38,2,0,0,0,816.617310
-1700,404,3,1,0,9,290.927002
-469,-965,5,0,0,0,798.740784
185,-1575,6,0,0,0,686.677429
1399,1603,1,0,0,0,571.219299
1833,566,2,0,0,0,600.573303
-1426,1032,3,1,0,9,290.927002
-1957,-912,5,0,0,0,598.693726
525,-913,6,0,0,0,804.080872
1067,421,2,0,0,0,747.517151
-1989,1282,3,0,0,0,541.185913
-1620,-470,5,0,0,0,669.029053
526,-1642,6,0,0,0,662.765442
1651,1202,2,0,0,0,582.826477
-1496,1171,3,0,0,0,603.339905
-1369,-1239,5,0,0,0,643.217041
1478,-32,6,0,0,0,706.765808
1299,586,2,0,0,0,685.338928
-1739,1640,3,0,0,0,538.345459
-512,-446,5,0,0,0,930.408936
183,-704,6,0,0,0,910.582825
1564,1199,2,0,0,0,592.934387
-1078,1024,3,0,0,0,673.206360
-60,-1310,5,1,0,7,82.426270
1237,-172,6,0,0,0,755.122620
1974,1514,2,1,0,7,82.426270
-910,311,3,0,0,0,798.137695
-1213,-1593,5,0,0,0,620.132507
213,-80,6,1,0,7,82.426270
1904,1629,2,0,0,0,525.080017
-1671,979,3,0,0,0,597.881104
-488,-1537,5,0,0,0,681.887085
1738,-207,6,0,0,0,658.476318
1370,662,2,0,0,0,666.607971
-1414,796,3,0,0,0,648.241699
-1865,-1289,5,1,0,7,82.426270
302,-23,6,0,0,0,1163.170288
974,645,2,0,0,0,742.275146
-1706,124,3,0,0,0,633.208618
-555,-1473,5,0,0,0,688.803284
806,-803,6,0,0,0,781.890137
1046,274,2,0,0,0,764.461975
-832,84,3,0,0,0,838.328796
-1934,-579,5,0,0,0,617.788818
843,-128,6,0,0,0,864.833923
1990,748,2,0,0,0,571.444824
-941,250,3,1,0,9,290.927002
-1400,-852,5,0,0,0,677.268005
1184,-509,6,1,0,7,82.426270
1778,740,2,1,0,7,82.426270
-1780,334,3,1,0,9,290.927002
-1089,-1379,5,0,0,0,657.359070
346,-526,6,1,0,7,82.426270
1846,1676,2,0,0,0,526.478027
-1803,-1877,5,1,0,7,82.426270
1704,-1650,6,0,0,0,572.032043
-1314,-825,5,0,0,0,692.934998
1631,-1071,6,0,0,0,627.485535
-1378,-805,5,0,0,0,684.865845
295,-428,6,0,0,0,1007.402405
-718,-1154,5,0,0,0,730.859070
1431,-1851,6,1,0,7,82.426270
-330,-1937,5,0,0,0,625.492371
1345,-771,6,1,0,7,82.426270
-1937,-1893,5,1,0,7,82.426270
1193,-720,6,0,0,0,723.714355
-1500,-815,5,0,0,0,665.609741
318,-1216,6,0,0,0,753.291992
-1244,-366,5,1,0,9,290.927002
825,-474,6,0,0,0,833.284485
-1454,-295,5,0,0,0,705.745300
1123,-1002,6,0,0,7,82.426270
-1368,-1610,5,0,0,0,604.861145
390,-335,6,0,0,0,1010.575623
-1553,-1237,5,0,0,0,622.532532
1889,-656,6,0,0,0,620.500793
-662,-426,5,0,0,0,887.821350
1436,-1024,6,0,0,0,656.294800
-648,-780,5,0,0,0,814.965576
178,-808,6,0,0,0,873.499878
-1613,-217,5,0,0,0,679.253540
1854,-1118,6,0,0,0,597.914490
-298,-1674,5,0,0,0,666.748718
382,-1453,6,0,0,0,702.148865
-846,-1988,5,1,0,7,82.426270
708,-1382,6,0,0,7,82.426270
-110,-1217,5,0,0,0,761.382019
208,-75,6,0,0,0,1253.942261
-841,-666,5,0,0,0,798.784241
659,-746,6,0,0,0,820.307373
-1290,-1140,5,0,0,0,663.205261
1450,-889,6,0,0,0,666.662659
-439,-734,5,0,0,0,863.956909
1916,-1815,6,0,0,0,541.877502
-1284,-1112,5,0,0,0,667.039612
643,-742,6,0,0,0,824.247864
-695,-1830,5,0,0,0,626.563721
1690,-1403,6,0,0,0,593.817383
-1627,-1774,5,0,0,0,567.866577
404,-1424,6,0,0,0,706.407043
-1225,-766,5,1,0,7,82.426270
878,-896,6,0,0,7,82.426270
-882,-454,5,1,0,7,82.426270
1304,-1831,6,0,0,0,587.253601
-980,-1372,5,0,0,0,669.155273
1268,-634,6,0,0,0,718.772583
-1509,-1600,5,1,0,7,82.426270
246,-1215,6,1,0,7,82.426270
-1859,-115,5,0,0,0,640.736755
1050,-117,6,0,0,0,803.177551
-1206,-1121,5,1,0,7,82.426270
482,-1921,6,1,0,7,82.426270
-1475,-1939,5,0,0,0,564.463013
903,-881,6,0,0,7,82.426270
-1778,-337,5,0,0,0,648.954712
340,-15,6,1,0,7,82.426270
-933,-280,5,1,0,9,290.927002
1152,-1066,6,0,0,7,82.426270
-1961,-996,5,1,0,7,82.426270
863,-540,6,0,0,0,813.842285
1390,-1156,6,0,0,0,649.234680
1431,-1448,6,1,0,7,82.426270
228,-454,6,0,0,0,1014.011047
838,-1297,6,0,0,7,82.426270
1147,-935,6,0,0,0,706.482788
1973,-402,6,0,0,0,618.532898
1549,-1670,6,0,0,0,583.506714
592,-178,6,0,0,0,957.452271
1222,-423,6,1,0,7,82.426270
392,-1291,6,0,0,0,732.961792
435,-1479,6,1,0,7,82.426270
536,-356,6,1,0,7,82.426270
419,-1767,6,0,0,0,647.956543
1043,-1968,6,0,0,0,589.862732
1459,-996,6,0,0,0,655.835388
905,-785,6,0,0,0,767.062744
1601,-491,6,0,0,0,671.103882
658,-1353,6,0,0,7,82.426270
1855,-169,6,1,0,7,82.426270
856,-1992,6,1,0,7,82.426270
70,-998,6,0,0,0,818.848267
841,-945,6,0,0,7,82.426270
1621,-1539,6,1,0,7,82.426270
561,-1178,6,0,0,7,82.426270
7,-890,6,1,0,7,82.426270
988,-191,6,0,0,0,817.174500
80,-457,6,0,0,0,1040.182129


each generation good chromosome number
1,1,1,