each times' max average throughput
577.234741,564.986816,577.446533,573.482544,571.736877,574.141174,570.309875,578.452515,576.669128,578.148621,569.715149,574.910767,574.499695,578.140747,579.854675,579.025330,575.335815,572.489624,576.323608,577.111267,576.897949,564.903381,578.752869,578.091919,575.031555,575.496277,568.249451,578.752869,574.453247,573.302795,575.672302,578.443237,578.730957,580.259949,578.775696,576.160278,579.075256,576.017822,577.713745,574.062439,575.482300,578.048096,576.281677,577.373047,577.993408,577.934082,573.762329,577.614807,581.007751,577.387085,577.219543,578.100525,578.949829,568.572327,579.559021,568.698120,580.040833,574.604980,574.884888,578.091919,572.108948,574.884888,574.884888,579.241638,574.884888,574.884888,576.546997,574.884888,574.884888,577.443542,574.884888,574.884888,574.884888,574.209717,574.884888,574.884888,578.093567,574.884888,574.884888,574.727295,572.713745,574.884888,574.884888,573.176270,574.884888,574.884888,573.736816,574.884888,574.884888,577.486694,575.033081,574.884888,574.884888,574.088196,574.884888,574.884888,575.022095,575.092957,574.884888,574.173950,
avg. throughput in all test times
575.506470
avg. BS TX power in all test times
MBS area 1,MBS area 2,MBS area 3,MBS area 4,MBS area 5,MBS area 6,CBSD 1,CBSD 2,CBSD 3,CBSD 4,CBSD 5,CBSD 6,CBSD 7,CBSD 8,CBSD 9,
8.363,7.963,8.175,7.200,8.025,9.312,0.000,0.000,0.000,0.000,0.000,0.000,0.000,0.000,0.000,
avg. mbs all power,avg. cbsd enable number,avg. mbs area all power,avg. cbsd all power
49.037,0.000,49.037,0.000
avg. max avg. throughput generation number in all test times
0.890000
avg. number of relay UE
0



the max average throughput times

BS TX power
MBS area 1,MBS area 2,MBS area 3,MBS area 4,MBS area 5,MBS area 6,CBSD 1,CBSD 2,CBSD 3,CBSD 4,CBSD 5,CBSD 6,CBSD 7,CBSD 8,CBSD 9,
6.250,8.750,7.500,10.000,7.500,8.750,0.000,0.000,0.000,0.000,0.000,0.000,0.000,0.000,0.000,
max average throughput
574.173950

x,y,area,be blocked (1 : NLOS / 0 : LOS),be blocked number (>=1 : CBSD(x) / 0 : no),connect bs number (>=1 : CBSD / 0 : MBS),throughput (unit : M bps)
24,1130,1,0,0,0,783.785645
1394,524,2,0,0,0,752.895508
-1621,874,3,0,0,0,669.988098
-639,1858,4,0,0,0,692.603455
-1103,-297,5,1,0,0,13.443728
1102,-110,6,0,0,0,838.004395
170,360,1,0,0,0,1084.306274
1589,1139,2,0,0,0,674.931213
-1651,122,3,0,0,0,700.461121
-711,1002,4,1,0,0,14.358952
-1548,-1430,5,0,0,0,631.514771
647,-1338,6,0,0,0,753.476257
826,859,1,0,0,0,768.580566
1454,344,2,1,0,0,7.164419
-1374,1320,3,1,0,0,3.004658
-163,1741,4,0,0,0,725.992432
-1089,-1397,5,1,0,0,3.730162
516,-614,6,0,0,0,930.907959
208,1235,1,0,0,0,754.321228
744,182,2,0,0,0,944.173889
-1843,1071,3,0,0,0,628.265320
-169,896,4,0,0,0,913.190369
-1172,-1785,5,0,0,0,627.760986
169,-54,6,0,0,0,1365.993042
446,577,1,0,0,0,909.839050
1907,96,2,0,0,0,681.685181
-1349,1104,3,0,0,0,685.694946
-26,539,4,0,0,0,1064.374023
-1263,-1522,5,0,0,0,649.616150
1272,-834,6,0,0,0,746.832642
706,1904,1,0,0,0,616.121094
1913,422,2,1,0,0,3.222738
-1420,524,3,1,0,0,5.932598
-808,1261,4,1,0,0,8.103639
-99,-509,5,1,0,0,103.142525
358,-1158,6,0,0,0,812.049255
985,1346,1,1,0,0,3.723207
1587,347,2,0,0,0,727.959473
-904,685,3,0,0,0,808.978577
-8,1796,4,0,0,0,718.326050
-438,-820,5,1,0,0,24.022738
1128,-1171,6,1,0,0,5.590365
4,1389,1,1,0,0,6.386951
1353,384,2,0,0,0,769.315735
-508,86,3,0,0,0,1036.239746
-407,1874,4,0,0,0,699.551819
-406,-850,5,0,0,0,862.397583
463,-34,6,0,0,0,1088.509399
493,1919,1,0,0,0,623.124939
1693,1378,2,0,0,0,643.452271
-1936,1690,3,0,0,0,575.151611
-629,789,4,1,0,0,24.964935
-390,-1209,5,1,0,0,9.896632
307,-1107,6,1,0,0,15.318275
1089,1685,1,0,0,0,619.561035
601,101,2,0,0,0,1010.052002
-1649,1459,3,1,0,0,1.954170
-1483,1515,4,0,0,0,670.859863
-1787,-1661,5,1,0,0,1.438933
416,-220,6,0,0,0,1084.595093
427,1302,1,0,0,0,728.527344
931,679,2,0,0,0,826.591370
-1879,691,3,0,0,0,646.140808
-1059,1583,4,0,0,0,701.517578
-86,-1999,5,0,0,0,646.308655
2,-60,6,1,0,0,961.825623
768,819,1,1,0,0,11.863602
1665,104,2,0,0,0,720.341980
-473,425,3,0,0,0,975.584778
-283,288,4,0,0,0,1148.017334
-1442,-1523,5,0,0,0,632.878479
1403,-922,6,0,0,0,718.528137
61,1770,1,1,0,0,3.116474
1348,133,2,0,0,0,780.112610
-1871,1574,3,1,0,0,1.429670
-191,647,4,0,0,0,1000.008911
-1862,-115,5,0,0,0,666.297791
1767,-345,6,0,0,0,698.511353
93,1290,1,1,0,0,7.870591
1719,1625,2,0,0,0,620.565308
-562,107,3,0,0,0,1006.056396
-911,1757,4,1,0,0,3.567538
-1564,-1096,5,0,0,0,659.602234
428,-1826,6,0,0,0,686.812866
294,1916,1,1,0,0,2.382946
486,337,2,1,0,0,86.473160
-1581,1181,3,0,0,0,650.249756
-134,533,4,0,0,0,1059.100464
-648,-298,5,1,0,0,48.666088
836,-878,6,0,0,0,811.985596
293,868,1,0,0,0,844.177551
1051,286,2,0,0,0,842.786865
-1529,208,3,1,0,0,5.605354
-480,1509,4,0,0,0,754.441467
-290,-738,5,1,0,0,36.958191
372,-482,6,0,0,0,1010.321655
682,1968,1,0,0,0,608.910278
1679,827,2,0,0,0,687.403381
-1792,1459,3,0,0,0,605.293518
-836,1390,4,0,0,0,747.542542
-1071,-787,5,0,0,0,763.432617
1088,-230,6,0,0,0,836.820312
632,1914,1,0,0,0,618.235474
1097,214,2,0,0,0,835.366699
-270,124,3,0,0,0,1195.006836
-1167,1580,4,1,0,0,3.648202
-515,-743,5,0,0,0,874.234924
7,-1633,6,0,0,0,726.459778
980,1535,1,0,0,0,647.146606
1703,364,2,0,0,0,708.035461
-1284,417,3,0,0,0,758.942383
-1590,1681,4,0,0,0,645.882202
-1444,-1310,5,0,0,0,653.701660
769,-1112,6,0,0,0,780.652771
1645,1666,1,0,0,0,575.716248
1214,835,2,1,0,0,7.462871
-1330,342,3,1,0,0,7.889350
-208,1260,4,1,0,0,12.854537
-282,-830,5,1,0,0,28.226538
1500,-992,6,0,0,0,698.831970
1283,1306,1,0,0,0,645.645203
1813,76,2,0,0,0,696.258301
-1514,1489,3,0,0,0,629.346985
-998,1779,4,0,0,0,681.886353
-1986,-703,5,0,0,0,631.604614
936,-1582,6,1,0,0,3.891916
590,1468,1,1,0,0,4.352748
213,151,2,0,0,0,1254.521973
-330,264,3,0,0,0,1093.383179
-464,1136,4,0,0,0,827.703918
-1210,-137,5,0,0,0,788.558899
813,-1802,6,1,0,0,3.136838
1198,1745,1,0,0,0,604.330261
1521,161,2,1,0,0,6.690019
-917,850,3,0,0,0,780.963379
-1258,1860,4,0,0,0,654.440247
-917,-1103,5,1,0,0,6.945944
394,-1785,6,0,0,0,694.156677
450,1274,1,1,0,0,6.926078
1369,1230,2,0,0,0,692.217102
-1077,633,3,0,0,0,781.218262
-675,989,4,0,0,0,834.755005
-45,-696,5,0,0,0,948.953918
1270,-620,6,0,0,0,767.926331
745,1837,1,1,0,0,2.229313
1950,1886,2,0,0,0,581.648132
-1303,1007,3,0,0,0,701.974548
-1151,1277,4,0,0,0,730.861572
-475,-623,5,1,0,0,38.154957
137,-750,6,0,0,0,945.503845
1342,1368,1,0,0,0,632.620728
436,369,2,1,0,0,93.456520
-1753,226,3,0,0,0,681.728088
-1820,1873,4,0,0,0,611.400269
-51,-1295,5,0,0,0,770.665161
630,-1413,6,0,0,0,741.960754
540,1144,1,0,0,0,751.437073
1738,473,2,0,0,0,698.376343
-976,752,3,0,0,0,785.187927
-357,1656,4,1,0,0,5.647714
-734,-1623,5,0,0,0,679.512207
1024,-879,6,0,0,0,781.179138
1081,1719,1,0,0,0,616.125549
981,590,2,0,0,0,828.481750
-1987,837,3,0,0,0,625.010620
-501,1078,4,1,0,0,15.774721
-1467,-940,5,0,0,0,685.833191
1420,-937,6,0,0,0,714.722534
1066,1629,1,0,0,0,628.130493
1474,647,2,1,0,0,5.757253
-823,136,3,1,0,0,32.284084
-109,641,4,0,0,0,1010.629578
-995,-1670,5,1,0,0,2.830843
1129,-714,6,0,0,0,784.109680
298,774,1,1,0,0,27.813124
1432,698,2,0,0,0,733.562500
-1983,898,3,0,0,0,622.282227
-860,1181,4,1,0,0,8.711511
-1837,-1196,5,0,0,0,620.305054
909,-1799,6,0,0,0,666.214233
862,1768,1,0,0,0,625.197693
474,40,2,0,0,0,1081.490601
-594,516,3,0,0,0,914.219543
-289,1669,4,0,0,0,735.117859
-658,-1470,5,0,0,0,708.344360
361,-1597,6,0,0,0,725.709656
45,886,1,0,0,0,853.425415
1981,638,2,1,0,0,2.692660
-530,495,3,0,0,0,937.710754
-1558,1680,4,0,0,0,648.682800
-71,-338,5,1,0,0,218.056808
1750,-1454,6,0,0,0,631.646912
625,1862,1,0,0,0,625.610413
1027,686,2,1,0,0,12.452619
-439,309,3,0,0,0,1024.390503
-28,811,4,0,0,0,946.767761
-357,-1675,5,1,0,0,4.121296
1214,-1447,6,0,0,0,684.788208
567,1019,1,0,0,0,774.811096
1869,380,2,0,0,0,682.011230
-1911,1007,3,0,0,0,624.483887
-1429,1536,4,0,0,0,673.853577
-1333,-556,5,0,0,0,739.570496
1832,-1328,6,0,0,0,633.218628
10,63,1,1,0,0,887.146301
1216,1100,2,0,0,0,725.286438
-1336,1146,3,0,0,0,682.917297
-109,927,4,1,0,0,30.880270
-859,-149,5,0,0,0,884.677551
1946,-608,6,0,0,0,662.950867
344,510,1,1,0,0,60.508091
503,142,2,0,0,0,1054.333984
-1559,256,3,0,0,0,713.851562
-36,1497,4,0,0,0,770.485291
-1786,-1540,5,0,0,0,599.521423
29,-1883,6,0,0,0,685.635681
432,1447,1,0,0,0,700.678650
819,135,2,1,0,0,37.512920
-1836,1311,3,1,0,0,1.817487
-634,864,4,0,0,0,866.676697
-846,-1306,5,0,0,0,718.202454
766,-1203,6,0,0,0,765.315063
104,1149,1,0,0,0,777.888855
1358,455,2,0,0,0,764.104370
-1423,911,3,0,0,0,694.619934
-501,901,4,0,0,0,877.832092
-764,-955,5,1,0,0,11.046578
711,-1344,6,0,0,0,746.937256
1074,1309,1,1,0,0,3.560827
1019,690,2,0,0,0,807.680969
-787,572,3,0,0,0,853.101929
-583,1321,4,0,0,0,780.935120
-1773,-1643,5,0,0,0,592.510132
695,-174,6,0,0,0,963.420044
102,254,1,1,0,0,278.980927
556,498,2,1,0,0,49.403374
-1555,1294,3,0,0,0,643.170898
-666,797,4,0,0,0,875.686340
-1735,-1062,5,0,0,0,641.590332
1475,-926,6,0,0,0,708.016785
1846,1870,1,0,0,0,543.110229
1793,636,2,0,0,0,682.729187
-1807,750,3,0,0,0,652.709839
-869,896,4,0,0,0,822.804993
-1572,-1891,5,1,0,0,1.405402
1921,-1497,6,0,0,0,612.277832
967,1468,1,0,0,0,657.241150
1489,1227,2,0,0,0,678.705261
-1245,1085,3,0,0,0,701.164246
-729,1817,4,0,0,0,693.628479
-1973,-335,5,0,0,0,646.253540
1799,-150,6,0,0,0,697.736938
438,821,1,1,0,0,20.232758
1931,1326,2,0,0,0,623.353271
-1963,1711,3,0,0,0,571.413940
-44,1331,4,0,0,0,804.179138
-1817,-840,5,1,0,0,2.594671
964,-33,6,1,0,0,25.004074
1604,1797,1,1,0,0,1.246820
1910,26,2,0,0,0,681.571106
-1898,247,3,0,0,0,658.973694
-726,1551,4,0,0,0,731.974487
-1384,-81,5,1,0,0,7.673602
1065,-961,6,0,0,0,763.646423
0,1987,1,0,0,0,622.309265
1862,1280,2,0,0,0,633.619141
-1867,204,3,0,0,0,664.380188
-1289,1408,4,1,0,0,3.970273
-1610,-1520,5,0,0,0,617.446411
355,-1819,6,0,0,0,690.215149
674,998,1,0,0,0,765.567261
1227,243,2,1,0,0,12.005812
-1252,439,3,0,0,0,763.935913
-861,1055,4,0,0,0,797.772705
-1237,-329,5,0,0,0,774.232422
363,-1638,6,1,0,0,5.096990
870,1796,1,0,0,0,621.076294
1618,532,2,1,0,0,4.875443
-740,426,3,0,0,0,890.673401
-817,1124,4,1,0,0,10.076081
-1006,-227,5,0,0,0,836.334656
1697,-649,6,1,0,0,4.028403
287,1222,1,0,0,0,753.667358
396,382,2,1,0,0,101.402527
-1281,999,3,0,0,0,705.876038
-1297,1728,4,0,0,0,665.443115
-1895,-1826,5,1,0,0,1.147758
1717,-209,6,0,0,0,709.981689
316,1659,1,0,0,0,668.686218
1895,1609,2,0,0,0,606.439636
-530,267,3,1,0,0,76.252907
-1012,1400,4,0,0,0,729.480469
-1337,-1139,5,1,0,0,3.824804
754,-471,6,0,0,0,901.248047
24,720,1,0,0,0,913.366455
1936,365,2,1,0,0,3.169077
-1342,1010,3,0,0,0,696.323425
-299,1095,4,1,0,0,17.978125
-189,-845,5,1,0,0,29.187244
297,-1171,6,0,0,0,812.999268
440,1820,1,0,0,0,639.228577
1353,577,2,0,0,0,756.450928
-821,321,3,1,0,0,27.798586
-665,1620,4,0,0,0,725.572449
-326,-1238,5,0,0,0,774.187500
747,-1952,6,1,0,0,2.658912
81,462,1,1,0,0,112.136246
1590,708,2,1,0,0,4.573550
-491,316,3,0,0,0,1000.169983
-1257,1319,4,0,0,0,714.205383
-1979,-432,5,0,0,0,642.801697
683,-1187,6,0,0,0,776.964233
1869,1879,1,0,0,0,540.698914
159,138,2,0,0,0,1316.615234
-1229,990,3,1,0,0,5.246556
-1556,1843,4,0,0,0,634.034912
-884,-898,5,1,0,0,10.131611
34,-293,6,1,0,0,292.930969
1083,1832,1,0,0,0,602.788574
1739,1188,2,0,0,0,653.679565
-1923,1921,3,0,0,0,559.285278
-853,1622,4,0,0,0,712.545837
-3,-1721,5,0,0,0,689.355164
1820,-1759,6,0,0,0,601.324036
651,916,1,0,0,0,785.438965
1944,1385,2,0,0,0,618.000000
-900,874,3,1,0,0,10.262259
-986,1652,4,0,0,0,698.629517
-878,-320,5,0,0,0,864.694641
144,-1394,6,0,0,0,770.342285
356,939,1,0,0,0,817.767456
541,102,2,1,0,0,101.278206
-514,67,3,0,0,0,1034.498901
-1171,1346,4,0,0,0,720.236511
-712,-708,5,0,0,0,844.023132
1323,-695,6,0,0,0,751.893555
390,681,1,1,0,0,32.307014
312,153,2,0,0,0,1172.055542
-800,232,3,0,0,0,897.809021
-241,1286,4,0,0,0,809.261902
-35,-1885,5,1,0,0,3.100299
43,-1181,6,0,0,0,819.326904
96,1354,1,0,0,0,731.224976
1164,661,2,0,0,0,783.516663
-1787,117,3,0,0,0,677.980713
-1210,-271,5,0,0,0,783.357971
24,-618,6,0,0,0,1005.808228
1629,1953,1,0,0,0,552.326111
1570,178,2,0,0,0,735.911865
-1271,537,3,1,0,0,7.781028
-1835,-238,5,0,0,0,668.631714
1233,-792,6,0,0,0,757.515076
1166,1978,1,0,0,0,581.237610
901,38,2,0,0,0,897.137451
-1700,404,3,1,0,0,3.883662
-469,-965,5,0,0,0,824.949646
185,-1575,6,0,0,0,734.866516
1399,1603,1,0,0,0,602.860718
1833,566,2,0,0,0,680.343323
-1426,1032,3,1,0,0,3.799948
-1957,-912,5,0,0,0,624.617432
525,-913,6,0,0,0,852.466980
1067,421,2,0,0,0,827.904724
-1989,1282,3,0,0,0,598.548096
-1620,-470,5,0,0,0,695.099609
526,-1642,6,0,0,0,710.890686
1651,1202,2,0,0,0,662.469666
-1496,1171,3,0,0,0,661.100220
-1369,-1239,5,0,0,0,669.241638
1478,-32,6,0,0,0,755.000854
1299,586,2,0,0,0,765.538757
-1739,1640,3,0,0,0,595.684937
-512,-446,5,0,0,0,956.674500
183,-704,6,0,0,0,959.050659
1564,1199,2,0,0,0,672.651733
-1078,1024,3,0,0,0,731.249390
-60,-1310,5,1,0,0,9.024086
1237,-172,6,0,0,0,803.445435
1974,1514,2,1,0,0,1.582643
-910,311,3,0,0,0,856.443481
-1213,-1593,5,0,0,0,646.108704
213,-80,6,1,0,0,394.654022
1904,1629,2,0,0,0,604.182495
-1671,979,3,0,0,0,655.612671
-488,-1537,5,0,0,0,707.977539
1738,-207,6,0,0,0,706.588928
1370,662,2,0,0,0,746.733337
-1414,796,3,0,0,0,706.199036
-1865,-1289,5,1,0,0,1.791127
302,-23,6,0,0,0,1211.699951
974,645,2,0,0,0,822.649902
-1706,124,3,0,0,0,691.106934
-555,-1473,5,0,0,0,714.903503
806,-803,6,0,0,0,830.250183
1046,274,2,0,0,0,844.888184
-832,84,3,0,0,0,896.680908
-1934,-579,5,0,0,0,643.759644
843,-128,6,0,0,0,913.273865
1990,748,2,0,0,0,650.997986
-941,250,3,1,0,0,21.127548
-1400,-852,5,0,0,0,703.351257
1184,-509,6,1,0,0,11.014603
1778,740,2,1,0,0,3.390033
-1780,334,3,1,0,0,3.492739
-1089,-1379,5,0,0,0,683.409668
346,-526,6,1,0,0,74.888023
1846,1676,2,0,0,0,605.596313
-1803,-1877,5,1,0,0,1.186278
1704,-1650,6,0,0,0,619.790771
-1314,-825,5,0,0,0,719.041138
1631,-1071,6,0,0,0,675.494934
-1378,-805,5,0,0,0,710.960388
295,-428,6,0,0,0,1055.906860
-718,-1154,5,0,0,0,757.010620
1431,-1851,6,1,0,0,1.900493
-330,-1937,5,0,0,0,651.480469
1345,-771,6,1,0,0,6.430004
-1937,-1893,5,1,0,0,1.053203
1193,-720,6,0,0,0,771.983582
-1500,-815,5,0,0,0,691.674438
318,-1216,6,0,0,0,801.611938
-1244,-366,5,1,0,0,9.323636
825,-474,6,0,0,0,881.699280
-1454,-295,5,0,0,0,731.867981
1123,-1002,6,0,0,0,749.866272
-1368,-1610,5,0,0,0,630.800781
390,-335,6,0,0,0,1059.080933
-1553,-1237,5,0,0,0,648.514404
1889,-656,6,0,0,0,668.483643
-662,-426,5,0,0,0,914.073792
1436,-1024,6,0,0,0,704.400818
-648,-780,5,0,0,0,841.184265
178,-808,6,0,0,0,921.945862
-1613,-217,5,0,0,0,705.339783
1854,-1118,6,0,0,0,645.802307
-298,-1674,5,0,0,0,692.815552
382,-1453,6,0,0,0,750.373901
-846,-1988,5,1,0,0,2.067498
708,-1382,6,0,0,0,740.903015
-110,-1217,5,0,0,0,787.562561
208,-75,6,0,0,0,1302.478027
-841,-666,5,0,0,0,824.993042
659,-746,6,0,0,0,868.710144
-1290,-1140,5,0,0,0,689.266235
1450,-889,6,0,0,0,714.799011
-439,-734,5,0,0,0,890.199951
1916,-1815,6,0,0,0,589.453369
-1284,-1112,5,0,0,0,693.106689
643,-742,6,0,0,0,872.654419
-695,-1830,5,0,0,0,652.554382
1690,-1403,6,0,0,0,641.686279
-1627,-1774,5,0,0,0,593.699707
404,-1424,6,0,0,0,754.641418
-1225,-766,5,1,0,0,6.800771
878,-896,6,0,0,0,802.166138
-882,-454,5,1,0,0,20.053198
1304,-1831,6,0,0,0,635.091003
-980,-1372,5,0,0,0,695.225830
1268,-634,6,0,0,0,767.032288
-1509,-1600,5,1,0,0,1.960668
246,-1215,6,1,0,0,12.319880
-1859,-115,5,0,0,0,666.756531
1050,-117,6,0,0,0,851.562622
-1206,-1121,5,1,0,0,4.629522
482,-1921,6,1,0,0,3.119773
-1475,-1939,5,0,0,0,590.284912
903,-881,6,0,0,0,800.543274
-1778,-337,5,0,0,0,674.990479
340,-15,6,1,0,0,240.824768
-933,-280,5,1,0,0,21.099321
1152,-1066,6,0,0,0,737.827087
-1961,-996,5,1,0,0,1.960396
863,-540,6,0,0,0,862.238586
1390,-1156,6,0,0,0,697.318787
1431,-1448,6,1,0,0,2.875054
228,-454,6,0,0,0,1062.517212
838,-1297,6,0,0,0,742.502197
1147,-935,6,0,0,0,754.717285
1973,-402,6,0,0,0,666.508057
1549,-1670,6,0,0,0,631.325562
592,-178,6,0,0,0,1005.940918
1222,-423,6,1,0,0,10.907470
392,-1291,6,0,0,0,781.247986
435,-1479,6,1,0,0,6.536633
536,-356,6,1,0,0,71.146545
419,-1767,6,0,0,0,696.036560
1043,-1968,6,0,0,0,637.712830
1459,-996,6,0,0,0,703.940063
905,-785,6,0,0,0,815.403015
1601,-491,6,0,0,0,719.252563
658,-1353,6,0,0,0,749.965088
1855,-169,6,1,0,0,3.742144
856,-1992,6,1,0,0,2.384148
70,-998,6,0,0,0,867.249573
841,-945,6,0,0,0,799.756897
1621,-1539,6,1,0,0,2.177450
561,-1178,6,0,0,0,790.870178
7,-890,6,1,0,0,31.136196
988,-191,6,0,0,0,865.574158
80,-457,6,0,0,0,1088.694336


each generation good chromosome number
9,10,10,