each times' max average throughput
638.712219,653.452515,653.401428,618.486755,668.783936,653.543457,664.734924,637.374451,657.996826,661.615540,629.185364,638.940674,645.779846,644.863892,635.599854,641.823364,663.044861,642.215698,636.554993,648.437683,653.757324,654.475525,628.654968,647.363647,667.460144,627.334473,645.079834,655.428589,645.629272,640.333496,641.032043,632.878296,628.183960,618.572327,651.872009,657.952576,650.634521,652.348145,646.734863,627.127563,632.360168,623.674011,656.748535,622.910645,652.348145,672.829346,659.420959,637.735413,660.718750,655.931702,640.607849,640.281006,645.778076,637.762146,648.354004,648.787903,632.990173,660.712097,645.535217,645.535217,645.535217,645.535217,645.535217,645.535217,645.535217,645.535217,645.535217,645.535217,645.535217,645.535217,645.535217,645.535217,645.535217,645.535217,645.535217,645.535217,645.535217,645.535217,645.535217,645.535217,645.535217,645.535217,645.535217,645.535217,645.535217,645.535217,645.535217,645.535217,645.535217,645.535217,645.535217,645.535217,645.535217,645.535217,645.535217,645.535217,645.535217,645.535217,645.535217,645.535217,
avg. throughput in all test times
645.498291
avg. BS TX power in all test times
MBS area 1,MBS area 2,CBSD 1,CBSD 2,CBSD 3,CBSD 4,CBSD 5,CBSD 6,CBSD 7,
8.488,9.087,0.192,0.538,0.146,0.257,0.261,0.649,0.615,
avg. mbs all power,avg. cbsd enable number,avg. mbs area all power,avg. cbsd all power
41.950,3.000,17.575,2.659
avg. max avg. throughput generation number in all test times
1.030000
avg. number of relay UE
25



the max average throughput times

BS TX power
MBS area 1,MBS area 2,CBSD 1,CBSD 2,CBSD 3,CBSD 4,CBSD 5,CBSD 6,CBSD 7,
7.500,8.750,0.000,0.875,0.000,0.000,0.000,1.000,0.750,
max average throughput
645.535217

x,y,area,be blocked (1 : NLOS / 0 : LOS),be blocked number (>=1 : CBSD(x) / 0 : no),connect bs number (>=1 : CBSD / 0 : MBS),throughput (unit : M bps)
1073,645,1,0,0,0,780.599548
-651,-114,2,0,0,0,986.677002
1834,-324,1,0,0,0,666.780090
-1117,-399,2,0,0,0,818.272400
1305,-703,1,0,0,0,732.122864
-1121,1312,2,1,0,2,356.107025
933,1374,1,1,0,2,356.107025
-2000,251,2,1,0,2,356.107025
297,-598,1,0,0,0,961.519592
-357,-1158,2,0,0,0,812.119202
995,-559,1,0,0,0,807.194885
-1378,-1219,2,0,0,0,692.310608
1967,-1297,1,0,0,0,599.779419
-1139,591,2,1,0,2,356.107025
371,1973,1,0,0,0,645.351013
-1815,-1690,2,0,0,0,607.121704
1682,1390,1,1,0,2,356.107025
-4,-1510,2,0,0,0,748.920410
1575,-1061,1,0,0,0,661.215088
-761,912,2,1,0,2,356.107025
390,888,1,0,0,0,854.002747
-1067,-1125,2,1,0,2,356.107025
1896,515,1,0,0,0,651.511047
-1442,-1824,2,0,0,0,625.462585
11,612,1,0,0,0,986.573975
-1771,-1187,2,0,0,0,650.185608
1749,-1313,1,0,0,0,620.958557
-1095,1820,2,0,0,0,651.256409
684,-1807,1,0,0,0,656.283203
-708,-1062,2,0,0,0,797.193604
250,-1051,1,0,0,0,822.975281
-1683,-1333,2,0,0,0,648.191833
1529,-1650,1,0,0,0,612.938599
-1527,-469,2,0,0,0,732.781494
823,1274,1,0,0,0,725.545288
-419,-609,2,0,0,0,954.405396
941,44,1,0,0,0,862.384460
-450,939,2,1,0,2,356.107025
1487,333,1,0,0,0,724.202271
-1812,-224,2,0,0,0,694.497009
630,1100,1,0,0,2,356.107025
-628,1046,2,0,0,0,810.166138
695,1744,1,0,0,0,664.491150
-658,-1151,2,0,0,0,786.273010
1330,-868,1,0,0,0,712.349792
-1363,-1696,2,0,0,0,644.381165
1792,-1045,1,0,0,0,636.010071
-1219,861,2,0,0,0,752.284241
1535,1915,1,1,0,2,356.107025
-1860,-1428,2,1,0,2,356.107025
63,-1935,1,0,0,0,655.707520
-916,-1907,2,0,0,0,652.390686
949,1226,1,0,0,0,719.252075
-1113,1231,2,0,0,0,721.838318
306,-1234,1,1,0,2,356.107025
-462,-1688,2,0,0,0,706.621887
1467,-369,1,0,0,0,726.304626
-1167,-1543,2,1,0,2,356.107025
594,668,1,0,0,0,877.479126
-1037,364,2,0,0,0,840.207031
916,1012,1,1,0,2,356.107025
-872,1391,2,0,0,0,724.934692
886,1081,1,0,0,2,356.107025
-1204,-897,2,0,0,0,750.558899
1994,-575,1,1,0,2,356.107025
-373,1450,2,0,0,0,751.362976
1011,-302,1,0,0,0,829.758545
-1325,1943,2,0,0,0,622.220459
1247,-1462,1,0,0,0,657.846069
-1772,1371,2,0,0,0,636.034851
913,-674,1,0,0,0,808.822021
-468,-1017,2,0,0,0,834.894470
1561,225,1,1,0,2,356.107025
-1991,-1767,2,1,0,2,356.107025
558,-661,1,0,0,0,886.929321
-1291,970,2,1,0,2,356.107025
210,-1347,1,1,0,2,356.107025
-1073,-873,2,1,0,2,356.107025
897,-84,1,1,0,2,356.107025
-1525,-46,2,0,0,0,745.954895
1665,-1181,1,0,0,0,640.597473
-1325,-1907,2,0,0,0,625.833801
596,107,1,0,0,0,989.684509
-1121,802,2,0,0,0,775.109009
179,-42,1,0,0,0,1333.462646
-465,-1619,2,1,0,2,356.107025
1761,282,1,1,0,2,356.107025
-951,360,2,0,0,0,862.567993
1854,1368,1,0,0,0,606.126282
-783,738,2,0,0,0,846.305176
1032,-1720,1,0,0,0,645.597107
-1742,1919,2,0,0,0,594.601013
1295,1369,1,0,0,0,663.416260
-1250,510,2,1,0,2,356.107025
670,-1661,1,0,0,0,677.946533
-1661,1622,2,0,0,0,625.898804
177,-1497,1,1,0,2,356.107025
-679,-653,2,0,0,0,884.566040
498,1296,1,1,0,2,356.107025
-40,-291,2,0,0,0,1220.537842


each generation good chromosome number
10,10,8,