each times' max average throughput
643.399353,654.128784,646.036804,645.921082,639.546692,642.912720,671.548462,652.465271,638.622070,665.141174,643.679382,649.881592,624.215576,638.620300,626.101318,663.552551,671.616577,665.940796,658.994324,664.738770,649.177856,657.509705,658.755310,643.160645,635.737671,660.566650,659.299622,653.911194,637.238037,645.884155,646.086121,643.558350,653.486084,659.128845,643.172302,647.920532,648.911621,666.546265,672.523499,669.537598,664.339478,665.442993,649.249878,661.132080,641.351013,638.829590,666.963135,645.030640,639.421814,656.019836,641.999756,664.109741,663.806824,644.399841,630.252197,657.089905,646.905884,660.566650,650.115295,645.650391,663.382874,658.018677,644.743347,647.115295,661.126221,660.379517,661.450867,653.403137,641.873962,650.468872,656.357483,668.617249,634.840210,667.394165,654.135559,647.906982,645.289978,635.071045,665.513672,651.394165,665.199585,656.196045,647.018677,653.485291,637.800110,650.390564,644.849487,653.915771,646.338501,652.040527,652.805847,644.174744,669.537598,640.011353,632.458069,654.532654,661.275146,644.928650,655.776855,653.200562,
avg. throughput in all test times
651.762695
avg. BS TX power in all test times
MBS area 1,MBS area 2,CBSD 1,CBSD 2,CBSD 3,CBSD 4,CBSD 5,CBSD 6,CBSD 7,
8.988,9.125,0.239,0.376,0.185,0.226,0.368,0.240,0.322,
avg. mbs all power,avg. cbsd enable number,avg. mbs area all power,avg. cbsd all power
37.388,2.000,18.112,1.956
avg. max avg. throughput generation number in all test times
0.930000
avg. number of relay UE
25

the max average throughput times

BS TX power
MBS area 1,MBS area 2,CBSD 1,CBSD 2,CBSD 3,CBSD 4,CBSD 5,CBSD 6,CBSD 7,
8.750,10.000,0.000,0.000,1.000,0.000,0.625,0.000,0.875,
max average throughput
653.200562

x,y,area,be blocked (1 : NLOS / 0 : LOS),be blocked number (>=1 : CBSD(x) / 0 : no),connect bs number (>=1 : CBSD / 0 : MBS),throughput (unit : M bps)
1073,645,1,0,0,0,802.746826
-651,-114,2,0,0,0,1005.922180
1834,-324,1,0,0,0,688.816650
-1117,-399,2,0,0,0,837.474731
1305,-703,1,0,0,0,754.233032
-1121,1312,2,1,0,5,533.113708
933,1374,1,1,0,5,227.170990
-2000,251,2,1,0,5,264.769257
297,-598,1,0,0,0,983.732666
-357,-1158,2,0,0,0,831.318848
995,-559,1,0,0,0,829.357361
-1378,-1219,2,0,0,0,711.426392
1967,-1297,1,0,0,0,621.695923
-1139,591,2,1,0,5,494.917114
371,1973,1,0,0,0,667.355042
-1815,-1690,2,0,0,0,626.117676
1682,1390,1,1,0,5,154.368484
-4,-1510,2,0,0,0,768.084412
1575,-1061,1,0,0,0,683.243652
-761,912,2,1,0,5,963.283203
390,888,1,0,0,0,876.186707
-1067,-1125,2,1,0,5,180.914917
1896,515,1,0,0,0,673.524902
-1442,-1824,2,0,0,0,644.490662
11,612,1,0,0,0,1008.791260
-1771,-1187,2,0,0,0,669.250916
1749,-1313,1,0,0,0,642.919189
-1095,1820,2,0,0,0,670.323181
684,-1807,1,0,0,0,678.304443
-708,-1062,2,0,0,0,816.386230
250,-1051,1,0,0,0,845.145691
-1683,-1333,2,0,0,0,667.254395
1529,-1650,1,0,0,0,634.883240
-1527,-469,2,0,0,0,751.933594
823,1274,1,0,0,0,747.649414
-419,-609,2,0,0,0,973.645691
941,44,1,0,0,0,884.571594
-450,939,2,1,0,5,649.086243
1487,333,1,0,0,0,746.305420
-1812,-224,2,0,0,0,713.615051
630,1100,1,0,0,0,799.165955
-628,1046,2,0,0,5,865.462402
695,1744,1,0,0,0,686.524353
-658,-1151,2,0,0,0,805.459961
1330,-868,1,0,0,0,734.441040
-1363,-1696,2,0,0,0,663.438354
1792,-1045,1,0,0,0,657.998047
-1219,861,2,0,0,0,771.450623
1535,1915,1,1,0,5,154.496216
-1860,-1428,2,1,0,5,139.644043
63,-1935,1,0,0,0,677.727539
-916,-1907,2,0,0,0,671.459045
949,1226,1,0,0,0,741.350464
-1113,1231,2,0,0,0,740.981628
306,-1234,1,1,0,3,235.212250
-462,-1688,2,0,0,0,725.751709
1467,-369,1,0,0,0,748.409546
-1167,-1543,2,1,0,5,146.016022
594,668,1,0,0,0,899.671143
-1037,364,2,0,0,0,859.418213
916,1012,1,1,0,5,234.686386
-872,1391,2,0,0,0,744.080566
886,1081,1,0,0,0,771.105774
-1204,-897,2,0,0,0,769.724121
1994,-575,1,1,0,3,196.532013
-373,1450,2,0,0,0,770.528687
1011,-302,1,0,0,0,851.932190
-1325,1943,2,0,0,0,641.243164
1247,-1462,1,0,0,0,679.869629
-1772,1371,2,0,0,0,655.079651
913,-674,1,0,0,0,830.985352
-468,-1017,2,0,0,0,854.103577
1561,225,1,1,0,3,177.539749
-1991,-1767,2,1,0,5,117.918648
558,-661,1,0,0,0,909.124634
-1291,970,2,1,0,5,505.164337
210,-1347,1,1,0,3,214.420609
-1073,-873,2,1,0,5,206.205338
897,-84,1,1,0,3,233.665756
-1525,-46,2,0,0,0,765.116882
1665,-1181,1,0,0,0,662.593628
-1325,-1907,2,0,0,0,644.862488
596,107,1,0,0,0,1011.902222
-1121,802,2,0,0,0,794.289734
179,-42,1,0,0,0,1355.699951
-465,-1619,2,1,0,3,143.946945
1761,282,1,1,0,3,163.462570
-951,360,2,0,0,0,881.786804
1854,1368,1,0,0,0,628.056702
-783,738,2,0,0,0,865.518494
1032,-1720,1,0,0,0,667.601501
-1742,1919,2,0,0,0,613.572632
1295,1369,1,0,0,0,685.447998
-1250,510,2,1,0,5,441.197266
670,-1661,1,0,0,0,699.998169
-1661,1622,2,0,0,0,644.927612
177,-1497,1,1,0,3,199.879974
-679,-653,2,0,0,0,903.791260
498,1296,1,1,0,5,294.290100
-40,-291,2,0,0,0,1239.798584


each generation good chromosome number
10,8,10,