486.302185,486.302185,486.302185,486.302185,486.302185,486.302185,486.302185,486.302185,486.302185,486.302185,486.302185,486.302185,486.302185,486.302185,486.302185,486.302185,486.302185,486.302185,486.302185,486.302185,486.302185,486.302185,486.302185,486.302185,486.302185,486.302185,486.302185,486.302185,486.302185,486.302185,486.302185,486.302185,486.302185,486.302185,486.302185,486.302185,486.302185,486.302185,486.302185,486.302185,486.302185,486.302185,486.302185,486.302185,486.302185,486.302185,486.302185,486.302185,486.302185,486.302185,486.302185,486.302185,486.302185,486.302185,486.302185,486.302185,486.302185,486.302185,486.302185,486.302185,486.302185,486.302185,486.302185,486.302185,486.302185,486.302185,486.302185,486.302185,486.302185,486.302185,486.302185,486.302185,486.302185,486.302185,486.302185,486.302185,486.302185,486.302185,486.302185,486.302185,486.302185,486.302185,486.302185,486.302185,486.302185,486.302185,486.302185,486.302185,486.302185,486.302185,486.302185,486.302185,486.302185,486.302185,486.302185,486.302185,486.302185,486.302185,486.302185,486.302185,

avg. max avg. throughput in test times
486.301849
avg. BS TX power in all test times
MBS area 1,MBS area 2,CBSD 1,CBSD 2,CBSD 3,CBSD 4,CBSD 5,CBSD 6,CBSD 7,
10.000,10.000,1.000,0.000,0.000,1.000,0.000,1.000,1.000,
avg. mbs all power,avg. cbsd enable number,avg. mbs area all power,avg. cbsd all power
50.000,4.000,20.000,4.000
avg. number of relay UE
56

BS TX power
MBS area 1,MBS area 2,CBSD 1,CBSD 2,CBSD 3,CBSD 4,CBSD 5,CBSD 6,CBSD 7,
10.000,10.000,1.000,0.000,0.000,1.000,0.000,1.000,1.000,
max average power
614.219666

x,y,area,be blocked (1 : NLOS / 0 : LOS),be blocked number (>=1 : CBSD(x) / 0 : no),connect bs number (>=1 : CBSD / 0 : MBS),throughput (unit : M bps)
1073,645,1,0,0,0,821.942139
-651,-114,2,0,0,0,1005.922180
1834,-324,1,0,0,4,114.176239
-1117,-399,2,0,0,0,837.474731
1305,-703,1,0,0,0,773.400696
-1121,1312,2,1,0,1,368.536896
933,1374,1,1,0,4,107.199547
-2000,251,2,1,0,4,176.978165
297,-598,1,0,0,0,1002.977417
-357,-1158,2,0,0,0,831.318848
995,-559,1,0,0,0,848.564331
-1378,-1219,2,0,0,4,302.856445
1967,-1297,1,0,0,4,108.777557
-1139,591,2,1,0,1,403.212891
371,1973,1,0,0,4,96.953186
-1815,-1690,2,0,0,4,207.288483
1682,1390,1,1,0,4,87.249161
-4,-1510,2,0,0,0,768.084412
1575,-1061,1,0,0,4,129.938202
-761,912,2,1,0,1,449.747040
390,888,1,0,0,0,895.409668
-1067,-1125,2,1,0,4,389.594208
1896,515,1,0,0,4,99.310539
-1442,-1824,2,0,0,4,226.421280
11,612,1,0,0,0,1028.039185
-1771,-1187,2,0,0,4,242.511658
1749,-1313,1,0,0,4,118.864090
-1095,1820,2,0,0,1,115.850723
684,-1807,1,0,0,4,172.007812
-708,-1062,2,0,0,0,816.386230
250,-1051,1,0,0,0,864.358643
-1683,-1333,2,0,0,4,246.056259
1529,-1650,1,0,0,4,125.459328
-1527,-469,2,0,0,0,751.933594
823,1274,1,0,0,0,766.812622
-419,-609,2,0,0,0,973.645691
941,44,1,0,0,0,903.796875
-450,939,2,1,0,1,270.239319
1487,333,1,0,0,0,765.467651
-1812,-224,2,0,0,4,221.678482
630,1100,1,0,0,0,818.359497
-628,1046,2,0,0,0,829.364929
695,1744,1,0,0,4,99.630707
-658,-1151,2,0,0,0,805.459961
1330,-868,1,0,0,0,753.594482
-1363,-1696,2,0,0,4,246.915787
1792,-1045,1,0,0,4,118.464645
-1219,861,2,0,0,0,771.450623
1535,1915,1,1,0,4,78.427246
-1860,-1428,2,1,0,4,219.401230
63,-1935,1,0,0,4,207.354828
-916,-1907,2,0,0,4,243.257874
949,1226,1,0,0,0,760.509094
-1113,1231,2,0,0,0,740.981628
306,-1234,1,1,0,4,235.768021
-462,-1688,2,0,0,0,725.751709
1467,-369,1,0,0,0,767.573242
-1167,-1543,2,1,0,4,286.519928
594,668,1,0,0,0,918.900330
-1037,364,2,0,0,0,859.418213
916,1012,1,1,0,4,121.059151
-872,1391,2,0,0,0,744.080566
886,1081,1,0,0,0,790.284180
-1204,-897,2,0,0,0,769.724121
1994,-575,1,1,0,4,108.588371
-373,1450,2,0,0,0,770.528687
1011,-302,1,0,0,0,871.147461
-1325,1943,2,0,0,1,158.354706
1247,-1462,1,0,0,4,144.966400
-1772,1371,2,0,0,1,189.816315
913,-674,1,0,0,0,850.192993
-468,-1017,2,0,0,0,854.103577
1561,225,1,1,0,4,118.498573
-1991,-1767,2,1,0,4,188.153671
558,-661,1,0,0,0,928.356018
-1291,970,2,1,0,1,380.618683
210,-1347,1,1,0,4,241.681580
-1073,-873,2,1,0,4,430.596527
897,-84,1,1,0,4,164.526337
-1525,-46,2,0,0,0,765.116882
1665,-1181,1,0,0,4,124.262230
-1325,-1907,2,0,0,4,225.347916
596,107,1,0,0,0,1031.150513
-1121,802,2,0,0,0,794.289734
179,-42,1,0,0,0,1374.962891
-465,-1619,2,1,0,4,284.355255
1761,282,1,1,0,4,108.739670
-951,360,2,0,0,0,881.786804
1854,1368,1,0,0,4,83.511177
-783,738,2,0,0,0,865.518494
1032,-1720,1,0,0,4,152.151917
-1742,1919,2,0,0,4,100.758995
1295,1369,1,0,0,4,97.722473
-1250,510,2,1,0,4,197.442902
670,-1661,1,0,0,4,179.660522
-1661,1622,2,0,0,4,114.294479
177,-1497,1,1,0,4,234.846237
-679,-653,2,0,0,0,903.791260
498,1296,1,1,0,4,121.890312
-40,-291,2,0,0,0,1239.798584
