each times' max average throughput
0.000000,0.000000,0.000000,0.000000,0.000000,0.000000,559.577332,0.000000,562.197571,0.000000,0.000000,0.000000,0.000000,0.000000,0.000000,0.000000,553.667847,0.000000,562.562683,0.000000,0.000000,0.000000,0.000000,550.016113,0.000000,0.000000,0.000000,0.000000,0.000000,0.000000,0.000000,0.000000,0.000000,0.000000,553.855896,0.000000,0.000000,0.000000,0.000000,0.000000,0.000000,562.256042,541.952637,0.000000,0.000000,0.000000,0.000000,561.443298,0.000000,0.000000,553.012878,0.000000,0.000000,0.000000,0.000000,0.000000,0.000000,0.000000,551.243958,0.000000,0.000000,0.000000,0.000000,0.000000,0.000000,0.000000,439.200562,0.000000,0.000000,0.000000,554.639526,0.000000,558.772644,0.000000,0.000000,0.000000,0.000000,0.000000,0.000000,0.000000,0.000000,0.000000,0.000000,0.000000,0.000000,0.000000,0.000000,0.000000,0.000000,0.000000,0.000000,0.000000,0.000000,0.000000,0.000000,562.766785,0.000000,0.000000,0.000000,0.000000,
avg. throughput in all test times
82.271660
avg. BS TX power in all test times
MBS area 1,MBS area 2,MBS area 3,MBS area 4,MBS area 5,MBS area 6,MBS area 7,CBSD 1,CBSD 2,CBSD 3,CBSD 4,CBSD 5,CBSD 6,
6.238,6.625,6.425,6.162,6.000,6.875,5.912,0.000,0.000,0.040,0.000,0.000,0.000,
avg. mbs all power,avg. cbsd enable number,avg. mbs area all power,avg. cbsd all power
44.537,0.000,44.237,0.040
avg. max avg. throughput generation number in all test times
0.120000
avg. number of relay UE
16

the max average throughput times

BS TX power
MBS area 1,MBS area 2,MBS area 3,MBS area 4,MBS area 5,MBS area 6,MBS area 7,CBSD 1,CBSD 2,CBSD 3,CBSD 4,CBSD 5,CBSD 6,
7.500,6.250,6.250,7.500,5.000,5.000,10.000,0.000,0.000,0.000,0.000,0.000,0.000,
max average throughput
562.766785

x,y,area,be blocked (1 : NLOS / 0 : LOS),be blocked number (>=1 : CBSD(x) / 0 : no),connect bs number (>=1 : CBSD / 0 : MBS),throughput (unit : M bps)
1036,1759,1,1,0,0,2.447671
1153,159,2,0,0,0,775.356995
-1646,1316,3,0,0,0,605.574341
-524,1973,4,1,0,0,2.447722
-305,-769,5,1,0,0,22.823711
-1812,-768,6,0,0,0,593.319519
598,-1941,7,0,0,0,683.120544
1661,1820,1,0,0,0,587.072266
836,352,2,0,0,0,847.029236
-416,197,3,1,0,0,116.601715
-278,1459,4,0,0,0,731.554138
-84,-1788,5,0,0,0,620.275024
-590,-17,6,0,0,0,938.629089
892,-162,7,0,0,0,914.839844
1033,1600,1,0,0,0,660.396362
1990,1721,2,0,0,0,542.757202
-439,53,3,0,0,0,1054.033936
-1557,1679,4,0,0,0,607.889465
-602,-989,5,0,0,0,744.839050
-580,-308,6,0,0,0,907.893127
1435,-1998,7,0,0,0,628.430725
1123,1955,1,0,0,0,612.299072
235,83,2,1,0,0,314.339783
-1888,1762,3,0,0,0,548.001160
-691,1401,4,0,0,0,717.086487
-797,-1228,5,0,0,0,677.636414
-1279,-1187,6,0,0,0,627.530090
1799,-294,7,0,0,0,714.074768
191,992,1,0,0,0,842.273865
996,962,2,1,0,0,6.445086
-1401,682,3,0,0,0,691.709595
-1785,1807,4,0,0,0,578.465027
-116,-1684,5,0,0,0,636.984253
-906,-649,6,0,0,0,755.787170
618,-1515,7,0,0,0,745.047974
405,1290,1,0,0,0,758.503662
1109,960,2,0,0,0,709.013062
-1078,475,3,0,0,0,771.899109
-66,1111,4,1,0,0,14.481692
-332,-1490,5,0,0,0,665.674438
-1731,-100,6,0,0,0,629.339722
1618,-1534,7,1,0,0,2.504508
704,1641,1,0,0,0,678.810486
1346,811,2,0,0,0,689.284302
-1755,1456,3,1,0,0,1.468388
-42,1772,4,0,0,0,680.922302
-1628,-1973,5,1,0,0,0.834091
-1862,-1789,6,0,0,0,516.648682
86,-721,7,1,0,0,59.166023
1315,1318,1,0,0,0,666.869934
1374,1252,2,1,0,0,2.699243
-964,405,3,1,0,0,14.549530
-890,1799,4,0,0,0,645.417175
-547,-1450,5,0,0,0,661.365112
-1265,-1174,6,0,0,0,630.665894
1234,-250,7,0,0,0,820.309143
464,961,1,0,0,0,826.502686
1562,688,2,1,0,0,3.477412
-1111,615,3,0,0,0,750.346436
-706,1687,4,0,0,0,671.986755
-318,-1836,5,1,0,0,2.148005
-1824,-224,6,1,0,0,2.238441
144,-245,7,0,0,0,1249.335205
160,666,1,1,0,0,53.902153
1770,1553,2,0,0,0,574.095032
-886,150,3,0,0,0,849.730469
-504,1582,4,0,0,0,699.624756
-567,-831,5,0,0,0,785.188171
-544,-96,6,0,0,0,957.719299
90,-1693,7,0,0,0,734.854919
1464,1795,1,0,0,0,604.620056
1660,854,2,0,0,0,640.088318
-1168,639,3,0,0,0,736.777161
-434,1205,4,1,0,0,9.664777
-127,-381,5,0,0,0,1049.617432
-1400,-619,6,0,0,0,664.889587
1692,-335,7,0,0,0,729.916138
10,694,1,0,0,0,950.354004
1186,855,2,0,0,0,709.938660
-1442,988,3,1,0,0,3.239992
-18,1607,4,0,0,0,708.957703
-146,-374,5,0,0,0,1049.704956
-375,-153,6,0,0,0,1047.185303
219,-1986,7,0,0,0,687.805420
1035,1880,1,0,0,0,626.337280
507,476,2,0,0,0,923.526733
-1216,703,3,0,0,0,721.428711
-998,1589,4,0,0,0,664.638672
-531,-703,5,1,0,0,19.145807
-774,-683,6,0,0,0,777.787415
940,-120,7,0,0,0,902.089661
669,1983,1,0,0,0,633.496704
1239,964,2,1,0,0,4.454120
-1381,159,3,1,0,0,6.371896
-241,1212,4,0,0,0,784.344055
-505,-1784,5,1,0,0,2.180025
-667,-112,6,0,0,0,899.410400
1998,-333,7,0,0,0,683.892029
662,707,1,0,0,0,854.393494
1563,1426,2,0,0,0,604.450317
-785,727,3,1,0,0,13.624393
-305,1928,4,0,0,0,653.365173
-813,-859,5,1,0,0,8.223401
-1882,-1118,6,0,0,0,563.171570
1661,-324,7,0,0,0,735.377075
531,1499,1,0,0,0,711.973389
1220,121,2,0,0,0,760.437988
-724,15,3,0,0,0,911.868713
-584,1592,4,0,0,0,693.587769
-678,-1081,5,1,0,0,6.585885
-1021,-867,6,0,0,0,703.069580
1498,-202,7,0,0,0,767.789368
1259,1326,1,0,0,0,672.031921
1681,1622,2,0,0,0,576.362061
-1899,1346,3,0,0,0,577.370667
-11,1248,4,0,0,0,781.494263
-237,-1081,5,0,0,0,757.801025
-1847,-1528,6,0,0,0,537.547485
814,-97,7,0,0,0,943.844177
42,1142,1,1,0,0,13.427323
1050,12,2,1,0,0,14.374287
-1431,479,3,0,0,0,700.881592
-117,339,4,1,0,0,205.522568
-1049,-1614,5,0,0,0,599.605774
-1559,-883,6,0,0,0,620.001282
703,-1009,7,0,0,0,827.084717
85,355,1,0,0,0,1135.620972
1557,890,2,0,0,0,651.526611
-1480,662,3,0,0,0,680.348877
-435,725,4,0,0,0,893.510620
-1926,-1964,5,1,0,0,0.671061
-461,-213,6,1,0,0,79.991547
943,-991,7,1,0,0,10.543444
164,356,1,0,0,0,1115.094971
1659,1586,2,0,0,0,581.354614
-641,161,3,0,0,0,938.194580
-229,1190,4,0,0,0,789.954041
-720,-1825,5,0,0,0,594.207092
-1562,-381,6,0,0,0,650.866882
1611,-728,7,0,0,0,722.855835
793,1029,1,0,0,0,769.977051
1131,673,2,0,0,0,740.087952
-1994,1076,3,0,0,0,585.003357
-151,256,4,0,0,0,1194.907104
-535,-1427,5,0,0,0,666.151489
-930,-495,6,0,0,0,771.930359
1476,-747,7,0,0,0,741.898254
153,344,1,0,0,0,1126.708374
1906,108,2,1,0,0,2.493673
-1819,820,3,1,0,0,2.186480
-1321,1474,4,0,0,0,649.395081
-840,-1457,5,0,0,0,638.031616
-844,-108,6,0,0,0,833.332275
125,-1906,7,1,0,0,3.963062
25,1576,1,1,0,0,5.265676
465,80,2,1,0,0,110.757645
-1351,143,3,0,0,0,730.982483
-562,1510,4,0,0,0,708.229126
-194,-1910,5,0,0,0,600.361450
-1603,-503,6,0,0,0,638.325806
1873,-573,7,0,0,0,693.496765
757,871,1,0,0,0,804.009949
966,676,2,1,0,0,10.300873
-1699,798,3,0,0,0,638.522644
-1189,1451,4,0,0,0,664.711914
-1172,-1841,5,0,0,0,564.029358
-1401,-238,6,0,0,0,686.140686
113,-134,7,1,0,0,521.093933
1057,1543,1,1,0,0,3.174680
864,351,2,0,0,0,839.055298
-1575,425,3,0,0,0,678.586182
-1008,1188,4,0,0,0,717.844543
-975,-1725,5,0,0,0,591.388184
-1498,-735,6,0,0,0,640.277893
1679,-1069,7,1,0,0,3.507880
190,571,1,0,0,0,991.473938
1647,341,2,0,0,0,669.855347
-1607,1100,3,0,0,0,628.038452
-1043,1981,4,1,0,0,1.859480
-115,-366,5,0,0,0,1062.815308
-1684,-9,6,0,0,0,637.654785
1940,-593,7,0,0,0,683.461975
146,1825,1,1,0,0,3.382138
1572,476,2,0,0,0,676.638428
-498,496,3,0,0,0,920.463928
-798,1599,4,0,0,0,678.581421
-6,-1941,5,0,0,0,597.245056
-708,-227,6,0,0,0,872.151489
995,-1730,7,0,0,0,688.136597
165,1957,1,0,0,0,651.620850
237,195,2,0,0,0,1159.352051
-1602,1590,3,0,0,0,586.092773
-160,348,4,0,0,0,1121.749512
-1365,-1545,5,0,0,0,580.145874
-1209,-604,6,0,0,0,700.509949
584,-1991,7,1,0,0,3.101107
1675,1901,1,0,0,0,579.170288
1513,344,2,1,0,0,4.610467
-257,40,3,0,0,0,1207.095459
-1765,1947,4,0,0,0,568.826355
-1507,-1991,5,0,0,0,526.061829
-747,-259,6,1,0,0,25.865286
1107,-403,7,1,0,0,16.183432
222,453,1,0,0,0,1042.321899
1628,1215,2,0,0,0,616.019104
-1704,90,3,0,0,0,665.732666
-1095,1502,4,0,0,0,667.337219
-527,-613,5,0,0,0,848.069519
-992,-383,6,0,0,0,769.261047
793,-1259,7,0,0,0,772.313782
544,1783,1,0,0,0,666.513123
1162,752,2,0,0,0,725.639160
-426,4,3,0,0,0,1064.775513
-825,1259,4,0,0,0,727.723816
-673,-1312,5,1,0,0,4.302127
-1633,-949,6,1,0,0,2.063141
801,-1493,7,1,0,0,5.645200
434,1517,1,0,0,0,714.217468
1617,301,2,1,0,0,3.880431
-1970,621,3,0,0,0,611.276428
-1073,1229,4,1,0,0,4.756645
-1547,-1840,5,1,0,0,1.004332
-1123,-341,6,0,0,0,740.945862
215,-161,7,1,0,0,346.149017
222,1677,1,0,0,0,694.281616
1156,427,2,0,0,0,758.953918
-1146,446,3,0,0,0,759.563110
-268,388,4,0,0,0,1061.776611
-118,-1524,5,0,0,0,665.296326
-418,-182,6,0,0,0,1013.059204
302,-238,7,0,0,0,1162.117554
792,1753,1,0,0,0,657.544128
705,660,2,0,0,0,829.007996
-868,230,3,1,0,0,22.347090
-94,848,4,0,0,0,890.897949
-37,-1711,5,0,0,0,633.058716
-1702,-1458,6,0,0,0,556.527466
1959,-1901,7,0,0,0,598.828430
307,1194,1,0,0,0,785.017334
1091,1007,2,1,0,0,5.250636
-1270,553,3,0,0,0,725.417847
-711,1075,4,0,0,0,772.253723
-30,-1668,5,1,0,0,2.984326
-1363,-754,6,0,0,0,659.911499
1250,-25,7,0,0,0,822.330627
340,1038,1,0,0,0,819.813843
1211,502,2,0,0,0,741.215698
-1810,391,3,1,0,0,2.730180
-852,1414,4,0,0,0,701.266846
-68,-331,5,0,0,0,1099.416626
-1608,-1458,6,0,0,0,565.564392
1023,-355,7,1,0,0,20.521992
1643,1906,1,1,0,0,1.311954
991,783,2,0,0,0,751.900818
-1840,816,3,0,0,0,618.633911
-310,1226,4,0,0,0,777.713257
-161,-390,5,1,0,0,119.660904
-1700,-946,6,0,0,0,596.591125
1543,-35,7,1,0,0,7.422037
383,1023,1,0,0,0,819.793152
672,524,2,0,0,0,865.006836
-1504,1241,3,0,0,0,627.676636
-333,1926,4,0,0,0,652.985596
-158,-755,5,0,0,0,861.565125
-1434,-345,6,0,0,0,675.505432
242,-608,7,1,0,0,75.924759
222,1387,1,0,0,0,747.556702
1812,1214,2,1,0,0,1.676902
-764,492,3,1,0,0,21.618633
-1805,1850,4,0,0,0,573.524536
-38,-326,5,0,0,0,1107.821411
-249,-82,6,0,0,0,1172.635010
1558,-152,7,0,0,0,757.742004
1504,1993,1,0,0,0,583.321960
984,63,2,1,0,0,17.189894
-1750,283,3,0,0,0,654.837646
-317,657,4,1,0,0,45.942623
-42,-467,5,1,0,0,95.709267
-1528,-46,6,0,0,0,665.271973
1007,-1469,7,0,0,0,720.730164
1048,1846,1,1,0,0,2.179026
881,428,2,0,0,0,824.945801
-1969,1080,3,1,0,0,1.536945
-628,771,4,0,0,0,846.816223
-936,-1960,5,1,0,0,1.359887
-1210,-742,6,1,0,0,4.814742
149,-305,7,0,0,0,1198.072266
320,554,1,0,0,0,973.826904
1142,134,2,0,0,0,778.851868
-1365,937,3,1,0,0,3.805425
-378,503,4,0,0,0,978.631714
-1425,-1594,5,1,0,0,1.425328
-1575,-802,6,0,0,0,623.881958
1614,-955,7,0,0,0,705.940735
591,1478,1,0,0,0,711.701660
1937,1408,2,1,0,0,1.268847
-1945,1062,3,0,0,0,591.299744
-311,888,4,1,0,0,23.237085
-718,-1693,5,1,0,0,2.233886
-795,-142,6,1,0,0,24.397469
258,-1938,7,0,0,0,694.021912
1635,1887,1,0,0,0,583.323975
1387,911,2,1,0,0,3.779895
-763,548,3,0,0,0,836.957764
-1498,1712,4,0,0,0,609.754333
-1129,-1885,5,0,0,0,562.113281
-1382,-665,6,1,0,0,3.829745
1531,-1815,7,0,0,0,638.503845
775,923,1,0,0,0,791.526428
1397,1251,2,0,0,0,638.797852
-1316,47,3,0,0,0,739.924683
-577,1921,4,0,0,0,645.606079
-522,-1885,5,0,0,0,595.069275
-1540,-206,6,1,0,0,3.685273
445,-333,7,0,0,0,1055.858521
599,1481,1,1,0,0,5.060977
1999,1137,2,0,0,0,580.788574
-1863,1362,3,0,0,0,579.799927
-658,1109,4,0,0,0,772.106934
-98,-1519,5,0,0,0,666.495544
-1472,-412,6,0,0,0,665.294556
1317,-214,7,0,0,0,803.630249
109,1101,1,0,0,0,816.121277
939,361,2,0,0,0,817.257324
-1511,143,3,1,0,0,4.920677
-542,610,4,0,0,0,903.731567
-12,-1518,5,0,0,0,667.268188
-1345,-121,6,1,0,0,5.575789
1616,-946,7,1,0,0,4.202870
188,1581,1,0,0,0,711.637207
1280,650,2,0,0,0,715.174011
-1803,1350,3,1,0,0,1.523434
-26,747,4,1,0,0,43.144875
-435,-1007,5,0,0,0,760.337646
-1777,-1174,6,0,0,0,570.932190
49,-1181,7,0,0,0,838.472839
121,1494,1,0,0,0,728.932556
1412,1236,2,0,0,0,638.602051
-1698,1042,3,0,0,0,621.561401
-1689,1826,4,0,0,0,584.396729
-852,-1314,5,1,0,0,3.599984
-906,-525,6,0,0,0,773.682983
1831,-714,7,0,0,0,692.534058
666,1325,1,0,0,0,731.995911
1021,195,2,0,0,0,807.852661
-1181,612,3,0,0,0,737.039612
-829,1348,4,0,0,0,713.374451
-491,-1037,5,1,0,0,8.983498
-179,-166,6,1,0,0,293.924683
619,-1866,7,0,0,0,692.432007
393,1706,1,1,0,0,3.861780
882,179,2,0,0,0,849.291199
-1438,730,3,0,0,0,681.874573
-930,1895,4,0,0,0,631.043518
-1121,-1460,5,0,0,0,612.321533
-822,-555,6,0,0,0,789.268311
1088,-322,7,0,0,0,850.239502
498,631,1,0,0,0,908.055786
983,833,2,0,0,0,746.170105
-384,141,3,1,0,0,147.098724
-859,981,4,1,0,0,9.174625
-555,-1177,5,0,0,0,711.347595
-1280,-1170,6,1,0,0,2.659925
1847,-10,7,0,0,0,710.302673
1351,1592,1,0,0,0,634.155029
984,291,2,0,0,0,811.562378
-824,549,3,0,0,0,821.827698
-595,1459,4,0,0,0,714.617615
-401,-1474,5,0,0,0,665.481262
-1787,-788,6,1,0,0,1.867273
449,-1835,7,0,0,0,703.846985
39,1496,1,0,0,0,729.388794
1570,29,2,0,0,0,689.498413
-1969,1705,3,0,0,0,545.594849
-212,1465,4,0,0,0,732.519287
-146,-1310,5,0,0,0,707.668884
-1925,-604,6,1,0,0,1.694835
1316,-828,7,0,0,0,759.689636
1109,1562,1,1,0,0,2.956847
1855,1146,2,0,0,0,595.896912
-1999,1831,3,0,0,0,534.334961
-102,1498,4,1,0,0,6.074523
-425,-640,5,1,0,0,27.978611
-975,-857,6,1,0,0,6.262608
615,-697,7,1,0,0,31.226879
879,1688,1,1,0,0,3.014881
475,265,2,0,0,0,994.336182
-1471,444,3,0,0,0,695.710754
-1696,1910,4,1,0,0,1.254663
-104,-511,5,0,0,0,974.324341
-1957,-1707,6,1,0,0,0.797254
551,-911,7,1,0,0,21.515110
828,923,1,0,0,0,783.360474
484,123,2,0,0,0,1018.962280
-1704,972,3,0,0,0,625.952820
-590,1913,4,0,0,0,646.156799
-125,-822,5,1,0,0,22.507046
-660,-613,6,1,0,0,17.987160
1227,-1889,7,0,0,0,653.546204
294,934,1,0,0,0,851.253235
1577,165,2,0,0,0,686.717102
-1113,310,3,0,0,0,777.473877
-1291,1828,4,0,0,0,614.410156
-679,-1472,5,0,0,0,648.522888
-935,-215,6,0,0,0,798.818542
1330,-1605,7,0,0,0,675.697327
1537,1632,1,0,0,0,613.912964
1834,1379,2,1,0,0,1.441317
-981,918,3,1,0,0,7.041514
-1029,1233,4,0,0,0,709.159973
-395,-1663,5,0,0,0,633.414124
-521,-335,6,0,0,0,924.735657
1846,-1402,7,0,0,0,645.364563
901,1090,1,0,0,0,745.617737
1725,890,2,0,0,0,628.969910
-1085,464,3,0,0,0,771.402161
-528,1224,4,0,0,0,762.577759
-207,-1872,5,1,0,0,2.080534
-1975,-1660,6,0,0,0,516.887207
1296,-1978,7,0,0,0,639.673828
1181,1331,1,0,0,0,679.808105
509,449,2,0,0,0,930.527100
-1423,54,3,1,0,0,5.936575
-1082,1622,4,0,0,0,653.688110
-842,-1011,5,0,0,0,708.191650
-1864,-1134,6,0,0,0,564.100891
1179,-1425,7,0,0,0,709.918762
758,1576,1,0,0,0,684.769897
1229,1141,2,0,0,0,670.694702
-1242,876,3,1,0,0,4.900680
-335,1800,4,0,0,0,671.653381
-892,-997,5,0,0,0,703.425720
-1935,-146,6,1,0,0,1.903413
307,-1946,7,0,0,0,691.839050
32,1717,1,0,0,0,689.971924
948,939,2,0,0,0,736.141052
-1849,1575,3,0,0,0,565.321472
-1271,1938,4,1,0,0,1.677225
-483,-962,5,0,0,0,765.751892
-1031,-7,6,0,0,0,778.132080
1595,-1157,7,0,0,0,691.783508
1121,1719,1,0,0,0,639.079346
1370,1151,2,1,0,0,3.022915
-874,275,3,0,0,0,844.138367
-902,1069,4,0,0,0,748.774963
-509,-1897,5,1,0,0,1.836066
-1002,-276,6,1,0,0,11.961146
1788,-1823,7,0,0,0,617.803833
1391,1769,1,0,0,0,612.829163
1717,646,2,0,0,0,645.064148
-1884,771,3,1,0,0,2.059851
-315,1371,4,0,0,0,747.134827
-969,-1780,5,1,0,0,1.672176
-1055,-668,6,0,0,0,723.168274
1070,-1848,7,0,0,0,668.793091
1155,1835,1,0,0,0,623.411560
1791,621,2,0,0,0,635.722107
-1029,95,3,0,0,0,809.538635
-483,802,4,0,0,0,864.166748
-44,-573,5,0,0,0,946.325317
-943,-89,6,1,0,0,15.600544
1496,-1591,7,0,0,0,662.383118
1366,1830,1,0,0,0,608.662537
1435,1095,2,0,0,0,649.680054
-524,460,3,0,0,0,922.768921
-1377,1757,4,0,0,0,615.124268
-1036,-1577,5,0,0,0,605.283264
-1417,-974,6,0,0,0,631.718933
1390,-1673,7,0,0,0,663.533691
1310,1637,1,0,0,0,632.976624
1587,255,2,0,0,0,682.820618
-1537,1107,3,0,0,0,635.940430
-465,1370,4,0,0,0,739.083191
-189,-933,5,0,0,0,801.059326
-1060,-686,6,0,0,0,719.992126
969,-926,7,1,0,0,11.184423
420,1170,1,0,0,0,782.635254
153,102,2,0,0,0,1307.127808
-1401,46,3,1,0,0,6.217925
-522,717,4,0,0,0,879.745850
-60,-608,5,0,0,0,928.694824
-730,-425,6,0,0,0,835.428345
209,-1867,7,0,0,0,705.438904
547,646,1,0,0,0,893.173767
1346,1074,2,0,0,0,663.133240
-1980,102,3,0,0,0,622.936646
-1489,1534,4,1,0,0,2.133568
-316,-1258,5,0,0,0,712.275574
-1656,-390,6,1,0,0,2.815496
490,-759,7,0,0,0,915.847046
11,1577,1,0,0,0,714.366943
344,35,2,1,0,0,197.608414
-862,456,3,1,0,0,17.734943
-310,975,4,0,0,0,838.630554
-292,-1316,5,0,0,0,701.246765
-1372,-856,6,1,0,0,3.273184
13,-1942,7,0,0,0,695.939270
793,1918,1,0,0,0,635.867859
676,557,2,0,0,0,857.091064
-918,220,3,1,0,0,19.434267
-748,1406,4,0,0,0,711.556213
-998,-1942,5,0,0,0,563.895752
-1824,-1049,6,1,0,0,1.495114
1209,-1561,7,0,0,0,691.205200
871,893,1,0,0,0,781.635559
1497,303,2,1,0,0,4.829944
-1651,1357,3,0,0,0,601.597534
-14,558,4,0,0,0,1013.157410
-136,-224,5,1,0,0,267.640900
-931,-132,6,0,0,0,804.595459
1225,-670,7,1,0,0,9.936627
1221,1840,1,0,0,0,618.204712
1117,267,2,0,0,0,779.193726
-1198,934,3,0,0,0,698.986084
-1065,1269,4,0,0,0,700.257446
-246,-1325,5,0,0,0,701.323975
-1158,-401,6,0,0,0,728.552246
898,-160,7,0,0,0,913.081787
1006,1311,1,0,0,0,700.980652
406,335,2,1,0,0,87.325768
-424,51,3,1,0,0,135.472824
-218,871,4,0,0,0,876.204712
-33,-1913,5,1,0,0,1.985250
-1202,-781,6,0,0,0,683.660950
1908,-812,7,0,0,0,677.189392
211,1479,1,0,0,0,729.874878
1652,668,2,0,0,0,653.358398
-1589,400,3,0,0,0,677.320251
-893,1977,4,0,0,0,623.268494
-451,-1854,5,0,0,0,602.107056
-1026,-326,6,0,0,0,765.724915
1374,-498,7,0,0,0,777.467773
527,1292,1,1,0,0,7.530189
1902,1724,2,0,0,0,549.691162
-962,158,3,1,0,0,17.750013
-1669,1794,4,0,0,0,588.653748
-109,-1718,5,0,0,0,631.389893
-1085,-239,6,0,0,0,756.678589
684,-1918,7,1,0,0,3.278648
251,1186,1,1,0,0,11.331089
835,329,2,0,0,0,850.092407
-950,724,3,1,0,0,9.920846
-780,1336,4,0,0,0,719.872314
-538,-1755,5,0,0,0,613.111450
-1841,-1380,6,0,0,0,549.107300
531,-564,7,0,0,0,960.159058
70,464,1,0,0,0,1063.191406
174,81,2,0,0,0,1294.771484
-951,929,3,0,0,0,737.190552
-824,1912,4,0,0,0,634.972595
-384,-700,5,1,0,0,25.177999
-868,-355,6,0,0,0,805.367310
681,-1853,7,0,0,0,691.242859
1606,1821,1,0,0,0,591.245911
605,311,2,0,0,0,929.883362
-1129,396,3,0,0,0,767.442810
-884,1107,4,0,0,0,745.116272
-829,-1528,5,1,0,0,2.640693
-983,-374,6,0,0,0,772.417725
251,-1388,7,1,0,0,9.648081
130,1775,1,0,0,0,679.753845
1016,726,2,0,0,0,755.161438
-1971,653,3,0,0,0,609.794312
-705,1383,4,0,0,0,718.892639
-170,-1341,5,1,0,0,5.560019
-349,-250,6,0,0,0,1030.390991
1086,-1561,7,0,0,0,701.962463
125,1850,1,0,0,0,668.037903
1614,111,2,0,0,0,680.966248
-1664,935,3,1,0,0,2.495076
-366,1648,4,0,0,0,694.870300
-512,-1831,5,0,0,0,603.125488
-861,-94,6,0,0,0,828.228088
1239,-763,7,0,0,0,778.723206
773,1131,1,0,0,0,754.740723
1756,1618,2,0,0,0,570.149658
-1576,227,3,0,0,0,685.518860
-348,733,4,0,0,0,905.356628
-115,-1023,5,0,0,0,778.572815
-947,-94,6,0,0,0,801.148926
982,-518,7,0,0,0,856.495789
127,1591,1,0,0,0,710.932190
1710,1424,2,0,0,0,590.119934
-1591,1097,3,1,0,0,2.404632
-1286,1761,4,0,0,0,621.795654
-570,-1180,5,0,0,0,709.336609
-1456,-729,6,0,0,0,647.250122
1937,-1541,7,0,0,0,626.666504
818,1017,1,0,0,0,768.645874
1435,1019,2,0,0,0,656.896362
-1875,278,3,1,0,0,2.547096
-192,762,4,0,0,0,914.588379
-1027,-1986,5,0,0,0,557.193848
-1588,-587,6,1,0,0,2.856609
1175,-1645,7,1,0,0,3.350198
1787,1936,1,0,0,0,568.102173
682,52,2,1,0,0,46.372379
-967,777,3,0,0,0,757.061829
-696,1344,4,1,0,0,5.933456
-573,-1281,5,0,0,0,689.738159
-827,-393,6,0,0,0,812.241699
548,-1971,7,1,0,0,3.233938
1058,1181,1,0,0,0,712.815857
413,169,2,0,0,0,1051.403687
-1522,474,3,1,0,0,4.256799
-356,1366,4,0,0,0,746.135864
-286,-361,5,0,0,0,1010.128723
-1487,-83,6,1,0,0,4.177176
1760,-1511,7,0,0,0,645.168152
237,1500,1,0,0,0,725.186707
1480,1053,2,0,0,0,647.897644
-1925,862,3,1,0,0,1.853181
-526,1760,4,0,0,0,670.716553
-470,-1055,5,0,0,0,745.546936
-1539,-270,6,0,0,0,659.023315
1681,-735,7,1,0,0,4.464459
340,1581,1,0,0,0,707.173035
1824,689,2,0,0,0,627.691406
-1922,924,3,1,0,0,1.793251
-282,1499,4,0,0,0,723.926880
-942,-1808,5,0,0,0,583.315979
-449,-36,6,0,0,0,1016.534119
1565,-462,7,1,0,0,6.304842
1389,1908,1,0,0,0,599.307373
1213,153,2,1,0,0,9.271698
-1638,1231,3,1,0,0,2.020156
-1854,1914,4,0,0,0,564.894714
-44,-1580,5,0,0,0,655.733826
-1711,-1529,6,0,0,0,549.864136
803,-48,7,0,0,0,949.281921
862,1406,1,1,0,0,4.607419
1852,410,2,0,0,0,635.536377
-753,218,3,1,0,0,32.400799
-1391,1759,4,0,0,0,613.823486
-1567,-1577,5,0,0,0,558.799866
-744,-163,6,1,0,0,28.645412
1908,-513,7,0,0,0,691.013123
884,1574,1,0,0,0,675.687012
1946,382,2,1,0,0,2.226587
-653,278,3,1,0,0,42.151939
-477,489,4,0,0,0,954.938171
-837,-1456,5,1,0,0,2.925790
-764,-332,6,0,0,0,839.435608
548,-205,7,0,0,0,1041.051025
1040,1538,1,0,0,0,667.667969
1195,684,2,0,0,0,727.133301
-1059,1049,3,0,0,0,704.402344
-547,1838,4,0,0,0,658.427429
-397,-858,5,0,0,0,803.045227
-1992,-868,6,0,0,0,565.262817
1917,-1623,7,0,0,0,622.490784
1264,1626,1,0,0,0,638.068665
1542,379,2,0,0,0,686.305054
-747,336,3,0,0,0,876.397339
-495,511,4,0,0,0,943.233215
-641,-1192,5,0,0,0,700.099243
-1869,-975,6,0,0,0,573.839355
1412,-872,7,0,0,0,740.981873
42,1275,1,0,0,0,775.201599
1014,141,2,1,0,0,15.452472
-862,285,3,0,0,0,846.772705
-53,1896,4,0,0,0,661.560791
-1509,-1707,5,1,0,0,1.178961
-1585,-470,6,0,0,0,642.919189
22,-692,7,0,0,0,992.524414
330,1525,1,0,0,0,717.425232
1808,1490,2,0,0,0,575.525696
-1009,892,3,0,0,0,733.482422
-508,1636,4,0,0,0,690.679626
-326,-1930,5,0,0,0,594.866577
-434,-174,6,1,0,0,96.295021
1444,-910,7,1,0,0,5.524205
1227,1473,1,1,0,0,2.950225
1554,754,2,0,0,0,662.257690
-451,408,3,0,0,0,962.159485
-338,1010,4,0,0,0,827.068542
-1426,-1739,5,0,0,0,555.546082
-1897,-1598,6,1,0,0,0.914571
7,-1469,7,0,0,0,775.987427
334,495,1,0,0,0,993.703979
1362,767,2,0,0,0,690.804565
-1133,283,3,0,0,0,774.396851
-1158,1621,4,0,0,0,647.554077
-412,-619,5,0,0,0,872.122437
-1243,-49,6,0,0,0,724.256897
1111,-1251,7,1,0,0,5.857990
232,1522,1,0,0,0,721.255249
408,324,2,0,0,0,1006.747375
-320,165,3,0,0,0,1113.305908
-890,1050,4,1,0,0,7.836307
-396,-1571,5,0,0,0,648.684082
-1699,-864,6,0,0,0,602.404541
835,-855,7,0,0,0,835.307556
572,705,1,0,0,0,873.018738
569,394,2,0,0,0,924.911743
-841,141,3,0,0,0,864.808350
-1266,1327,4,0,0,0,671.165344
-259,-969,5,0,0,0,786.043396
-988,-965,6,1,0,0,5.219306
908,-323,7,0,0,0,897.235107
1514,1656,1,0,0,0,613.666077
744,465,2,0,0,0,856.616089
-1529,527,3,0,0,0,681.061707
-157,802,4,0,0,0,903.302063
-1353,-157,6,0,0,0,698.273743
503,-58,7,0,0,0,1082.738159
397,1213,1,0,0,0,775.061340
59,42,2,0,0,0,1575.970093
-923,531,3,1,0,0,13.811568
-427,1784,4,0,0,0,671.110168
-893,-863,6,0,0,0,724.742310
392,-1658,7,1,0,0,5.553929
148,1211,1,0,0,0,788.021851
1081,589,2,1,0,0,9.088177
-936,709,3,0,0,0,772.826355
-480,570,4,0,0,0,929.881836
-839,-59,6,0,0,0,836.667969
1426,-76,7,0,0,0,784.116943
28,1849,1,0,0,0,668.810425
1753,981,2,1,0,0,2.142887
-1893,1529,3,0,0,0,564.798340
-1348,1514,4,0,0,0,642.585266
-1423,-205,6,1,0,0,4.636085
966,-1785,7,0,0,0,683.318542
447,1818,1,0,0,0,665.289062
619,259,2,0,0,0,933.829102
-206,198,3,0,0,0,1179.981689
-270,781,4,0,0,0,900.102173
-542,-152,6,0,0,0,952.291199
511,-374,7,1,0,0,81.913086
280,1084,1,0,0,0,812.712402
728,603,2,0,0,0,835.156738
-789,200,3,0,0,0,878.207642
-713,1456,4,1,0,0,4.846276
-808,-582,6,0,0,0,788.122314
691,-1274,7,0,0,0,779.862549
1078,1912,1,1,0,0,1.972374
1132,938,2,0,0,0,708.362976
-706,407,3,0,0,0,877.868042
-453,1854,4,0,0,0,659.789856
-1871,-521,6,0,0,0,597.073242
1218,-1415,7,1,0,0,4.239682
523,1999,1,0,0,0,637.132202
1412,307,2,0,0,0,713.302979
-1545,935,3,1,0,0,2.941328
-446,1016,4,0,0,0,815.291382
-1693,-1367,6,0,0,0,564.860901
527,-1927,7,0,0,0,687.844604
306,1555,1,0,0,0,712.956726
898,868,2,0,0,0,755.115845
-1522,330,3,0,0,0,691.859436
-1533,1967,4,0,0,0,583.661133
-1112,-632,6,0,0,0,716.286377
1088,-1596,7,0,0,0,697.487244
827,981,1,0,0,0,773.543213
1389,380,2,0,0,0,714.285706
-1671,104,3,0,0,0,671.166138
-94,672,4,1,0,0,55.182674
-1954,-998,6,1,0,0,1.319418
1188,-1503,7,0,0,0,699.831482
177,1956,1,0,0,0,651.613831
243,242,2,0,0,0,1127.329590
-1630,210,3,1,0,0,3.889555
-69,1107,4,0,0,0,815.403503
-789,-634,6,1,0,0,12.906837
684,-1560,7,1,0,0,5.557239
122,893,1,0,0,0,875.107788
1217,528,2,0,0,0,737.805969
-1819,1145,3,0,0,0,599.973022
-624,1032,4,0,0,0,791.343689
-1576,-25,6,0,0,0,656.532227
334,-396,7,0,0,0,1076.142944
660,1052,1,0,0,0,782.913818
1217,309,2,0,0,0,753.583923
-582,294,3,1,0,0,52.363647
-1303,1597,4,0,0,0,637.845337
-1187,-599,6,1,0,0,5.836999
782,-907,7,0,0,0,834.712280
1298,1472,1,1,0,0,2.751864
1601,1491,2,1,0,0,1.661704
-1840,1256,3,0,0,0,589.797974
-68,437,4,0,0,0,1080.275024
-862,-554,6,0,0,0,779.906250
1326,-100,7,0,0,0,804.603027
1246,1301,1,1,0,0,3.548460
1140,650,2,0,0,0,740.917603
-1612,573,3,0,0,0,664.991211
-133,769,4,1,0,0,38.543629
-1790,-774,6,1,0,0,1.875422
1859,-949,7,1,0,0,3.047030
808,1996,1,0,0,0,625.374329
1479,503,2,1,0,0,4.518873
-1735,147,3,0,0,0,659.959656
-760,771,4,0,0,0,822.368042
-1537,-297,6,1,0,0,3.604161
7,-1811,7,0,0,0,715.943604
336,582,1,0,0,0,959.655090
1923,1879,2,0,0,0,536.652161
-1752,1696,3,0,0,0,564.211670
-1404,1486,4,1,0,0,2.437188
-930,-421,6,0,0,0,780.979797
1187,-981,7,0,0,0,762.453674
33,254,1,0,0,0,1237.818726
1188,46,2,0,0,0,769.259277
-1491,1390,3,1,0,0,2.051527
-569,1842,4,0,0,0,656.911133
-1306,-1137,6,0,0,0,629.717285
396,-659,7,0,0,0,962.326782
338,1187,1,0,0,0,784.702881
548,35,2,0,0,0,991.595703
-742,705,3,0,0,0,812.294434
-739,776,4,0,0,0,825.310852
-1626,-696,6,1,0,0,2.508430
848,-1830,7,0,0,0,685.113342
16,71,1,0,0,0,1600.849976
1388,436,2,0,0,0,711.351135
-1423,915,3,1,0,0,3.569686
-399,1259,4,0,0,0,765.242188
-1374,-947,6,0,0,0,640.254639
1349,-433,7,1,0,0,9.524553
131,1482,1,0,0,0,731.066589
1248,1087,2,0,0,0,674.466187
-1326,1281,3,0,0,0,643.637634
-767,784,4,0,0,0,818.625732
-629,-461,6,0,0,0,858.414124
1334,-30,7,0,0,0,803.616333
572,1754,1,1,0,0,3.306149
1118,19,2,0,0,0,786.876160
-756,40,3,0,0,0,899.072205
-833,1807,4,1,0,0,2.641521
-1193,-548,6,0,0,0,708.816040
752,-519,7,1,0,0,32.703655
1086,1438,1,0,0,0,676.200745
1280,341,2,0,0,0,738.229675
-1467,1051,3,1,0,0,2.947445
-1089,1512,4,0,0,0,666.634583
-1524,-1140,6,0,0,0,602.832275
567,-1309,7,1,0,0,9.337017
1098,1631,1,0,0,0,651.299500
1518,964,2,0,0,0,650.762573
-1832,1747,3,1,0,0,1.074799
1498,-1830,7,1,0,0,2.101604
1016,1371,1,0,0,0,691.789062
1666,1357,2,0,0,0,600.058594
-1503,1154,3,0,0,0,635.825012
494,-127,7,1,0,0,130.018539
228,749,1,0,0,0,915.647461
1894,1533,2,0,0,0,564.415833
-1087,650,3,0,0,0,751.102844
893,-1873,7,0,0,0,676.997803
422,719,1,1,0,0,32.332695
1608,481,2,0,0,0,670.455994
-1374,259,3,0,0,0,722.735535
354,-760,7,0,0,0,937.365601
1110,1776,1,0,0,0,633.287964
1961,1365,2,1,0,0,1.277370
-1287,1259,3,0,0,0,650.417419
81,-1040,7,1,0,0,22.772360
293,1834,1,0,0,0,667.570129
643,38,2,1,0,0,53.994434
-506,404,3,0,0,0,944.102051
793,-772,7,0,0,0,857.410828
1300,1833,1,1,0,0,1.838833
-1595,546,3,0,0,0,669.187683
848,-1171,7,0,0,0,780.562500
481,1731,1,0,0,0,677.062561
-739,565,3,0,0,0,839.776733
1325,-1960,7,0,0,0,639.543152
-415,26,3,0,0,0,1071.767212
558,-1079,7,0,0,0,830.616272
-1340,403,3,0,0,0,722.511963
1433,-1865,7,0,0,0,641.221619
-1407,137,3,0,0,0,719.584839
1229,-47,7,1,0,0,14.316613
-381,196,3,0,0,0,1063.128662
480,-902,7,0,0,0,880.400757
-1066,228,3,1,0,0,12.913992
304,-1185,7,0,0,0,828.580505
-1594,761,3,0,0,0,655.869263
665,-304,7,1,0,0,58.157722
-1992,1444,3,1,0,0,1.170346
1793,-557,7,1,0,0,4.169909
-1149,520,3,0,0,0,752.312500
924,-811,7,0,0,0,827.160278
-1684,710,3,1,0,0,2.838988
1275,-761,7,0,0,0,772.910828
-1400,714,3,0,0,0,689.263428
1583,-512,7,0,0,0,740.259521
-619,162,3,0,0,0,947.526001
847,-1628,7,1,0,0,4.460924
-1171,1016,3,0,0,0,693.156433
1071,-635,7,0,0,0,823.518372
-1765,1375,3,0,0,0,588.582520
694,-8,7,0,0,0,991.819031
-1991,1449,3,0,0,0,561.439453
1042,-1809,7,0,0,0,675.259888
-1981,1713,3,1,0,0,0.971024
1551,-788,7,0,0,0,727.458130
-1079,355,3,1,0,0,11.472395
866,-1331,7,1,0,0,6.829070
-902,793,3,0,0,0,766.344238
34,-1922,7,0,0,0,698.864136
-1552,83,3,1,0,0,4.587695
205,-486,7,1,0,0,121.571579
-1483,604,3,0,0,0,683.903381
1343,-357,7,0,0,0,791.945374
-1772,598,3,0,0,0,639.570923
1209,-1213,7,0,0,0,731.956360
-1240,839,3,1,0,0,5.122787
1101,-1230,7,0,0,0,742.501404
-1052,556,3,0,0,0,769.017639
188,-1064,7,0,0,0,864.316895
-1437,441,3,0,0,0,702.001953
1065,-1133,7,0,0,0,759.661438
-1958,592,3,1,0,0,2.030348
1273,-370,7,1,0,0,11.544250
-1635,1343,3,0,0,0,604.436829
1948,-331,7,0,0,0,690.990051
-1327,273,3,0,0,0,731.776306
1120,-1540,7,0,0,0,701.571655
1895,-1613,7,0,0,0,625.137695
1327,-500,7,0,0,0,786.125854
819,-1756,7,0,0,0,696.594727
1920,-236,7,0,0,0,697.060608
749,-845,7,0,0,0,851.632385
1001,-1414,7,0,0,0,728.653992
192,-64,7,1,0,0,460.958435
425,-569,7,1,0,0,62.463528
1637,-1281,7,0,0,0,676.495544
483,-875,7,1,0,0,25.629250
23,-1364,7,0,0,0,797.256226
1234,-244,7,0,0,0,820.578430
1696,-1989,7,0,0,0,611.150024
538,-1509,7,0,0,0,751.101807
1471,-875,7,0,0,0,732.131653
253,-1327,7,1,0,0,10.933061
1564,-1102,7,0,0,0,700.216187
583,-1318,7,0,0,0,781.481628
907,-268,7,0,0,0,902.656250
1772,-779,7,1,0,0,3.810065
1515,-700,7,1,0,0,5.901614
1752,-1633,7,0,0,0,636.047607
663,-1487,7,1,0,0,6.346519
1556,-405,7,0,0,0,750.063904
1704,-490,7,1,0,0,4.938045
463,-1665,7,0,0,0,729.362915
219,-551,7,1,0,0,94.942352
602,-1681,7,0,0,0,720.002441
1605,-697,7,0,0,0,725.796570
589,-638,7,0,0,0,927.266968
1559,-162,7,0,0,0,757.375916
1404,-1075,7,0,0,0,722.785400
88,-1382,7,0,0,0,792.948181
1122,-1237,7,1,0,0,5.889710
896,-1453,7,0,0,0,732.889221
1584,-1789,7,0,0,0,636.710571
430,-1997,7,0,0,0,681.472412
483,-170,7,0,0,0,1079.503662
1130,-679,7,0,0,0,807.090088
1307,-1295,7,0,0,0,711.408264
1702,-149,7,1,0,0,5.508132
1682,-410,7,0,0,0,728.853455
294,-1766,7,0,0,0,719.239014
1807,-1194,7,0,0,0,664.750549
1017,-1633,7,0,0,0,698.642090
1176,-1039,7,0,0,0,757.039368
541,-1171,7,1,0,0,12.489371
1335,-752,7,0,0,0,763.889526
311,-1955,7,1,0,0,3.565139
1174,-1709,7,0,0,0,677.217773
1582,-1529,7,0,0,0,660.264893
1686,-1884,7,1,0,0,1.722335
536,-1280,7,0,0,0,792.347961
1809,-1593,7,1,0,0,1.985657
775,-560,7,0,0,0,899.511292
75,-1244,7,0,0,0,823.250061
341,-320,7,0,0,0,1105.668091
849,-1993,7,0,0,0,664.690857
890,-575,7,0,0,0,869.937378
707,-1328,7,0,0,0,769.138916
1265,-53,7,0,0,0,818.705811
1470,-501,7,0,0,0,760.018738
678,-414,7,1,0,0,47.211842
98,-1841,7,1,0,0,4.400783
816,-1025,7,1,0,0,11.943052
286,-1085,7,0,0,0,853.449707
663,-1296,7,1,0,0,8.802473
1941,-743,7,0,0,0,676.535217
422,-1395,7,0,0,0,778.261230
1600,-234,7,0,0,0,748.430725
222,-1547,7,0,0,0,758.209900
1540,-258,7,0,0,0,758.464355
244,-787,7,0,0,0,942.372498
1727,-1531,7,0,0,0,646.612854
15,-1479,7,1,0,0,8.404115
1988,-338,7,0,0,0,685.170105
1639,-747,7,0,0,0,717.500244
1776,-218,7,1,0,0,4.806707
689,-994,7,1,0,0,15.018113
1671,-453,7,0,0,0,728.842651


each generation good chromosome number
0,0,0,