each times' max average throughput
598.952332,597.213684,602.168091,597.200745,598.806396,601.990417,586.995422,593.450317,598.615112,593.601013,592.877563,598.091736,597.136047,593.645935,597.062378,597.412048,591.604309,584.472351,602.335938,596.154053,597.977478,595.313660,600.451172,597.997742,602.055115,598.047485,592.649414,595.189758,594.361084,588.666931,599.797119,597.503662,602.649170,597.369507,597.046021,598.388000,596.075928,593.112305,598.761963,598.671265,589.360413,588.332214,594.353088,593.503235,599.680786,602.322571,597.119629,597.992920,595.828491,600.663391,598.277832,597.374023,601.613831,603.022461,599.272400,592.532776,602.145874,595.065125,594.371338,594.700806,593.981506,594.371338,594.371338,598.244873,594.048645,594.371338,602.043579,599.043640,594.371338,595.421082,593.981506,594.371338,594.371338,599.168213,594.048645,594.371338,596.983459,594.048645,594.371338,602.554321,593.981506,594.371338,594.371338,598.782410,599.043640,594.371338,602.437805,594.371338,594.371338,599.783936,593.981506,594.371338,594.371338,593.981506,594.048645,594.371338,601.019775,594.048645,594.371338,598.106201,
avg. throughput in all test times
596.364807
avg. BS TX power in all test times
MBS area 1,MBS area 2,MBS area 3,MBS area 4,CBSD 1,CBSD 2,CBSD 3,CBSD 4,CBSD 5,CBSD 6,CBSD 7,CBSD 8,CBSD 9,CBSD 10,
8.575,8.250,8.925,8.350,0.199,0.102,0.093,0.226,0.112,0.135,0.097,0.069,0.210,0.161,
avg. mbs all power,avg. cbsd enable number,avg. mbs area all power,avg. cbsd all power
49.100,2.000,34.100,1.405
avg. max avg. throughput generation number in all test times
0.920000
avg. number of relay UE
237



the max average throughput times

BS TX power
MBS area 1,MBS area 2,MBS area 3,MBS area 4,CBSD 1,CBSD 2,CBSD 3,CBSD 4,CBSD 5,CBSD 6,CBSD 7,CBSD 8,CBSD 9,CBSD 10,
7.500,10.000,10.000,7.500,0.000,0.000,0.000,0.000,0.000,0.000,0.625,0.625,0.000,0.000,
max average throughput
598.106201

x,y,area,be blocked (1 : NLOS / 0 : LOS),be blocked number (>=1 : CBSD(x) / 0 : no),connect bs number (>=1 : CBSD / 0 : MBS),throughput (unit : M bps)
174,657,1,0,0,0,956.404175
-535,1043,2,0,0,0,840.869629
-1883,-1058,3,1,0,8,54.732059
229,-1843,4,0,0,0,667.583191
488,1434,1,0,0,0,725.913391
-1029,807,2,0,0,0,809.412109
-1905,-621,3,1,0,8,54.732059
278,-1087,4,0,0,0,812.094727
1994,522,1,1,0,7,120.891861
-277,1776,2,0,0,0,718.094238
-1128,-1204,3,0,0,0,742.664734
529,-1153,4,0,0,0,776.811096
1168,862,1,0,0,0,738.117310
-1007,1853,2,0,0,0,672.357544
-161,-1384,3,0,0,0,791.182678
441,-1970,4,0,0,0,643.767151
1386,1829,1,0,0,0,607.268738
-962,284,2,0,0,0,885.724548
-1523,-54,3,0,0,0,765.443970
804,-1814,4,0,0,0,648.694336
1472,992,1,0,0,0,680.508850
-578,583,2,1,0,8,54.732059
-1054,-1547,3,1,0,8,54.732059
532,-457,4,0,0,0,947.353882
1580,1441,1,1,0,7,120.891861
-27,212,2,0,0,0,1331.556152
-451,-136,3,0,0,0,1103.562988
1274,-616,4,0,0,0,745.429260
1216,731,1,0,0,0,744.680298
-1416,292,2,0,0,0,780.564270
-1666,-1865,3,0,0,0,623.742615
1651,-15,4,0,0,0,701.228638
1770,649,1,0,0,0,663.299316
-1880,1695,2,0,0,0,620.288025
-639,-1689,3,0,0,0,716.764038
1231,-1679,4,0,0,0,634.983154
1262,1003,1,0,0,0,708.080200
-1666,93,2,1,0,8,54.732059
-2000,-977,3,0,0,0,656.942749
551,-553,4,1,0,7,120.891861
427,909,1,0,0,0,843.966003
-1495,1053,2,0,0,0,713.172424
-1661,-1382,3,0,0,0,665.423523
942,-1211,4,1,0,7,120.891861
444,84,1,0,0,0,1074.071167
-836,1891,2,0,0,0,678.024170
-571,-1132,3,0,0,0,818.309021
1599,-552,4,0,0,0,694.286621
1643,430,1,0,0,0,693.148865
-142,1619,2,0,0,0,746.980347
-279,-66,3,0,0,0,1246.792847
1819,-375,4,0,0,0,667.571106
1439,1545,1,1,0,7,120.891861
-1971,1109,2,0,0,0,652.401001
-1539,-243,3,0,0,0,759.089355
1763,-470,4,1,0,7,120.891861
1910,613,1,0,0,0,645.581543
-1215,107,2,0,0,0,829.444763
-716,-1587,3,0,0,0,727.236572
634,-362,4,0,0,0,935.786011
1718,1546,1,0,0,0,605.248596
-25,1880,2,1,0,8,54.732059
-1972,-1707,3,0,0,0,611.773987
1694,-1634,4,0,0,0,600.079285
1191,1937,1,0,0,0,609.878235
-909,1048,2,0,0,0,792.430725
-1661,-642,3,1,0,8,54.732059
387,-1645,4,0,0,0,694.572693
215,629,1,0,0,0,962.800903
-1907,396,2,1,0,8,54.732059
-1032,-516,3,1,0,8,54.732059
1754,-1489,4,0,0,0,606.531250
1123,1107,1,0,0,0,714.394104
-1092,1356,2,0,0,0,727.237854
-497,-870,3,0,0,0,886.038391
1908,-1604,4,1,0,7,120.891861
149,331,1,0,0,0,1137.240356
-1089,764,2,1,0,8,54.732059
-1770,-1090,3,0,0,0,676.486755
1569,-561,4,0,0,0,698.603394
974,729,1,0,0,0,788.825928
-1417,1488,2,1,0,8,54.732059
-1298,-982,3,0,0,0,746.557190
1792,-1028,4,0,0,0,637.181763
1292,1173,1,0,0,0,685.385925
-1369,1746,2,0,0,0,657.863647
-293,-1758,3,1,0,8,54.732059
1154,-1973,4,0,0,0,608.401367
945,1239,1,0,0,0,717.800781
-997,359,2,1,0,8,54.732059
-1663,-701,3,0,0,0,716.942993
596,-585,4,1,0,7,120.891861
578,900,1,0,0,0,825.839294
-578,1427,2,1,0,8,54.732059
-298,-530,3,0,0,0,1029.960693
1145,-1966,4,1,0,7,120.891861
335,1465,1,0,0,0,728.183594
-433,1859,2,0,0,0,700.887634
-1147,-1299,3,0,0,0,728.576965
1539,-1464,4,0,0,0,629.267883
1820,42,1,0,0,0,673.285156
-1378,118,2,1,0,8,54.732059
-102,-537,3,0,0,0,1060.670776
1074,-606,4,0,0,0,784.939087
1104,1081,1,1,0,7,120.891861
-1278,1156,2,1,0,8,54.732059
-585,-1735,3,0,0,0,712.804016
867,-1474,4,0,0,0,691.177795
560,840,1,0,0,0,842.463440
-884,819,2,0,0,0,832.914124
-118,-1101,3,0,0,0,857.259155
1331,-1820,4,0,0,0,612.276550
552,550,1,0,0,0,917.012146
-609,1865,2,1,0,8,54.732059
-65,-1910,3,1,0,8,54.732059
127,-1783,4,1,0,8,54.732059
1999,280,1,0,0,0,643.801697
-1757,1413,2,1,0,8,54.732059
-1120,-1381,3,0,0,0,721.203186
1050,-1796,4,1,0,7,120.891861
191,1495,1,0,0,0,727.357178
-629,385,2,0,0,0,974.326660
-600,-1815,3,0,0,0,700.461670
1224,-1242,4,0,0,0,685.595459
1046,1119,1,1,0,7,120.891861
-1712,1852,2,0,0,0,621.326111
-1064,-389,3,1,0,8,54.732059
46,-934,4,0,0,0,864.498962
341,825,1,1,0,8,54.732059
-85,1216,2,0,0,0,829.618347
-1801,-8,3,0,0,0,717.529419
11,-1432,4,0,0,0,742.016907
340,1706,1,0,0,0,686.288452
-1317,318,2,1,0,8,54.732059
-541,-341,3,0,0,0,1015.413086
1077,-1177,4,0,0,0,711.053467
738,1950,1,0,0,0,634.565063
-678,616,2,0,0,0,911.851807
-557,-1056,3,0,0,0,835.596375
1680,-748,4,0,0,0,670.393738
1530,1716,1,0,0,0,606.748413
-508,28,2,1,0,8,54.732059
-1193,-1247,3,0,0,0,729.763550
111,-144,4,0,0,0,1336.690674
1431,590,1,0,0,0,719.718750
-915,37,2,1,0,8,54.732059
-197,-1685,3,1,0,8,54.732059
1515,-1673,4,0,0,0,611.991821
292,528,1,1,0,8,54.732059
-376,1349,2,1,0,8,54.732059
-664,-609,3,0,0,0,916.626282
552,-1611,4,0,0,0,692.373169
784,1815,1,0,0,0,649.717407
-705,477,2,1,0,8,54.732059
-125,-1211,3,0,0,0,829.980103
39,-47,4,0,0,0,1651.449097
1197,747,1,0,0,0,746.270935
-1170,1643,2,0,0,0,685.101257
-1236,-1158,3,0,0,0,735.138794
1448,-941,4,1,0,7,120.891861
1384,180,1,0,0,0,749.400513
-481,1527,2,0,0,0,751.294128
-1345,-828,3,0,0,0,755.179871
1019,-1889,4,0,0,0,626.304565
1357,1565,1,1,0,7,120.891861
-1386,1369,2,1,0,8,54.732059
-1534,-424,3,0,0,0,752.992310
1469,-350,4,0,0,0,726.793152
332,908,1,1,0,8,54.732059
-668,14,2,0,0,0,1002.781433
-686,-532,3,0,0,0,927.332764
1240,-1999,4,0,0,0,600.232971
122,1643,1,0,0,0,701.844238
-697,1176,2,0,0,0,796.658203
-1709,-266,3,1,0,8,54.732059
109,-1721,4,1,0,8,54.732059
915,808,1,0,0,0,787.861389
-1508,1064,2,0,0,0,710.527405
-171,-1989,3,0,0,0,688.048889
1360,-1098,4,0,0,0,684.916626
161,721,1,0,0,0,932.377869
-1858,21,2,1,0,8,54.732059
-1644,-1429,3,0,0,0,663.119202
1954,-504,4,0,0,0,643.880859
1619,855,1,0,0,0,671.654846
-1720,1704,2,0,0,0,632.955566
-1290,-259,3,0,0,0,807.650146
959,-1682,4,0,0,0,655.684448
354,912,1,0,0,0,851.513611
-1356,1705,2,1,0,8,54.732059
-1855,-369,3,0,0,0,703.512207
1199,-1755,4,1,0,7,120.891861
116,332,1,0,0,0,1146.369629
-515,1157,2,1,0,8,54.732059
-1125,-618,3,0,0,0,814.767822
1066,-1998,4,0,0,0,611.040100
1557,1517,1,0,0,0,622.677856
-427,255,2,0,0,0,1087.902222
-1373,-1700,3,0,0,0,662.208496
746,-667,4,0,0,0,844.997131
445,827,1,0,0,0,863.273315
-97,446,2,0,0,0,1112.664185
-1595,-1327,3,1,0,8,54.732059
718,-1672,4,0,0,0,673.416748
521,71,1,0,0,0,1030.375000
-149,882,2,0,0,0,918.708313
-1224,-1881,3,1,0,8,54.732059
1147,-1409,4,0,0,0,673.858582
273,1974,1,0,0,0,647.460327
-523,106,2,1,0,8,54.732059
-945,-1219,3,0,0,8,54.732059
410,-748,4,0,0,0,890.964233
167,68,1,0,0,0,1339.083984
-476,589,2,1,0,8,54.732059
-1936,-1223,3,0,0,0,648.844177
1058,-588,4,1,0,7,120.891861
642,1541,1,0,0,0,698.070312
-615,631,2,0,0,0,923.046204
-1954,-1792,3,0,0,0,607.112427
1955,-612,4,0,0,0,639.589233
783,1235,1,0,0,0,736.019958
-613,383,2,1,0,8,54.732059
-1800,-651,3,1,0,8,54.732059
853,-1626,4,0,0,0,670.834534
918,114,1,0,0,0,867.618713
-1047,488,2,0,0,0,845.089355
-88,-1268,3,0,0,0,817.585876
1187,-334,4,0,0,0,784.956726
164,1313,1,0,0,0,764.701538
-124,1767,2,0,0,0,722.290161
-146,-1257,3,0,0,0,818.855591
1100,-1600,4,0,0,0,654.879517
567,541,1,0,0,0,915.369141
-1494,1500,2,0,0,0,671.257263
-607,-1469,3,0,0,0,753.362366
1632,-1999,4,0,0,0,573.972168
1485,1412,1,0,0,0,639.507568
-367,92,2,0,0,0,1166.771851
-1338,-1762,3,1,0,8,54.732059
1815,-254,4,0,0,0,671.375732
1587,647,1,0,0,0,690.551941
-1283,1384,2,0,0,0,704.139526
-1055,-1148,3,0,0,8,54.732059
882,-90,4,0,0,0,879.846497
691,672,1,0,0,0,855.784729
-26,1704,2,0,0,0,733.368835
-149,-1928,3,0,0,0,697.164429
669,-1415,4,0,0,0,716.529785
1954,1123,1,0,0,0,612.408447
-691,1525,2,0,0,0,738.453674
-236,-281,3,1,0,8,54.732059
1301,-1212,4,0,0,0,680.024109
1348,241,1,1,0,7,120.891861
-198,1870,2,0,0,0,705.166016
-422,-1726,3,0,0,0,721.402771
1488,-302,4,1,0,7,120.891861
784,1024,1,0,0,0,772.073120
-1079,389,2,0,0,0,847.129578
-1920,-1551,3,1,0,8,54.732059
638,-1798,4,0,0,0,659.894714
1513,749,1,1,0,7,120.891861
-1413,882,2,1,0,8,54.732059
-1019,-1214,3,0,0,8,54.732059
28,-1037,4,1,0,8,54.732059
1812,812,1,0,0,0,648.488342
-518,396,2,1,0,8,54.732059
-282,-1073,3,0,0,0,856.705627
904,-657,4,1,0,7,120.891861
118,786,1,0,0,0,911.311646
-422,1943,2,0,0,0,689.203369
-1704,-240,3,0,0,0,730.586060
1306,-552,4,0,0,0,744.870789
324,521,1,0,0,0,985.901550
-384,1476,2,1,0,8,54.732059
-551,-648,3,1,0,8,54.732059
1283,-1723,4,0,0,0,626.053406
144,1756,1,0,0,0,682.637939
-1275,1528,2,0,0,0,688.947571
-317,-945,3,1,0,8,54.732059
1164,-1921,4,0,0,0,613.366760
401,1480,1,0,0,0,722.415283
-1950,834,2,0,0,0,670.747375
-392,-1102,3,1,0,8,54.732059
175,-881,4,1,0,7,120.891861
1665,849,1,1,0,7,120.891861
-463,1741,2,0,0,0,717.450684
-592,-522,3,0,0,0,954.765015
1301,-1047,4,0,0,0,697.969238
154,1728,1,0,0,0,687.062866
-135,1169,2,0,0,0,839.752441
-262,-905,3,0,0,0,903.755859
1282,-94,4,0,0,0,773.015015
87,1427,1,0,0,0,742.496155
-541,1850,2,0,0,0,698.093689
-1830,-483,3,0,0,0,703.312012
506,-731,4,1,0,7,120.891861
1582,424,1,0,0,0,703.532837
-581,1203,2,1,0,8,54.732059
-1966,-1738,3,0,0,0,610.046082
112,-1410,4,1,0,8,54.732059
579,1219,1,0,0,0,759.048218
-1179,1092,2,1,0,8,54.732059
-1875,-1197,3,0,0,0,657.118286
190,-1325,4,0,0,0,761.390137
1040,802,1,0,0,0,766.854187
-375,1282,2,1,0,8,54.732059
-224,-1684,3,0,0,0,734.273315
384,-792,4,0,0,0,881.931702
356,1164,1,0,0,0,788.679016
-231,488,2,0,0,0,1064.221558
-279,-769,3,0,0,0,944.446228
1938,-1501,4,0,0,0,588.539124
1477,1009,1,0,0,0,678.313232
-423,1458,2,0,0,0,766.545288
-1278,-123,3,0,0,0,814.692627
263,-426,4,0,0,0,1044.518677
1732,1216,1,1,0,7,120.891861
-961,1336,2,0,0,0,743.382324
-1730,-1187,3,0,0,0,673.836243
669,-969,4,0,0,0,798.211426
801,735,1,0,0,0,821.172241
-883,970,2,0,0,0,808.532410
-1983,-1655,3,1,0,8,54.732059
182,-1365,4,0,0,0,753.245911
877,1962,1,0,0,0,625.937561
-1679,548,2,0,0,0,723.129517
-821,-1631,3,1,0,8,54.732059
1854,-1953,4,0,0,0,561.923584
1551,1234,1,0,0,0,649.008118
-1167,1437,2,0,0,0,709.659607
-1840,-846,3,1,0,8,54.732059
1490,-958,4,1,0,7,120.891861
1056,1845,1,0,0,0,629.036194
-571,485,2,0,0,0,969.788574
-280,-1727,3,0,0,0,725.838867
1033,-534,4,0,0,0,801.808899
695,769,1,0,0,0,834.878784
-1094,1578,2,1,0,8,54.732059
-496,-1962,3,0,0,0,684.151306
254,-779,4,0,0,0,902.548767
1546,1111,1,0,0,0,660.500732
-1132,719,2,0,0,0,802.176514
-92,-1732,3,1,0,8,54.732059
1387,-1202,4,0,0,0,670.958008
24,303,1,1,0,0,262.852478
-1882,985,2,0,0,0,670.300354
-505,-1770,3,0,0,0,711.296326
213,-12,4,1,0,0,399.927307
1791,721,1,0,0,0,656.496887
-84,1119,2,1,0,8,54.732059
-955,-1778,3,0,0,0,684.926880
547,-1815,4,0,0,0,661.727356
1778,1414,1,0,0,0,610.146973
-233,1408,2,1,0,8,54.732059
-1533,-285,3,0,0,0,758.868225
1513,-1246,4,0,0,0,652.191406
242,1619,1,0,0,0,703.681213
-226,923,2,0,0,0,901.289307
-347,-753,3,1,0,8,54.732059
1517,-665,4,0,0,0,700.313293
877,756,1,0,0,0,803.044495
-1212,1770,2,0,0,0,667.488037
-1733,-1417,3,0,0,0,655.319824
709,-1498,4,1,0,7,120.891861
641,895,1,1,0,8,54.732059
-1209,320,2,0,0,0,822.242737
-492,-909,3,0,0,0,877.083374
760,-705,4,0,0,0,834.846436
1460,130,1,0,0,0,735.338806
-1361,554,2,0,0,0,775.905701
-341,-1109,3,0,0,0,843.821716
1334,-1937,4,0,0,0,600.286377
1948,1030,1,0,0,0,618.813599
-759,1898,2,0,0,0,681.281494
-527,-1370,3,0,0,0,776.212463
1754,-33,4,0,0,0,683.871948
561,103,1,0,0,0,1006.923340
-711,356,2,0,0,0,952.627869
-1382,-1835,3,1,0,8,54.732059
1163,-1907,4,0,0,0,614.951843
1878,1272,1,1,0,7,120.891861
-742,757,2,0,0,0,869.823608
-236,-1787,3,0,0,0,717.291321
1297,-1717,4,0,0,0,625.576660
1199,1337,1,0,0,0,677.175598
-1676,1503,2,0,0,0,653.711182
-27,-583,3,0,0,0,1041.773315
97,-61,4,1,0,0,661.106750
609,1332,1,0,0,0,735.565491
-1389,860,2,0,0,0,745.489441
-1289,-257,3,0,0,0,807.950378
1115,-1344,4,0,0,0,685.180908
1983,1672,1,1,0,7,120.891861
-1739,1512,2,0,0,0,647.048401
-682,-1645,3,0,0,0,720.769165
1073,-611,4,0,0,0,784.567627
210,991,1,0,0,0,841.481384
-461,1265,2,0,0,0,801.033325
-494,-689,3,0,0,0,934.155273
521,-1155,4,0,0,0,777.149170
81,1393,1,0,0,0,749.463013
-70,513,2,0,0,0,1076.305786
-801,-1528,3,0,0,0,729.853699
610,-1162,4,0,0,0,767.059509
404,1340,1,1,0,8,54.732059
-666,129,2,1,0,8,54.732059
-1806,-533,3,0,0,0,704.776855
1165,-809,4,0,0,0,744.773560
89,758,1,0,0,0,922.997864
-1151,645,2,0,0,0,806.851746
-1711,-1340,3,0,0,0,663.772522
1485,-1260,4,0,0,0,654.018005
1873,1993,1,0,0,0,557.537231
-658,607,2,0,0,0,918.476807
-1230,-1416,3,0,0,0,705.902710
1889,-37,4,0,0,0,662.674133
502,1528,1,0,0,0,708.735291
-1963,432,2,0,0,0,686.101501
-716,-401,3,0,0,0,943.533142
1391,-545,4,0,0,0,729.878418
1946,638,1,0,0,0,639.677856
-1656,1784,2,1,0,8,54.732059
-1339,-1628,3,0,0,0,672.497375
1019,-935,4,0,0,0,752.022339
154,242,1,0,0,0,1205.152222
-1405,1691,2,0,0,0,660.473633
-1229,-468,3,0,0,0,807.792786
1558,-1479,4,0,0,0,626.053650
1008,1690,1,1,0,8,54.732059
-1861,605,2,1,0,8,54.732059
-831,-1782,3,1,0,8,54.732059
937,-1336,4,0,0,0,704.584717
990,1470,1,1,0,8,54.732059
-76,1862,2,0,0,0,707.751648
-304,-274,3,1,0,8,54.732059
1924,-881,4,0,0,0,630.341614
838,1431,1,1,0,8,54.732059
-329,539,2,0,0,0,1019.053955
-1051,-1515,3,0,0,0,710.794067
556,-1811,4,0,0,0,661.909485
1186,1413,1,0,0,0,669.498169
-890,67,2,1,0,8,54.732059
-1970,-1105,3,0,0,0,652.758484
1130,-86,4,0,0,0,809.218445
1957,139,1,1,0,7,120.891861
-1906,126,2,0,0,0,700.677917
-1787,-71,3,0,0,0,719.542542
313,-1148,4,0,0,0,795.201477
1126,148,1,0,0,0,808.605835
-548,356,2,0,0,0,1009.178406
-847,-1494,3,0,0,0,731.157227
1101,-1851,4,0,0,0,625.327759
743,1915,1,1,0,8,54.732059
-1130,301,2,0,0,0,841.559204
-615,-142,3,0,0,0,1019.188904
467,-502,4,1,0,7,120.891861
458,698,1,0,0,0,897.157898
-1293,609,2,0,0,0,783.872192
-1360,-998,3,1,0,8,54.732059
663,-214,4,1,0,7,120.891861
1142,1715,1,0,0,0,637.940491
-561,976,2,0,0,0,852.507202
-1853,-2,3,0,0,0,709.377869
551,-1061,4,1,0,7,120.891861
104,1325,1,0,0,0,763.430054
-1167,1265,2,0,0,0,730.542725
-940,-211,3,0,0,0,897.339294
1236,-1793,4,0,0,0,622.166748
779,1404,1,1,0,8,54.732059
-943,588,2,0,0,0,856.222290
-577,-613,3,0,0,0,936.185547
1889,-1951,4,1,0,7,120.891861
959,1651,1,0,0,0,659.673950
-268,655,2,0,0,0,986.200806
-1441,-165,3,0,0,0,779.647644
1607,-1398,4,1,0,7,120.891861
366,839,1,0,0,0,870.651672
-1268,173,2,1,0,8,54.732059
-448,-619,3,0,0,0,964.100464
517,-1185,4,0,0,0,771.360291
1488,946,1,0,0,0,682.417908
-1411,1133,2,0,0,0,716.169373
-905,-1962,3,0,0,0,665.435059
1307,-375,4,0,0,0,756.884094
1961,454,1,0,0,0,644.600403
-1866,1058,2,0,0,0,667.504395
-1474,-1942,3,0,0,0,630.976440
354,-27,4,0,0,0,1143.637939
229,1329,1,0,0,0,759.246948
-1327,1467,2,0,0,0,690.669556
-1899,-735,3,0,0,0,682.382751
915,-564,4,1,0,7,120.891861
521,794,1,0,0,0,860.058777
-856,706,2,0,0,0,856.668213
-1041,-780,3,0,0,0,810.933838
769,-106,4,0,0,0,918.109131
1020,399,1,1,0,7,120.891861
-1428,1049,2,1,0,8,54.732059
-762,-592,3,1,0,8,54.732059
1489,-747,4,0,0,0,698.673279
1808,1537,1,0,0,0,597.749390
-152,605,2,1,0,8,54.732059
-637,-1425,3,0,0,0,758.568726
643,-1581,4,0,0,0,691.734253
1443,77,1,0,0,0,739.422302
-1385,511,2,0,0,0,774.574707
-158,-387,3,0,0,0,1138.022217
39,-851,4,0,0,0,891.337585
102,1289,1,0,0,0,771.325012
-1214,651,2,0,0,0,794.459839
-513,-1503,3,0,0,0,753.602844
1094,-759,4,0,0,0,762.905090
1398,1999,1,1,0,8,54.732059
-1284,1007,2,0,0,0,745.823853
-1321,-1637,3,1,0,8,54.732059
858,-1100,4,1,0,7,120.891861
901,1587,1,0,0,0,672.587708
-186,955,2,0,0,0,894.497559
-946,-622,3,0,0,0,850.869873
1831,-1225,4,0,0,0,618.884583
1126,641,1,1,0,7,120.891861
-1481,1669,2,0,0,0,656.241638
-1996,-432,3,0,0,0,681.549988
365,-57,4,0,0,0,1132.173462
1072,391,1,0,0,0,807.243347
-142,1529,2,0,0,0,763.262634
-98,-1041,3,0,0,0,873.761841
796,-1899,4,0,0,0,638.127747
991,248,1,1,0,7,120.891861
-794,768,2,0,0,0,857.949280
-220,-635,3,1,0,8,54.732059
134,-1367,4,0,0,0,753.981934
1338,674,1,0,0,0,729.070496
-940,1821,2,0,0,0,680.559326
-823,-104,3,0,0,0,940.425110
1726,-1568,4,1,0,7,120.891861
845,607,1,0,0,0,833.799927
-203,151,2,1,0,0,369.874359
-945,-1829,3,0,0,0,679.250244
1292,-600,4,0,0,0,743.527222
1605,1635,1,0,0,0,607.728149
-1693,763,2,0,0,0,708.761475
-347,-1993,3,0,0,0,684.256348
692,-782,4,0,0,0,832.752441
913,416,1,0,0,0,844.249573
-395,1624,2,0,0,0,738.951233
-890,-1695,3,0,0,0,700.035400
1775,-194,4,0,0,0,678.821045
1465,1717,1,0,0,0,611.987305
-1067,1574,2,0,0,0,701.968506
-1923,-814,3,0,0,0,675.185059
200,-1123,4,0,0,0,807.346863
1733,1510,1,0,0,0,606.806885
-1519,1841,2,0,0,0,637.033569
-1179,-1671,3,0,0,0,681.151611
947,-426,4,0,0,0,834.357788
1352,1230,1,0,0,0,672.140869
-1457,1994,2,0,0,0,627.313416
-698,-1927,3,0,0,0,680.528931
1851,-1009,4,0,0,0,631.416138
842,1351,1,1,0,8,54.732059
-354,1749,2,1,0,8,54.732059
-1732,-882,3,1,0,8,54.732059
968,-114,4,0,0,0,852.575684
1497,1645,1,1,0,7,120.891861
-1751,1288,2,0,0,0,663.717346
-388,-391,3,1,0,8,54.732059
157,-1706,4,1,0,8,54.732059
1497,102,1,1,0,7,120.891861
-1501,166,2,0,0,0,768.056702
-1033,-508,3,1,0,8,54.732059
1772,-1704,4,1,0,7,120.891861
956,1836,1,1,0,8,54.732059
-488,1870,2,0,0,0,697.330627
-958,-664,3,0,0,0,842.492493
1349,-1705,4,0,0,0,622.639343
1606,1268,1,0,0,0,639.912781
-916,1305,2,0,0,0,752.475037
-1667,-1125,3,0,0,0,685.941711
125,-915,4,0,0,0,868.102112
1794,1925,1,0,0,0,568.457520
-247,1153,2,0,0,0,839.168762
-232,-939,3,0,0,0,896.192200
1715,-575,4,1,0,7,120.891861
1245,1901,1,0,0,0,610.060547
-160,583,2,0,0,0,1031.613647
-833,-1277,3,1,0,8,54.732059
257,-1820,4,0,0,0,670.539856
721,1453,1,0,0,0,706.305725
-1892,1852,2,0,0,0,607.513916
-698,-636,3,1,0,8,54.732059
1642,-121,4,0,0,0,702.030396
192,17,1,0,0,0,1319.839844
-1104,1370,2,0,0,0,724.219177
-1048,-1744,3,0,0,0,682.610107
470,-252,4,0,0,0,1026.302979
1385,266,1,0,0,0,746.402954
-1425,1573,2,0,0,0,670.528259
-850,-171,3,0,0,0,927.692322
1964,-302,4,0,0,0,648.278320
1054,738,1,0,0,0,772.737061
-329,391,2,0,0,0,1080.091553
-1184,-1440,3,1,0,8,54.732059
1970,-1156,4,0,0,0,608.597595
912,731,1,0,0,0,800.343140
-761,1094,2,0,0,0,803.979919
-281,-770,3,0,0,0,943.875000
1602,-1601,4,0,0,0,611.005676
1295,211,1,0,0,0,767.125549
-1385,802,2,0,0,0,751.387146
-377,-506,3,0,0,0,1019.269958
1791,-528,4,0,0,0,666.043335
382,1058,1,0,0,0,811.361877
-1311,1840,2,1,0,8,54.732059
-1052,-680,3,0,0,0,821.781738
422,-246,4,0,0,0,1051.618652
1531,1594,1,1,0,7,120.891861
-647,103,2,0,0,0,1008.445129
-138,-1913,3,0,0,0,699.509583
874,-1687,4,1,0,7,120.891861
1763,65,1,1,0,7,120.891861
-1531,1951,2,0,0,0,626.116699
-1769,-11,3,1,0,8,54.732059
432,-1289,4,0,0,0,756.940552
1918,1531,1,0,0,0,588.212769
-1908,1040,2,1,0,8,54.732059
-280,-629,3,0,0,0,994.128845
1651,-1226,4,0,0,0,638.495850
558,1754,1,1,0,8,54.732059
-1424,1919,2,1,0,8,54.732059
-1410,-1710,3,0,0,0,658.167603
1059,-561,4,0,0,0,793.152893
40,1521,1,0,0,0,724.636353
-1327,1671,2,0,0,0,669.007202
-1115,-1012,3,1,0,8,54.732059
858,-1555,4,0,0,0,680.357117
1981,1240,1,0,0,0,602.083862
-661,1929,2,1,0,8,54.732059
-1389,-188,3,0,0,0,789.469482
1380,-1295,4,0,0,0,662.205505
1560,159,1,0,0,0,715.998718
-432,1321,2,0,0,0,791.903259
-1130,-235,3,1,0,8,54.732059
77,-192,4,0,0,0,1299.452759
498,1331,1,0,0,0,744.214111
-1307,356,2,0,0,0,799.281006
-349,-1151,3,0,0,0,833.471191
1272,-1031,4,0,0,0,703.615845
27,1048,1,0,0,0,831.616516
-1545,706,2,1,0,8,54.732059
-1575,-1426,3,0,0,0,670.238586
1626,-1012,4,0,0,0,658.794067
575,301,1,0,0,0,969.694153
-1490,917,2,0,0,0,725.836060
-161,-393,3,1,0,8,54.732059
1478,-204,4,0,0,0,730.251587
671,1940,1,0,0,0,639.003723
-897,860,2,0,0,0,824.081360
-858,-1300,3,0,0,0,759.172546
0,-549,4,0,0,0,1017.935669
1854,90,1,0,0,0,667.735229
-231,921,2,0,0,0,901.513184
-1591,-818,3,0,0,0,719.453186
10,-449,4,1,0,8,54.732059
1822,890,1,1,0,7,120.891861
-1517,268,2,0,0,0,762.345764
-1603,-1468,3,0,0,0,663.726868
1719,-1318,4,1,0,7,120.891861
554,1021,1,1,0,8,54.732059
-1263,1634,2,0,0,0,678.347107
-1940,-477,3,0,0,0,687.842102
729,-453,4,1,0,7,120.891861
742,785,1,1,0,8,54.732059
-193,1809,2,0,0,0,714.640991
-444,-879,3,0,0,0,891.018127
1072,-1863,4,0,0,0,625.895081
1921,269,1,0,0,0,655.159851
-932,470,2,1,0,8,54.732059
-1200,-749,3,0,0,0,786.837036
827,-1089,4,0,0,0,755.265076
1455,1788,1,0,0,0,605.986450
-254,979,2,0,0,0,883.332458
-1725,-1656,3,0,0,0,636.501282
1253,-513,4,0,0,0,758.107300
936,1215,1,0,0,0,722.346863
-1728,202,2,0,0,0,727.446594
-1677,-1865,3,0,0,0,622.907898
1310,-1068,4,0,0,0,694.525940
1025,1554,1,1,0,8,54.732059
-519,1746,2,0,0,0,714.288940
-763,-700,3,1,0,8,54.732059
1842,-772,4,0,0,0,646.824341
1193,645,1,0,0,0,757.630798
-382,1921,2,0,0,0,693.507874
-601,-1548,3,0,0,0,740.806030
200,-571,4,0,0,0,989.930054
512,1831,1,0,0,0,660.884460
-1457,1880,2,0,0,0,638.022583
-1338,-1032,3,0,0,0,735.809814
1836,-1434,4,1,0,7,120.891861
1340,283,1,1,0,7,120.891861
-1737,92,2,0,0,0,727.501221
-9,-560,3,1,0,8,54.732059
1020,-456,4,0,0,0,813.300842
1567,1564,1,0,0,0,617.472900
-352,1947,2,0,0,0,690.607788
-1792,-1484,3,1,0,8,54.732059
1201,-1999,4,0,0,0,602.697754
613,587,1,0,0,0,892.409424
-1137,1463,2,0,0,0,709.397461
-392,-301,3,0,0,0,1089.714111
1227,-1774,4,0,0,0,624.892090
715,738,1,1,0,8,54.732059
-520,1495,2,0,0,0,754.559204
-1889,-1253,3,1,0,8,54.732059
1346,-321,4,0,0,0,751.859497
395,1684,1,0,0,0,687.912231
-1420,1279,2,0,0,0,700.539612
-1357,-776,3,0,0,0,758.143372
1791,-182,4,0,0,0,676.484497
219,1812,1,0,0,0,672.547546
-1266,1776,2,0,0,0,662.753906
-1437,-1558,3,0,0,0,670.929138
325,-728,4,0,0,0,910.427734
1622,558,1,0,0,0,690.305176
-504,768,2,0,0,0,911.047546
-920,-1056,3,0,0,8,54.732059
1328,-1269,4,0,0,0,670.730103
59,152,1,0,0,0,1368.121948
-1145,1745,2,1,0,8,54.732059
-1530,-1768,3,0,0,0,642.906921
1062,-1995,4,0,0,0,611.609619
239,1979,1,0,0,0,647.375671
-1875,1082,2,0,0,0,664.889038
-1044,-1692,3,0,0,0,689.222473
1043,-1913,4,0,0,0,622.020691
994,660,1,1,0,7,120.891861
-577,1339,2,0,0,0,778.143677
-645,-969,3,1,0,8,54.732059
1860,-1700,4,1,0,7,120.891861
1786,698,1,0,0,0,658.445007
-634,835,2,0,0,0,872.987671
-92,-622,3,0,0,0,1020.293518
881,-1804,4,0,0,0,645.343994
1050,1134,1,0,0,0,720.162292
-1348,1086,2,1,0,8,54.732059
-770,-162,3,0,0,0,955.647339
1017,-816,4,0,0,0,768.921814
227,258,1,0,0,0,1153.035889
-57,1174,2,0,0,0,840.091553
-716,-1269,3,0,0,0,778.335144
734,-1345,4,1,0,7,120.891861
1067,1560,1,1,0,8,54.732059
-1474,631,2,0,0,0,750.861145
-1434,-1886,3,0,0,0,639.132935
95,-1837,4,0,0,0,670.322449
138,1938,1,0,0,0,654.694519
-313,1160,2,0,0,0,833.772888
-546,-686,3,0,0,0,924.476807
1556,-1741,4,1,0,7,120.891861
315,586,1,0,0,0,962.554871
-1523,631,2,0,0,0,742.891968
-684,-921,3,1,0,8,54.732059
622,-1201,4,1,0,7,120.891861
785,941,1,0,0,0,786.745422
-42,974,2,0,0,0,893.917847
-956,-258,3,0,0,0,889.434875
1661,-651,4,0,0,0,679.069702
1753,1575,1,1,0,7,120.891861
-254,800,2,0,0,0,937.038147
-1473,-1395,3,0,0,0,683.444336
1120,-1647,4,1,0,7,120.891861
441,1169,1,0,0,0,781.179382
-1625,1206,2,1,0,8,54.732059
-918,-1256,3,0,0,8,54.732059
650,-978,4,0,0,0,798.994507
827,989,1,1,0,8,54.732059
-975,1860,2,1,0,8,54.732059
-1732,-1381,3,1,0,8,54.732059
1553,-1547,4,0,0,0,620.304016
528,1140,1,1,0,8,54.732059
-1585,455,2,0,0,0,742.809570
-1505,-80,3,0,0,0,768.632751
146,-1673,4,0,0,0,696.365173
1030,890,1,1,0,7,120.891861
-34,1914,2,0,0,0,700.057800
-1882,-764,3,0,0,0,683.101929
355,-1134,4,0,0,0,795.596741
539,1242,1,1,0,8,54.732059
-36,909,2,1,0,8,54.732059
-1093,-1794,3,1,0,8,54.732059
1889,-1219,4,0,0,0,613.108948
1000,362,1,0,0,0,827.487915
-1223,1941,2,0,0,0,648.317932
-48,-1571,3,1,0,8,54.732059
371,-1773,4,0,0,0,674.714783
746,312,1,0,0,0,906.351318
-1068,195,2,0,0,0,862.941650
-225,-183,3,0,0,0,1243.467407
343,-1179,4,0,0,0,786.174072
1839,1737,1,0,0,0,579.619751
-420,880,2,0,0,0,893.863220
-1993,-1998,3,0,0,0,589.386841
829,-830,4,1,0,7,120.891861
699,1270,1,1,0,8,54.732059
-1884,679,2,0,0,0,687.149780
-164,-613,3,0,0,0,1017.649780
1634,-1363,4,0,0,0,628.766479
214,898,1,0,0,0,868.211853
-741,552,2,0,0,0,909.360168
-1600,-370,3,0,0,0,743.993408
201,-201,4,0,0,0,1207.766724
114,1234,1,0,0,0,783.525513
-869,1714,2,0,0,0,698.952637
-1632,-243,3,0,0,0,742.639771
1168,-1171,4,0,0,0,700.733765
1929,1151,1,0,0,0,613.346802
-691,886,2,0,0,0,853.055420
-528,-95,3,0,0,0,1066.061157
158,-1823,4,0,0,0,671.821045
262,1457,1,0,0,0,732.498108
-1291,678,2,0,0,0,778.108826
-827,-84,3,1,0,8,54.732059
1760,-476,4,1,0,7,120.891861
1733,253,1,0,0,0,684.351807
-351,496,2,0,0,0,1030.150635
-1371,-1834,3,1,0,8,54.732059
1932,-289,4,1,0,7,120.891861
709,1350,1,0,0,0,724.009949
-1185,512,2,0,0,0,813.135132
-1168,-1844,3,0,0,0,662.525146
832,-1995,4,1,0,7,120.891861
747,1477,1,0,0,0,700.520996
-648,660,2,1,0,8,54.732059
-397,-1283,3,0,0,0,801.752625
871,-1712,4,0,0,0,657.957397
321,750,1,1,0,8,54.732059
-248,1156,2,0,0,0,838.402832
-1333,-412,3,0,0,0,790.794250
1749,-1469,4,0,0,0,608.605103
1690,1652,1,0,0,0,598.914795
-284,1303,2,0,0,0,803.777161
-925,-1993,3,0,0,0,660.645691
1939,-1639,4,0,0,0,578.583984
1372,100,1,1,0,7,120.891861
-1923,1148,2,0,0,0,655.187439
-1837,-688,3,0,0,0,693.070190
248,-630,4,0,0,0,957.506714
1017,444,1,0,0,0,815.261597
-765,1881,2,0,0,0,683.179565
-1432,-368,3,1,0,8,54.732059
713,-1971,4,0,0,0,633.062683
753,1353,1,0,0,0,719.613525
-1061,1782,2,0,0,0,677.141663
-27,-1011,3,0,0,0,883.347595
107,-869,4,0,0,0,883.446472
1286,118,1,0,0,0,771.686218
-1666,826,2,1,0,8,54.732059
-1421,-1917,3,0,0,0,637.096619
1032,-43,4,1,0,7,120.891861
956,950,1,0,0,0,759.424438
-1271,575,2,0,0,0,790.836121
-1320,-152,3,0,0,0,804.828491
1084,-334,4,0,0,0,808.959412
1691,1060,1,0,0,0,647.034363
-336,395,2,0,0,0,1075.848389
-1742,-1332,3,0,0,0,661.205566
756,-58,4,1,0,7,120.891861
557,643,1,0,0,0,891.739197
-1354,5,2,0,0,0,799.409790
-248,-1880,3,0,0,0,702.765015
1268,-26,4,0,0,0,776.878174
1392,1766,1,0,0,0,613.049011
-1134,1503,2,1,0,8,54.732059
-587,-710,3,0,0,0,910.225891
1106,-1943,4,0,0,0,614.687988
743,721,1,1,0,7,120.891861
-1131,670,2,0,0,0,807.909485
-1344,-759,3,0,0,0,761.784241
144,-1062,4,0,0,0,825.275452
203,472,1,0,0,0,1037.038452
-707,991,2,0,0,0,830.001099
-411,-1468,3,0,0,0,765.351135
1324,-54,4,1,0,7,120.891861
890,1501,1,1,0,8,54.732059
-1142,1147,2,1,0,8,54.732059
-977,-100,3,0,0,0,891.799377
824,-253,4,1,0,7,120.891861
41,1993,1,0,0,0,647.369629
-1733,310,2,0,0,0,724.049194
-631,-1511,3,0,0,0,744.826477
1493,-810,4,0,0,0,693.109192
556,356,1,0,0,0,964.769165
-687,1432,2,0,0,0,753.579102
-1266,-992,3,0,0,0,749.971924
149,-842,4,0,0,0,890.261658
1809,1389,1,0,0,0,609.018616
-1521,1616,2,0,0,0,657.798950
-1967,-675,3,0,0,0,676.363708
758,-1367,4,0,0,0,716.912292
1693,827,1,1,0,7,120.891861
-384,183,2,0,0,0,1132.984131
-374,-407,3,0,0,0,1057.448853
1592,-1352,4,0,0,0,634.066956
885,695,1,0,0,0,811.252747
-1675,154,2,0,0,0,737.117981
-492,-395,3,0,0,0,1019.297546
1371,-91,4,0,0,0,753.884644
1446,1024,1,0,0,0,681.024780
-1526,461,2,0,0,0,752.524963
-1494,-764,3,0,0,0,737.809265
1495,-1667,4,0,0,0,614.249756
1931,1659,1,0,0,0,577.817078
-334,1712,2,1,0,8,54.732059
-375,-1650,3,0,0,0,735.415894
1478,-1633,4,0,0,0,618.943604
51,393,1,0,0,0,1111.922241
-10,1423,2,0,0,0,785.122314
-319,-1924,3,0,0,0,694.730042
1525,-1522,4,0,0,0,625.213745
1027,621,1,0,0,0,792.736450
-1976,399,2,0,0,0,685.262085
-1069,-1475,3,0,0,0,714.266785
421,-329,4,0,0,0,1025.757446
547,1965,1,0,0,0,640.821899
-1401,835,2,1,0,8,54.732059
-1694,-1158,3,1,0,8,54.732059
1059,-419,4,0,0,0,807.798828
1266,1798,1,0,0,0,619.402588
-1405,1953,2,1,0,8,54.732059
-308,-733,3,1,0,8,54.732059
1914,-1359,4,0,0,0,600.832764
1149,261,1,1,0,7,120.891861
-1733,1584,2,0,0,0,641.722107
-1853,-1079,3,0,0,0,667.612305
471,-1579,4,1,0,7,120.891861
728,924,1,1,0,8,54.732059
-590,1256,2,0,0,0,792.352234
-1353,-858,3,0,0,0,751.087952
865,1399,1,0,0,0,702.314575
-1888,1834,2,1,0,8,54.732059
-669,-1650,3,0,0,0,720.818298
400,1771,1,0,0,0,674.051392
-267,1943,2,0,0,0,693.121460
-370,-753,3,0,0,0,937.162354
1116,302,1,0,0,0,803.474670
-319,1303,2,0,0,0,802.081787
-1082,-713,3,0,0,0,812.041687
265,950,1,0,0,0,849.177734
-1201,1356,2,0,0,0,715.883972
-1555,-678,3,0,0,0,734.687378
1079,362,1,1,0,7,120.891861
-1405,186,2,1,0,8,54.732059
-446,-1659,3,0,0,0,731.072083
501,1057,1,0,0,0,800.117920
-293,1773,2,0,0,0,718.161926
-536,-1373,3,0,0,0,775.031311
1496,1835,1,1,0,7,120.891861
-1998,961,2,1,0,8,54.732059
-750,-1952,3,1,0,8,54.732059
752,1369,1,0,0,0,717.122681
-1095,1928,2,0,0,0,658.051208
-1209,-1134,3,1,0,8,54.732059
1120,805,1,0,0,0,752.786621
-1866,160,2,0,0,0,706.326599
-1941,-89,3,1,0,8,54.732059
1504,1423,1,0,0,0,636.552307
-1786,804,2,0,0,0,693.506104
-1195,-258,3,1,0,8,54.732059
888,668,1,0,0,0,814.872131
-1748,1058,2,0,0,0,681.405334
-763,-1890,3,1,0,8,54.732059
1296,1888,1,1,0,8,54.732059
-1758,304,2,0,0,0,720.235535
-1738,-1016,3,0,0,0,685.645508
1714,345,1,0,0,0,684.840698
-182,808,2,0,0,0,940.877380
-440,-741,3,0,0,0,929.438782
144,1065,1,0,0,0,824.478760
-1064,1925,2,0,0,0,660.349182
-1550,-1715,3,0,0,0,646.152344
1297,1785,1,1,0,8,54.732059
-1147,1651,2,0,0,0,686.051514
-1128,-936,3,0,0,0,776.622864
439,935,1,0,0,0,835.878357
-1842,330,2,0,0,0,706.559265
-1378,-640,3,0,0,0,766.309448
350,1979,1,0,0,0,645.048401
-1015,-848,3,1,0,8,54.732059
1335,628,1,0,0,0,733.474854
-1547,-1949,3,0,0,0,625.160217
426,1393,1,0,0,0,737.123291
-1566,-1541,3,1,0,8,54.732059
148,743,1,1,0,8,54.732059
-1731,-1490,3,0,0,0,649.590576
715,1786,1,0,0,0,657.515564
-1165,-1038,3,0,0,0,758.670288
-1908,-297,3,0,0,0,697.575012
-445,-607,3,0,0,0,968.457520
-722,-1561,3,0,0,0,730.741699


each generation good chromosome number
10,10,10,