each times' max average throughput
629.470825,610.020142,608.090515,0.000000,0.000000,0.000000,0.000000,610.282043,0.000000,0.000000,631.176392,614.269897,630.738342,599.700378,0.000000,596.145386,0.000000,0.000000,0.000000,604.171692,633.302124,634.062561,623.824585,628.083984,628.521362,627.713562,599.803467,0.000000,0.000000,606.225403,608.296021,606.710266,633.992004,614.552368,626.445679,626.241516,623.264343,625.540405,625.232727,621.015442,0.000000,0.000000,0.000000,0.000000,0.000000,0.000000,0.000000,614.402527,596.173218,0.000000,0.000000,0.000000,0.000000,0.000000,0.000000,630.805786,617.886658,0.000000,0.000000,0.000000,604.866699,0.000000,0.000000,0.000000,605.807678,0.000000,0.000000,0.000000,0.000000,624.447327,622.590088,625.504272,0.000000,603.702759,627.506775,611.378723,628.821716,605.934143,595.109070,0.000000,0.000000,0.000000,591.843201,626.702576,623.679138,607.726501,638.354248,0.000000,576.109375,0.000000,0.000000,0.000000,0.000000,0.000000,0.000000,0.000000,0.000000,0.000000,616.518127,0.000000,
avg. throughput in all test times
308.227661
avg. BS TX power in all test times
MBS area 1,MBS area 2,MBS area 3,MBS area 4,CBSD 1,CBSD 2,CBSD 3,CBSD 4,CBSD 5,CBSD 6,CBSD 7,CBSD 8,CBSD 9,CBSD 10,CBSD 11,CBSD 12,CBSD 13,CBSD 14,CBSD 15,CBSD 16,CBSD 17,CBSD 18,CBSD 19,CBSD 20,CBSD 21,CBSD 22,CBSD 23,CBSD 24,CBSD 25,CBSD 26,CBSD 27,
8.462,8.337,8.188,7.588,0.108,0.165,0.109,0.189,0.099,0.295,0.127,0.062,0.058,0.275,0.114,0.129,0.171,0.090,0.180,0.083,0.175,0.109,0.101,0.097,0.200,0.183,0.034,0.186,0.204,0.109,0.164,
avg. mbs all power,avg. cbsd enable number,avg. mbs area all power,avg. cbsd all power
70.075,5.000,32.575,3.814
avg. max avg. throughput generation number in all test times
32.220001
avg. number of relay UE
266

the max average throughput times

BS TX power
MBS area 1,MBS area 2,MBS area 3,MBS area 4,CBSD 1,CBSD 2,CBSD 3,CBSD 4,CBSD 5,CBSD 6,CBSD 7,CBSD 8,CBSD 9,CBSD 10,CBSD 11,CBSD 12,CBSD 13,CBSD 14,CBSD 15,CBSD 16,CBSD 17,CBSD 18,CBSD 19,CBSD 20,CBSD 21,CBSD 22,CBSD 23,CBSD 24,CBSD 25,CBSD 26,CBSD 27,
8.750,8.750,7.500,10.000,0.000,0.875,0.000,0.875,0.000,0.000,0.000,0.000,0.000,0.000,0.000,0.000,0.000,0.625,0.000,0.000,0.000,0.500,0.000,0.000,0.000,1.000,0.000,0.000,0.000,0.000,0.000,
max average throughput
616.518127

x,y,area,be blocked (1 : NLOS / 0 : LOS),be blocked number (>=1 : CBSD(x) / 0 : no),connect bs number (>=1 : CBSD / 0 : MBS),throughput (unit : M bps)
967,478,1,0,0,0,845.581116
-1620,1398,2,1,0,4,58.492023
-267,-1127,3,0,0,0,802.964172
1424,-1999,4,0,0,0,629.078247
796,1416,1,0,0,0,727.976135
-218,1657,2,0,0,0,719.821167
-1422,-1886,3,1,0,4,58.492023
1307,-524,4,0,0,0,788.147827
555,44,1,1,0,22,119.708366
-388,1929,2,0,0,0,673.098145
-1336,-941,3,1,0,4,58.492023
1806,-1823,4,0,0,0,616.399231
144,1821,1,0,0,0,694.357239
-1686,1043,2,0,0,0,670.941956
-1175,-1974,3,0,0,0,606.970642
634,-823,4,1,0,4,58.492023
877,315,1,0,0,0,887.697693
-636,609,2,0,0,0,904.003235
-446,-1594,3,0,0,0,700.509949
168,-171,4,0,0,0,1298.425415
1718,1555,1,0,0,0,626.435120
-1422,1335,2,0,0,0,675.603394
-483,-712,3,1,0,4,58.492023
81,-1387,4,1,0,4,58.492023
867,556,1,0,0,0,858.882507
-1688,642,2,1,0,4,58.492023
-80,-133,3,0,0,0,1382.344727
752,-1073,4,1,0,4,58.492023
432,1324,1,1,0,18,280.688812
-1751,1954,2,1,0,4,58.492023
-1615,-948,3,0,0,0,665.207764
977,-567,4,1,0,22,99.219475
1079,832,1,0,0,0,778.425964
-1661,450,2,0,0,0,711.441956
-1001,-1055,3,0,0,0,737.590332
363,-861,4,0,0,0,906.140564
1646,213,1,0,0,0,721.809387
-1962,927,2,0,0,0,645.148804
-1348,-230,3,0,0,0,755.252991
1855,-687,4,0,0,0,690.670593
978,539,1,0,0,0,835.620117
-76,782,2,0,0,0,936.839966
-740,-1088,3,1,0,4,58.492023
590,-137,4,0,0,0,1031.070435
955,641,1,1,0,22,178.112076
-1685,141,2,1,0,4,58.492023
-1156,-382,3,1,0,4,58.492023
132,-799,4,0,0,0,947.355164
1001,447,1,0,0,0,840.929993
-273,1312,2,0,0,0,783.191895
-1523,-1531,3,0,0,0,624.559448
1093,-416,4,0,0,0,841.537781
1292,387,1,0,0,0,781.351440
-1910,314,2,1,0,4,58.492023
-1844,-1136,3,0,0,0,623.727112
452,-1954,4,0,0,0,686.725159
418,243,1,0,0,0,1076.790649
-1170,722,2,0,0,0,775.841125
-101,-1807,3,0,0,0,674.964355
1056,-1640,4,0,0,0,694.685059
1590,556,1,0,0,0,717.578552
-1565,1344,2,1,0,4,58.492023
-1181,-1557,3,1,0,4,58.492023
662,-1946,4,0,0,0,679.693054
272,1735,1,1,0,18,166.141556
-1319,438,2,0,0,0,772.728455
-676,-857,3,0,0,0,820.009338
879,-140,4,0,0,0,920.134521
1510,1734,1,0,0,0,628.645142
-195,812,2,1,0,18,146.897049
-1311,-1758,3,0,0,0,620.177551
1315,-1116,4,1,0,4,58.492023
846,276,1,0,0,0,900.968567
-1027,817,2,1,0,4,58.492023
-197,-1410,3,0,0,0,743.693542
823,-717,4,0,0,0,861.391235
630,1908,1,0,0,0,667.107361
-806,1450,2,0,0,0,721.942017
-977,-1403,3,0,0,0,691.247131
1584,-1678,4,0,0,0,646.659973
211,1530,1,0,0,0,742.443726
-329,435,2,0,0,0,1042.051636
-1720,-735,3,1,0,4,58.492023
884,-792,4,0,0,0,837.287781
1204,1885,1,0,0,0,636.512024
-1564,78,2,0,0,0,738.485168
-986,-716,3,0,0,0,788.367126
1011,-1912,4,0,0,0,665.147522
1143,1558,1,0,0,0,678.277283
-1094,161,2,0,0,0,838.444519
-1851,-273,3,0,0,0,665.460144
1102,-806,4,0,0,0,797.023499
1469,194,1,0,0,0,754.340149
-573,298,2,0,0,0,993.315613
-654,-206,3,0,0,0,953.860962
1129,-1400,4,0,0,0,717.928650
303,1231,1,0,0,0,799.141663
-642,1836,2,0,0,0,676.404175
-1122,-1433,3,0,0,0,673.362488
1786,-497,4,0,0,0,709.244751
1390,898,1,0,0,0,722.653687
-1200,1186,2,0,0,0,717.106873
-1863,-67,3,1,0,4,58.492023
1841,-755,4,0,0,0,688.987244
1646,1334,1,1,0,18,110.224854
-330,483,2,0,0,0,1021.860474
-128,-1354,3,1,0,4,58.492023
1200,-980,4,0,0,0,760.704773
1000,509,1,0,0,0,834.234009
-394,156,2,0,0,0,1114.826172
-102,-869,3,0,0,0,883.643250
68,-1898,4,1,0,4,58.492023
943,1767,1,1,0,18,148.491547
-931,1464,2,1,0,18,90.261673
-869,-1109,3,0,0,0,746.687744
1448,-116,4,1,0,22,130.610855
1642,1199,1,0,0,0,663.736877
-1985,665,2,0,0,0,655.395813
-1852,-1757,3,1,0,4,58.492023
513,-1098,4,0,0,0,831.283752
1966,640,1,0,0,0,658.947571
-1536,1428,2,1,0,4,58.492023
-218,-1110,3,0,0,0,809.742188
866,-594,4,0,0,0,872.515564
522,632,1,0,0,0,924.630127
-1340,1310,2,0,0,0,687.047302
-1728,-1981,3,1,0,4,58.492023
389,-1110,4,0,0,0,839.894470
587,1784,1,0,0,0,686.416321
-77,758,2,0,0,0,945.696167
-1044,-622,3,0,0,0,789.145935
601,-214,4,0,0,0,1016.107422
1305,302,1,1,0,22,204.800568
-269,1057,2,1,0,18,146.686401
-115,-841,3,1,0,4,58.492023
1057,-1650,4,1,0,4,58.492023
504,153,1,0,0,0,1052.107300
-642,866,2,0,0,0,845.761047
-1496,-648,3,0,0,0,704.850830
1928,-668,4,0,0,0,681.798218
918,1885,1,0,0,0,654.957031
-541,269,2,0,0,0,1012.541626
-1924,-1283,3,0,0,0,605.082825
952,-1638,4,0,0,0,703.026306
31,1655,1,0,0,0,722.576172
-592,1357,2,0,0,0,754.581177
-1868,-981,3,0,0,0,631.175903
632,-571,4,0,0,0,932.817200
1989,397,1,0,0,0,664.430664
-891,1328,2,0,0,0,732.457336
-1638,-592,3,0,0,0,685.935669
80,-624,4,1,0,4,58.492023
782,998,1,0,0,0,799.109619
-351,279,2,0,0,0,1098.540161
-457,-674,3,0,0,0,904.325012
1852,-1123,4,0,0,0,664.746033
1575,1698,1,0,0,0,626.586731
-1064,632,2,0,0,0,806.070984
-297,-290,3,0,0,0,1098.550781
1266,-455,4,0,0,0,801.268616
1181,72,1,0,0,0,818.983887
-122,109,2,0,0,0,1389.386353
-748,-132,3,0,0,0,924.378357
840,-346,4,1,0,22,110.388023
413,734,1,0,0,0,916.825134
-35,1551,2,1,0,18,160.293365
-796,-1129,3,0,0,0,752.347534
1385,-575,4,0,0,0,770.066895
454,206,1,0,0,0,1067.951904
-1975,936,2,0,0,0,643.105530
-697,-810,3,0,0,0,826.113159
1864,-95,4,0,0,0,707.311157
1914,894,1,0,0,0,652.808350
-221,319,2,1,0,0,196.560822
-793,-1492,3,0,0,0,694.616943
109,-1102,4,0,0,0,857.240479
1504,427,1,0,0,0,738.944153
-1272,1741,2,0,0,0,646.968933
-1514,-13,3,1,0,4,58.492023
926,-1569,4,1,0,4,58.492023
920,1273,1,1,0,14,232.188599
-348,667,2,0,0,0,949.340637
-1743,-432,3,1,0,4,58.492023
1645,-404,4,1,0,22,103.184280
1037,1543,1,0,0,0,689.325256
-145,514,2,1,0,18,132.381073
-325,-368,3,0,0,0,1050.146240
1839,-1833,4,0,0,0,613.051025
1204,1999,1,0,0,0,624.432129
-1434,1243,2,0,0,0,683.439880
-474,-1546,3,0,0,0,707.193176
1937,-1751,4,0,0,0,611.453735
112,595,1,0,0,0,1011.939941
-1831,1929,2,1,0,4,58.492023
-1839,-1775,3,0,0,0,576.695923
1329,-203,4,0,0,0,801.453918
1150,1294,1,0,0,0,709.734619
-1318,1288,2,0,0,0,691.837036
-843,-1911,3,1,0,4,58.492023
1806,-1085,4,0,0,0,672.640442
412,106,1,1,0,0,168.067642
-617,1075,2,0,0,0,805.621582
-207,-1433,3,0,0,0,738.863037
925,-505,4,0,0,0,871.493835
368,446,1,1,0,18,153.909912
-1087,1858,2,1,0,18,76.390892
-997,-1548,3,1,0,4,58.492023
389,-1360,4,0,0,0,786.842590
225,1913,1,1,0,18,142.464081
-1129,1617,2,0,0,0,672.444641
-87,-38,3,0,0,0,1524.168213
1677,-411,4,0,0,0,729.619507
726,1939,1,0,0,0,658.546021
-1669,624,2,0,0,0,701.473083
-477,-569,3,1,0,4,58.492023
388,-128,4,0,0,0,1144.612305
1026,1224,1,0,0,0,732.828552
-1117,940,2,0,0,0,758.606018
-221,-56,3,0,0,0,1271.406494
1209,-1499,4,1,0,4,58.492023
244,1245,1,0,0,0,798.928101
-288,435,2,0,0,0,1054.864868
-1014,-410,3,0,0,0,819.422852
1423,-598,4,0,0,0,761.777161
1057,771,1,0,0,0,790.088806
-75,1257,2,0,0,0,801.076721
-756,-753,3,0,0,0,826.537048
35,-1724,4,0,0,0,729.997498
1244,1351,1,1,0,18,147.154480
-1967,418,2,1,0,4,58.492023
-608,-893,3,0,0,0,822.973755
619,-1040,4,0,0,0,831.677124
1482,61,1,0,0,0,754.049744
-288,875,2,1,0,18,139.841858
-758,-1180,3,1,0,4,58.492023
1125,-260,4,0,0,0,845.210876
1428,1657,1,0,0,0,642.863586
-967,850,2,1,0,4,58.492023
-28,-1936,3,1,0,4,58.492023
1175,-946,4,0,0,0,768.372986
393,1066,1,0,0,0,830.655151
-1562,1175,2,0,0,0,674.997742
-404,-902,3,0,0,0,848.573181
1614,-1885,4,0,0,0,625.934570
1141,396,1,1,0,22,272.546631
-1894,1093,2,0,0,0,642.951721
-179,-1624,3,0,0,0,704.233093
597,-1287,4,0,0,0,785.993896
1114,917,1,0,0,0,761.972351
-1416,1723,2,0,0,0,637.342285
-466,-826,3,0,0,0,860.449097
336,-48,4,0,0,0,1198.104980
1247,1287,1,1,0,18,148.504272
-1931,1457,2,0,0,0,614.200012
-1665,-289,3,0,0,0,694.575195
1480,-434,4,0,0,0,762.004883
829,32,1,0,0,0,921.165771
-995,1074,2,0,0,0,757.786133
-1898,-947,3,0,0,0,629.666199
274,-955,4,0,0,0,888.469055
820,23,1,1,0,22,137.807861
-956,821,2,0,0,0,800.868225
-1589,-671,3,0,0,0,688.713806
152,-570,4,0,0,0,1038.680542
186,1538,1,0,0,0,741.567688
-1826,640,2,0,0,0,677.892578
-1270,-627,3,0,0,0,745.178772
1908,-391,4,0,0,0,695.113953
180,1941,1,0,0,0,675.769836
-1008,1997,2,0,0,0,636.476990
-1097,-1314,3,0,0,0,690.901794
753,-1354,4,0,0,0,760.709351
1061,1348,1,1,0,14,173.019867
-11,897,2,0,0,0,898.653076
-1457,-551,3,0,0,0,717.900940
1060,-1522,4,0,0,0,709.108154
790,1451,1,0,0,0,723.125488
-433,1938,2,0,0,0,670.474060
-1178,-1342,3,0,0,0,678.803467
1932,-1084,4,0,0,0,658.299011
982,751,1,0,0,0,806.370972
-1920,270,2,0,0,0,677.304688
-252,-485,3,0,0,0,1019.219055
831,-853,4,0,0,0,836.326111
152,425,1,0,0,0,1096.625854
-96,1957,2,0,0,0,674.303772
-391,-1953,3,0,0,0,647.608215
811,-1747,4,1,0,4,58.492023
1973,1491,1,1,0,18,87.645035
-1006,1678,2,0,0,0,674.726562
-359,-1840,3,0,0,0,664.900085
1364,-1990,4,0,0,0,633.966309
1826,1893,1,0,0,0,590.425232
-626,1694,2,1,0,18,103.725609
-1702,-1297,3,0,0,0,627.162598
275,-371,4,0,0,0,1109.283813
95,1017,1,0,0,0,861.277710
-1139,209,2,0,0,0,825.168884
-1717,-474,3,0,0,0,679.517761
1476,-1959,4,1,0,4,58.492023
1100,1443,1,0,0,0,696.279968
-1967,1556,2,0,0,0,603.925415
-878,-997,3,0,0,0,763.556152
396,-1888,4,1,0,4,58.492023
667,1321,1,0,0,0,754.710999
-1690,1503,2,1,0,4,58.492023
-1732,-515,3,1,0,4,58.492023
691,-1741,4,0,0,0,706.285583
496,995,1,1,0,18,298.411682
-386,115,2,1,0,0,184.769409
-398,-217,3,0,0,0,1073.155273
75,-1431,4,1,0,4,58.492023
862,1359,1,0,0,0,730.649292
-619,1304,2,0,0,0,761.855591
-1238,-176,3,1,0,4,58.492023
1947,-570,4,0,0,0,683.446106
1594,1465,1,1,0,18,111.924759
-469,1530,2,0,0,0,732.267151
-1789,-1671,3,1,0,4,58.492023
612,-1065,4,1,0,4,58.492023
1343,525,1,0,0,0,762.152344
-938,1628,2,0,0,0,686.294495
-1822,-1565,3,0,0,0,594.320496
35,-632,4,0,0,0,1018.373535
295,809,1,0,0,0,910.435364
-1682,194,2,1,0,4,58.492023
-1705,-1632,3,0,0,0,599.290466
80,-1941,4,0,0,0,695.850281
1512,35,1,1,0,22,140.933685
-866,21,2,0,0,0,908.718872
-63,-944,3,1,0,4,58.492023
1736,-257,4,0,0,0,724.960388
1521,1620,1,0,0,0,638.375916
-702,1916,2,0,0,0,662.700989
-361,-47,3,0,0,0,1136.402222
153,-1830,4,0,0,0,711.958069
1218,1361,1,1,0,18,149.861298
-1508,544,2,1,0,4,58.492023
-1393,-864,3,1,0,4,58.492023
1356,-1202,4,0,0,0,715.778992
1368,1732,1,1,0,18,119.511490
-868,1486,2,0,0,0,711.432434
-1165,-675,3,0,0,0,759.707825
1827,-1140,4,1,0,22,69.051506
1625,1605,1,0,0,0,630.549255
-270,1351,2,0,0,0,775.240967
-1848,-319,3,0,0,0,664.803284
1969,-499,4,0,0,0,683.090149
692,1434,1,0,0,0,733.709839
-852,526,2,0,0,0,867.008911
-480,-1243,3,0,0,0,762.699829
534,-106,4,0,0,0,1061.824463
1505,195,1,1,0,22,156.833588
-417,1410,2,1,0,18,127.772675
-1925,-1730,3,1,0,4,58.492023
46,-1022,4,0,0,0,880.043213
1635,1980,1,0,0,0,597.235352
-1875,1351,2,0,0,0,627.198608
-1639,-895,3,1,0,4,58.492023
451,-1260,4,0,0,0,802.767761
1793,1001,1,1,0,22,113.429794
-1846,1334,2,1,0,4,58.492023
-248,-1325,3,1,0,4,58.492023
1020,-590,4,0,0,0,839.367371
39,965,1,1,0,18,188.070648
-71,564,2,0,0,0,1030.118530
-1600,-50,3,0,0,0,710.086304
823,-1650,4,0,0,0,710.793823
1237,583,1,0,0,0,777.378479
-1188,1545,2,1,0,18,76.580406
-886,-1497,3,0,0,0,686.289978
1981,-705,4,0,0,0,673.204041
1198,826,1,0,0,0,759.539124
-1328,1543,2,1,0,18,70.695534
-29,-1690,3,0,0,0,694.515381
967,-946,4,1,0,4,58.492023
1505,1941,1,0,0,0,609.870972
-1441,1065,2,0,0,0,699.869446
-1315,-938,3,0,0,0,707.507141
68,-483,4,0,0,0,1093.513550
100,186,1,0,0,0,1315.735840
-1863,1730,2,1,0,4,58.492023
-1673,-1835,3,1,0,4,58.492023
457,-258,4,1,0,0,122.825470
1409,1955,1,0,0,0,615.280945
-615,1354,2,0,0,0,753.301819
-114,-1450,3,0,0,0,737.558594
761,-1215,4,1,0,4,58.492023
1883,608,1,0,0,0,671.491699
-251,617,2,0,0,0,984.420532
-546,-780,3,0,0,0,859.320129
1941,-1430,4,0,0,0,634.167542
460,929,1,0,0,0,857.020569
-549,1687,2,0,0,0,702.721497
-1407,-923,3,0,0,0,695.791443
1320,-1074,4,0,0,0,733.784912
765,1991,1,0,0,0,650.063538
-1996,107,2,0,0,0,668.597595
-652,-618,3,1,0,4,58.492023
558,-1426,4,0,0,0,764.066284
619,637,1,1,0,18,182.584457
-1303,597,2,0,0,0,763.892578
-568,-822,3,0,0,0,845.442871
524,-1420,4,0,0,0,767.402222
1982,859,1,0,0,0,646.444214
-1994,1762,2,1,0,4,58.492023
-401,-661,3,0,0,0,919.278564
1631,-745,4,1,0,22,86.528351
137,508,1,0,0,0,1052.415283
-951,223,2,0,0,0,874.137634
-114,-965,3,0,0,0,853.456787
90,-1959,4,0,0,0,693.149658
1582,1981,1,0,0,0,600.867920
-941,1119,2,0,0,0,758.178894
-1444,-1708,3,1,0,4,58.492023
1562,-1691,4,0,0,0,647.342590
44,911,1,1,0,18,184.708420
-1703,1185,2,1,0,4,58.492023
-109,-991,3,0,0,0,846.070679
640,-1498,4,1,0,4,58.492023
1615,1036,1,1,0,22,121.020508
-1782,810,2,0,0,0,674.580933
-812,-133,3,1,0,4,58.492023
1616,-493,4,0,0,0,735.848145
704,384,1,0,0,0,930.948181
-666,944,2,0,0,0,825.847168
-407,-584,3,1,0,4,58.492023
1362,-275,4,0,0,0,791.977478
1710,1685,1,0,0,0,616.362488
-1235,1797,2,0,0,0,643.772400
-1052,-390,3,0,0,0,812.100281
1303,-659,4,0,0,0,777.722595
188,127,1,1,0,0,395.814697
-978,1712,2,0,0,0,672.514465
-1333,-212,3,0,0,0,758.998291
1596,-252,4,0,0,0,748.652222
78,414,1,1,0,0,170.988571
-1500,1825,2,0,0,0,620.946289
-139,-630,3,0,0,0,971.416504
1561,-1612,4,0,0,0,654.635315
109,1913,1,0,0,0,680.685425
-1832,839,2,0,0,0,666.303589
-1412,-864,3,1,0,4,58.492023
1263,-955,4,0,0,0,754.457886
795,327,1,0,0,0,910.931702
-1581,1861,2,0,0,0,611.521423
-992,-1503,3,0,0,0,676.384094
1905,-1652,4,0,0,0,621.387085
1736,1594,1,1,0,18,99.505936
-673,898,2,0,0,0,834.205200
-138,-1676,3,1,0,4,58.492023
990,-800,4,1,0,4,58.492023
1748,25,1,1,0,22,122.794579
-460,306,2,1,0,4,58.492023
-1079,-24,3,0,0,0,823.256653
1460,-1642,4,0,0,0,660.643188
1615,442,1,0,0,0,719.287842
-1528,678,2,0,0,0,719.754761
-100,-1263,3,0,0,0,777.175903
1114,-764,4,0,0,0,800.089417
132,955,1,0,0,0,877.909973
-577,138,2,0,0,0,1017.796936
-642,-1526,3,0,0,0,700.453125
1951,-1934,4,0,0,0,597.024597
745,378,1,1,0,22,152.715775
-516,269,2,0,0,0,1023.373291
-156,-18,3,1,0,0,527.015442
700,-1477,4,0,0,0,745.349365
1706,1670,1,0,0,0,617.951050
-39,415,2,1,0,0,174.198990
-571,-1804,3,0,0,0,662.244141
732,-1842,4,0,0,0,690.094299
1897,785,1,1,0,22,115.962173
-78,1685,2,0,0,0,717.171570
-1487,-804,3,0,0,0,694.482666
1713,-601,4,1,0,22,91.406815
1856,400,1,0,0,0,683.307434
-941,115,2,1,0,4,58.492023
-917,-1132,3,1,0,4,58.492023
811,-750,4,0,0,0,857.953796
879,563,1,0,0,0,855.030212
-972,66,2,0,0,0,874.892334
-1888,-211,3,0,0,0,661.107727
1543,-867,4,0,0,0,722.524597
351,550,1,0,0,0,990.385315
-1643,1499,2,1,0,4,58.492023
-1147,-249,3,1,0,4,58.492023
710,-1782,4,0,0,0,699.470398
24,1211,1,0,0,0,812.248230
-1762,393,2,0,0,0,697.728394
-854,-619,3,0,0,0,829.868225
1816,-1121,4,0,0,0,668.965820
1518,87,1,0,0,0,746.934998
-635,1376,2,0,0,0,747.886841
-429,-1610,3,0,0,0,698.620972
31,-1079,4,0,0,0,864.592957
1694,1582,1,0,0,0,626.360596
-1585,230,2,0,0,0,732.028625
-147,-1991,3,0,0,0,646.941101
1998,-1869,4,0,0,0,598.187866
272,414,1,0,0,0,1069.803955
-821,458,2,1,0,4,58.492023
-332,-278,3,0,0,0,1086.361938
413,-988,4,0,0,0,866.894836
295,231,1,0,0,0,1150.328491
-1657,626,2,0,0,0,703.170166
-668,-286,3,1,0,4,58.492023
1163,-1416,4,1,0,4,58.492023
1089,1481,1,0,0,0,692.546143
-779,672,2,0,0,0,859.208374
-217,-317,3,1,0,0,183.495880
980,-1066,4,1,0,4,58.492023
173,1229,1,0,0,0,805.242798
-999,911,2,0,0,0,780.651306
-970,-1203,3,0,0,0,720.182922
354,-566,4,0,0,0,1003.023010
195,872,1,0,0,0,899.788513
-147,999,2,0,0,0,864.584900
-203,-998,3,0,0,0,839.943481
816,-1497,4,0,0,0,733.241882
1076,1011,1,0,0,0,755.369934
-358,928,2,1,0,18,134.365433
-1082,-352,3,1,0,4,58.492023
700,-1485,4,1,0,4,58.492023
654,179,1,1,0,22,134.175140
-1988,312,2,1,0,4,58.492023
-1516,-1685,3,1,0,4,58.492023
1505,-1970,4,0,0,0,626.219238
664,1191,1,0,0,0,778.200928
-1075,1289,2,0,0,0,718.596619
-957,-67,3,0,0,0,857.142639
779,-464,4,0,0,0,914.799927
1383,1254,1,0,0,0,688.130554
-583,1890,2,0,0,0,671.614441
-1239,-1370,3,0,0,0,669.126648
702,-1345,4,0,0,0,766.723816
783,449,1,0,0,0,896.881958
-1186,1957,2,1,0,18,70.719521
-1093,-739,3,1,0,4,58.492023
1195,-1625,4,1,0,4,58.492023
386,473,1,0,0,0,1009.539490
-1705,1107,2,0,0,0,663.781555
-405,-1026,3,0,0,0,816.991089
766,-108,4,0,0,0,960.552673
602,557,1,0,0,0,924.470459
-1684,1422,2,0,0,0,640.701416
-342,-1230,3,0,0,0,774.983154
333,-1572,4,1,0,4,58.492023
1918,87,1,0,0,0,680.108459
-736,1965,2,0,0,0,654.730591
-507,-1687,3,0,0,0,682.695740
1469,-1147,4,0,0,0,707.720947
116,994,1,0,0,0,867.165161
-859,1289,2,0,0,0,741.605713
-252,-1717,3,0,0,0,686.972900
743,-1919,4,0,0,0,679.373840
317,1456,1,0,0,0,752.726624
-1170,895,2,1,0,4,58.492023
-1518,-251,3,1,0,4,58.492023
359,-536,4,0,0,0,1012.892334
241,1990,1,1,0,18,135.110992
-1947,1772,2,0,0,0,590.157593
-412,-293,3,0,0,0,1041.700439
564,-303,4,0,0,0,1015.081116
696,198,1,0,0,0,960.552185
-254,726,2,0,0,0,942.967773
-722,-1719,3,0,0,0,666.462891
1625,-1290,4,0,0,0,677.026184
1001,1813,1,0,0,0,658.473816
-1800,1811,2,0,0,0,598.835693
-1587,-1124,3,1,0,4,58.492023
887,-1436,4,0,0,0,736.131775
227,1366,1,1,0,18,221.616959
-705,1339,2,0,0,0,748.303162
-1753,-770,3,0,0,0,658.876343
73,-1303,4,0,0,0,809.997742
1857,992,1,0,0,0,653.774597
-482,1313,2,0,0,0,770.904785
-1828,-68,3,0,0,0,671.909912
1962,-1747,4,0,0,0,609.723389
584,1192,1,0,0,0,785.933838
-952,1705,2,0,0,0,675.264893
-820,-251,3,0,0,0,889.430054
1944,-166,4,1,0,22,102.615128
1634,1369,1,0,0,0,650.226196
-1946,1906,2,1,0,4,58.492023
-1470,-1174,3,0,0,0,663.899963
970,-1351,4,0,0,0,740.359558
1569,286,1,0,0,0,733.239075
-1734,649,2,0,0,0,690.499939
-1320,-626,3,1,0,4,58.492023
1368,-38,4,0,0,0,796.344666
1526,1637,1,0,0,0,636.352295
-858,345,2,0,0,0,889.896973
-787,-1400,3,0,0,0,709.146912
1247,-1302,4,0,0,0,717.240479
1797,199,1,0,0,0,697.302490
-1526,938,2,0,0,0,699.967041
-592,-535,3,0,0,0,910.183350
1493,-480,4,1,0,22,102.624184
1407,1769,1,0,0,0,633.519531
-1557,697,2,0,0,0,713.947937
-1113,-1769,3,0,0,0,633.878723
1167,-909,4,0,0,0,773.994263
1153,1147,1,0,0,0,727.631897
-1867,751,2,0,0,0,666.671936
-1118,-589,3,0,0,0,777.922668
1843,-802,4,0,0,0,686.106506
1226,1899,1,0,0,0,633.511963
-298,495,2,0,0,0,1025.426025
-1093,-59,3,1,0,4,58.492023
393,-191,4,0,0,0,1125.237915
452,1070,1,0,0,0,824.292053
-836,574,2,0,0,0,863.353455
-781,-1860,3,0,0,0,643.971069
855,-1426,4,0,0,0,740.442688
1219,41,1,1,0,22,157.177643
-257,674,2,0,0,0,961.461609
-1791,-1962,3,0,0,0,565.765137
1624,-1906,4,0,0,0,623.369019
687,1924,1,0,0,0,662.362305
-1895,308,2,0,0,0,680.124084
-1878,-1492,3,0,0,0,594.713989
434,-1711,4,0,0,0,723.288879
936,1523,1,0,0,0,700.543396
-224,998,2,0,0,0,860.882874
-1153,-1005,3,0,0,0,723.134277
449,-1071,4,0,0,0,843.556885
1889,1986,1,0,0,0,578.732483
-355,1537,2,0,0,0,736.382935
-905,-703,3,0,0,0,806.015686
600,-1792,4,0,0,0,703.749390
60,1675,1,0,0,0,719.000122
-1805,1480,2,0,0,0,624.358582
-483,-1316,3,0,0,0,748.132812
1725,-1528,4,1,0,4,58.492023
731,876,1,0,0,0,829.442505
-1608,1442,2,0,0,0,646.479797
-407,-1110,3,0,0,0,797.052734
1013,-623,4,0,0,0,836.719238
1440,765,1,0,0,0,726.885559
-1444,1843,2,0,0,0,623.489807
-829,-28,3,0,0,0,899.017578
535,-852,4,0,0,0,884.864441
1731,1626,1,1,0,18,99.083504
-441,1406,2,0,0,0,755.935913
-1288,-523,3,0,0,0,750.538269
1692,-337,4,1,0,22,105.349762
195,1869,1,0,0,0,686.255798
-1939,1954,2,0,0,0,577.506287
-1893,-1962,3,1,0,4,58.492023
929,-1310,4,0,0,0,750.398376
1310,1076,1,0,0,0,715.740234
-928,3,2,1,0,4,58.492023
-1214,-1520,3,0,0,0,654.342957
497,-461,4,0,0,0,998.609497
532,939,1,0,0,0,845.436340
-1291,715,2,0,0,0,755.501038
-8,-1628,3,0,0,0,705.253784
1692,-769,4,0,0,0,708.520691
1866,732,1,0,0,0,667.802002
-1592,1109,2,0,0,0,677.113037
-491,-919,3,0,0,0,833.379517
1063,-1189,4,1,0,4,58.492023
1436,1191,1,1,0,18,129.325974
-1057,770,2,0,0,0,790.218018
-718,-950,3,1,0,4,58.492023
624,-85,4,0,0,0,1019.837158
1759,149,1,0,0,0,704.142761
-1905,948,2,0,0,0,650.741821
-38,-238,3,0,0,0,1255.372192
980,-299,4,0,0,0,879.603699
1580,1537,1,0,0,0,640.677368
-405,1770,2,1,0,18,115.199234
-868,-759,3,0,0,0,804.246277
1046,-41,4,0,0,0,873.431396
281,183,1,1,0,0,246.040146
-1667,1623,2,1,0,4,58.492023
-1624,-434,3,0,0,0,696.087097
1098,-1932,4,0,0,0,657.413208
1447,333,1,0,0,0,753.746521
-228,830,2,0,0,0,910.555969
-753,-779,3,0,0,0,822.146240
1558,-1381,4,0,0,0,676.040039
1259,1003,1,0,0,0,730.584778
-1270,807,2,0,0,0,749.928528
-1535,-7,3,1,0,4,58.492023
1774,-1737,4,0,0,0,625.795532
539,160,1,0,0,0,1033.283081
-641,1536,2,0,0,0,721.005798
-288,-1562,3,0,0,0,712.323120
1596,-217,4,0,0,0,749.557312
414,1760,1,1,0,18,167.914261
-1166,1108,2,0,0,0,730.799133
-1729,-1655,3,0,0,0,595.319397
1429,-1320,4,0,0,0,695.450317
1041,823,1,0,0,0,786.008057
-150,1073,2,0,0,0,844.318787
-1593,-1190,3,0,0,0,648.088867
385,-1926,4,0,0,0,692.706726
573,815,1,0,0,0,868.455261
-126,1010,2,0,0,0,862.293213
-432,-43,3,1,0,4,58.492023
366,-548,4,0,0,0,1006.761780
55,266,1,0,0,0,1243.112671
-848,798,2,0,0,0,823.579468
-1837,-176,3,0,0,0,669.398254
394,-4,4,0,0,0,1155.070068
153,1984,1,0,0,0,669.883667
-1682,1227,2,0,0,0,656.961304
-1943,-1489,3,0,0,0,588.928833
180,-1334,4,0,0,0,801.095947
1758,1686,1,0,0,0,612.231873
-1541,967,2,1,0,4,58.492023
-1465,-1730,3,0,0,0,610.741882
1772,-662,4,0,0,0,703.470459
421,833,1,0,0,0,887.238159
-1333,1068,2,0,0,0,713.581543
-1451,-1107,3,0,0,0,672.567139
1662,-1449,4,0,0,0,659.638855
95,1705,1,1,0,18,157.765976
-884,1596,2,0,0,0,694.705139
-1216,-700,3,0,0,0,747.876770
1623,-1058,4,0,0,0,696.625366
825,136,1,0,0,0,918.911987
-1583,1244,2,0,0,0,666.540222
-178,-901,3,0,0,0,869.691406
1537,-948,4,0,0,0,716.762817
470,25,1,0,0,0,1084.550293
-1817,259,2,0,0,0,693.000366
-1199,-366,3,1,0,4,58.492023
122,-1333,4,0,0,0,802.705627
154,656,1,1,0,18,169.890823
-155,946,2,0,0,0,879.546570
-556,-1907,3,1,0,4,58.492023
1057,-1621,4,0,0,0,696.953735
1331,936,1,1,0,22,143.665054
-755,1415,2,1,0,18,101.534363
-718,-429,3,0,0,0,896.622192
466,-1231,4,0,0,0,807.539307
89,660,1,0,0,0,984.475464
-1962,433,2,0,0,0,667.122681
-258,-819,3,0,0,0,889.053772
577,-910,4,0,0,0,865.109192
394,121,1,1,0,0,177.632477
-1976,557,2,0,0,0,660.963501
-1506,-422,3,0,0,0,716.744202
1119,-1733,4,1,0,4,58.492023
946,800,1,1,0,2,190.347031
-525,512,2,0,0,0,956.710388
-4,-408,3,0,0,0,1103.513306
1492,-756,4,1,0,22,88.039787
1619,1414,1,0,0,0,647.846252
-316,1615,2,0,0,0,724.254639
-1756,-1553,3,0,0,0,601.218506
1616,-660,4,1,0,22,90.682388
1687,807,1,0,0,0,687.638306
-1396,1090,2,0,0,0,703.197815
-1369,-765,3,0,0,0,715.969543
1860,-1602,4,0,0,0,629.025696
523,363,1,0,0,0,997.463806
-1885,864,2,1,0,4,58.492023
-1875,-1988,3,1,0,4,58.492023
1156,-1725,4,0,0,0,676.786072
804,151,1,0,0,0,925.208069
-534,56,2,0,0,0,1046.567871
-1653,-1347,3,0,0,0,628.167297
1709,-1993,4,1,0,4,58.492023
1074,113,1,0,0,0,845.251343
-1263,152,2,1,0,4,58.492023
-1904,-1746,3,0,0,0,573.668274
710,-44,4,0,0,0,984.716003
715,1069,1,0,0,0,795.015686
-1696,333,2,1,0,4,58.492023
-941,-1206,3,0,0,0,723.104614
1147,-1727,4,0,0,0,677.244873
1471,611,1,0,0,0,733.600037
-330,1123,2,0,0,0,822.089661
-657,-507,3,1,0,4,58.492023
1967,-1869,4,1,0,4,58.492023
622,837,1,1,0,18,224.988770
-660,1100,2,0,0,0,795.746155
-894,-29,3,0,0,0,877.296021
1874,-660,4,0,0,0,689.415527
1482,1314,1,0,0,0,671.215820
-455,1863,2,0,0,0,680.438538
-598,-506,3,1,0,4,58.492023
227,-445,4,0,0,0,1086.625366
613,1526,1,0,0,0,724.447266
-586,957,2,0,0,0,834.215271
-1044,-551,3,0,0,0,797.486450
611,-287,4,0,0,0,999.819031
720,1501,1,0,0,0,720.942627
-954,1222,2,0,0,0,741.366821
-28,-1841,3,1,0,4,58.492023
1479,-1,4,0,0,0,774.042175
367,1766,1,0,0,0,697.976807
-1552,1349,2,1,0,4,58.492023
-1714,-199,3,0,0,0,688.606262
1809,-1845,4,0,0,0,614.435120
1305,1413,1,0,0,0,679.593567
-1143,179,2,0,0,0,825.438660
-1388,-160,3,0,0,0,749.084961
1733,-917,4,0,0,0,693.209229
1316,1281,1,1,0,18,140.740646
-120,1109,2,0,0,0,835.934692
-491,-607,3,0,0,0,916.461609
1284,-1954,4,0,0,0,642.905396
759,939,1,0,0,0,813.161926
-494,1123,2,0,0,0,808.565735
-305,-1266,3,0,0,0,769.290527
574,-1199,4,0,0,0,804.700500
1411,1400,1,1,0,18,128.578308
-1384,1697,2,1,0,18,67.052567
-1278,-920,3,0,0,0,714.791748
1573,-1596,4,1,0,4,58.492023
1029,974,1,0,0,0,767.193909
-1714,1157,2,0,0,0,658.891418
-1877,-28,3,0,0,0,664.517700
1608,-597,4,0,0,0,731.515869
1018,246,1,0,0,0,854.078552
-215,1611,2,0,0,0,727.820251
-510,-1981,3,0,0,0,640.000916
1800,-1168,4,0,0,0,667.414307
340,537,1,1,0,18,165.303223
-548,1763,2,0,0,0,691.315552
-143,-1424,3,0,0,0,742.193298
1939,-1415,4,0,0,0,635.409180
1065,1505,1,0,0,0,691.703064
-1731,688,2,0,0,0,688.768127
-1696,-1615,3,0,0,0,601.495483
896,-539,4,0,0,0,873.755066
1082,402,1,0,0,0,826.102051
-339,651,2,0,0,0,956.455261
-1135,-569,3,1,0,4,58.492023
522,-1418,4,0,0,0,767.890015
285,1777,1,0,0,0,698.615723
-172,484,2,0,0,0,1059.345825
-1153,-483,3,0,0,0,781.026978
541,-111,4,0,0,0,1057.695801
604,1613,1,1,0,18,192.370102
-1918,1259,2,0,0,0,629.267639
-1842,-1434,3,1,0,4,58.492023
380,-1806,4,0,0,0,710.532654
462,945,1,0,0,0,852.820862
-167,693,2,0,0,0,964.876526
-1087,-1311,3,0,0,0,692.360107
1415,-400,4,0,0,0,775.707153
264,742,1,0,0,0,936.150879
-955,1315,2,0,0,0,727.836121
-465,-749,3,0,0,0,881.466919
727,-1948,4,0,0,0,676.412720
1199,1390,1,0,0,0,692.952332
-1419,445,2,0,0,0,753.298828
-1115,-1722,3,0,0,0,639.184021
313,-1226,4,0,0,0,818.884338
1801,807,1,0,0,0,672.241821
-1665,1148,2,0,0,0,665.252625
-313,-523,3,0,0,0,987.797302
254,-443,4,0,0,0,1080.288940
67,662,1,0,0,0,984.731689
-693,1172,2,0,0,0,778.629822
-1524,-1454,3,0,0,0,631.659668
898,-1564,4,0,0,0,717.139832
518,1775,1,0,0,0,690.876404
-1921,136,2,0,0,0,679.240723
-236,-829,3,0,0,0,887.962219
221,-1651,4,0,0,0,739.917358
174,591,1,0,0,0,1006.921570
-366,471,2,0,0,0,1016.239380
-656,-1524,3,1,0,4,58.492023
685,-1567,4,0,0,0,732.364380
948,479,1,0,0,0,850.029724
-1068,343,2,0,0,0,834.326477
-338,-639,3,0,0,0,938.634460
635,-1766,4,1,0,4,58.492023
1053,1142,1,0,0,0,740.796692
-1536,997,2,1,0,4,58.492023
-1663,-1500,3,1,0,4,58.492023
199,-798,4,0,0,0,942.903992
613,369,1,0,0,0,963.805298
-1722,812,2,0,0,0,682.520630
-207,-1023,3,0,0,0,832.885803
1227,-1856,4,0,0,0,657.065613
759,1302,1,0,0,0,749.477173
-1541,1826,2,0,0,0,617.711060
-911,-1181,3,0,0,0,730.343262
1067,-828,4,1,0,4,58.492023
1516,657,1,0,0,0,723.104370
-746,1709,2,0,0,0,688.459534
-1406,-1547,3,0,0,0,633.816101
1924,-1418,4,1,0,4,58.492023
1224,449,1,0,0,0,791.092041
-698,1931,2,0,0,0,660.925110
-1562,-1563,3,0,0,0,618.018738
941,-11,4,1,0,22,142.395630
1378,1513,1,1,0,18,128.063492
-1384,1913,2,1,0,18,64.414772
-384,-146,3,0,0,0,1101.541504
880,-142,4,0,0,0,919.713013
1599,794,1,0,0,0,700.919556
-294,878,2,0,0,0,889.538574
-834,-878,3,0,0,0,790.159485
340,-1528,4,0,0,0,757.747070
345,88,1,0,0,0,1165.043457
-1138,342,2,0,0,0,817.750305
-715,-1797,3,0,0,0,656.003357
1222,-912,4,0,0,0,765.284302
1323,384,1,0,0,0,775.264893
-1730,1437,2,1,0,4,58.492023
-1384,-466,3,0,0,0,736.402832
1033,-829,4,0,0,0,805.740967
543,1599,1,0,0,0,716.852661
-527,479,2,0,0,0,965.151428
-1603,-1074,3,0,0,0,656.666931
347,-1254,4,1,0,4,58.492023
1061,209,1,1,0,22,184.039398
-1068,479,2,0,0,0,822.085876
-689,-1301,3,0,0,0,734.087952
1449,-1465,4,1,0,4,58.492023
1987,1596,1,0,0,0,599.366516
-1967,1042,2,0,0,0,637.885620
-700,-1750,3,0,0,0,663.363586
1704,-1812,4,0,0,0,625.271729
353,190,1,0,0,0,1130.830444
-1567,1814,2,0,0,0,616.788818
-217,-158,3,1,0,0,309.192322
7,-1573,4,0,0,0,756.348572
444,960,1,0,0,0,851.234558
-1230,709,2,0,0,0,766.618408
-85,-1165,3,0,0,0,800.517273
1491,-1613,4,0,0,0,660.729492
487,410,1,0,0,0,997.474182
-1065,1913,2,0,0,0,642.597046
-1671,-843,3,0,0,0,665.372314
832,-1976,4,1,0,4,58.492023
444,1492,1,1,0,18,222.042557
-401,261,2,0,0,0,1079.814209
-1476,-786,3,1,0,4,58.492023
1838,-1819,4,1,0,4,58.492023
1446,378,1,0,0,0,751.864807
-639,749,2,0,0,0,871.864014
-726,-1606,3,0,0,0,682.544006
466,-13,4,0,0,0,1106.565063
258,740,1,0,0,0,937.573608
-370,82,2,0,0,0,1147.039917
-1701,-1174,3,0,0,0,637.060608
773,-815,4,0,0,0,853.137817
843,541,1,0,0,0,866.901184
-1136,1389,2,0,0,0,699.463867
-65,-1710,3,0,0,0,690.983765
1901,-1881,4,1,0,4,58.492023
523,935,1,0,0,0,847.550598
-1651,1969,2,1,0,4,58.492023
-1318,-1140,3,0,0,0,685.784424
12,-833,4,0,0,0,939.197754
276,875,1,0,0,0,892.168640
-1571,1662,2,0,0,0,630.177429
-1280,-1264,3,0,0,0,676.691956
1446,-684,4,0,0,0,751.535889
603,350,1,0,0,0,971.262817
-954,1225,2,1,0,18,90.782417
-1255,-336,3,0,0,0,769.957886
854,-522,4,0,0,0,886.341125
1018,1396,1,0,0,0,710.299438
-414,995,2,0,0,0,845.847534
-425,-1303,3,0,0,0,754.607605
377,-669,4,0,0,0,962.670288
1769,1319,1,1,0,18,101.700294
-1944,1201,2,0,0,0,630.415649
-1168,-1861,3,0,0,0,619.638550
1067,-1910,4,0,0,0,661.866333
1537,589,1,0,0,0,724.190735
-1656,876,2,0,0,0,687.128174
-1258,-1120,3,0,0,0,695.519409
1690,-1214,4,0,0,0,676.192749
87,1037,1,1,0,18,202.055069
-537,11,2,0,0,0,1046.468750
-1045,-1427,3,0,0,0,681.533203
1124,-113,4,1,0,22,136.993668
659,1351,1,0,0,0,750.224731
-892,1158,2,0,0,0,758.247009
-1354,-243,3,0,0,0,753.547363
373,-659,4,0,0,0,966.704102
115,764,1,1,0,18,179.337097
-1858,1914,2,0,0,0,586.426331
-810,-463,3,0,0,0,865.159302
1418,-1532,4,1,0,4,58.492023
1505,1227,1,0,0,0,676.877502
-601,1008,2,0,0,0,821.332153
-639,-615,3,1,0,4,58.492023
1740,-932,4,0,0,0,691.285095
1895,998,1,0,0,0,648.885315
-891,1592,2,0,0,0,694.719238
-231,-1323,3,0,0,0,760.434998
152,-172,4,0,0,0,1310.945068
1073,458,1,0,0,0,823.030579
-1869,251,2,0,0,0,685.247742
-180,-1523,3,1,0,4,58.492023
1795,-1893,4,0,0,0,611.714539
765,845,1,1,0,2,274.890717
-132,745,2,1,0,18,149.581833
-552,-977,3,0,0,0,812.051270
484,-1271,4,1,0,4,58.492023
58,923,1,0,0,0,889.879517
-1522,1444,2,1,0,4,58.492023
-432,-1138,3,0,0,0,788.675537
1392,-559,4,0,0,0,769.984131
693,251,1,0,0,0,955.249512
-1613,937,2,0,0,0,688.355225
-467,-1943,3,0,0,0,646.667480
1319,-1054,4,0,0,0,736.040588
1201,76,1,0,0,0,814.114014
-1640,348,2,1,0,4,58.492023
-1673,-52,3,0,0,0,697.312988
605,-807,4,0,0,0,884.134338
1685,347,1,1,0,22,142.867554
-946,1178,2,1,0,18,91.339050
-197,-521,3,0,0,0,1013.764648
712,-1012,4,1,0,4,58.492023
1555,1693,1,0,0,0,628.714661
-1452,1539,2,0,0,0,652.355103
-1553,-620,3,0,0,0,697.590088
219,-338,4,0,0,0,1148.751587
1412,539,1,1,0,22,189.014969
-238,1055,2,0,0,0,844.829529
-1789,-619,3,0,0,0,662.115662
1774,-1221,4,0,0,0,666.372559
1326,92,1,1,0,22,161.020432
-833,1092,2,0,0,0,776.132507
-1665,-1172,3,0,0,0,641.324341
668,-1486,4,1,0,4,58.492023
418,1798,1,0,0,0,691.354980
-1797,1396,2,0,0,0,631.607849
-328,-1116,3,1,0,4,58.492023
495,-1901,4,0,0,0,692.665039
1197,1805,1,0,0,0,645.693054
-983,1440,2,1,0,18,87.692429
-627,-1751,3,0,0,0,667.168091
252,-1353,4,0,0,0,794.723877
998,1681,1,0,0,0,674.949036
-1725,1500,2,1,0,4,58.492023
-1728,-78,3,0,0,0,687.903137
1524,-1613,4,0,0,0,657.814941
1604,963,1,0,0,0,687.517151
-1491,75,2,1,0,4,58.492023
-48,-969,3,1,0,4,58.492023
1084,-1456,4,0,0,0,715.280212
1924,990,1,0,0,0,645.965637
-615,1944,2,1,0,18,95.977615
-1240,-1079,3,1,0,4,58.492023
1265,-55,4,0,0,0,818.686340
869,1114,1,0,0,0,768.008545
-1802,721,2,1,0,4,58.492023
-1014,-1882,3,0,0,0,627.439270
968,-291,4,0,0,0,883.508667
396,1669,1,0,0,0,712.365906
-1123,1051,2,1,0,4,58.492023
-1067,-1610,3,0,0,0,656.379517
868,-556,4,0,0,0,877.864746
760,1829,1,0,0,0,671.218567
-1782,93,2,0,0,0,701.057373
-418,-1410,3,0,0,0,734.386169
688,-851,4,0,0,0,860.653076
1822,478,1,1,0,22,128.991333
-1964,1059,2,1,0,4,58.492023
-1907,-482,3,1,0,4,58.492023
223,-1767,4,0,0,0,720.729919
534,676,1,0,0,0,910.313660
-1263,598,2,0,0,0,771.163330
-168,-1089,3,0,0,0,817.293152
405,-1542,4,0,0,0,752.491455
806,1484,1,0,0,0,716.840576
-71,211,2,0,0,0,1300.505615
-600,-1418,3,0,0,0,721.230103
633,-1924,4,0,0,0,683.906860
414,1074,1,0,0,0,826.909180
-1276,430,2,0,0,0,781.822510
-350,-1690,3,1,0,4,58.492023
981,-12,4,0,0,0,892.101868
1950,183,1,1,0,22,114.133186
-730,649,2,1,0,4,58.492023
-804,-978,3,1,0,4,58.492023
777,-1144,4,0,0,0,793.338379
1371,701,1,0,0,0,743.311035
-730,1441,2,0,0,0,729.576172
-646,-1705,3,1,0,4,58.492023
1983,-1313,4,0,0,0,638.047668
198,1830,1,0,0,0,692.173096
-336,1240,2,0,0,0,795.319336
-1764,-1931,3,0,0,0,570.175964
606,-1389,4,1,0,4,58.492023
1588,982,1,0,0,0,688.095154
-199,178,2,1,0,0,331.077362
-154,-657,3,1,0,4,58.492023
1423,-201,4,0,0,0,782.291870
398,1964,1,0,0,0,667.876038
-1588,1338,2,1,0,4,58.492023
-166,-61,3,0,0,0,1344.674927
1098,-1260,4,0,0,0,738.961304
550,1278,1,1,0,18,309.896484
-206,845,2,0,0,0,907.559753
-1775,-1901,3,0,0,0,571.758057
1539,-1785,4,0,0,0,640.629517
834,1882,1,0,0,0,660.198181
-50,1750,2,0,0,0,706.518494
-1956,-965,3,1,0,4,58.492023
784,-1572,4,0,0,0,724.677124
1099,632,1,0,0,0,799.136902
-283,1591,2,0,0,0,729.467163
-372,-1188,3,0,0,0,782.223999
630,-694,4,0,0,0,905.245056
1490,1671,1,0,0,0,636.241638
-1674,1042,2,1,0,4,58.492023
-360,-1519,3,1,0,4,58.492023
1534,-456,4,0,0,0,751.405823
176,91,1,0,0,0,1334.130615
-1589,350,2,0,0,0,727.501709
-1193,-1299,3,0,0,0,682.344543
609,-1433,4,0,0,0,759.278687
14,149,1,1,0,0,569.116394
-104,674,2,1,0,18,147.352112
-1621,-1024,3,0,0,0,658.475586
588,-737,4,0,0,0,903.554260
598,568,1,0,0,0,922.857727
-1851,144,2,0,0,0,689.710022
-899,-163,3,0,0,0,871.186157
278,-1092,4,0,0,0,852.229126
233,1246,1,0,0,0,799.174255
-515,1420,2,0,0,0,748.825623
-636,-218,3,1,0,4,58.492023
1411,-134,4,1,0,22,130.432312
47,1009,1,0,0,0,864.488831
-813,131,2,0,0,0,923.302551
-1876,-332,3,1,0,4,58.492023
1369,-51,4,0,0,0,796.046326
214,645,1,0,0,0,978.648926
-1199,1695,2,0,0,0,657.754761
-763,-1271,3,0,0,0,732.098145
1972,-321,4,1,0,22,95.312965
137,527,1,0,0,0,1042.521484
-1147,643,2,0,0,0,788.638428
-1835,-634,3,0,0,0,654.910645
701,-1243,4,0,0,0,784.314575
1857,1200,1,0,0,0,639.809326
-122,252,2,0,0,0,1234.376099
-1260,-1747,3,0,0,0,625.290771
898,-812,4,1,0,4,58.492023
296,389,1,0,0,0,1073.640381
-1824,109,2,0,0,0,694.268005
-23,-1159,3,0,0,0,802.708191
1409,-1322,4,0,0,0,697.410339
1112,1821,1,0,0,0,649.960754
-1857,712,2,0,0,0,670.037842
-1787,-414,3,0,0,0,671.119690
1197,-1150,4,0,0,0,740.920105
578,1439,1,0,0,0,741.282959
-810,1207,2,0,0,0,759.846497
-1527,-464,3,0,0,0,710.953857
866,-1122,4,1,0,4,58.492023
1353,1763,1,0,0,0,638.348877
-1741,619,2,0,0,0,691.073486
-423,-1624,3,0,0,0,696.565308
1265,-972,4,0,0,0,752.309692
1834,452,1,0,0,0,684.778137
-979,1428,2,0,0,0,709.701660
-1053,-1006,3,0,0,0,737.196350
1119,-958,4,0,0,0,775.196777
371,796,1,0,0,0,904.770508
-108,1674,2,1,0,18,143.418854
-896,-1600,3,0,0,0,671.202515
199,-764,4,0,0,0,954.684265
1683,1291,1,0,0,0,651.644653
-1512,510,2,0,0,0,733.087708
-1890,-798,3,0,0,0,639.170959
1244,-1397,4,0,0,0,706.670471
1401,1262,1,0,0,0,685.276611
-225,1936,2,0,0,0,675.813538
-737,-447,3,0,0,0,887.954102
594,-1089,4,0,0,0,824.589905
1727,1537,1,0,0,0,627.090027
-990,1798,2,1,0,18,81.759956
-1680,-331,3,0,0,0,690.806335
1289,-1505,4,0,0,0,690.175964
1984,519,1,0,0,0,661.275818
-906,530,2,1,0,4,58.492023
-1503,-1854,3,0,0,0,596.117798
836,-964,4,0,0,0,816.467041
1700,202,1,0,0,0,712.930603
-1749,-1261,3,0,0,0,624.999146
736,-1616,4,0,0,0,721.584778
243,610,1,0,0,0,988.552795
-1811,-1708,3,0,0,0,584.167603
730,-1852,4,1,0,4,58.492023
-878,-84,3,0,0,0,881.334900
1660,-938,4,0,0,0,701.199463
-974,-1611,3,1,0,4,58.492023
-266,-115,3,0,0,0,1202.200806
-886,-691,3,1,0,4,58.492023
-1372,-310,3,0,0,0,747.162537


each generation good chromosome number
0,0,0,0,0,0,0,0,0,0,0,0,0,0,0,0,0,0,0,0,0,0,0,0,0,0,0,0,0,0,0,0,0,0,0,0,0,0,0,0,0,0,0,0,0,0,0,0,0,0,0,0,0,0,0,0,0,0,0,0,0,0,0,0,0,0,0,0,0,0,0,0,0,0,0,0,0,0,0,0,0,0,0,0,0,0,0,0,0,0,0,0,0,0,0,0,0,0,0,0,