each times' max average throughput
598.946655,606.680847,604.649475,605.038452,604.090820,0.000000,0.000000,0.000000,604.380981,603.944092,605.760071,603.228149,603.369080,605.609497,606.496033,0.000000,0.000000,604.121460,605.890625,0.000000,0.000000,0.000000,0.000000,0.000000,0.000000,0.000000,0.000000,0.000000,0.000000,605.731689,0.000000,0.000000,0.000000,0.000000,571.994751,602.408325,603.772339,606.680786,606.441101,606.620117,605.402893,605.105347,606.309937,581.584045,602.412903,600.471985,605.792786,603.951111,601.132507,0.000000,0.000000,0.000000,0.000000,565.688904,606.915100,606.887695,606.766724,605.799072,0.000000,0.000000,0.000000,0.000000,0.000000,0.000000,0.000000,0.000000,0.000000,0.000000,0.000000,602.268188,605.853638,606.338196,606.095459,604.579773,605.630859,606.381897,594.674561,603.486267,604.990601,605.099792,607.953857,606.362793,601.383728,606.028931,591.552673,605.431580,602.567322,606.353638,576.946899,603.990356,605.581482,602.362793,0.000000,0.000000,575.745789,607.119934,604.888733,606.324585,601.747070,602.370056,
avg. throughput in all test times
385.301910
avg. BS TX power in all test times
MBS area 1,MBS area 2,MBS area 3,MBS area 4,CBSD 1,CBSD 2,CBSD 3,CBSD 4,CBSD 5,CBSD 6,CBSD 7,CBSD 8,CBSD 9,CBSD 10,CBSD 11,CBSD 12,CBSD 13,CBSD 14,CBSD 15,CBSD 16,CBSD 17,CBSD 18,CBSD 19,CBSD 20,CBSD 21,CBSD 22,CBSD 23,CBSD 24,CBSD 25,CBSD 26,
9.212,9.500,9.238,9.150,0.111,0.064,0.135,0.110,0.144,0.220,0.138,0.069,0.186,0.186,0.108,0.146,0.159,0.102,0.060,0.179,0.090,0.175,0.090,0.097,0.108,0.064,0.206,0.136,0.121,0.294,
avg. mbs all power,avg. cbsd enable number,avg. mbs area all power,avg. cbsd all power
73.250,4.000,37.100,3.497
avg. max avg. throughput generation number in all test times
51.049999
avg. number of relay UE
643

the max average throughput times

BS TX power
MBS area 1,MBS area 2,MBS area 3,MBS area 4,CBSD 1,CBSD 2,CBSD 3,CBSD 4,CBSD 5,CBSD 6,CBSD 7,CBSD 8,CBSD 9,CBSD 10,CBSD 11,CBSD 12,CBSD 13,CBSD 14,CBSD 15,CBSD 16,CBSD 17,CBSD 18,CBSD 19,CBSD 20,CBSD 21,CBSD 22,CBSD 23,CBSD 24,CBSD 25,CBSD 26,
10.000,10.000,7.500,8.750,0.000,0.000,0.500,0.000,0.000,0.000,0.000,0.000,0.750,0.000,0.000,0.000,0.000,0.000,0.000,0.875,0.000,0.000,0.000,0.875,0.000,0.875,0.000,0.000,0.000,0.000,
max average throughput
602.370056

x,y,area,be blocked (1 : NLOS / 0 : LOS),be blocked number (>=1 : CBSD(x) / 0 : no),connect bs number (>=1 : CBSD / 0 : MBS),throughput (unit : M bps)
992,1044,1,0,0,0,781.690063
-1702,1373,2,0,0,0,662.005310
-2000,-326,3,1,0,16,104.013046
785,-1672,4,0,0,0,691.175537
801,224,1,0,0,0,939.666687
-511,1069,2,0,0,0,837.782532
-659,-14,3,0,0,0,965.230896
1612,-642,4,0,0,0,709.077942
376,1323,1,0,0,0,794.906616
-1554,1736,2,1,0,22,31.976620
-1109,-1072,3,0,0,0,720.726685
483,-406,4,1,0,22,31.976620
145,1297,1,0,0,0,809.989624
-1224,95,2,0,0,0,827.569519
-1895,-561,3,0,0,0,649.831665
36,-900,4,0,0,0,897.482971
1723,1389,1,0,0,0,658.579407
-417,172,2,0,0,0,1116.062622
-1207,-864,3,0,0,0,731.724426
614,-1422,4,1,0,20,99.889511
158,268,1,0,0,0,1223.223267
-745,261,2,1,0,9,72.184891
-276,-1229,3,0,0,0,778.845581
269,-1760,4,0,0,0,701.697632
1690,625,1,1,0,22,31.976620
-358,1433,2,0,0,0,774.422607
-1130,-1392,3,0,0,0,677.646179
1525,-750,4,0,0,0,715.031799
611,926,1,1,0,22,31.976620
-618,1118,2,0,0,0,816.144531
-938,-412,3,0,0,0,838.237366
98,-743,4,0,0,0,950.449707
1656,1454,1,1,0,22,31.976620
-283,549,2,0,0,0,1025.436890
-93,-603,3,0,0,0,987.503113
1101,-78,4,0,0,0,838.971619
1934,555,1,0,0,0,685.805054
-163,1252,2,0,0,0,819.511780
-422,-348,3,0,0,0,1018.997742
539,-1672,4,1,0,3,91.989006
927,1658,1,1,0,22,31.976620
-1686,503,2,1,0,9,72.184891
-1257,-1490,3,0,0,0,653.742737
80,-1659,4,0,0,0,721.601685
668,1156,1,0,0,0,803.446655
-1599,664,2,0,0,0,728.830811
-1672,-735,3,1,0,16,129.214630
1561,-567,4,0,0,0,721.626099
629,1557,1,1,0,22,31.976620
-1488,562,2,0,0,0,753.159180
-666,-1391,3,0,0,0,720.764404
766,-442,4,0,0,0,902.756409
1930,733,1,0,0,0,678.445557
-221,752,2,0,0,0,956.768616
-896,-753,3,0,0,0,799.952332
912,-1387,4,0,0,0,721.766296
220,786,1,1,0,22,31.976620
-1004,1828,2,1,0,22,31.976620
-802,-566,3,1,0,16,169.367188
1165,-1745,4,1,0,22,31.976620
552,69,1,0,0,0,1055.601440
-517,864,2,0,0,0,884.629028
-1057,-1232,3,0,0,0,706.086853
1524,-1946,4,0,0,0,608.067993
1450,221,1,0,0,0,776.431946
-187,560,2,0,0,0,1038.446777
-435,-258,3,1,0,16,117.774010
325,-850,4,0,0,0,894.526917
1903,1157,1,1,0,22,31.976620
-1502,1155,2,0,0,0,702.999146
-735,-1407,3,0,0,0,712.488708
1470,-1834,4,1,0,22,31.976620
221,520,1,0,0,0,1051.117432
-1626,1727,2,0,0,0,638.801880
-1734,-519,3,0,0,0,674.935242
1290,-11,4,1,0,22,31.976620
667,1478,1,1,0,22,31.976620
-493,1084,2,1,0,9,72.184891
-1218,-685,3,0,0,0,749.040588
635,-767,4,1,0,3,154.096161
1808,1240,1,1,0,22,31.976620
-1935,1134,2,1,0,9,72.184891
-457,-1943,3,0,0,0,646.998291
1919,-120,4,0,0,0,679.695312
633,1376,1,0,0,0,767.208801
-265,1066,2,1,0,22,31.976620
-1402,-1623,3,0,0,0,626.519653
1773,-1532,4,0,0,0,623.262207
1021,196,1,0,0,0,875.407410
-1258,577,2,0,0,0,793.111267
-257,-871,3,0,0,0,872.934814
699,-816,4,0,0,0,846.712830
1871,116,1,1,0,22,31.976620
-342,76,2,0,0,0,1188.960815
-197,-1200,3,1,0,20,99.889511
1448,-1113,4,0,0,0,694.413330
187,931,1,1,0,22,31.976620
-781,1130,2,1,0,9,72.184891
-1065,-1368,3,0,0,0,687.255371
252,-213,4,1,0,0,251.789581
1475,414,1,0,0,0,763.932861
-187,763,2,0,0,0,956.115112
-467,-101,3,0,0,0,1057.987061
632,-1294,4,0,0,0,762.526550
985,942,1,0,0,0,797.521790
-5,1884,2,0,0,0,704.625183
-1490,-1128,3,1,0,16,117.457001
1234,-1544,4,0,0,0,671.807983
1568,176,1,0,0,0,755.468506
-400,496,2,0,0,0,1016.455383
-1702,-356,3,0,0,0,686.406555
1083,-570,4,1,0,3,162.197556
98,782,1,0,0,0,955.186462
-1961,660,2,1,0,9,72.184891
-1383,-1025,3,1,0,16,131.077560
1159,-1101,4,0,0,0,732.568604
790,488,1,0,0,0,907.940430
-1133,784,2,0,0,0,794.403320
-1812,-1212,3,0,0,0,621.874695
673,-1841,4,1,0,20,99.889511
777,515,1,0,0,0,906.824341
-1173,1936,2,0,0,0,652.141785
-970,-1354,3,1,0,20,99.889511
879,-1633,4,0,0,0,690.026184
1139,1217,1,0,0,0,739.722900
-343,1107,2,0,0,0,844.149475
-1838,-1033,3,0,0,0,631.382385
627,-122,4,0,0,0,996.501709
365,1988,1,0,0,0,684.504089
-854,35,2,1,0,9,72.184891
-1042,-1596,3,0,0,0,660.164551
1683,-1487,4,0,0,0,635.353882
1161,1374,1,0,0,0,717.877502
-497,710,2,0,0,0,927.813538
-1762,-1434,3,0,0,0,610.137939
1761,-79,4,1,0,22,31.976620
507,553,1,0,0,0,969.380493
-132,1907,2,0,0,0,700.467712
-82,-180,3,0,0,0,1312.382935
1204,-398,4,0,0,0,799.065674
130,465,1,1,0,0,144.589233
-1202,334,2,0,0,0,822.954285
-1711,-1886,3,0,0,0,577.741394
919,-498,4,0,0,0,854.640442
1033,90,1,0,0,0,876.164246
-1865,660,2,0,0,0,690.640198
-1155,-1080,3,0,0,0,713.598938
533,-1510,4,0,0,0,732.081055
934,1174,1,0,0,0,769.953125
-1450,174,2,0,0,0,777.676453
-327,-1347,3,0,0,0,751.367004
1212,-91,4,0,0,0,811.259094
18,47,1,0,0,0,1748.784912
-939,1920,2,0,0,0,668.538879
-1211,-1847,3,0,0,0,618.161255
1546,-974,4,0,0,0,694.270752
425,463,1,0,0,0,1020.422363
-1865,1070,2,1,0,9,72.184891
-598,-1058,3,0,0,0,789.131775
912,-1960,4,0,0,0,646.226257
546,1447,1,0,0,0,761.212585
-867,1305,2,0,0,0,757.493652
-1042,-52,3,1,0,9,72.184891
607,-1499,4,0,0,0,729.243286
329,555,1,0,0,0,1012.861633
-315,1783,2,0,0,0,716.007263
-862,-626,3,0,0,0,826.995789
1312,-462,4,1,0,22,31.976620
1108,911,1,0,0,0,782.831299
-420,78,2,0,0,0,1131.762817
-1321,-694,3,0,0,0,730.214355
1828,-1063,4,0,0,0,652.523315
628,234,1,0,0,0,1001.905884
-253,1882,2,1,0,22,31.976620
-319,-307,3,0,0,0,1079.968018
225,-963,4,0,0,0,870.582092
208,589,1,1,0,22,31.976620
-1336,1320,2,0,0,0,705.522888
-292,-1542,3,1,0,20,99.889511
1639,-1134,4,1,0,22,31.976620
1712,166,1,0,0,0,730.717773
-1330,865,2,0,0,0,753.890686
-1809,-1764,3,0,0,0,579.950256
720,-720,4,0,0,0,862.178955
824,1788,1,0,0,0,692.032593
-1179,1004,2,0,0,0,760.844971
-675,-933,3,0,0,0,804.612854
541,-991,4,0,0,0,832.453796
553,834,1,0,0,0,886.403564
-1500,1374,2,1,0,9,72.184891
-1425,-1025,3,1,0,16,128.926392
1895,-1055,4,0,0,0,645.292175
1544,1572,1,1,0,22,31.976620
-1753,1657,2,0,0,0,634.013367
-1151,-1167,3,0,0,0,703.309509
700,-1198,4,1,0,3,143.292419
1590,422,1,0,0,0,743.500488
-807,1071,2,0,0,0,802.184082
-1356,-679,3,1,0,16,173.816254
85,-1055,4,1,0,20,99.889511
246,1042,1,1,0,22,31.976620
-137,1156,2,0,0,0,842.869263
-40,-1658,3,0,0,0,699.946106
899,-630,4,0,0,0,840.536804
71,1812,1,1,0,22,31.976620
-1034,168,2,0,0,0,873.223816
-1673,-443,3,1,0,16,133.660995
599,-587,4,0,0,0,918.039307
65,759,1,0,0,0,964.981567
-1648,1168,2,1,0,9,72.184891
-926,-1714,3,1,0,20,99.889511
784,-73,4,0,0,0,936.214905
17,558,1,0,0,0,1054.585815
-1716,1261,2,0,0,0,669.585754
-185,-1693,3,0,0,0,692.351074
648,-159,4,0,0,0,983.935730
1556,1337,1,1,0,22,31.976620
-1109,518,2,0,0,0,828.430481
-139,-1054,3,1,0,20,99.889511
521,-1473,4,0,0,0,739.130615
164,1331,1,1,0,22,31.976620
-1185,387,2,0,0,0,823.173035
-1491,-443,3,0,0,0,718.322266
1546,-1184,4,0,0,0,676.067688
1135,1266,1,0,0,0,734.027466
-486,660,2,0,0,0,943.888916
-535,-566,3,0,0,0,917.159912
1118,-1095,4,1,0,3,139.875595
302,255,1,0,0,0,1154.165283
-502,1674,2,0,0,0,726.150574
-735,-219,3,0,0,0,921.595154
663,-1587,4,0,0,0,711.600769
1031,887,1,0,0,0,798.130920
-861,84,2,0,0,0,928.338318
-772,-1911,3,0,0,0,637.855835
203,-587,4,1,0,22,31.976620
683,1683,1,1,0,22,31.976620
-731,789,2,0,0,0,865.624207
-1363,-1749,3,0,0,0,617.032532
633,-984,4,0,0,0,822.203552
1231,1243,1,0,0,0,725.863037
-1237,167,2,0,0,0,822.797424
-1754,-995,3,0,0,0,644.076782
352,-642,4,1,0,22,31.976620
848,1840,1,1,0,22,31.976620
-1606,447,2,1,0,9,72.184891
-1148,-338,3,0,0,0,793.559265
1081,-1405,4,0,0,0,702.939270
363,441,1,1,0,22,31.976620
-883,835,2,1,0,9,72.184891
-1741,-358,3,0,0,0,680.128052
1240,-453,4,0,0,0,787.500488
1003,1459,1,1,0,22,31.976620
-1764,173,2,0,0,0,722.109436
-581,-53,3,0,0,0,1000.409485
907,-1561,4,0,0,0,697.716309
748,287,1,0,0,0,950.453247
-145,460,2,1,0,0,144.883606
-608,-837,3,0,0,0,835.435669
61,-454,4,0,0,0,1092.366089
871,1071,1,0,0,0,793.848999
-288,1005,2,1,0,9,72.184891
-1511,-1457,3,0,0,0,632.649475
603,-1018,4,0,0,0,818.985168
863,1457,1,0,0,0,735.190918
-1653,1470,2,0,0,0,658.717834
-1787,-1321,3,0,0,0,616.407715
1138,-1501,4,1,0,3,101.142899
1397,13,1,1,0,22,31.976620
-896,1761,2,0,0,0,691.002075
-1157,-1532,3,0,0,0,658.108887
1463,-1905,4,0,0,0,616.212524
1134,1389,1,0,0,0,718.788940
-485,1574,2,1,0,22,31.976620
-1603,-1278,3,0,0,0,639.374329
885,-417,4,0,0,0,873.688293
895,133,1,0,0,0,915.400757
-211,855,2,1,0,22,31.976620
-129,-309,3,1,0,0,228.607285
1362,-1412,4,1,0,3,108.222351
860,1332,1,0,0,0,754.078979
-658,906,2,0,0,0,854.047729
-734,-1846,3,1,0,20,99.889511
997,-1545,4,0,0,0,692.471985
1613,439,1,0,0,0,738.895264
-1196,1213,2,1,0,9,72.184891
-1877,-492,3,0,0,0,655.061584
433,-348,4,1,0,22,31.976620
739,639,1,1,0,22,31.976620
-1400,510,2,0,0,0,771.914246
-1963,-1331,3,0,0,0,597.908508
216,-1439,4,0,0,0,759.545959
768,1261,1,0,0,0,774.535095
-1658,1439,2,0,0,0,660.882507
-1995,-1683,3,0,0,0,570.755188
784,-783,4,0,0,0,837.859070
526,1387,1,0,0,0,773.191101
-521,1554,2,0,0,0,744.555298
-362,-1511,3,0,0,0,718.628357
750,-1207,4,1,0,3,152.690048
1314,965,1,1,0,22,31.976620
-524,1334,2,0,0,0,783.072571
-852,-1347,3,0,0,0,711.331787
1139,-483,4,0,0,0,806.156311
434,201,1,1,0,22,31.976620
-542,25,2,0,0,0,1062.802124
-1456,-1811,3,0,0,0,603.713501
1788,-1075,4,0,0,0,656.372498
1926,343,1,0,0,0,693.845459
-1827,1162,2,0,0,0,664.833374
-440,-242,3,0,0,0,1043.647461
1460,-770,4,0,0,0,723.388306
1222,1208,1,1,0,22,31.976620
-861,1074,2,0,0,0,794.672119
-1414,-1107,3,0,0,0,677.190125
464,-1216,4,1,0,20,99.889511
1253,1812,1,1,0,22,31.976620
-1332,275,2,0,0,0,798.121826
-781,-110,3,0,0,0,913.530884
1813,-1731,4,0,0,0,604.081116
1974,877,1,0,0,0,665.516357
-34,1948,2,0,0,0,695.019165
-1330,-1418,3,0,0,0,654.515442
1793,-367,4,1,0,22,31.976620
329,1546,1,1,0,22,31.976620
-1390,785,2,0,0,0,752.122925
-603,-1058,3,1,0,20,99.889511
1448,-1542,4,1,0,3,95.920090
239,1765,1,0,0,0,720.715088
-1226,170,2,1,0,9,72.184891
-1204,-58,3,0,0,0,791.484497
728,-1787,4,0,0,0,678.678406
1570,1888,1,0,0,0,628.944092
-1696,205,2,0,0,0,732.672180
-1638,-678,3,1,0,16,134.855270
422,-1524,4,0,0,0,735.677856
1824,1425,1,0,0,0,645.782471
-1377,823,2,0,0,0,750.714905
-1161,-1276,3,0,0,0,688.669128
1124,-1899,4,0,0,0,640.360291
700,56,1,0,0,0,988.437317
-1640,595,2,1,0,9,72.184891
-660,-188,3,0,0,0,953.618469
1293,-1067,4,0,0,0,718.943481
978,556,1,0,0,0,852.697510
-1643,919,2,0,0,0,704.846252
-181,-874,3,1,0,20,99.889511
248,-543,4,1,0,22,31.976620
453,299,1,0,0,0,1062.693726
-755,316,2,0,0,0,944.300171
-1547,-945,3,0,0,0,674.494812
1708,-1311,4,0,0,0,647.370911
712,1446,1,0,0,0,749.360718
-10,1995,2,1,0,22,31.976620
-1023,-1642,3,0,0,0,655.917114
669,-1060,4,0,0,0,802.398132
1889,950,1,0,0,0,671.615173
-1828,1302,2,0,0,0,654.592224
-829,-1353,3,0,0,0,712.603943
1234,-1612,4,0,0,0,664.168213
1529,1226,1,0,0,0,693.330627
-1823,1580,2,0,0,0,633.987366
-1289,-1008,3,0,0,0,703.795410
366,-1692,4,0,0,0,709.740112
349,1191,1,0,0,0,824.447388
-1608,1548,2,1,0,9,72.184891
-451,-1110,3,1,0,20,99.889511
106,-1170,4,0,0,0,821.032837
1221,1224,1,0,0,0,729.246582
-1579,908,2,1,0,9,72.184891
-1077,-1725,3,0,0,0,641.677002
1230,-232,4,0,0,0,802.804626
958,1631,1,1,0,22,31.976620
-199,511,2,0,0,0,1059.733398
-1540,-1053,3,0,0,0,666.291748
1402,-124,4,0,0,0,769.104431
1360,1512,1,0,0,0,682.751526
-904,665,2,1,0,9,72.184891
-1252,-1149,3,0,0,0,692.982483
1333,-166,4,0,0,0,782.508118
886,778,1,0,0,0,839.183167
-1205,1433,2,0,0,0,706.410095
-1791,-1501,3,1,0,16,86.443741
156,-993,4,0,0,0,865.892700
799,304,1,1,0,22,31.976620
-521,1279,2,1,0,22,31.976620
-376,-1051,3,0,0,0,813.573059
845,-969,4,0,0,0,795.102783
221,192,1,0,0,0,1240.764771
-1537,1145,2,0,0,0,699.712769
-1589,-414,3,0,0,0,702.797424
600,-512,4,0,0,0,935.714111
891,1833,1,0,0,0,682.129761
-349,791,2,0,0,0,928.510864
-389,-92,3,0,0,0,1109.432495
1341,-224,4,0,0,0,779.046875
915,659,1,1,0,22,31.976620
-140,1269,2,1,0,22,31.976620
-1250,-174,3,1,0,16,162.140305
524,-1086,4,1,0,3,132.619156
740,83,1,0,0,0,971.539001
-63,1694,2,0,0,0,734.891968
-263,-422,3,0,0,0,1046.482910
1111,-718,4,1,0,3,219.737778
1052,1560,1,0,0,0,704.995911
-1990,893,2,0,0,0,662.735352
-489,-781,3,0,0,0,868.739746
1024,-376,4,0,0,0,842.356506
1283,1820,1,1,0,22,31.976620
-861,1076,2,0,0,0,794.346252
-1296,-564,3,0,0,0,745.774963
853,-481,4,1,0,3,151.079697
1363,92,1,0,0,0,796.854614
-1324,1349,2,1,0,9,72.184891
-617,-1961,3,0,0,0,638.585999
422,-517,4,0,0,0,983.874939
347,1251,1,0,0,0,811.501770
-1881,681,2,0,0,0,687.455872
-1299,-925,3,1,0,16,146.411377
1597,-268,4,1,0,22,31.976620
551,895,1,0,0,0,872.276367
-1371,1823,2,0,0,0,649.960022
-1693,-1071,3,0,0,0,645.956909
1420,-594,4,0,0,0,743.420349
1601,1600,1,0,0,0,652.164856
-1227,881,2,1,0,9,72.184891
-880,-753,3,0,0,0,802.964722
1443,-1114,4,0,0,0,694.938721
838,268,1,1,0,22,31.976620
-1525,1772,2,1,0,9,72.184891
-545,-1024,3,0,0,0,802.516296
696,-1720,4,0,0,0,689.881165
160,801,1,0,0,0,944.877747
-650,1190,2,0,0,0,798.998291
-1950,-47,3,0,0,0,653.571777
598,-1631,4,1,0,20,99.889511
312,1374,1,0,0,0,787.974426
-639,901,2,0,0,0,857.965454
-1310,-1504,3,0,0,0,647.212280
692,-844,4,0,0,0,842.205627
1234,1638,1,1,0,22,31.976620
-1316,1495,2,0,0,0,688.713806
-1660,-446,3,0,0,0,689.710022
1028,-1163,4,1,0,3,196.376984
1085,207,1,0,0,0,857.971008
-1221,1521,2,0,0,0,694.701904
-396,-1175,3,0,0,0,783.367554
1494,-1644,4,0,0,0,638.464539
113,1133,1,1,0,22,31.976620
-89,1094,2,0,0,0,859.789001
-550,-604,3,0,0,0,903.417908
1475,-1209,4,0,0,0,682.021240
378,1174,1,0,0,0,826.243774
-1370,417,2,1,0,9,72.184891
-1947,-269,3,0,0,0,651.395752
1460,-1793,4,0,0,0,627.049011
226,18,1,0,0,0,1314.515137
-239,68,2,1,0,0,377.085114
-533,-91,3,0,0,0,1022.320618
1236,-1297,4,1,0,3,128.242630
518,1511,1,0,0,0,751.947449
-969,1874,2,0,0,0,672.255371
-635,-1235,3,0,0,0,750.837158
637,-1108,4,0,0,0,796.812439
1774,193,1,0,0,0,720.175110
-1248,454,2,0,0,0,804.981995
-1803,-1987,3,0,0,0,562.951538
1359,-738,4,0,0,0,742.077393
1083,67,1,0,0,0,863.097107
-1813,355,2,0,0,0,710.240295
-1476,-1092,3,0,0,0,670.853577
1826,-399,4,1,0,22,31.976620
1406,1495,1,0,0,0,680.143860
-167,1661,2,1,0,22,31.976620
-1666,-1286,3,0,0,0,631.895630
1899,-1744,4,0,0,0,596.074707
850,490,1,0,0,0,892.087463
-1347,298,2,0,0,0,794.035278
-1037,-999,3,0,0,0,740.443176
392,-230,4,0,0,0,1094.632935
749,1300,1,1,0,22,31.976620
-1762,1554,2,1,0,9,72.184891
-1207,-608,3,0,0,0,758.630249
714,-210,4,1,0,22,31.976620
1183,1802,1,0,0,0,666.102539
-1381,346,2,0,0,0,784.991333
-1705,-1373,3,0,0,0,620.685547
1625,-1379,4,0,0,0,650.284363
782,1493,1,0,0,0,736.549683
-666,1610,2,0,0,0,727.027039
-960,-1691,3,1,0,20,99.889511
1462,-132,4,1,0,22,31.976620
1051,44,1,1,0,22,31.976620
-1531,277,2,0,0,0,759.496765
-1143,-1358,3,0,0,0,680.519409
620,-1076,4,0,0,0,805.074402
1822,1773,1,1,0,22,31.976620
-977,1314,2,0,0,0,744.835022
-881,-1892,3,0,0,0,634.280701
297,-476,4,1,0,22,31.976620
1838,1272,1,0,0,0,655.746582
-683,881,2,0,0,0,855.333069
-856,-1708,3,0,0,0,659.497375
45,-7,4,0,0,0,1758.363525
922,1607,1,0,0,0,709.422852
-168,643,2,0,0,0,1004.322205
-1857,-1592,3,0,0,0,589.152588
504,-515,4,0,0,0,961.762085
803,774,1,0,0,0,855.190002
-744,1513,2,0,0,0,736.442139
-1874,-552,3,0,0,0,653.127014
1339,-709,4,0,0,0,747.949341
1837,1555,1,0,0,0,634.653198
-925,589,2,1,0,9,72.184891
-664,-547,3,0,0,0,888.512024
349,-1016,4,0,0,0,846.762634
758,588,1,1,0,22,31.976620
-208,367,2,0,0,0,1135.388672
-1855,-1137,3,1,0,16,99.398369
1498,-1438,4,0,0,0,657.714172
1625,366,1,1,0,22,31.976620
-770,287,2,0,0,0,943.146179
-344,-1494,3,0,0,0,722.465637
472,-867,4,0,0,0,871.101196
382,1660,1,0,0,0,733.505554
-1048,1768,2,1,0,9,72.184891
-1268,-441,3,0,0,0,760.544922
1826,-435,4,0,0,0,686.567383
1468,1064,1,1,0,22,31.976620
-1820,5,2,0,0,0,714.524475
-470,-6,3,1,0,0,126.406883
1227,-37,4,1,0,22,31.976620
1222,1472,1,0,0,0,700.233032
-71,1994,2,0,0,0,688.202942
-1604,-1137,3,1,0,16,111.582138
938,-329,4,0,0,0,869.104797
1741,1283,1,1,0,22,31.976620
-751,1603,2,0,0,0,722.475464
-407,-813,3,0,0,0,872.598511
1153,-1751,4,1,0,3,86.684212
1266,591,1,0,0,0,790.395996
-1085,203,2,0,0,0,858.164612
-917,-336,3,1,0,16,182.220291
1403,-1240,4,1,0,22,31.976620
1884,854,1,0,0,0,677.890564
-846,42,2,0,0,0,934.411377
-558,-733,3,1,0,20,99.889511
660,-323,4,0,0,0,956.132812
565,118,1,0,0,0,1044.969727
-1446,562,2,0,0,0,760.325073
-1536,-653,3,0,0,0,698.128662
1725,-83,4,0,0,0,710.425476
983,74,1,0,0,0,890.723206
-1149,250,2,1,0,9,72.184891
-673,-260,3,1,0,16,140.282288
434,-1042,4,0,0,0,832.526306
1153,1265,1,1,0,22,31.976620
-674,247,2,0,0,0,982.105835
-1111,-1764,3,0,0,0,634.601624
1084,-1814,4,0,0,0,652.711609
21,494,1,0,0,0,1089.588989
-340,456,2,1,0,9,72.184891
-741,-161,3,0,0,0,924.860168
1421,-1131,4,0,0,0,696.012695
1657,161,1,1,0,22,31.976620
-1461,356,2,0,0,0,769.276917
-1858,-1208,3,0,0,0,617.187439
1583,-589,4,0,0,0,716.794250
1588,207,1,0,0,0,751.209961
-46,1520,2,0,0,0,766.058777
-98,-1077,3,0,0,0,822.675659
973,-1765,4,1,0,22,31.976620
699,785,1,0,0,0,872.250366
-1443,1032,2,0,0,0,721.852173
-1343,-1945,3,0,0,0,598.877319
331,-366,4,1,0,22,31.976620
1603,873,1,1,0,22,31.976620
-85,1206,2,1,0,22,31.976620
-455,-576,3,0,0,0,934.226624
385,-572,4,0,0,0,974.470154
1463,1170,1,1,0,22,31.976620
-409,942,2,0,0,0,878.941162
-1072,-770,3,0,0,0,765.423279
472,-1673,4,0,0,0,708.555420
297,556,1,1,0,22,31.976620
-1250,1309,2,0,0,0,716.109192
-661,-591,3,0,0,0,879.814087
1108,-1098,4,0,0,0,739.595642
1724,578,1,0,0,0,714.791260
-648,740,2,1,0,9,72.184891
-474,-1790,3,1,0,20,99.889511
1464,-1324,4,0,0,0,672.189819
252,469,1,1,0,22,31.976620
-1060,777,2,0,0,0,807.970276
-1208,-1264,3,1,0,20,99.889511
682,-1434,4,0,0,0,734.489197
600,127,1,0,0,0,1027.476929
-1422,1678,2,0,0,0,660.347656
-1743,-712,3,0,0,0,663.665649
1764,-1379,4,0,0,0,636.213623
919,75,1,0,0,0,909.968567
-1618,110,2,0,0,0,747.595520
-1302,-1137,3,0,0,0,688.099182
619,-1243,4,0,0,0,772.980957
1485,1001,1,0,0,0,719.148132
-795,1980,2,0,0,0,669.030579
-1990,-920,3,0,0,0,620.260010
1307,-1441,4,1,0,3,114.073082
437,243,1,0,0,0,1086.357544
-475,1335,2,0,0,0,786.346191
-151,-1772,3,1,0,20,99.889511
911,-532,4,1,0,3,168.399307
743,1568,1,0,0,0,728.211792
-1789,701,2,0,0,0,698.992615
-1217,-1438,3,0,0,0,663.507080
9,-232,4,0,0,0,1288.388794
1400,1085,1,0,0,0,722.310303
-1117,918,2,0,0,0,780.557922
-1747,-384,3,0,0,0,678.319763
1180,-783,4,0,0,0,767.338928
1021,1272,1,1,0,22,31.976620
-1576,1066,2,0,0,0,701.803528
-1583,-1449,3,0,0,0,626.341553
1401,-606,4,0,0,0,745.813538
1651,768,1,0,0,0,714.386108
-1975,750,2,0,0,0,671.861511
-1321,-467,3,0,0,0,748.279968
370,-1590,4,0,0,0,726.553162
1072,907,1,0,0,0,788.946289
-531,1889,2,0,0,0,692.982239
-412,-1253,3,0,0,0,765.615417
355,-862,4,0,0,0,887.579041
614,1625,1,0,0,0,727.881226
-1151,1658,2,0,0,0,684.911072
-1113,-1567,3,0,0,0,657.776367
1091,-398,4,0,0,0,824.347412
680,1497,1,0,0,0,743.647644
-162,977,2,0,0,0,889.394897
-1460,-65,3,0,0,0,736.187195
1626,-1001,4,0,0,0,681.684631
1770,407,1,1,0,22,31.976620
-1588,1834,2,0,0,0,632.390930
-138,-444,3,0,0,0,1065.845337
1175,-1021,4,0,0,0,740.198059
1510,1416,1,0,0,0,677.677307
-635,560,2,1,0,9,72.184891
-1635,-1732,3,1,0,20,99.889511
164,-896,4,0,0,0,894.251221
1032,923,1,0,0,0,793.001709
-615,550,2,0,0,0,941.986816
-275,-734,3,0,0,0,915.319580
321,-874,4,0,0,0,887.936157
109,1332,1,0,0,0,803.161133
-1653,660,2,1,0,9,72.184891
-438,-713,3,0,0,0,896.489136
1286,-799,4,0,0,0,748.162292
883,1381,1,0,0,0,744.529114
-210,1268,2,0,0,0,814.386780
-1612,-812,3,0,0,0,675.732666
977,-1092,4,0,0,0,757.552429
454,1638,1,0,0,0,734.117920
-397,548,2,0,0,0,999.117676
-605,-9,3,1,0,9,72.184891
94,-1249,4,0,0,0,802.610962
359,1785,1,0,0,0,714.408508
-1103,1756,2,0,0,0,677.178101
-280,-638,3,0,0,0,949.249512
870,-894,4,1,0,3,244.215652
683,1549,1,0,0,0,735.277344
-1814,143,2,0,0,0,714.584106
-1799,-170,3,0,0,0,675.407776
1156,-197,4,0,0,0,821.553650
290,446,1,1,0,22,31.976620
-70,505,2,0,0,0,1080.754272
-185,-1009,3,0,0,0,837.865417
1358,-1516,4,1,0,22,31.976620
796,1800,1,0,0,0,692.117554
-984,241,2,0,0,0,882.857544
-455,-1038,3,1,0,20,99.889511
667,-1660,4,0,0,0,700.325623
708,749,1,0,0,0,877.904907
-1655,1409,2,0,0,0,663.736877
-1488,-1275,3,1,0,16,107.343391
944,-1606,4,1,0,3,106.862831
1703,36,1,1,0,22,31.976620
-99,747,2,1,0,22,31.976620
-1500,-1769,3,0,0,0,604.248657
1438,-321,4,0,0,0,755.964417
1130,770,1,1,0,22,31.976620
-761,1656,2,1,0,22,31.976620
-423,-1882,3,1,0,20,99.889511
1846,-1050,4,0,0,0,651.294739
1771,247,1,1,0,22,31.976620
-379,1807,2,1,0,22,31.976620
-1569,-304,3,0,0,0,710.552307
1770,-1574,4,1,0,22,31.976620
313,1198,1,0,0,0,825.112549
-574,152,2,0,0,0,1036.797363
-632,-1038,3,1,0,20,99.889511
616,-476,4,0,0,0,939.493835
731,1607,1,0,0,0,723.246094
-250,1159,2,1,0,22,31.976620
-421,-778,3,1,0,20,99.889511
390,-1252,4,0,0,0,789.426086
439,1451,1,0,0,0,766.955322
-18,116,2,0,0,0,1504.422729
-545,-1533,3,0,0,0,705.434387
631,-987,4,0,0,0,821.848389
295,1757,1,0,0,0,720.637024
-896,1956,2,0,0,0,666.655396
-446,-1263,3,0,0,0,761.200989
1961,-1212,4,0,0,0,627.903564
1488,5,1,1,0,22,31.976620
-1053,1322,2,1,0,9,72.184891
-659,-270,3,0,0,0,942.938660
1745,-1094,4,0,0,0,660.050720
1656,236,1,0,0,0,738.713623
-269,1282,2,1,0,22,31.976620
-835,-1095,3,0,0,0,753.252930
1883,-34,4,0,0,0,685.622864
1387,1003,1,0,0,0,732.116272
-662,904,2,0,0,0,853.857422
-789,-1578,3,1,0,20,99.889511
1591,-1874,4,0,0,0,609.620239
1876,693,1,0,0,0,687.538025
-286,1455,2,0,0,0,773.296997
-345,-251,3,0,0,0,1090.640259
271,-363,4,0,0,0,1095.581421
41,1112,1,0,0,0,855.846191
-1088,1400,2,0,0,0,722.013000
-321,-1265,3,0,0,0,768.658508
891,-1359,4,0,0,0,727.862793
920,1772,1,0,0,0,688.012207
-410,1245,2,0,0,0,808.738403
-723,-506,3,0,0,0,881.182190
1345,-1190,4,1,0,3,139.516098
1700,499,1,1,0,22,31.976620
-937,1926,2,0,0,0,667.935791
-1350,-642,3,0,0,0,729.701111
1400,-1272,4,0,0,0,684.372925
1436,681,1,0,0,0,753.393616
-186,434,2,0,0,0,1102.879028
-611,-1123,3,0,0,0,774.580017
1232,-1184,4,1,0,3,145.291855
945,40,1,0,0,0,902.631958
-832,45,2,0,0,0,939.152954
-539,-1217,3,1,0,20,99.889511
728,-937,4,0,0,0,818.163757
1349,402,1,0,0,0,788.250793
-1125,1701,2,0,0,0,681.948914
-1022,-1145,3,0,0,0,722.152954
1009,-1112,4,1,0,3,163.170929
875,465,1,0,0,0,889.236877
-1004,929,2,1,0,9,72.184891
-164,-606,3,0,0,0,979.274231
1394,-1434,4,0,0,0,668.450256
1363,1730,1,0,0,0,659.967407
-631,1802,2,0,0,0,700.809204
-1597,-926,3,0,0,0,669.300354
682,-1171,4,0,0,0,779.989502
1478,1405,1,0,0,0,681.966736
-132,1040,2,0,0,0,873.008362
-274,-639,3,0,0,0,949.858459
440,-1837,4,0,0,0,684.765625
238,1121,1,0,0,0,847.378784
-341,1327,2,0,0,0,796.011963
-1446,-766,3,0,0,0,703.790894
1698,-619,4,0,0,0,697.409546
1748,1783,1,0,0,0,624.179810
-1437,1714,2,0,0,0,655.559570
-1293,-1795,3,0,0,0,617.696838
179,-975,4,0,0,0,869.896179
787,349,1,0,0,0,929.732300
-564,1224,2,1,0,9,72.184891
-3,-325,3,0,0,0,1169.115723
71,-1802,4,1,0,20,99.889511
307,255,1,1,0,0,201.912811
-1106,1536,2,0,0,0,703.298218
-574,-440,3,1,0,16,135.541641
733,-406,4,1,0,22,31.976620
1180,85,1,0,0,0,838.219421
-919,1268,2,1,0,9,72.184891
-192,-277,3,0,0,0,1158.639160
495,-382,4,0,0,0,1002.659119
1707,717,1,0,0,0,709.614624
-1626,1482,2,0,0,0,660.275940
-502,-1645,3,0,0,0,689.540161
387,-74,4,0,0,0,1135.819092
1399,1625,1,0,0,0,667.613037
-230,575,2,0,0,0,1024.669800
-1944,-1042,3,0,0,0,618.541687
1546,-290,4,1,0,22,31.976620
553,1209,1,0,0,0,804.666931
-1576,989,2,0,0,0,708.203003
-719,-1025,3,0,0,0,780.578369
7,-1530,4,1,0,20,99.889511
1702,757,1,1,0,22,31.976620
-1745,138,2,0,0,0,725.691772
-1425,-917,3,1,0,16,139.018921
127,-1347,4,0,0,0,780.445923
1993,1002,1,1,0,22,31.976620
-1798,1290,2,1,0,9,72.184891
-831,-959,3,0,0,0,776.722778
1873,-1302,4,0,0,0,630.913147
1103,78,1,0,0,0,857.662598
-668,842,2,0,0,0,865.835083
-1059,-995,3,1,0,16,141.818100
828,-853,4,1,0,3,242.791046
1794,586,1,0,0,0,704.127930
-1581,1427,2,0,0,0,669.550598
-996,-1915,3,0,0,0,624.689514
868,-422,4,1,0,22,31.976620
298,1692,1,0,0,0,731.049194
-405,555,2,0,0,0,994.735474
-942,-877,3,1,0,16,153.434143
1980,-167,4,1,0,22,31.976620
698,1087,1,0,0,0,812.927795
-308,19,2,0,0,0,1225.571533
-459,-351,3,1,0,16,122.215218
824,-97,4,0,0,0,921.140747
1817,484,1,0,0,0,705.180542
-169,1720,2,1,0,22,31.976620
-1671,-921,3,0,0,0,659.870117
1935,-1347,4,0,0,0,621.507874
1840,1253,1,0,0,0,656.911682
-1981,1055,2,1,0,9,72.184891
-664,-1090,3,0,0,0,775.059814
835,-1344,4,0,0,0,735.511597
1584,508,1,0,0,0,740.306885
-1535,1795,2,1,0,9,72.184891
-1925,-1863,3,1,0,16,70.291412
815,-1805,4,0,0,0,671.240173
103,1808,1,0,0,0,715.956726
-1806,1361,2,0,0,0,652.422546
-624,-358,3,0,0,0,940.026306
375,-471,4,1,0,22,31.976620
1723,1384,1,1,0,22,31.976620
-802,1042,2,1,0,9,72.184891
-1335,-1904,3,0,0,0,603.508850
1563,-49,4,0,0,0,738.883972
1638,1746,1,0,0,0,636.162781
-1011,1803,2,1,0,9,72.184891
-247,-1313,3,1,0,20,99.889511
501,-1582,4,0,0,0,721.859436
1893,1494,1,0,0,0,634.091492
-1917,104,2,0,0,0,699.234009
-838,-1812,3,0,0,0,646.944641
356,-1083,4,0,0,0,829.675964
1837,1049,1,0,0,0,671.482666
-1602,1332,2,0,0,0,675.838928
-219,-199,3,1,0,0,272.641388
1573,-1328,4,1,0,22,31.976620
1192,1668,1,0,0,0,680.442017
-1755,265,2,0,0,0,721.716736
-883,-464,3,0,0,0,845.922546
850,-306,4,0,0,0,896.626526
422,1788,1,0,0,0,711.842590
-1453,1329,2,0,0,0,691.976013
-81,-621,3,1,0,20,99.889511
1472,-1290,4,0,0,0,674.608582
1879,1822,1,0,0,0,610.780334
-636,205,2,0,0,0,1002.748779
-1286,-964,3,0,0,0,708.940063
440,-1855,4,0,0,0,682.126770
286,522,1,0,0,0,1036.104004
-961,1879,2,0,0,0,672.148682
-687,-1504,3,1,0,20,99.889511
75,-522,4,0,0,0,1051.752197
1676,1195,1,0,0,0,679.292969
-1203,577,2,1,0,9,72.184891
-547,-10,3,0,0,0,1018.939453
1233,-258,4,0,0,0,800.969971
131,1953,1,0,0,0,693.686829
-661,192,2,0,0,0,994.206787
-368,-1020,3,0,0,0,821.904236
542,-766,4,0,0,0,885.694702
182,1869,1,1,0,22,31.976620
-835,608,2,0,0,0,877.279602
-583,-1858,3,0,0,0,654.047119
1872,-1425,4,0,0,0,622.114441
1280,1177,1,0,0,0,727.591370
-1688,1248,2,0,0,0,673.674805
-853,-1938,3,0,0,0,630.166199
563,-34,4,1,0,22,31.976620
464,585,1,0,0,0,970.753296
-1250,1953,2,0,0,0,645.274353
-1853,-151,3,0,0,0,667.280518
1111,-557,4,0,0,0,804.851440
160,1027,1,1,0,22,31.976620
-1339,1148,2,0,0,0,723.521484
-171,-753,3,0,0,0,919.633789
875,-831,4,0,0,0,813.321289
523,1630,1,0,0,0,732.084290
-441,1554,2,1,0,9,72.184891
-1275,-1460,3,0,0,0,655.363953
817,-1171,4,1,0,3,169.334442
1544,668,1,1,0,22,31.976620
-677,499,2,0,0,0,936.463928
-275,-1558,3,0,0,0,713.451965
735,-974,4,1,0,3,191.750397
1667,1679,1,1,0,22,31.976620
-1665,1522,2,0,0,0,653.128479
-531,-532,3,0,0,0,927.391479
781,-446,4,0,0,0,897.912964
1302,1084,1,0,0,0,735.058960
-830,1327,2,0,0,0,757.779297
-1735,-1762,3,0,0,0,586.058899
745,-1242,4,0,0,0,760.893616
226,1902,1,0,0,0,699.896606
-718,1954,2,0,0,0,676.069153
-80,-1612,3,0,0,0,707.733521
843,-68,4,0,0,0,915.622375
1571,1562,1,1,0,22,31.976620
-1389,1046,2,1,0,9,72.184891
-589,-200,3,0,0,0,981.935486
1810,-1429,4,0,0,0,627.804993
891,1498,1,0,0,0,726.922058
-785,976,2,1,0,9,72.184891
-1607,-1005,3,0,0,0,661.765503
1641,-984,4,0,0,0,681.087585
495,984,1,0,0,0,858.774597
-76,1261,2,1,0,22,31.976620
-1496,-1559,3,0,0,0,624.406860
1873,-710,4,1,0,22,31.976620
802,569,1,1,0,22,31.976620
-331,1936,2,0,0,0,692.708252
-19,-67,3,0,0,0,1613.568481
581,-1943,4,0,0,0,664.462769
359,1526,1,0,0,0,757.327515
-418,775,2,0,0,0,923.238770
-1171,-1793,3,1,0,20,99.889511
866,-1592,4,0,0,0,696.620605
294,1601,1,0,0,0,746.529724
-360,729,2,0,0,0,946.213989
-961,-1896,3,0,0,0,629.062195
1753,-1366,4,0,0,0,638.343872
1010,225,1,1,0,22,31.976620
-1986,756,2,0,0,0,670.186890
-1145,-1407,3,1,0,20,99.889511
890,-1354,4,0,0,0,728.698059
530,913,1,0,0,0,870.999817
-164,719,2,0,0,0,974.328918
-1378,-508,3,0,0,0,734.776062
785,-1127,4,1,0,3,178.816956
715,1723,1,1,0,22,31.976620
-1939,104,2,0,0,0,695.976990
-1927,-80,3,0,0,0,656.795776
1015,-1956,4,0,0,0,640.754028
201,1800,1,0,0,0,715.916199
-1842,1055,2,0,0,0,670.495667
-1827,-1272,3,0,0,0,615.904907
588,-1376,4,1,0,3,111.633682
1361,928,1,1,0,22,31.976620
-882,1563,2,0,0,0,718.539001
-1094,-754,3,0,0,0,763.518860
1468,-1142,4,1,0,3,118.597710
653,442,1,0,0,0,955.036865
-561,1333,2,0,0,0,780.475708
-1455,-1069,3,0,0,0,675.649353
1381,-441,4,0,0,0,760.616516
630,1860,1,0,0,0,692.751221
-1818,1260,2,0,0,0,658.734924
-1738,-1732,3,0,0,0,588.265076
962,-263,4,1,0,22,31.976620
672,1280,1,1,0,22,31.976620
-1276,550,2,0,0,0,791.976929
-887,-1177,3,0,0,0,733.772583
1331,-486,4,0,0,0,767.176758
492,1406,1,0,0,0,771.991943
-1877,4,2,0,0,0,705.691711
-1805,-1376,3,0,0,0,610.402710
1127,-490,4,1,0,22,31.976620
1548,1708,1,0,0,0,646.959656
-1701,1207,2,0,0,0,675.522278
-244,-1643,3,0,0,0,699.508606
1113,-1732,4,1,0,3,87.195045
966,1219,1,1,0,22,31.976620
-1896,1343,2,0,0,0,644.698608
-1283,-1831,3,0,0,0,614.683472
1723,-673,4,0,0,0,690.763062
458,49,1,0,0,0,1110.030396
-621,649,2,0,0,0,917.504456
-1613,-1834,3,0,0,0,589.570190
1138,-1311,4,1,0,3,121.871330
616,872,1,0,0,0,867.760010
-1282,1266,2,1,0,9,72.184891
-1098,-93,3,0,0,0,817.280518
873,-1275,4,0,0,0,742.303650
1870,362,1,0,0,0,701.494934
-1500,611,2,0,0,0,747.961670
-383,-179,3,0,0,0,1093.275269
1566,-614,4,0,0,0,717.977173
1893,1216,1,1,0,22,31.976620
-189,724,2,1,0,22,31.976620
-657,-151,3,0,0,0,958.755066
941,-642,4,1,0,3,210.005035
994,703,1,0,0,0,829.970520
-692,657,2,0,0,0,900.097107
-517,-378,3,0,0,0,973.525696
1112,-1138,4,1,0,3,179.839371
764,1586,1,0,0,0,724.063049
-892,85,2,0,0,0,918.211609
-1216,-263,3,0,0,0,782.400635
685,-793,4,0,0,0,853.916809
1486,540,1,0,0,0,754.881897
-1815,690,2,0,0,0,695.985046
-456,-516,3,1,0,20,99.889511
1119,-1477,4,1,0,3,106.856636
1306,119,1,0,0,0,808.598511
-102,1911,2,0,0,0,700.144775
-593,-1419,3,0,0,0,721.563904
443,-1205,4,0,0,0,795.512939
1538,880,1,0,0,0,722.190735
-1280,1063,2,1,0,9,72.184891
-446,-584,3,0,0,0,933.913879
1002,-293,4,0,0,0,854.998108
828,307,1,0,0,0,922.408081
-647,240,2,0,0,0,993.471313
-1087,-675,3,1,0,16,208.387939
836,-1513,4,0,0,0,710.159058
1829,951,1,1,0,22,31.976620
-722,1713,2,0,0,0,708.461304
-1627,-1550,3,0,0,0,613.240356
1958,-1172,4,0,0,0,630.803528
69,1509,1,0,0,0,767.975769
-980,688,2,0,0,0,834.755249
-1590,-1182,3,0,0,0,649.121887
807,-1618,4,0,0,0,697.286377
383,1424,1,0,0,0,774.896606
-1726,1818,2,1,0,9,72.184891
-1527,-1679,3,1,0,20,99.889511
877,-1599,4,0,0,0,694.823303
1940,809,1,0,0,0,673.311035
-373,439,2,0,0,0,1045.532959
-612,-927,3,0,0,0,814.976196
1564,-34,4,0,0,0,738.773865
376,918,1,0,0,0,888.907349
-943,1871,2,0,0,0,674.225952
-1212,-1439,3,0,0,0,663.880432
743,-1325,4,0,0,0,747.196777
343,115,1,0,0,0,1179.705811
-708,77,2,1,0,9,72.184891
-648,-805,3,1,0,20,99.889511
5,-560,4,0,0,0,1034.425659
1545,1184,1,0,0,0,695.282593
-744,473,2,0,0,0,922.883301
-1388,-587,3,0,0,0,727.381836
474,-180,4,0,0,0,1063.090332
440,1730,1,1,0,22,31.976620
-1535,1789,2,0,0,0,640.577942
-1700,-986,3,0,0,0,651.431335
976,-1801,4,0,0,0,661.596924
1136,856,1,0,0,0,785.249756
-824,1635,2,0,0,0,712.814575
-1657,-185,3,1,0,16,126.485695
124,-379,4,0,0,0,1132.356812
1890,787,1,1,0,22,31.976620
-1788,845,2,1,0,9,72.184891
-1029,-1063,3,0,0,0,732.673401
1189,-608,4,0,0,0,784.194458
1163,422,1,0,0,0,825.349243
-1257,713,2,0,0,0,780.694946
-1629,-764,3,0,0,0,676.637207
257,-1433,4,0,0,0,759.399719
1887,244,1,0,0,0,701.796753
-926,332,2,0,0,0,891.326660
-142,-1113,3,0,0,0,812.085632
752,-1208,4,0,0,0,765.965454
321,1100,1,0,0,0,847.405579
-766,47,2,1,0,9,72.184891
-1129,-930,3,1,0,16,151.170593
529,-163,4,0,0,0,1037.780762
278,1369,1,1,0,22,31.976620
-1847,571,2,0,0,0,697.238586
-1794,-613,3,0,0,0,661.696777
1560,-960,4,0,0,0,693.569458
1429,419,1,1,0,22,31.976620
-568,1331,2,0,0,0,780.299072
-1607,-1505,3,1,0,16,91.108803
149,-894,4,0,0,0,895.694458
1639,908,1,1,0,22,31.976620
-544,1833,2,0,0,0,700.399048
-1886,-1260,3,1,0,16,93.072182
743,-1973,4,0,0,0,653.380249
996,12,1,0,0,0,887.733093
-328,1792,2,0,0,0,714.246948
-1409,-681,3,0,0,0,716.573059
824,-1972,4,0,0,0,649.485779
324,546,1,1,0,22,31.976620
-1476,295,2,1,0,9,72.184891
-60,-474,3,0,0,0,1057.995605
653,-1141,4,0,0,0,788.702271
1512,1208,1,0,0,0,696.934143
-420,873,2,0,0,0,895.733643
-549,-1204,3,0,0,0,764.688904
402,-1155,4,0,0,0,809.479309
550,1502,1,0,0,0,751.550964
-1923,1025,2,1,0,9,72.184891
-879,-1109,3,1,0,20,99.889511
1373,-1074,4,0,0,0,707.757202
916,414,1,0,0,0,885.103149
-33,872,2,0,0,0,925.839600
-1090,-831,3,1,0,16,167.785645
1737,-1357,4,0,0,0,640.681885
624,1348,1,0,0,0,772.797852
-331,1600,2,0,0,0,745.454956
-195,-554,3,0,0,0,998.487244
1696,-1199,4,0,0,0,657.642456
9,178,1,1,0,0,514.089355
-1810,746,2,0,0,0,693.640320
-1934,-372,3,0,0,0,650.821777
1293,-153,4,0,0,0,791.474670
372,112,1,0,0,0,1159.143799
-975,1247,2,0,0,0,754.547119
-1629,-472,3,0,0,0,693.542542
979,-730,4,0,0,0,809.892151
1336,56,1,0,0,0,803.006104
-1287,1117,2,0,0,0,733.380371
-1650,-1615,3,0,0,0,605.539124
336,-663,4,1,0,22,31.976620
1915,1145,1,0,0,0,656.261169
-1405,1385,2,0,0,0,691.431152
-1099,-730,3,0,0,0,765.537231
1574,-1913,4,0,0,0,607.428772
912,966,1,0,0,0,804.877747
-1891,1335,2,0,0,0,645.768982
-590,-646,3,0,0,0,883.671021
958,-1101,4,0,0,0,758.695251
859,1012,1,1,0,22,31.976620
-1992,967,2,0,0,0,658.430908
-368,-1478,3,0,0,0,724.335205
1193,-36,4,0,0,0,816.479431
1686,681,1,1,0,22,31.976620
-294,872,2,0,0,0,910.539795
-68,-371,3,0,0,0,1126.180420
811,-1261,4,0,0,0,750.965698
286,401,1,0,0,0,1090.702026
-1439,1632,2,0,0,0,663.439331
-143,-373,3,0,0,0,1109.619507
1470,-761,4,0,0,0,722.574402
766,1655,1,0,0,0,713.947937
-892,501,2,0,0,0,880.034363
-1067,-180,3,1,0,16,167.482773
1581,-663,4,1,0,22,31.976620
1460,658,1,0,0,0,751.211487
-1889,983,2,0,0,0,669.590759
-1345,-1571,3,0,0,0,636.880859
921,-1342,4,1,0,3,140.625595
1542,253,1,1,0,22,31.976620
-188,1278,2,1,0,22,31.976620
-591,-835,3,1,0,20,99.889511
65,-1469,4,0,0,0,756.540466
1479,1167,1,1,0,22,31.976620
-1525,1879,2,1,0,9,72.184891
-350,-1770,3,0,0,0,675.842163
10,-1141,4,0,0,0,829.415466
463,1069,1,1,0,22,31.976620
-630,1500,2,0,0,0,746.677917
-1178,-1891,3,0,0,0,615.684998
1848,-235,4,1,0,22,31.976620
364,1263,1,1,0,22,31.976620
-1611,785,2,0,0,0,718.955322
-371,-14,3,0,0,0,1130.739990
1385,-489,4,1,0,22,31.976620
186,408,1,1,0,0,165.664902
-1525,1066,2,0,0,0,708.199463
-430,-1442,3,0,0,0,727.814941
61,-1422,4,0,0,0,765.892090
160,287,1,1,0,0,269.394287
-1284,71,2,0,0,0,814.232422
-1816,-1485,3,0,0,0,601.018372
1441,-868,4,0,0,0,717.949280
207,939,1,0,0,0,897.891174
-876,47,2,0,0,0,924.313354
-1709,-33,3,0,0,0,691.304443
698,-924,4,0,0,0,825.171387
1091,1527,1,0,0,0,705.737732
-1458,787,2,0,0,0,741.450989
-1589,-1808,3,1,0,20,99.889511
1612,-809,4,1,0,22,31.976620
1812,691,1,1,0,22,31.976620
-952,348,2,0,0,0,882.707581
-453,-336,3,0,0,0,1010.160400
821,-929,4,0,0,0,805.549866
1271,1575,1,0,0,0,684.130249
-1348,575,2,0,0,0,776.673096
-1965,-1535,3,0,0,0,583.700439
374,-467,4,0,0,0,1015.363708
282,223,1,0,0,0,1181.503418
-1881,1023,2,0,0,0,668.021606
-785,-960,3,0,0,0,783.331726
1833,-900,4,0,0,0,662.494263
137,716,1,0,0,0,977.661133
-1371,216,2,0,0,0,792.303040
-1743,-150,3,0,0,0,684.666870
840,-435,4,0,0,0,883.374634
657,451,1,0,0,0,951.992798
-1292,1013,2,0,0,0,744.071533
-392,-1422,3,0,0,0,733.531799
1562,-1633,4,0,0,0,633.588562
82,1872,1,0,0,0,706.181702
-1841,1223,2,0,0,0,658.960144
-726,-1890,3,0,0,0,642.936951
1364,-854,4,0,0,0,730.655579
1819,243,1,0,0,0,712.149048
-726,1604,2,0,0,0,724.026062
-222,-799,3,1,0,20,99.889511
84,-1408,4,0,0,0,768.486755
459,1557,1,0,0,0,747.328125
-825,185,2,1,0,9,72.184891
-162,-483,3,0,0,0,1039.494995
1607,-329,4,0,0,0,725.178162
1054,1734,1,0,0,0,683.377808
-224,1823,2,0,0,0,711.907227
-317,-1831,3,0,0,0,667.419006
1557,-1561,4,1,0,22,31.976620
1741,1051,1,0,0,0,682.753784
-430,568,2,1,0,9,72.184891
-1799,-461,3,0,0,0,667.590210
1042,-1145,4,0,0,0,741.761902
657,762,1,0,0,0,884.841187
-138,917,2,0,0,0,908.327026
-254,-426,3,1,0,20,99.889511
1083,-924,4,0,0,0,765.831055
829,1444,1,0,0,0,740.034546
-193,1322,2,0,0,0,803.255554
-309,-420,3,0,0,0,1032.794067
947,-1550,4,0,0,0,695.973206
1061,90,1,0,0,0,868.522034
-509,1436,2,0,0,0,765.522156
-1486,-443,3,0,0,0,719.206238
5,-1384,4,0,0,0,773.931946
1339,1959,1,0,0,0,638.695679
-33,1258,2,0,0,0,820.454651
-1036,-430,3,0,0,0,812.169922
747,-1587,4,0,0,0,705.978699
1669,1010,1,1,0,22,31.976620
-717,1927,2,1,0,22,31.976620
-1496,-905,3,0,0,0,684.830688
268,-364,4,0,0,0,1096.208130
1278,237,1,0,0,0,811.157288
-695,413,2,1,0,9,72.184891
-1751,-1679,3,0,0,0,591.492676
1279,-1208,4,0,0,0,705.118958
881,1235,1,0,0,0,766.751587
-533,1417,2,0,0,0,767.339661
-598,-1703,3,0,0,0,675.736206
952,-924,4,1,0,3,335.604492
1904,1522,1,1,0,22,31.976620
-1660,707,2,0,0,0,717.009949
-711,-65,3,0,0,0,942.212341
1756,-1035,4,1,0,22,31.976620
1979,493,1,0,0,0,681.932800
-1771,1251,2,1,0,9,72.184891
-1189,-1108,3,0,0,0,705.744263
340,-1136,4,1,0,20,99.889511
1337,1026,1,0,0,0,736.566284
-659,906,2,0,0,0,853.896606
-1043,-1756,3,0,0,0,640.447205
763,-1850,4,1,0,20,99.889511
1789,158,1,0,0,0,718.334900
-205,375,2,0,0,0,1131.631592
-9,-1509,3,0,0,0,727.000610
1690,-365,4,0,0,0,710.098633
720,597,1,0,0,0,905.857239
-1071,534,2,0,0,0,834.910645
-1036,-1718,3,1,0,20,99.889511
444,-1562,4,0,0,0,728.068054
1964,867,1,0,0,0,667.266724
-618,508,2,0,0,0,950.876892
-744,-1230,3,1,0,20,99.889511
1394,-1030,4,0,0,0,709.390930
432,262,1,0,0,0,1083.360962
-665,1753,2,0,0,0,706.013428
-1880,-667,3,0,0,0,647.170166
588,-1246,4,1,0,3,114.856491
15,1265,1,1,0,22,31.976620
-1837,185,2,1,0,9,72.184891
-625,-826,3,0,0,0,835.077393
1915,-1583,4,0,0,0,606.595886
1495,481,1,0,0,0,756.812744
-872,1144,2,1,0,9,72.184891
-294,-741,3,0,0,0,910.448975
666,-517,4,0,0,0,916.516724
1332,153,1,0,0,0,802.236572
-261,771,2,0,0,0,945.882690
-837,-794,3,0,0,0,804.084167
1248,-944,4,0,0,0,738.692505
364,1211,1,0,0,0,819.066467
-1219,988,2,1,0,9,72.184891
-700,-1759,3,1,0,20,99.889511
312,-1038,4,1,0,20,99.889511
290,1697,1,0,0,0,730.455872
-1696,1764,2,0,0,0,629.923950
-1737,-1144,3,0,0,0,635.263000
1530,-310,4,1,0,22,31.976620
693,544,1,0,0,0,923.083435
-1337,367,2,0,0,0,792.604675
-1926,-57,3,0,0,0,657.064636
1409,-706,4,1,0,3,146.972000
1620,94,1,1,0,22,31.976620
-945,1831,2,0,0,0,679.003601
-105,-615,3,0,0,0,981.070679
1673,-1465,4,0,0,0,638.165039
546,1584,1,0,0,0,738.245850
-1232,1404,2,0,0,0,707.084534
-16,-444,3,0,0,0,1078.954834
1209,-236,4,0,0,0,807.404419
1237,946,1,0,0,0,759.236328
-1394,275,2,0,0,0,785.560364
-540,-186,3,0,0,0,1006.540466
1414,-1711,4,0,0,0,638.691956
1572,761,1,0,0,0,726.337158
-986,939,2,1,0,9,72.184891
-1321,-1240,3,1,0,16,114.431129
681,-453,4,0,0,0,925.261230
311,1180,1,1,0,22,31.976620
-1931,1596,2,0,0,0,623.237976
-1080,-403,3,0,0,0,804.321533
246,-1908,4,0,0,0,679.539856
49,1020,1,0,0,0,880.566895
-1323,590,2,0,0,0,780.008179
-594,-875,3,1,0,20,99.889511
151,-1072,4,0,0,0,844.544983
1626,365,1,0,0,0,739.790405
-843,1033,2,0,0,0,803.835999
-150,-905,3,0,0,0,870.026123
20,-5,4,0,0,0,1987.051147
500,989,1,0,0,0,857.025085
-1597,541,2,0,0,0,736.422729
-1620,-963,3,1,0,16,121.484306
1259,-1424,4,0,0,0,682.985657
722,1297,1,0,0,0,772.992310
-527,1414,2,0,0,0,768.272827
-28,-1372,3,0,0,0,754.246643
170,-1147,4,0,0,0,824.793274
791,1919,1,0,0,0,676.909424
-1587,1461,2,0,0,0,665.906311
-546,-179,3,1,0,16,123.915710
1934,-34,4,0,0,0,677.982727
451,105,1,0,0,0,1108.501831
-295,1550,2,0,0,0,755.472778
-1140,-1321,3,0,0,0,685.412048
1725,-1459,4,1,0,3,86.670761
270,1543,1,0,0,0,757.549927
-1650,425,2,1,0,9,72.184891
-224,-274,3,0,0,0,1144.547974
403,-1103,4,0,0,0,821.149292
1842,21,1,0,0,0,711.064819
-1200,941,2,0,0,0,765.256348
-319,-548,3,0,0,0,976.402466
1764,-69,4,1,0,22,31.976620
1034,738,1,0,0,0,817.743469
-1586,65,2,1,0,9,72.184891
-1320,-1207,3,1,0,16,117.100647
211,-851,4,0,0,0,905.244568
1442,183,1,1,0,22,31.976620
-1323,733,2,0,0,0,767.612854
-198,-1013,3,1,0,20,99.889511
1265,-364,4,0,0,0,788.334290
1168,1715,1,1,0,22,31.976620
-1285,84,2,0,0,0,813.834473
-521,-1310,3,0,0,0,746.507324
1634,-1542,4,1,0,3,88.844810
1334,298,1,1,0,22,31.976620
-1941,927,2,0,0,0,666.715088
-1907,-1453,3,0,0,0,594.839600
1089,-1741,4,0,0,0,660.890015
1225,635,1,0,0,0,793.987122
-1209,746,2,0,0,0,785.607788
-20,-681,3,0,0,0,955.708618
1316,-1954,4,1,0,22,31.976620
391,7,1,0,0,0,1157.243408
-141,639,2,1,0,22,31.976620
-1727,-355,3,0,0,0,682.441040
1487,-1567,4,0,0,0,646.430237
1352,537,1,1,0,22,31.976620
-53,1664,2,0,0,0,740.069336
-103,-274,3,0,0,0,1199.303711
1606,-1067,4,0,0,0,678.894653
979,1745,1,0,0,0,687.400574
-1362,1013,2,0,0,0,734.512817
-906,-1703,3,0,0,0,656.745117
1494,-146,4,0,0,0,750.614380
760,1474,1,0,0,0,741.182434
-296,432,2,0,0,0,1073.024292
-861,-1686,3,0,0,0,662.106140
1006,-1774,4,1,0,22,31.976620
550,134,1,0,0,0,1050.569946
-568,829,2,1,0,9,72.184891
-1768,-1646,3,1,0,16,81.156227
1636,-478,4,0,0,0,714.198364
1491,840,1,0,0,0,732.169922
-1502,1699,2,1,0,9,72.184891
-802,-770,3,0,0,0,814.716553
1727,-1361,4,1,0,3,95.850410
1754,1277,1,0,0,0,664.253235
-554,302,2,0,0,0,1019.286133
-202,-653,3,0,0,0,954.764526
39,-510,4,0,0,0,1060.563599
1616,1640,1,0,0,0,647.295959
-1633,1552,2,0,0,0,653.502563
-1078,-1483,3,1,0,20,99.889511
909,-285,4,0,0,0,881.349060
501,997,1,1,0,22,31.976620
-811,1914,2,0,0,0,676.482727
-1423,-39,3,0,0,0,743.726318
872,-989,4,0,0,0,787.855591
1307,1348,1,0,0,0,705.601868
-687,1429,2,0,0,0,754.068176
-624,-1455,3,0,0,0,713.256714
494,-934,4,0,0,0,851.536316
481,157,1,1,0,22,31.976620
-712,681,2,0,0,0,890.880249
-270,-1278,3,1,0,20,99.889511
1670,-595,4,1,0,22,31.976620
1035,1526,1,1,0,22,31.976620
-344,978,2,1,0,9,72.184891
-858,-619,3,0,0,0,828.985474
409,-1345,4,1,0,20,99.889511
94,440,1,0,0,0,1116.799316
-1707,58,2,0,0,0,732.732361
-1541,-902,3,0,0,0,678.820007
1258,-305,4,0,0,0,793.151367
1100,1178,1,0,0,0,749.370544
-1177,1794,2,1,0,9,72.184891
-825,-1608,3,0,0,0,675.364563
1742,-1671,4,1,0,22,31.976620
400,117,1,0,0,0,1138.886353
-443,1577,2,0,0,0,744.725159
-458,-1507,3,0,0,0,714.726807
1309,-1588,4,0,0,0,660.274170
1175,1554,1,0,0,0,695.031250
-1314,120,2,0,0,0,806.837585
-996,-1665,3,0,0,0,655.097656
944,-697,4,0,0,0,821.365723
1663,418,1,0,0,0,731.602783
-549,5,2,1,0,9,72.184891
-1831,-993,3,0,0,0,634.844910
1898,-606,4,0,0,0,669.523987
1528,291,1,1,0,22,31.976620
-24,1851,2,1,0,22,31.976620
-1969,-290,3,1,0,16,105.556557
901,-555,4,0,0,0,851.094543
52,727,1,0,0,0,977.713318
-828,1190,2,0,0,0,779.785645
-1121,-1024,3,1,0,16,138.600967
815,-69,4,1,0,22,31.976620
1302,1216,1,0,0,0,720.646606
-1369,1359,2,0,0,0,697.868164
-710,-1071,3,0,0,0,773.120972
1158,-832,4,0,0,0,765.369812
152,86,1,1,0,0,522.641846
-21,1829,2,0,0,0,713.093384
-376,-458,3,0,0,0,995.919861
1225,-709,4,0,0,0,767.495300
197,1544,1,0,0,0,759.375000
-1072,1861,2,1,0,9,72.184891
-1352,-481,3,0,0,0,741.422302
1340,-90,4,1,0,22,31.976620
1693,548,1,0,0,0,720.976868
-746,1091,2,1,0,9,72.184891
-554,-50,3,0,0,0,1014.152588
1205,-855,4,0,0,0,755.162476
1186,1049,1,0,0,0,754.469238
-1166,947,2,1,0,9,72.184891
-1552,-170,3,0,0,0,717.244019
1092,-225,4,0,0,0,836.072632
1418,36,1,0,0,0,786.048157
-1357,1106,2,0,0,0,725.663086
-734,-1046,3,0,0,0,774.718750
1159,-1679,4,0,0,0,662.753662
1309,1627,1,1,0,22,31.976620
-90,1609,2,1,0,22,31.976620
-206,-1388,3,0,0,0,747.853088
1168,-1312,4,0,0,0,705.560913
1247,1030,1,1,0,22,31.976620
-1623,707,2,0,0,0,722.458862
-1218,-1308,3,0,0,0,678.546814
978,-155,4,0,0,0,870.212463
1651,1681,1,0,0,0,640.711182
-693,714,2,0,0,0,888.040344
-1371,-1178,3,0,0,0,675.319397
37,-921,4,1,0,20,99.889511
1253,815,1,0,0,0,771.003174
-1569,1405,2,1,0,9,72.184891
-1860,-466,3,0,0,0,658.454468
1409,-133,4,1,0,22,31.976620
1599,1820,1,1,0,22,31.976620
-905,857,2,0,0,0,823.221313
-508,-1395,3,1,0,20,99.889511
1572,-1460,4,0,0,0,648.396118
829,788,1,0,0,0,847.938599
-1769,1538,2,0,0,0,642.176453
-1202,-54,3,0,0,0,792.005493
1119,-191,4,0,0,0,830.896484
29,1247,1,0,0,0,823.001526
-923,1376,2,1,0,9,72.184891
-1456,-320,3,0,0,0,730.494385
323,-1451,4,1,0,20,99.889511
301,351,1,0,0,0,1108.921753
-1503,281,2,0,0,0,764.487427
-1143,-1711,3,0,0,0,638.324585
423,-49,4,0,0,0,1113.421143
1629,957,1,0,0,0,703.820557
-1066,551,2,0,0,0,834.133423
-23,-1181,3,1,0,20,99.889511
1539,-1668,4,0,0,0,632.360657
364,534,1,1,0,22,31.976620
-1534,28,2,0,0,0,763.510254
-498,-1831,3,0,0,0,661.444397
182,-461,4,0,0,0,1069.648193
260,1220,1,0,0,0,822.987610
-349,317,2,0,0,0,1103.307861
-1905,-660,3,1,0,16,111.119431
405,-886,4,0,0,0,874.910583
34,1014,1,1,0,22,31.976620
-1022,676,2,0,0,0,828.118225
-1088,-1747,3,0,0,0,638.264465
1722,-1632,4,0,0,0,619.725281
1625,163,1,1,0,22,31.976620
-1135,910,2,0,0,0,778.788513
-922,-744,3,1,0,16,171.731873
1168,-420,4,0,0,0,805.219116
82,1172,1,0,0,0,840.218445
-1042,782,2,0,0,0,810.492188
-1762,-1559,3,0,0,0,600.194031
607,-651,4,0,0,0,900.903503
1123,83,1,1,0,22,31.976620
-794,1138,2,0,0,0,792.364136
-1642,-718,3,0,0,0,677.774292
436,-104,4,0,0,0,1098.633667
1172,524,1,0,0,0,814.714539
-529,885,2,0,0,0,877.796448
-485,-1554,3,0,0,0,705.270325
267,-1554,4,0,0,0,736.509094
1187,686,1,0,0,0,795.831726
-890,647,2,0,0,0,859.079956
-859,-949,3,0,0,0,774.226318
1675,-1781,4,1,0,22,31.976620
1087,564,1,1,0,22,31.976620
-970,764,2,0,0,0,825.919373
-972,-1785,3,0,0,0,641.833801
1428,-417,4,1,0,22,31.976620
202,426,1,0,0,0,1103.314209
-1732,1416,2,1,0,9,72.184891
-327,-1512,3,0,0,0,719.885376
215,-1700,4,0,0,0,712.665894
1072,1660,1,0,0,0,690.970947
-158,1742,2,0,0,0,725.904541
-227,-1721,3,0,0,0,686.888489
1608,-1177,4,0,0,0,669.475281
1882,1215,1,0,0,0,655.121765
-685,1264,2,0,0,0,782.181091
-881,-182,3,1,0,16,155.215302
1186,-120,4,1,0,22,31.976620
234,1699,1,0,0,0,731.550903
-159,641,2,0,0,0,1006.131836
-651,-963,3,1,0,20,99.889511
122,-1901,4,0,0,0,682.360657
1815,1354,1,0,0,0,652.044006
-1694,1322,2,1,0,9,72.184891
-1523,-839,3,0,0,0,686.411072
28,-1065,4,0,0,0,849.156982
604,1719,1,0,0,0,714.206909
-762,644,2,1,0,9,72.184891
-575,-415,3,0,0,0,944.174194
793,-1262,4,1,0,3,115.968117
914,1551,1,0,0,0,717.647461
-1902,302,2,0,0,0,698.339600
-1963,-1662,3,1,0,16,75.982567
330,-581,4,0,0,0,983.523315
1159,1161,1,0,0,0,744.296753
-615,1249,2,0,0,0,791.416138
-1498,-1885,3,1,0,20,99.889511
419,-597,4,0,0,0,958.272644
1566,1131,1,0,0,0,697.465881
-570,1451,2,0,0,0,758.927979
-1250,-1585,3,0,0,0,643.790222
1648,-571,4,0,0,0,707.599731
1726,1557,1,0,0,0,644.570374
-253,1708,2,0,0,0,729.618469
-1536,-1775,3,0,0,0,600.842224
1072,-886,4,1,0,3,303.343964
1795,816,1,0,0,0,691.591736
-628,876,2,0,0,0,865.018738
-1504,-1101,3,0,0,0,666.546204
1720,-95,4,1,0,22,31.976620
1266,368,1,1,0,22,31.976620
-70,1787,2,0,0,0,719.548828
-1901,-1977,3,1,0,20,99.889511
1876,-22,4,1,0,22,31.976620
426,1901,1,0,0,0,695.041016
-1465,1800,2,0,0,0,645.022339
-947,-1064,3,0,0,0,743.552429
262,-1076,4,0,0,0,838.014221
1558,149,1,0,0,0,757.794922
-33,1044,2,0,0,0,874.059692
-780,-1621,3,1,0,20,99.889511
650,-253,4,0,0,0,971.144348
763,1299,1,0,0,0,768.750061
-1760,781,2,1,0,9,72.184891
-1888,-1665,3,1,0,16,77.674751
1410,-946,4,1,0,3,150.374481
1094,466,1,1,0,22,31.976620
-965,1617,2,0,0,0,704.769348
-129,-924,3,1,0,20,99.889511
219,-628,4,0,0,0,984.858276
1066,1433,1,0,0,0,719.926941
-774,1744,2,0,0,0,700.996033
-570,-1300,3,0,0,0,744.545715
1740,-1547,4,1,0,22,31.976620
1946,1317,1,0,0,0,641.487610
-39,1333,2,0,0,0,803.781677
-1497,-493,3,0,0,0,714.539612
1613,-1740,4,0,0,0,619.708313
1619,1500,1,0,0,0,659.365479
-859,775,2,0,0,0,844.642273
-879,-841,3,0,0,0,788.844604
1790,-1348,4,0,0,0,635.989746
396,878,1,0,0,0,897.404541
-1336,835,2,0,0,0,755.900085
-904,-1937,3,1,0,20,99.889511
1026,-1690,4,1,0,22,31.976620
171,1895,1,0,0,0,701.798218
-830,931,2,0,0,0,823.018921
-1035,-236,3,1,0,16,177.456940
559,-1833,4,1,0,20,99.889511
127,266,1,0,0,0,1238.792236
-678,1723,2,0,0,0,709.594727
-743,-594,3,1,0,16,157.861588
876,-1859,4,0,0,0,660.678284
1183,1386,1,1,0,22,31.976620
-1917,1398,2,0,0,0,638.728760
-1995,-343,3,0,0,0,642.989075
1219,-1461,4,0,0,0,682.684204
925,72,1,0,0,0,908.180542
-1027,520,2,0,0,0,846.087097
-1040,-1384,3,0,0,0,687.664917
1196,-1559,4,0,0,0,673.493286
728,442,1,0,0,0,932.840454
-356,1273,2,0,0,0,806.320984
-1195,-475,3,0,0,0,772.903015
293,-979,4,0,0,0,861.143005
413,1815,1,0,0,0,708.083191
-1955,857,2,0,0,0,668.903564
-970,-159,3,0,0,0,850.148743
1505,-1741,4,0,0,0,628.396423
1491,1708,1,0,0,0,651.688049
-1286,1321,2,0,0,0,710.835571
-911,-1140,3,0,0,0,736.610901
927,-847,4,0,0,0,801.888916
918,28,1,1,0,22,31.976620
-1082,1422,2,1,0,9,72.184891
-1030,-856,3,0,0,0,761.237305
918,-379,4,0,0,0,869.355347
295,42,1,0,0,0,1235.665405
-1167,21,2,0,0,0,842.104309
-415,-912,3,1,0,20,99.889511
1909,-666,4,1,0,22,31.976620
1342,1219,1,0,0,0,715.631531
-1021,949,2,0,0,0,791.059509
-344,-419,3,1,0,20,99.889511
1460,-1707,4,1,0,22,31.976620
1597,993,1,1,0,22,31.976620
-1298,1333,2,1,0,9,72.184891
-874,-881,3,0,0,0,783.125305
411,-381,4,0,0,0,1034.215820
120,345,1,0,0,0,1176.921753
-1474,1560,2,0,0,0,667.350525
-826,-528,3,0,0,0,850.913574
1057,-1340,4,1,0,22,31.976620
571,1282,1,1,0,22,31.976620
-1933,733,2,0,0,0,678.057556
-1005,-931,3,0,0,0,754.733643
1380,-1015,4,0,0,0,712.743835
884,864,1,0,0,0,825.603088
-679,416,2,0,0,0,952.209229
-1395,-83,3,1,0,16,140.147552
1994,-137,4,1,0,22,31.976620
1119,1199,1,0,0,0,744.373657
-766,545,2,0,0,0,904.388000
-398,-1042,3,0,0,0,813.781677
631,-1592,4,0,0,0,712.841492
1947,575,1,0,0,0,683.247131
-652,147,2,0,0,0,1002.686768
-1059,-1772,3,0,0,0,637.401611
684,-1260,4,0,0,0,763.806274
384,940,1,0,0,0,882.197205
-1787,1044,2,0,0,0,677.739136
-639,-1153,3,0,0,0,765.782410
425,-1781,4,0,0,0,693.681030
1567,766,1,0,0,0,726.716370
-1124,1256,2,0,0,0,736.532532
-944,-1517,3,0,0,0,678.634155
1521,-83,4,1,0,22,31.976620
912,602,1,1,0,22,31.976620
-1497,1546,2,1,0,9,72.184891
-1903,-1422,3,0,0,0,597.440613
443,-854,4,0,0,0,878.512817
61,940,1,0,0,0,903.812256
-1390,531,2,0,0,0,772.305420
-1237,-1208,3,0,0,0,688.029297
112,-449,4,0,0,0,1089.435791
1341,1473,1,0,0,0,688.673096
-1164,1859,2,0,0,0,661.146362
-403,-1803,3,0,0,0,669.076965
878,-1127,4,0,0,0,764.818298
283,495,1,1,0,22,31.976620
-90,1882,2,0,0,0,704.603333
-1432,-1336,3,0,0,0,652.420532
451,-1959,4,0,0,0,666.975830
362,1371,1,0,0,0,786.143311
-480,389,2,0,0,0,1025.349487
-327,-185,3,0,0,0,1127.310791
1006,-525,4,0,0,0,831.005859
763,1565,1,0,0,0,727.228516
-1036,1063,2,1,0,9,72.184891
-1302,-1798,3,0,0,0,616.708130
1123,-522,4,1,0,22,31.976620
974,256,1,1,0,22,31.976620
-1068,814,2,1,0,9,72.184891
-11,-675,3,1,0,20,99.889511
972,-1826,4,1,0,22,31.976620
1360,1574,1,0,0,0,676.285889
-1122,46,2,0,0,0,853.223755
-957,-253,3,1,0,16,173.776520
726,-1640,4,1,0,3,102.141701
1046,1610,1,0,0,0,699.214172
-1027,1824,2,1,0,9,72.184891
-370,-1981,3,0,0,0,644.262207
103,-1323,4,0,0,0,786.013855
1170,960,1,0,0,0,767.432251
-955,1357,2,0,0,0,741.015869
-971,-78,3,1,0,9,72.184891
827,-1588,4,0,0,0,700.093994
935,364,1,0,0,0,885.635498
-1060,1868,2,0,0,0,667.141479
-379,-78,3,0,0,0,1118.809814
1401,-525,4,0,0,0,751.568115
507,339,1,1,0,22,31.976620
-768,194,2,1,0,9,72.184891
-1783,-1714,3,0,0,0,586.012085
1771,-401,4,0,0,0,696.062988
929,813,1,0,0,0,825.974731
-1027,1437,2,0,0,0,723.113159
-1209,-1870,3,0,0,0,615.827942
590,-1476,4,0,0,0,734.193970
1345,768,1,0,0,0,760.797546
-770,975,2,0,0,0,824.145081
-1898,-963,3,0,0,0,628.702148
543,-411,4,0,0,0,978.041870
762,1271,1,0,0,0,773.475891
-948,156,2,0,0,0,898.129700
-751,-1501,3,1,0,20,99.889511
1129,-712,4,0,0,0,784.339294
397,113,1,0,0,0,1141.662109
-1360,1652,2,1,0,9,72.184891
-1648,-1364,3,0,0,0,627.243896
1909,-1222,4,0,0,0,632.725586
1525,1484,1,0,0,0,669.803101
-818,173,2,0,0,0,938.159424
-1792,-493,3,0,0,0,667.366821
246,-1864,4,0,0,0,686.101013
951,1066,1,0,0,0,784.010986
-1924,514,2,0,0,0,688.746765
-1535,-312,3,0,0,0,716.308777
1482,-816,4,0,0,0,716.324646
652,1263,1,0,0,0,785.459961
-393,962,2,0,0,0,875.535889
-828,-1136,3,0,0,0,747.336914
1680,-65,4,0,0,0,718.115417
1792,1096,1,0,0,0,673.492310
-601,1902,2,1,0,9,72.184891
-361,-43,3,0,0,0,1136.794434
1517,-406,4,1,0,22,31.976620
285,1490,1,0,0,0,766.755371
-811,1597,2,0,0,0,719.107849
-1355,-98,3,0,0,0,757.136169
415,-56,4,0,0,0,1118.248169
1215,1195,1,0,0,0,733.371094
-1238,1728,2,1,0,9,72.184891
-601,-247,3,0,0,0,969.357971
1545,-460,4,0,0,0,730.168518
1381,1807,1,0,0,0,650.800720
-1625,1701,2,0,0,0,641.162048
-884,-1196,3,0,0,0,731.170837
971,-1155,4,1,0,3,152.039185
1999,1554,1,0,0,0,620.210510
-566,1117,2,1,0,9,72.184891
-138,-968,3,0,0,0,851.662720
630,-55,4,0,0,0,999.387329
1670,565,1,1,0,22,31.976620
-1453,1630,2,0,0,0,662.418762
-442,-752,3,1,0,20,99.889511
1050,-649,4,0,0,0,806.806519
1497,1710,1,0,0,0,651.002197
-1157,1592,2,0,0,0,692.136169
-905,-87,3,0,0,0,872.602539
1426,-1910,4,0,0,0,618.394897
660,432,1,0,0,0,954.932617
-1450,697,2,1,0,9,72.184891
-1341,-498,3,0,0,0,742.328857
103,-1756,4,0,0,0,705.163452
533,1069,1,1,0,22,31.976620
-280,1285,2,0,0,0,807.779419
-1299,-470,3,0,0,0,752.343994
1387,-596,4,1,0,22,31.976620
1357,779,1,1,0,22,31.976620
-1301,1592,2,0,0,0,679.628723
-179,-283,3,0,0,0,1160.508423
1401,-1521,4,0,0,0,658.898193
1534,1320,1,0,0,0,684.148071
-770,463,2,0,0,0,917.428345
-395,-534,3,0,0,0,963.024658
1681,-688,4,0,0,0,695.981995
1476,1394,1,1,0,22,31.976620
-1026,1230,2,0,0,0,751.155029
-1698,-1282,3,1,0,16,99.509079
523,-467,4,0,0,0,969.638977
1569,782,1,1,0,22,31.976620
-1739,391,2,0,0,0,720.504883
-1559,-1803,3,0,0,0,596.492920
1032,-557,4,0,0,0,821.540283
618,1011,1,0,0,0,837.765869
-679,1237,2,0,0,0,787.541626
-365,-805,3,1,0,20,99.889511
298,-623,4,1,0,22,31.976620
939,336,1,1,0,22,31.976620
-937,974,2,0,0,0,799.935669
-1742,-1688,3,1,0,16,80.067299
1331,-1000,4,0,0,0,720.934326
762,1167,1,0,0,0,791.097107
-1854,1087,2,0,0,0,666.960022
-1258,-261,3,0,0,0,773.160828
1330,-1572,4,0,0,0,660.110413
522,591,1,1,0,22,31.976620
-275,506,2,0,0,0,1045.614990
-310,-383,3,0,0,0,1049.109375
927,-584,4,0,0,0,841.100586
726,521,1,0,0,0,918.998230
-776,1923,2,0,0,0,677.179626
-1105,-82,3,1,0,16,151.485077
1359,-849,4,0,0,0,731.885864
450,1398,1,0,0,0,776.061096
-1017,812,2,0,0,0,810.802002
-1317,-1264,3,0,0,0,672.509888
450,-1712,4,0,0,0,703.356506
301,1881,1,0,0,0,701.462769
-242,416,2,1,0,0,145.477890
-693,-588,3,0,0,0,872.707214
1253,-1125,4,1,0,3,125.159721
8,111,1,0,0,0,1519.820557
-1950,1215,2,1,0,9,72.184891
-430,-864,3,0,0,0,855.424316
296,-33,4,1,0,0,289.300293
1744,1024,1,1,0,22,31.976620
-1434,1471,2,0,0,0,679.861084
-434,-1551,3,0,0,0,708.338806
577,-60,4,0,0,0,1024.264893
957,531,1,0,0,0,860.621216
-420,180,2,0,0,0,1112.335693
-578,-531,3,0,0,0,914.930420
664,-999,4,0,0,0,815.038330
798,1858,1,0,0,0,684.378174
-288,315,2,0,0,0,1132.011841
-167,-902,3,0,0,0,870.031677
1000,-81,4,1,0,22,31.976620
995,1198,1,1,0,22,31.976620
-358,1516,2,1,0,22,31.976620
-1084,-651,3,0,0,0,777.741516
1238,-513,4,0,0,0,783.196716
1389,570,1,0,0,0,769.724365
-617,73,2,0,0,0,1023.735901
-422,-574,3,1,0,20,99.889511
1514,-1206,4,0,0,0,677.787354
1175,1565,1,0,0,0,693.743652
-738,1012,2,0,0,0,821.810791
-1602,-1730,3,0,0,0,599.574829
697,-1568,4,0,0,0,712.266052
68,613,1,1,0,22,31.976620
-1452,673,2,1,0,9,72.184891
-949,-1256,3,0,0,0,714.881348
198,-764,4,0,0,0,935.539246
667,1388,1,0,0,0,762.447388
-1118,55,2,0,0,0,854.145325
-1902,-777,3,1,0,16,109.025650
1845,-485,4,0,0,0,681.944885
1429,1069,1,0,0,0,720.153442
-707,929,2,0,0,0,842.045166
-55,-1270,3,0,0,0,776.216736
1799,-1889,4,0,0,0,592.762146
1082,1275,1,0,0,0,738.799805
-408,1250,2,0,0,0,807.834473
-377,-92,3,1,0,0,180.359604
113,-632,4,0,0,0,995.032715
1233,357,1,0,0,0,814.751465
-299,728,2,1,0,22,31.976620
-573,-550,3,0,0,0,911.515076
1264,-1033,4,0,0,0,726.564758
1129,810,1,1,0,22,31.976620
-17,1528,2,0,0,0,764.665466
-1842,-676,3,1,0,16,115.791199
1563,-1086,4,0,0,0,682.609863
132,544,1,0,0,0,1053.798096
-526,592,2,0,0,0,953.798706
-267,-1003,3,0,0,0,834.489197
687,-960,4,0,0,0,819.640076
1856,1392,1,0,0,0,645.123535
-1623,526,2,0,0,0,733.047668
-1151,-685,3,0,0,0,761.206055
1884,-1231,4,0,0,0,634.757568
1499,321,1,0,0,0,763.748047
-464,34,2,0,0,0,1107.145508
-714,-1890,3,0,0,0,643.539673
240,-480,4,0,0,0,1046.713989
1170,328,1,0,0,0,830.530640
-700,969,2,0,0,0,835.235840
-800,-466,3,1,0,16,169.662369
1419,-1219,4,0,0,0,687.544067
553,546,1,0,0,0,959.233154
-723,1795,2,0,0,0,696.959045
-1776,-525,3,0,0,0,668.384277
1879,-1014,4,1,0,22,31.976620
516,1189,1,0,0,0,811.965881
-668,1682,2,1,0,22,31.976620
-1459,-635,3,1,0,16,160.348541
665,-1475,4,0,0,0,729.111816
565,1880,1,0,0,0,692.858093
-1011,1721,2,0,0,0,688.099182
-818,-428,3,0,0,0,868.193604
1768,-611,4,1,0,22,31.976620
248,1042,1,0,0,0,866.825317
-525,1031,2,0,0,0,844.633667
-500,-1766,3,0,0,0,670.950500
1738,-835,4,0,0,0,678.889099
381,1559,1,0,0,0,750.593201
-1286,460,2,0,0,0,796.918945
-716,-1601,3,0,0,0,683.953369
594,-1351,4,0,0,0,755.492493
106,1991,1,0,0,0,688.410034
-1582,203,2,0,0,0,752.370422
-1404,-1208,3,0,0,0,668.356140
1938,-785,4,1,0,22,31.976620
120,1563,1,1,0,22,31.976620
-1734,1064,2,1,0,9,72.184891
-1179,-1763,3,0,0,0,629.697998
1647,-648,4,0,0,0,703.399048
1932,849,1,0,0,0,672.172241
-1384,143,2,1,0,9,72.184891
-874,-1632,3,0,0,0,668.488647
277,-1448,4,0,0,0,755.795959
567,1642,1,1,0,22,31.976620
-815,240,2,1,0,9,72.184891
-872,-754,3,0,0,0,804.311401
1374,-1799,4,0,0,0,633.094482
1464,654,1,0,0,0,750.851318
-397,1871,2,0,0,0,700.304199
-1755,-1099,3,0,0,0,636.522766
1391,-1827,4,0,0,0,629.023926
1195,1480,1,1,0,22,31.976620
-1157,1463,2,1,0,9,72.184891
-1662,-1389,3,0,0,0,623.705139
1716,-849,4,0,0,0,680.918762
70,1231,1,0,0,0,826.328857
-1399,142,2,1,0,9,72.184891
-373,-835,3,0,0,0,870.913086
1009,-808,4,1,0,3,291.865417
810,1095,1,0,0,0,797.712341
-1152,687,2,0,0,0,802.121460
-1640,-1964,3,0,0,0,576.385437
129,-235,4,0,0,0,1246.906128
596,371,1,1,0,22,31.976620
-1902,1479,2,0,0,0,634.347290
-983,-483,3,1,0,16,224.418701
1866,-137,4,0,0,0,687.495056
1347,1457,1,0,0,0,689.786194
-483,1058,2,1,0,9,72.184891
-1097,-1268,3,0,0,0,696.823242
961,-1462,4,1,0,3,91.064507
649,673,1,0,0,0,905.969055
-1122,667,2,0,0,0,809.944214
-558,-56,3,0,0,0,1011.803223
250,-488,4,0,0,0,1040.519653
1809,401,1,0,0,0,709.391418
-972,1848,2,0,0,0,675.205872
-868,-1050,3,0,0,0,756.337463
1617,-312,4,0,0,0,724.045715
420,1103,1,0,0,0,838.900879
-1481,444,2,0,0,0,761.298096
-1759,-1847,3,0,0,0,577.284058
510,-174,4,0,0,0,1045.529419
1372,1258,1,0,0,0,708.076660
-1965,796,2,0,0,0,670.849609
-534,-545,3,0,0,0,923.073303
714,-100,4,1,0,22,31.976620
953,1799,1,1,0,22,31.976620
-704,180,2,0,0,0,978.588684
-1321,-822,3,0,0,0,718.239746
44,-707,4,0,0,0,966.689392
1367,1398,1,0,0,0,693.996277
-1921,233,2,0,0,0,696.967529
-661,-202,3,0,0,0,951.558777
251,-491,4,0,0,0,1038.880371
388,687,1,0,0,0,954.865540
-690,663,2,0,0,0,899.284180
-1999,-894,3,0,0,0,620.594055
640,-482,4,0,0,0,931.205750
882,168,1,0,0,0,917.628418
-1598,671,2,0,0,0,728.537170
-441,-993,3,1,0,20,99.889511
361,-799,4,0,0,0,905.244568
1852,613,1,1,0,22,31.976620
-276,655,2,0,0,0,984.953979
-394,-576,3,0,0,0,948.784851
43,-1144,4,0,0,0,828.468384
1709,913,1,0,0,0,696.596497
-914,342,2,0,0,0,893.627258
-1870,-854,3,0,0,0,638.585510
1599,-1557,4,0,0,0,637.134460
586,1675,1,0,0,0,721.772583
-783,903,2,1,0,9,72.184891
-1893,-1050,3,0,0,0,623.875671
599,-1347,4,1,0,20,99.889511
1027,586,1,0,0,0,838.373535
-953,1080,2,0,0,0,781.647949
-1829,-466,3,0,0,0,662.966187
468,-182,4,1,0,22,31.976620
1898,289,1,0,0,0,699.225464
-483,1153,2,0,0,0,822.370056
-535,-1205,3,1,0,20,99.889511
1706,-21,4,0,0,0,713.907715
1698,338,1,0,0,0,728.842896
-1885,33,2,0,0,0,704.430481
-468,-1065,3,0,0,0,801.701843
1352,-1097,4,0,0,0,708.101074
1173,711,1,0,0,0,795.687866
-644,675,2,0,0,0,906.591370
-1141,-1088,3,0,0,0,714.448975
31,-167,4,0,0,0,1378.564575
1150,1115,1,0,0,0,751.146729
-798,982,2,0,0,0,818.876770
-1232,-1070,3,1,0,16,131.943771
1188,-1885,4,1,0,22,31.976620
739,528,1,0,0,0,914.315918
-1240,281,2,1,0,9,72.184891
-1244,-1792,3,0,0,0,621.679626
307,-696,4,1,0,22,31.976620
1175,246,1,0,0,0,834.015198
-1456,160,2,0,0,0,776.819946
-1608,-550,3,1,0,16,141.580917
472,-1342,4,0,0,0,766.037842
305,1702,1,0,0,0,729.207520
-65,1995,2,0,0,0,688.088867
-1226,-263,3,0,0,0,780.152466
236,-455,4,0,0,0,1059.958496
418,1055,1,0,0,0,850.203857
-1592,1703,2,0,0,0,643.745605
-1862,-1619,3,0,0,0,586.678650
186,-1031,4,0,0,0,853.984558
1598,1414,1,0,0,0,669.012756
-800,708,2,0,0,0,867.580261
-621,-1012,3,0,0,0,795.820374
97,-1445,4,0,0,0,760.904236
1831,70,1,1,0,22,31.976620
-1820,559,2,0,0,0,701.615906
-1905,-1507,3,0,0,0,591.130737
1315,-1608,4,0,0,0,657.613586
14,1638,1,0,0,0,744.721863
-494,937,2,0,0,0,870.029663
-1623,-605,3,1,0,16,138.757126
1449,-145,4,1,0,22,31.976620
127,1571,1,0,0,0,755.781616
-119,1274,2,0,0,0,815.670471
-1390,-908,3,0,0,0,699.633850
1638,-371,4,0,0,0,718.416931
558,119,1,0,0,0,1048.307251
-142,1366,2,0,0,0,795.331421
-1368,-74,3,0,0,0,754.725098
859,-1432,4,0,0,0,720.060852
1043,1890,1,0,0,0,665.696045
-867,897,2,0,0,0,822.960083
-1359,-192,3,0,0,0,754.202759
839,-1393,4,0,0,0,727.666870
228,973,1,0,0,0,886.785461
-1683,1252,2,0,0,0,673.897278
-1858,-77,3,0,0,0,667.210754
877,-134,4,0,0,0,901.845276
1293,87,1,0,0,0,812.013672
-466,1763,2,1,0,22,31.976620
-1439,-1993,3,0,0,0,587.740906
633,-539,4,0,0,0,920.550964
996,1622,1,0,0,0,701.694153
-408,1843,2,1,0,22,31.976620
-89,-1298,3,0,0,0,769.549805
1482,-659,4,0,0,0,728.415039
1459,300,1,1,0,22,31.976620
-1873,663,2,0,0,0,689.407471
-316,-142,3,0,0,0,1150.701416
1558,-1149,4,1,0,22,31.976620
1352,447,1,0,0,0,784.932007
-1020,1750,2,0,0,0,683.891785
-1464,-20,3,0,0,0,735.659729
1188,-147,4,0,0,0,815.633362
217,1374,1,0,0,0,791.657898
-1696,1700,2,0,0,0,635.298523
-73,-1124,3,0,0,0,810.974487
246,-1145,4,1,0,20,99.889511
668,324,1,1,0,22,31.976620
-36,1853,2,1,0,22,31.976620
-1991,-1081,3,0,0,0,610.921753
912,-172,4,0,0,0,888.867126
426,644,1,1,0,22,31.976620
-385,1080,2,1,0,9,72.184891
-276,-528,3,0,0,0,994.360229
390,-1384,4,1,0,20,99.889511
1670,700,1,1,0,22,31.976620
-855,1313,2,1,0,9,72.184891
-1605,-1211,3,0,0,0,644.921082
88,-1359,4,0,0,0,778.568542
1007,1477,1,0,0,0,719.669678
-1838,239,2,0,0,0,709.304626
-1993,-682,3,0,0,0,631.644104
106,-625,4,0,0,0,998.691284
504,104,1,1,0,22,31.976620
-1315,16,2,1,0,9,72.184891
-793,-900,3,0,0,0,792.888367
603,-1342,4,1,0,3,127.677528
830,371,1,1,0,22,31.976620
-1190,1883,2,1,0,9,72.184891
-1660,-1226,3,0,0,0,637.495300
156,-772,4,0,0,0,936.136963
967,1510,1,0,0,0,718.792969
-1923,1526,2,0,0,0,629.011169
-1944,-577,3,0,0,0,642.489563
76,-428,4,0,0,0,1107.477539
995,598,1,0,0,0,843.665039
-263,1730,2,1,0,22,31.976620
-795,-163,3,1,0,16,145.074005
423,-530,4,0,0,0,979.271729
1044,776,1,0,0,0,810.931335
-655,942,2,0,0,0,847.039124
-199,-746,3,0,0,0,919.666199
1430,-677,4,0,0,0,735.530701
876,1429,1,1,0,22,31.976620
-514,921,2,1,0,9,72.184891
-1386,-694,3,1,0,16,167.123322
972,-612,4,0,0,0,827.512146
1359,1228,1,0,0,0,712.700867
-1222,1549,2,0,0,0,691.415039
-443,-1581,3,1,0,20,99.889511
359,-1203,4,1,0,3,117.159470
445,1309,1,1,0,22,31.976620
-1568,690,2,0,0,0,731.874512
-250,-63,3,0,0,0,1235.931519
1820,-312,4,0,0,0,691.261963
326,1636,1,1,0,22,31.976620
-1530,1445,2,0,0,0,672.960571
-761,-1022,3,0,0,0,775.536072
1385,-1894,4,1,0,22,31.976620
779,1060,1,0,0,0,807.711731
-1379,1268,2,1,0,9,72.184891
-1661,-1090,3,0,0,0,648.331970
1147,-1893,4,0,0,0,639.500305
1337,42,1,0,0,0,802.901550
-1191,1809,2,0,0,0,664.748535
-445,-1911,3,0,0,0,651.884583
312,-1267,4,1,0,20,99.889511
1588,1743,1,1,0,22,31.976620
-213,1871,2,1,0,22,31.976620
-46,-1693,3,0,0,0,693.944214
1651,-1322,4,1,0,22,31.976620
1856,477,1,0,0,0,699.756775
-445,1113,2,0,0,0,834.449524
-1433,-1656,3,0,0,0,620.576538
1748,-66,4,1,0,22,31.976620
1429,98,1,0,0,0,783.246643
-1969,1161,2,1,0,9,72.184891
-314,-402,3,0,0,0,1039.124756
202,-1793,4,0,0,0,697.879761
1175,1905,1,1,0,22,31.976620
-1300,232,2,0,0,0,806.604248
-767,-1445,3,0,0,0,703.863342
1743,-1744,4,1,0,22,31.976620
1201,433,1,1,0,22,31.976620
-1530,1336,2,0,0,0,683.095947
-902,-1860,3,0,0,0,637.009521
517,-71,4,1,0,22,31.976620
360,950,1,0,0,0,882.051575
-996,1896,2,0,0,0,667.954834
-1501,-1551,3,0,0,0,624.708984
794,-211,4,0,0,0,923.978088
1209,1940,1,0,0,0,649.349487
-1081,646,2,0,0,0,820.252808
-772,-1190,3,0,0,0,744.746338
1173,-304,4,0,0,0,812.126038
581,1291,1,0,0,0,786.604370
-1555,211,2,1,0,9,72.184891
-1067,-1543,3,0,0,0,664.702881
992,-1938,4,0,0,0,644.208801
322,1223,1,0,0,0,819.030823
-1816,1277,2,0,0,0,657.692078
-1874,-920,3,0,0,0,634.200623
543,-613,4,0,0,0,924.906921
1646,197,1,0,0,0,741.294800
-1409,1445,2,0,0,0,684.927124
-1112,-23,3,0,0,0,814.603943
891,-434,4,0,0,0,869.959106
1770,588,1,0,0,0,707.511902
-434,1518,2,0,0,0,755.291016
-1094,-1211,3,1,0,20,99.889511
801,-1280,4,0,0,0,748.927673
795,129,1,1,0,22,31.976620
-1548,930,2,1,0,9,72.184891
-189,-1136,3,1,0,20,99.889511
684,-1934,4,0,0,0,661.187744
1463,587,1,0,0,0,755.737244
-303,1119,2,0,0,0,844.056213
-1381,-1672,3,0,0,0,623.366516
1856,-1388,4,1,0,22,31.976620
1639,2,1,0,0,0,744.557068
-1721,147,2,0,0,0,729.513733
-207,-1476,3,0,0,0,730.552795
1387,-180,4,0,0,0,770.913879
1050,1063,1,0,0,0,771.116394
-142,500,2,1,0,0,125.227158
-763,-1665,3,0,0,0,671.560974
282,-1973,4,1,0,20,99.889511
1112,435,1,0,0,0,835.557434
-920,696,2,0,0,0,845.471191
-1827,-180,3,0,0,0,670.883728
571,-747,4,1,0,3,155.223557
843,1341,1,0,0,0,754.358582
-1240,630,2,0,0,0,791.692505
-1357,-1772,3,0,0,0,615.174255
513,-373,4,0,0,0,998.534790
994,1151,1,0,0,0,766.038879
-311,177,2,1,0,0,238.839478
-1497,-355,3,0,0,0,721.453125
1880,-350,4,0,0,0,681.253113
1247,1041,1,0,0,0,747.123474
-1922,813,2,0,0,0,675.364563
-478,-1157,3,1,0,20,99.889511
706,-1606,4,0,0,0,705.927856
1438,328,1,0,0,0,774.833008
-545,810,2,0,0,0,893.511658
-124,-1902,3,0,0,0,660.164551
1233,-1233,4,0,0,0,707.664124
485,1611,1,0,0,0,737.056763
-1851,357,2,1,0,9,72.184891
-114,-538,3,0,0,0,1017.439392
991,-1078,4,0,0,0,757.741760
420,1125,1,1,0,22,31.976620
-48,948,2,1,0,22,31.976620
-268,-534,3,0,0,0,993.542480
1691,-1252,4,0,0,0,653.952820
1707,530,1,0,0,0,719.706665
-1776,248,2,1,0,9,72.184891
-1692,-58,3,0,0,0,694.050842
203,-877,4,0,0,0,897.653198
89,1320,1,0,0,0,806.069763
-1836,1032,2,0,0,0,672.735107
-478,-211,3,0,0,0,1032.199463
1027,-1792,4,0,0,0,659.240784
316,356,1,0,0,0,1100.543579
-879,1264,2,0,0,0,762.513733
-1156,-1525,3,1,0,20,99.889511
286,-1739,4,0,0,0,704.619629
950,329,1,0,0,0,885.061951
-349,1623,2,0,0,0,740.887878
-479,-775,3,1,0,20,99.889511
1877,-1803,4,0,0,0,593.405823
1108,326,1,0,0,0,845.133850
-1253,718,2,0,0,0,780.893494
-1342,-1426,3,1,0,20,99.889511
1695,-99,4,1,0,22,31.976620
494,1585,1,0,0,0,740.870728
-39,642,2,1,0,22,31.976620
-1420,-1841,3,0,0,0,603.555298
344,-1007,4,1,0,20,99.889511
997,1280,1,0,0,0,747.465454
-268,1064,2,0,0,0,859.889160
-596,-401,3,0,0,0,940.450928
1663,-645,4,0,0,0,701.173340
36,1861,1,1,0,22,31.976620
-1183,708,2,0,0,0,794.221069
-882,-1800,3,1,0,20,99.889511
947,-16,4,0,0,0,883.014832
1423,1216,1,0,0,0,706.488831
-150,1796,2,0,0,0,717.333130
-1717,-625,3,0,0,0,672.230225
1233,-1712,4,0,0,0,653.173157
1674,383,1,0,0,0,731.180420
-514,80,2,1,0,9,72.184891
-1584,-1395,3,0,0,0,631.070312
1406,-1613,4,1,0,3,93.079315
1181,1533,1,0,0,0,696.955505
-1706,147,2,0,0,0,732.005493
-929,-954,3,0,0,0,762.885376
997,-317,4,0,0,0,854.386169
221,1342,1,0,0,0,798.125122
-994,1356,2,0,0,0,737.248230
-1219,-1257,3,0,0,0,684.411621
1348,-211,4,0,0,0,778.027344
1485,1486,1,1,0,22,31.976620
-568,867,2,0,0,0,876.281555
-1766,-736,3,0,0,0,659.089050
1861,-328,4,0,0,0,684.656067
1102,1465,1,0,0,0,712.455017
-669,271,2,1,0,9,72.184891
-1617,-28,3,0,0,0,707.155945
656,-158,4,0,0,0,980.698242
1476,1762,1,0,0,0,647.776611
-639,1370,2,0,0,0,767.763367
-728,-1787,3,0,0,0,656.656860
211,-911,4,0,0,0,886.691895
742,94,1,1,0,22,31.976620
-1779,412,2,0,0,0,713.569214
-108,-1353,3,1,0,20,99.889511
27,-1598,4,0,0,0,732.633118
835,1490,1,0,0,0,732.727051
-962,1128,2,0,0,0,773.362122
-276,-1329,3,0,0,0,757.385742
1185,-1336,4,0,0,0,700.835083
1784,728,1,0,0,0,698.191772
-575,990,2,0,0,0,847.659546
-1560,-1728,3,1,0,20,99.889511
1792,-850,4,0,0,0,670.821228
1323,246,1,1,0,22,31.976620
-467,1850,2,1,0,22,31.976620
-1131,-911,3,0,0,0,737.993896
792,-180,4,0,0,0,927.279114
621,905,1,0,0,0,859.799927
-98,1058,2,0,0,0,869.139465
-472,-1904,3,1,0,20,99.889511
941,-1139,4,1,0,3,193.075729
1367,1501,1,0,0,0,683.238342
-1798,307,2,1,0,9,72.184891
-1986,-1471,3,0,0,0,586.217346
1261,-1573,4,0,0,0,666.152222
1288,1575,1,0,0,0,682.619385
-566,36,2,0,0,0,1050.032715
-518,-102,3,0,0,0,1029.208618
790,-1243,4,0,0,0,756.079102
329,457,1,0,0,0,1052.092285
-1064,1237,2,0,0,0,745.847534
-1058,-153,3,0,0,0,826.004028
251,-1804,4,0,0,0,695.189819
177,313,1,0,0,0,1181.453369
-637,42,2,0,0,0,1015.917786
-1220,-1100,3,0,0,0,702.686768
1743,-1192,4,0,0,0,652.927185
1405,185,1,1,0,22,31.976620
-948,1391,2,1,0,9,72.184891
-1507,-1326,3,0,0,0,645.388123
1446,-1675,4,0,0,0,639.573425
1115,530,1,1,0,22,31.976620
-1449,907,2,1,0,9,72.184891
-1443,-1492,3,0,0,0,635.843323
1361,-1597,4,0,0,0,654.736877
1147,289,1,0,0,0,838.270203
-331,1153,2,0,0,0,834.231995
-694,-581,3,1,0,16,150.789536
744,-299,4,0,0,0,930.978516
239,400,1,0,0,0,1106.700684
-590,893,2,1,0,9,72.184891
-1079,-601,3,0,0,0,784.492920
823,-1941,4,1,0,3,73.751869
437,1077,1,0,0,0,843.316528
-1583,345,2,0,0,0,747.874512
-964,-1573,3,0,0,0,669.479065
690,-1596,4,0,0,0,708.479431
1340,947,1,0,0,0,744.232544
-682,100,2,0,0,0,993.799927
-1031,-1351,3,0,0,0,692.959839
1178,-559,4,1,0,3,151.778595
76,1545,1,0,0,0,761.159912
-1752,1906,2,0,0,0,613.885925
-140,-1386,3,0,0,0,749.936340
536,-1297,4,1,0,3,115.618858
1515,52,1,0,0,0,766.967163
-840,889,2,0,0,0,828.649780
-1437,-398,3,0,0,0,730.427429
1801,-369,4,1,0,22,31.976620
1278,1577,1,0,0,0,683.289612
-482,1742,2,0,0,0,716.507324
-1643,-328,3,0,0,0,697.037476
1310,-1235,4,1,0,3,123.673714
1292,618,1,0,0,0,783.278687
-837,1353,2,1,0,9,72.184891
-603,-607,3,0,0,0,890.085632
1713,-1345,4,0,0,0,644.104126
1584,815,1,0,0,0,720.672791
-173,1931,2,1,0,22,31.976620
-1811,-1679,3,0,0,0,586.433044
452,-1321,4,1,0,20,99.889511
1163,407,1,0,0,0,826.522156
-918,86,2,1,0,9,72.184891
-1404,-700,3,0,0,0,715.862793
1575,-1207,4,1,0,22,31.976620
280,1935,1,1,0,22,31.976620
-851,1326,2,0,0,0,755.879700
-769,-230,3,0,0,0,908.480835
1199,-1851,4,1,0,22,31.976620
402,1384,1,0,0,0,781.478394
-1221,1683,2,0,0,0,676.409668
-1387,-1539,3,1,0,20,99.889511
845,-882,4,1,0,3,262.398438
692,964,1,0,0,0,837.344849
-1856,1748,2,1,0,9,72.184891
-1011,-811,3,0,0,0,770.646484
1377,-1004,4,0,0,0,714.239380
1670,603,1,0,0,0,721.614014
-1408,1216,2,0,0,0,708.234924
-1312,-652,3,0,0,0,735.475830
1765,-491,4,0,0,0,693.522156
1573,1435,1,0,0,0,669.624146
-1240,981,2,0,0,0,754.872314
-812,-763,3,0,0,0,814.088745
667,-1191,4,0,0,0,777.892883
1498,546,1,0,0,0,752.472778
-381,763,2,0,0,0,932.447449
-1493,-1660,3,1,0,20,99.889511
1535,-25,4,0,0,0,744.172302
1197,1094,1,1,0,22,31.976620
-58,15,2,0,0,0,1698.511841
-545,-1458,3,0,0,0,718.117371
1028,-931,4,0,0,0,773.328796
1171,1828,1,0,0,0,664.084167
-771,1107,2,0,0,0,800.468079
-1185,-310,3,1,0,16,196.691544
620,-634,4,0,0,0,901.978821
170,1341,1,0,0,0,799.893494
-1413,448,2,1,0,9,72.184891
-671,-1189,3,0,0,0,755.717346
660,-1124,4,1,0,3,115.129990
1233,436,1,0,0,0,809.387390
-917,418,2,1,0,9,72.184891
-1331,-850,3,0,0,0,713.963806
1844,-581,4,0,0,0,678.120850
509,243,1,1,0,22,31.976620
-1885,516,2,0,0,0,694.131531
-1272,-702,3,1,0,16,184.300858
579,-568,4,0,0,0,927.672302
963,750,1,0,0,0,829.232849
-730,1970,2,0,0,0,673.449585
-342,-314,3,0,0,0,1066.259766
1195,-1746,4,0,0,0,652.364136
1449,623,1,0,0,0,755.576172
-516,815,2,0,0,0,896.973511
-1762,-40,3,0,0,0,682.547546
329,-1379,4,0,0,0,767.024963
1626,1307,1,0,0,0,675.460754
-1014,1813,2,1,0,9,72.184891
-441,-481,3,0,0,0,968.123657
1125,-704,4,0,0,0,785.989136
303,893,1,0,0,0,903.498352
-46,1933,2,0,0,0,697.194336
-478,-1151,3,0,0,0,781.894958
1007,-1303,4,0,0,0,724.054993
203,1243,1,0,0,0,820.218201
-1399,121,2,0,0,0,788.945801
-55,-1047,3,0,0,0,831.590210
1884,-711,4,1,0,22,31.976620
270,1219,1,0,0,0,822.723389
-652,1471,2,0,0,0,749.853943
-1871,-1072,3,0,0,0,624.977600
441,-335,4,0,0,0,1037.641724
1012,195,1,0,0,0,877.917847
-1785,791,2,0,0,0,694.415588
-1429,-688,3,1,0,16,161.093964
841,-1657,4,0,0,0,689.461487
103,504,1,0,0,0,1078.170288
-1530,1592,2,1,0,9,72.184891
-1853,-901,3,0,0,0,637.939941
443,-1574,4,0,0,0,726.084595
1105,1245,1,1,0,22,31.976620
-309,1524,2,1,0,22,31.976620
-1796,-1534,3,0,0,0,599.078430
1818,-821,4,0,0,0,669.181641
1830,402,1,1,0,22,31.976620
-1406,643,2,1,0,9,72.184891
-140,-921,3,0,0,0,865.594604
385,-1639,4,0,0,0,717.714417
1053,1489,1,0,0,0,713.941650
-367,678,2,0,0,0,961.530457
-1562,-1010,3,0,0,0,667.134460
1032,-703,4,0,0,0,803.493347
1339,1387,1,0,0,0,698.035645
-1051,813,2,0,0,0,804.822937
-1098,-470,3,1,0,16,302.819122
873,-642,4,1,0,3,210.357910
1082,1315,1,0,0,0,733.583435
-1107,1528,2,0,0,0,704.192322
-1461,-230,3,1,0,16,148.732666
1666,-1011,4,0,0,0,675.852966
830,170,1,0,0,0,934.347351
-1334,795,2,0,0,0,760.037842
-1611,-1220,3,0,0,0,643.475525
783,-1923,4,1,0,20,99.889511
1807,321,1,1,0,22,31.976620
-775,252,2,0,0,0,945.542542
-1936,-1567,3,0,0,0,584.016724
695,-489,4,0,0,0,914.245361
811,112,1,0,0,0,944.217712
-1703,587,2,0,0,0,717.480347
-539,-1795,3,0,0,0,664.978882
1678,-1529,4,0,0,0,632.283569
-1146,363,2,0,0,0,833.622070
-671,-70,3,0,0,0,958.535828
660,-645,4,1,0,3,155.028381
-586,450,2,1,0,9,72.184891
-582,-49,3,1,0,16,119.704529
1400,-1157,4,0,0,0,696.001892
-1452,10,2,1,0,9,72.184891
-753,-1340,3,0,0,0,721.721497
599,-803,4,0,0,0,866.861023
-6,1012,2,0,0,0,883.160461
1900,-770,4,0,0,0,661.368164
-426,1669,2,0,0,0,730.304504
155,-1599,4,0,0,0,731.153687
-462,821,2,0,0,0,903.785706
1628,-388,4,0,0,0,719.424011
-905,128,2,0,0,0,912.493591
904,-579,4,0,0,0,846.962280
-206,1237,2,0,0,0,821.461182
475,-1886,4,0,0,0,676.420715
-1263,848,2,0,0,0,765.949829
380,-1795,4,1,0,20,99.889511
-816,869,2,1,0,9,72.184891
1094,-624,4,0,0,0,801.028015
-491,1647,2,0,0,0,730.950989
1566,-1208,4,0,0,0,671.627991
-501,464,2,0,0,0,996.502686
911,-98,4,0,0,0,892.558411
-840,970,2,0,0,0,814.859558
748,-1104,4,0,0,0,784.602966
-797,1737,2,1,0,9,72.184891
689,-1807,4,0,0,0,678.041748
-1132,1227,2,1,0,9,72.184891
178,-1346,4,1,0,20,99.889511
-1074,1688,2,0,0,0,687.423706
641,-301,4,1,0,22,31.976620
-94,1689,2,0,0,0,735.494446
908,-342,4,0,0,0,876.066650
-60,786,2,0,0,0,955.124451
919,-1037,4,0,0,0,773.598999
-735,507,2,0,0,0,919.222412
1418,-1108,4,0,0,0,698.640625
-129,1881,2,1,0,22,31.976620
104,-951,4,0,0,0,880.131226
-665,141,2,0,0,0,997.803833
620,-44,4,1,0,22,31.976620
-981,527,2,0,0,0,855.629822
148,-1450,4,0,0,0,759.070435
-1270,544,2,0,0,0,793.611267
609,-1434,4,0,0,0,739.951416
-350,1926,2,0,0,0,693.664185
809,-135,4,0,0,0,924.459106
-1992,1068,2,0,0,0,652.569458
214,-680,4,0,0,0,964.860046
-1217,386,2,0,0,0,816.299866
463,-703,4,0,0,0,916.976685
-1225,476,2,0,0,0,807.980896
62,-87,4,0,0,0,1512.347656
-1720,1399,2,1,0,9,72.184891
527,-72,4,0,0,0,1049.283081
-101,1797,2,0,0,0,717.717712
908,-1463,4,0,0,0,711.276917
-1806,1498,2,0,0,0,641.895386
575,-1914,4,0,0,0,668.649292
-185,1483,2,0,0,0,771.049316
940,-1726,4,0,0,0,673.427246
-98,855,2,0,0,0,929.837585
1114,-1671,4,0,0,0,667.253418
-919,409,2,0,0,0,884.905151
930,-1818,4,0,0,0,662.489502
-702,1421,2,1,0,22,31.976620
129,-1049,4,0,0,0,851.452698
-698,1612,2,0,0,0,724.681396
1526,-468,4,1,0,22,31.976620
-621,518,2,0,0,0,947.764404
1291,-848,4,0,0,0,742.422058
-1430,1877,2,0,0,0,640.288940
1313,-52,4,0,0,0,788.836792
-465,1249,2,0,0,0,803.958191
1535,-1983,4,0,0,0,603.963806
-1212,393,2,0,0,0,816.891357
1123,-392,4,0,0,0,817.466919
-278,1053,2,1,0,22,31.976620
1740,-583,4,1,0,22,31.976620
873,-771,4,0,0,0,823.509216
1121,-1387,4,0,0,0,701.226624
1465,-1179,4,0,0,0,686.050232
1275,-1131,4,0,0,0,714.207886
1721,-649,4,0,0,0,692.387024
612,-1461,4,0,0,0,735.196716
535,-1175,4,0,0,0,793.902527
231,-1398,4,0,0,0,767.176270
562,-175,4,1,0,22,31.976620


each generation good chromosome number
1,3,4,5,6,7,8,10,12,11,11,13,15,14,15,14,14,12,12,12,12,12,12,12,12,12,12,12,12,12,13,14,15,15,16,17,18,20,20,21,23,24,24,24,23,22,23,25,25,24,25,26,25,24,25,26,27,29,30,29,29,30,31,30,31,30,30,29,28,30,30,30,29,31,29,28,30,33,32,32,32,33,33,33,34,34,35,38,39,36,34,35,38,37,37,38,41,42,42,43,