528.447327,528.447327,528.447327,528.447327,528.447327,528.447327,528.447327,528.447327,528.447327,528.447327,528.447327,528.447327,528.447327,528.447327,528.447327,528.447327,528.447327,528.447327,528.447327,528.447327,528.447327,528.447327,528.447327,528.447327,528.447327,528.447327,528.447327,528.447327,528.447327,528.447327,528.447327,528.447327,523.984680,523.984680,523.984680,523.984680,523.984680,523.984680,523.984680,523.984680,523.984680,523.984680,523.984680,523.984680,523.984680,523.984680,523.984680,523.984680,523.984680,523.984680,523.984680,523.984680,523.984680,523.984680,523.984680,523.984680,523.984680,523.984680,523.984680,523.984680,523.984680,523.984680,523.984680,523.984680,523.984680,523.984680,523.984680,523.984680,523.984680,523.984680,523.984680,523.984680,523.984680,523.984680,523.984680,523.984680,523.984680,523.984680,523.984680,523.984680,523.984680,523.984680,523.984680,523.984680,523.984680,523.984680,523.984680,523.984680,523.984680,523.984680,523.984680,523.984680,523.984680,523.984680,523.984680,523.984680,523.984680,523.984680,523.984680,523.984680,

avg. max avg. throughput in test times
525.412537
avg. BS TX power in all test times
MBS area 1,MBS area 2,MBS area 3,MBS area 4,MBS area 5,MBS area 6,MBS area 7,CBSD 1,CBSD 2,CBSD 3,CBSD 4,CBSD 5,CBSD 6,CBSD 7,CBSD 8,CBSD 9,
5.000,5.000,5.000,5.000,5.000,5.000,5.000,0.000,0.680,0.000,0.000,0.000,1.000,0.000,0.320,0.000,
avg. mbs all power,avg. cbsd enable number,avg. mbs area all power,avg. cbsd all power
50.000,2.000,35.000,2.000
avg. number of relay UE
274

BS TX power
MBS area 1,MBS area 2,MBS area 3,MBS area 4,MBS area 5,MBS area 6,MBS area 7,CBSD 1,CBSD 2,CBSD 3,CBSD 4,CBSD 5,CBSD 6,CBSD 7,CBSD 8,CBSD 9,
5.000,5.000,5.000,5.000,5.000,5.000,5.000,0.000,1.000,0.000,0.000,0.000,1.000,0.000,0.000,0.000,
max average power
0.000000

x,y,area,be blocked (1 : NLOS / 0 : LOS),be blocked number (>=1 : CBSD(x) / 0 : no),connect bs number (>=1 : CBSD / 0 : MBS),throughput (unit : M bps)
1036,1759,1,1,0,2,143.505814
1153,159,2,0,0,0,743.331177
-1646,1316,3,0,0,0,573.922668
-524,1973,4,1,0,2,143.505814
-305,-769,5,1,0,6,45.174065
-1812,-768,6,0,0,0,593.319519
598,-1941,7,0,0,0,584.382019
1661,1820,1,0,0,0,529.803589
836,352,2,0,0,0,814.938049
-416,197,3,1,0,6,45.174065
-278,1459,4,0,0,0,673.510132
-84,-1788,5,0,0,0,620.275024
-590,-17,6,0,0,0,938.629089
892,-162,7,0,0,0,815.093872
1033,1600,1,0,0,0,602.639587
1990,1721,2,0,0,0,511.399963
-439,53,3,0,0,0,1021.865295
-1557,1679,4,0,0,0,550.456482
-602,-989,5,0,0,0,744.839050
-580,-308,6,0,0,0,907.893127
1435,-1998,7,0,0,0,530.269958
1123,1955,1,0,0,0,554.834167
235,83,2,1,0,6,45.174065
-1888,1762,3,0,0,0,516.614197
-691,1401,4,0,0,0,659.090027
-797,-1228,5,0,0,0,677.636414
-1279,-1187,6,0,0,0,627.530090
1799,-294,7,0,0,0,615.093567
191,992,1,0,0,0,783.987549
996,962,2,1,0,6,45.174065
-1401,682,3,0,0,0,659.814941
-1785,1807,4,0,0,0,521.271484
-116,-1684,5,0,0,0,636.984253
-906,-649,6,0,0,0,755.787170
618,-1515,7,0,0,0,645.870422
405,1290,1,0,0,0,700.382446
1109,960,2,0,0,0,677.084656
-1078,475,3,0,0,0,739.877319
-66,1111,4,1,0,2,143.505814
-332,-1490,5,0,0,0,665.674438
-1731,-100,6,0,0,0,629.339722
1618,-1534,7,1,0,6,45.174065
704,1641,1,0,0,0,620.965332
1346,811,2,0,0,6,45.174065
-1755,1456,3,1,0,2,143.505814
-42,1772,4,0,0,0,623.067688
-1628,-1973,5,1,0,6,45.174065
-1862,-1789,6,0,0,0,516.648682
86,-721,7,1,0,6,45.174065
1315,1318,1,0,0,0,609.081055
1374,1252,2,1,0,6,45.174065
-964,405,3,1,0,6,45.174065
-890,1799,4,0,0,0,587.741394
-547,-1450,5,0,0,0,661.365112
-1265,-1174,6,0,0,0,630.665894
1234,-250,7,0,0,0,720.797913
464,961,1,0,0,0,768.240845
1562,688,2,1,0,6,45.174065
-1111,615,3,0,0,0,718.352234
-706,1687,4,0,0,0,614.173279
-318,-1836,5,1,0,6,45.174065
-1824,-224,6,1,0,6,45.174065
144,-245,7,0,0,0,1149.360229
160,666,1,1,0,2,143.505814
1770,1553,2,0,0,0,542.575012
-886,150,3,0,0,0,817.637451
-504,1582,4,0,0,0,641.692505
-567,-831,5,0,0,0,785.188171
-544,-96,6,0,0,0,957.719299
90,-1693,7,0,0,0,635.737427
1464,1795,1,0,0,0,547.211365
1660,854,2,0,0,0,608.321716
-1168,639,3,0,0,0,704.802490
-434,1205,4,1,0,2,143.505814
-127,-381,5,0,0,0,1049.617432
-1400,-619,6,0,0,0,664.889587
1692,-335,7,0,0,0,630.829285
10,694,1,0,0,0,891.957214
1186,855,2,0,0,6,45.174065
-1442,988,3,1,0,2,143.505814
-18,1607,4,0,0,0,650.990173
-146,-374,5,0,0,0,1049.704956
-375,-153,6,0,0,0,1047.185303
219,-1986,7,0,0,0,589.026733
1035,1880,1,0,0,0,568.777161
507,476,2,0,0,0,891.393677
-1216,703,3,0,0,0,689.478577
-998,1589,4,0,0,0,606.860779
-531,-703,5,1,0,6,45.174065
-774,-683,6,0,0,0,777.787415
940,-120,7,0,0,0,802.367065
669,1983,1,0,0,0,575.891357
1239,964,2,1,0,6,45.174065
-1381,159,3,1,0,6,45.174065
-241,1212,4,0,0,0,726.161377
-505,-1784,5,1,0,6,45.174065
-667,-112,6,0,0,0,899.410400
1998,-333,7,0,0,0,585.146851
662,707,1,0,0,0,796.090210
1563,1426,2,0,0,0,572.802856
-785,727,3,1,0,2,143.505814
-305,1928,4,0,0,0,595.645508
-813,-859,5,1,0,6,45.174065
-1882,-1118,6,0,0,0,563.171570
1661,-324,7,0,0,0,636.256409
531,1499,1,0,0,0,653.994690
1220,121,2,0,0,0,728.430420
-724,15,3,0,0,0,879.740784
-584,1592,4,0,0,0,635.679321
-678,-1081,5,1,0,6,45.174065
-1021,-867,6,0,0,0,703.069580
1498,-202,7,0,0,0,668.492188
1259,1326,1,0,0,0,614.218018
1681,1622,2,0,0,0,544.831604
-1899,1346,3,0,0,0,545.835571
-11,1248,4,0,0,0,723.317871
-237,-1081,5,0,0,0,757.801025
-1847,-1528,6,0,0,0,537.547485
814,-97,7,0,0,0,844.051941
42,1142,1,1,0,2,143.505814
1050,12,2,1,0,6,45.174065
-1431,479,3,0,0,0,668.968567
-117,339,4,1,0,6,45.174065
-1049,-1614,5,0,0,0,599.605774
-1559,-883,6,0,0,0,620.001282
703,-1009,7,0,0,0,727.551086
85,355,1,0,0,0,1077.152344
1557,890,2,0,0,0,619.727539
-1480,662,3,0,0,0,648.478516
-435,725,4,0,0,0,835.161499
-1926,-1964,5,1,0,6,45.174065
-461,-213,6,1,0,6,45.174065
943,-991,7,1,0,6,45.174065
164,356,1,0,0,0,1056.630493
1659,1586,2,0,0,0,549.801697
-641,161,3,0,0,0,906.055786
-229,1190,4,0,0,0,731.759399
-720,-1825,5,0,0,0,594.207092
-1562,-381,6,0,0,0,650.866882
1611,-728,7,0,0,0,623.814636
793,1029,1,0,0,2,143.505814
1131,673,2,0,0,6,45.174065
-1994,1076,3,0,0,0,553.434509
-151,256,4,0,0,0,1136.428833
-535,-1427,5,0,0,0,666.151489
-930,-495,6,0,0,0,771.930359
1476,-747,7,0,0,0,642.738831
153,344,1,0,0,0,1068.241211
1906,108,2,1,0,6,45.174065
-1819,820,3,1,0,6,45.174065
-1321,1474,4,0,0,0,591.696777
-840,-1457,5,0,0,0,638.031616
-844,-108,6,0,0,0,833.332275
125,-1906,7,1,0,6,45.174065
25,1576,1,1,0,2,143.505814
465,80,2,1,0,6,45.174065
-1351,143,3,0,0,0,699.016785
-562,1510,4,0,0,0,650.264282
-194,-1910,5,0,0,0,600.361450
-1603,-503,6,0,0,0,638.325806
1873,-573,7,0,0,0,594.671082
757,871,1,0,0,2,143.505814
966,676,2,1,0,6,45.174065
-1699,798,3,0,0,0,606.760681
-1189,1451,4,0,0,0,606.933411
-1172,-1841,5,0,0,0,564.029358
-1401,-238,6,0,0,0,686.140686
113,-134,7,1,0,0,424.937469
1057,1543,1,1,0,2,143.505814
864,351,2,0,0,0,806.969910
-1575,425,3,0,0,0,646.719849
-1008,1188,4,0,0,0,659.845276
-975,-1725,5,0,0,0,591.388184
-1498,-735,6,0,0,0,640.277893
1679,-1069,7,1,0,6,45.174065
190,571,1,0,0,0,933.052246
1647,341,2,0,0,0,638.009338
-1607,1100,3,0,0,0,596.308838
-1043,1981,4,1,0,2,143.505814
-115,-366,5,0,0,0,1062.815308
-1684,-9,6,0,0,0,637.654785
1940,-593,7,0,0,0,584.720459
146,1825,1,1,0,2,143.505814
1572,476,2,0,0,0,644.776550
-498,496,3,0,0,0,888.332214
-798,1599,4,0,0,0,620.737549
-6,-1941,5,0,0,0,597.245056
-708,-227,6,0,0,0,872.151489
995,-1730,7,0,0,0,589.355164
165,1957,1,0,0,0,593.910400
237,195,2,0,0,0,1127.170898
-1602,1590,3,0,0,0,554.519226
-160,348,4,0,0,0,1063.283325
-1365,-1545,5,0,0,0,580.145874
-1209,-604,6,0,0,0,700.509949
584,-1991,7,1,0,6,45.174065
1675,1901,1,0,0,0,521.970459
1513,344,2,1,0,6,45.174065
-257,40,3,0,0,0,1174.911011
-1765,1947,4,0,0,0,511.722382
-1507,-1991,5,0,0,0,526.061829
-747,-259,6,1,0,6,45.174065
1107,-403,7,1,0,6,45.174065
222,453,1,0,0,0,983.878235
1628,1215,2,0,0,0,584.329712
-1704,90,3,0,0,0,633.896729
-1095,1502,4,0,0,0,609.546082
-527,-613,5,0,0,0,848.069519
-992,-383,6,0,0,0,769.261047
793,-1259,7,0,0,0,672.994934
544,1783,1,0,0,0,608.725708
1162,752,2,0,0,6,45.174065
-426,4,3,0,0,0,1032.605103
-825,1259,4,0,0,0,669.691650
-673,-1312,5,1,0,6,45.174065
-1633,-949,6,1,0,6,45.174065
801,-1493,7,1,0,6,45.174065
434,1517,1,0,0,0,656.231079
1617,301,2,1,0,6,45.174065
-1970,621,3,0,0,0,579.603821
-1073,1229,4,1,0,2,143.505814
-1547,-1840,5,1,0,6,45.174065
-1123,-341,6,0,0,0,740.945862
215,-161,7,1,0,6,45.174065
222,1677,1,0,0,0,636.370300
1156,427,2,0,0,6,45.174065
-1146,446,3,0,0,0,727.556580
-268,388,4,0,0,0,1003.326050
-118,-1524,5,0,0,0,665.296326
-418,-182,6,0,0,0,1013.059204
302,-238,7,0,0,0,1062.163330
792,1753,1,0,0,0,599.802368
705,660,2,0,0,0,796.930298
-868,230,3,1,0,6,45.174065
-94,848,4,0,0,0,832.551819
-37,-1711,5,0,0,0,633.058716
-1702,-1458,6,0,0,0,556.527466
1959,-1901,7,0,0,0,501.083344
307,1194,1,0,0,0,726.833191
1091,1007,2,1,0,6,45.174065
-1270,553,3,0,0,0,693.461060
-711,1075,4,0,0,0,714.098450
-30,-1668,5,1,0,6,45.174065
-1363,-754,6,0,0,0,659.911499
1250,-25,7,0,0,0,722.812561
340,1038,1,0,0,0,761.563110
1211,502,2,0,0,6,45.174065
-1810,391,3,1,0,6,45.174065
-852,1414,4,0,0,0,643.328003
-68,-331,5,0,0,0,1099.416626
-1608,-1458,6,0,0,0,565.564392
1023,-355,7,1,0,6,45.174065
1643,1906,1,1,0,6,45.174065
991,783,2,0,0,6,45.174065
-1840,816,3,0,0,0,586.935486
-310,1226,4,0,0,0,719.545288
-161,-390,5,1,0,6,45.174065
-1700,-946,6,0,0,0,596.591125
1543,-35,7,1,0,6,45.174065
383,1023,1,0,0,0,761.542175
672,524,2,0,0,0,832.903748
-1504,1241,3,0,0,0,595.948242
-333,1926,4,0,0,0,595.267761
-158,-755,5,0,0,0,861.565125
-1434,-345,6,0,0,0,675.505432
242,-608,7,1,0,6,45.174065
222,1387,1,0,0,0,689.465027
1812,1214,2,1,0,6,45.174065
-764,492,3,1,0,6,45.174065
-1805,1850,4,0,0,0,516.376160
-38,-326,5,0,0,0,1107.821411
-249,-82,6,0,0,0,1172.635010
1558,-152,7,0,0,0,658.495361
1504,1993,1,0,0,0,526.085510
984,63,2,1,0,6,45.174065
-1750,283,3,0,0,0,623.029663
-317,657,4,1,0,2,143.505814
-42,-467,5,1,0,6,45.174065
-1528,-46,6,0,0,0,665.271973
1007,-1469,7,0,0,0,621.703125
1048,1846,1,1,0,2,143.505814
881,428,2,0,0,0,792.871460
-1969,1080,3,1,0,2,143.505814
-628,771,4,0,0,0,788.523315
-936,-1960,5,1,0,6,45.174065
-1210,-742,6,1,0,6,45.174065
149,-305,7,0,0,0,1098.108032
320,554,1,0,0,0,915.415161
1142,134,2,0,0,0,746.822083
-1365,937,3,1,0,2,143.505814
-378,503,4,0,0,0,920.217224
-1425,-1594,5,1,0,6,45.174065
-1575,-802,6,0,0,0,623.881958
1614,-955,7,0,0,0,607.018311
591,1478,1,0,0,0,653.723938
1937,1408,2,1,0,6,45.174065
-1945,1062,3,0,0,0,559.704224
-311,888,4,1,0,2,143.505814
-718,-1693,5,1,0,6,45.174065
-795,-142,6,1,0,6,45.174065
258,-1938,7,0,0,0,595.191956
1635,1887,1,0,0,0,526.087463
1387,911,2,1,0,6,45.174065
-763,548,3,0,0,0,804.873962
-1498,1712,4,0,0,0,552.307800
-1129,-1885,5,0,0,0,562.113281
-1382,-665,6,1,0,6,45.174065
1531,-1815,7,0,0,0,540.219849
775,923,1,0,0,2,143.505814
1397,1251,2,0,0,0,607.035034
-1316,47,3,0,0,0,707.945374
-577,1921,4,0,0,0,587.929260
-522,-1885,5,0,0,0,595.069275
-1540,-206,6,1,0,6,45.174065
445,-333,7,0,0,0,955.954102
599,1481,1,1,0,2,143.505814
1999,1137,2,0,0,0,549.238098
-1863,1362,3,0,0,0,548.253906
-658,1109,4,0,0,0,713.952026
-98,-1519,5,0,0,0,666.495544
-1472,-412,6,0,0,0,665.294556
1317,-214,7,0,0,0,704.178711
109,1101,1,0,0,0,757.876892
939,361,2,0,0,0,785.189453
-1511,143,3,1,0,6,45.174065
-542,610,4,0,0,0,845.372620
-12,-1518,5,0,0,0,667.268188
-1345,-121,6,1,0,6,45.174065
1616,-946,7,1,0,6,45.174065
188,1581,1,0,0,0,653.659790
1280,650,2,0,0,6,45.174065
-1803,1350,3,1,0,2,143.505814
-26,747,4,1,0,2,143.505814
-435,-1007,5,0,0,0,760.337646
-1777,-1174,6,0,0,0,570.932190
49,-1181,7,0,0,0,738.903870
121,1494,1,0,0,0,670.896790
1412,1236,2,0,0,0,606.839783
-1698,1042,3,0,0,0,589.853027
-1689,1826,4,0,0,0,527.150940
-852,-1314,5,1,0,6,45.174065
-906,-525,6,0,0,0,773.682983
1831,-714,7,0,0,0,593.716187
666,1325,1,0,0,0,673.950256
1021,195,2,0,0,0,775.793152
-1181,612,3,0,0,0,705.064636
-829,1348,4,0,0,0,655.390808
-491,-1037,5,1,0,6,45.174065
-179,-166,6,1,0,6,45.174065
619,-1866,7,0,0,0,593.614990
393,1706,1,1,0,2,143.505814
882,179,2,0,0,0,817.198486
-1438,730,3,0,0,0,650.000854
-930,1895,4,0,0,0,573.453430
-1121,-1460,5,0,0,0,612.321533
-822,-555,6,0,0,0,789.268311
1088,-322,7,0,0,0,750.636780
498,631,1,0,0,0,849.692810
983,833,2,0,0,6,45.174065
-384,141,3,1,0,6,45.174065
-859,981,4,1,0,2,143.505814
-555,-1177,5,0,0,0,711.347595
-1280,-1170,6,1,0,6,45.174065
1847,-10,7,0,0,0,611.348328
1351,1592,1,0,0,0,576.545410
984,291,2,0,0,0,779.499512
-824,549,3,0,0,0,789.755920
-595,1459,4,0,0,0,656.629517
-401,-1474,5,0,0,0,665.481262
-1787,-788,6,1,0,6,45.174065
449,-1835,7,0,0,0,604.940308
39,1496,1,0,0,0,671.351624
1570,29,2,0,0,0,657.608337
-1969,1705,3,0,0,0,514.221375
-212,1465,4,0,0,0,674.471985
-146,-1310,5,0,0,0,707.668884
-1925,-604,6,1,0,6,45.174065
1316,-828,7,0,0,0,660.432983
1109,1562,1,1,0,2,143.505814
1855,1146,2,0,0,0,564.282715
-1999,1831,3,0,0,0,503.027771
-102,1498,4,1,0,2,143.505814
-425,-640,5,1,0,6,45.174065
-975,-857,6,1,0,6,45.174065
615,-697,7,1,0,6,45.174065
879,1688,1,1,0,2,143.505814
475,265,2,0,0,0,962.179993
-1471,444,3,0,0,0,663.807922
-1696,1910,4,1,0,2,143.505814
-104,-511,5,0,0,0,974.324341
-1957,-1707,6,1,0,6,45.174065
551,-911,7,1,0,6,45.174065
828,923,1,0,0,2,143.505814
484,123,2,0,0,0,986.800293
-1704,972,3,0,0,0,594.230042
-590,1913,4,0,0,0,588.476624
-125,-822,5,1,0,6,45.174065
-660,-613,6,1,0,6,45.174065
1227,-1889,7,0,0,0,555.093140
294,934,1,0,0,0,792.954468
1577,165,2,0,0,0,654.832886
-1113,310,3,0,0,0,745.445618
-1291,1828,4,0,0,0,556.930359
-679,-1472,5,0,0,0,648.522888
-935,-215,6,0,0,0,798.818542
1330,-1605,7,0,0,0,577.025085
1537,1632,1,0,0,0,556.436646
1834,1379,2,1,0,6,45.174065
-981,918,3,1,0,2,143.505814
-1029,1233,4,0,0,0,651.191467
-395,-1663,5,0,0,0,633.414124
-521,-335,6,0,0,0,924.735657
1846,-1402,7,0,0,0,547.001282
901,1090,1,0,0,0,687.531738
1725,890,2,0,0,0,597.237366
-1085,464,3,0,0,0,739.381042
-528,1224,4,0,0,0,704.446350
-207,-1872,5,1,0,6,45.174065
-1975,-1660,6,0,0,0,516.887207
1296,-1978,7,0,0,0,541.376038
1181,1331,1,0,0,0,621.958679
509,449,2,0,0,0,898.391235
-1423,54,3,1,0,6,45.174065
-1082,1622,4,0,0,0,595.966492
-842,-1011,5,0,0,0,708.191650
-1864,-1134,6,0,0,0,564.100891
1179,-1425,7,0,0,0,610.967163
758,1576,1,0,0,0,626.898682
1229,1141,2,0,0,0,638.846680
-1242,876,3,1,0,2,143.505814
-335,1800,4,0,0,0,613.841248
-892,-997,5,0,0,0,703.425720
-1935,-146,6,1,0,6,45.174065
307,-1946,7,0,0,0,593.026855
32,1717,1,0,0,0,632.078613
948,939,2,0,0,0,704.167419
-1849,1575,3,0,0,0,533.843567
-1271,1938,4,1,0,2,143.505814
-483,-962,5,0,0,0,765.751892
-1031,-7,6,0,0,0,778.132080
1595,-1157,7,0,0,0,592.971802
1121,1719,1,0,0,0,581.440247
1370,1151,2,1,0,6,45.174065
-874,275,3,0,0,0,812.049255
-902,1069,4,0,0,0,690.680115
-509,-1897,5,1,0,6,45.174065
-1002,-276,6,1,0,6,45.174065
1788,-1823,7,0,0,0,519.782654
1391,1769,1,0,0,0,555.360535
1717,646,2,0,0,0,613.283081
-1884,771,3,1,0,6,45.174065
-315,1371,4,0,0,0,689.044312
-969,-1780,5,1,0,6,45.174065
-1055,-668,6,0,0,0,723.168274
1070,-1848,7,0,0,0,570.185669
1155,1835,1,0,0,0,565.870483
1791,621,2,0,0,0,603.968567
-1029,95,3,0,0,0,777.477600
-483,802,4,0,0,0,805.851074
-44,-573,5,0,0,0,946.325317
-943,-89,6,1,0,6,45.174065
1496,-1591,7,0,0,0,563.838623
1366,1830,1,0,0,0,551.223938
1435,1095,2,0,0,0,617.886047
-524,460,3,0,0,0,890.636230
-1377,1757,4,0,0,0,557.639465
-1036,-1577,5,0,0,0,605.283264
-1417,-974,6,0,0,0,631.718933
1390,-1673,7,0,0,0,564.977661
1310,1637,1,0,0,0,575.374451
1587,255,2,0,0,0,650.944824
-1537,1107,3,0,0,0,604.186218
-465,1370,4,0,0,0,681.015991
-189,-933,5,0,0,0,801.059326
-1060,-686,6,0,0,0,719.992126
969,-926,7,1,0,6,45.174065
420,1170,1,0,0,0,724.456299
153,102,2,0,0,0,1274.939209
-1401,46,3,1,0,6,45.174065
-522,717,4,0,0,0,821.411682
-60,-608,5,0,0,0,928.694824
-730,-425,6,0,0,0,835.428345
209,-1867,7,0,0,0,606.520264
547,646,1,0,0,0,834.824951
1346,1074,2,0,0,0,631.303772
-1980,102,3,0,0,0,591.223694
-1489,1534,4,1,0,2,143.505814
-316,-1258,5,0,0,0,712.275574
-1656,-390,6,1,0,6,45.174065
490,-759,7,0,0,0,816.099304
11,1577,1,0,0,0,656.380005
344,35,2,1,0,6,45.174065
-862,456,3,1,0,6,45.174065
-310,975,4,0,0,0,780.349548
-292,-1316,5,0,0,0,701.246765
-1372,-856,6,1,0,6,45.174065
13,-1942,7,0,0,0,597.093933
793,1918,1,0,0,0,578.248047
676,557,2,0,0,0,824.993042
-918,220,3,1,0,6,45.174065
-748,1406,4,0,0,0,653.579041
-998,-1942,5,0,0,0,563.895752
-1824,-1049,6,1,0,6,45.174065
1209,-1561,7,0,0,0,592.398193
871,893,1,0,0,2,143.505814
1497,303,2,1,0,6,45.174065
-1651,1357,3,0,0,0,569.960938
-14,558,4,0,0,0,954.725281
-136,-224,5,1,0,6,45.174065
-931,-132,6,0,0,0,804.595459
1225,-670,7,1,0,6,45.174065
1221,1840,1,0,0,0,560.698669
1117,267,2,0,0,0,747.163513
-1198,934,3,0,0,0,667.076721
-1065,1269,4,0,0,0,642.322510
-246,-1325,5,0,0,0,701.323975
-1158,-401,6,0,0,0,728.552246
898,-160,7,0,0,0,813.338928
1006,1311,1,0,0,0,643.042908
406,335,2,1,0,6,45.174065
-424,51,3,1,0,6,45.174065
-218,871,4,0,0,0,817.874573
-33,-1913,5,1,0,6,45.174065
-1202,-781,6,0,0,0,683.660950
1908,-812,7,0,0,0,578.503601
211,1479,1,0,0,0,671.835876
1652,668,2,0,0,0,621.554382
-1589,400,3,0,0,0,645.456787
-893,1977,4,0,0,0,565.728394
-451,-1854,5,0,0,0,602.107056
-1026,-326,6,0,0,0,765.724915
1374,-498,7,0,0,0,678.125122
527,1292,1,1,0,2,143.505814
1902,1724,2,0,0,0,518.294800
-962,158,3,1,0,6,45.174065
-1669,1794,4,0,0,0,531.371765
-109,-1718,5,0,0,0,631.389893
-1085,-239,6,0,0,0,756.678589
684,-1918,7,1,0,6,45.174065
251,1186,1,1,0,2,143.505814
835,329,2,0,0,0,817.999084
-950,724,3,1,0,2,143.505814
-780,1336,4,0,0,0,661.866089
-538,-1755,5,0,0,0,613.111450
-1841,-1380,6,0,0,0,549.107300
531,-564,7,0,0,0,860.344666
70,464,1,0,0,0,1004.740723
174,81,2,0,0,0,1262.583252
-951,929,3,0,0,0,705.215271
-824,1912,4,0,0,0,577.358215
-384,-700,5,1,0,6,45.174065
-868,-355,6,0,0,0,805.367310
681,-1853,7,0,0,0,592.435608
1606,1821,1,0,0,0,533.942383
605,311,2,0,0,0,897.747803
-1129,396,3,0,0,0,735.426453
-884,1107,4,0,0,0,687.031738
-829,-1528,5,1,0,6,45.174065
-983,-374,6,0,0,0,772.417725
251,-1388,7,1,0,6,45.174065
130,1775,1,0,0,0,621.904663
1016,726,2,0,0,6,45.174065
-1971,653,3,0,0,0,578.127075
-705,1383,4,0,0,0,660.890015
-170,-1341,5,1,0,6,45.174065
-349,-250,6,0,0,0,1030.390991
1086,-1561,7,0,0,0,603.070068
125,1850,1,0,0,0,610.243347
1614,111,2,0,0,0,649.094543
-1664,935,3,1,0,2,143.505814
-366,1648,4,0,0,0,636.956665
-512,-1831,5,0,0,0,603.125488
-861,-94,6,0,0,0,828.228088
1239,-763,7,0,0,0,679.374817
773,1131,1,0,0,0,696.629639
1756,1618,2,0,0,0,538.648193
-1576,227,3,0,0,0,653.637207
-348,733,4,0,0,0,846.995911
-115,-1023,5,0,0,0,778.572815
-947,-94,6,0,0,0,801.148926
982,-518,7,0,0,0,756.876221
127,1591,1,0,0,0,652.957520
1710,1424,2,0,0,0,558.529358
-1591,1097,3,1,0,2,143.505814
-1286,1761,4,0,0,0,564.265320
-570,-1180,5,0,0,0,709.336609
-1456,-729,6,0,0,0,647.250122
1937,-1541,7,0,0,0,528.528259
818,1017,1,0,0,2,143.505814
1435,1019,2,0,0,0,625.082886
-1875,278,3,1,0,6,45.174065
-192,762,4,0,0,0,856.219543
-1027,-1986,5,0,0,0,557.193848
-1588,-587,6,1,0,6,45.174065
1175,-1645,7,1,0,6,45.174065
1787,1936,1,0,0,0,511.005188
682,52,2,1,0,6,45.174065
-967,777,3,0,0,0,725.058594
-696,1344,4,1,0,2,143.505814
-573,-1281,5,0,0,0,689.738159
-827,-393,6,0,0,0,812.241699
548,-1971,7,1,0,6,45.174065
1058,1181,1,0,0,0,654.834412
413,169,2,0,0,0,1019.235535
-1522,474,3,1,0,6,45.174065
-356,1366,4,0,0,0,688.048157
-286,-361,5,0,0,0,1010.128723
-1487,-83,6,1,0,6,45.174065
1760,-1511,7,0,0,0,546.807068
237,1500,1,0,0,0,667.162781
1480,1053,2,0,0,0,616.108582
-1925,862,3,1,0,6,45.174065
-526,1760,4,0,0,0,612.908875
-470,-1055,5,0,0,0,745.546936
-1539,-270,6,0,0,0,659.023315
1681,-735,7,1,0,6,45.174065
340,1581,1,0,0,0,649.212097
1824,689,2,0,0,0,595.962952
-1922,924,3,1,0,2,143.505814
-282,1499,4,0,0,0,665.907349
-942,-1808,5,0,0,0,583.315979
-449,-36,6,0,0,0,1016.534119
1565,-462,7,1,0,6,45.174065
1389,1908,1,0,0,0,541.939331
1213,153,2,1,0,6,45.174065
-1638,1231,3,1,0,2,143.505814
-1854,1914,4,0,0,0,507.829041
-44,-1580,5,0,0,0,655.733826
-1711,-1529,6,0,0,0,549.864136
803,-48,7,0,0,0,849.482056
862,1406,1,1,0,2,143.505814
1852,410,2,0,0,0,603.783386
-753,218,3,1,0,6,45.174065
-1391,1759,4,0,0,0,556.347839
-1567,-1577,5,0,0,0,558.799866
-744,-163,6,1,0,6,45.174065
1908,-513,7,0,0,0,592.207764
884,1574,1,0,0,0,617.856018
1946,382,2,1,0,6,45.174065
-653,278,3,1,0,6,45.174065
-477,489,4,0,0,0,896.537964
-837,-1456,5,1,0,6,45.174065
-764,-332,6,0,0,0,839.435608
548,-205,7,0,0,0,941.156982
1040,1538,1,0,0,0,609.875000
1195,684,2,0,0,6,45.174065
-1059,1049,3,0,0,0,672.482544
-547,1838,4,0,0,0,600.681030
-397,-858,5,0,0,0,803.045227
-1992,-868,6,0,0,0,565.262817
1917,-1623,7,0,0,0,524.406860
1264,1626,1,0,0,0,580.435364
1542,379,2,0,0,0,654.421692
-747,336,3,0,0,0,844.287476
-495,511,4,0,0,0,884.841187
-641,-1192,5,0,0,0,700.099243
-1869,-975,6,0,0,0,573.839355
1412,-872,7,0,0,0,641.827759
42,1275,1,0,0,0,717.039673
1014,141,2,1,0,6,45.174065
-862,285,3,0,0,0,814.681763
-53,1896,4,0,0,0,603.798401
-1509,-1707,5,1,0,6,45.174065
-1585,-470,6,0,0,0,642.919189
22,-692,7,0,0,0,892.672729
330,1525,1,0,0,0,659.427429
1808,1490,2,0,0,0,543.999084
-1009,892,3,0,0,0,701.512817
-508,1636,4,0,0,0,632.783386
-326,-1930,5,0,0,0,594.866577
-434,-174,6,1,0,6,45.174065
1444,-910,7,1,0,6,45.174065
1227,1473,1,1,0,6,45.174065
1554,754,2,0,0,0,630.430420
-451,408,3,0,0,0,930.012390
-338,1010,4,0,0,0,768.805786
-1426,-1739,5,0,0,0,555.546082
-1897,-1598,6,1,0,6,45.174065
7,-1469,7,0,0,0,676.651489
334,495,1,0,0,0,935.281128
1362,767,2,0,0,6,45.174065
-1133,283,3,0,0,0,742.372192
-1158,1621,4,0,0,0,589.865967
-412,-619,5,0,0,0,872.122437
-1243,-49,6,0,0,0,724.256897
1111,-1251,7,1,0,6,45.174065
232,1522,1,0,0,0,663.244385
408,324,2,0,0,0,974.588135
-320,165,3,0,0,0,1081.129150
-890,1050,4,1,0,2,143.505814
-396,-1571,5,0,0,0,648.684082
-1699,-864,6,0,0,0,602.404541
835,-855,7,0,0,0,735.748108
572,705,1,0,0,0,814.692078
569,394,2,0,0,0,892.778198
-841,141,3,0,0,0,832.705444
-1266,1327,4,0,0,0,613.355774
-259,-969,5,0,0,0,786.043396
-988,-965,6,1,0,6,45.174065
908,-323,7,0,0,0,797.522034
1514,1656,1,0,0,0,556.191528
744,465,2,0,0,0,824.518433
-1529,527,3,0,0,0,649.189819
-157,802,4,0,0,0,844.943542
-1353,-157,6,0,0,0,698.273743
503,-58,7,0,0,0,982.817505
397,1213,1,0,0,0,716.899719
59,42,2,0,0,0,1543.777954
-923,531,3,1,0,6,45.174065
-427,1784,4,0,0,0,613.300842
-893,-863,6,0,0,0,724.742310
392,-1658,7,1,0,6,45.174065
148,1211,1,0,0,0,729.831299
1081,589,2,1,0,6,45.174065
-936,709,3,0,0,0,740.803467
-480,570,4,0,0,0,871.500183
-839,-59,6,0,0,0,836.667969
1426,-76,7,0,0,0,684.744751
28,1849,1,0,0,0,611.012146
1753,981,2,1,0,6,45.174065
-1893,1529,3,0,0,0,533.322998
-1348,1514,4,0,0,0,584.925659
-1423,-205,6,1,0,6,45.174065
966,-1785,7,0,0,0,584.578247
447,1818,1,0,0,0,607.507690
619,259,2,0,0,0,901.691956
-206,198,3,0,0,0,1147.798950
-270,781,4,0,0,0,841.746521
-542,-152,6,0,0,0,952.291199
511,-374,7,1,0,6,45.174065
280,1084,1,0,0,0,754.473999
728,603,2,0,0,0,803.074280
-789,200,3,0,0,0,846.096680
-713,1456,4,1,0,2,143.505814
-808,-582,6,0,0,0,788.122314
691,-1274,7,0,0,0,680.509094
1078,1912,1,1,0,2,143.505814
1132,938,2,0,0,0,676.435791
-706,407,3,0,0,0,845.757263
-453,1854,4,0,0,0,602.036438
-1871,-521,6,0,0,0,597.073242
1218,-1415,7,1,0,6,45.174065
523,1999,1,0,0,0,579.504761
1412,307,2,0,0,0,681.366882
-1545,935,3,1,0,2,143.505814
-446,1016,4,0,0,0,757.048218
-1693,-1367,6,0,0,0,564.860901
527,-1927,7,0,0,0,589.065613
306,1555,1,0,0,0,654.974548
898,868,2,0,0,2,143.505814
-1522,330,3,0,0,0,659.964417
-1533,1967,4,0,0,0,526.421692
-1112,-632,6,0,0,0,716.286377
1088,-1596,7,0,0,0,598.629639
827,981,1,0,0,2,143.505814
1389,380,2,0,0,0,682.347839
-1671,104,3,0,0,0,639.316956
-94,672,4,1,0,2,143.505814
-1954,-998,6,1,0,6,45.174065
1188,-1503,7,0,0,0,600.955505
177,1956,1,0,0,0,593.903442
243,242,2,0,0,0,1095.151245
-1630,210,3,1,0,6,45.174065
-69,1107,4,0,0,0,757.160400
-789,-634,6,1,0,6,45.174065
684,-1560,7,1,0,6,45.174065
122,893,1,0,0,0,816.778687
1217,528,2,0,0,6,45.174065
-1819,1145,3,0,0,0,568.342712
-624,1032,4,0,0,0,733.146423
-1576,-25,6,0,0,0,656.532227
334,-396,7,0,0,0,976.226013
660,1052,1,0,0,2,143.505814
1217,309,2,0,0,0,721.585327
-582,294,3,1,0,6,45.174065
-1303,1597,4,0,0,0,580.213623
-1187,-599,6,1,0,6,45.174065
782,-907,7,0,0,0,735.154663
1298,1472,1,1,0,6,45.174065
1601,1491,2,1,0,6,45.174065
-1840,1256,3,0,0,0,558.208740
-68,437,4,0,0,0,1021.818970
-862,-554,6,0,0,0,779.906250
1326,-100,7,0,0,0,705.147888
1246,1301,1,1,0,6,45.174065
1140,650,2,0,0,6,45.174065
-1612,573,3,0,0,0,633.157043
-133,769,4,1,0,2,143.505814
-1790,-774,6,1,0,6,45.174065
1859,-949,7,1,0,6,45.174065
808,1996,1,0,0,0,567.820374
1479,503,2,1,0,6,45.174065
-1735,147,3,0,0,0,628.138245
-760,771,4,0,0,0,764.112671
-1537,-297,6,1,0,6,45.174065
7,-1811,7,0,0,0,616.949280
336,582,1,0,0,0,901.251831
1923,1879,2,0,0,0,505.330933
-1752,1696,3,0,0,0,532.739258
-1404,1486,4,1,0,2,143.505814
-930,-421,6,0,0,0,780.979797
1187,-981,7,0,0,0,663.182922
33,254,1,0,0,0,1179.336182
1188,46,2,0,0,0,737.240662
-1491,1390,3,1,0,2,143.505814
-569,1842,4,0,0,0,599.172424
-1306,-1137,6,0,0,0,629.717285
396,-659,7,0,0,0,862.509583
338,1187,1,0,0,0,726.519409
548,35,2,0,0,0,959.440247
-742,705,3,0,0,0,780.230957
-739,776,4,0,0,0,767.050659
-1626,-696,6,1,0,6,45.174065
848,-1830,7,0,0,0,586.357605
16,71,1,0,0,0,1542.354614
1388,436,2,0,0,0,679.418518
-1423,915,3,1,0,2,143.505814
-399,1259,4,0,0,0,707.104126
-1374,-947,6,0,0,0,640.254639
1349,-433,7,1,0,6,45.174065
131,1482,1,0,0,0,673.023804
1248,1087,2,0,0,0,642.609314
-1326,1281,3,0,0,0,611.860657
-767,784,4,0,0,0,760.377014
-629,-461,6,0,0,0,858.414124
1334,-30,7,0,0,0,704.164917
572,1754,1,1,0,2,143.505814
1118,19,2,0,0,0,754.837524
-756,40,3,0,0,0,866.950195
-833,1807,4,1,0,2,143.505814
-1193,-548,6,0,0,0,708.816040
752,-519,7,1,0,6,45.174065
1086,1438,1,0,0,0,618.367432
1280,341,2,0,0,0,706.252869
-1467,1051,3,1,0,2,143.505814
-1089,1512,4,0,0,0,608.846863
-1524,-1140,6,0,0,0,602.832275
567,-1309,7,1,0,6,45.174065
1098,1631,1,0,0,0,593.591003
1518,964,2,0,0,0,618.965576
-1832,1747,3,1,0,2,143.505814
1498,-1830,7,1,0,6,45.174065
1016,1371,1,0,0,0,633.887939
1666,1357,2,0,0,0,568.427979
-1503,1154,3,0,0,0,604.071167
494,-127,7,1,0,6,45.174065
228,749,1,0,0,0,857.277405
1894,1533,2,0,0,0,532.942383
-1087,650,3,0,0,0,719.107605
893,-1873,7,0,0,0,578.313721
422,719,1,1,0,2,143.505814
1608,481,2,0,0,0,638.608521
-1374,259,3,0,0,0,690.783203
354,-760,7,0,0,0,837.582886
1110,1776,1,0,0,0,575.683899
1961,1365,2,1,0,6,45.174065
-1287,1259,3,0,0,0,618.621399
81,-1040,7,1,0,6,45.174065
293,1834,1,0,0,0,609.777588
643,38,2,1,0,6,45.174065
-506,404,3,0,0,0,911.961060
793,-772,7,0,0,0,757.788879
1300,1833,1,1,0,6,45.174065
-1595,546,3,0,0,0,637.343262
848,-1171,7,0,0,0,681.205872
481,1731,1,0,0,0,619.225342
-739,565,3,0,0,0,807.690796
1325,-1960,7,0,0,0,541.246826
-415,26,3,0,0,0,1039.595825
558,-1079,7,0,0,0,731.071350
-1340,403,3,0,0,0,690.559998
1433,-1865,7,0,0,0,542.905762
-1407,137,3,0,0,0,687.637817
1229,-47,7,1,0,6,45.174065
-381,196,3,0,0,0,1030.958496
480,-902,7,0,0,0,780.723206
-1066,228,3,1,0,6,45.174065
304,-1185,7,0,0,0,729.042053
-1594,761,3,0,0,0,624.058472
665,-304,7,1,0,6,45.174065
-1992,1444,3,1,0,2,143.505814
1793,-557,7,1,0,6,45.174065
-1149,520,3,0,0,0,720.315613
924,-811,7,0,0,0,727.626343
-1684,710,3,1,0,6,45.174065
1275,-761,7,0,0,0,673.589233
-1400,714,3,0,0,0,657.373840
1583,-512,7,0,0,0,641.109680
-619,162,3,0,0,0,915.383850
847,-1628,7,1,0,6,45.174065
-1171,1016,3,0,0,0,661.258789
1071,-635,7,0,0,0,723.996338
-1765,1375,3,0,0,0,556.998352
694,-8,7,0,0,0,891.968079
-1991,1449,3,0,0,0,529.980957
1042,-1809,7,0,0,0,576.591675
-1981,1713,3,1,0,2,143.505814
1551,-788,7,0,0,0,628.386963
-1079,355,3,1,0,6,45.174065
866,-1331,7,1,0,6,45.174065
-902,793,3,0,0,0,734.329224
34,-1922,7,0,0,0,599.995728
-1552,83,3,1,0,6,45.174065
205,-486,7,1,0,6,45.174065
-1483,604,3,0,0,0,652.025208
1343,-357,7,0,0,0,692.540100
-1772,598,3,0,0,0,607.805847
1209,-1213,7,0,0,0,632.856689
-1240,839,3,1,0,2,143.505814
1101,-1230,7,0,0,0,643.338501
-1052,556,3,0,0,0,736.999329
188,-1064,7,0,0,0,764.677307
-1437,441,3,0,0,0,670.086731
1065,-1133,7,0,0,0,660.404907
-1958,592,3,1,0,6,45.174065
1273,-370,7,1,0,6,45.174065
-1635,1343,3,0,0,0,572.789429
1948,-331,7,0,0,0,592.184814
-1327,273,3,0,0,0,699.809326
1120,-1540,7,0,0,0,602.682251
1895,-1613,7,0,0,0,527.019165
1327,-500,7,0,0,0,686.744995
819,-1756,7,0,0,0,597.744141
1920,-236,7,0,0,0,598.206360
749,-845,7,0,0,0,752.025879
1001,-1414,7,0,0,0,629.575134
192,-64,7,1,0,6,45.174065
425,-569,7,1,0,6,45.174065
1637,-1281,7,0,0,0,577.816040
483,-875,7,1,0,6,45.174065
23,-1364,7,0,0,0,697.829468
1234,-244,7,0,0,0,721.066223
1696,-1989,7,0,0,0,513.221619
538,-1509,7,0,0,0,651.890625
1471,-875,7,0,0,0,633.030945
253,-1327,7,1,0,6,45.174065
1564,-1102,7,0,0,0,601.337280
583,-1318,7,0,0,0,682.120972
907,-268,7,0,0,0,802.932617
1772,-779,7,1,0,6,45.174065
1515,-700,7,1,0,6,45.174065
1752,-1633,7,0,0,0,537.792847
663,-1487,7,1,0,6,45.174065
1556,-405,7,0,0,0,650.858337
1704,-490,7,1,0,6,45.174065
463,-1665,7,0,0,0,630.279541
219,-551,7,1,0,6,45.174065
602,-1681,7,0,0,0,620.980347
1605,-697,7,0,0,0,626.736023
589,-638,7,0,0,0,827.500061
1559,-162,7,0,0,0,658.131226
1404,-1075,7,0,0,0,623.744629
88,-1382,7,0,0,0,693.538757
1122,-1237,7,1,0,6,45.174065
896,-1453,7,0,0,0,633.783813
1584,-1789,7,0,0,0,538.447815
430,-1997,7,0,0,0,582.748291
483,-170,7,0,0,0,979.584839
1130,-679,7,0,0,0,707.625610
1307,-1295,7,0,0,0,612.445923
1702,-149,7,1,0,6,45.174065
1682,-410,7,0,0,0,629.773315
294,-1766,7,0,0,0,620.222046
1807,-1194,7,0,0,0,566.182495
1017,-1633,7,0,0,0,599.775391
1176,-1039,7,0,0,0,657.796448
541,-1171,7,1,0,6,45.174065
1335,-752,7,0,0,0,664.611572
311,-1955,7,1,0,6,45.174065
1174,-1709,7,0,0,0,578.531677
1582,-1529,7,0,0,0,561.741821
1686,-1884,7,1,0,6,45.174065
536,-1280,7,0,0,0,692.941040
1809,-1593,7,1,0,6,45.174065
775,-560,7,0,0,0,799.793762
75,-1244,7,0,0,0,723.728943
341,-320,7,0,0,0,1005.735840
849,-1993,7,0,0,0,566.123352
890,-575,7,0,0,0,770.284058
707,-1328,7,0,0,0,669.835266
1265,-53,7,0,0,0,719.199951
1470,-501,7,0,0,0,660.760315
678,-414,7,1,0,6,45.174065
98,-1841,7,1,0,6,45.174065
816,-1025,7,1,0,6,45.174065
286,-1085,7,0,0,0,753.838257
663,-1296,7,1,0,6,45.174065
1941,-743,7,0,0,0,577.855347
422,-1395,7,0,0,0,678.914978
1600,-234,7,0,0,0,649.234192
222,-1547,7,0,0,0,658.960876
1540,-258,7,0,0,0,659.213928
244,-787,7,0,0,0,842.582458
1727,-1531,7,0,0,0,548.235535
15,-1479,7,1,0,6,45.174065
1988,-338,7,0,0,0,586.413879
1639,-747,7,0,0,0,618.495178
1776,-218,7,1,0,6,45.174065
689,-994,7,1,0,6,45.174065
1671,-453,7,0,0,0,629.762573
