each times' max average throughput
793.280334,793.216675,793.406250,793.439941,793.612122,793.590759,793.325378,793.646912,793.278564,793.278564,
avg. throughput in all test times
793.407532
avg. BS TX power in all test times
MBS area 1,MBS area 2,MBS area 3,MBS area 4,CBSD 1,CBSD 2,CBSD 3,CBSD 4,CBSD 5,CBSD 6,CBSD 7,CBSD 8,CBSD 9,CBSD 10,CBSD 11,CBSD 12,CBSD 13,CBSD 14,CBSD 15,CBSD 16,CBSD 17,CBSD 18,CBSD 19,CBSD 20,CBSD 21,CBSD 22,CBSD 23,CBSD 24,
10.000,10.000,10.000,10.000,0.200,0.000,0.000,0.000,0.000,0.000,0.000,0.000,0.000,0.000,0.000,0.100,0.000,0.000,0.000,0.087,0.000,0.000,0.100,0.000,0.100,0.100,0.375,0.538,
avg. mbs all power,avg. cbsd enable number,avg. mbs area all power,avg. cbsd all power
55.000,2.000,40.000,1.600
avg. max avg. throughput generation number in all test times
55.400002
avg. number of relay UE
13



the max average throughput times

BS TX power
MBS area 1,MBS area 2,MBS area 3,MBS area 4,CBSD 1,CBSD 2,CBSD 3,CBSD 4,CBSD 5,CBSD 6,CBSD 7,CBSD 8,CBSD 9,CBSD 10,CBSD 11,CBSD 12,CBSD 13,CBSD 14,CBSD 15,CBSD 16,CBSD 17,CBSD 18,CBSD 19,CBSD 20,CBSD 21,CBSD 22,CBSD 23,CBSD 24,
10.000,10.000,10.000,10.000,1.000,0.000,0.000,0.000,0.000,0.000,0.000,0.000,0.000,0.000,0.000,0.000,0.000,0.000,0.000,0.000,0.000,0.000,0.000,0.000,0.000,0.000,0.000,0.500,
max average throughput
793.278564

x,y,area,be blocked (1 : NLOS / 0 : LOS),be blocked number (>=1 : CBSD(x) / 0 : no),connect bs number (>=1 : CBSD / 0 : MBS),throughput (unit : M bps)
1049,827,1,0,0,0,803.304016
-1148,862,2,0,0,0,782.596924
-484,-637,3,0,0,0,950.868530
688,-471,4,0,0,0,938.958862
1355,1082,1,0,0,0,728.398682
-75,318,2,0,0,0,1209.094116
-1628,-1719,3,0,0,0,639.336792
1274,-1511,4,0,0,0,690.919434
1155,457,1,0,0,0,824.205688
-1211,1586,2,0,0,0,688.172791
-642,-1958,3,0,0,0,678.992065
329,-1312,4,0,0,0,799.704651
678,1983,1,0,0,0,674.158142
-1393,267,2,0,0,0,786.068115
-1711,-1203,3,0,0,0,674.720276
348,-885,4,0,0,0,901.078308
115,774,1,0,0,0,957.248779
-1177,1634,2,0,0,0,685.561279
-1226,-645,3,0,0,0,792.840881
377,-664,4,0,0,0,964.307983
1605,780,1,0,0,0,720.170593
-1390,1153,2,0,0,0,716.743713
-1721,-1144,3,0,0,0,678.164551
138,-1936,4,0,0,0,696.105957
613,1280,1,0,0,0,785.894714
-1911,1494,2,0,0,0,632.423462
-1941,-1652,3,0,0,0,618.321228
462,-1066,4,0,0,0,843.433533
1891,61,1,0,0,0,703.415405
-1190,15,2,0,0,0,836.513306
-1683,-1104,3,0,0,0,685.701721
1917,-1867,4,0,0,0,604.484741
1570,1378,1,0,0,0,675.078369
-1318,1827,2,0,0,0,653.512085
-1647,-1193,3,0,0,0,682.747742
1729,-714,4,0,0,0,706.666687
1513,264,1,0,0,0,763.210205
-139,136,2,0,0,0,1358.784180
-1290,-664,3,0,0,0,779.559570
1205,-1943,4,0,0,0,649.295349
1001,1219,1,0,0,0,755.562805
-293,835,2,0,0,0,921.810730
-402,-934,3,0,0,0,881.792358
119,-865,4,0,0,0,925.667053
1979,565,1,0,0,0,679.338135
-765,1346,2,0,0,0,760.911804
-1313,-1845,3,0,0,0,652.031494
348,-1392,4,0,0,0,782.748840
696,109,1,0,0,0,987.516541
-1258,1551,2,0,0,0,687.948425
-35,-336,3,0,0,0,1199.462036
618,-207,4,0,0,0,1009.945679
1326,173,1,0,0,0,802.992188
-838,533,2,0,0,0,888.581055
-1226,-1406,3,0,0,0,707.459595
1956,-636,4,0,0,0,679.514709
1128,532,1,0,0,0,823.042175
-1032,1742,2,0,0,0,684.007385
-1627,-1343,3,0,0,0,672.257385
1589,-478,4,0,0,0,741.019409
1775,1212,1,0,0,0,666.938965
-255,1672,2,0,0,0,735.541809
-1487,-317,3,0,0,0,766.112244
1142,-1774,4,0,0,0,672.242554
1597,1010,1,0,0,0,703.779602
-1834,322,2,0,0,0,707.982056
-1633,-1578,3,0,0,0,651.232849
1719,-2000,4,0,0,0,608.625122
471,1464,1,0,0,0,762.829163
-615,1476,2,0,0,0,751.646545
-1965,-1425,3,0,0,0,632.232788
1690,-874,4,0,0,0,701.809814
429,721,1,0,0,0,937.167908
-1562,647,2,0,0,0,735.649841
-1670,-1655,3,0,0,0,641.319336
1771,-607,4,0,0,0,706.435486
1299,917,1,0,0,0,753.255432
-1153,333,2,0,0,0,834.099304
-954,-1903,3,0,0,0,669.688171
1918,-101,4,0,0,0,699.109070
42,320,1,0,0,0,1212.629883
-359,54,2,0,0,0,1178.692383
-48,-1576,3,0,0,0,755.671448
624,-862,4,0,0,0,868.700012
1565,324,1,0,0,0,751.792480
-1970,1114,2,0,0,0,652.200928
-703,-856,3,0,0,0,857.163147
445,-1702,4,0,0,0,724.260193
1083,1508,1,0,0,0,708.822388
-1976,1832,2,0,0,0,602.510132
-1053,-1171,3,0,0,0,756.019836
384,-1032,4,0,0,0,858.869629
1856,1239,1,0,0,0,656.215027
-1175,1484,2,0,0,0,703.284363
-1980,-200,3,0,0,0,688.947815
312,-1561,4,0,0,0,752.928284
685,1608,1,0,0,0,726.121826
-1440,873,2,0,0,0,736.794495
-237,-1197,3,0,0,0,829.318726
1529,-1827,4,0,0,0,637.556885
598,1771,1,0,0,0,706.879211
-134,1995,2,0,0,0,687.596863
-1908,-604,3,0,0,0,687.335999
1272,-947,4,0,0,0,754.023560
230,603,1,0,0,0,1012.777344
-428,38,2,0,0,0,1130.078247
-323,-735,3,0,0,0,949.852661
960,-881,4,0,0,0,810.452271
1718,112,1,0,0,0,730.448059
-52,1976,2,0,0,0,690.879700
-1814,-1553,3,0,0,0,636.889832
1351,-1870,4,0,0,0,646.730652
1298,520,1,0,0,0,790.163025
-111,430,2,0,0,0,1120.563110
-1378,-1941,3,0,0,0,637.793213
1044,-969,4,0,0,0,784.848267
952,913,1,0,0,0,806.930237
-278,392,2,0,0,0,1097.797974
-44,-764,3,0,0,0,963.665039
249,-274,4,0,0,0,1173.026978
873,1212,1,0,0,0,771.206177
-1103,785,2,0,0,0,799.449646
-145,-280,3,0,0,0,1219.345947
254,-1275,4,0,0,0,811.098755
132,691,1,0,0,0,987.921387
-1327,1521,2,0,0,0,684.889709
-1230,-1314,3,0,0,0,717.713928
1162,-1084,4,0,0,0,753.425354
359,283,1,0,0,0,1112.218384
-362,1939,2,0,0,0,691.485657
-1678,-1077,3,0,0,0,688.399475
712,-1142,4,0,0,0,801.163330
61,1130,1,0,0,0,851.002319
-1511,604,2,0,0,0,746.621704
-145,-1389,3,0,0,0,790.520386
1768,-1904,4,0,0,0,612.856140
446,1273,1,0,0,0,800.503174
-44,839,2,0,0,0,936.764282
-1674,-352,3,0,0,0,732.292358
1512,-37,4,0,0,0,767.619629
1748,1849,1,0,0,0,618.810120
-226,1349,2,0,0,0,796.497437
-1393,-1731,3,0,0,0,657.454346
259,-789,4,0,0,0,940.120422
308,1148,1,0,0,0,836.875183
-39,678,2,0,0,0,998.085144
-750,-1961,3,0,0,0,673.636658
499,-1908,4,0,0,0,691.533447
1686,377,1,0,0,0,729.452515
-840,1182,2,0,0,0,779.714478
-1457,-303,3,0,0,0,772.266602
1873,-469,4,0,0,0,697.597351
680,1279,1,0,0,0,780.020996
-376,707,2,0,0,0,950.598755
-1557,-973,3,0,0,0,712.014404
1375,-1048,4,0,0,0,729.250854
944,443,1,0,0,0,874.540649
-3,617,2,0,0,0,1025.736450
-775,-323,3,0,0,0,936.948547
719,-1263,4,0,0,0,779.073608
553,1302,1,0,0,0,786.835999
-1354,1232,2,0,0,0,712.859863
-331,-872,3,0,0,0,906.660156
1985,-763,4,0,0,0,669.976318
1116,1495,1,0,0,0,707.436157
-1421,820,2,0,0,0,744.273376
-589,-609,3,0,0,0,934.346863
1406,-1809,4,0,0,0,648.694824
1314,76,1,0,0,0,807.551392
-1367,330,2,0,0,0,788.527649
-1030,-1652,3,0,0,0,695.240112
1252,-770,4,0,0,0,775.828247
1659,1966,1,0,0,0,615.698975
-939,901,2,0,0,1,1123.728516
-1036,-559,3,0,0,0,839.649597
777,-936,4,0,0,0,830.205505
891,635,1,0,0,0,860.705872
-547,249,2,0,0,0,1033.311401
-1873,-1741,3,0,0,0,617.390930
1476,-561,4,0,0,0,755.255493
1939,1959,1,0,0,0,596.074951
-328,1453,2,0,0,0,771.998718
-488,-938,3,0,0,0,870.545959
64,-1091,4,0,0,0,861.034302
1726,1026,1,0,0,0,686.393738
-802,197,2,0,0,0,941.714539
-1363,-303,3,0,0,0,790.577209
426,-1507,4,0,0,0,757.621521
669,1606,1,0,0,0,727.446045
-798,42,2,0,0,0,951.196838
-1766,-634,3,0,0,0,705.790527
914,-1983,4,0,0,0,662.431274
358,1757,1,0,0,0,718.791931
-933,1291,2,0,0,0,752.752319
-1082,-1257,3,0,0,0,741.156494
937,-884,4,0,0,0,813.735413
708,874,1,0,0,0,852.752075
-335,829,2,0,0,0,918.827209
-32,-1497,3,0,0,0,770.502686
1360,-208,4,0,0,0,794.818787
1659,159,1,0,0,0,739.766724
-1353,1769,2,0,0,0,656.786255
-1696,-376,3,0,0,0,727.873108
183,-1429,4,0,0,0,781.584106
1583,788,1,0,0,0,722.785889
-1694,20,2,0,0,0,735.070007
-108,-270,3,0,0,0,1242.697876
774,-1641,4,0,0,0,715.412354
1927,1373,1,0,0,0,639.512085
-568,1718,2,0,0,0,716.189514
-923,-1478,3,0,0,0,726.991577
1820,-1455,4,0,0,0,643.883423
420,276,1,0,0,0,1084.889648
-524,717,2,0,0,0,920.786255
-210,-7,3,0,0,0,1336.451660
119,-931,4,0,0,0,904.854492
1935,1943,1,0,0,0,597.538879
-408,685,2,0,0,0,951.848022
-775,-687,3,0,0,0,876.511902
1673,-523,4,0,0,0,725.300049
96,1982,1,0,0,0,689.775879
-652,1874,2,0,0,0,689.796204
-1879,-616,3,0,0,0,690.776428
1,-1000,4,0,0,0,886.599792
779,1707,1,0,0,0,705.791565
-1016,895,2,0,0,1,1034.859009
-1687,-365,3,0,0,0,729.718506
1398,-1032,4,0,0,0,727.795593
286,976,1,0,0,0,881.734985
-372,1282,2,0,0,0,803.499207
-228,-1880,3,0,0,0,703.144531
1672,-1304,4,0,0,0,670.812683
34,1765,1,0,0,0,723.265747
-1029,1092,2,0,0,0,769.910217
-304,-448,3,0,0,0,1063.424927
1063,-281,4,0,0,0,859.291565
1940,1378,1,0,0,0,637.890869
-859,785,2,0,0,0,842.975403
-402,-1805,3,0,0,0,709.962280
1907,-131,4,0,0,0,700.478027
1836,1205,1,0,0,0,660.786682
-1926,648,2,0,0,0,682.971802
-1399,-689,3,0,0,0,758.832458
1928,-1107,4,0,0,0,657.285828
1609,1801,1,0,0,0,633.675415
-1886,895,2,0,0,0,675.267151
-358,-26,3,0,0,0,1181.965088
212,-1939,4,0,0,0,694.687561
1201,1723,1,0,0,0,673.535950
-606,851,2,0,0,0,874.005371
-110,-944,3,0,0,0,901.252625
1952,-360,4,0,0,0,689.690186
160,1622,1,0,0,0,746.159546
-61,655,2,0,0,0,1007.265198
-1081,-1808,3,0,0,0,672.686646
231,-1316,4,0,0,0,803.232605
1334,1963,1,0,0,0,638.637085
-640,1393,2,0,0,0,763.747803
-724,-385,3,0,0,0,943.759094
1817,-1264,4,0,0,0,658.546265
1918,1405,1,0,0,0,638.136292
-117,577,2,0,0,0,1039.255981
-1587,-689,3,0,0,0,729.041809
214,-1318,4,0,0,0,803.417603
1591,225,1,0,0,0,750.244629
-797,1129,2,0,0,0,793.535034
-936,-1391,3,0,0,0,738.051575
912,-573,4,0,0,0,865.227783
1409,1589,1,0,0,0,670.362122
-1014,218,2,0,0,0,876.093201
-1021,-956,3,0,0,24,896.078064
426,-131,4,0,0,0,1119.531250
52,1052,1,0,0,0,871.654663
-551,116,2,0,0,0,1052.107300
-604,-356,3,0,0,0,988.901184
1178,-176,4,0,0,0,836.276550
522,318,1,0,0,0,1028.446411
-420,356,2,0,0,0,1058.580688
-1142,-261,3,0,0,0,841.057129
1346,-949,4,0,0,0,743.175964
1044,1200,1,0,0,0,753.162231
-911,743,2,0,0,0,840.045349
-740,-36,3,0,0,0,972.999878
1282,-1080,4,0,0,0,738.105469
1856,128,1,0,0,0,708.234924
-1046,1090,2,0,0,0,767.952271
-1305,-1760,3,0,0,0,661.447876
369,-767,4,0,0,0,933.018860
1364,678,1,0,0,0,765.583923
-944,1285,2,0,0,0,752.459167
-1642,-615,3,0,0,0,725.209900
1674,-1341,4,0,0,0,667.528198
1835,1260,1,0,0,0,656.934204
-1361,39,2,0,0,0,797.811829
-522,-1448,3,0,0,0,762.583313
605,-1102,4,0,0,0,820.747620
395,1558,1,0,0,0,750.162170
-68,1141,2,0,0,0,848.123291
-589,-1524,3,0,0,0,745.458435
1384,-1860,4,0,0,0,645.318481
345,196,1,0,0,0,1153.050781
-632,1591,2,0,0,0,732.070984
-1697,-311,3,0,0,0,729.846680
584,-1038,4,0,0,0,836.292725
37,1445,1,0,0,0,780.627808
-1615,1821,2,0,0,0,631.450928
-927,-992,3,0,0,0,798.624207
248,-1426,4,0,0,0,780.244568
1199,26,1,0,0,0,834.301208
-319,104,2,0,0,0,1201.426758
-1860,-121,3,0,0,0,707.693298
1092,-1652,4,0,0,0,690.357422
266,1089,1,0,0,0,853.717896
-645,358,2,0,0,0,974.241089
-1919,-248,3,0,0,0,696.985413
1732,-123,4,0,0,0,728.008118
1252,694,1,0,0,0,783.422058
-464,268,2,0,0,0,1066.406860
-1504,-1868,3,0,0,0,635.669556
1706,-1547,4,0,0,0,647.226318
702,593,1,0,0,0,910.943054
-239,1093,2,0,0,0,854.280762
-1191,-180,3,0,0,0,833.046265
1284,-8,4,0,0,0,814.665833
578,940,1,0,0,0,858.253357
-564,1697,2,0,0,0,719.565186
-36,-593,3,0,0,0,1036.648193
1327,-1454,4,0,0,0,692.064758
1780,1752,1,0,0,0,624.104248
-544,992,2,0,0,0,851.072021
-591,-480,3,0,0,0,965.136719
1069,-776,4,0,0,0,806.512634
162,1951,1,0,0,0,693.639038
-985,1124,2,0,0,0,771.043762
-1173,-260,3,0,0,0,833.776917
610,-364,4,0,0,0,985.126648
700,619,1,0,0,0,906.128662
-1149,882,2,0,0,0,780.029114
-162,-337,3,0,0,0,1170.176636
1693,-1553,4,0,0,0,647.915955
1274,862,1,0,0,0,762.769409
-424,1266,2,0,0,0,803.448914
-1142,-480,3,0,0,0,824.982178
390,-949,4,0,0,0,879.206726
1147,491,1,0,0,0,822.923706
-276,1723,2,0,0,0,726.591187
-1813,-1092,3,0,0,0,671.340088
842,-883,4,0,0,0,829.350281
1277,1586,1,0,0,0,682.393066
-296,783,2,0,0,0,937.819580
-129,-466,3,0,0,0,1096.030029
1956,-1818,4,0,0,0,605.071838
1016,1800,1,0,0,0,678.108276
-1733,894,2,0,0,0,694.768005
-329,-699,3,0,0,0,960.933105
1244,-1813,4,0,0,0,660.444031
1575,264,1,0,0,0,752.010742
-848,1940,2,0,0,0,671.235901
-1498,-216,3,0,0,0,767.422119
1744,-267,4,0,0,0,723.429382
861,680,1,0,0,0,859.912903
-478,694,2,0,0,0,935.896851
-1133,-1007,3,0,0,0,766.979309
555,-1885,4,0,0,0,692.575256
831,1600,1,0,0,0,717.225159
-590,1327,2,0,0,0,779.284546
-1502,-1860,3,0,0,0,636.560364
1957,-1071,4,0,0,0,656.299805
796,928,1,0,0,0,828.757629
-694,383,2,0,0,0,953.526611
-1025,-1301,3,0,0,0,741.550537
1813,-1083,4,0,0,0,671.965881
18,761,1,0,0,0,965.195435
-1876,621,2,0,0,0,690.962646
-1278,-1752,3,0,0,0,664.388733
1724,-932,4,0,0,0,693.334900
1140,61,1,0,0,0,848.474365
-1870,174,2,0,0,0,705.527954
-1831,-889,3,0,0,0,682.505066
1720,-1427,4,0,0,0,655.789246
1157,791,1,0,0,0,789.494202
-1575,1685,2,0,0,0,646.790771
-1198,-26,3,0,0,0,834.541199
1851,-470,4,0,0,0,700.741028
144,1054,1,0,0,0,868.797607
-1128,600,2,0,0,0,816.097290
-860,-465,3,0,0,0,893.104431
1185,-1821,4,0,0,0,663.858826
1750,1401,1,0,0,0,654.918152
-644,1964,2,0,0,0,678.115845
-230,-1154,3,0,0,0,839.770142
1975,-1210,4,0,0,0,645.593079
903,275,1,0,0,0,903.210999
-358,651,2,0,0,0,972.196411
-352,-1064,3,0,0,0,853.795471
1520,-192,4,0,0,0,763.918030
1013,553,1,0,0,0,845.345581
-1890,1965,2,0,0,0,599.174683
-985,-999,3,0,0,0,789.209534
556,-1480,4,0,0,0,754.896790
237,1959,1,0,0,0,691.372314
-486,1481,2,0,0,0,758.971863
-1097,-158,3,0,0,0,856.995789
945,-690,4,0,0,0,841.388672
1868,1478,1,0,0,0,637.603455
-1711,85,2,0,0,0,731.873474
-39,-1745,3,0,0,0,726.513916
594,-1964,4,0,0,0,680.202698
261,484,1,0,0,0,1058.942139
-169,446,2,0,0,0,1099.981567
-655,-915,3,0,0,0,852.625977
1788,-797,4,0,0,0,693.657410
57,1135,1,0,0,0,849.788086
-752,99,2,0,0,0,966.228760
-1645,-1224,3,0,0,0,680.404114
1309,-7,4,0,0,0,809.123291
1162,1325,1,0,0,0,723.749878
-1823,567,2,0,0,0,700.830811
-1481,-1994,3,0,0,0,625.676453
1878,-962,4,0,0,0,672.207397
1972,1133,1,0,0,0,650.798706
-1383,337,2,0,0,0,785.035217
-457,-1044,3,0,0,0,848.976074
904,-73,4,0,0,0,914.728333
910,1068,1,0,0,0,789.173157
-742,224,2,0,0,0,959.995056
-330,-1895,3,0,0,0,698.682861
1232,-1093,4,0,0,0,743.167664
425,889,1,0,0,0,890.844604
-1092,412,2,0,0,0,842.117188
-910,-1792,3,0,0,0,686.123901
943,-190,4,0,0,0,897.769775
845,1991,1,0,0,0,665.140503
-1583,635,2,0,0,0,733.131042
-1520,-349,3,0,0,0,758.815796
200,-1427,4,0,0,0,781.528809
1256,890,1,0,0,0,762.556335
-372,579,2,0,0,0,994.255432
-23,-726,3,0,0,0,978.700867
186,-237,4,0,0,0,1232.490601
774,281,1,0,0,0,942.556763
-1018,1047,2,0,0,0,777.692810
-1546,-299,3,0,0,0,756.050842
1108,-1720,4,0,0,0,681.022278
1525,67,1,0,0,0,764.970581
-325,30,2,0,0,0,1209.396973
-318,-1228,3,0,0,0,818.161987
569,-415,4,0,0,0,987.606934
1059,1193,1,0,0,0,752.325562
-369,1253,2,0,0,0,809.741943
-153,-1007,3,0,0,0,881.306335
1716,-469,4,0,0,0,721.064697
931,826,1,0,0,0,823.632507
-1179,367,2,0,0,0,825.906738
-926,-906,3,0,0,0,812.108337
623,-643,4,0,0,0,918.447205
1387,1396,1,0,0,0,692.155762
-1514,884,2,0,0,0,725.244385
-254,-1213,3,0,0,0,824.858398
1079,-697,4,0,0,0,814.549927
1157,1154,1,0,0,0,745.411865
-104,1631,2,0,0,0,745.378845
-1553,-951,3,0,0,0,714.360901
568,-257,4,0,0,0,1022.747803
1432,1288,1,0,0,0,698.310181
-497,1229,2,0,0,0,805.485718
-250,-1417,3,0,0,0,781.940369
1639,-1868,4,0,0,0,625.530396
1639,386,1,0,0,0,736.815430
-1697,880,2,0,0,0,700.462402
-1459,-755,3,0,0,0,743.897400
146,-1565,4,0,0,0,756.571228
1885,1552,1,0,0,0,630.548035
-412,864,2,0,0,0,899.194336
-1396,-783,3,0,0,0,751.360413
1403,-841,4,0,0,0,745.126099
957,1962,1,0,0,0,662.503052
-69,1337,2,0,0,0,802.661255
-654,-1896,3,0,0,0,686.721130
1931,-1168,4,0,0,0,653.008667
1210,1906,1,0,0,0,652.898376
-1500,775,2,0,0,0,736.043091
-1547,-417,3,0,0,0,751.069824
110,-1244,4,0,0,0,822.651917
326,875,1,0,0,0,906.336609
-1869,1301,2,0,0,0,650.432739
-777,-1000,3,0,0,0,818.643433
651,-1897,4,0,0,0,686.725403
1507,31,1,0,0,0,768.595703
-665,1017,2,0,0,0,830.527588
-1241,-1905,3,0,0,0,650.891907
1395,-146,4,0,0,0,789.274170
856,93,1,0,0,0,929.690552
-1430,1367,2,0,0,0,690.648743
-1885,-89,3,0,0,0,704.155579
461,-157,4,0,0,0,1093.964478
1084,1465,1,0,0,0,714.141968
-1010,1123,2,0,0,0,768.014343
-1224,-582,3,0,0,0,799.131104
1531,-582,4,0,0,0,744.751587
1607,205,1,0,0,0,747.898438
-290,1469,2,0,0,0,770.500916
-178,-1214,3,0,0,0,827.733704
44,-466,4,0,0,0,1105.397583
1704,123,1,0,0,0,732.657288
-555,175,2,0,0,0,1042.608521
-1472,-1753,3,0,0,0,648.953979
121,-370,4,0,0,0,1158.559326
1009,1504,1,0,0,0,715.929504
-97,1105,2,0,0,0,856.754395
-1118,-409,3,0,0,0,836.424133
648,-1854,4,0,0,0,692.724609
1013,983,1,0,0,0,787.451538
-272,209,2,0,0,0,1195.051270
-1343,-1868,3,0,0,0,647.510986
158,-1283,4,0,0,0,812.731628
1967,1050,1,0,0,0,656.452271
-535,1616,2,0,0,0,733.695740
-228,-1766,3,0,0,0,720.787537
1283,-879,4,0,0,0,759.613037
652,759,1,0,0,0,886.429382
-210,702,2,0,0,0,976.182983
-94,-334,3,0,0,0,1191.746704
150,-1002,4,0,0,0,882.834229
133,1292,1,0,0,0,811.370178
-1245,354,2,0,0,0,812.363159
-431,-1093,3,0,0,0,840.207825
338,-1322,4,0,0,0,797.186523
445,439,1,0,0,0,1021.981018
-339,174,2,0,0,0,1164.726929
-1725,-1984,3,0,0,0,609.508606
1090,-571,4,0,0,0,826.908875
1692,1013,1,0,0,0,691.549255
-855,406,2,0,0,0,902.433167
-1906,-1114,3,0,0,0,659.287170
1726,-915,4,0,0,0,694.250671
366,594,1,0,0,0,990.303528
-322,1768,2,0,0,0,718.156189
-1610,-364,3,0,0,0,742.527893
1836,-1126,4,0,0,0,666.346497
386,427,1,0,0,0,1045.761230
-1365,33,2,0,0,0,797.002502
-1973,-1516,3,0,0,0,625.179199
640,-1984,4,0,0,0,675.666687
1003,1029,1,0,0,0,782.325195
-1069,1897,2,0,0,0,663.221558
-355,-1757,3,0,0,0,718.887085
334,-97,4,0,0,0,1191.061768
67,1676,1,0,0,0,737.924866
-1820,807,2,0,0,0,688.830444
-922,-610,3,0,0,0,857.722534
1051,-1056,4,0,0,0,771.937683
481,692,1,0,0,0,935.875549
-1446,965,2,0,0,0,727.666626
-1844,-1937,3,0,0,0,604.648987
971,-1908,4,0,0,0,668.064758
1290,295,1,0,0,0,806.003845
-1499,127,2,0,0,0,769.158142
-544,-188,3,0,0,0,1045.780640
1497,-753,4,0,0,0,738.202759
397,1799,1,0,0,0,711.039185
-1282,1950,2,0,0,0,643.447998
-124,-1678,3,0,0,0,737.030823
1112,-1778,4,0,0,0,673.967529
1643,1645,1,0,0,0,644.513733
-1882,597,2,0,0,0,691.207703
-7,-550,3,0,0,0,1058.860107
643,-1350,4,0,0,0,770.892883
1204,899,1,0,0,0,769.495605
-997,1179,2,0,0,0,761.685913
-1020,-1324,3,0,0,0,738.952454
1241,-149,4,0,0,0,822.408203
1329,1615,1,0,0,0,674.728821
-890,1746,2,0,0,0,693.341919
-1123,-270,3,0,0,0,845.124207
1969,-1844,4,0,0,0,602.187683
1054,1559,1,0,0,0,704.951660
-1844,1350,2,0,0,0,649.416626
-937,-997,3,0,0,0,796.412842
1294,-712,4,0,0,0,774.440735
843,634,1,0,0,0,871.240479
-1161,1695,2,0,0,0,679.835693
-1941,-571,3,0,0,0,684.219177
1865,-23,4,0,0,0,707.507385
1805,323,1,0,0,0,712.381287
-940,770,2,0,0,0,830.529114
-1416,-1465,3,0,0,0,682.215454
1193,-1004,4,0,0,0,758.870972
674,1009,1,0,0,0,830.933105
-1619,1021,2,0,0,0,700.095032
-1940,-1174,3,0,0,0,651.645447
1011,-243,4,0,0,0,875.365723
1556,1120,1,0,0,0,699.629272
-717,380,2,0,0,0,946.771301
-1750,-1382,3,0,0,0,656.428162
1909,-141,4,0,0,0,700.073120
1338,1301,1,0,0,0,707.339111
-1504,22,2,0,0,0,769.197937
-803,-1838,3,0,0,0,686.702515
836,-1590,4,0,0,0,718.267639
1162,1962,1,0,0,0,650.050232
-807,117,2,0,0,0,945.367188
-372,-865,3,0,0,0,903.927856
1625,-1716,4,0,0,0,639.847656
121,1906,1,0,0,0,700.726440
-842,1040,2,0,0,0,802.802856
-1256,-499,3,0,0,0,799.944214
137,-1862,4,0,0,0,707.217102
714,762,1,0,0,0,874.136841
-700,690,2,0,0,0,891.564941
-1948,-1432,3,0,0,0,633.362061
762,-99,4,0,0,0,962.485718
1510,302,1,0,0,0,762.455200
-1751,736,2,0,0,0,702.296204
-796,-904,3,0,0,0,833.051270
1664,-490,4,0,0,0,728.291626
64,821,1,0,0,0,942.535461
-695,393,2,0,0,0,951.443848
-997,-1889,3,0,0,0,668.720093
918,-1782,4,0,0,0,686.873657
1507,118,1,0,0,0,767.779053
-1674,773,2,0,0,0,710.794861
-1642,-319,3,0,0,0,738.719177
774,-836,4,0,0,0,849.066040
1765,233,1,0,0,0,720.842957
-723,1065,2,0,0,0,813.949585
-619,-1611,3,0,0,0,729.752747
1929,-297,4,0,0,0,694.515381
1054,1250,1,0,0,0,745.248047
-293,23,2,0,0,0,1239.636353
-628,-1334,3,0,0,0,774.931152
762,-93,4,0,0,0,962.767212
1829,1123,1,0,0,0,667.347778
-1776,831,2,0,0,0,693.188354
-170,-1028,3,0,0,0,874.765930
1366,-1515,4,0,0,0,681.874817
1571,788,1,0,0,0,724.531128
-1595,1973,2,0,0,0,619.638062
-1824,-488,3,0,0,0,703.995911
1727,-718,4,0,0,0,706.714966
1103,1393,1,0,0,0,721.407349
-1385,1086,2,0,0,0,724.131042
-1780,-857,3,0,0,0,691.042053
1755,-987,4,0,0,0,685.599731
1139,217,1,0,0,0,844.008972
-266,1216,2,0,0,0,823.597656
-1548,-956,3,0,0,0,714.618835
216,-1368,4,0,0,0,792.917114
1997,1113,1,0,0,0,649.308838
-1928,825,2,0,0,0,673.968323
-1068,-249,3,0,0,0,860.043823
731,-1003,4,0,0,0,824.439331
1736,597,1,0,0,0,712.051636
-944,1474,2,0,0,0,725.703918
-610,-754,3,0,0,0,895.413696
1152,-1503,4,0,0,0,703.155334
404,150,1,0,0,0,1129.230835
-1387,1844,2,0,0,0,646.677002
-1721,-1610,3,0,0,0,640.650085
15,-1611,4,0,0,0,749.488708
31,418,1,0,0,0,1137.238525
-490,545,2,0,0,0,976.123718
-1827,-1623,3,0,0,0,630.306274
862,-1474,4,0,0,0,732.805908
573,1468,1,0,0,0,755.829041
-1450,1013,2,0,0,0,722.701782
-1928,-241,3,0,0,0,695.797729
1700,-46,4,0,0,0,733.971313
672,551,1,0,0,0,927.033936
-1027,1546,2,0,0,0,708.909912
-1891,-1034,3,0,0,0,666.153748
680,-41,4,0,0,0,997.189392
1702,692,1,0,0,0,711.815369
-1214,734,2,0,0,0,786.010071
-1486,-156,3,0,0,0,771.112366
1332,-739,4,0,0,0,765.573547
707,1805,1,0,0,0,696.458435
-472,8,2,0,0,0,1102.946411
-151,-1917,3,0,0,0,698.769348
503,-403,4,0,0,0,1013.155396
892,559,1,0,0,0,871.818726
-600,1985,2,0,0,0,677.175598
-1056,-1497,3,0,0,0,712.646240
118,-854,4,0,0,0,929.330505
1878,396,1,0,0,0,699.311707
-808,1076,2,0,0,0,801.200439
-1520,-1391,3,0,0,0,679.013916
98,-1216,4,0,0,0,829.388184
851,421,1,0,0,0,901.538696
-358,1147,2,0,0,0,833.752686
-200,-1090,3,0,0,0,857.027649
1435,-408,4,0,0,0,771.553284
1729,1368,1,0,0,0,659.667419
-349,876,2,0,0,0,903.511536
-1306,-958,3,0,0,0,747.957153
912,-1773,4,0,0,0,688.411560
165,963,1,0,0,0,893.290100
-1372,1652,2,0,0,0,667.189148
-1242,-1215,3,0,0,0,727.825806
1608,-532,4,0,0,0,735.137512
286,1709,1,0,0,0,728.602417
-632,1702,2,0,0,0,715.226624
-1803,-1723,3,0,0,0,624.523926
344,-688,4,0,0,0,962.184814
1294,1895,1,0,0,0,648.256775
-140,1267,2,0,0,0,816.758972
-33,-1447,3,0,0,0,780.250122
91,-832,4,0,0,0,937.860535
1284,976,1,0,0,0,749.174683
-1168,762,2,0,0,0,790.924438
-424,-1610,3,0,0,0,740.060486
1834,-1267,4,0,0,0,656.531006
9,997,1,0,0,0,887.453369
-623,1805,2,0,0,0,700.778259
-1769,-45,3,0,0,0,722.577454
1511,-1451,4,0,0,0,674.270325
813,1629,1,0,0,0,714.429871
-1234,677,2,0,0,0,788.273987
-390,-1630,3,0,0,0,738.152588
702,-1534,4,0,0,0,736.278137
1068,1876,1,0,0,0,665.694031
-1489,1054,2,0,0,0,713.850830
-357,-1669,3,0,0,0,732.939148
657,-1822,4,0,0,0,696.707825
1702,3,1,0,0,0,733.738586
-763,24,2,0,0,0,964.377075
-1199,-874,3,0,0,0,773.123718
528,-4,4,0,0,0,1070.646484
1967,1559,1,0,0,0,622.703857
-390,846,2,0,0,0,907.013062
-1848,-1888,3,0,0,0,608.121704
785,-1342,4,0,0,0,759.704529
1150,1287,1,0,0,0,729.734070
-1356,669,2,0,0,0,767.695801
-1879,-233,3,0,0,0,703.202637
787,-862,4,0,0,0,842.095459
1435,1440,1,0,0,0,682.852478
-709,1629,2,0,0,0,721.440796
-1432,-447,3,0,0,0,769.965698
1321,-986,4,0,0,0,742.915955
1286,1823,1,0,0,0,656.293274
-1538,1545,2,0,0,0,662.887878
-737,-531,3,0,0,0,914.276489
1209,-1475,4,0,0,0,701.126038
1125,1372,1,0,0,0,721.818665
-928,26,2,0,0,0,908.004700
-1831,-1588,3,0,0,0,632.657227
969,-1366,4,0,0,0,738.361206
923,1214,1,0,0,0,765.241211
-1841,287,2,0,0,0,707.799927
-789,-1831,3,0,0,0,688.418579
1571,-1737,4,0,0,0,642.425476
240,1876,1,0,0,0,703.520508
-72,494,2,0,0,0,1086.818359
-1399,-1268,3,0,0,0,703.999634
1126,-665,4,0,0,0,809.411133
1725,24,1,0,0,0,729.862549
-704,1168,2,0,0,0,797.347595
-967,-936,3,0,0,24,815.915039
1621,-1998,4,0,0,0,615.652039
324,1367,1,0,0,0,788.813049
-631,1735,2,0,0,0,710.433777
-1629,-420,3,0,0,0,737.082458
310,-86,4,0,0,0,1213.557861
119,903,1,0,0,0,913.503540
-817,1161,2,0,0,0,785.806152
-610,-1329,3,0,0,0,777.302307
942,-1469,4,0,0,0,726.571289
1066,1027,1,0,0,0,773.803284
-902,769,2,0,0,0,837.671570
-614,-548,3,0,0,0,942.713379
868,-1433,4,0,0,0,738.259155
1263,1598,1,0,0,0,682.301880
-1846,1711,2,0,0,0,621.900146
-297,-982,3,0,0,0,879.229736
751,-606,4,0,0,0,896.856689
836,930,1,0,0,0,822.268982
-1860,1833,2,0,0,0,611.421753
-678,-1902,3,0,0,0,684.787476
1047,-554,4,0,0,0,837.860107
139,1765,1,0,0,0,722.432678
-1349,403,2,0,0,0,788.192444
-493,-1850,3,0,0,0,700.018799
1424,-595,4,0,0,0,761.821289
897,445,1,0,0,0,886.221252
-422,776,2,0,0,0,922.329407
-1915,-1500,3,0,0,0,631.620117
376,-1377,4,0,0,0,784.240112
728,1379,1,0,0,0,758.849792
-544,734,2,0,0,0,912.617310
-941,-1031,3,0,0,0,790.660706
481,-1402,4,0,0,0,773.418335
1357,294,1,0,0,0,792.184692
-581,835,2,0,0,0,881.677551
-348,-1987,3,0,0,0,685.068848
492,-231,4,0,0,0,1062.295532
1768,673,1,0,0,0,703.449341
-1239,1381,2,0,0,0,709.016541
-1866,-771,3,0,0,0,684.818604
1010,-1436,4,0,0,0,724.846558
1015,595,1,0,0,0,839.808289
-1460,1217,2,0,0,0,702.098267
-1584,-634,3,0,0,0,733.037598
157,-1716,4,0,0,0,730.194946
729,1369,1,0,0,0,760.394165
-1320,1080,2,0,0,0,733.146423
-837,-56,3,0,0,0,937.204102
1683,-611,4,0,0,0,719.211548
1738,385,1,0,0,0,720.872131
-1150,740,2,0,0,0,796.557251
-1821,-1896,3,0,0,0,609.529602
608,-1376,4,0,0,0,769.163635
1213,1939,1,0,0,0,649.191040
-468,96,2,0,0,0,1099.498657
-441,-1379,3,0,0,0,780.166077
1275,-1430,4,0,0,0,699.824707
438,1588,1,0,0,0,743.108704
-1848,694,2,0,0,0,691.265991
-926,-488,3,0,0,0,873.454651
942,-1023,4,0,0,0,791.737671
1309,674,1,0,0,0,775.340332
-243,451,2,0,0,0,1079.360352
-1184,-479,3,0,0,0,816.192993
559,-1412,4,0,0,0,766.449951
266,314,1,0,0,0,1142.533081
-445,362,2,0,0,0,1046.746094
-1596,-1917,3,0,0,0,624.465393
936,-920,4,0,0,0,808.373047
620,1691,1,0,0,0,717.519897
-992,1339,2,0,0,0,739.796448
-1796,-984,3,0,0,0,680.755737
1035,-726,4,0,0,0,819.130859
1087,813,1,0,0,0,798.690857
-1514,1491,2,0,0,0,670.201477
-1518,-420,3,0,0,0,755.981018
536,-1476,4,0,0,0,756.842712
1965,717,1,0,0,0,674.701233
-320,1822,2,0,0,0,709.859375
-20,-919,3,0,0,0,910.856323
1626,-482,4,0,0,0,734.762451
1321,1841,1,0,0,0,651.855530
-40,1980,2,0,0,0,690.341614
-1183,-651,3,0,0,0,800.199951
326,-1449,4,0,0,0,772.837158
768,1265,1,0,0,0,773.871155
-159,1144,2,0,0,0,845.125488
-209,-331,3,0,0,0,1156.949463
734,-983,4,0,0,0,827.775391
1090,160,1,0,0,0,858.724792
-35,887,2,0,0,0,920.908691
-1066,-827,3,0,0,24,858.364075
1578,-707,4,0,0,0,729.202698
638,1764,1,0,0,0,705.870789
-558,1591,2,0,0,0,736.445129
-266,-844,3,0,0,0,921.807434
1810,-1116,4,0,0,0,670.002930
1517,1009,1,0,0,0,714.224243
-1798,667,2,0,0,0,699.545288
-1016,-1177,3,0,0,0,759.680847
1251,-330,4,0,0,0,812.486633
1477,1603,1,0,0,0,662.928040
-1108,1158,2,0,0,0,750.984375
-1875,-1059,3,0,0,0,666.397644
651,-996,4,0,0,0,836.564880
1404,1458,1,0,0,0,684.098328
-1448,1051,2,0,0,0,719.412903
-421,-173,3,0,0,0,1113.466064
758,-431,4,0,0,0,926.056946
585,247,1,0,0,0,1017.446472
-1122,338,2,0,0,0,840.968689
-1069,-424,3,0,0,0,846.368896
514,-770,4,0,0,0,908.802856
935,514,1,0,0,0,867.939270
-225,1908,2,0,0,0,699.025085
-1066,-962,3,0,0,24,892.694946
515,-1669,4,0,0,0,726.314453
1822,1077,1,0,0,0,671.334534
-78,1163,2,0,0,0,842.493225
-1901,-477,3,0,0,0,693.315308
1265,-930,4,0,0,0,756.886108
1758,1976,1,0,0,0,607.806580
-1277,201,2,0,0,0,812.725037
-705,-619,3,0,0,0,904.974915
84,-1336,4,0,0,0,802.691528
237,8,1,0,0,0,1301.551758
-471,540,2,0,0,0,982.622314
-883,-756,3,0,0,0,843.281677
1108,-1131,4,0,0,0,754.479065
238,963,1,0,0,0,888.919922
-1745,1312,2,0,0,0,662.470947
-1754,-1164,3,0,0,0,672.880493
1914,-1012,4,0,0,0,664.852417
301,1147,1,0,0,0,837.544250
-553,954,2,0,0,0,858.461121
-1339,-362,3,0,0,0,792.477173
714,-890,4,0,0,0,848.631836
157,1024,1,0,0,0,876.427490
-1633,1526,2,0,0,0,655.771179
-1088,-1194,3,0,0,0,748.726074
1658,-874,4,0,0,0,706.111023
41,1113,1,0,0,0,855.587830
-1189,44,2,0,0,0,836.581299
-963,-893,3,0,0,24,823.887451
197,-565,4,0,0,0,1034.584473
996,1168,1,0,0,0,763.370056
-1461,1209,2,0,0,0,702.753174
-1744,-1250,3,0,0,0,667.420044
1073,-1851,4,0,0,0,668.244995
813,196,1,0,0,0,938.091125
-1338,78,2,0,0,0,802.340820
-1654,-301,3,0,0,0,737.271118
13,-804,4,0,0,0,949.399353
1802,1910,1,0,0,0,609.849731
-1931,480,2,0,0,0,688.992554
-1118,-415,3,0,0,0,835.923096
591,-1366,4,0,0,0,772.229004
329,808,1,0,0,0,925.909180
-643,1557,2,0,0,0,736.695007
-592,-1833,3,0,0,0,698.280029
853,-445,4,0,0,0,897.725525
69,1226,1,0,0,0,827.508911
-1272,1859,2,0,0,0,653.545715
-1447,-475,3,0,0,0,765.630066
810,-1243,4,0,0,0,773.145203
1487,91,1,0,0,0,771.956360
-1320,1356,2,0,0,0,703.354004
-473,-642,3,0,0,0,951.801697
328,-2,4,0,0,0,1207.964844
293,1778,1,0,0,0,717.376404
-821,473,2,0,0,0,902.126526
-522,-774,3,0,0,0,906.393005
1062,-1989,4,0,0,0,653.261902
464,1256,1,0,0,0,802.620850
-1169,1105,2,0,0,0,749.929321
-1690,-95,3,0,0,0,735.315613
1139,-1745,4,0,0,0,675.782166
1900,524,1,0,0,0,691.713379
-467,959,2,0,0,0,868.021729
-1,-237,3,0,0,0,1301.713501
1875,-538,4,0,0,0,694.672485
1388,513,1,0,0,0,773.893127
-1868,712,2,0,0,0,687.654663
-1319,-1364,3,0,0,0,702.591736
1476,-930,4,0,0,0,726.658447
1237,1625,1,0,0,0,681.544739
-294,547,2,0,0,0,1023.875427
-1165,-1012,3,0,0,0,761.847290
1923,-1075,4,0,0,0,659.882629
258,741,1,0,0,0,956.463867
-1879,1338,2,0,0,0,646.763245
-1587,-1770,3,0,0,0,638.168335
1511,-55,4,0,0,0,767.705383
1337,208,1,0,0,0,799.606689
-455,1629,2,0,0,0,735.539062
-1079,-1197,3,0,0,0,749.405579
1772,-1056,4,0,0,0,678.682922
961,706,1,0,0,0,835.942505
-195,1690,2,0,0,0,733.871826
-297,-1061,3,0,0,0,858.697510
1898,-1225,4,0,0,0,652.727905
569,1066,1,0,0,0,832.133667
-1505,14,2,0,0,0,769.025452
-1947,-381,3,0,0,0,689.832947
87,-847,4,0,0,0,932.914062
347,198,1,0,0,0,1151.074829
-1639,114,2,0,0,0,743.864868
-980,-975,3,0,0,0,793.446655
1228,-738,4,0,0,0,783.177795
1047,973,1,0,0,0,783.857544
-979,1666,2,0,0,0,697.370850
-1793,-561,3,0,0,0,705.430847
450,-83,4,0,0,0,1111.929565
215,1491,1,0,0,0,768.766663
-93,1291,2,0,0,0,812.364136
-395,-81,3,0,0,0,1148.413330
938,-1587,4,0,0,0,710.853455
1260,994,1,0,0,0,750.593445
-796,1820,2,0,0,0,689.468262
-832,-1730,3,0,0,0,699.256409
1028,-9,4,0,0,0,878.638489
1369,402,1,0,0,0,784.362732
-1094,850,2,0,0,1,799.143921
-535,-1312,3,0,0,0,786.366150
61,-1381,4,0,0,0,793.457520
1157,1767,1,0,0,0,671.931519
-1542,1944,2,0,0,0,625.965088
-1783,-1155,3,0,0,0,670.269714
519,-337,4,0,0,0,1024.893677
1351,75,1,0,0,0,799.607178
-444,1458,2,0,0,0,765.415710
-23,-1684,3,0,0,0,736.761292
1035,-1174,4,0,0,0,757.798706
703,1056,1,0,0,0,818.140808
-896,1051,2,0,0,0,793.718262
-1279,-855,3,0,0,0,762.724243
1056,-1327,4,0,0,0,734.769287
1008,1012,1,0,0,0,784.049561
-1535,967,2,0,0,0,715.440308
-1621,-1403,3,0,0,0,667.668274
1370,-862,4,0,0,0,748.146423
561,103,1,0,0,0,1048.393555
-1272,1990,2,0,0,0,640.031494
-654,-131,3,0,0,0,1003.280273
1004,-1396,4,0,0,0,730.798584
731,1108,1,0,0,0,805.112061
-994,500,2,0,0,0,855.868164
-1526,-1447,3,0,0,0,673.168701
826,-1263,4,0,0,0,768.252686
1931,703,1,0,0,0,679.767395
-373,534,2,0,0,0,1010.111267
-1535,-1199,3,0,0,0,695.095825
1426,-1270,4,0,0,0,700.769714
1416,295,1,0,0,0,780.443420
-648,303,2,0,0,0,983.108154
-24,-1507,3,0,0,0,768.620117
1281,-1479,4,0,0,0,693.797668
116,60,1,0,0,0,1473.653320
-1410,1859,2,0,0,0,643.501099
-504,-297,3,0,0,0,1041.094604
435,-1339,4,0,0,0,788.197021
614,1355,1,0,0,0,772.372803
-618,971,2,0,0,0,846.126770
-7,-1165,3,0,0,0,842.639282
1666,-1643,4,0,0,0,642.690979
1749,1633,1,0,0,0,636.308960
-1096,591,2,0,0,0,823.496887
-1807,-1691,3,0,0,0,626.711060
438,-61,4,0,0,0,1121.778931
1105,480,1,0,0,0,832.992432
-966,1039,2,0,0,1,790.420105
-1209,-39,3,0,0,0,831.830200
1013,-356,4,0,0,0,866.119934
857,839,1,0,0,0,834.291870
-506,697,2,0,0,0,929.601257
-1704,-1631,3,0,0,0,640.397644
341,-1998,4,0,0,0,683.704163
97,1794,1,0,0,0,718.229919
-1260,987,2,0,0,0,751.367981
-1278,-413,3,0,0,0,801.740234
1011,-1335,4,0,0,0,738.390442
798,427,1,0,0,0,915.327148
-372,54,2,0,0,0,1168.650757
-592,-1638,3,0,0,0,727.128540
1777,-167,4,0,0,0,720.116699
8,92,1,0,0,0,1573.650879
-1340,423,2,0,0,0,788.750244
-1230,-336,3,0,0,0,816.678711
963,-386,4,0,0,0,876.006714
1963,1251,1,0,0,0,644.174011
-744,375,2,0,0,0,939.171204
-1116,-1186,3,0,0,0,746.398926
1138,-739,4,0,0,0,798.797852
425,980,1,0,0,0,867.610596
-550,537,2,0,0,0,962.382507
-1991,-982,3,0,0,0,657.697632
997,-1234,4,0,0,0,753.911133
487,105,1,0,0,0,1087.413330
-797,1168,2,0,0,0,786.949585
-1683,-1072,3,0,0,0,688.181580
251,-1450,4,0,0,0,775.489685
1380,1493,1,0,0,0,682.830872
-1869,818,2,0,0,0,681.836853
-942,-1102,3,0,0,0,779.779846
706,-173,4,0,0,0,978.493225
848,1709,1,0,0,0,701.028442
-475,662,2,0,0,0,945.598999
-507,-390,3,0,0,0,1015.347290
1985,-1621,4,0,0,0,616.769104
688,136,1,0,0,0,988.816589
-1717,282,2,0,0,0,727.407532
-1154,-1731,3,0,0,0,676.252747
1465,-968,4,0,0,0,724.797485
902,645,1,0,0,0,856.848694
-884,1580,2,0,0,0,716.027405
-1692,-1108,3,0,0,0,684.323669
3,-385,4,0,0,0,1161.741577
1791,1229,1,0,0,0,663.923584
-892,856,2,0,0,1,888.161194
-501,-532,3,0,0,0,976.957886
754,-683,4,0,0,0,881.646973
554,920,1,0,0,0,866.068665
-589,1835,2,0,0,0,698.133667
-1523,-1178,3,0,0,0,698.401001
267,-527,4,0,0,0,1038.261230
535,1155,1,0,0,0,817.169922
-101,94,2,0,0,0,1457.801270
-592,-1198,3,0,0,0,803.196228
1622,-564,4,0,0,0,731.179626
1513,102,1,0,0,0,766.864563
-1345,200,2,0,0,0,798.185669
-1156,-1659,3,0,0,0,684.390503
1523,-1214,4,0,0,0,695.114685
1751,740,1,0,0,0,702.062073
-595,706,2,0,0,0,909.583801
-207,-184,3,0,0,0,1256.767578
706,-1139,4,0,0,0,802.386536
1770,1577,1,0,0,0,638.968628
-1708,557,2,0,0,0,718.244751
-470,-490,3,0,0,0,998.149231
1734,-981,4,0,0,0,688.633179
356,1448,1,0,0,0,771.698303
-332,1453,2,0,0,0,771.827942
-1763,-414,3,0,0,0,715.952637
1524,-62,4,0,0,0,765.198303
74,3,1,0,0,0,1637.321411
-766,1311,2,0,0,0,766.496582
-236,-297,3,0,0,0,1166.016113
599,-335,4,0,0,0,995.048401
1599,1198,1,0,0,0,687.810669
-632,1417,2,0,0,0,760.292053
-99,-895,3,0,0,0,916.795044
359,-1909,4,0,0,0,695.877441
1688,936,1,0,0,0,697.699219
-1187,791,2,0,0,0,784.441467
-1169,-1727,3,0,0,0,675.560425
1072,417,1,0,0,0,846.310486
-1444,1667,2,0,0,0,659.574646
-1781,-1238,3,0,0,0,664.333557
950,386,1,0,0,0,879.371582
-1344,90,2,0,0,0,800.899536
-730,-970,3,0,0,0,830.792358
1458,213,1,0,0,0,775.116821
-1097,651,2,0,0,0,816.553650
-1139,-89,3,0,0,0,848.262573
442,1602,1,0,0,0,740.584534
-811,1132,2,0,0,0,791.347961
-1067,-1850,3,0,0,0,668.762268
512,1659,1,0,0,0,728.033264
-275,1438,2,0,0,0,776.958435
-125,-320,3,0,0,0,1194.610596
512,436,1,0,0,0,1000.914368
-403,1599,2,0,0,0,742.811890
-110,-398,3,0,0,0,1141.555420
1725,825,1,0,0,0,700.382446
-166,1973,2,0,0,0,690.404175
-1671,-196,3,0,0,0,737.051208
1401,1688,1,0,0,0,661.105713
-242,4,2,0,0,0,1295.653320
-1825,-1826,3,0,0,0,614.682495
540,1602,1,0,0,0,735.672546
-1518,852,2,0,0,0,727.283630
-1392,-1799,3,0,0,0,650.755066
354,1048,1,0,0,0,857.553406
-1160,1506,2,0,0,0,702.060791
-1568,-875,3,0,0,0,718.389709
879,961,1,0,0,0,810.587646
-1968,261,2,0,0,0,689.644958
-1213,-209,3,0,0,0,826.822510
352,1985,1,0,0,0,685.249756
-1649,1430,2,0,0,0,662.538696
-213,-396,3,0,0,0,1116.978149
600,1495,1,0,0,0,749.517456
-1190,456,2,0,0,0,816.834534
-1827,-794,3,0,0,0,688.660278
1314,1189,1,0,0,0,722.169067
-803,1898,2,0,0,0,678.948853
-72,-413,3,0,0,0,1137.182861
992,1336,1,0,0,0,740.211426
-204,1935,2,0,0,0,695.397522
-1122,-72,3,0,0,0,852.874207
576,505,1,0,0,0,963.377747
-1916,1697,2,0,0,0,617.137451
-1452,-1222,3,0,0,0,702.538879
161,1094,1,0,0,0,857.655029
-318,739,2,0,0,0,949.252563
-246,-996,3,0,0,0,879.229736
1473,1628,1,0,0,0,660.869446
-491,470,2,0,0,0,997.842834
-1064,-872,3,0,0,24,1051.670654
1824,1920,1,0,0,0,607.436523
-1754,1889,2,0,0,0,615.111267
-1260,-1729,3,0,0,0,668.260254
1352,920,1,0,0,0,745.200439
-836,1999,2,0,0,0,664.628601
-1385,-704,3,0,0,0,759.903503
1187,821,1,0,0,0,781.067322
-255,844,2,0,0,0,922.865295
-1299,-175,3,0,0,0,808.746521
1504,1122,1,0,0,0,705.783020
-1674,-1490,3,0,0,0,655.001404
1688,263,1,0,0,0,732.668640
-1489,-1560,3,0,0,0,665.979065
-443,-1258,3,0,0,0,803.749146
-277,-1275,3,0,0,0,810.063904
-1063,-911,3,0,0,24,1186.936523
-1082,-1708,3,0,0,0,684.412598
-1863,-415,3,0,0,0,700.902466
-307,-1540,3,0,0,0,756.843994
-374,-1451,3,0,0,0,770.295166
-1202,-109,3,0,0,0,832.472229
-771,-1545,3,0,0,0,729.609192
-693,-1824,3,0,0,0,694.591309
-358,-398,3,0,0,0,1066.684204
-226,-1775,3,0,0,0,719.395325
-1371,-733,3,0,0,0,759.719910
-1071,-1151,3,0,0,0,756.495544
-762,-1554,3,0,0,0,728.933044
-1638,-1746,3,0,0,0,636.162781
-919,-948,3,0,0,0,806.650452
-740,-567,3,0,0,0,906.801819


each generation good chromosome number
300,293,286,291,283,282,279,283,280,277,284,274,281,287,287,276,288,280,273,285,283,280,282,286,279,284,290,289,285,288,290,289,285,292,292,292,290,290,296,291,292,287,294,290,292,293,290,292,290,295,293,296,293,289,295,287,290,292,290,289,289,291,296,296,295,291,298,294,291,294,291,292,293,294,291,291,295,294,293,294,297,299,297,296,298,299,297,296,296,295,295,295,295,296,296,297,296,296,296,297,