each times' max average throughput
637.664978,605.338684,616.778198,621.308289,625.497192,628.991150,628.521851,621.233154,626.241943,639.331055,632.376953,634.037415,627.075562,625.537292,623.944336,612.971191,615.334412,623.753479,634.715820,628.474915,637.578491,636.158142,613.440552,624.778625,635.568115,632.170898,606.654297,630.687439,636.286926,640.552002,609.993286,631.279297,634.577454,615.384460,640.436584,624.320618,621.091003,638.988708,633.033081,624.094849,621.632568,641.440369,632.761597,633.205444,634.766663,609.311768,624.904724,628.419312,643.055054,608.282654,611.644226,631.471069,634.977356,615.172546,647.415100,631.815491,632.499939,625.824585,626.566528,614.996338,636.952271,596.838013,629.535217,620.279907,630.551941,604.182373,634.738342,640.918823,635.546387,601.979431,642.478943,626.127136,630.085815,632.600220,618.701050,636.229004,617.510864,621.392517,620.345520,618.065002,624.670471,616.561401,602.279480,630.851685,636.618835,634.812134,598.302246,615.902588,628.418945,637.864746,617.738098,630.335083,628.322327,636.333069,612.151794,626.404358,623.460144,621.477783,628.382629,618.917175,
avg. throughput in all test times
625.912476
avg. BS TX power in all test times
MBS area 1,MBS area 2,CBSD 1,CBSD 2,CBSD 3,CBSD 4,CBSD 5,CBSD 6,CBSD 7,CBSD 8,CBSD 9,CBSD 10,
9.125,9.150,0.321,0.195,0.160,0.320,0.298,0.280,0.306,0.237,0.273,0.296,
avg. mbs all power,avg. cbsd enable number,avg. mbs area all power,avg. cbsd all power
45.500,3.000,18.275,2.686
avg. max avg. throughput generation number in all test times
1.070000
avg. number of relay UE
223

the max average throughput times

BS TX power
MBS area 1,MBS area 2,CBSD 1,CBSD 2,CBSD 3,CBSD 4,CBSD 5,CBSD 6,CBSD 7,CBSD 8,CBSD 9,CBSD 10,
6.250,10.000,0.875,0.500,0.000,0.875,0.000,0.000,0.750,0.000,0.000,0.000,
max average throughput
618.917175

x,y,area,be blocked (1 : NLOS / 0 : LOS),be blocked number (>=1 : CBSD(x) / 0 : no),connect bs number (>=1 : CBSD / 0 : MBS),throughput (unit : M bps)
909,367,1,1,0,2,176.966980
-578,-1092,2,1,0,4,260.836884
1689,235,1,0,0,0,665.917847
-193,-240,2,0,0,0,1226.142090
526,-1983,1,0,0,0,613.208374
-1427,-289,2,0,0,0,778.549622
1667,1114,1,1,0,2,127.940086
-567,-129,2,0,0,0,1042.830200
1126,-893,1,0,0,0,714.866760
-761,699,2,0,0,0,877.167358
94,1388,1,1,0,1,120.741867
-1799,67,2,0,0,0,717.652283
1800,-1835,1,0,0,0,549.317932
-1472,-903,2,0,0,0,729.574158
1532,-777,1,0,0,0,663.830505
-457,1674,2,0,0,0,728.190186
1147,1372,1,0,0,0,652.343323
-735,-620,2,0,0,0,897.882629
873,-1300,1,1,0,7,167.905365
-1158,1155,2,0,0,0,745.163635
1607,884,1,0,0,0,645.127808
-102,1546,2,0,0,0,760.697693
592,1075,1,0,0,0,760.147278
-991,-325,2,0,0,0,874.498169
205,694,1,1,0,2,174.630219
-1461,341,2,0,0,0,769.942261
1449,-1048,1,1,0,7,167.905365
-47,-1721,2,0,0,0,730.449036
1780,-1348,1,1,0,7,167.905365
-1091,-1929,2,0,0,0,658.193176
1373,-340,1,0,0,0,719.419189
-1589,1424,2,0,0,0,669.022034
184,-1473,1,0,0,0,705.586304
-1654,-1464,2,0,0,0,659.135681
165,923,1,0,0,0,837.499756
-280,142,2,0,0,0,1220.600464
726,1522,1,0,0,0,669.116394
-771,-827,2,0,0,0,851.255554
656,-1574,1,0,0,0,665.924377
-1973,1898,2,0,0,0,597.998840
223,-1745,1,0,0,0,657.027039
-322,36,2,0,0,0,1211.504395
1852,1732,1,0,0,0,553.160706
-1377,605,2,0,0,0,769.219910
1347,-1653,1,0,0,0,602.234314
-933,240,2,1,0,1,120.741867
1546,-804,1,0,0,0,659.738403
-1235,1923,2,0,0,0,649.407593
1231,1507,1,0,0,0,628.265320
-150,1224,2,1,0,1,120.741867
1376,-166,1,0,0,0,725.251953
-1823,-100,2,0,0,0,713.623352
1675,-738,1,1,0,7,167.905365
-962,728,2,0,0,0,832.596252
59,543,1,0,0,0,993.133057
-53,904,2,1,0,1,120.741867
1953,689,1,0,0,0,610.532349
-585,1291,2,1,0,1,120.741867
1002,-1544,1,0,0,0,644.112366
-540,-922,2,0,0,0,867.527405
1758,1469,1,0,0,0,581.870972
-247,-1228,2,0,0,0,821.791870
9,1950,1,0,0,0,627.658386
-1094,1870,2,0,0,0,664.663757
1472,-1463,1,0,0,0,609.929688
-568,-1179,2,0,0,0,809.195740
1748,-1012,1,0,0,0,617.647339
-18,-719,2,1,0,4,174.089539
1862,717,1,0,0,0,621.125854
-95,776,2,1,0,1,120.741867
1842,9,1,1,0,7,167.905365
-543,-1126,2,0,0,0,822.367493
61,-1128,1,0,0,0,783.939819
-944,-347,2,0,0,0,884.947388
780,387,1,0,0,0,858.799622
-30,387,2,0,0,0,1159.391602
296,1677,1,0,0,0,666.311340
-1859,-102,2,0,0,0,708.021606
1899,1561,1,0,0,0,561.924072
-674,1558,2,0,0,0,734.491699
1311,-58,1,0,0,0,740.918884
-1952,-1419,2,1,0,4,120.704285
1472,1789,1,0,0,0,578.700439
-869,-557,2,0,0,0,877.479370
1781,-1685,1,0,0,0,562.667969
-301,-410,2,0,0,0,1081.434814
1988,-1945,1,1,0,7,167.905365
-169,1701,2,1,0,1,120.741867
324,-229,1,0,0,0,1085.294922
-1977,1041,2,1,0,1,120.741867
1371,-205,1,0,0,0,725.197021
-1331,-437,2,0,0,0,789.625732
316,212,1,1,0,0,167.876755
-152,-721,2,1,0,4,192.405563
788,627,1,0,0,0,816.968872
-398,-1715,2,0,0,0,724.038147
21,-773,1,0,0,0,892.964844
-930,667,2,1,0,1,120.741867
686,-1161,1,0,0,0,733.105896
-865,-1904,2,0,0,0,674.762451
796,-1092,1,0,0,0,732.510681
-838,690,2,0,0,0,862.979065
4,1932,1,0,0,0,630.302551
-1209,915,2,0,0,0,766.906128
10,456,1,0,0,0,1045.095825
-1777,-1195,2,0,0,0,667.988464
1654,-1460,1,0,0,0,592.563965
-586,465,2,0,0,0,970.211548
1329,-1349,1,0,0,0,636.011047
-794,573,2,0,0,0,892.662354
252,-1841,1,1,0,7,167.905365
-155,-1396,2,0,0,0,788.872864
1416,1486,1,0,0,0,613.063721
-840,1504,2,0,0,0,730.276550
1868,-341,1,0,0,0,635.231689
-1904,-1526,2,0,0,0,630.740234
976,1351,1,0,0,0,672.460938
-483,1693,2,1,0,1,120.741867
919,1444,1,0,0,0,664.853455
-419,1434,2,0,0,0,771.151978
1299,-503,1,1,0,7,167.905365
-586,-1802,2,0,0,0,702.976257
1489,1208,1,0,0,0,632.465759
-725,-607,2,0,0,0,902.720520
164,-660,1,0,0,0,929.961060
-1418,-67,2,0,0,0,785.820312
200,-935,1,0,0,0,831.873718
-652,994,2,1,0,1,120.741867
1454,448,1,0,0,0,698.536499
-628,1385,2,0,0,0,766.052979
511,-1512,1,1,0,7,167.905365
-711,-1872,2,0,0,0,687.170898
698,-1126,1,0,0,0,738.197205
-1137,1586,2,0,0,0,694.556091
834,-368,1,0,0,0,845.606140
-1706,-485,2,0,0,0,721.925659
1521,-889,1,0,0,0,656.612244
-1382,1402,2,0,0,0,692.046936
547,653,1,1,0,2,231.548233
-896,-1945,2,1,0,4,137.467819
1579,-1618,1,0,0,0,585.630005
-1640,951,2,0,0,0,702.840698
21,475,1,0,0,0,1033.113647
-216,-583,2,1,0,4,194.699051
1551,-620,1,0,0,0,671.833374
-1494,-559,2,0,0,0,752.337708
733,-1676,1,0,0,0,645.877686
-1327,-1755,2,1,0,4,140.102249
1745,1972,1,1,0,2,90.012878
-939,1606,2,0,0,0,708.241699
462,1560,1,0,0,0,679.351440
-133,1239,2,0,0,0,823.282654
664,40,1,0,0,0,936.328796
-431,-768,2,0,0,0,923.194763
396,1423,1,0,0,0,707.012573
-1213,-1023,2,0,0,0,753.846558
148,217,1,0,0,0,1204.258057
-1427,-1379,2,0,0,0,689.760315
1396,452,1,0,0,0,708.903870
-91,1709,2,1,0,1,120.741867
1230,-940,1,0,0,0,693.573669
-1743,9,2,0,0,0,726.910461
447,-1884,1,0,0,0,629.669495
-1410,1940,2,0,0,0,635.663025
1064,-1639,1,0,0,0,627.066528
-1228,1161,2,0,0,0,735.777832
433,1697,1,0,0,0,658.299255
-1394,1325,2,0,0,0,698.723816
1097,901,1,1,0,2,219.231873
-206,1810,2,0,0,0,714.260254
1122,-1749,1,0,0,0,609.575806
-84,-1209,2,0,0,0,831.287292
1243,932,1,0,0,0,692.551941
-1240,1026,2,0,0,0,749.780334
1505,1903,1,0,0,0,565.632996
-1536,939,2,0,0,0,717.646484
1479,-1836,1,0,0,0,573.747864
-1679,463,2,1,0,1,120.741867
1137,1727,1,0,0,0,610.984924
-1540,503,2,0,0,0,747.891113
989,-1052,1,0,0,0,713.520691
-1119,1312,2,0,0,0,729.992493
809,1286,1,0,0,0,698.941589
-860,313,2,0,0,0,912.121704
768,1925,1,0,0,0,610.316528
-1490,-1015,2,0,0,0,717.235718
371,-407,1,0,0,0,990.756409
-1077,-1038,2,0,0,0,770.801331
708,891,1,0,0,0,781.812439
-1337,1308,2,0,0,0,706.699646
1359,-110,1,0,0,0,729.950684
-899,637,2,1,0,1,120.741867
1571,-1055,1,0,0,0,636.208801
-1766,-658,2,0,0,0,704.535156
1820,-1032,1,0,0,0,607.629028
-1338,1410,2,0,0,0,695.681091
1560,1813,1,0,0,0,569.675842
-643,1664,2,1,0,1,120.741867
304,-989,1,1,0,7,167.905365
-306,166,2,1,0,0,248.551315
1536,1447,1,0,0,0,605.193176
-1916,-972,2,0,0,0,667.054382
128,-1355,1,0,0,0,730.458374
-386,-704,2,0,0,0,949.839722
87,1703,1,0,0,0,665.926147
-946,-542,2,0,0,0,861.722168
305,122,1,0,0,0,1139.748047
-1507,-1389,2,0,0,0,680.534485
939,1072,1,0,0,0,717.274475
-1392,1066,2,0,0,0,725.227234
690,148,1,0,0,0,919.307129
-1868,-352,2,1,0,1,120.741867
375,599,1,0,0,0,918.896301
-1171,1009,2,0,0,0,761.368652
1506,1314,1,0,0,0,620.644043
-1720,1424,2,0,0,0,656.033997
519,1426,1,1,0,2,175.079803
-1422,-921,2,1,0,4,183.057724
377,1269,1,1,0,2,184.202438
-61,-802,2,0,0,0,949.323669
582,-1034,1,0,0,0,769.827271
-777,-769,2,0,0,0,860.948364
233,541,1,0,0,0,971.366882
-1527,-562,2,1,0,4,163.988907
755,-664,1,0,0,0,817.416687
-938,146,2,1,0,1,120.741867
1058,-1870,1,0,0,0,600.081299
-911,-648,2,1,0,4,274.065399
673,848,1,0,0,0,796.161926
-760,-1052,2,0,0,0,811.596191
299,-1058,1,0,0,0,791.727844
-1832,584,2,0,0,0,698.785156
1242,360,1,0,0,0,745.138184
-1614,972,2,0,0,0,704.613342
1711,531,1,1,0,2,120.051758
-1628,-989,2,1,0,4,157.466263
1372,1949,1,0,0,0,570.658752
-334,438,2,0,0,0,1058.455078
33,980,1,1,0,1,120.741867
-947,-318,2,0,0,0,886.897705
1831,-1640,1,0,0,0,561.941956
-1085,1147,2,0,0,0,755.282227
577,1265,1,0,0,0,724.342773
-117,1006,2,0,0,0,882.943481
1748,-1659,1,1,0,7,167.905365
-809,1674,2,0,0,0,708.415527
1034,224,1,1,0,2,151.252365
-986,1097,2,1,0,1,120.741867
1214,284,1,0,0,0,755.611206
-1254,468,2,0,0,0,802.724365
1231,1276,1,0,0,0,654.794556
-301,-698,2,1,0,4,216.473328
961,-499,1,0,0,0,796.101868
-73,368,2,0,0,0,1169.210205
816,-822,1,0,0,0,776.757874
-215,-1020,2,1,0,4,200.503906
1699,135,1,1,0,2,105.390350
-1303,-1903,2,0,0,0,646.807800
16,1743,1,0,0,0,659.655151
-637,625,2,1,0,1,120.741867
59,1538,1,0,0,0,695.229797
-1895,-643,2,0,0,0,687.364685
954,160,1,0,0,0,828.532288
-1703,-385,2,1,0,1,120.741867
1829,-927,1,0,0,0,613.357056
-1880,1681,2,0,0,0,621.341614
850,753,1,0,0,0,782.438965
-1165,-1873,2,0,0,0,659.535522
922,-354,1,1,0,7,167.905365
-948,-614,2,0,0,0,851.556335
404,721,1,0,0,0,873.813721
-201,1234,2,0,0,0,822.327576
216,-1530,1,0,0,0,694.108643
-16,-1820,2,0,0,0,714.514404
1460,898,1,0,0,0,664.448975
-1528,47,2,1,0,1,120.741867
1618,-1470,1,0,0,0,595.167786
-465,-1150,2,1,0,4,229.338593
1562,852,1,0,0,0,653.789612
-605,1254,2,0,0,0,791.392639
190,1701,1,0,0,0,664.862976
-1504,1054,2,0,0,0,711.931396
1731,-1885,1,0,0,0,550.554138
-1880,957,2,1,0,1,120.741867
564,854,1,0,0,0,812.318726
-1547,-1161,2,0,0,0,697.097534
1280,-623,1,0,0,0,717.583313
-1973,324,2,0,0,0,687.606628
1549,-781,1,0,0,0,661.021973
-1117,-456,2,0,0,0,832.576782
1307,303,1,0,0,0,734.568481
-687,509,2,0,0,0,931.712646
468,-802,1,0,0,0,840.296021
-1589,-827,2,1,0,4,162.799988
447,1559,1,0,0,0,680.259216
-1586,325,2,0,0,0,748.087463
353,459,1,0,0,0,976.301208
-596,1622,2,0,0,0,729.386536
1096,1485,1,0,0,0,643.335754
-1299,-484,2,1,0,4,185.296219
1297,-452,1,1,0,7,167.905365
-1463,26,2,0,0,0,777.120911
1125,-1547,1,0,0,0,633.147583
-228,-479,2,0,0,0,1069.295410
2,-477,1,0,0,0,1032.181152
-771,677,2,0,0,0,879.197327
1997,966,1,0,0,0,591.002625
-1239,1804,2,1,0,1,120.741867
35,-971,1,1,0,4,167.937256
-869,-1805,2,1,0,4,150.123444
103,-314,1,1,0,0,212.478134
-1624,227,2,0,0,0,744.419250
683,818,1,0,0,0,800.698059
-779,489,2,1,0,1,120.741867
1729,-1192,1,0,0,0,606.565674
-99,495,2,0,0,0,1083.610962
634,-134,1,0,0,0,943.875549
-1646,-403,2,0,0,0,734.985901
1897,1920,1,0,0,0,535.557739
-1578,-484,2,0,0,0,742.541504
1018,-1625,1,0,0,0,632.444031
-1964,1786,2,0,0,0,606.754944
846,1437,1,0,0,0,672.311340
-1912,-1319,2,1,0,4,126.040222
1118,732,1,0,0,0,735.713074
-307,1142,2,0,0,0,838.343994
738,-301,1,0,0,0,884.259277
-158,-1019,2,1,0,4,191.808472
1832,1614,1,0,0,0,563.848083
-1790,1358,2,1,0,1,120.741867
844,26,1,0,0,0,867.636414
-1644,6,2,0,0,0,743.681458
1098,-1878,1,0,0,0,596.550781
-1417,-859,2,0,0,0,741.417725
1344,-350,1,0,0,0,724.663269
-175,-2000,2,1,0,4,123.727020
349,-1737,1,1,0,7,167.905365
-41,-1282,2,1,0,4,163.810928
35,-1990,1,0,0,0,621.835632
-1906,983,2,0,0,0,667.572632
600,778,1,0,0,0,824.058411
-868,1490,2,0,0,0,729.991455
1267,1082,1,0,0,0,672.551575
-992,-614,2,0,0,0,842.238525
78,1599,1,1,0,1,120.741867
-1009,-1964,2,0,0,0,659.242065
945,1833,1,1,0,2,127.573227
-1140,611,2,1,0,1,120.741867
748,1129,1,0,0,0,731.879028
-613,-42,2,1,0,1,120.741867
1607,1981,1,0,0,0,551.478760
-1146,641,2,0,0,0,808.231140
24,167,1,0,0,0,1331.964111
-915,355,2,1,0,1,120.741867
362,-890,1,0,0,0,830.477600
-245,22,2,1,0,0,381.144470
814,-111,1,0,0,0,875.539185
-703,1609,2,0,0,0,724.804749
556,235,1,0,0,0,964.319641
-1801,1588,2,1,0,1,120.741867
1800,254,1,1,0,2,104.364326
-483,554,2,0,0,0,975.299744
1946,1173,1,0,0,0,584.203979
-290,1431,2,0,0,0,777.738220
1499,1485,1,1,0,2,127.287842
-1976,-1904,2,1,0,4,103.508865
910,959,1,0,0,0,738.794739
-94,-1879,2,0,0,0,705.029419
1187,1597,1,0,0,0,621.905640
-132,-489,2,0,0,0,1082.641602
12,-1039,1,0,0,0,807.959229
-1437,-631,2,0,0,0,757.002319
1982,1173,1,0,0,0,580.374390
-517,1857,2,0,0,0,698.072327
1574,118,1,0,0,0,688.017517
-1042,857,2,0,0,0,800.442566
624,-712,1,0,0,0,834.718323
-319,1032,2,0,0,0,864.397583
647,-1494,1,1,0,7,167.905365
-62,-810,2,1,0,4,181.212891
1979,-317,1,0,0,0,619.851807
-1768,-499,2,0,0,0,711.851074
395,-1736,1,0,0,0,653.610596
-880,102,2,0,0,0,921.492920
556,-1988,1,0,0,0,611.452026
-61,1460,2,0,0,0,777.505371
519,973,1,0,0,0,790.859863
-426,651,2,0,0,0,958.911194
1124,108,1,0,0,0,784.059692
-260,-671,2,0,0,0,981.392700
1028,-543,1,0,0,0,775.681396
-1123,-357,2,0,0,0,839.359253
1535,533,1,1,0,2,135.463852
-137,623,2,0,0,0,1016.142639
61,1435,1,0,0,0,715.031799
-723,426,2,0,0,0,937.101624
167,-1288,1,0,0,0,743.885559
-510,813,2,0,0,0,898.437561
29,1283,1,0,0,0,747.319519
-1919,-1395,2,0,0,0,638.746765
416,-1018,1,0,0,0,791.654907
-258,1687,2,1,0,1,120.741867
1438,-244,1,1,0,7,167.905365
-768,1525,2,0,0,0,732.819214
1507,-1093,1,0,0,0,640.876770
-1808,-287,2,0,0,0,712.855835
991,-1236,1,0,0,0,686.966370
-1563,-289,2,1,0,1,120.741867
1002,-750,1,0,0,0,754.502991
-1025,1781,2,0,0,0,679.780212
1612,-569,1,0,0,0,665.214233
-1709,-529,2,0,0,0,719.448181
1764,1795,1,1,0,2,96.526382
-325,1073,2,0,0,0,853.686279
403,157,1,0,0,0,1060.420288
-812,-142,2,0,0,0,942.244446
927,602,1,0,0,0,790.194824
-782,-1263,2,1,0,4,229.236908
39,1192,1,1,0,1,120.741867
-1880,1487,2,0,0,0,635.814758
267,-289,1,0,0,0,1087.702881
-249,-1216,2,0,0,0,824.412537
396,-529,1,0,0,0,938.242432
-821,1521,2,1,0,1,120.741867
677,-1691,1,0,0,0,647.095764
-1487,981,2,0,0,0,720.661682
387,1163,1,0,0,0,760.505310
-1253,139,2,0,0,0,819.940125
815,642,1,0,0,0,808.396057
-153,32,2,0,0,0,1421.800659
1822,536,1,0,0,0,635.181396
-150,525,2,0,0,0,1060.983887
799,1962,1,0,0,0,604.089111
-1614,-1715,2,0,0,0,640.848450
106,1537,1,1,0,1,120.741867
-587,-97,2,0,0,0,1036.226807
1441,-1253,1,0,0,0,633.629150
-1285,1812,2,0,0,0,657.519043
66,1119,1,0,0,0,786.161987
-1585,1617,2,1,0,1,120.741867
1354,1681,1,0,0,0,598.770569
-1912,1633,2,0,0,0,622.188232
538,-450,1,1,0,7,167.905365
-1668,998,2,0,0,0,695.685364
1679,450,1,0,0,0,660.445007
-1982,986,2,0,0,0,658.507690
1872,-1892,1,0,0,0,539.495850
-1943,-1827,2,0,0,0,605.428284
705,633,1,0,0,0,834.494751
-1213,1815,2,0,0,0,662.494019
632,-217,1,0,0,0,935.027039
-956,716,2,1,0,1,120.741867
1154,241,1,0,0,0,771.683167
-838,1543,2,1,0,1,120.741867
152,422,1,0,0,0,1049.921265
-1358,-48,2,0,0,0,798.384583
1847,-927,1,0,0,0,611.136780
-323,-717,2,0,0,0,955.816406
1061,1549,1,0,0,0,638.453064
-689,855,2,0,0,0,859.670959
624,-972,1,0,0,0,777.550049
-1125,480,2,0,0,0,828.639893
896,-322,1,0,0,0,833.093994
-1454,-923,2,0,0,0,730.352600
917,1637,1,0,0,0,638.633850
-1747,1639,2,1,0,1,120.741867
1128,-422,1,1,0,7,167.905365
-1528,642,2,0,0,0,741.356018
207,-1160,1,1,0,7,167.905365
-1445,-1190,2,1,0,4,170.384583
156,-1818,1,0,0,0,646.595825
-580,-407,2,1,0,4,216.379990
1904,387,1,0,0,0,628.695679
-1189,140,2,0,0,0,834.797668
754,-933,1,0,0,0,766.687744
-1195,-1548,2,0,0,0,693.950012
613,-1911,1,0,0,0,619.471069
-1440,-1280,2,1,0,4,165.762848
1596,-513,1,0,0,0,670.793091
-753,-621,2,0,0,0,893.583496
1234,509,1,0,0,0,736.027466
-679,947,2,0,0,0,842.578125
1675,-235,1,0,0,0,668.250244
-1031,-1808,2,0,0,0,676.128967
1328,1398,1,0,0,0,630.862610
-1010,74,2,0,0,0,882.964478
1849,114,1,1,0,2,96.570564
-1186,1592,2,0,0,0,689.648193
3,-239,1,1,0,0,330.502045
-1790,-756,2,1,0,4,142.615402
980,182,1,0,0,0,819.912354
-524,-1084,2,0,0,0,833.170288
1391,1141,1,0,0,0,650.623962
-201,-1454,2,0,0,0,776.220032
1087,978,1,1,0,2,219.588501
-399,-1348,2,1,0,4,192.789322
340,-1723,1,1,0,7,167.905365
-222,-85,2,0,0,0,1300.845459
1080,730,1,1,0,2,213.294769
-1343,174,2,0,0,0,799.364075
667,108,1,1,0,2,144.256165
-1374,768,2,0,0,0,756.156006
1592,-1133,1,0,0,0,627.076538
-1710,92,2,0,0,0,731.980042
882,-1040,1,0,0,0,729.908875
-937,-1059,2,0,0,0,786.948303
1437,1838,1,0,0,0,576.711365
-199,-1781,2,0,0,0,718.954529
1620,-1525,1,0,0,0,590.173279
-1080,1870,2,0,0,0,665.593140
1117,-732,1,0,0,0,735.892700
-371,40,2,1,0,0,224.351776
1135,-1428,1,0,0,0,646.683777
-1426,1578,2,0,0,0,669.939392
282,-1978,1,0,0,0,620.737549
-913,1958,2,0,0,0,665.469727
1944,872,1,0,0,0,602.462402
-878,-1547,2,0,0,0,721.088379
1487,1660,1,0,0,0,589.694275
-1963,16,2,1,0,1,120.741867
350,-1603,1,1,0,7,167.905365
-1760,1151,2,1,0,1,120.741867
446,-1273,1,0,0,0,733.032593
-1462,235,2,0,0,0,773.699402
89,-558,1,0,0,0,983.349854
-292,-27,2,0,0,0,1240.280762
1132,-498,1,0,0,0,757.940430
-616,-533,2,0,0,0,945.669373
1697,1757,1,0,0,0,563.714417
-757,1969,2,1,0,1,120.741867
581,1798,1,0,0,0,636.635437
-575,-1446,2,0,0,0,759.446350
1266,365,1,0,0,0,739.766235
-1290,1765,2,1,0,1,120.741867
683,376,1,0,0,0,890.602051
-968,1106,2,0,0,0,775.837830
1544,644,1,0,0,0,671.390015
-929,-1137,2,0,0,0,776.133972
931,-1719,1,0,0,0,626.943420
-549,-282,2,1,0,4,193.838028
683,-1328,1,1,0,7,167.905365
-1153,906,2,1,0,1,120.741867
487,-697,1,0,0,0,865.638855
-1402,1889,2,0,0,0,641.164551
1102,1878,1,0,0,0,596.286926
-812,707,2,1,0,1,120.741867
600,614,1,1,0,2,230.058838
-1275,866,2,0,0,0,762.196472
1297,1262,1,0,0,0,648.954712
-583,-1675,2,0,0,0,721.932190
1089,-1631,1,0,0,0,626.038635
-669,1796,2,0,0,0,699.721313
924,-1648,1,0,0,0,636.662720
-821,860,2,0,0,0,836.786194
1673,825,1,0,0,0,640.307983
-1416,920,2,1,0,1,120.741867
252,1121,1,1,0,2,180.979660
-84,1354,2,1,0,1,120.741867
1125,-1520,1,0,0,0,636.409607
-1486,1459,2,0,0,0,675.962463
885,1315,1,0,0,0,686.814087
-1735,425,2,1,0,1,120.741867
94,-26,1,0,0,0,1490.091553
-963,-1714,2,0,0,0,692.430237
604,731,1,0,0,0,834.260803
-692,628,2,0,0,0,906.114502
1250,1633,1,0,0,0,612.526917
-8,1553,2,0,0,0,760.020508
211,-1561,1,0,0,0,688.601990
-354,545,2,0,0,0,1010.773132
801,-1827,1,0,0,0,621.183105
-626,-1305,2,0,0,0,780.249878
921,725,1,0,0,0,773.338623
-1950,328,2,0,0,0,690.776917
962,-1889,1,0,0,0,603.901672
-1350,-601,2,0,0,0,774.287903
332,1398,1,1,0,2,163.808411
-732,-559,2,0,0,0,910.287598
1396,810,1,0,0,0,681.645203
-1235,-201,2,0,0,0,822.100769
501,-1561,1,1,0,7,167.905365
-575,861,2,0,0,0,876.598877
1152,-487,1,0,0,0,754.707458
-1640,-1799,2,1,0,4,122.666054
121,-566,1,0,0,0,976.427307
-977,531,2,0,0,0,856.047913
364,-1976,1,1,0,7,167.905365
-631,1332,2,0,0,0,775.034119
251,920,1,0,0,0,832.634705
-1825,1308,2,1,0,1,120.741867
1487,-1459,1,0,0,0,608.854553
-1833,-235,2,0,0,0,710.151489
1813,-1560,1,0,0,0,569.675842
-1641,-868,2,0,0,0,708.849304
677,727,1,0,0,0,820.880249
-360,-1608,2,0,0,0,743.020020
240,1313,1,1,0,1,120.741867
-1661,758,2,0,0,0,713.616516
1720,1392,1,1,0,2,115.234596
-1975,-858,2,0,0,0,666.407715
1957,1427,1,0,0,0,566.120361
-5,504,2,0,0,0,1084.055786
831,-551,1,0,0,0,819.819885
-492,-1150,2,0,0,0,822.198242
1608,504,1,0,0,0,669.311401
-552,705,2,0,0,0,918.420105
1765,546,1,0,0,0,643.047180
-923,-793,2,0,0,0,830.113037
1674,-764,1,1,0,7,167.905365
-1921,-1615,2,0,0,0,622.728821
165,-283,1,0,0,0,1140.545532
-452,513,2,0,0,0,996.139648
1245,1073,1,0,0,0,676.448120
-481,-654,2,0,0,0,946.642700
612,-1279,1,1,0,7,167.905365
-1464,487,2,1,0,1,120.741867
1442,-1349,1,0,0,0,624.087036
-1825,-1894,2,0,0,0,609.385742
713,-235,1,0,0,0,901.489624
-610,-1135,2,0,0,0,813.657410
1586,-176,1,1,0,7,167.905365
-917,-337,2,0,0,0,893.310608
1553,1509,1,0,0,0,597.864624
-1824,-93,2,1,0,1,120.741867
381,895,1,0,0,0,826.932129
-1792,-590,2,0,0,0,704.227295
337,-1171,1,0,0,0,762.189697
-1863,922,2,0,0,0,676.491516
981,776,1,0,0,0,754.683228
-1929,128,2,0,0,0,697.239380
1856,477,1,0,0,0,632.625488
-398,-1641,2,0,0,0,736.010071
1938,-303,1,0,0,0,625.980591
-1604,1129,2,0,0,0,693.087280
1689,1769,1,0,0,0,563.354370
-798,1286,2,0,0,0,767.425964
389,-1843,1,0,0,0,637.532349
-1745,16,2,0,0,0,726.573303
246,-496,1,0,0,0,989.224182
-338,1353,2,0,0,0,790.925720
1439,-203,1,0,0,0,711.670471
-92,-645,2,1,0,4,181.208466
1578,457,1,0,0,0,676.576172
-1582,1140,2,0,0,0,694.775818
1676,1033,1,0,0,0,624.933105
-26,1151,2,0,0,0,846.049438
1377,622,1,0,0,0,700.516724
-893,1629,2,0,0,0,708.650513
1164,1898,1,0,0,0,589.964905
-279,1345,2,0,0,0,795.274658
1259,-128,1,1,0,7,167.905365
-1979,1783,2,0,0,0,605.781250
1173,519,1,0,0,0,747.462402
-449,1568,2,0,0,0,745.957397
1265,-187,1,0,0,0,748.345520
-776,-294,2,0,0,0,940.327209
1984,-1348,1,0,0,0,568.867615
-1208,-1504,2,1,0,4,167.451004
1980,-113,1,0,0,0,622.850891
-592,-1921,2,1,0,4,139.313278
1997,1909,1,0,0,0,529.006836
-976,-312,2,1,0,4,196.851486
407,-176,1,1,0,7,167.905365
-301,-624,2,0,0,0,992.335266
1126,-1991,1,0,0,0,582.319092
-1103,1884,2,1,0,1,120.741867
1518,-1072,1,0,0,0,641.379211
-583,1142,2,0,0,0,815.073181
477,-812,1,1,0,7,167.905365
-1123,-852,2,0,0,0,787.843201
1899,-851,1,0,0,0,609.164246
-1920,-268,2,0,0,0,696.445129
1778,140,1,0,0,0,653.108948
-1716,1411,2,0,0,0,657.489929
1674,-981,1,0,0,0,629.086731
-1581,74,2,0,0,0,754.581421
1864,1181,1,0,0,0,592.507141
-64,-836,2,0,0,0,937.350159
1205,1515,1,0,0,0,629.746033
-1238,-880,2,0,0,0,766.398987
980,-1618,1,0,0,0,636.317993
-1539,-1089,2,0,0,0,704.425232
366,-1535,1,1,0,7,167.905365
-836,764,2,0,0,0,850.781128
1447,1901,1,0,0,0,569.997009
-1763,1360,2,0,0,0,656.849487
733,-432,1,0,0,0,865.452820
-1127,418,2,1,0,1,120.741867
6,1693,1,0,0,0,667.979187
-313,57,2,0,0,0,1216.767944
1086,-740,1,0,0,0,740.510498
-1339,-1015,2,0,0,0,737.432129
1093,366,1,0,0,0,778.149231
-514,-732,2,0,0,0,918.727234
1141,-295,1,1,0,7,167.905365
-1452,-699,2,1,0,4,177.364273
564,-1523,1,1,0,7,167.905365
-1959,-576,2,0,0,0,681.590698
982,-1520,1,0,0,0,648.960510
-1031,-1083,2,1,0,4,241.224411
278,-351,1,0,0,0,1050.426025
-1419,-1013,2,0,0,0,726.834961
462,-893,1,0,0,0,817.420471
-670,1387,2,0,0,0,762.372742
933,718,1,0,0,0,772.074646
-1400,1137,2,1,0,1,120.741867
1668,-86,1,0,0,0,671.852905
-1446,506,2,0,0,0,763.936951
241,-1800,1,0,0,0,647.946533
-1217,-155,2,0,0,0,827.768799
51,1760,1,0,0,0,656.776001
-233,-669,2,0,0,0,985.912964
1077,1478,1,0,0,0,645.956604
-1232,-777,2,0,0,0,778.434326
1133,176,1,0,0,0,779.664001
-331,1093,2,1,0,1,120.741867
55,1545,1,1,0,1,120.741867
-1703,809,2,1,0,1,120.741867
819,1526,1,1,0,2,165.682068
-330,850,2,0,0,0,913.186279
495,215,1,0,0,0,996.594604
-257,-1636,2,0,0,0,741.586304
434,1809,1,1,0,1,120.741867
-314,-381,2,0,0,0,1090.014282
489,-87,1,0,0,0,1020.528503
-1671,-1611,2,0,0,0,644.986755
1145,-1000,1,0,0,0,698.771362
-1963,-275,2,1,0,1,120.741867
1926,1231,1,0,0,0,582.512268
-966,-230,2,0,0,0,888.621521
912,-254,1,0,0,0,834.727966
-838,-278,2,1,0,4,197.631531
1907,42,1,1,0,7,167.905365
-272,-1279,2,0,0,0,809.434387
681,1238,1,0,0,0,719.729309
-1856,1939,2,1,0,1,120.741867
861,729,1,0,0,0,784.316589
-698,865,2,0,0,0,856.171509
1715,-586,1,0,0,0,648.529907
-597,230,2,0,0,0,1015.291077
1254,-1250,1,1,0,7,167.905365
-655,-28,2,0,0,0,1008.246887
224,-1646,1,0,0,0,673.404663
-531,1493,2,0,0,0,754.239563
1605,712,1,1,0,2,134.474365
-1835,-1760,2,1,0,4,115.115425
627,1848,1,1,0,2,127.624741
-670,87,2,0,0,0,999.572937
1278,-245,1,0,0,0,743.335693
-230,411,2,0,0,0,1103.612305
145,773,1,0,0,0,888.092468
-610,-964,2,1,0,4,308.129974
221,1873,1,1,0,1,120.741867
-1443,1090,2,0,0,0,716.355835
455,1322,1,1,0,2,185.737823
-1979,-412,2,1,0,1,120.741867
1571,-757,1,0,0,0,659.524231
-502,-1250,2,0,0,0,800.893982
387,-1037,1,0,0,0,789.795044
-1423,1877,2,0,0,0,640.801392
1239,908,1,1,0,2,187.631058
-219,1403,2,1,0,1,120.741867
910,871,1,0,0,0,752.661072
-1086,493,2,0,0,0,835.893250
1387,413,1,1,0,2,142.604782
-1918,-1177,2,0,0,0,653.821960
93,1791,1,1,0,1,120.741867
-1879,-109,2,0,0,0,704.906372
581,-1116,1,0,0,0,752.998352
-512,-1466,2,1,0,4,185.216217
763,-669,1,0,0,0,814.766357
-1258,-1142,2,0,0,0,734.238525
444,-203,1,0,0,0,1025.489014
-1399,-104,2,0,0,0,789.224670
1821,397,1,0,0,0,640.549927
-1234,-511,2,0,0,0,803.340637
19,168,1,1,0,0,470.597565
-497,-219,2,0,0,0,1062.517700
1459,183,1,0,0,0,708.303345
-562,-1696,2,0,0,0,719.818420
1839,1436,1,0,0,0,576.690430
-1919,-769,2,0,0,0,678.052551
1041,-1756,1,0,0,0,614.626282
-1079,1546,2,0,0,0,704.428711
1739,1845,1,1,0,2,95.586418
-1484,276,2,0,0,0,768.190613
617,-1631,1,0,0,0,659.535522
-1316,595,2,0,0,0,780.869568
74,612,1,0,0,0,958.256897
-779,-1305,2,0,0,0,766.223450
477,1506,1,0,0,0,687.778503
-380,-1211,2,1,0,4,208.284393
425,-1343,1,0,0,0,720.602539
-926,309,2,0,0,0,893.537231
1831,-838,1,0,0,0,618.516418
-1756,433,2,1,0,1,120.741867
341,-1963,1,0,0,0,621.536865
-1785,-1922,2,1,0,4,110.622414
574,258,1,0,0,0,952.307678
-350,-1477,2,1,0,4,174.077362
55,-1418,1,0,0,0,718.489929
-1401,870,2,0,0,0,742.785950
641,721,1,0,0,0,829.301819
-114,834,2,0,0,0,936.215149
396,-1900,1,1,0,7,167.905365
-1607,655,2,0,0,0,728.173523
1489,116,1,1,0,2,116.233986
-791,-1883,2,0,0,0,681.525146
1738,-623,1,0,0,0,643.238281
-7,-1014,2,0,0,0,882.590210
1673,1130,1,0,0,0,617.780579
-174,-982,2,0,0,0,887.379517
1525,-227,1,0,0,0,694.733582
-508,341,2,0,0,0,1028.162231
1896,-593,1,0,0,0,622.370483
-1551,1215,2,0,0,0,691.814697
1092,863,1,0,0,0,724.040649
-1135,1366,2,0,0,0,721.537964
767,1877,1,0,0,0,616.543640
-448,1215,2,0,0,0,812.227051
1458,-186,1,0,0,0,708.423096
-1049,228,2,1,0,1,120.741867
128,518,1,0,0,0,999.868896
-572,877,2,0,0,0,873.363647
615,752,1,1,0,2,277.236633
-807,639,2,1,0,1,120.741867
1173,1030,1,0,0,0,691.185852
-365,783,2,0,0,0,928.736084
1979,765,1,0,0,0,603.652100
-704,1363,2,0,0,0,763.544067
1601,1569,1,0,0,0,588.041870
-1222,233,2,1,0,1,120.741867
588,64,1,0,0,0,970.179932
-1406,-440,2,1,0,4,170.399338
15,1935,1,1,0,1,120.741867
-724,-1431,2,1,0,4,197.168365
1927,-660,1,0,0,0,615.251709
-611,-1423,2,0,0,0,760.833374
1260,-898,1,1,0,7,167.905365
-61,-829,2,0,0,0,939.836487
64,-1615,1,0,0,0,681.239502
-376,-980,2,0,0,0,872.648315
486,409,1,0,0,0,949.627380
-1197,-838,2,1,0,4,221.994492
826,-1812,1,0,0,0,621.681396
-925,-744,2,0,0,0,837.242798
493,-150,1,0,0,0,1009.909973
-1437,243,2,1,0,1,120.741867
223,1886,1,1,0,1,120.741867
-1434,1223,2,0,0,0,704.520325
311,-861,1,0,0,0,844.388794
-13,1143,2,0,0,0,848.110962
55,-657,1,1,0,4,164.083801
-194,-591,2,1,0,4,192.158279
389,1050,1,0,0,0,786.470337
-671,1034,2,0,0,0,826.410461
913,-1769,1,0,0,0,621.777893
-674,598,2,0,0,0,916.607849
395,1642,1,0,0,0,668.683411
-1666,-402,2,0,0,0,731.755371
1473,-1244,1,1,0,7,167.905365
-967,1573,2,0,0,0,710.390503
362,416,1,0,0,0,990.372131
-1060,1574,2,1,0,1,120.741867
24,-1181,1,0,0,0,771.112122
-1813,826,2,0,0,0,688.628662
780,-69,1,0,0,0,889.353210
-1964,1589,2,0,0,0,620.849060
1182,-862,1,0,0,0,709.768066
-1375,1105,2,0,0,0,723.483521
1947,-1884,1,0,0,0,534.494141
-1404,-1685,2,0,0,0,661.156433
1255,1657,1,0,0,0,609.483887
-298,-1888,2,0,0,0,700.496094
1515,461,1,0,0,0,687.082214
-986,1730,2,0,0,0,688.778198
779,1194,1,1,0,2,236.797302
-1340,715,2,0,0,0,766.412598
1474,-1465,1,1,0,7,167.905365
-60,-1185,2,0,0,0,837.379211
838,-654,1,0,0,0,801.415283
-50,936,2,0,0,0,905.235168
1697,1329,1,1,0,2,119.196533
-367,-1298,2,0,0,0,800.499390
904,815,1,0,0,0,762.515747
-142,1300,2,0,0,0,809.405823
1223,385,1,1,0,2,155.238907
-1482,1800,2,0,0,0,643.702026
1576,1053,1,0,0,0,635.751160
-1239,-1032,2,0,0,0,749.234680
1940,1704,1,0,0,0,548.042786
-1743,-800,2,0,0,0,699.531494
1347,-1117,1,1,0,7,167.905365
-528,-1099,2,0,0,0,829.550110
1011,459,1,1,0,2,184.203857
-370,353,2,0,0,0,1079.878052
1170,-1236,1,0,0,0,666.476440
-163,1150,2,0,0,0,843.511414
1814,-1532,1,1,0,7,167.905365
-1318,966,2,0,0,0,745.416382
1468,-630,1,0,0,0,684.584473
-71,-1755,2,0,0,0,724.713135
1465,265,1,1,0,2,126.773163
-1311,677,2,0,0,0,774.726074
491,-61,1,1,0,7,167.905365
-564,-804,2,0,0,0,891.801880
1252,449,1,0,0,0,737.055786
-970,1010,2,0,0,0,789.737793
604,-312,1,0,0,0,930.065796
-1985,-1745,2,0,0,0,608.007812
1895,-1895,1,1,0,7,167.905365
-271,-110,2,1,0,0,313.056702
528,-677,1,0,0,0,862.852417
-1907,765,2,0,0,0,679.804321
571,-1764,1,0,0,0,642.031677
-521,-1416,2,0,0,0,768.312439
1257,1334,1,0,0,0,645.310181
-507,153,2,0,0,0,1069.791626
648,-1943,1,1,0,7,167.905365
-1941,-681,2,0,0,0,679.487610
1343,1987,1,0,0,0,568.905396
-1253,597,2,0,0,0,792.293945
134,-177,1,0,0,0,1252.778320
-1296,696,2,0,0,0,775.587280
1867,-435,1,0,0,0,632.522827
-1905,1202,2,0,0,0,653.546692
311,-897,1,1,0,7,167.905365
-75,-408,2,1,0,0,189.481949
1594,929,1,0,0,0,643.443237
-809,1254,2,0,0,0,771.468750
321,1837,1,0,0,0,640.387634
-1542,-1449,2,0,0,0,671.406128
1004,-1972,1,0,0,0,591.706970
-187,-1239,2,0,0,0,821.691284
940,748,1,0,0,0,766.279480
-178,194,2,0,0,0,1271.370239
208,1956,1,0,0,0,625.185425
-787,-114,2,0,0,0,952.603271
1935,-1800,1,1,0,7,167.905365
-1563,1493,2,1,0,1,120.741867
182,-1231,1,1,0,7,167.905365
-1261,663,2,0,0,0,784.791992
849,-1078,1,0,0,0,728.119141
-1716,496,2,0,0,0,719.889648
898,348,1,1,0,2,174.487198
-139,-1569,2,1,0,4,151.948288
1061,-513,1,0,0,0,771.776978
-1239,-376,2,0,0,0,812.263916
850,207,1,0,0,0,857.443237
-1536,952,2,0,0,0,716.563965
435,648,1,0,0,0,890.302856
-1128,-1587,2,1,0,4,164.030975
170,702,1,0,0,0,912.611267
1314,1724,1,0,0,0,597.565796
1854,-1194,1,0,0,0,592.691101
1890,-917,1,0,0,0,606.479065
618,-1279,1,0,0,0,718.204468
1090,-877,1,1,0,7,167.905365
1761,744,1,0,0,0,633.310242
1961,780,1,0,0,0,605.167175
980,-361,1,0,0,0,806.494690
1317,202,1,0,0,0,736.554993
85,-432,1,0,0,0,1055.278809
1052,-788,1,1,0,7,167.905365
1512,1325,1,1,0,2,134.880249
35,-477,1,0,0,0,1031.409790
263,-435,1,0,0,0,1013.846924
1103,1679,1,0,0,0,619.190308
1519,1809,1,0,0,0,573.201233
957,-1693,1,0,0,0,628.427734
692,-877,1,1,0,7,167.905365
729,486,1,0,0,0,857.013733
21,-1601,1,0,0,0,683.929260
921,-1174,1,1,0,7,167.905365
672,-1212,1,0,0,0,725.281860
5,1561,1,1,0,1,120.741867
927,-100,1,0,0,0,839.116211
138,-1758,1,1,0,7,167.905365
690,-102,1,0,0,0,922.671997
1356,968,1,0,0,0,672.564636
822,358,1,0,0,0,850.381775
1790,869,1,0,0,0,621.909912
58,-1030,1,0,0,0,810.024231
1943,-1836,1,0,0,0,538.266785
1516,-1698,1,0,0,0,583.693481
986,-911,1,0,0,0,734.404785
987,-990,1,0,0,0,722.786133
1671,1074,1,0,0,0,622.397522
107,462,1,0,0,0,1033.863770
1806,-1819,1,0,0,0,550.106506
111,-858,1,1,0,7,167.905365
1338,-1587,1,0,0,0,609.874756
1528,-938,1,0,0,0,651.603088
1101,-1840,1,1,0,7,167.905365
1096,1224,1,0,0,0,676.552063
1316,990,1,1,0,2,173.061554
925,1664,1,0,0,0,634.490234
664,296,1,0,0,0,910.744202
188,-1071,1,0,0,0,794.898315
1238,978,1,0,0,0,688.148193


each generation good chromosome number
5,9,9,