mbs coordinate
0,0

cbsd coordinate and channel
-970,900,2
740,900,1
980,-860,1
-750,-850,5
-750,1000,4
1050,600,2
760,-1135,3
-870,-1100,1
-1080,450,1
970,530,3

building coordinate
-885,985
-1055,815
830,810
650,990
1060,-860
900,-860
-830,-770
-670,-930
-668,1070
-832,930
965,675
1135,525
832,-1059
688,-1211
-965,-1035
-775,-1165
-1135,365
-1025,535
907,591
1033,469

area numbers
47,76,76,58,61,59,65,58,

x , y , block , block number
area 1
1113,1173,1,0
1492,1704,0,0
1199,1925,0,0
384,451,1,0
631,1870,0,0
976,1555,0,0
67,401,0,0
1473,1493,1,0
387,1625,0,0
277,709,1,0
51,1051,0,0
300,473,0,0
201,884,0,0
1598,1944,1,0
1168,1250,0,0
486,1400,0,0
471,1097,0,0
8,956,0,0
97,462,1,0
40,1467,0,0
969,1588,1,0
1031,1793,1,0
492,1778,0,0
1425,1829,1,0
776,1972,1,0
1194,1976,1,0
527,881,0,0
1281,1850,0,0
156,1694,0,0
1194,1942,0,0
332,890,0,0
262,1277,1,0
515,1820,0,0
365,564,0,0
635,1482,0,0
329,1666,0,0
771,968,1,0
1030,1679,0,0
1034,1704,0,0
191,469,0,0
733,1885,1,0
642,1274,0,0
115,1371,0,0
812,977,0,0
30,647,0,0
193,559,0,0
1944,1995,0,0
area 2
1645,1182,0,0
849,288,0,0
1805,361,1,0
1114,632,0,0
1458,175,1,0
429,149,0,0
1760,1077,0,0
1878,1136,0,0
1753,372,1,0
623,80,0,0
1929,1169,1,0
1897,1250,1,0
1942,1104,1,0
1237,470,0,0
1951,1627,1,0
961,175,1,0
998,133,0,0
1719,32,0,0
1745,210,0,0
1628,521,0,0
1130,395,0,0
1284,787,0,0
1272,875,0,0
1717,201,0,0
1633,174,1,0
940,27,1,0
1979,1576,0,0
131,39,1,0
1898,1499,1,0
1522,560,0,0
1116,195,0,0
1254,930,0,0
1731,1482,0,0
576,324,0,0
1375,453,0,0
1823,1214,0,0
672,387,0,0
1603,299,0,0
1209,130,0,0
1074,1009,0,0
1592,228,0,0
1998,190,0,0
784,215,0,0
940,202,0,0
898,431,1,0
1765,278,0,0
1791,1615,1,0
1670,971,0,0
1610,330,0,0
1979,391,0,0
506,320,1,0
714,570,0,0
1938,685,0,0
1350,294,0,0
436,177,0,0
995,980,0,0
1314,1057,0,0
931,481,0,0
1949,221,1,0
1718,1078,0,0
1488,557,0,0
1098,986,1,0
1936,1394,0,0
955,608,0,0
1011,823,0,0
1287,1123,0,0
721,547,0,0
1617,193,1,0
548,461,0,0
1738,1403,0,0
1406,1012,0,0
1610,493,0,0
1125,176,0,0
968,830,0,0
1048,103,0,0
1721,1473,0,0
area 3
-1095,1089,0,0
-1914,1570,0,0
-1343,1043,1,0
-665,475,1,0
-1458,462,1,0
-684,305,1,0
-1797,1758,0,0
-695,680,0,0
-1743,695,0,0
-1442,637,0,0
-1831,437,0,0
-1012,285,0,0
-1399,858,0,0
-1903,359,0,0
-596,244,0,0
-544,410,0,0
-1309,211,0,0
-1726,34,1,0
-1533,1456,1,0
-1005,683,0,0
-1747,748,0,0
-639,407,0,0
-1054,132,0,0
-1172,203,0,0
-1851,1292,0,0
-318,238,0,0
-1300,726,0,0
-992,785,0,0
-1003,693,0,0
-1803,1036,1,0
-1143,295,1,0
-1916,1808,0,0
-770,67,0,0
-222,173,0,0
-1357,257,0,0
-1828,893,0,0
-1613,1181,0,0
-1257,693,0,0
-1113,1110,0,0
-509,429,1,0
-1470,214,1,0
-1363,755,0,0
-1223,501,0,0
-1879,598,1,0
-1877,210,0,0
-203,170,0,0
-740,275,0,0
-1978,1908,0,0
-736,114,0,0
-1781,25,0,0
-1033,658,1,0
-937,534,0,0
-1660,1423,0,0
-1053,752,1,0
-1606,469,0,0
-972,886,0,0
-837,762,0,0
-1657,1258,0,0
-1176,282,0,0
-1654,1054,0,0
-1725,1254,1,0
-1238,517,0,0
-1719,1631,0,0
-1217,531,1,0
-1008,679,0,0
-1611,273,0,0
-1940,673,0,0
-1815,1811,1,0
-1512,1246,0,0
-1946,1768,0,0
-1264,843,0,0
-1484,1208,0,0
-1363,299,0,0
-1708,164,0,0
-347,237,0,0
-560,453,1,0
area 4
-618,1202,1,0
-145,830,1,0
-1282,1829,0,0
-621,1228,0,0
-75,525,1,0
-409,1582,0,0
-269,1722,1,0
-966,1275,0,0
-1131,1637,0,0
-296,823,0,0
-124,833,0,0
-157,1568,1,0
-423,1335,0,0
-1545,1920,0,0
-757,879,0,0
-778,1627,0,0
-1191,1996,0,0
-1105,1992,0,0
-265,1606,0,0
-296,1644,0,0
-91,1749,1,0
-469,609,0,0
-100,1666,0,0
-1373,1441,1,0
-1048,1735,0,0
-146,968,0,0
-1232,1870,0,0
-1174,1644,1,0
-558,1248,0,0
-1554,1690,0,0
-245,951,0,0
-1007,1234,0,0
-609,641,0,0
-183,882,1,0
-16,1779,0,0
-1057,1252,1,0
-670,1859,0,0
-181,253,0,0
-923,1926,0,0
-323,1787,0,0
-439,1723,0,0
-201,931,0,0
-419,949,1,0
-1123,1280,0,0
-384,1687,0,0
-1361,1857,0,0
-938,1728,0,0
-247,717,0,0
-1085,1953,0,0
-1092,1586,0,0
-227,1287,0,0
-601,1639,0,0
-51,289,1,0
-19,1598,0,0
-1437,1990,0,0
-898,1766,0,0
-432,1069,0,0
-688,1752,1,0
area 5
-296,-695,0,0
-885,-1354,0,0
-655,-1282,0,0
-895,-1674,0,0
-473,-1568,1,0
-494,-1852,0,0
-249,-1248,0,0
-384,-1107,1,0
-746,-967,0,0
-423,-1514,1,0
-269,-352,1,0
-693,-1797,0,0
-1282,-1655,1,0
-196,-1768,0,0
-1244,-1393,0,0
-668,-1980,0,0
-384,-1381,1,0
-1164,-1709,0,0
-508,-1133,0,0
-1114,-1991,0,0
-1436,-1607,0,0
-77,-459,0,0
-701,-1480,0,0
-1243,-1431,0,0
-303,-929,0,0
-861,-1060,0,0
-370,-1797,0,0
-965,-1205,0,0
-932,-1007,1,0
-937,-1785,1,0
-221,-1115,1,0
-633,-1675,0,0
-1129,-1622,1,0
-744,-1020,0,0
-1761,-1805,0,0
-864,-1878,0,0
-892,-1290,0,0
-178,-930,0,0
-651,-1219,0,0
-163,-1059,0,0
-135,-1096,0,0
-1274,-1822,0,0
-244,-1269,0,0
-822,-1726,1,0
-664,-791,0,0
-1086,-1176,0,0
-948,-1517,0,0
-649,-1631,0,0
-1348,-1559,0,0
-1099,-1279,0,0
-23,-63,0,0
-1324,-1500,0,0
-980,-1428,0,0
-961,-1263,0,0
-201,-321,0,0
-705,-1579,1,0
-755,-847,0,0
-831,-1510,1,0
-614,-1528,0,0
-602,-1165,0,0
-969,-1980,0,0
area 6
-1639,-1571,1,0
-1751,-1426,1,0
-1174,-104,1,0
-1893,-325,1,0
-1150,-349,0,0
-874,-844,0,0
-1483,-238,0,0
-1722,-1436,0,0
-528,-50,0,0
-1991,-196,1,0
-1684,-1045,0,0
-1784,-638,0,0
-1082,-189,0,0
-1245,-246,1,0
-736,-193,0,0
-1336,-514,0,0
-1542,-636,1,0
-1757,-641,0,0
-1333,-826,0,0
-1871,-1162,0,0
-1850,-310,0,0
-1892,-668,0,0
-864,-4,0,0
-690,-140,0,0
-1873,-1104,0,0
-1881,-988,0,0
-1885,-1391,0,0
-1658,-398,0,0
-1542,-285,0,0
-1515,-571,1,0
-1997,-1941,0,0
-1867,-1780,0,0
-1805,-219,0,0
-773,-363,1,0
-1982,-956,0,0
-1586,-365,0,0
-1912,-1609,0,0
-1634,-1258,1,0
-896,-431,0,0
-1922,-1053,0,0
-1141,-1122,0,0
-1410,-831,1,0
-1726,-1643,0,0
-879,-593,0,0
-1619,-367,0,0
-1195,-636,1,0
-1780,-1114,0,0
-1896,-562,1,0
-1574,-1133,0,0
-513,-443,0,0
-1662,-1082,0,0
-533,-18,0,0
-1372,-377,0,0
-979,-400,0,0
-1823,-1500,1,0
-1930,-468,0,0
-1696,-861,1,0
-1739,-925,0,0
-990,-182,0,0
area 7
1715,-1093,0,0
1496,-485,0,0
1996,-1794,0,0
1755,-1642,0,0
1831,-175,0,0
1140,-743,0,0
1156,-111,0,0
1053,-138,0,0
1392,-577,0,0
1285,-35,0,0
1366,-929,1,0
1429,-1416,0,0
1113,-385,0,0
834,-300,1,0
1467,-658,0,0
1546,-343,1,0
1538,-412,1,0
839,-246,0,0
579,-121,0,0
146,-124,1,0
1987,-1178,1,0
1842,-1484,0,0
1822,-1332,0,0
791,-741,0,0
845,-188,0,0
1949,-1574,0,0
1854,-1540,1,0
1024,-505,0,0
1302,-1119,0,0
773,-772,0,0
1963,-1927,0,0
1388,-161,1,0
947,-413,0,0
1545,-490,1,0
1948,-1745,1,0
1945,-348,0,0
1041,-806,0,0
1246,-810,0,0
1962,-1911,0,0
752,-437,0,0
1438,-1200,0,0
1117,-43,0,0
1418,-138,0,0
974,-82,1,0
507,-73,0,0
616,-102,1,0
1260,-116,0,0
1562,-1484,1,0
1367,-1272,1,0
1831,-581,0,0
1321,-812,0,0
1350,-261,0,0
1928,-1731,0,0
1042,-603,0,0
1121,-490,0,0
711,-502,0,0
1225,-481,0,0
1179,-645,0,0
1745,-1175,0,0
1573,-787,0,0
1925,-820,0,0
1350,-847,0,0
766,-645,1,0
896,-229,0,0
1038,-123,0,0
area 8
250,-796,0,0
1692,-1931,0,0
95,-1622,0,0
537,-1124,0,0
819,-1152,0,0
1338,-1556,0,0
145,-278,0,0
315,-712,0,0
582,-1269,0,0
512,-811,0,0
1103,-1684,1,0
959,-1377,1,0
261,-827,0,0
1489,-1879,0,0
640,-1982,0,0
324,-1743,0,0
350,-651,0,0
80,-508,1,0
746,-1682,1,0
50,-910,0,0
673,-1406,0,0
1316,-1808,0,0
1165,-1663,1,0
1288,-1734,1,0
261,-965,0,0
264,-1773,0,0
614,-1692,0,0
1299,-1601,0,0
251,-1364,0,0
137,-157,0,0
368,-442,0,0
1050,-1267,1,0
240,-975,0,0
493,-1407,1,0
1226,-1737,0,0
1593,-1701,0,0
1756,-1885,0,0
1044,-1865,0,0
623,-1797,0,0
12,-192,0,0
511,-663,0,0
793,-1508,1,0
30,-654,1,0
416,-773,0,0
919,-1640,0,0
93,-216,1,0
555,-697,0,0
34,-302,0,0
1579,-1628,0,0
1273,-1931,0,0
1558,-1611,0,0
22,-1891,0,0
118,-359,1,0
96,-332,0,0
866,-1832,0,0
1412,-1754,1,0
604,-1267,1,0
113,-1285,0,0

near cbsd peopel number
29
19
24
24
25
32
16
26
34
32
