each times' max average throughput
560.544861,564.660522,564.079590,556.820068,565.765381,558.891113,563.535461,554.817810,559.989075,560.954590,555.809570,558.328979,557.990967,564.871887,562.928345,559.989075,560.331726,556.404724,560.971069,558.229736,553.508118,565.448914,554.261597,552.923706,563.997131,563.983337,558.878662,564.804504,557.119202,562.985046,559.031128,558.208313,559.455078,560.047119,556.463867,560.071655,561.236023,556.796082,555.295166,554.443420,561.181396,562.759338,562.218994,558.431213,542.954346,560.117493,560.121948,561.374756,559.503784,560.739990,560.600952,559.373779,556.251465,553.971924,559.214600,551.142883,562.257080,564.025452,560.059692,551.495544,560.059692,560.059692,560.059692,558.038513,559.445496,560.059692,561.344482,559.445496,560.059692,558.950989,560.059692,560.059692,560.059692,560.059692,560.143616,560.059692,560.816467,560.059692,560.059692,563.401062,559.445496,560.059692,560.059692,559.445496,559.445496,560.059692,553.686707,560.059692,560.059692,556.697754,559.445496,560.059692,560.059692,556.418701,560.059692,560.059692,555.158630,563.889099,560.059692,562.873108,
avg. throughput in all test times
559.420654
avg. BS TX power in all test times
MBS area 1,MBS area 2,MBS area 3,MBS area 4,MBS area 5,MBS area 6,MBS area 7,CBSD 1,CBSD 2,CBSD 3,CBSD 4,CBSD 5,CBSD 6,CBSD 7,CBSD 8,CBSD 9,
6.350,7.438,6.363,6.588,6.787,6.738,8.700,0.000,0.000,0.000,0.000,0.000,0.000,0.000,0.000,0.000,
avg. mbs all power,avg. cbsd enable number,avg. mbs area all power,avg. cbsd all power
48.963,0.000,48.963,0.000
avg. max avg. throughput generation number in all test times
1.100000
avg. number of relay UE
0



the max average throughput times

BS TX power
MBS area 1,MBS area 2,MBS area 3,MBS area 4,MBS area 5,MBS area 6,MBS area 7,CBSD 1,CBSD 2,CBSD 3,CBSD 4,CBSD 5,CBSD 6,CBSD 7,CBSD 8,CBSD 9,
5.000,7.500,7.500,6.250,6.250,8.750,8.750,0.000,0.000,0.000,0.000,0.000,0.000,0.000,0.000,0.000,
max average throughput
562.873108

x,y,area,be blocked (1 : NLOS / 0 : LOS),be blocked number (>=1 : CBSD(x) / 0 : no),connect bs number (>=1 : CBSD / 0 : MBS),throughput (unit : M bps)
24,1130,1,0,0,0,751.750366
1394,524,2,0,0,0,730.786499
-1621,874,3,0,0,0,669.988098
-639,1858,4,0,0,0,625.506348
-1089,-1397,5,1,0,0,3.115127
-1103,-297,6,1,0,0,15.567400
1102,-110,7,0,0,0,838.004395
170,360,1,0,0,0,1052.133057
1589,1139,2,0,0,0,652.915405
-1651,122,3,0,0,0,700.461121
-711,1002,4,1,0,0,9.140375
-1172,-1785,5,0,0,0,601.829102
-1548,-1430,6,0,0,0,653.495056
647,-1338,7,0,0,0,753.476257
826,859,1,0,0,0,736.562744
1454,344,2,1,0,0,6.162467
-1374,1320,3,1,0,0,3.004658
-163,1741,4,0,0,0,658.748962
-1263,-1522,5,0,0,0,623.631836
-1787,-1661,6,1,0,0,1.677378
516,-614,7,0,0,0,930.907959
208,1235,1,0,0,0,722.321655
744,182,2,0,0,0,921.969116
-1843,1071,3,0,0,0,628.265320
-169,896,4,0,0,0,845.537415
-99,-509,5,1,0,0,90.306503
-1862,-115,6,0,0,0,688.333374
169,-54,7,0,0,0,1365.993042
446,577,1,0,0,0,877.711975
1907,96,2,0,0,0,659.658875
-1349,1104,3,0,0,0,685.694946
-26,539,4,0,0,0,996.620972
-438,-820,5,1,0,0,20.286545
-1564,-1096,6,0,0,0,681.628357
1272,-834,7,0,0,0,746.832642
706,1904,1,0,0,0,584.431335
1913,422,2,1,0,0,2.766728
-1420,524,3,1,0,0,5.932598
-808,1261,4,1,0,0,5.117857
-406,-850,5,0,0,0,836.167419
-648,-298,6,1,0,0,55.391483
358,-1158,7,0,0,0,812.049255
985,1346,1,1,0,0,2.986212
1587,347,2,0,0,0,705.875061
-904,685,3,0,0,0,808.978577
-8,1796,4,0,0,0,651.113281
-390,-1209,5,1,0,0,8.293629
-1071,-787,6,0,0,0,785.568176
1128,-1171,7,1,0,0,5.590365
4,1389,1,1,0,0,5.131981
1353,384,2,0,0,0,747.192810
-508,86,3,0,0,0,1036.239746
-407,1874,4,0,0,0,632.421448
-86,-1999,5,0,0,0,620.332031
-1444,-1310,6,0,0,0,675.718872
463,-34,7,0,0,0,1088.509399
493,1919,1,0,0,0,591.411377
1693,1378,2,0,0,0,621.490601
-1936,1690,3,0,0,0,575.151611
-629,789,4,1,0,0,16.101545
-1442,-1523,5,0,0,0,606.933655
-1986,-703,6,0,0,0,653.585022
307,-1107,7,1,0,0,15.318275
1089,1685,1,0,0,0,587.859497
601,101,2,0,0,0,987.834778
-1649,1459,3,1,0,0,1.954170
-1483,1515,4,0,0,0,603.877991
-290,-738,5,1,0,0,31.419197
-1210,-137,6,0,0,0,810.711121
416,-220,7,0,0,0,1084.595093
427,1302,1,0,0,0,696.565552
931,679,2,0,0,0,804.430054
-1879,691,3,0,0,0,646.140808
-1059,1583,4,0,0,0,634.378052
-515,-743,5,0,0,0,847.998718
-1467,-940,6,0,0,0,707.894531
2,-60,7,1,0,0,961.825623
768,819,1,1,0,0,9.567645
1665,104,2,0,0,0,698.265930
-473,425,3,0,0,0,975.584778
-283,288,4,0,0,0,1080.240479
-282,-830,5,1,0,0,23.889158
-1837,-1196,6,0,0,0,642.264404
1403,-922,7,0,0,0,718.528137
61,1770,1,1,0,0,2.498542
1348,133,2,0,0,0,757.981262
-1871,1574,3,1,0,0,1.429670
-191,647,4,0,0,0,932.286255
-917,-1103,5,1,0,0,5.811248
-1333,-556,6,0,0,0,761.687134
1767,-345,7,0,0,0,698.511353
93,1290,1,1,0,0,6.330455
1719,1625,2,0,0,0,598.651367
-562,107,3,0,0,0,1006.056396
-911,1757,4,1,0,0,2.240032
-45,-696,5,0,0,0,922.690491
-859,-149,6,0,0,0,906.872131
428,-1826,7,0,0,0,686.812866
294,1916,1,1,0,0,1.909506
486,337,2,1,0,0,76.868446
-1581,1181,3,0,0,0,650.249756
-134,533,4,0,0,0,991.349365
-475,-623,5,1,0,0,32.456100
-1786,-1540,6,0,0,0,621.437378
836,-878,7,0,0,0,811.985596
293,868,1,0,0,0,812.088379
1051,286,2,0,0,0,820.617554
-1529,208,3,1,0,0,5.605354
-480,1509,4,0,0,0,687.097290
-51,-1295,5,0,0,0,744.499634
-1773,-1643,6,0,0,0,614.409912
372,-482,7,0,0,0,1010.321655
682,1968,1,0,0,0,577.246277
1679,827,2,0,0,0,665.368835
-1792,1459,3,0,0,0,605.293518
-836,1390,4,0,0,0,680.221008
-734,-1623,5,0,0,0,653.468201
-1735,-1062,6,0,0,0,663.588135
1088,-230,7,0,0,0,836.820312
632,1914,1,0,0,0,586.538391
1097,214,2,0,0,0,813.200806
-270,124,3,0,0,0,1195.006836
-1167,1580,4,1,0,0,2.290908
-995,-1670,5,1,0,0,2.362882
-1973,-335,6,0,0,0,668.258789
7,-1633,7,0,0,0,726.459778
980,1535,1,0,0,0,615.359680
1703,364,2,0,0,0,685.973877
-1284,417,3,0,0,0,758.942383
-1590,1681,4,0,0,0,579.055786
-658,-1470,5,0,0,0,682.253357
-1817,-840,6,1,0,0,3.022595
769,-1112,7,0,0,0,780.652771
1645,1666,1,0,0,0,544.188721
1214,835,2,1,0,0,6.420101
-1330,342,3,1,0,0,7.889350
-208,1260,4,1,0,0,8.167278
-71,-338,5,1,0,0,197.981720
-1384,-81,6,1,0,0,8.913767
1500,-992,7,0,0,0,698.831970
1283,1306,1,0,0,0,613.862488
1813,76,2,0,0,0,674.211609
-1514,1489,3,0,0,0,629.346985
-998,1779,4,0,0,0,614.843933
-357,-1675,5,1,0,0,3.442537
-1610,-1520,6,0,0,0,639.400146
936,-1582,7,1,0,0,3.891916
590,1468,1,1,0,0,3.492638
213,151,2,0,0,0,1232.286621
-330,264,3,0,0,0,1093.383179
-464,1136,4,0,0,0,760.175537
-846,-1306,5,0,0,0,692.097473
-1237,-329,6,0,0,0,796.375488
813,-1802,7,1,0,0,3.136838
1198,1745,1,0,0,0,572.683228
1521,161,2,1,0,0,5.753089
-917,850,3,0,0,0,780.963379
-1258,1860,4,0,0,0,587.557495
-764,-955,5,1,0,0,9.263215
-1006,-227,6,0,0,0,858.511230
394,-1785,7,0,0,0,694.156677
450,1274,1,1,0,0,5.567217
1369,1230,2,0,0,0,670.175842
-1077,633,3,0,0,0,781.218262
-675,989,4,0,0,0,767.213318
-1572,-1891,5,1,0,0,1.172120
-1895,-1826,6,1,0,0,1.338163
1270,-620,7,0,0,0,767.926331
745,1837,1,1,0,0,1.786201
1950,1886,2,0,0,0,559.834778
-1303,1007,3,0,0,0,701.974548
-1151,1277,4,0,0,0,663.599426
-189,-845,5,1,0,0,24.714552
-1337,-1139,6,1,0,0,4.452519
137,-750,7,0,0,0,945.503845
1342,1368,1,0,0,0,600.876648
436,369,2,1,0,0,83.279076
-1753,226,3,0,0,0,681.728088
-1820,1873,4,0,0,0,544.837524
-326,-1238,5,0,0,0,748.018921
-1979,-432,6,0,0,0,664.801514
630,-1413,7,0,0,0,741.960754
540,1144,1,0,0,0,719.441345
1738,473,2,0,0,0,676.326843
-976,752,3,0,0,0,785.187927
-357,1656,4,1,0,0,3.555642
-884,-898,5,1,0,0,8.491638
-878,-320,6,0,0,0,886.882568
1024,-879,7,0,0,0,781.179138
1081,1719,1,0,0,0,584.435791
981,590,2,0,0,0,806.319702
-1987,837,3,0,0,0,625.010620
-501,1078,4,1,0,0,10.059417
-3,-1721,5,0,0,0,663.294312
-712,-708,6,0,0,0,866.203186
1420,-937,7,0,0,0,714.722534
1066,1629,1,0,0,0,596.400635
1474,647,2,1,0,0,4.948731
-823,136,3,1,0,0,32.284084
-109,641,4,0,0,0,942.900940
-35,-1885,5,1,0,0,2.588167
-1210,-271,6,0,0,0,805.506958
1129,-714,7,0,0,0,784.109680
298,774,1,1,0,0,22.662989
1432,698,2,0,0,0,711.472168
-1983,898,3,0,0,0,622.282227
-860,1181,4,1,0,0,5.506030
-469,-965,5,0,0,0,798.740784
-1835,-238,6,0,0,0,690.670593
909,-1799,7,0,0,0,666.214233
862,1768,1,0,0,0,593.477356
474,40,2,0,0,0,1059.264526
-594,516,3,0,0,0,914.219543
-289,1669,4,0,0,0,667.839905
-60,-1310,5,1,0,0,7.558720
-1957,-912,6,0,0,0,646.585083
361,-1597,7,0,0,0,725.709656
45,886,1,0,0,0,821.329834
1981,638,2,1,0,0,2.311050
-530,495,3,0,0,0,937.710754
-1558,1680,4,0,0,0,581.837585
-1213,-1593,5,0,0,0,620.132507
-1620,-470,6,0,0,0,717.172058
1750,-1454,7,0,0,0,631.646912
625,1862,1,0,0,0,593.888672
1027,686,2,1,0,0,10.738153
-439,309,3,0,0,0,1024.390503
-28,811,4,0,0,0,879.082764
-488,-1537,5,0,0,0,681.887085
-1369,-1239,6,0,0,0,691.281555
1214,-1447,7,0,0,0,684.788208
567,1019,1,0,0,0,742.785950
1869,380,2,0,0,0,659.984497
-1911,1007,3,0,0,0,624.483887
-1429,1536,4,0,0,0,606.854797
-555,-1473,5,0,0,0,688.803284
-512,-446,6,0,0,0,978.886414
1832,-1328,7,0,0,0,633.218628
10,63,1,1,0,0,855.030457
1216,1100,2,0,0,0,703.204895
-1336,1146,3,0,0,0,682.917297
-109,927,4,1,0,0,20.059797
-1089,-1379,5,0,0,0,657.359070
-1865,-1289,6,1,0,0,2.087502
1946,-608,7,0,0,0,662.950867
344,510,1,1,0,0,50.268810
503,142,2,0,0,0,1032.110840
-1559,256,3,0,0,0,713.851562
-36,1497,4,0,0,0,703.092468
-1803,-1877,5,1,0,0,0.989250
-1934,-579,6,0,0,0,665.761047
29,-1883,7,0,0,0,685.635681
432,1447,1,0,0,0,668.765991
819,135,2,1,0,0,32.715118
-1836,1311,3,1,0,0,1.817487
-634,864,4,0,0,0,799.082336
-718,-1154,5,0,0,0,730.859070
-1400,-852,6,0,0,0,725.433228
766,-1203,7,0,0,0,765.315063
104,1149,1,0,0,0,745.860168
1358,455,2,0,0,0,741.985657
-1423,911,3,0,0,0,694.619934
-501,901,4,0,0,0,810.221985
-330,-1937,5,0,0,0,625.492371
-1314,-825,6,0,0,0,741.139099
711,-1344,7,0,0,0,746.937256
1074,1309,1,1,0,0,2.855665
1019,690,2,0,0,0,785.530579
-787,572,3,0,0,0,853.101929
-583,1321,4,0,0,0,713.513367
-1368,-1610,5,0,0,0,604.861145
-1378,-805,6,0,0,0,733.050476
695,-174,7,0,0,0,963.420044
102,254,1,1,0,0,251.911560
556,498,2,1,0,0,43.299980
-1555,1294,3,0,0,0,643.170898
-666,797,4,0,0,0,808.079163
-648,-780,5,0,0,0,814.965576
-1937,-1893,6,1,0,0,1.227995
1475,-926,7,0,0,0,708.016785
1846,1870,1,0,0,0,511.750946
1793,636,2,0,0,0,660.701355
-1807,750,3,0,0,0,652.709839
-869,896,4,0,0,0,755.286255
-298,-1674,5,0,0,0,666.748718
-1500,-815,6,0,0,0,713.743103
1921,-1497,7,0,0,0,612.277832
967,1468,1,0,0,0,625.426819
1489,1227,2,0,0,0,656.683472
-1245,1085,3,0,0,0,701.164246
-729,1817,4,0,0,0,626.526428
-846,-1988,5,1,0,0,1.724952
-1244,-366,6,1,0,0,10.820618
1799,-150,7,0,0,0,697.736938
438,821,1,1,0,0,16.406847
1931,1326,2,0,0,0,601.433105
-1963,1711,3,0,0,0,571.413940
-44,1331,4,0,0,0,736.700073
-110,-1217,5,0,0,0,761.382019
-1454,-295,6,0,0,0,753.978149
964,-33,7,1,0,0,25.004074
1604,1797,1,1,0,0,0.998320
1910,26,2,0,0,0,659.545044
-1898,247,3,0,0,0,658.973694
-726,1551,4,0,0,0,664.708130
-439,-734,5,0,0,0,863.956909
-1553,-1237,6,0,0,0,670.523254
1065,-961,7,0,0,0,763.646423
0,1987,1,0,0,0,590.598389
1862,1280,2,0,0,0,611.677063
-1867,204,3,0,0,0,664.380188
-1289,1408,4,1,0,0,2.494197
-695,-1830,5,0,0,0,626.563721
-662,-426,6,0,0,0,936.276428
355,-1819,7,0,0,0,690.215149
674,998,1,0,0,0,733.553162
1227,243,2,1,0,0,10.350665
-1252,439,3,0,0,0,763.935913
-861,1055,4,0,0,0,730.308533
-1627,-1774,5,0,0,0,567.866577
-1613,-217,6,0,0,0,727.423889
363,-1638,7,1,0,0,5.096990
870,1796,1,0,0,0,589.369629
1618,532,2,1,0,0,4.188955
-740,426,3,0,0,0,890.673401
-817,1124,4,1,0,0,6.379530
-980,-1372,5,0,0,0,669.155273
-841,-666,6,0,0,0,847.164429
1697,-649,7,1,0,0,4.028403
287,1222,1,0,0,0,721.668640
396,382,2,1,0,0,90.603661
-1281,999,3,0,0,0,705.876038
-1297,1728,4,0,0,0,598.492676
-1509,-1600,5,1,0,0,1.635740
-1290,-1140,6,0,0,0,711.331787
1717,-209,7,0,0,0,709.981689
316,1659,1,0,0,0,636.843018
1895,1609,2,0,0,0,584.559082
-530,267,3,1,0,0,76.252907
-1012,1400,4,0,0,0,662.223572
-1475,-1939,5,0,0,0,564.463013
-1284,-1112,6,0,0,0,715.177063
754,-471,7,0,0,0,901.248047
24,720,1,0,0,0,881.237793
1936,365,2,1,0,0,2.720594
-1342,1010,3,0,0,0,696.323425
-299,1095,4,1,0,0,11.496012
-1225,-766,6,1,0,0,7.903695
297,-1171,7,0,0,0,812.999268
440,1820,1,0,0,0,607.464478
1353,577,2,0,0,0,734.338806
-821,321,3,1,0,0,27.798586
-665,1620,4,0,0,0,658.330627
-882,-454,6,1,0,0,23.140226
747,-1952,7,1,0,0,2.658912
81,462,1,1,0,0,95.636765
1590,708,2,1,0,0,3.929008
-491,316,3,0,0,0,1000.169983
-1257,1319,4,0,0,0,647.009766
-1859,-115,6,0,0,0,688.793030
683,-1187,7,0,0,0,776.964233
1869,1879,1,0,0,0,509.353638
159,138,2,0,0,0,1294.378418
-1229,990,3,1,0,0,5.246556
-1556,1843,4,0,0,0,567.292114
-1206,-1121,6,1,0,0,5.386872
34,-293,7,1,0,0,292.930969
1083,1832,1,0,0,0,571.147461
1739,1188,2,0,0,0,631.698914
-1923,1921,3,0,0,0,559.285278
-853,1622,4,0,0,0,645.357300
-1778,-337,6,0,0,0,697.037964
1820,-1759,7,0,0,0,601.324036
651,916,1,0,0,0,753.401917
1944,1385,2,0,0,0,596.091919
-900,874,3,1,0,0,10.262259
-986,1652,4,0,0,0,631.503479
-933,-280,6,1,0,0,24.334253
144,-1394,7,0,0,0,770.342285
356,939,1,0,0,0,785.699158
541,102,2,1,0,0,90.488823
-514,67,3,0,0,0,1034.498901
-1171,1346,4,0,0,0,653.015930
-1961,-996,6,1,0,0,2.284560
1323,-695,7,0,0,0,751.893555
390,681,1,1,0,0,26.398607
312,153,2,0,0,0,1149.823364
-800,232,3,0,0,0,897.809021
-241,1286,4,0,0,0,741.771484
43,-1181,7,0,0,0,819.326904
96,1354,1,0,0,0,699.258911
1164,661,2,0,0,0,761.382568
-1787,117,3,0,0,0,677.980713
24,-618,7,0,0,0,1005.808228
1629,1953,1,0,0,0,520.915405
1570,178,2,0,0,0,713.818848
-1271,537,3,1,0,0,7.781028
1233,-792,7,0,0,0,757.515076
1166,1978,1,0,0,0,549.685181
901,38,2,0,0,0,874.945984
-1700,404,3,1,0,0,3.883662
185,-1575,7,0,0,0,734.866516
1399,1603,1,0,0,0,571.219299
1833,566,2,0,0,0,658.319092
-1426,1032,3,1,0,0,3.799948
525,-913,7,0,0,0,852.466980
1067,421,2,0,0,0,805.742981
-1989,1282,3,0,0,0,598.548096
526,-1642,7,0,0,0,710.890686
1651,1202,2,0,0,0,640.473755
-1496,1171,3,0,0,0,661.100220
1478,-32,7,0,0,0,755.000854
1299,586,2,0,0,0,743.418884
-1739,1640,3,0,0,0,595.684937
183,-704,7,0,0,0,959.050659
1564,1199,2,0,0,0,650.639282
-1078,1024,3,0,0,0,731.249390
1237,-172,7,0,0,0,803.445435
1974,1514,2,1,0,0,1.357604
-910,311,3,0,0,0,856.443481
213,-80,7,1,0,0,394.654022
1904,1629,2,0,0,0,582.307617
-1671,979,3,0,0,0,655.612671
1738,-207,7,0,0,0,706.588928
1370,662,2,0,0,0,724.629761
-1414,796,3,0,0,0,706.199036
302,-23,7,0,0,0,1211.699951
974,645,2,0,0,0,800.491028
-1706,124,3,0,0,0,691.106934
806,-803,7,0,0,0,830.250183
1046,274,2,0,0,0,822.717590
-832,84,3,0,0,0,896.680908
843,-128,7,0,0,0,913.273865
1990,748,2,0,0,0,629.022156
-941,250,3,1,0,0,21.127548
1184,-509,7,1,0,0,11.014603
1778,740,2,1,0,0,2.910605
-1780,334,3,1,0,0,3.492739
346,-526,7,1,0,0,74.888023
1846,1676,2,0,0,0,583.717896
1704,-1650,7,0,0,0,619.790771
1631,-1071,7,0,0,0,675.494934
295,-428,7,0,0,0,1055.906860
1431,-1851,7,1,0,0,1.900493
1345,-771,7,1,0,0,6.430004
1193,-720,7,0,0,0,771.983582
318,-1216,7,0,0,0,801.611938
825,-474,7,0,0,0,881.699280
1123,-1002,7,0,0,0,749.866272
390,-335,7,0,0,0,1059.080933
1889,-656,7,0,0,0,668.483643
1436,-1024,7,0,0,0,704.400818
178,-808,7,0,0,0,921.945862
1854,-1118,7,0,0,0,645.802307
382,-1453,7,0,0,0,750.373901
708,-1382,7,0,0,0,740.903015
208,-75,7,0,0,0,1302.478027
659,-746,7,0,0,0,868.710144
1450,-889,7,0,0,0,714.799011
1916,-1815,7,0,0,0,589.453369
643,-742,7,0,0,0,872.654419
1690,-1403,7,0,0,0,641.686279
404,-1424,7,0,0,0,754.641418
878,-896,7,0,0,0,802.166138
1304,-1831,7,0,0,0,635.091003
1268,-634,7,0,0,0,767.032288
246,-1215,7,1,0,0,12.319880
1050,-117,7,0,0,0,851.562622
482,-1921,7,1,0,0,3.119773
903,-881,7,0,0,0,800.543274
340,-15,7,1,0,0,240.824768
1152,-1066,7,0,0,0,737.827087
863,-540,7,0,0,0,862.238586
1390,-1156,7,0,0,0,697.318787
1431,-1448,7,1,0,0,2.875054
228,-454,7,0,0,0,1062.517212
838,-1297,7,0,0,0,742.502197
1147,-935,7,0,0,0,754.717285
1973,-402,7,0,0,0,666.508057
1549,-1670,7,0,0,0,631.325562
592,-178,7,0,0,0,1005.940918
1222,-423,7,1,0,0,10.907470
392,-1291,7,0,0,0,781.247986
435,-1479,7,1,0,0,6.536633
536,-356,7,1,0,0,71.146545
419,-1767,7,0,0,0,696.036560
1043,-1968,7,0,0,0,637.712830
1459,-996,7,0,0,0,703.940063
905,-785,7,0,0,0,815.403015
1601,-491,7,0,0,0,719.252563
658,-1353,7,0,0,0,749.965088
1855,-169,7,1,0,0,3.742144
856,-1992,7,1,0,0,2.384148
70,-998,7,0,0,0,867.249573
841,-945,7,0,0,0,799.756897
1621,-1539,7,1,0,0,2.177450
561,-1178,7,0,0,0,790.870178
7,-890,7,1,0,0,31.136196
988,-191,7,0,0,0,865.574158
80,-457,7,0,0,0,1088.694336


each generation good chromosome number
8,10,10,