the max average throughput times

BS TX power
MBS area 1,MBS area 2,MBS area 3,CBSD 1,CBSD 2,CBSD 3,CBSD 4,CBSD 5,CBSD 6,
8.750,8.750,10.000,0.000,0.000,0.750,0.750,0.750,0.000,
max average power
628.794067

x,y,area,be blocked (1 : NLOS / 0 : LOS),be blocked number (>=1 : CBSD(x) / 0 : no),connect bs number (>=1 : CBSD / 0 : MBS),throughput (unit : M bps)
1962,690,1,0,0,0,657.261475
1444,-1040,2,1,0,3,214.586212
-1910,454,3,0,0,0,692.835938
1748,1058,1,0,0,0,662.323914
1376,-1931,2,1,0,3,214.586212
-183,-1373,3,0,0,0,792.877014
1387,1268,1,0,0,0,686.239197
1561,-1948,2,0,0,0,605.259827
-198,-380,3,1,0,4,248.966049
669,1163,1,0,0,0,782.851990
1709,-884,2,0,0,0,679.495117
-1109,1844,3,1,0,5,213.012314
713,324,1,0,0,0,937.765930
1196,-939,2,0,0,0,746.919861
-388,-42,3,0,0,0,1157.831177
1513,279,1,0,0,0,743.555176
848,-457,2,0,0,0,878.141846
-999,-1702,3,0,0,0,691.337097
1734,75,1,0,0,0,708.998474
1620,-1937,2,0,0,0,601.993286
-186,-1576,3,0,0,0,753.819641
1228,861,1,1,0,3,214.586212
919,-270,2,0,0,0,879.778687
-506,1710,3,0,0,0,720.363647
1716,519,1,0,0,0,699.721863
1601,-962,2,0,0,0,687.989380
-157,1450,3,0,0,0,778.055908
236,1620,1,1,0,5,213.012314
522,-1580,2,1,0,3,214.586212
-357,-616,3,1,0,4,248.966049
1316,534,1,0,0,0,766.516541
887,-1777,2,0,0,0,670.431885
-58,-595,3,0,0,0,1034.844360
1390,441,1,1,0,3,214.586212
970,-1395,2,0,0,0,715.091492
-1865,-1600,3,1,0,4,248.966049
1953,782,1,1,0,3,214.586212
1938,-236,2,1,0,3,214.586212
-263,1267,3,0,0,0,812.438904
526,913,1,0,0,0,852.330750
873,-421,2,0,0,0,876.381714
-244,-1228,3,1,0,4,248.966049
1454,1485,1,1,0,3,214.586212
257,-327,2,1,0,3,214.586212
-1060,1706,3,1,0,5,213.012314
1832,1796,1,0,0,0,597.489258
1577,-164,2,0,0,0,734.924927
-1154,490,3,1,0,5,213.012314
679,653,1,1,0,3,214.586212
1202,-710,2,0,0,0,771.448059
-438,-1597,3,0,0,0,741.601440
271,770,1,1,0,5,213.012314
806,-1248,2,0,0,0,753.587708
-1207,940,3,1,0,5,213.012314
1844,915,1,0,0,0,660.195435
1678,-979,2,0,0,0,676.742126
-54,-1502,3,0,0,0,769.425476
13,549,1,1,0,5,213.012314
190,-271,2,0,0,0,1186.110596
-468,-1311,3,0,0,0,791.451721
720,1577,1,1,0,5,213.012314
280,-1532,2,0,0,0,740.058716
-199,-1392,3,0,0,0,788.551086
1323,523,1,1,0,3,214.586212
1398,-1806,2,0,0,0,630.565796
-1831,95,3,0,0,0,712.414001
391,245,1,0,0,0,1090.272461
1218,-215,2,1,0,3,214.586212
-883,-550,3,0,0,0,875.230164
807,916,1,0,0,0,809.991943
1754,-1440,2,0,0,0,632.377686
-473,608,3,1,0,5,213.012314
1900,1095,1,1,0,3,214.586212
716,-1769,2,1,0,3,214.586212
-44,-1142,3,0,0,0,848.168030
215,323,1,0,0,0,1140.244019
343,-744,2,0,0,0,924.785278
-1009,-1272,3,0,0,0,747.266357
1007,728,1,0,0,0,804.901489
677,-680,2,0,0,0,879.266907
-915,-377,3,0,0,0,889.603333
910,1472,1,1,0,5,213.012314
1871,-107,2,0,0,0,687.031494
-558,-875,3,0,0,0,875.923523
1153,333,1,0,0,0,814.898438
1830,-1692,2,0,0,0,605.708618
-892,-1298,3,0,0,0,755.995667
385,206,1,1,0,3,214.586212
1220,-324,2,0,0,0,800.380493
-796,1438,3,0,0,0,743.751221
1423,321,1,0,0,0,758.829895
1402,-924,2,0,0,0,718.483093
-1489,182,3,0,0,0,769.977844
1114,931,1,0,0,0,760.199463
1087,-719,2,0,0,0,791.197571
-1489,875,3,1,0,5,213.012314
1390,1492,1,1,0,3,214.586212
805,-1755,2,0,0,0,678.498047
-205,1233,3,0,0,0,822.405396
119,719,1,0,0,0,958.502441
1812,-1070,2,0,0,0,653.912231
-1970,-141,3,0,0,0,691.117737
1249,1885,1,1,0,5,213.012314
1651,-1128,2,0,0,0,668.500488
-197,839,3,1,0,5,213.012314
887,1461,1,1,0,5,213.012314
1878,-1702,2,0,0,0,600.942810
-276,-1151,3,1,0,4,248.966049
1740,1427,1,0,0,0,634.782593
250,-47,2,0,0,0,1262.037842
-953,-1890,3,0,0,0,671.312195
1231,1763,1,0,0,0,647.754517
839,-1633,2,1,0,3,214.586212
-541,-576,3,0,0,0,954.416260
587,1827,1,0,0,0,680.255676
1692,-1534,2,1,0,3,214.586212
-662,981,3,1,0,5,213.012314
1861,491,1,0,0,0,679.407715
1431,-1065,2,0,0,0,701.155701
-141,207,3,1,0,0,373.913757
302,792,1,0,0,0,914.980530
419,-337,2,0,0,0,1046.149414
-393,822,3,0,0,0,913.405945
1496,1010,1,0,0,0,697.771362
507,-112,2,0,0,0,1056.235840
-332,312,3,1,0,5,213.012314
364,644,1,0,0,0,954.197083
1441,-1631,2,0,0,0,644.307007
-1590,-784,3,0,0,0,722.057861
725,45,1,0,0,0,959.447327
1584,-1946,2,0,0,0,603.795593
-359,879,3,0,0,0,901.526062
1378,1103,1,0,0,0,704.178955
292,-189,2,0,0,0,1171.778931
-1205,-1278,3,0,0,0,724.701782
1387,1441,1,0,0,0,668.426697
169,-1347,2,0,0,0,779.473755
-1341,-1329,3,0,0,0,704.019775
195,1926,1,0,0,0,677.754211
1275,-1726,2,0,0,0,648.336731
-1618,-732,3,0,0,0,721.557617
1443,1353,1,0,0,0,671.582825
896,-1734,2,0,0,0,675.405762
-854,1677,3,0,0,0,704.941589
979,199,1,0,0,0,867.661682
1385,-549,2,0,0,0,752.778320
-642,1705,3,0,0,0,714.232056
1010,57,1,0,0,0,864.058044
100,-582,2,1,0,4,248.966049
-669,-708,3,0,0,0,894.162720
1165,1095,1,0,0,0,732.525574
811,-1833,2,0,0,0,667.808044
-325,815,3,0,0,0,924.263794
763,1679,1,0,0,0,691.620667
1706,-897,2,0,0,0,678.997620
-219,319,3,1,0,0,212.108322
1654,79,1,0,0,0,722.473206
1729,-1810,2,0,0,0,604.484009
-472,-822,3,0,0,0,902.014771
644,853,1,0,0,0,848.229980
1495,-1087,2,0,0,0,690.974976
-1010,-1442,3,0,0,0,724.045715
273,741,1,0,0,0,935.375000
743,-1826,2,0,0,0,672.555115
-1388,-427,3,1,0,4,248.966049
1601,386,1,1,0,3,214.586212
1880,-979,2,1,0,3,214.586212
-931,575,3,0,0,0,860.671997
713,577,1,0,0,0,892.254639
346,-915,2,0,0,0,873.714355
-1636,-696,3,0,0,0,721.232361
465,1337,1,0,0,0,767.460510
1735,-1277,2,1,0,3,214.586212
-1338,1693,3,0,0,0,665.801941
165,1158,1,1,0,5,213.012314
648,-1029,2,0,0,0,811.111328
-1798,1430,3,0,0,0,647.925476
655,1951,1,1,0,5,213.012314
1628,-1875,2,0,0,0,606.759644
-1752,-712,3,0,0,0,703.541626
1283,1765,1,0,0,0,643.566467
162,-1646,2,0,0,0,722.807800
-1246,-873,3,0,0,0,765.926880
428,900,1,0,0,0,868.364014
324,-77,2,0,0,0,1184.325562
-131,-1449,3,1,0,4,248.966049
1504,755,1,0,0,0,717.841309
272,-1687,2,0,0,0,713.461792
-152,-1680,3,0,0,0,736.301025
1913,488,1,0,0,0,672.136841
1344,-768,2,1,0,3,214.586212
-1992,1187,3,0,0,0,645.265869
1588,409,1,0,0,0,725.266785
192,-1879,2,1,0,3,214.586212
-337,-520,3,0,0,0,1024.503174
254,1283,1,0,0,0,790.179688
1573,-1889,2,0,0,0,609.632263
-1417,-171,3,0,0,0,784.266357
1419,252,1,0,0,0,762.304932
1203,-1048,2,0,0,0,733.129028
-513,1501,3,0,0,0,753.945129
1918,1047,1,0,0,0,643.159180
1817,-921,2,1,0,3,214.586212
-1114,-1826,3,0,0,0,668.315491
1187,31,1,0,0,0,817.961975
1612,-354,2,0,0,0,723.422058
-1956,-256,3,1,0,4,248.966049
1901,1593,1,1,0,3,214.586212
1758,-854,2,0,0,0,675.019592
-698,-193,3,0,0,0,979.564392
1958,1990,1,0,0,0,573.526245
1199,-994,2,1,0,3,214.586212
-926,1050,3,0,0,0,789.812988
1973,1265,1,1,0,3,214.586212
1763,-329,2,0,0,0,699.615479
-1213,421,3,0,0,0,814.675415
1540,310,1,0,0,0,737.580505
719,-5,2,0,0,0,962.389282
-803,206,3,1,0,4,248.966049
1995,1282,1,0,0,0,619.855774
1793,-1951,2,0,0,0,588.318665
-653,419,3,0,0,0,959.700439
1932,1397,1,0,0,0,618.328430
1214,-1993,2,1,0,3,214.586212
-215,-285,3,0,0,0,1183.529419
328,1624,1,0,0,0,722.316345
1583,-1140,2,0,0,0,675.559204
-1800,-91,3,1,0,4,248.966049
489,948,1,1,0,5,213.012314
980,-1736,2,0,0,0,669.363831
-193,-1478,3,0,0,0,771.808777
174,1873,1,0,0,0,685.963806
1278,-1563,2,0,0,0,665.737915
-1891,1184,3,0,0,0,656.275696
1901,1222,1,0,0,0,633.573059
1139,-924,2,0,0,0,757.278381
-264,-938,3,0,0,0,894.054199
1663,1441,1,1,0,3,214.586212
1096,-72,2,0,0,0,840.381653
-1303,-888,3,0,0,0,755.655579
1723,69,1,0,0,0,710.859497
1746,-303,2,0,0,0,703.042419
-574,-72,3,0,0,0,1044.317261
589,557,1,0,0,0,927.824646
1931,-128,2,0,0,0,677.844055
-283,-1311,3,0,0,0,802.142395
995,1339,1,0,0,0,720.346802
1994,-1309,2,0,0,0,618.196472
-433,-316,3,1,0,4,248.966049
1851,1489,1,1,0,3,214.586212
1070,-401,2,0,0,0,829.005188
-545,-1535,3,0,0,0,746.334167
1311,1983,1,0,0,0,619.162354
1986,-1661,2,0,0,0,594.897217
-1800,517,3,1,0,5,213.012314
482,1063,1,0,0,0,822.903748
1361,-1883,2,1,0,3,214.586212
-98,-165,3,0,0,0,1362.603149
78,329,1,1,0,0,243.118393
1861,-1951,2,0,0,0,583.387451
-19,-2000,3,0,0,0,687.511658
1355,1468,1,0,0,0,668.755737
881,-1955,2,1,0,3,214.586212
-914,-1501,3,1,0,4,248.966049
350,1365,1,0,0,0,768.760864
1329,-160,2,0,0,0,783.514893
-244,1465,3,0,0,0,772.844727
611,1499,1,0,0,0,728.976562
928,-612,2,0,0,0,836.926697
-806,1413,3,0,0,0,746.715454
59,271,1,1,0,0,316.355652
983,-1320,2,0,0,0,724.222412
-1135,-1552,3,0,0,0,698.798767
976,1921,1,0,0,0,647.160889
1016,-1491,2,1,0,3,214.586212
-532,-1217,3,0,0,0,804.941589
1766,1499,1,1,0,3,214.586212
1578,-1838,2,0,0,0,613.794250
-242,666,3,0,0,0,985.835510
167,770,1,0,0,0,936.028137
1633,-864,2,0,0,0,691.117737
-66,1160,3,0,0,0,843.416870
768,1046,1,1,0,3,214.586212
934,-812,2,0,0,0,806.054077
-567,-839,3,0,0,0,882.987732
38,1415,1,0,0,0,767.469299
601,-649,2,1,0,3,214.586212
-1610,66,3,1,0,4,248.966049
550,1771,1,0,0,0,690.042297
994,-613,2,0,0,0,822.744385
-625,-222,3,1,0,4,248.966049
1022,424,1,0,0,0,838.267944
1197,-1195,2,0,0,0,716.391846
-915,-1125,3,0,0,0,779.705872
1680,490,1,0,0,0,706.635498
1510,-1517,2,0,0,0,649.060730
-94,1076,3,1,0,5,213.012314
1712,1646,1,0,0,0,619.433289
419,-1603,2,0,0,0,722.305298
-864,557,3,1,0,5,213.012314
120,499,1,0,0,0,1059.585938
1372,-242,2,0,0,0,772.035583
-776,1667,3,0,0,0,711.586670
608,1628,1,0,0,0,708.634399
1214,-874,2,0,0,0,751.616272
-1896,-1132,3,0,0,0,659.216492
259,1343,1,0,0,0,777.326782
1578,-1326,2,0,0,0,659.831970
-654,-11,3,0,0,0,1008.909485
640,799,1,0,0,0,860.632568
1111,-394,2,0,0,0,820.054810
-613,615,3,0,0,0,927.261414
1105,1401,1,0,0,0,701.072998
611,-514,2,0,0,0,932.197937
-238,-869,3,1,0,4,248.966049
579,1837,1,0,0,0,679.199280
853,-1653,2,1,0,3,214.586212
-319,-1820,3,0,0,0,710.191467
85,683,1,0,0,0,974.984802
1626,-38,2,0,0,0,727.615540
-1949,-335,3,0,0,0,690.749756
857,317,1,0,0,0,893.347229
1501,-673,2,1,0,3,214.586212
-461,317,3,0,0,0,1053.959229
1224,14,1,0,0,0,809.215942
820,-1957,2,1,0,3,214.586212
-1478,502,3,1,0,5,213.012314
479,1896,1,0,0,0,674.855896
1193,-1073,2,0,0,0,731.501282
-1808,737,3,0,0,0,694.410767
427,1541,1,1,0,5,213.012314
1861,-1859,2,1,0,3,214.586212
-837,-510,3,0,0,0,892.376526
167,1368,1,0,0,0,775.149109
1194,-1193,2,0,0,0,716.991577
-1164,-997,3,0,0,0,763.817688
284,953,1,0,0,0,868.991272
96,-1313,2,1,0,4,248.966049
-1426,1400,3,1,0,5,213.012314
1688,979,1,0,0,0,675.473083
858,-361,2,1,0,3,214.586212
-1119,-807,3,0,0,0,794.020386
1121,1347,1,0,0,0,706.236267
1454,-973,2,0,0,0,706.712952
-793,-112,3,1,0,4,248.966049
190,1445,1,0,0,0,759.089355
597,-625,2,0,0,0,909.365723
-1808,958,3,0,0,0,681.002930
840,905,1,0,0,0,806.719421
611,-1517,2,1,0,3,214.586212
-1953,-762,3,1,0,4,248.966049
727,200,1,1,0,3,214.586212
39,-532,2,0,0,0,1048.453857
-1835,1586,3,0,0,0,632.455994
539,-1016,2,0,0,0,827.136780
-1067,926,3,0,0,0,787.198914
1353,-138,2,0,0,0,778.954041
-1239,-497,3,0,0,0,803.481262
1503,-379,2,0,0,0,741.411682
-656,-843,3,1,0,4,248.966049
-1539,1466,3,1,0,5,213.012314
-1930,-1652,3,0,0,0,619.257080
-801,757,3,0,0,0,858.612305
-82,-890,3,0,0,0,918.942810
-213,1883,3,0,0,0,702.957886
-687,1650,3,1,0,5,213.012314
-486,1752,3,0,0,0,714.815674
-832,-1914,3,0,0,0,675.346008
-1852,1126,3,0,0,0,664.540771
-368,1203,3,0,0,0,820.547363
-324,133,3,0,0,0,1189.048950
-954,1722,3,0,0,0,692.051697
-1144,-1830,3,0,0,0,665.766785
-1153,1948,3,0,0,0,652.139282
-1483,-1091,3,0,0,0,711.226624
-1980,-402,3,0,0,0,684.622131
-361,-1016,3,0,0,0,864.917603
-745,-389,3,1,0,4,248.966049
-132,-1672,3,0,0,0,737.948059
-87,-1779,3,0,0,0,720.712036
-734,-532,3,0,0,0,914.862427
-1891,-1847,3,0,0,0,607.966370
-1706,1110,3,1,0,5,213.012314
-998,716,3,1,0,5,213.012314
-859,-906,3,0,0,0,822.736816
-8,-1843,3,0,0,0,710.925171
-1914,-787,3,1,0,4,248.966049
-1583,1319,3,0,0,0,679.001343
-1569,1901,3,0,0,0,627.859314
-1344,-1381,3,0,0,0,698.158569
-416,-33,3,0,0,0,1138.508423
-255,-1755,3,1,0,4,248.966049
-1126,849,3,1,0,5,213.012314
-1874,160,3,0,0,0,705.110413
-1253,648,3,1,0,5,213.012314
-1894,1152,3,0,0,0,658.105408
-1165,-146,3,0,0,0,840.402649
-341,1884,3,0,0,0,700.011536
-932,1631,3,0,0,0,705.462524
-1998,729,3,1,0,5,213.012314
-1933,-1898,3,0,0,0,600.990417
-953,-311,3,0,0,0,885.891968
-861,-1692,3,1,0,4,248.966049
-988,480,3,0,0,0,859.575684
-1672,1459,3,1,0,5,213.012314
-1231,146,3,0,0,0,824.784424
-723,289,3,1,0,5,213.012314
-1025,1250,3,0,0,0,748.520203
-1275,1043,3,1,0,5,213.012314
-1905,-969,3,1,0,4,248.966049
-1502,-201,3,0,0,0,767.062500
-384,235,3,0,0,0,1116.624756
-1672,-1678,3,0,0,0,639.186035
-661,146,3,0,0,0,999.015625
-1131,663,3,0,0,0,808.687683
-1212,-1765,3,1,0,4,248.966049
-1090,-1663,3,1,0,4,248.966049
-772,-1709,3,0,0,0,705.955322
-1193,1221,3,0,0,0,732.885986
-766,-1620,3,1,0,4,248.966049
-1319,76,3,0,0,0,806.463135
-1599,914,3,0,0,0,711.115662
-1507,168,3,1,0,4,248.966049
-1659,1346,3,0,0,0,668.667847
-1257,1434,3,0,0,0,701.161499
-305,-1186,3,0,0,0,828.294556
-924,-511,3,0,0,0,870.944458
-384,-1889,3,0,0,0,698.070801
-1613,-723,3,0,0,0,722.892883
-1699,963,3,1,0,5,213.012314
-1438,-1279,3,1,0,4,248.966049
-763,-1986,3,0,0,0,669.850830
-913,714,3,0,0,0,844.120911
-677,-704,3,1,0,4,248.966049
-1311,-337,3,0,0,0,799.492371
-1672,1296,3,0,0,0,671.475403
-784,1452,3,0,0,0,742.614075
-933,12,3,0,0,0,906.546326
-397,-1449,3,0,0,0,769.534180
-683,-765,3,0,0,0,879.341736
-1381,185,3,0,0,0,791.181885
-1317,-903,3,0,0,0,752.034424
-754,-920,3,0,0,0,836.656555
-1793,1236,3,0,0,0,663.186462
-528,-810,3,0,0,0,896.293884
-1404,1026,3,0,0,0,727.583801
-234,-984,3,0,0,0,883.324829
-378,-1534,3,0,0,0,755.097717
-1745,1200,3,0,0,0,671.161865
-1561,-393,3,0,0,0,749.730713
-630,524,3,1,0,5,213.012314
-1446,1033,3,0,0,0,721.364258
-1612,-100,3,0,0,0,748.771973
-532,1610,3,0,0,0,734.816101
-1819,1157,3,0,0,0,666.080444
-1678,796,3,1,0,5,213.012314
-1904,397,3,0,0,0,695.511414
-1231,743,3,0,0,0,782.147278
-1902,959,3,0,0,0,669.506653
-1410,114,3,1,0,4,248.966049
-472,-1772,3,1,0,4,248.966049
-1128,-648,3,0,0,0,810.916443
-979,-1917,3,1,0,4,248.966049
-1618,1794,3,1,0,5,213.012314
-1270,113,3,0,0,0,816.690063
-855,-1052,3,1,0,4,248.966049
-1879,-82,3,1,0,4,248.966049
-66,-1807,3,0,0,0,716.388306
-641,-1605,3,0,0,0,729.347778
-190,578,3,0,0,0,1029.773560
-1559,1260,3,1,0,5,213.012314
-1044,228,3,0,0,0,867.497620
-1737,-552,3,0,0,0,714.116333
-418,-1439,3,0,0,0,770.284302
-524,-1013,3,0,0,0,848.759216
-117,1310,3,1,0,5,213.012314
-248,-1419,3,0,0,0,781.616394
-895,88,3,0,0,0,917.160889
-1195,1947,3,0,0,0,649.525879
-1809,-136,3,0,0,0,715.455139
-1724,1087,3,1,0,5,213.012314
-1065,1822,3,1,0,5,213.012314
-1396,-163,3,1,0,4,248.966049
-913,1294,3,0,0,0,754.411499
-1309,-1112,3,0,0,0,731.129028
-1934,-732,3,0,0,0,677.977173
-898,-1940,3,0,0,0,668.480164
-1983,1297,3,0,0,0,639.103882
-723,1955,3,0,0,0,675.703064
-1411,1090,3,0,0,0,720.414001
-1965,-631,3,0,0,0,678.539734
-1716,1462,3,0,0,0,653.314026
-83,217,3,1,0,0,404.234161
-1154,-476,3,0,0,0,822.775940
-1726,92,3,1,0,4,248.966049
-1274,1822,3,0,0,0,657.282288
-179,-1986,3,0,0,0,688.376831
-1017,822,3,0,0,0,809.421997
-1315,491,3,1,0,5,213.012314
-1313,-1516,3,1,0,4,248.966049
