each times' max average throughput
612.756226,602.746887,624.439758,603.330017,604.644104,596.795410,595.183105,610.992310,600.748108,605.268066,610.989624,597.911377,605.369202,607.117737,610.317993,588.734314,609.585999,626.433655,611.971802,611.908508,586.992004,592.135498,586.992493,597.290100,607.364014,616.312439,590.145020,618.112305,593.675720,597.657410,603.446960,599.262634,618.866455,592.808838,605.719299,621.429504,608.461609,609.461670,608.681213,601.169067,611.832092,615.732544,608.196228,600.057190,601.926208,599.212463,616.206421,605.337646,603.962097,601.325439,612.306885,612.687256,616.364563,592.634583,603.017334,611.760620,604.463440,604.878479,604.221497,618.429199,587.255066,607.237366,611.431458,614.306702,620.190308,601.113464,600.348450,598.465942,595.562805,619.142944,613.923767,602.274841,608.958740,623.024048,609.034424,589.872314,606.854126,608.323120,616.957703,616.851196,600.346802,608.566040,589.029541,605.638794,614.965698,610.554443,601.828186,620.249268,612.153503,598.001709,609.979370,622.445312,602.940369,606.723938,601.535645,597.930542,607.916992,597.436157,606.339661,610.862244,
avg. throughput in all test times
606.143616
avg. BS TX power in all test times
MBS area 1,MBS area 2,MBS area 3,CBSD 1,CBSD 2,CBSD 3,CBSD 4,CBSD 5,CBSD 6,
8.075,8.188,9.062,0.327,0.251,0.345,0.459,0.404,0.299,
avg. mbs all power,avg. cbsd enable number,avg. mbs area all power,avg. cbsd all power
46.175,2.000,25.325,2.085
avg. max avg. throughput generation number in all test times
0.780000
avg. number of relay UE
127

the max average throughput times

BS TX power
MBS area 1,MBS area 2,MBS area 3,CBSD 1,CBSD 2,CBSD 3,CBSD 4,CBSD 5,CBSD 6,
10.000,5.000,10.000,0.000,0.000,0.000,0.750,0.875,0.750,
max average throughput
610.862244

x,y,area,be blocked (1 : NLOS / 0 : LOS),be blocked number (>=1 : CBSD(x) / 0 : no),connect bs number (>=1 : CBSD / 0 : MBS),throughput (unit : M bps)
1962,690,1,0,0,0,676.336365
1444,-1040,2,1,0,6,125.206245
-1910,454,3,0,0,0,692.835938
1748,1058,1,0,0,0,681.405334
1376,-1931,2,1,0,4,173.387070
-183,-1373,3,0,0,0,792.877014
1387,1268,1,0,0,0,705.348572
1561,-1948,2,0,0,0,526.145264
-198,-380,3,1,0,4,173.387070
669,1163,1,0,0,0,802.037109
1709,-884,2,0,0,0,599.730774
-1109,1844,3,1,0,5,206.091980
713,324,1,0,0,0,957.003235
1196,-939,2,0,0,0,666.793640
-388,-42,3,0,0,0,1157.831177
1513,279,1,0,0,0,762.715454
848,-457,2,0,0,0,797.652039
-999,-1702,3,0,0,0,691.337097
1734,75,1,0,0,0,728.130493
1620,-1937,2,0,0,0,522.915649
-186,-1576,3,0,0,0,753.819641
1228,861,1,1,0,6,331.049744
919,-270,2,0,0,0,799.286072
-506,1710,3,0,0,0,720.363647
1716,519,1,0,0,0,718.845032
1601,-962,2,0,0,0,608.169617
-157,1450,3,0,0,0,778.055908
236,1620,1,1,0,5,176.868042
522,-1580,2,1,0,4,173.387070
-357,-616,3,1,0,4,173.387070
1316,534,1,0,0,0,785.692078
887,-1777,2,0,0,0,590.730286
-58,-595,3,0,0,0,1034.844360
1390,441,1,1,0,6,309.254425
970,-1395,2,0,0,0,635.115295
-1865,-1600,3,1,0,4,173.387070
1953,782,1,1,0,6,196.934311
1938,-236,2,1,0,6,162.905640
-263,1267,3,0,0,0,812.438904
526,913,1,0,0,0,871.546204
873,-421,2,0,0,0,795.894836
-244,-1228,3,1,0,4,173.387070
1454,1485,1,1,0,6,190.244751
257,-327,2,1,0,4,173.387070
-1060,1706,3,1,0,5,227.606094
1832,1796,1,0,0,0,616.466675
1577,-164,2,0,0,0,654.851440
-1154,490,3,1,0,5,248.817886
679,653,1,1,0,6,309.448181
1202,-710,2,0,0,0,691.226807
-438,-1597,3,0,0,0,741.601440
271,770,1,1,0,6,214.741989
806,-1248,2,0,0,0,673.434021
-1207,940,3,1,0,5,292.168121
1844,915,1,0,0,0,679.274109
1678,-979,2,0,0,0,596.996399
-54,-1502,3,0,0,0,769.425476
13,549,1,1,0,5,210.318604
190,-271,2,0,0,0,1105.404175
-468,-1311,3,0,0,0,791.451721
720,1577,1,1,0,6,183.138016
280,-1532,2,0,0,0,659.962158
-199,-1392,3,0,0,0,788.551086
1323,523,1,1,0,6,344.688843
1398,-1806,2,0,0,0,551.191711
-1831,95,3,0,0,0,712.414001
391,245,1,0,0,0,1109.527466
1218,-215,2,1,0,6,209.455582
-883,-550,3,0,0,0,875.230164
807,916,1,0,0,0,829.190613
1754,-1440,2,0,0,0,552.986633
-473,608,3,1,0,5,287.055084
1900,1095,1,1,0,6,188.898529
716,-1769,2,1,0,4,173.387070
-44,-1142,3,0,0,0,848.168030
215,323,1,0,0,0,1159.501831
343,-744,2,0,0,0,844.227600
-1009,-1272,3,0,0,0,747.266357
1007,728,1,0,0,0,824.097839
677,-680,2,0,0,0,798.775146
-915,-377,3,0,0,0,889.603333
910,1472,1,1,0,6,202.113007
1871,-107,2,0,0,0,607.217834
-558,-875,3,0,0,0,875.923523
1153,333,1,0,0,0,834.099304
1830,-1692,2,0,0,0,526.589111
-892,-1298,3,0,0,0,755.995667
385,206,1,1,0,6,218.591827
1220,-324,2,0,0,0,720.065857
-796,1438,3,0,0,0,743.751221
1423,321,1,0,0,0,778.000610
1402,-924,2,0,0,0,638.489319
-1489,182,3,0,0,0,769.977844
1114,931,1,0,0,0,779.371094
1087,-719,2,0,0,0,710.910583
-1489,875,3,1,0,5,231.139664
1390,1492,1,1,0,6,192.561813
805,-1755,2,0,0,0,598.740417
-205,1233,3,0,0,0,822.405396
119,719,1,0,0,0,977.743408
1812,-1070,2,0,0,0,574.335510
-1970,-141,3,0,0,0,691.117737
1249,1885,1,1,0,6,155.287033
1651,-1128,2,0,0,0,588.812744
-197,839,3,1,0,5,264.111389
887,1461,1,1,0,6,203.075348
1878,-1702,2,0,0,0,521.877197
-276,-1151,3,1,0,4,173.387070
1740,1427,1,0,0,0,653.825500
250,-47,2,0,0,0,1181.319580
-953,-1890,3,0,0,0,671.312195
1231,1763,1,0,0,0,666.816528
839,-1633,2,1,0,4,173.387070
-541,-576,3,0,0,0,954.416260
587,1827,1,0,0,0,699.358521
1692,-1534,2,1,0,4,173.387070
-662,981,3,1,0,5,499.147095
1861,491,1,0,0,0,698.509583
1431,-1065,2,0,0,0,621.256348
-141,207,3,1,0,0,373.913757
302,792,1,0,0,0,934.213257
419,-337,2,0,0,0,965.490601
-393,822,3,0,0,0,913.405945
1496,1010,1,0,0,0,716.892700
507,-112,2,0,0,0,975.571899
-332,312,3,1,0,5,222.244431
364,644,1,0,0,0,973.437317
1441,-1631,2,0,0,0,564.809753
-1590,-784,3,0,0,0,722.057861
725,45,1,0,0,0,978.688477
1584,-1946,2,0,0,0,524.697510
-359,879,3,0,0,0,901.526062
1378,1103,1,0,0,0,723.306519
292,-189,2,0,0,0,1091.075439
-1205,-1278,3,0,0,0,724.701782
1387,1441,1,0,0,0,687.515686
169,-1347,2,0,0,0,699.224731
-1341,-1329,3,0,0,0,704.019775
195,1926,1,0,0,0,696.854187
1275,-1726,2,0,0,0,568.805481
-1618,-732,3,0,0,0,721.557617
1443,1353,1,0,0,0,690.675598
896,-1734,2,0,0,0,595.669189
-854,1677,3,0,0,0,704.941589
979,199,1,0,0,0,886.882080
1385,-549,2,0,0,0,672.627869
-642,1705,3,0,0,0,714.232056
1010,57,1,0,0,0,883.277283
100,-582,2,1,0,4,173.387070
-669,-708,3,0,0,0,894.162720
1165,1095,1,0,0,0,751.677551
811,-1833,2,0,0,0,588.125305
-325,815,3,0,0,0,924.263794
763,1679,1,0,0,0,710.735718
1706,-897,2,0,0,0,599.236572
-219,319,3,1,0,5,213.539093
1654,79,1,0,0,0,741.617065
1729,-1810,2,0,0,0,525.378113
-472,-822,3,0,0,0,902.014771
644,853,1,0,0,0,867.443970
1495,-1087,2,0,0,0,611.136536
-1010,-1442,3,0,0,0,724.045715
273,741,1,0,0,0,954.611877
743,-1826,2,0,0,0,592.838440
-1388,-427,3,1,0,4,173.387070
1601,386,1,1,0,6,252.061371
1880,-979,2,1,0,6,118.951683
-931,575,3,0,0,0,860.671997
713,577,1,0,0,0,911.481934
346,-915,2,0,0,0,793.232117
-1636,-696,3,0,0,0,721.232361
465,1337,1,0,0,0,786.636658
1735,-1277,2,1,0,6,106.598061
-1338,1693,3,0,0,0,665.801941
165,1158,1,1,0,5,204.573273
648,-1029,2,0,0,0,730.766602
-1798,1430,3,0,0,0,647.925476
655,1951,1,1,0,6,145.966507
1628,-1875,2,0,0,0,527.628418
-1752,-712,3,0,0,0,703.541626
1283,1765,1,0,0,0,662.622437
162,-1646,2,0,0,0,642.792175
-1246,-873,3,0,0,0,765.926880
428,900,1,0,0,0,887.584595
324,-77,2,0,0,0,1103.619507
-131,-1449,3,1,0,4,173.387070
1504,755,1,0,0,0,736.981201
272,-1687,2,0,0,0,633.494202
-152,-1680,3,0,0,0,736.301025
1913,488,1,0,0,0,691.230286
1344,-768,2,1,0,6,146.659882
-1992,1187,3,0,0,0,645.265869
1588,409,1,0,0,0,744.412964
192,-1879,2,1,0,4,173.387070
-337,-520,3,0,0,0,1024.503174
254,1283,1,0,0,0,809.368713
1573,-1889,2,0,0,0,530.469543
-1417,-171,3,0,0,0,784.266357
1419,252,1,0,0,0,781.477844
1203,-1048,2,0,0,0,653.063843
-513,1501,3,0,0,0,753.945129
1918,1047,1,0,0,0,662.214539
1817,-921,2,1,0,6,124.094139
-1114,-1826,3,0,0,0,668.315491
1187,31,1,0,0,0,837.164185
1612,-354,2,0,0,0,643.403381
-1956,-256,3,1,0,4,173.387070
1901,1593,1,1,0,6,154.611450
1758,-854,2,0,0,0,595.285706
-698,-193,3,0,0,0,979.564392
1958,1990,1,0,0,0,592.451782
1199,-994,2,1,0,4,173.387070
-926,1050,3,0,0,0,789.812988
1973,1265,1,1,0,6,171.252792
1763,-329,2,0,0,0,619.725037
-1213,421,3,0,0,0,814.675415
1540,310,1,0,0,0,756.736328
719,-5,2,0,0,0,881.790833
-803,206,3,1,0,4,173.387070
1995,1282,1,0,0,0,638.874451
1793,-1951,2,0,0,0,509.404816
-653,419,3,0,0,0,959.700439
1932,1397,1,0,0,0,637.344543
1214,-1993,2,1,0,4,173.387070
-215,-285,3,0,0,0,1183.529419
328,1624,1,0,0,0,741.460083
1583,-1140,2,0,0,0,595.821594
-1800,-91,3,1,0,4,173.387070
489,948,1,1,0,6,238.231674
980,-1736,2,0,0,0,589.669861
-193,-1478,3,0,0,0,771.808777
174,1873,1,0,0,0,705.072876
1278,-1563,2,0,0,0,586.070374
-1891,1184,3,0,0,0,656.275696
1901,1222,1,0,0,0,652.614075
1139,-924,2,0,0,0,677.110046
-264,-938,3,0,0,0,894.054199
1663,1441,1,1,0,6,182.026489
1096,-72,2,0,0,0,759.965271
-1303,-888,3,0,0,0,755.655579
1723,69,1,0,0,0,729.993225
1746,-303,2,0,0,0,623.132202
-574,-72,3,0,0,0,1044.317261
589,557,1,0,0,0,947.060059
1931,-128,2,0,0,0,598.090881
-283,-1311,3,0,0,0,802.142395
995,1339,1,0,0,0,739.488831
1994,-1309,2,0,0,0,538.943604
-433,-316,3,1,0,4,173.387070
1851,1489,1,1,0,6,165.179535
1070,-401,2,0,0,0,748.614929
-545,-1535,3,0,0,0,746.334167
1311,1983,1,0,0,0,638.179871
1986,-1661,2,0,0,0,515.902649
-1800,517,3,1,0,5,177.803772
482,1063,1,0,0,0,842.108093
1361,-1883,2,1,0,4,173.387070
-98,-165,3,0,0,0,1362.603149
78,329,1,1,0,0,258.999817
1861,-1951,2,0,0,0,504.536530
-19,-2000,3,0,0,0,687.511658
1355,1468,1,0,0,0,687.845093
881,-1955,2,1,0,4,173.387070
-914,-1501,3,1,0,4,173.387070
350,1365,1,0,0,0,787.937805
1329,-160,2,0,0,0,703.252380
-244,1465,3,0,0,0,772.844727
611,1499,1,0,0,0,748.125732
928,-612,2,0,0,0,756.518005
-806,1413,3,0,0,0,746.715454
59,271,1,1,0,0,333.593323
983,-1320,2,0,0,0,644.199829
-1135,-1552,3,0,0,0,698.798767
976,1921,1,0,0,0,666.221985
1016,-1491,2,1,0,4,173.387070
-532,-1217,3,0,0,0,804.941589
1766,1499,1,1,0,6,170.023773
1578,-1838,2,0,0,0,534.587097
-242,666,3,0,0,0,985.835510
167,770,1,0,0,0,955.265198
1633,-864,2,0,0,0,611.278381
-66,1160,3,0,0,0,843.416870
768,1046,1,1,0,6,266.309540
934,-812,2,0,0,0,725.723267
-567,-839,3,0,0,0,882.987732
38,1415,1,0,0,0,786.645508
601,-649,2,1,0,4,173.387070
-1610,66,3,1,0,4,173.387070
550,1771,1,0,0,0,709.155701
994,-613,2,0,0,0,742.369385
-625,-222,3,1,0,4,173.387070
1022,424,1,0,0,0,857.478333
1197,-1195,2,0,0,0,636.408875
-915,-1125,3,0,0,0,779.705872
1680,490,1,0,0,0,725.765320
1510,-1517,2,0,0,0,569.523499
-94,1076,3,1,0,5,246.953171
1712,1646,1,0,0,0,638.451294
419,-1603,2,0,0,0,642.292175
-864,557,3,1,0,5,293.126801
120,499,1,0,0,0,1078.838745
1372,-242,2,0,0,0,691.812195
-776,1667,3,0,0,0,711.586670
608,1628,1,0,0,0,727.766113
1214,-874,2,0,0,0,671.470642
-1896,-1132,3,0,0,0,659.216492
259,1343,1,0,0,0,796.508789
1578,-1326,2,0,0,0,580.208862
-654,-11,3,0,0,0,1008.909485
640,799,1,0,0,0,879.850769
1111,-394,2,0,0,0,739.686646
-613,615,3,0,0,0,927.261414
1105,1401,1,0,0,0,720.197510
611,-514,2,0,0,0,851.631409
-238,-869,3,1,0,4,173.387070
579,1837,1,0,0,0,698.300903
853,-1653,2,1,0,4,173.387070
-319,-1820,3,0,0,0,710.191467
85,683,1,0,0,0,994.228333
1626,-38,2,0,0,0,647.576355
-1949,-335,3,0,0,0,690.749756
857,317,1,0,0,0,912.574829
1501,-673,2,1,0,6,150.816101
-461,317,3,0,0,0,1053.959229
1224,14,1,0,0,0,828.414307
820,-1957,2,1,0,4,173.387070
-1478,502,3,1,0,5,210.918259
479,1896,1,0,0,0,693.952515
1193,-1073,2,0,0,0,651.443665
-1808,737,3,0,0,0,694.410767
427,1541,1,1,0,6,172.216797
1861,-1859,2,1,0,4,173.387070
-837,-510,3,0,0,0,892.376526
167,1368,1,0,0,0,794.329834
1194,-1193,2,0,0,0,637.005493
-1164,-997,3,0,0,0,763.817688
284,953,1,0,0,0,888.212097
96,-1313,2,1,0,4,173.387070
-1426,1400,3,1,0,5,225.300720
1688,979,1,0,0,0,694.570435
858,-361,2,1,0,6,189.350967
-1119,-807,3,0,0,0,794.020386
1121,1347,1,0,0,0,725.365723
1454,-973,2,0,0,0,626.782104
-793,-112,3,1,0,4,173.387070
190,1445,1,0,0,0,778.260254
597,-625,2,0,0,0,828.828125
-1808,958,3,0,0,0,681.002930
840,905,1,0,0,0,825.916626
611,-1517,2,1,0,4,173.387070
-1953,-762,3,1,0,4,173.387070
727,200,1,1,0,6,269.579193
39,-532,2,0,0,0,967.793823
-1835,1586,3,0,0,0,632.455994
539,-1016,2,0,0,0,746.750977
-1067,926,3,0,0,0,787.198914
1353,-138,2,0,0,0,698.706726
-1239,-497,3,0,0,0,803.481262
1503,-379,2,0,0,0,661.309204
-656,-843,3,1,0,4,173.387070
-1539,1466,3,1,0,5,206.204987
-1930,-1652,3,0,0,0,619.257080
-801,757,3,0,0,0,858.612305
-82,-890,3,0,0,0,918.942810
-213,1883,3,0,0,0,702.957886
-687,1650,3,1,0,5,248.353119
-486,1752,3,0,0,0,714.815674
-832,-1914,3,0,0,0,675.346008
-1852,1126,3,0,0,0,664.540771
-368,1203,3,0,0,0,820.547363
-324,133,3,0,0,0,1189.048950
-954,1722,3,0,0,0,692.051697
-1144,-1830,3,0,0,0,665.766785
-1153,1948,3,0,0,0,652.139282
-1483,-1091,3,0,0,0,711.226624
-1980,-402,3,0,0,0,684.622131
-361,-1016,3,0,0,0,864.917603
-745,-389,3,1,0,4,173.387070
-132,-1672,3,0,0,0,737.948059
-87,-1779,3,0,0,0,720.712036
-734,-532,3,0,0,0,914.862427
-1891,-1847,3,0,0,0,607.966370
-1706,1110,3,1,0,5,200.174515
-998,716,3,1,0,5,317.540009
-859,-906,3,0,0,0,822.736816
-8,-1843,3,0,0,0,710.925171
-1914,-787,3,1,0,4,173.387070
-1583,1319,3,0,0,0,679.001343
-1569,1901,3,0,0,0,627.859314
-1344,-1381,3,0,0,0,698.158569
-416,-33,3,0,0,0,1138.508423
-255,-1755,3,1,0,4,173.387070
-1126,849,3,1,0,5,308.440002
-1874,160,3,0,0,0,705.110413
-1253,648,3,1,0,5,256.095123
-1894,1152,3,0,0,0,658.105408
-1165,-146,3,0,0,0,840.402649
-341,1884,3,0,0,0,700.011536
-932,1631,3,0,0,0,705.462524
-1998,729,3,1,0,5,165.777985
-1933,-1898,3,0,0,0,600.990417
-953,-311,3,0,0,0,885.891968
-861,-1692,3,1,0,4,173.387070
-988,480,3,0,0,0,859.575684
-1672,1459,3,1,0,5,191.841095
-1231,146,3,0,0,0,824.784424
-723,289,3,1,0,5,237.628876
-1025,1250,3,0,0,0,748.520203
-1275,1043,3,1,0,5,275.342285
-1905,-969,3,1,0,4,173.387070
-1502,-201,3,0,0,0,767.062500
-384,235,3,0,0,0,1116.624756
-1672,-1678,3,0,0,0,639.186035
-661,146,3,0,0,0,999.015625
-1131,663,3,0,0,0,808.687683
-1212,-1765,3,1,0,4,173.387070
-1090,-1663,3,1,0,4,173.387070
-772,-1709,3,0,0,0,705.955322
-1193,1221,3,0,0,0,732.885986
-766,-1620,3,1,0,4,173.387070
-1319,76,3,0,0,0,806.463135
-1599,914,3,0,0,0,711.115662
-1507,168,3,1,0,4,173.387070
-1659,1346,3,0,0,0,668.667847
-1257,1434,3,0,0,0,701.161499
-305,-1186,3,0,0,0,828.294556
-924,-511,3,0,0,0,870.944458
-384,-1889,3,0,0,0,698.070801
-1613,-723,3,0,0,0,722.892883
-1699,963,3,1,0,5,201.794662
-1438,-1279,3,1,0,4,173.387070
-763,-1986,3,0,0,0,669.850830
-913,714,3,0,0,0,844.120911
-677,-704,3,1,0,4,173.387070
-1311,-337,3,0,0,0,799.492371
-1672,1296,3,0,0,0,671.475403
-784,1452,3,0,0,0,742.614075
-933,12,3,0,0,0,906.546326
-397,-1449,3,0,0,0,769.534180
-683,-765,3,0,0,0,879.341736
-1381,185,3,0,0,0,791.181885
-1317,-903,3,0,0,0,752.034424
-754,-920,3,0,0,0,836.656555
-1793,1236,3,0,0,0,663.186462
-528,-810,3,0,0,0,896.293884
-1404,1026,3,0,0,0,727.583801
-234,-984,3,0,0,0,883.324829
-378,-1534,3,0,0,0,755.097717
-1745,1200,3,0,0,0,671.161865
-1561,-393,3,0,0,0,749.730713
-630,524,3,1,0,5,284.224426
-1446,1033,3,0,0,0,721.364258
-1612,-100,3,0,0,0,748.771973
-532,1610,3,0,0,0,734.816101
-1819,1157,3,0,0,0,666.080444
-1678,796,3,1,0,5,201.738037
-1904,397,3,0,0,0,695.511414
-1231,743,3,0,0,0,782.147278
-1902,959,3,0,0,0,669.506653
-1410,114,3,1,0,4,173.387070
-472,-1772,3,1,0,4,173.387070
-1128,-648,3,0,0,0,810.916443
-979,-1917,3,1,0,4,173.387070
-1618,1794,3,1,0,5,175.664444
-1270,113,3,0,0,0,816.690063
-855,-1052,3,1,0,4,173.387070
-1879,-82,3,1,0,4,173.387070
-66,-1807,3,0,0,0,716.388306
-641,-1605,3,0,0,0,729.347778
-190,578,3,0,0,0,1029.773560
-1559,1260,3,1,0,5,215.534393
-1044,228,3,0,0,0,867.497620
-1737,-552,3,0,0,0,714.116333
-418,-1439,3,0,0,0,770.284302
-524,-1013,3,0,0,0,848.759216
-117,1310,3,1,0,5,238.807144
-248,-1419,3,0,0,0,781.616394
-895,88,3,0,0,0,917.160889
-1195,1947,3,0,0,0,649.525879
-1809,-136,3,0,0,0,715.455139
-1724,1087,3,1,0,5,198.201416
-1065,1822,3,1,0,5,211.163483
-1396,-163,3,1,0,4,173.387070
-913,1294,3,0,0,0,754.411499
-1309,-1112,3,0,0,0,731.129028
-1934,-732,3,0,0,0,677.977173
-898,-1940,3,0,0,0,668.480164
-1983,1297,3,0,0,0,639.103882
-723,1955,3,0,0,0,675.703064
-1411,1090,3,0,0,0,720.414001
-1965,-631,3,0,0,0,678.539734
-1716,1462,3,0,0,0,653.314026
-83,217,3,1,0,0,404.234161
-1154,-476,3,0,0,0,822.775940
-1726,92,3,1,0,4,173.387070
-1274,1822,3,0,0,0,657.282288
-179,-1986,3,0,0,0,688.376831
-1017,822,3,0,0,0,809.421997
-1315,491,3,1,0,5,229.329529
-1313,-1516,3,1,0,4,173.387070


each generation good chromosome number
9,8,10,