405.743042,405.743042,405.743042,405.743042,405.743042,405.743042,405.743042,405.743042,405.743042,405.743042,405.743042,405.743042,405.743042,405.743042,405.743042,405.743042,405.743042,405.743042,405.743042,405.743042,405.743042,405.743042,405.743042,405.743042,405.743042,405.743042,405.743042,405.743042,405.743042,405.743042,405.743042,405.743042,405.743042,405.743042,405.743042,405.743042,405.743042,405.743042,405.743042,405.743042,405.743042,405.743042,405.743042,405.743042,405.743042,405.743042,405.743042,405.743042,405.743042,405.743042,405.743042,405.743042,405.743042,405.743042,405.743042,405.743042,405.743042,405.743042,405.743042,405.743042,405.743042,405.743042,405.743042,405.743042,405.743042,405.743042,405.743042,405.743042,405.743042,405.743042,405.743042,405.743042,405.743042,405.743042,405.743042,405.743042,405.743042,405.743042,405.743042,405.743042,405.743042,405.743042,405.743042,405.743042,405.743042,405.743042,405.743042,405.743042,405.743042,405.743042,405.743042,405.743042,405.743042,405.743042,405.743042,405.743042,405.743042,405.743042,405.743042,405.743042,

avg. max avg. throughput in test times
405.742584
avg. BS TX power in all test times
MBS area 1,MBS area 2,MBS area 3,CBSD 1,CBSD 2,CBSD 3,CBSD 4,CBSD 5,CBSD 6,
10.000,10.000,10.000,0.000,0.000,0.000,1.000,0.000,1.000,
avg. mbs all power,avg. cbsd enable number,avg. mbs area all power,avg. cbsd all power
45.000,2.000,30.000,2.000
avg. number of relay UE
284

BS TX power
MBS area 1,MBS area 2,MBS area 3,CBSD 1,CBSD 2,CBSD 3,CBSD 4,CBSD 5,CBSD 6,
10.000,10.000,10.000,0.000,0.000,0.000,1.000,0.000,1.000,
max average power
600.215027

x,y,area,be blocked (1 : NLOS / 0 : LOS),be blocked number (>=1 : CBSD(x) / 0 : no),connect bs number (>=1 : CBSD / 0 : MBS),throughput (unit : M bps)
1962,690,1,0,0,6,111.606514
1444,-1040,2,1,0,4,48.792339
-1910,454,3,0,0,4,48.792339
1748,1058,1,0,0,6,111.606514
1376,-1931,2,1,0,4,48.792339
-183,-1373,3,0,0,0,792.877014
1387,1268,1,0,0,6,111.606514
1561,-1948,2,0,0,4,48.792339
-198,-380,3,1,0,4,48.792339
669,1163,1,0,0,0,802.037109
1709,-884,2,0,0,6,111.606514
-1109,1844,3,1,0,4,48.792339
713,324,1,0,0,0,957.003235
1196,-939,2,0,0,0,766.082520
-388,-42,3,0,0,0,1157.831177
1513,279,1,0,0,0,762.715454
848,-457,2,0,0,0,897.365356
-999,-1702,3,0,0,4,48.792339
1734,75,1,0,0,0,728.130493
1620,-1937,2,0,0,4,48.792339
-186,-1576,3,0,0,0,753.819641
1228,861,1,1,0,6,111.606514
919,-270,2,0,0,0,899.002625
-506,1710,3,0,0,6,111.606514
1716,519,1,0,0,6,111.606514
1601,-962,2,0,0,6,111.606514
-157,1450,3,0,0,0,778.055908
236,1620,1,1,0,6,111.606514
522,-1580,2,1,0,4,48.792339
-357,-616,3,1,0,4,48.792339
1316,534,1,0,0,0,785.692078
887,-1777,2,0,0,4,48.792339
-58,-595,3,0,0,0,1034.844360
1390,441,1,1,0,6,111.606514
970,-1395,2,0,0,0,734.228943
-1865,-1600,3,1,0,4,48.792339
1953,782,1,1,0,6,111.606514
1938,-236,2,1,0,6,111.606514
-263,1267,3,0,0,0,812.438904
526,913,1,0,0,0,871.546204
873,-421,2,0,0,0,895.604675
-244,-1228,3,1,0,4,48.792339
1454,1485,1,1,0,6,111.606514
257,-327,2,1,0,4,48.792339
-1060,1706,3,1,0,4,48.792339
1832,1796,1,0,0,6,111.606514
1577,-164,2,0,0,0,754.078735
-1154,490,3,1,0,4,48.792339
679,653,1,1,0,6,111.606514
1202,-710,2,0,0,0,790.626648
-438,-1597,3,0,0,0,741.601440
271,770,1,1,0,6,111.606514
806,-1248,2,0,0,0,772.754944
-1207,940,3,1,0,4,48.792339
1844,915,1,0,0,6,111.606514
1678,-979,2,0,0,6,111.606514
-54,-1502,3,0,0,0,769.425476
13,549,1,1,0,6,111.606514
190,-271,2,0,0,0,1205.370117
-468,-1311,3,0,0,0,791.451721
720,1577,1,1,0,6,111.606514
280,-1532,2,0,0,0,759.216431
-199,-1392,3,0,0,0,788.551086
1323,523,1,1,0,6,111.606514
1398,-1806,2,0,0,4,48.792339
-1831,95,3,0,0,4,48.792339
391,245,1,0,0,0,1109.527466
1218,-215,2,1,0,6,111.606514
-883,-550,3,0,0,0,875.230164
807,916,1,0,0,0,829.190613
1754,-1440,2,0,0,4,48.792339
-473,608,3,1,0,4,48.792339
1900,1095,1,1,0,6,111.606514
716,-1769,2,1,0,4,48.792339
-44,-1142,3,0,0,0,848.168030
215,323,1,0,0,0,1159.501831
343,-744,2,0,0,0,944.020020
-1009,-1272,3,0,0,0,747.266357
1007,728,1,0,0,0,824.097839
677,-680,2,0,0,0,898.490662
-915,-377,3,0,0,0,889.603333
910,1472,1,1,0,6,111.606514
1871,-107,2,0,0,6,111.606514
-558,-875,3,0,0,0,875.923523
1153,333,1,0,0,0,834.099304
1830,-1692,2,0,0,4,48.792339
-892,-1298,3,0,0,0,755.995667
385,206,1,1,0,6,111.606514
1220,-324,2,0,0,0,819.574646
-796,1438,3,0,0,0,743.751221
1423,321,1,0,0,0,778.000610
1402,-924,2,0,0,0,737.623596
-1489,182,3,0,0,0,769.977844
1114,931,1,0,0,0,779.371094
1087,-719,2,0,0,0,810.387146
-1489,875,3,1,0,4,48.792339
1390,1492,1,1,0,6,111.606514
805,-1755,2,0,0,4,48.792339
-205,1233,3,0,0,0,822.405396
119,719,1,0,0,0,977.743408
1812,-1070,2,0,0,6,111.606514
-1970,-141,3,0,0,4,48.792339
1249,1885,1,1,0,6,111.606514
1651,-1128,2,0,0,4,48.792339
-197,839,3,1,0,4,48.792339
887,1461,1,1,0,6,111.606514
1878,-1702,2,0,0,4,48.792339
-276,-1151,3,1,0,4,48.792339
1740,1427,1,0,0,6,111.606514
250,-47,2,0,0,0,1281.299438
-953,-1890,3,0,0,4,48.792339
1231,1763,1,0,0,6,111.606514
839,-1633,2,1,0,4,48.792339
-541,-576,3,0,0,0,954.416260
587,1827,1,0,0,6,111.606514
1692,-1534,2,1,0,4,48.792339
-662,981,3,1,0,4,48.792339
1861,491,1,0,0,6,111.606514
1431,-1065,2,0,0,4,48.792339
-141,207,3,1,0,4,48.792339
302,792,1,0,0,0,934.213257
419,-337,2,0,0,0,1065.401123
-393,822,3,0,0,0,913.405945
1496,1010,1,0,0,6,111.606514
507,-112,2,0,0,0,1075.488403
-332,312,3,1,0,4,48.792339
364,644,1,0,0,0,973.437317
1441,-1631,2,0,0,4,48.792339
-1590,-784,3,0,0,4,48.792339
725,45,1,0,0,0,978.688477
1584,-1946,2,0,0,4,48.792339
-359,879,3,0,0,0,901.526062
1378,1103,1,0,0,6,111.606514
292,-189,2,0,0,0,1191.037964
-1205,-1278,3,0,0,0,724.701782
1387,1441,1,0,0,6,111.606514
169,-1347,2,0,0,0,798.656982
-1341,-1329,3,0,0,4,48.792339
195,1926,1,0,0,6,111.606514
1275,-1726,2,0,0,4,48.792339
-1618,-732,3,0,0,4,48.792339
1443,1353,1,0,0,6,111.606514
896,-1734,2,0,0,4,48.792339
-854,1677,3,0,0,4,48.792339
979,199,1,0,0,0,886.882080
1385,-549,2,0,0,0,771.945007
-642,1705,3,0,0,4,48.792339
1010,57,1,0,0,0,883.277283
100,-582,2,1,0,4,48.792339
-669,-708,3,0,0,0,894.162720
1165,1095,1,0,0,0,751.677551
811,-1833,2,0,0,4,48.792339
-325,815,3,0,0,0,924.263794
763,1679,1,0,0,6,111.606514
1706,-897,2,0,0,6,111.606514
-219,319,3,1,0,4,48.792339
1654,79,1,0,0,0,741.617065
1729,-1810,2,0,0,4,48.792339
-472,-822,3,0,0,0,902.014771
644,853,1,0,0,0,867.443970
1495,-1087,2,0,0,4,48.792339
-1010,-1442,3,0,0,0,724.045715
273,741,1,0,0,0,954.611877
743,-1826,2,0,0,4,48.792339
-1388,-427,3,1,0,4,48.792339
1601,386,1,1,0,6,111.606514
1880,-979,2,1,0,6,111.606514
-931,575,3,0,0,0,860.671997
713,577,1,0,0,0,911.481934
346,-915,2,0,0,0,892.936523
-1636,-696,3,0,0,4,48.792339
465,1337,1,0,0,0,786.636658
1735,-1277,2,1,0,4,48.792339
-1338,1693,3,0,0,4,48.792339
165,1158,1,1,0,6,111.606514
648,-1029,2,0,0,0,830.310547
-1798,1430,3,0,0,4,48.792339
655,1951,1,1,0,6,111.606514
1628,-1875,2,0,0,4,48.792339
-1752,-712,3,0,0,4,48.792339
1283,1765,1,0,0,6,111.606514
162,-1646,2,0,0,0,741.951904
-1246,-873,3,0,0,0,765.926880
428,900,1,0,0,0,887.584595
324,-77,2,0,0,0,1203.585083
-131,-1449,3,1,0,4,48.792339
1504,755,1,0,0,0,736.981201
272,-1687,2,0,0,0,732.597839
-152,-1680,3,0,0,0,736.301025
1913,488,1,0,0,6,111.606514
1344,-768,2,1,0,6,111.606514
-1992,1187,3,0,0,4,48.792339
1588,409,1,0,0,0,744.412964
192,-1879,2,1,0,4,48.792339
-337,-520,3,0,0,0,1024.503174
254,1283,1,0,0,0,809.368713
1573,-1889,2,0,0,4,48.792339
-1417,-171,3,0,0,0,784.266357
1419,252,1,0,0,0,781.477844
1203,-1048,2,0,0,0,752.281433
-513,1501,3,0,0,0,753.945129
1918,1047,1,0,0,6,111.606514
1817,-921,2,1,0,6,111.606514
-1114,-1826,3,0,0,4,48.792339
1187,31,1,0,0,0,837.164185
1612,-354,2,0,0,0,742.566711
-1956,-256,3,1,0,4,48.792339
1901,1593,1,1,0,6,111.606514
1758,-854,2,0,0,6,111.606514
-698,-193,3,0,0,0,979.564392
1958,1990,1,0,0,6,111.606514
1199,-994,2,1,0,4,48.792339
-926,1050,3,0,0,0,789.812988
1973,1265,1,1,0,6,111.606514
1763,-329,2,0,0,6,111.606514
-1213,421,3,0,0,0,814.675415
1540,310,1,0,0,0,756.736328
719,-5,2,0,0,0,981.630920
-803,206,3,1,0,4,48.792339
1995,1282,1,0,0,6,111.606514
1793,-1951,2,0,0,4,48.792339
-653,419,3,0,0,0,959.700439
1932,1397,1,0,0,6,111.606514
1214,-1993,2,1,0,4,48.792339
-215,-285,3,0,0,0,1183.529419
328,1624,1,0,0,0,741.460083
1583,-1140,2,0,0,4,48.792339
-1800,-91,3,1,0,4,48.792339
489,948,1,1,0,6,111.606514
980,-1736,2,0,0,4,48.792339
-193,-1478,3,0,0,0,771.808777
174,1873,1,0,0,6,111.606514
1278,-1563,2,0,0,4,48.792339
-1891,1184,3,0,0,4,48.792339
1901,1222,1,0,0,6,111.606514
1139,-924,2,0,0,0,776.448059
-264,-938,3,0,0,0,894.054199
1663,1441,1,1,0,6,111.606514
1096,-72,2,0,0,0,859.592834
-1303,-888,3,0,0,0,755.655579
1723,69,1,0,0,0,729.993225
1746,-303,2,0,0,6,111.606514
-574,-72,3,0,0,0,1044.317261
589,557,1,0,0,0,947.060059
1931,-128,2,0,0,6,111.606514
-283,-1311,3,0,0,0,802.142395
995,1339,1,0,0,0,739.488831
1994,-1309,2,0,0,4,48.792339
-433,-316,3,1,0,4,48.792339
1851,1489,1,1,0,6,111.606514
1070,-401,2,0,0,0,848.212036
-545,-1535,3,0,0,0,746.334167
1311,1983,1,0,0,6,111.606514
1986,-1661,2,0,0,4,48.792339
-1800,517,3,1,0,4,48.792339
482,1063,1,0,0,0,842.108093
1361,-1883,2,1,0,4,48.792339
-98,-165,3,0,0,0,1362.603149
78,329,1,1,0,4,48.792339
1861,-1951,2,0,0,4,48.792339
-19,-2000,3,0,0,4,48.792339
1355,1468,1,0,0,6,111.606514
881,-1955,2,1,0,4,48.792339
-914,-1501,3,1,0,4,48.792339
350,1365,1,0,0,0,787.937805
1329,-160,2,0,0,0,802.700378
-244,1465,3,0,0,0,772.844727
611,1499,1,0,0,0,748.125732
928,-612,2,0,0,0,856.136597
-806,1413,3,0,0,0,746.715454
59,271,1,1,0,4,48.792339
983,-1320,2,0,0,0,743.367737
-1135,-1552,3,0,0,4,48.792339
976,1921,1,0,0,6,111.606514
1016,-1491,2,1,0,4,48.792339
-532,-1217,3,0,0,0,804.941589
1766,1499,1,1,0,6,111.606514
1578,-1838,2,0,0,4,48.792339
-242,666,3,0,0,0,985.835510
167,770,1,0,0,0,955.265198
1633,-864,2,0,0,6,111.606514
-66,1160,3,0,0,0,843.416870
768,1046,1,1,0,6,111.606514
934,-812,2,0,0,0,825.250977
-567,-839,3,0,0,0,882.987732
38,1415,1,0,0,0,786.645508
601,-649,2,1,0,4,48.792339
-1610,66,3,1,0,4,48.792339
550,1771,1,0,0,6,111.606514
994,-613,2,0,0,0,841.948669
-625,-222,3,1,0,4,48.792339
1022,424,1,0,0,0,857.478333
1197,-1195,2,0,0,0,735.530457
-915,-1125,3,0,0,0,779.705872
1680,490,1,0,0,0,725.765320
1510,-1517,2,0,0,4,48.792339
-94,1076,3,1,0,6,111.606514
1712,1646,1,0,0,6,111.606514
419,-1603,2,0,0,0,741.448975
-864,557,3,1,0,4,48.792339
120,499,1,0,0,0,1078.838745
1372,-242,2,0,0,0,791.214478
-776,1667,3,0,0,4,48.792339
608,1628,1,0,0,0,727.766113
1214,-874,2,0,0,0,770.782166
-1896,-1132,3,0,0,4,48.792339
259,1343,1,0,0,0,796.508789
1578,-1326,2,0,0,4,48.792339
-654,-11,3,0,0,0,1008.909485
640,799,1,0,0,0,879.850769
1111,-394,2,0,0,0,839.257935
-613,615,3,0,0,0,927.261414
1105,1401,1,0,0,6,111.606514
611,-514,2,0,0,0,951.434265
-238,-869,3,1,0,4,48.792339
579,1837,1,0,0,6,111.606514
853,-1653,2,1,0,4,48.792339
-319,-1820,3,0,0,4,48.792339
85,683,1,0,0,0,994.228333
1626,-38,2,0,0,0,746.763611
-1949,-335,3,0,0,4,48.792339
857,317,1,0,0,0,912.574829
1501,-673,2,1,0,6,111.606514
-461,317,3,0,0,0,1053.959229
1224,14,1,0,0,0,828.414307
820,-1957,2,1,0,4,48.792339
-1478,502,3,1,0,4,48.792339
479,1896,1,0,0,6,111.606514
1193,-1073,2,0,0,0,750.652405
-1808,737,3,0,0,4,48.792339
427,1541,1,1,0,6,111.606514
1861,-1859,2,1,0,4,48.792339
-837,-510,3,0,0,0,892.376526
167,1368,1,0,0,0,794.329834
1194,-1193,2,0,0,0,736.130737
-1164,-997,3,0,0,0,763.817688
284,953,1,0,0,0,888.212097
96,-1313,2,1,0,4,48.792339
-1426,1400,3,1,0,4,48.792339
1688,979,1,0,0,6,111.606514
858,-361,2,1,0,6,111.606514
-1119,-807,3,0,0,0,794.020386
1121,1347,1,0,0,0,725.365723
1454,-973,2,0,0,0,725.842896
-793,-112,3,1,0,4,48.792339
190,1445,1,0,0,0,778.260254
597,-625,2,0,0,0,928.597168
-1808,958,3,0,0,4,48.792339
840,905,1,0,0,0,825.916626
611,-1517,2,1,0,4,48.792339
-1953,-762,3,1,0,4,48.792339
727,200,1,1,0,6,111.606514
39,-532,2,0,0,0,1067.705688
-1835,1586,3,0,0,4,48.792339
539,-1016,2,0,0,0,846.342834
-1067,926,3,0,0,0,787.198914
1353,-138,2,0,0,0,798.136963
-1239,-497,3,0,0,0,803.481262
1503,-379,2,0,0,0,760.570374
-656,-843,3,1,0,4,48.792339
-1539,1466,3,1,0,4,48.792339
-1930,-1652,3,0,0,4,48.792339
-801,757,3,0,0,0,858.612305
-82,-890,3,0,0,0,918.942810
-213,1883,3,0,0,6,111.606514
-687,1650,3,1,0,4,48.792339
-486,1752,3,0,0,6,111.606514
-832,-1914,3,0,0,4,48.792339
-1852,1126,3,0,0,4,48.792339
-368,1203,3,0,0,0,820.547363
-324,133,3,0,0,0,1189.048950
-954,1722,3,0,0,4,48.792339
-1144,-1830,3,0,0,4,48.792339
-1153,1948,3,0,0,4,48.792339
-1483,-1091,3,0,0,4,48.792339
-1980,-402,3,0,0,4,48.792339
-361,-1016,3,0,0,0,864.917603
-745,-389,3,1,0,4,48.792339
-132,-1672,3,0,0,0,737.948059
-87,-1779,3,0,0,4,48.792339
-734,-532,3,0,0,0,914.862427
-1891,-1847,3,0,0,4,48.792339
-1706,1110,3,1,0,4,48.792339
-998,716,3,1,0,4,48.792339
-859,-906,3,0,0,4,48.792339
-8,-1843,3,0,0,4,48.792339
-1914,-787,3,1,0,4,48.792339
-1583,1319,3,0,0,4,48.792339
-1569,1901,3,0,0,4,48.792339
-1344,-1381,3,0,0,4,48.792339
-416,-33,3,0,0,0,1138.508423
-255,-1755,3,1,0,4,48.792339
-1126,849,3,1,0,4,48.792339
-1874,160,3,0,0,4,48.792339
-1253,648,3,1,0,4,48.792339
-1894,1152,3,0,0,4,48.792339
-1165,-146,3,0,0,0,840.402649
-341,1884,3,0,0,6,111.606514
-932,1631,3,0,0,4,48.792339
-1998,729,3,1,0,4,48.792339
-1933,-1898,3,0,0,4,48.792339
-953,-311,3,0,0,0,885.891968
-861,-1692,3,1,0,4,48.792339
-988,480,3,0,0,0,859.575684
-1672,1459,3,1,0,4,48.792339
-1231,146,3,0,0,0,824.784424
-723,289,3,1,0,4,48.792339
-1025,1250,3,0,0,0,748.520203
-1275,1043,3,1,0,4,48.792339
-1905,-969,3,1,0,4,48.792339
-1502,-201,3,0,0,0,767.062500
-384,235,3,0,0,0,1116.624756
-1672,-1678,3,0,0,4,48.792339
-661,146,3,0,0,0,999.015625
-1131,663,3,0,0,0,808.687683
-1212,-1765,3,1,0,4,48.792339
-1090,-1663,3,1,0,4,48.792339
-772,-1709,3,0,0,4,48.792339
-1193,1221,3,0,0,0,732.885986
-766,-1620,3,1,0,4,48.792339
-1319,76,3,0,0,0,806.463135
-1599,914,3,0,0,4,48.792339
-1507,168,3,1,0,4,48.792339
-1659,1346,3,0,0,4,48.792339
-1257,1434,3,0,0,4,48.792339
-305,-1186,3,0,0,0,828.294556
-924,-511,3,0,0,0,870.944458
-384,-1889,3,0,0,4,48.792339
-1613,-723,3,0,0,4,48.792339
-1699,963,3,1,0,4,48.792339
-1438,-1279,3,1,0,4,48.792339
-763,-1986,3,0,0,4,48.792339
-913,714,3,0,0,0,844.120911
-677,-704,3,1,0,4,48.792339
-1311,-337,3,0,0,0,799.492371
-1672,1296,3,0,0,4,48.792339
-784,1452,3,0,0,0,742.614075
-933,12,3,0,0,0,906.546326
-397,-1449,3,0,0,0,769.534180
-683,-765,3,0,0,4,48.792339
-1381,185,3,0,0,0,791.181885
-1317,-903,3,0,0,0,752.034424
-754,-920,3,0,0,4,48.792339
-1793,1236,3,0,0,4,48.792339
-528,-810,3,0,0,0,896.293884
-1404,1026,3,0,0,0,727.583801
-234,-984,3,0,0,0,883.324829
-378,-1534,3,0,0,0,755.097717
-1745,1200,3,0,0,4,48.792339
-1561,-393,3,0,0,0,749.730713
-630,524,3,1,0,4,48.792339
-1446,1033,3,0,0,4,48.792339
-1612,-100,3,0,0,0,748.771973
-532,1610,3,0,0,0,734.816101
-1819,1157,3,0,0,4,48.792339
-1678,796,3,1,0,4,48.792339
-1904,397,3,0,0,4,48.792339
-1231,743,3,0,0,0,782.147278
-1902,959,3,0,0,4,48.792339
-1410,114,3,1,0,4,48.792339
-472,-1772,3,1,0,4,48.792339
-1128,-648,3,0,0,0,810.916443
-979,-1917,3,1,0,4,48.792339
-1618,1794,3,1,0,4,48.792339
-1270,113,3,0,0,0,816.690063
-855,-1052,3,1,0,4,48.792339
-1879,-82,3,1,0,4,48.792339
-66,-1807,3,0,0,4,48.792339
-641,-1605,3,0,0,0,729.347778
-190,578,3,0,0,0,1029.773560
-1559,1260,3,1,0,4,48.792339
-1044,228,3,0,0,0,867.497620
-1737,-552,3,0,0,4,48.792339
-418,-1439,3,0,0,0,770.284302
-524,-1013,3,0,0,0,848.759216
-117,1310,3,1,0,6,111.606514
-248,-1419,3,0,0,0,781.616394
-895,88,3,0,0,0,917.160889
-1195,1947,3,0,0,4,48.792339
-1809,-136,3,0,0,4,48.792339
-1724,1087,3,1,0,4,48.792339
-1065,1822,3,1,0,4,48.792339
-1396,-163,3,1,0,4,48.792339
-913,1294,3,0,0,0,754.411499
-1309,-1112,3,0,0,0,731.129028
-1934,-732,3,0,0,4,48.792339
-898,-1940,3,0,0,4,48.792339
-1983,1297,3,0,0,4,48.792339
-723,1955,3,0,0,4,48.792339
-1411,1090,3,0,0,4,48.792339
-1965,-631,3,0,0,4,48.792339
-1716,1462,3,0,0,4,48.792339
-83,217,3,1,0,4,48.792339
-1154,-476,3,0,0,0,822.775940
-1726,92,3,1,0,4,48.792339
-1274,1822,3,0,0,4,48.792339
-179,-1986,3,0,0,4,48.792339
-1017,822,3,0,0,0,809.421997
-1315,491,3,1,0,4,48.792339
-1313,-1516,3,1,0,4,48.792339
