each times' max average throughput
0.000000,0.000000,593.581421,598.700928,0.000000,0.000000,0.000000,601.844727,0.000000,596.892639,606.647522,0.000000,0.000000,0.000000,585.894653,0.000000,0.000000,0.000000,0.000000,574.529541,0.000000,0.000000,0.000000,0.000000,0.000000,0.000000,0.000000,0.000000,0.000000,0.000000,591.115051,605.831787,599.905029,597.378174,602.201782,601.917664,595.077759,0.000000,0.000000,0.000000,0.000000,0.000000,0.000000,577.794800,0.000000,0.000000,0.000000,589.290955,595.380920,580.035828,597.173950,599.005859,606.454773,608.382874,598.876099,609.530457,601.365173,600.074402,597.028381,0.000000,0.000000,600.603088,594.509216,0.000000,606.372620,603.075867,606.541016,601.720459,601.206055,604.197632,603.864685,602.551331,602.850159,598.603882,0.000000,0.000000,0.000000,0.000000,0.000000,0.000000,0.000000,0.000000,0.000000,0.000000,0.000000,0.000000,0.000000,0.000000,0.000000,0.000000,0.000000,0.000000,595.343689,0.000000,0.000000,0.000000,595.919556,596.075623,570.473633,593.030212,
avg. throughput in all test times
262.888550
avg. BS TX power in all test times
MBS area 1,MBS area 2,MBS area 3,MBS area 4,CBSD 1,CBSD 2,CBSD 3,CBSD 4,CBSD 5,CBSD 6,CBSD 7,CBSD 8,CBSD 9,CBSD 10,CBSD 11,CBSD 12,CBSD 13,CBSD 14,CBSD 15,CBSD 16,CBSD 17,CBSD 18,CBSD 19,CBSD 20,CBSD 21,CBSD 22,CBSD 23,CBSD 24,CBSD 25,CBSD 26,CBSD 27,
8.337,8.337,8.875,8.675,0.111,0.149,0.215,0.237,0.085,0.054,0.080,0.075,0.049,0.254,0.119,0.109,0.070,0.090,0.141,0.044,0.177,0.059,0.236,0.076,0.094,0.435,0.044,0.184,0.135,0.025,0.251,
avg. mbs all power,avg. cbsd enable number,avg. mbs area all power,avg. cbsd all power
70.750,4.000,34.225,3.598
avg. max avg. throughput generation number in all test times
32.540001
avg. number of relay UE
634

the max average throughput times

BS TX power
MBS area 1,MBS area 2,MBS area 3,MBS area 4,CBSD 1,CBSD 2,CBSD 3,CBSD 4,CBSD 5,CBSD 6,CBSD 7,CBSD 8,CBSD 9,CBSD 10,CBSD 11,CBSD 12,CBSD 13,CBSD 14,CBSD 15,CBSD 16,CBSD 17,CBSD 18,CBSD 19,CBSD 20,CBSD 21,CBSD 22,CBSD 23,CBSD 24,CBSD 25,CBSD 26,CBSD 27,
10.000,7.500,10.000,7.500,0.000,0.000,0.000,0.000,0.000,0.625,1.000,0.750,0.000,0.000,0.000,0.000,0.000,1.000,0.000,0.000,0.000,0.000,0.000,0.000,0.000,0.000,0.000,0.000,0.000,0.000,0.000,
max average throughput
593.030212

x,y,area,be blocked (1 : NLOS / 0 : LOS),be blocked number (>=1 : CBSD(x) / 0 : no),connect bs number (>=1 : CBSD / 0 : MBS),throughput (unit : M bps)
992,1044,1,0,0,0,781.690063
-1702,1373,2,0,0,0,620.989563
-2000,-326,3,1,0,8,58.286087
785,-1672,4,0,0,0,669.135742
801,224,1,0,0,0,939.666687
-511,1069,2,0,0,0,796.423218
-659,-14,3,0,0,0,1006.689880
1612,-642,4,0,0,0,687.015137
376,1323,1,0,0,0,794.906616
-1554,1736,2,1,0,14,28.306221
-1109,-1072,3,0,0,0,761.986206
483,-406,4,1,0,7,58.121086
145,1297,1,0,0,0,809.989624
-1224,95,2,0,0,0,786.221008
-1895,-561,3,0,0,0,690.935730
36,-900,4,0,0,0,875.291382
1723,1389,1,0,0,0,658.579407
-417,172,2,0,0,0,1074.579834
-1207,-864,3,0,0,0,773.001892
614,-1422,4,1,0,7,58.121086
158,268,1,0,0,0,1223.223267
-745,261,2,1,0,14,28.306221
-276,-1229,3,0,0,0,820.185913
269,-1760,4,0,0,0,679.643799
1690,625,1,1,0,14,28.306221
-358,1433,2,0,0,0,733.142883
-1130,-1392,3,0,0,0,718.820679
1525,-750,4,0,0,0,692.961853
611,926,1,1,0,14,28.306221
-618,1118,2,0,0,0,774.808594
-938,-412,3,0,0,0,879.633057
98,-743,4,0,0,0,928.243652
1656,1454,1,1,0,14,28.306221
-283,549,2,0,0,0,983.972412
-93,-603,3,0,0,0,1028.968262
1101,-78,4,0,0,0,816.804199
1934,555,1,0,0,0,685.805054
-163,1252,2,0,0,0,778.171936
-422,-348,3,0,0,0,1060.470703
539,-1672,4,1,0,7,58.121086
927,1658,1,1,0,14,28.306221
-1686,503,2,1,0,14,28.306221
-1257,-1490,3,0,0,0,694.857483
80,-1659,4,0,0,0,699.524170
668,1156,1,0,0,0,803.446655
-1599,664,2,0,0,0,687.634277
-1672,-735,3,1,0,8,58.286087
1561,-567,4,0,0,0,699.548340
629,1557,1,1,0,14,28.306221
-1488,562,2,0,0,0,711.915039
-666,-1391,3,0,0,0,762.024048
766,-442,4,0,0,0,880.563110
1930,733,1,0,0,0,678.445557
-221,752,2,0,0,0,915.328186
-896,-753,3,0,0,0,841.315125
912,-1387,4,0,0,0,699.688660
220,786,1,1,0,14,28.306221
-1004,1828,2,1,0,14,28.306221
-802,-566,3,1,0,8,58.286087
1165,-1745,4,1,0,7,58.121086
552,69,1,0,0,0,1055.601440
-517,864,2,0,0,0,843.229614
-1057,-1232,3,0,0,0,747.320312
1524,-1946,4,0,0,0,586.183472
1450,221,1,0,0,0,776.431946
-187,560,2,0,0,0,996.979187
-435,-258,3,1,0,8,58.286087
325,-850,4,0,0,0,872.336548
1903,1157,1,1,0,14,28.306221
-1502,1155,2,0,0,0,661.862854
-735,-1407,3,0,0,0,753.733887
1470,-1834,4,1,0,7,58.121086
221,520,1,0,0,0,1051.117432
-1626,1727,2,0,0,0,597.871094
-1734,-519,3,0,0,0,716.103394
1290,-11,4,1,0,6,171.450378
667,1478,1,1,0,14,28.306221
-493,1084,2,1,0,14,28.306221
-1218,-685,3,0,0,0,790.343506
635,-767,4,1,0,7,58.121086
1808,1240,1,1,0,14,28.306221
-1935,1134,2,1,0,14,28.306221
-457,-1943,3,0,0,0,688.094421
1919,-120,4,0,0,0,657.672058
633,1376,1,0,0,0,767.208801
-265,1066,2,1,0,14,28.306221
-1402,-1623,3,0,0,0,667.553833
1773,-1532,4,0,0,0,601.342285
1021,196,1,0,0,0,875.407410
-1258,577,2,0,0,0,751.804565
-257,-871,3,0,0,0,914.353333
699,-816,4,0,0,0,824.541382
1871,116,1,1,0,14,28.306221
-342,76,2,0,0,0,1147.469604
-197,-1200,3,1,0,8,58.286087
1448,-1113,4,0,0,0,672.369324
187,931,1,1,0,14,28.306221
-781,1130,2,1,0,14,28.306221
-1065,-1368,3,0,0,0,728.451050
252,-213,4,1,0,0,233.688705
1475,414,1,0,0,0,763.932861
-187,763,2,0,0,0,914.674927
-467,-101,3,0,0,0,1099.467285
632,-1294,4,0,0,0,740.408936
985,942,1,0,0,0,797.521790
-5,1884,2,0,0,0,663.484985
-1490,-1128,3,1,0,8,58.286087
1234,-1544,4,0,0,0,649.797119
1568,176,1,0,0,0,755.468506
-400,496,2,0,0,0,974.993408
-1702,-356,3,0,0,0,727.600403
1083,-570,4,1,0,7,58.121086
98,782,1,0,0,0,955.186462
-1961,660,2,1,0,14,28.306221
-1383,-1025,3,1,0,8,58.286087
1159,-1101,4,0,0,0,710.479370
790,488,1,0,0,0,907.940430
-1133,784,2,0,0,0,753.094666
-1812,-1212,3,0,0,0,662.893433
673,-1841,4,1,0,7,58.121086
777,515,1,0,0,0,906.824341
-1173,1936,2,0,0,0,611.160522
-970,-1354,3,1,0,8,58.286087
879,-1633,4,0,0,0,667.988220
1139,1217,1,0,0,0,739.722900
-343,1107,2,0,0,0,802.783936
-1838,-1033,3,0,0,0,672.432068
627,-122,4,0,0,0,974.286621
365,1988,1,0,0,0,684.504089
-854,35,2,1,0,8,58.286087
-1042,-1596,3,0,0,0,701.296509
1683,-1487,4,0,0,0,613.408264
1161,1374,1,0,0,0,717.877502
-497,710,2,0,0,0,886.387146
-1762,-1434,3,0,0,0,651.115540
1761,-79,4,1,0,14,28.306221
507,553,1,0,0,0,969.380493
-132,1907,2,0,0,0,659.337830
-82,-180,3,0,0,0,1353.882690
1204,-398,4,0,0,0,776.921082
130,465,1,1,0,14,28.306221
-1202,334,2,0,0,0,781.610840
-1711,-1886,3,0,0,0,618.586121
919,-498,4,0,0,0,832.465393
1033,90,1,0,0,0,876.164246
-1865,660,2,0,0,0,649.536926
-1155,-1080,3,0,0,0,754.845825
533,-1510,4,0,0,0,709.992249
934,1174,1,0,0,0,769.953125
-1450,174,2,0,0,0,736.391724
-327,-1347,3,0,0,0,792.673340
1212,-91,4,0,0,0,789.106567
18,47,1,0,0,0,1748.784912
-939,1920,2,0,0,0,627.501526
-1211,-1847,3,0,0,0,659.167297
1546,-974,4,0,0,0,672.226746
425,463,1,0,0,0,1020.422363
-1865,1070,2,1,0,14,28.306221
-598,-1058,3,0,0,0,830.483643
912,-1960,4,0,0,0,624.259338
546,1447,1,0,0,0,761.212585
-867,1305,2,0,0,0,716.241821
-1042,-52,3,1,0,8,58.286087
607,-1499,4,0,0,0,707.157471
329,555,1,0,0,0,1012.861633
-315,1783,2,0,0,0,674.839294
-862,-626,3,0,0,0,868.382507
1312,-462,4,1,0,7,58.121086
1108,911,1,0,0,0,782.831299
-420,78,2,0,0,0,1090.278076
-1321,-694,3,0,0,0,771.489441
1828,-1063,4,0,0,0,630.544800
628,234,1,0,0,0,1001.905884
-253,1882,2,1,0,14,28.306221
-319,-307,3,0,0,0,1121.451294
225,-963,4,0,0,0,848.400330
208,589,1,1,0,14,28.306221
-1336,1320,2,0,0,0,664.380188
-292,-1542,3,1,0,8,58.286087
1639,-1134,4,1,0,7,58.121086
1712,166,1,0,0,0,730.717773
-1330,865,2,0,0,0,712.645203
-1809,-1764,3,0,0,0,620.805054
720,-720,4,0,0,0,840.000610
824,1788,1,0,0,0,692.032593
-1179,1004,2,0,0,0,719.587341
-675,-933,3,0,0,0,845.980164
541,-991,4,0,0,0,810.289673
553,834,1,0,0,0,886.403564
-1500,1374,2,1,0,14,28.306221
-1425,-1025,3,1,0,8,58.286087
1895,-1055,4,0,0,0,623.326965
1544,1572,1,1,0,14,28.306221
-1753,1657,2,0,0,0,593.101929
-1151,-1167,3,0,0,0,744.537415
700,-1198,4,1,0,7,58.121086
1590,422,1,0,0,0,743.500488
-807,1071,2,0,0,0,760.865173
-1356,-679,3,1,0,8,58.286087
85,-1055,4,1,0,7,58.121086
246,1042,1,1,0,14,28.306221
-137,1156,2,0,0,0,801.504944
-40,-1658,3,0,0,0,741.167542
899,-630,4,0,0,0,818.368591
71,1812,1,1,0,14,28.306221
-1034,168,2,0,0,0,831.833252
-1673,-443,3,1,0,8,58.286087
599,-587,4,0,0,0,895.841675
65,759,1,0,0,0,964.981567
-1648,1168,2,1,0,14,28.306221
-926,-1714,3,1,0,8,58.286087
784,-73,4,0,0,0,914.012085
17,558,1,0,0,0,1054.585815
-1716,1261,2,0,0,0,628.545044
-185,-1693,3,0,0,0,733.557495
648,-159,4,0,0,0,961.722595
1556,1337,1,1,0,14,28.306221
-1109,518,2,0,0,0,787.081055
-139,-1054,3,1,0,8,58.286087
521,-1473,4,0,0,0,717.034607
164,1331,1,1,0,14,28.306221
-1185,387,2,0,0,0,781.829346
-1491,-443,3,0,0,0,759.577454
1546,-1184,4,0,0,0,654.050110
1135,1266,1,0,0,0,734.027466
-486,660,2,0,0,0,902.454651
-535,-566,3,0,0,0,958.600891
1118,-1095,4,1,0,7,58.121086
302,255,1,0,0,0,1154.165283
-502,1674,2,0,0,0,684.959839
-735,-219,3,0,0,0,963.038086
663,-1587,4,0,0,0,689.534607
1031,887,1,0,0,0,798.130920
-861,84,2,0,0,0,886.911621
-772,-1911,3,0,0,0,678.925537
203,-587,4,1,0,7,58.121086
683,1683,1,1,0,14,28.306221
-731,789,2,0,0,0,824.239807
-1363,-1749,3,0,0,0,658.034668
633,-984,4,0,0,0,800.044739
1231,1243,1,0,0,0,725.863037
-1237,167,2,0,0,0,781.453918
-1754,-995,3,0,0,0,685.164795
352,-642,4,1,0,7,58.121086
848,1840,1,1,0,14,28.306221
-1606,447,2,1,0,14,28.306221
-1148,-338,3,0,0,0,834.915405
1081,-1405,4,0,0,0,680.884094
363,441,1,1,0,14,28.306221
-883,835,2,1,0,14,28.306221
-1741,-358,3,0,0,0,721.308167
1240,-453,4,0,0,0,765.363770
1003,1459,1,1,0,14,28.306221
-1764,173,2,0,0,0,680.927856
-581,-53,3,0,0,0,1041.878174
907,-1561,4,0,0,0,675.667908
748,287,1,0,0,0,950.453247
-145,460,2,1,0,14,28.306221
-608,-837,3,0,0,0,876.829285
61,-454,4,0,0,0,1070.139038
871,1071,1,0,0,0,793.848999
-288,1005,2,1,0,14,28.306221
-1511,-1457,3,0,0,0,673.703186
603,-1018,4,0,0,0,796.828125
863,1457,1,0,0,0,735.190918
-1653,1470,2,0,0,0,617.713318
-1787,-1321,3,0,0,0,657.407715
1138,-1501,4,1,0,7,58.121086
1397,13,1,1,0,6,167.900848
-896,1761,2,0,0,0,649.897827
-1157,-1532,3,0,0,0,699.235291
1463,-1905,4,0,0,0,594.308533
1134,1389,1,0,0,0,718.788940
-485,1574,2,1,0,14,28.306221
-1603,-1278,3,0,0,0,680.448547
885,-417,4,0,0,0,851.505493
895,133,1,0,0,0,915.400757
-211,855,2,1,0,14,28.306221
-129,-309,3,1,0,0,262.519623
1362,-1412,4,1,0,7,58.121086
860,1332,1,0,0,0,754.078979
-658,906,2,0,0,0,812.673035
-734,-1846,3,1,0,8,58.286087
997,-1545,4,0,0,0,670.430359
1613,439,1,0,0,0,738.895264
-1196,1213,2,1,0,14,28.306221
-1877,-492,3,0,0,0,696.180115
433,-348,4,1,0,7,58.121086
739,639,1,1,0,14,28.306221
-1400,510,2,0,0,0,730.638428
-1963,-1331,3,0,0,0,638.839417
216,-1439,4,0,0,0,737.431091
768,1261,1,0,0,0,774.535095
-1658,1439,2,0,0,0,619.870544
-1995,-1683,3,0,0,0,611.567139
784,-783,4,0,0,0,815.691956
526,1387,1,0,0,0,773.191101
-521,1554,2,0,0,0,703.327087
-362,-1511,3,0,0,0,759.884033
750,-1207,4,1,0,7,58.121086
1314,965,1,1,0,14,28.306221
-524,1334,2,0,0,0,741.780090
-852,-1347,3,0,0,0,752.574890
1139,-483,4,0,0,0,784.006958
434,201,1,1,0,14,28.306221
-542,25,2,0,0,0,1021.328979
-1456,-1811,3,0,0,0,644.667053
1788,-1075,4,0,0,0,634.387329
1926,343,1,0,0,0,693.845459
-1827,1162,2,0,0,0,623.808167
-440,-242,3,0,0,0,1085.125000
1460,-770,4,0,0,0,701.308594
1222,1208,1,1,0,14,28.306221
-861,1074,2,0,0,0,753.363342
-1414,-1107,3,0,0,0,718.363281
464,-1216,4,1,0,7,58.121086
1253,1812,1,1,0,14,28.306221
-1332,275,2,0,0,0,756.808411
-781,-110,3,0,0,0,954.970276
1813,-1731,4,0,0,0,582.206543
1974,877,1,0,0,0,665.516357
-34,1948,2,0,0,0,653.903687
-1330,-1418,3,0,0,0,695.632568
1793,-367,4,1,0,7,58.121086
329,1546,1,1,0,14,28.306221
-1390,785,2,0,0,0,710.880859
-603,-1058,3,1,0,8,58.286087
1448,-1542,4,1,0,7,58.121086
239,1765,1,0,0,0,720.715088
-1226,170,2,1,0,8,58.286087
-1204,-58,3,0,0,0,832.838562
728,-1787,4,0,0,0,656.656860
1570,1888,1,0,0,0,628.944092
-1696,205,2,0,0,0,691.467834
-1638,-678,3,1,0,8,58.286087
422,-1524,4,0,0,0,713.585327
1824,1425,1,0,0,0,645.782471
-1377,823,2,0,0,0,709.475464
-1161,-1276,3,0,0,0,729.867554
1124,-1899,4,0,0,0,618.404663
700,56,1,0,0,0,988.437317
-1640,595,2,1,0,14,28.306221
-660,-188,3,0,0,0,995.073486
1293,-1067,4,0,0,0,696.869019
978,556,1,0,0,0,852.697510
-1643,919,2,0,0,0,663.705261
-181,-874,3,1,0,8,58.286087
248,-543,4,1,0,7,58.121086
453,299,1,0,0,0,1062.693726
-755,316,2,0,0,0,902.865417
-1547,-945,3,0,0,0,715.661743
1708,-1311,4,0,0,0,625.401794
712,1446,1,0,0,0,749.360718
-10,1995,2,1,0,14,28.306221
-1023,-1642,3,0,0,0,697.037964
669,-1060,4,0,0,0,780.251404
1889,950,1,0,0,0,671.615173
-1828,1302,2,0,0,0,613.602112
-829,-1353,3,0,0,0,753.849365
1234,-1612,4,0,0,0,642.169434
1529,1226,1,0,0,0,693.330627
-1823,1580,2,0,0,0,593.075989
-1289,-1008,3,0,0,0,745.024536
366,-1692,4,0,0,0,687.676514
349,1191,1,0,0,0,824.447388
-1608,1548,2,1,0,14,28.306221
-451,-1110,3,1,0,8,58.286087
106,-1170,4,0,0,0,798.874878
1221,1224,1,0,0,0,729.246582
-1579,908,2,1,0,14,28.306221
-1077,-1725,3,0,0,0,682.758057
1230,-232,4,0,0,0,780.657593
958,1631,1,1,0,14,28.306221
-199,511,2,0,0,0,1018.260803
-1540,-1053,3,0,0,0,707.439209
1402,-124,4,0,0,0,746.981567
1360,1512,1,0,0,0,682.751526
-904,665,2,1,0,14,28.306221
-1252,-1149,3,0,0,0,734.190186
1333,-166,4,0,0,0,760.375000
886,778,1,0,0,0,839.183167
-1205,1433,2,0,0,0,665.265442
-1791,-1501,3,1,0,8,58.286087
156,-993,4,0,0,0,843.712830
799,304,1,1,0,6,220.927719
-521,1279,2,1,0,14,28.306221
-376,-1051,3,0,0,0,854.948303
845,-969,4,0,0,0,772.960510
221,192,1,0,0,0,1240.764771
-1537,1145,2,0,0,0,658.584900
-1589,-414,3,0,0,0,744.024353
600,-512,4,0,0,0,913.511658
891,1833,1,0,0,0,682.129761
-349,791,2,0,0,0,887.084106
-389,-92,3,0,0,0,1150.919556
1341,-224,4,0,0,0,756.916321
915,659,1,1,0,6,312.921387
-140,1269,2,1,0,14,28.306221
-1250,-174,3,1,0,8,58.286087
524,-1086,4,1,0,7,58.121086
740,83,1,0,0,0,971.539001
-63,1694,2,0,0,0,693.682800
-263,-422,3,0,0,0,1087.961060
1111,-718,4,1,0,7,58.121086
1052,1560,1,0,0,0,704.995911
-1990,893,2,0,0,0,621.717163
-489,-781,3,0,0,0,910.155762
1024,-376,4,0,0,0,820.187134
1283,1820,1,1,0,14,28.306221
-861,1076,2,0,0,0,753.037659
-1296,-564,3,0,0,0,787.073242
853,-481,4,1,0,7,58.121086
1363,92,1,0,0,0,796.854614
-1324,1349,2,1,0,14,28.306221
-617,-1961,3,0,0,0,679.657654
422,-517,4,0,0,0,961.661865
347,1251,1,0,0,0,811.501770
-1881,681,2,0,0,0,646.361267
-1299,-925,3,1,0,8,58.286087
1597,-268,4,1,0,14,28.306221
551,895,1,0,0,0,872.276367
-1371,1823,2,0,0,0,608.986694
-1693,-1071,3,0,0,0,687.050049
1420,-594,4,0,0,0,721.320251
1601,1600,1,0,0,0,652.164856
-1227,881,2,1,0,14,28.306221
-880,-753,3,0,0,0,844.330444
1443,-1114,4,0,0,0,672.894043
838,268,1,1,0,6,219.519287
-1525,1772,2,1,0,14,28.306221
-545,-1024,3,0,0,0,843.881592
696,-1720,4,0,0,0,667.843140
160,801,1,0,0,0,944.877747
-650,1190,2,0,0,0,757.683777
-1950,-47,3,0,0,0,694.686096
598,-1631,4,1,0,7,58.121086
312,1374,1,0,0,0,787.974426
-639,901,2,0,0,0,816.587524
-1310,-1504,3,0,0,0,688.309265
692,-844,4,0,0,0,820.036621
1234,1638,1,1,0,14,28.306221
-1316,1495,2,0,0,0,647.615723
-1660,-446,3,0,0,0,730.910950
1028,-1163,4,1,0,7,58.121086
1085,207,1,0,0,0,857.971008
-1221,1521,2,0,0,0,653.587280
-396,-1175,3,0,0,0,824.712891
1494,-1644,4,0,0,0,616.512695
113,1133,1,1,0,14,28.306221
-89,1094,2,0,0,0,818.409546
-550,-604,3,0,0,0,944.852905
1475,-1209,4,0,0,0,659.994507
378,1174,1,0,0,0,826.243774
-1370,417,2,1,0,14,28.306221
-1947,-269,3,0,0,0,692.504150
1460,-1793,4,0,0,0,605.120789
226,18,1,0,0,0,1314.515137
-239,68,2,1,0,0,339.062195
-533,-91,3,0,0,0,1063.794189
1236,-1297,4,1,0,7,58.121086
518,1511,1,0,0,0,751.947449
-969,1874,2,0,0,0,631.206177
-635,-1235,3,0,0,0,792.142517
637,-1108,4,0,0,0,774.669312
1774,193,1,0,0,0,720.175110
-1248,454,2,0,0,0,763.659546
-1803,-1987,3,0,0,0,603.724976
1359,-738,4,0,0,0,719.978516
1083,67,1,0,0,0,863.097107
-1813,355,2,0,0,0,669.085999
-1476,-1092,3,0,0,0,712.011902
1826,-399,4,1,0,7,58.121086
1406,1495,1,0,0,0,680.143860
-167,1661,2,1,0,14,28.306221
-1666,-1286,3,0,0,0,672.947021
1899,-1744,4,0,0,0,574.220886
850,490,1,0,0,0,892.087463
-1347,298,2,0,0,0,752.727112
-1037,-999,3,0,0,0,781.733704
392,-230,4,0,0,0,1072.406006
749,1300,1,1,0,14,28.306221
-1762,1554,2,1,0,14,28.306221
-1207,-608,3,0,0,0,799.945984
714,-210,4,1,0,7,58.121086
1183,1802,1,0,0,0,666.102539
-1381,346,2,0,0,0,743.696045
-1705,-1373,3,0,0,0,661.700256
1625,-1379,4,0,0,0,628.309875
782,1493,1,0,0,0,736.549683
-666,1610,2,0,0,0,685.834656
-960,-1691,3,1,0,8,58.286087
1462,-132,4,1,0,14,28.306221
1051,44,1,1,0,6,187.010330
-1531,277,2,0,0,0,718.241699
-1143,-1358,3,0,0,0,721.700073
620,-1076,4,0,0,0,782.925964
1822,1773,1,1,0,14,28.306221
-977,1314,2,0,0,0,703.606262
-881,-1892,3,0,0,0,675.339233
297,-476,4,1,0,7,58.121086
1838,1272,1,0,0,0,655.746582
-683,881,2,0,0,0,813.957458
-856,-1708,3,0,0,0,700.627380
45,-7,4,0,0,0,1736.124268
922,1607,1,0,0,0,709.422852
-168,643,2,0,0,0,962.864136
-1857,-1592,3,0,0,0,630.047546
504,-515,4,0,0,0,939.553528
803,774,1,0,0,0,855.190002
-744,1513,2,0,0,0,695.229797
-1874,-552,3,0,0,0,694.240112
1339,-709,4,0,0,0,725.844910
1837,1555,1,0,0,0,634.653198
-925,589,2,1,0,14,28.306221
-664,-547,3,0,0,0,929.939270
349,-1016,4,0,0,0,824.591431
758,588,1,1,0,14,28.306221
-208,367,2,0,0,0,1093.903442
-1855,-1137,3,1,0,8,58.286087
1498,-1438,4,0,0,0,635.726624
1625,366,1,1,0,14,28.306221
-770,287,2,0,0,0,901.711975
-344,-1494,3,0,0,0,763.727905
472,-867,4,0,0,0,848.919434
382,1660,1,0,0,0,733.505554
-1048,1768,2,1,0,14,28.306221
-1268,-441,3,0,0,0,801.863403
1826,-435,4,0,0,0,664.534302
1468,1064,1,1,0,14,28.306221
-1820,5,2,0,0,0,673.359985
-470,-6,3,1,0,0,152.052765
1227,-37,4,1,0,6,170.785767
1222,1472,1,0,0,0,700.233032
-71,1994,2,0,0,0,647.106506
-1604,-1137,3,1,0,8,58.286087
938,-329,4,0,0,0,846.923889
1741,1283,1,1,0,14,28.306221
-751,1603,2,0,0,0,681.293030
-407,-813,3,0,0,0,914.017151
1153,-1751,4,1,0,7,58.121086
1266,591,1,0,0,0,790.395996
-1085,203,2,0,0,0,816.786499
-917,-336,3,1,0,8,58.286087
1403,-1240,4,1,0,7,58.121086
1884,854,1,0,0,0,677.890564
-846,42,2,0,0,0,892.981506
-558,-733,3,1,0,8,58.286087
660,-323,4,0,0,0,933.925537
565,118,1,0,0,0,1044.969727
-1446,562,2,0,0,0,719.068359
-1536,-653,3,0,0,0,739.346741
1725,-83,4,0,0,0,688.361023
983,74,1,0,0,0,890.723206
-1149,250,2,1,0,8,58.286087
-673,-260,3,1,0,8,58.286087
434,-1042,4,0,0,0,810.361877
1153,1265,1,1,0,14,28.306221
-674,247,2,0,0,0,940.655396
-1111,-1764,3,0,0,0,675.661377
1084,-1814,4,0,0,0,630.732727
21,494,1,0,0,0,1089.588989
-340,456,2,1,0,14,28.306221
-741,-161,3,0,0,0,966.304688
1421,-1131,4,0,0,0,673.966553
1657,161,1,1,0,14,28.306221
-1461,356,2,0,0,0,728.005371
-1858,-1208,3,0,0,0,658.190125
1583,-589,4,0,0,0,694.721985
1588,207,1,0,0,0,751.209961
-46,1520,2,0,0,0,724.792419
-98,-1077,3,0,0,0,864.059021
973,-1765,4,1,0,7,58.121086
699,785,1,0,0,0,872.250366
-1443,1032,2,0,0,0,680.671143
-1343,-1945,3,0,0,0,639.812073
331,-366,4,1,0,7,58.121086
1603,873,1,1,0,14,28.306221
-85,1206,2,1,0,14,28.306221
-455,-576,3,0,0,0,975.674927
385,-572,4,0,0,0,952.258850
1463,1170,1,1,0,14,28.306221
-409,942,2,0,0,0,837.546021
-1072,-770,3,0,0,0,806.747681
472,-1673,4,0,0,0,686.492981
297,556,1,1,0,14,28.306221
-1250,1309,2,0,0,0,674.941223
-661,-591,3,0,0,0,921.236633
1108,-1098,4,0,0,0,717.499268
1724,578,1,0,0,0,714.791260
-648,740,2,1,0,14,28.306221
-474,-1790,3,1,0,8,58.286087
1464,-1324,4,0,0,0,650.178101
252,469,1,1,0,14,28.306221
-1060,777,2,0,0,0,766.644348
-1208,-1264,3,1,0,8,58.286087
682,-1434,4,0,0,0,712.397644
600,127,1,0,0,0,1027.476929
-1422,1678,2,0,0,0,619.337585
-1743,-712,3,0,0,0,704.806519
1764,-1379,4,0,0,0,614.266235
919,75,1,0,0,0,909.968567
-1618,110,2,0,0,0,706.361572
-1302,-1137,3,0,0,0,729.296692
619,-1243,4,0,0,0,750.854797
1485,1001,1,0,0,0,719.148132
-795,1980,2,0,0,0,627.991638
-1990,-920,3,0,0,0,661.273315
1307,-1441,4,1,0,7,58.121086
437,243,1,0,0,0,1086.357544
-475,1335,2,0,0,0,745.048706
-151,-1772,3,1,0,7,58.121086
911,-532,4,1,0,7,58.121086
743,1568,1,0,0,0,728.211792
-1789,701,2,0,0,0,657.866638
-1217,-1438,3,0,0,0,704.647339
9,-232,4,0,0,0,1266.152954
1400,1085,1,0,0,0,722.310303
-1117,918,2,0,0,0,739.269165
-1747,-384,3,0,0,0,719.495483
1180,-783,4,0,0,0,745.217590
1021,1272,1,1,0,14,28.306221
-1576,1066,2,0,0,0,660.670288
-1583,-1449,3,0,0,0,667.375122
1401,-606,4,0,0,0,723.710815
1651,768,1,0,0,0,714.386108
-1975,750,2,0,0,0,630.813538
-1321,-467,3,0,0,0,789.581787
370,-1590,4,0,0,0,704.469971
1072,907,1,0,0,0,788.946289
-531,1889,2,0,0,0,651.872559
-412,-1253,3,0,0,0,806.940369
355,-862,4,0,0,0,865.390869
614,1625,1,0,0,0,727.881226
-1151,1658,2,0,0,0,643.823792
-1113,-1567,3,0,0,0,698.902100
1091,-398,4,0,0,0,802.187622
680,1497,1,0,0,0,743.647644
-162,977,2,0,0,0,847.992432
-1460,-65,3,0,0,0,777.471313
1626,-1001,4,0,0,0,659.658386
1770,407,1,1,0,14,28.306221
-1588,1834,2,0,0,0,591.486145
-138,-444,3,0,0,0,1107.326904
1175,-1021,4,0,0,0,718.100769
1510,1416,1,0,0,0,677.677307
-635,560,2,1,0,14,28.306221
-1635,-1732,3,1,0,8,58.286087
164,-896,4,0,0,0,872.060974
1032,923,1,0,0,0,793.001709
-615,550,2,0,0,0,900.553467
-275,-734,3,0,0,0,956.760010
321,-874,4,0,0,0,865.747803
109,1332,1,0,0,0,803.161133
-1653,660,2,1,0,14,28.306221
-438,-713,3,0,0,0,937.920532
1286,-799,4,0,0,0,726.057373
883,1381,1,0,0,0,744.529114
-210,1268,2,0,0,0,773.052856
-1612,-812,3,0,0,0,716.902771
977,-1092,4,0,0,0,735.439026
454,1638,1,0,0,0,734.117920
-397,548,2,0,0,0,957.661072
-605,-9,3,1,0,8,58.286087
94,-1249,4,0,0,0,780.463806
359,1785,1,0,0,0,714.408508
-1103,1756,2,0,0,0,636.113708
-280,-638,3,0,0,0,990.703003
870,-894,4,1,0,7,58.121086
683,1549,1,0,0,0,735.277344
-1814,143,2,0,0,0,673.419739
-1799,-170,3,0,0,0,716.577087
1156,-197,4,0,0,0,799.395386
290,446,1,1,0,14,28.306221
-70,505,2,0,0,0,1039.277222
-185,-1009,3,0,0,0,879.260559
1358,-1516,4,1,0,7,58.121086
796,1800,1,0,0,0,692.117554
-984,241,2,0,0,0,841.459656
-455,-1038,3,1,0,8,58.286087
667,-1660,4,0,0,0,678.273560
708,749,1,0,0,0,877.904907
-1655,1409,2,0,0,0,622.715332
-1488,-1275,3,1,0,8,58.286087
944,-1606,4,1,0,7,58.121086
1703,36,1,1,0,14,28.306221
-99,747,2,1,0,14,28.306221
-1500,-1769,3,0,0,0,645.204224
1438,-321,4,0,0,0,733.852661
1130,770,1,1,0,6,289.791534
-761,1656,2,1,0,14,28.306221
-423,-1882,3,1,0,8,58.286087
1846,-1050,4,0,0,0,629.318420
1771,247,1,1,0,14,28.306221
-379,1807,2,1,0,14,28.306221
-1569,-304,3,0,0,0,751.793701
1770,-1574,4,1,0,7,58.121086
313,1198,1,0,0,0,825.112549
-574,152,2,0,0,0,995.329956
-632,-1038,3,1,0,8,58.286087
616,-476,4,0,0,0,917.290405
731,1607,1,0,0,0,723.246094
-250,1159,2,1,0,14,28.306221
-421,-778,3,1,0,8,58.286087
390,-1252,4,0,0,0,767.287964
439,1451,1,0,0,0,766.955322
-18,116,2,0,0,0,1462.920654
-545,-1533,3,0,0,0,746.666321
631,-987,4,0,0,0,799.689758
295,1757,1,0,0,0,720.637024
-896,1956,2,0,0,0,625.624146
-446,-1263,3,0,0,0,802.520325
1961,-1212,4,0,0,0,605.973511
1488,5,1,1,0,14,28.306221
-1053,1322,2,1,0,14,28.306221
-659,-270,3,0,0,0,984.390137
1745,-1094,4,0,0,0,638.059143
1656,236,1,0,0,0,738.713623
-269,1282,2,1,0,14,28.306221
-835,-1095,3,0,0,0,794.561829
1883,-34,4,0,0,0,663.590881
1387,1003,1,0,0,0,732.116272
-662,904,2,0,0,0,812.483093
-789,-1578,3,1,0,8,58.286087
1591,-1874,4,0,0,0,587.731934
1876,693,1,0,0,0,687.538025
-286,1455,2,0,0,0,732.019104
-345,-251,3,0,0,0,1132.125000
271,-363,4,0,0,0,1073.354370
41,1112,1,0,0,0,855.846191
-1088,1400,2,0,0,0,680.831360
-321,-1265,3,0,0,0,809.986877
891,-1359,4,0,0,0,705.778442
920,1772,1,0,0,0,688.012207
-410,1245,2,0,0,0,767.411560
-723,-506,3,0,0,0,922.605469
1345,-1190,4,1,0,7,58.121086
1700,499,1,1,0,14,28.306221
-937,1926,2,0,0,0,626.900391
-1350,-642,3,0,0,0,770.975403
1400,-1272,4,0,0,0,662.342957
1436,681,1,0,0,0,753.393616
-186,434,2,0,0,0,1061.398193
-611,-1123,3,0,0,0,815.915466
1232,-1184,4,1,0,7,58.121086
945,40,1,0,0,0,902.631958
-832,45,2,0,0,0,897.720947
-539,-1217,3,1,0,8,58.286087
728,-937,4,0,0,0,796.007202
1349,402,1,0,0,0,788.250793
-1125,1701,2,0,0,0,640.870483
-1022,-1145,3,0,0,0,763.414673
1009,-1112,4,1,0,7,58.121086
875,465,1,0,0,0,889.236877
-1004,929,2,1,0,14,28.306221
-164,-606,3,0,0,0,1020.737366
1394,-1434,4,0,0,0,646.444519
1363,1730,1,0,0,0,659.967407
-631,1802,2,0,0,0,659.678467
-1597,-926,3,0,0,0,710.454956
682,-1171,4,0,0,0,757.858215
1478,1405,1,0,0,0,681.966736
-132,1040,2,0,0,0,831.617981
-274,-639,3,0,0,0,991.312195
440,-1837,4,0,0,0,662.734863
238,1121,1,0,0,0,847.378784
-341,1327,2,0,0,0,754.701416
-1446,-766,3,0,0,0,745.019714
1698,-619,4,0,0,0,675.361572
1748,1783,1,0,0,0,624.179810
-1437,1714,2,0,0,0,614.566040
-1293,-1795,3,0,0,0,658.701294
179,-975,4,0,0,0,847.714905
787,349,1,0,0,0,929.732300
-564,1224,2,1,0,14,28.306221
-3,-325,3,0,0,0,1210.608398
71,-1802,4,1,0,7,58.121086
307,255,1,1,0,0,201.912811
-1106,1536,2,0,0,0,662.161377
-574,-440,3,1,0,8,58.286087
733,-406,4,1,0,7,58.121086
1180,85,1,0,0,0,838.219421
-919,1268,2,1,0,14,28.306221
-192,-277,3,0,0,0,1200.130981
495,-382,4,0,0,0,980.442810
1707,717,1,0,0,0,709.614624
-1626,1482,2,0,0,0,619.266052
-502,-1645,3,0,0,0,730.740417
387,-74,4,0,0,0,1113.589111
1399,1625,1,0,0,0,667.613037
-230,575,2,0,0,0,983.205811
-1944,-1042,3,0,0,0,659.549072
1546,-290,4,1,0,7,58.121086
553,1209,1,0,0,0,804.666931
-1576,989,2,0,0,0,667.053650
-719,-1025,3,0,0,0,821.920959
7,-1530,4,1,0,7,58.121086
1702,757,1,1,0,14,28.306221
-1745,138,2,0,0,0,684.502075
-1425,-917,3,1,0,8,58.286087
127,-1347,4,0,0,0,758.314087
1993,1002,1,1,0,14,28.306221
-1798,1290,2,1,0,14,28.306221
-831,-959,3,0,0,0,818.060730
1873,-1302,4,0,0,0,608.976685
1103,78,1,0,0,0,857.662598
-668,842,2,0,0,0,824.450439
-1059,-995,3,1,0,8,58.286087
828,-853,4,1,0,7,58.121086
1794,586,1,0,0,0,704.127930
-1581,1427,2,0,0,0,628.510010
-996,-1915,3,0,0,0,665.717651
868,-422,4,1,0,7,58.121086
298,1692,1,0,0,0,731.049194
-405,555,2,0,0,0,953.280334
-942,-877,3,1,0,8,58.286087
1980,-167,4,1,0,14,28.306221
698,1087,1,0,0,0,812.927795
-308,19,2,0,0,0,1184.077759
-459,-351,3,1,0,8,58.286087
824,-97,4,0,0,0,898.942200
1817,484,1,0,0,0,705.180542
-169,1720,2,1,0,14,28.306221
-1671,-921,3,0,0,0,701.001038
1935,-1347,4,0,0,0,599.591797
1840,1253,1,0,0,0,656.911682
-1981,1055,2,1,0,14,28.306221
-664,-1090,3,0,0,0,816.396057
835,-1344,4,0,0,0,713.419250
1584,508,1,0,0,0,740.306885
-1535,1795,2,1,0,14,28.306221
-1925,-1863,3,1,0,8,58.286087
815,-1805,4,0,0,0,649.230164
103,1808,1,0,0,0,715.956726
-1806,1361,2,0,0,0,611.440247
-624,-358,3,0,0,0,981.476501
375,-471,4,1,0,7,58.121086
1723,1384,1,1,0,14,28.306221
-802,1042,2,1,0,14,28.306221
-1335,-1904,3,0,0,0,644.461609
1563,-49,4,0,0,0,716.787964
1638,1746,1,0,0,0,636.162781
-1011,1803,2,1,0,14,28.306221
-247,-1313,3,1,0,8,58.286087
501,-1582,4,0,0,0,699.781677
1893,1494,1,0,0,0,634.091492
-1917,104,2,0,0,0,658.107422
-838,-1812,3,0,0,0,688.040894
356,-1083,4,0,0,0,807.513000
1837,1049,1,0,0,0,671.482666
-1602,1332,2,0,0,0,634.778870
-219,-199,3,1,0,0,308.589569
1573,-1328,4,1,0,7,58.121086
1192,1668,1,0,0,0,680.442017
-1755,265,2,0,0,0,680.535950
-883,-464,3,0,0,0,887.323608
850,-306,4,0,0,0,874.435181
422,1788,1,0,0,0,711.842590
-1453,1329,2,0,0,0,650.868896
-81,-621,3,1,0,7,58.121086
1472,-1290,4,0,0,0,652.593018
1879,1822,1,0,0,0,610.780334
-636,205,2,0,0,0,961.291260
-1286,-964,3,0,0,0,750.178833
440,-1855,4,0,0,0,660.099854
286,522,1,0,0,0,1036.104004
-961,1879,2,0,0,0,631.099854
-687,-1504,3,1,0,8,58.286087
75,-522,4,0,0,0,1029.529175
1676,1195,1,0,0,0,679.292969
-1203,577,2,1,0,14,28.306221
-547,-10,3,0,0,0,1060.412354
1233,-258,4,0,0,0,778.823853
131,1953,1,0,0,0,693.686829
-661,192,2,0,0,0,952.751892
-368,-1020,3,0,0,0,863.286987
542,-766,4,0,0,0,863.507446
182,1869,1,1,0,14,28.306221
-835,608,2,0,0,0,835.885925
-583,-1858,3,0,0,0,695.162720
1872,-1425,4,0,0,0,600.197021
1280,1177,1,0,0,0,727.591370
-1688,1248,2,0,0,0,632.621216
-853,-1938,3,0,0,0,671.212036
563,-34,4,1,0,14,28.306221
464,585,1,0,0,0,970.753296
-1250,1953,2,0,0,0,604.318481
-1853,-151,3,0,0,0,708.430115
1111,-557,4,0,0,0,782.702881
160,1027,1,1,0,14,28.306221
-1339,1148,2,0,0,0,682.336487
-171,-753,3,0,0,0,961.076111
875,-831,4,0,0,0,791.167542
523,1630,1,0,0,0,732.084290
-441,1554,2,1,0,14,28.306221
-1275,-1460,3,0,0,0,696.483337
817,-1171,4,1,0,7,58.121086
1544,668,1,1,0,14,28.306221
-677,499,2,0,0,0,895.033264
-275,-1558,3,0,0,0,754.698608
735,-974,4,1,0,7,58.121086
1667,1679,1,1,0,14,28.306221
-1665,1522,2,0,0,0,612.143677
-531,-532,3,0,0,0,968.837036
781,-446,4,0,0,0,875.721191
1302,1084,1,0,0,0,735.058960
-830,1327,2,0,0,0,716.527222
-1735,-1762,3,0,0,0,626.940674
745,-1242,4,0,0,0,738.777405
226,1902,1,0,0,0,699.896606
-718,1954,2,0,0,0,635.008179
-80,-1612,3,0,0,0,748.970032
843,-68,4,0,0,0,893.425171
1571,1562,1,1,0,14,28.306221
-1389,1046,2,1,0,14,28.306221
-589,-200,3,0,0,0,1023.399109
1810,-1429,4,0,0,0,605.875122
891,1498,1,0,0,0,726.922058
-785,976,2,1,0,14,28.306221
-1607,-1005,3,0,0,0,702.901550
1641,-984,4,0,0,0,659.062439
495,984,1,0,0,0,858.774597
-76,1261,2,1,0,14,28.306221
-1496,-1559,3,0,0,0,665.434082
1873,-710,4,1,0,7,58.121086
802,569,1,1,0,6,262.666748
-331,1936,2,0,0,0,651.599304
-19,-67,3,0,0,0,1655.071777
581,-1943,4,0,0,0,642.463501
359,1526,1,0,0,0,757.327515
-418,775,2,0,0,0,881.814880
-1171,-1793,3,1,0,8,58.286087
866,-1592,4,0,0,0,674.573669
294,1601,1,0,0,0,746.529724
-360,729,2,0,0,0,904.778320
-961,-1896,3,0,0,0,670.104553
1753,-1366,4,0,0,0,616.392212
1010,225,1,1,0,6,223.641098
-1986,756,2,0,0,0,629.144287
-1145,-1407,3,1,0,8,58.286087
890,-1354,4,0,0,0,706.612610
530,913,1,0,0,0,870.999817
-164,719,2,0,0,0,932.881470
-1378,-508,3,0,0,0,776.058044
785,-1127,4,1,0,7,58.121086
715,1723,1,1,0,14,28.306221
-1939,104,2,0,0,0,654.858948
-1927,-80,3,0,0,0,697.918701
1015,-1956,4,0,0,0,618.797607
201,1800,1,0,0,0,715.916199
-1842,1055,2,0,0,0,629.452026
-1827,-1272,3,0,0,0,656.903137
588,-1376,4,1,0,7,58.121086
1361,928,1,1,0,14,28.306221
-882,1563,2,0,0,0,677.365417
-1094,-754,3,0,0,0,804.840881
1468,-1142,4,1,0,7,58.121086
653,442,1,0,0,0,955.036865
-561,1333,2,0,0,0,739.187012
-1455,-1069,3,0,0,0,716.819214
1381,-441,4,0,0,0,738.500793
630,1860,1,0,0,0,692.751221
-1818,1260,2,0,0,0,617.730347
-1738,-1732,3,0,0,0,629.156311
962,-263,4,1,0,7,58.121086
672,1280,1,1,0,14,28.306221
-1276,550,2,0,0,0,750.671814
-887,-1177,3,0,0,0,775.053040
1331,-486,4,0,0,0,745.055298
492,1406,1,0,0,0,771.991943
-1877,4,2,0,0,0,664.548828
-1805,-1376,3,0,0,0,651.381226
1127,-490,4,1,0,7,58.121086
1548,1708,1,0,0,0,646.959656
-1701,1207,2,0,0,0,634.462952
-244,-1643,3,0,0,0,740.729187
1113,-1732,4,1,0,7,58.121086
966,1219,1,1,0,14,28.306221
-1896,1343,2,0,0,0,603.744934
-1283,-1831,3,0,0,0,655.677429
1723,-673,4,0,0,0,668.724060
458,49,1,0,0,0,1110.030396
-621,649,2,0,0,0,876.083801
-1613,-1834,3,0,0,0,630.466980
1138,-1311,4,1,0,7,58.121086
616,872,1,0,0,0,867.760010
-1282,1266,2,1,0,14,28.306221
-1098,-93,3,0,0,0,858.659363
873,-1275,4,0,0,0,720.204590
1870,362,1,0,0,0,701.494934
-1500,611,2,0,0,0,706.727295
-383,-179,3,0,0,0,1134.760376
1566,-614,4,0,0,0,695.903564
1893,1216,1,1,0,14,28.306221
-189,724,2,1,0,14,28.306221
-657,-151,3,0,0,0,1000.211731
941,-642,4,1,0,7,58.121086
994,703,1,0,0,0,829.970520
-692,657,2,0,0,0,858.687134
-517,-378,3,0,0,0,1014.986938
1112,-1138,4,1,0,7,58.121086
764,1586,1,0,0,0,724.063049
-892,85,2,0,0,0,876.790833
-1216,-263,3,0,0,0,823.744934
685,-793,4,0,0,0,831.742310
1486,540,1,0,0,0,754.881897
-1815,690,2,0,0,0,654.867004
-456,-516,3,1,0,8,58.286087
1119,-1477,4,1,0,7,58.121086
1306,119,1,0,0,0,808.598511
-102,1911,2,0,0,0,659.015808
-593,-1419,3,0,0,0,762.824646
443,-1205,4,0,0,0,773.370667
1538,880,1,0,0,0,722.190735
-1280,1063,2,1,0,14,28.306221
-446,-584,3,0,0,0,975.362000
1002,-293,4,0,0,0,832.823181
828,307,1,0,0,0,922.408081
-647,240,2,0,0,0,952.016846
-1087,-675,3,1,0,8,58.286087
836,-1513,4,0,0,0,688.094666
1829,951,1,1,0,14,28.306221
-722,1713,2,0,0,0,667.311646
-1627,-1550,3,0,0,0,654.229126
1958,-1172,4,0,0,0,608.867310
69,1509,1,0,0,0,767.975769
-980,688,2,0,0,0,793.399231
-1590,-1182,3,0,0,0,690.224243
807,-1618,4,0,0,0,675.238525
383,1424,1,0,0,0,774.896606
-1726,1818,2,1,0,14,28.306221
-1527,-1679,3,1,0,8,58.286087
877,-1599,4,0,0,0,672.778564
1940,809,1,0,0,0,673.311035
-373,439,2,0,0,0,1004.063660
-612,-927,3,0,0,0,856.352966
1564,-34,4,0,0,0,716.678223
376,918,1,0,0,0,888.907349
-943,1871,2,0,0,0,633.170593
-1212,-1439,3,0,0,0,705.021851
743,-1325,4,0,0,0,725.093079
343,115,1,0,0,0,1179.705811
-708,77,2,1,0,14,28.306221
-648,-805,3,1,0,8,58.286087
5,-560,4,0,0,0,1012.204834
1545,1184,1,0,0,0,695.282593
-744,473,2,0,0,0,881.459839
-1388,-587,3,0,0,0,768.652405
474,-180,4,0,0,0,1040.866211
440,1730,1,1,0,14,28.306221
-1535,1789,2,0,0,0,599.640198
-1700,-986,3,0,0,0,692.540100
976,-1801,4,0,0,0,639.602722
1136,856,1,0,0,0,785.249756
-824,1635,2,0,0,0,671.654358
-1657,-185,3,1,0,8,58.286087
124,-379,4,0,0,0,1110.127197
1890,787,1,1,0,14,28.306221
-1788,845,2,1,0,14,28.306221
-1029,-1063,3,0,0,0,773.952393
1189,-608,4,0,0,0,762.059814
1163,422,1,0,0,0,825.349243
-1257,713,2,0,0,0,739.405701
-1629,-764,3,0,0,0,717.809326
257,-1433,4,0,0,0,737.285034
1887,244,1,0,0,0,701.796753
-926,332,2,0,0,0,849.922791
-142,-1113,3,0,0,0,853.459778
752,-1208,4,0,0,0,743.845215
321,1100,1,0,0,0,847.405579
-766,47,2,1,0,8,58.286087
-1129,-930,3,1,0,8,58.286087
529,-163,4,0,0,0,1015.559448
278,1369,1,1,0,14,28.306221
-1847,571,2,0,0,0,656.117249
-1794,-613,3,0,0,0,702.832642
1560,-960,4,0,0,0,671.526367
1429,419,1,1,0,6,213.454178
-568,1331,2,0,0,0,739.010681
-1607,-1505,3,1,0,8,58.286087
149,-894,4,0,0,0,873.503723
1639,908,1,1,0,14,28.306221
-544,1833,2,0,0,0,659.269653
-1886,-1260,3,1,0,8,58.286087
743,-1973,4,0,0,0,631.400146
996,12,1,0,0,0,887.733093
-328,1792,2,0,0,0,673.083313
-1409,-681,3,0,0,0,757.825439
824,-1972,4,0,0,0,627.512817
324,546,1,1,0,14,28.306221
-1476,295,2,1,0,8,58.286087
-60,-474,3,0,0,0,1099.475830
653,-1141,4,0,0,0,766.564697
1512,1208,1,0,0,0,696.934143
-420,873,2,0,0,0,854.326782
-549,-1204,3,0,0,0,806.012695
402,-1155,4,0,0,0,787.327881
550,1502,1,0,0,0,751.550964
-1923,1025,2,1,0,14,28.306221
-879,-1109,3,1,0,8,58.286087
1373,-1074,4,0,0,0,685.695984
916,414,1,0,0,0,885.103149
-33,872,2,0,0,0,884.414551
-1090,-831,3,1,0,8,58.286087
1737,-1357,4,0,0,0,618.725647
624,1348,1,0,0,0,772.797852
-331,1600,2,0,0,0,704.225037
-195,-554,3,0,0,0,1039.955200
1696,-1199,4,0,0,0,635.655029
9,178,1,1,0,0,514.089355
-1810,746,2,0,0,0,652.528870
-1934,-372,3,0,0,0,691.928528
1293,-153,4,0,0,0,769.334900
372,112,1,0,0,0,1159.143799
-975,1247,2,0,0,0,713.300476
-1629,-472,3,0,0,0,734.751404
979,-730,4,0,0,0,787.740723
1336,56,1,0,0,0,803.006104
-1287,1117,2,0,0,0,692.174622
-1650,-1615,3,0,0,0,646.499634
336,-663,4,1,0,7,58.121086
1915,1145,1,0,0,0,656.261169
-1405,1385,2,0,0,0,650.325439
-1099,-730,3,0,0,0,806.861816
1574,-1913,4,0,0,0,585.545837
912,966,1,0,0,0,804.877747
-1891,1335,2,0,0,0,604.811218
-590,-646,3,0,0,0,925.095703
958,-1101,4,0,0,0,736.581177
859,1012,1,1,0,14,28.306221
-1992,967,2,0,0,0,617.427368
-368,-1478,3,0,0,0,765.600769
1193,-36,4,0,0,0,794.324097
1686,681,1,1,0,14,28.306221
-294,872,2,0,0,0,869.123535
-68,-371,3,0,0,0,1167.669312
811,-1261,4,0,0,0,728.858459
286,401,1,0,0,0,1090.702026
-1439,1632,2,0,0,0,622.418762
-143,-373,3,0,0,0,1151.106567
1470,-761,4,0,0,0,700.495850
766,1655,1,0,0,0,713.947937
-892,501,2,0,0,0,838.638611
-1067,-180,3,1,0,8,58.286087
1581,-663,4,1,0,7,58.121086
1460,658,1,0,0,0,751.211487
-1889,983,2,0,0,0,628.550049
-1345,-1571,3,0,0,0,677.947571
921,-1342,4,1,0,7,58.121086
1542,253,1,1,0,6,179.542496
-188,1278,2,1,0,14,28.306221
-591,-835,3,1,0,8,58.286087
65,-1469,4,0,0,0,734.427979
1479,1167,1,1,0,14,28.306221
-1525,1879,2,1,0,14,28.306221
-350,-1770,3,0,0,0,717.012207
10,-1141,4,0,0,0,807.252930
463,1069,1,1,0,14,28.306221
-630,1500,2,0,0,0,705.445923
-1178,-1891,3,0,0,0,656.682434
1848,-235,4,1,0,14,28.306221
364,1263,1,1,0,14,28.306221
-1611,785,2,0,0,0,677.780823
-371,-14,3,0,0,0,1172.229614
1385,-489,4,1,0,7,58.121086
186,408,1,1,0,14,28.306221
-1525,1066,2,0,0,0,667.050110
-430,-1442,3,0,0,0,769.085999
61,-1422,4,0,0,0,743.771667
160,287,1,1,0,0,269.394287
-1284,71,2,0,0,0,772.898987
-1816,-1485,3,0,0,0,641.961548
1441,-868,4,0,0,0,695.875916
207,939,1,0,0,0,897.891174
-876,47,2,0,0,0,882.889099
-1709,-33,3,0,0,0,732.508667
698,-924,4,0,0,0,803.011169
1091,1527,1,0,0,0,705.737732
-1458,787,2,0,0,0,700.228760
-1589,-1808,3,1,0,8,58.286087
1612,-809,4,1,0,7,58.121086
1812,691,1,1,0,14,28.306221
-952,348,2,0,0,0,841.309570
-453,-336,3,0,0,0,1051.631348
821,-929,4,0,0,0,783.400818
1271,1575,1,0,0,0,684.130249
-1348,575,2,0,0,0,735.390198
-1965,-1535,3,0,0,0,624.571960
374,-467,4,0,0,0,993.145447
282,223,1,0,0,0,1181.503418
-1881,1023,2,0,0,0,626.985962
-785,-960,3,0,0,0,824.677063
1833,-900,4,0,0,0,640.498291
137,716,1,0,0,0,977.661133
-1371,216,2,0,0,0,750.997498
-1743,-150,3,0,0,0,725.856689
840,-435,4,0,0,0,861.188232
657,451,1,0,0,0,951.992798
-1292,1013,2,0,0,0,702.844238
-392,-1422,3,0,0,0,774.811829
1562,-1633,4,0,0,0,611.646606
82,1872,1,0,0,0,706.181702
-1841,1223,2,0,0,0,617.954773
-726,-1890,3,0,0,0,684.021667
1364,-854,4,0,0,0,708.568237
1819,243,1,0,0,0,712.149048
-726,1604,2,0,0,0,682.839966
-222,-799,3,1,0,8,58.286087
84,-1408,4,0,0,0,746.364136
459,1557,1,0,0,0,747.328125
-825,185,2,1,0,14,28.306221
-162,-483,3,0,0,0,1080.971802
1607,-329,4,0,0,0,703.096741
1054,1734,1,0,0,0,683.377808
-224,1823,2,0,0,0,670.749146
-317,-1831,3,0,0,0,708.569275
1557,-1561,4,1,0,7,58.121086
1741,1051,1,0,0,0,682.753784
-430,568,2,1,0,14,28.306221
-1799,-461,3,0,0,0,708.740601
1042,-1145,4,0,0,0,719.663391
657,762,1,0,0,0,884.841187
-138,917,2,0,0,0,866.911804
-254,-426,3,1,0,8,58.286087
1083,-924,4,0,0,0,743.710693
829,1444,1,0,0,0,740.034546
-193,1322,2,0,0,0,761.935242
-309,-420,3,0,0,0,1074.269775
947,-1550,4,0,0,0,673.926880
1061,90,1,0,0,0,868.522034
-509,1436,2,0,0,0,724.256653
-1486,-443,3,0,0,0,760.463257
5,-1384,4,0,0,0,751.805054
1339,1959,1,0,0,0,638.695679
-33,1258,2,0,0,0,779.114014
-1036,-430,3,0,0,0,853.544006
747,-1587,4,0,0,0,683.919678
1669,1010,1,1,0,14,28.306221
-717,1927,2,1,0,14,28.306221
-1496,-905,3,0,0,0,726.020874
268,-364,4,0,0,0,1073.981079
1278,237,1,0,0,0,811.157288
-695,413,2,1,0,14,28.306221
-1751,-1679,3,0,0,0,632.397461
1279,-1208,4,0,0,0,683.061035
881,1235,1,0,0,0,766.751587
-533,1417,2,0,0,0,726.071472
-598,-1703,3,0,0,0,716.906006
952,-924,4,1,0,7,58.121086
1904,1522,1,1,0,14,28.306221
-1660,707,2,0,0,0,675.839661
-711,-65,3,0,0,0,983.663330
1756,-1035,4,1,0,7,58.121086
1979,493,1,0,0,0,681.932800
-1771,1251,2,1,0,14,28.306221
-1189,-1108,3,0,0,0,746.977051
340,-1136,4,1,0,7,58.121086
1337,1026,1,0,0,0,736.566284
-659,906,2,0,0,0,812.521973
-1043,-1756,3,0,0,0,681.524658
763,-1850,4,1,0,7,58.121086
1789,158,1,0,0,0,718.334900
-205,375,2,0,0,0,1090.146851
-9,-1509,3,0,0,0,768.270569
1690,-365,4,0,0,0,688.034363
720,597,1,0,0,0,905.857239
-1071,534,2,0,0,0,793.554199
-1036,-1718,3,1,0,8,58.286087
444,-1562,4,0,0,0,705.983215
1964,867,1,0,0,0,667.266724
-618,508,2,0,0,0,909.439087
-744,-1230,3,1,0,8,58.286087
1394,-1030,4,0,0,0,687.327698
432,262,1,0,0,0,1083.360962
-665,1753,2,0,0,0,664.869507
-1880,-667,3,0,0,0,688.267029
588,-1246,4,1,0,7,58.121086
15,1265,1,1,0,14,28.306221
-1837,185,2,1,0,8,58.286087
-625,-826,3,0,0,0,876.470703
1915,-1583,4,0,0,0,584.714966
1495,481,1,0,0,0,756.812744
-872,1144,2,1,0,14,28.306221
-294,-741,3,0,0,0,951.887024
666,-517,4,0,0,0,894.319519
1332,153,1,0,0,0,802.236572
-261,771,2,0,0,0,904.447449
-837,-794,3,0,0,0,845.450745
1248,-944,4,0,0,0,716.596680
364,1211,1,0,0,0,819.066467
-1219,988,2,1,0,14,28.306221
-700,-1759,3,1,0,8,58.286087
312,-1038,4,1,0,7,58.121086
290,1697,1,0,0,0,730.455872
-1696,1764,2,0,0,0,589.029480
-1737,-1144,3,0,0,0,676.324524
1530,-310,4,1,0,7,58.121086
693,544,1,0,0,0,923.083435
-1337,367,2,0,0,0,751.298401
-1926,-57,3,0,0,0,698.188477
1409,-706,4,1,0,7,58.121086
1620,94,1,1,0,14,28.306221
-945,1831,2,0,0,0,637.933960
-105,-615,3,0,0,0,1022.534058
1673,-1465,4,0,0,0,616.213806
546,1584,1,0,0,0,738.245850
-1232,1404,2,0,0,0,665.937927
-16,-444,3,0,0,0,1120.437988
1209,-236,4,0,0,0,785.254517
1237,946,1,0,0,0,759.236328
-1394,275,2,0,0,0,744.264038
-540,-186,3,0,0,0,1048.010376
1414,-1711,4,0,0,0,616.739624
1572,761,1,0,0,0,726.337158
-986,939,2,1,0,14,28.306221
-1321,-1240,3,1,0,8,58.286087
681,-453,4,0,0,0,903.061218
311,1180,1,1,0,14,28.306221
-1931,1596,2,0,0,0,582.372375
-1080,-403,3,0,0,0,845.688293
246,-1908,4,0,0,0,657.517029
49,1020,1,0,0,0,880.566895
-1323,590,2,0,0,0,738.719910
-594,-875,3,1,0,8,58.286087
151,-1072,4,0,0,0,822.374573
1626,365,1,0,0,0,739.790405
-843,1033,2,0,0,0,762.515198
-150,-905,3,0,0,0,911.443237
20,-5,4,0,0,0,1964.811768
500,989,1,0,0,0,857.025085
-1597,541,2,0,0,0,695.210693
-1620,-963,3,1,0,8,58.286087
1259,-1424,4,0,0,0,660.957764
722,1297,1,0,0,0,772.992310
-527,1414,2,0,0,0,727.003174
-28,-1372,3,0,0,0,795.556641
170,-1147,4,0,0,0,802.632935
791,1919,1,0,0,0,676.909424
-1587,1461,2,0,0,0,624.877563
-546,-179,3,1,0,8,58.286087
1934,-34,4,0,0,0,655.962280
451,105,1,0,0,0,1108.501831
-295,1550,2,0,0,0,714.224487
-1140,-1321,3,0,0,0,726.603516
1725,-1459,4,1,0,7,58.121086
270,1543,1,0,0,0,757.549927
-1650,425,2,1,0,8,58.286087
-224,-274,3,0,0,0,1186.038574
403,-1103,4,0,0,0,798.990967
1842,21,1,0,0,0,711.064819
-1200,941,2,0,0,0,723.991333
-319,-548,3,0,0,0,1017.864807
1764,-69,4,1,0,14,28.306221
1034,738,1,0,0,0,817.743469
-1586,65,2,1,0,8,58.286087
-1320,-1207,3,1,0,8,58.286087
211,-851,4,0,0,0,883.050476
1442,183,1,1,0,6,184.293213
-1323,733,2,0,0,0,726.343933
-198,-1013,3,1,0,8,58.286087
1265,-364,4,0,0,0,766.197021
1168,1715,1,1,0,14,28.306221
-1285,84,2,0,0,0,772.501465
-521,-1310,3,0,0,0,787.806580
1634,-1542,4,1,0,7,58.121086
1334,298,1,1,0,6,214.687271
-1941,927,2,0,0,0,625.683716
-1907,-1453,3,0,0,0,635.758179
1089,-1741,4,0,0,0,638.897034
1225,635,1,0,0,0,793.987122
-1209,746,2,0,0,0,744.311401
-20,-681,3,0,0,0,997.164551
1316,-1954,4,1,0,7,58.121086
391,7,1,0,0,0,1157.243408
-141,639,2,1,0,14,28.306221
-1727,-355,3,0,0,0,723.625977
1487,-1567,4,0,0,0,624.462891
1352,537,1,1,0,6,242.678040
-53,1664,2,0,0,0,698.849792
-103,-274,3,0,0,0,1240.798462
1606,-1067,4,0,0,0,656.872559
979,1745,1,0,0,0,687.400574
-1362,1013,2,0,0,0,693.304749
-906,-1703,3,0,0,0,697.868164
1494,-146,4,0,0,0,728.507446
760,1474,1,0,0,0,741.182434
-296,432,2,0,0,0,1031.549072
-861,-1686,3,0,0,0,703.242859
1006,-1774,4,1,0,7,58.121086
550,134,1,0,0,0,1050.569946
-568,829,2,1,0,14,28.306221
-1768,-1646,3,1,0,8,58.286087
1636,-478,4,0,0,0,692.129395
1491,840,1,0,0,0,732.169922
-1502,1699,2,1,0,14,28.306221
-802,-770,3,0,0,0,856.092896
1727,-1361,4,1,0,7,58.121086
1754,1277,1,0,0,0,664.253235
-554,302,2,0,0,0,977.823669
-202,-653,3,0,0,0,996.219910
39,-510,4,0,0,0,1038.339722
1616,1640,1,0,0,0,647.295959
-1633,1552,2,0,0,0,612.516357
-1078,-1483,3,1,0,8,58.286087
909,-285,4,0,0,0,859.163391
501,997,1,1,0,14,28.306221
-811,1914,2,0,0,0,635.420715
-1423,-39,3,0,0,0,785.021606
872,-989,4,0,0,0,765.718323
1307,1348,1,0,0,0,705.601868
-687,1429,2,0,0,0,712.822388
-624,-1455,3,0,0,0,754.503235
494,-934,4,0,0,0,829.362915
481,157,1,1,0,14,28.306221
-712,681,2,0,0,0,849.476440
-270,-1278,3,1,0,8,58.286087
1670,-595,4,1,0,7,58.121086
1035,1526,1,1,0,14,28.306221
-344,978,2,1,0,14,28.306221
-858,-619,3,0,0,0,870.374023
409,-1345,4,1,0,7,58.121086
94,440,1,0,0,0,1116.799316
-1707,58,2,0,0,0,691.527649
-1541,-902,3,0,0,0,719.996887
1258,-305,4,0,0,0,771.010681
1100,1178,1,0,0,0,749.370544
-1177,1794,2,1,0,14,28.306221
-825,-1608,3,0,0,0,716.533752
1742,-1671,4,1,0,7,58.121086
400,117,1,0,0,0,1138.886353
-443,1577,2,0,0,0,703.496643
-458,-1507,3,0,0,0,755.975708
1309,-1588,4,0,0,0,638.282043
1175,1554,1,0,0,0,695.031250
-1314,120,2,0,0,0,765.513062
-996,-1665,3,0,0,0,696.216309
944,-697,4,0,0,0,799.207581
1663,418,1,0,0,0,731.602783
-549,5,2,1,0,14,28.306221
-1831,-993,3,0,0,0,675.905212
1898,-606,4,0,0,0,647.516479
1528,291,1,1,0,6,184.810226
-24,1851,2,1,0,14,28.306221
-1969,-290,3,1,0,8,58.286087
901,-555,4,0,0,0,828.921326
52,727,1,0,0,0,977.713318
-828,1190,2,0,0,0,738.497742
-1121,-1024,3,1,0,8,58.286087
815,-69,4,1,0,14,28.306221
1302,1216,1,0,0,0,720.646606
-1369,1359,2,0,0,0,656.745117
-710,-1071,3,0,0,0,814.454712
1158,-832,4,0,0,0,743.250061
152,86,1,1,0,0,522.641846
-21,1829,2,0,0,0,671.932495
-376,-458,3,0,0,0,1037.387451
1225,-709,4,0,0,0,745.373779
197,1544,1,0,0,0,759.375000
-1072,1861,2,1,0,14,28.306221
-1352,-481,3,0,0,0,782.714233
1340,-90,4,1,0,6,159.234100
1693,548,1,0,0,0,720.976868
-746,1091,2,1,0,14,28.306221
-554,-50,3,0,0,0,1055.624268
1205,-855,4,0,0,0,733.051208
1186,1049,1,0,0,0,754.469238
-1166,947,2,1,0,14,28.306221
-1552,-170,3,0,0,0,758.497375
1092,-225,4,0,0,0,813.906433
1418,36,1,0,0,0,786.048157
-1357,1106,2,0,0,0,684.473389
-734,-1046,3,0,0,0,816.054382
1159,-1679,4,0,0,0,640.757263
1309,1627,1,1,0,14,28.306221
-90,1609,2,1,0,14,28.306221
-206,-1388,3,0,0,0,789.154480
1168,-1312,4,0,0,0,683.502136
1247,1030,1,1,0,14,28.306221
-1623,707,2,0,0,0,681.276428
-1218,-1308,3,0,0,0,719.723022
978,-155,4,0,0,0,848.030823
1651,1681,1,0,0,0,640.711182
-693,714,2,0,0,0,846.638794
-1371,-1178,3,0,0,0,716.488220
37,-921,4,1,0,7,58.121086
1253,815,1,0,0,0,771.003174
-1569,1405,2,1,0,14,28.306221
-1860,-466,3,0,0,0,699.581787
1409,-133,4,1,0,14,28.306221
1599,1820,1,1,0,14,28.306221
-905,857,2,0,0,0,781.877319
-508,-1395,3,1,0,8,58.286087
1572,-1460,4,0,0,0,626.425110
829,788,1,0,0,0,847.938599
-1769,1538,2,0,0,0,601.232483
-1202,-54,3,0,0,0,833.360046
1119,-191,4,0,0,0,808.733154
29,1247,1,0,0,0,823.001526
-923,1376,2,1,0,14,28.306221
-1456,-320,3,0,0,0,771.769714
323,-1451,4,1,0,7,58.121086
301,351,1,0,0,0,1108.921753
-1503,281,2,0,0,0,723.223938
-1143,-1711,3,0,0,0,679.395447
423,-49,4,0,0,0,1091.192505
1629,957,1,0,0,0,703.820557
-1066,551,2,0,0,0,792.777832
-23,-1181,3,1,0,7,58.121086
1539,-1668,4,0,0,0,610.421204
364,534,1,1,0,14,28.306221
-1534,28,2,0,0,0,722.248169
-498,-1831,3,0,0,0,702.579407
182,-461,4,0,0,0,1047.423584
260,1220,1,0,0,0,822.987610
-349,317,2,0,0,0,1061.827271
-1905,-660,3,1,0,8,58.286087
405,-886,4,0,0,0,852.727295
34,1014,1,1,0,14,28.306221
-1022,676,2,0,0,0,786.769165
-1088,-1747,3,0,0,0,679.335144
1722,-1632,4,0,0,0,597.813232
1625,163,1,1,0,14,28.306221
-1135,910,2,0,0,0,737.502136
-922,-744,3,1,0,8,58.286087
1168,-420,4,0,0,0,783.070251
82,1172,1,0,0,0,840.218445
-1042,782,2,0,0,0,769.162903
-1762,-1559,3,0,0,0,641.133972
607,-651,4,0,0,0,878.711060
1123,83,1,1,0,6,192.921066
-794,1138,2,0,0,0,751.058472
-1642,-718,3,0,0,0,718.949036
436,-104,4,0,0,0,1076.406128
1172,524,1,0,0,0,814.714539
-529,885,2,0,0,0,836.402405
-485,-1554,3,0,0,0,746.502258
267,-1554,4,0,0,0,714.415771
1187,686,1,0,0,0,795.831726
-890,647,2,0,0,0,817.700806
-859,-949,3,0,0,0,815.561340
1675,-1781,4,1,0,7,58.121086
1087,564,1,1,0,6,412.747375
-970,764,2,0,0,0,784.572693
-972,-1785,3,0,0,0,682.915283
1428,-417,4,1,0,7,58.121086
202,426,1,0,0,0,1103.314209
-1732,1416,2,1,0,14,28.306221
-327,-1512,3,0,0,0,761.143494
215,-1700,4,0,0,0,690.598694
1072,1660,1,0,0,0,690.970947
-158,1742,2,0,0,0,684.714600
-227,-1721,3,0,0,0,728.083435
1608,-1177,4,0,0,0,647.467834
1882,1215,1,0,0,0,655.121765
-685,1264,2,0,0,0,740.889648
-881,-182,3,1,0,8,58.286087
1186,-120,4,1,0,6,161.207031
234,1699,1,0,0,0,731.550903
-159,641,2,0,0,0,964.672974
-651,-963,3,1,0,8,58.286087
122,-1901,4,0,0,0,660.333618
1815,1354,1,0,0,0,652.044006
-1694,1322,2,1,0,14,28.306221
-1523,-839,3,0,0,0,727.604675
28,-1065,4,0,0,0,826.984680
604,1719,1,0,0,0,714.206909
-762,644,2,1,0,14,28.306221
-575,-415,3,0,0,0,985.626099
793,-1262,4,1,0,7,58.121086
914,1551,1,0,0,0,717.647461
-1902,302,2,0,0,0,657.215576
-1963,-1662,3,1,0,8,58.286087
330,-581,4,0,0,0,961.310486
1159,1161,1,0,0,0,744.296753
-615,1249,2,0,0,0,750.111816
-1498,-1885,3,1,0,8,58.286087
419,-597,4,0,0,0,936.064819
1566,1131,1,0,0,0,697.465881
-570,1451,2,0,0,0,717.673889
-1250,-1585,3,0,0,0,684.877136
1648,-571,4,0,0,0,685.538696
1726,1557,1,0,0,0,644.570374
-253,1708,2,0,0,0,688.420349
-1536,-1775,3,0,0,0,641.784729
1072,-886,4,1,0,7,58.121086
1795,816,1,0,0,0,691.591736
-628,876,2,0,0,0,823.634521
-1504,-1101,3,0,0,0,707.694275
1720,-95,4,1,0,14,28.306221
1266,368,1,1,0,6,240.104446
-70,1787,2,0,0,0,678.372986
-1901,-1977,3,1,0,8,58.286087
1876,-22,4,1,0,14,28.306221
426,1901,1,0,0,0,695.041016
-1465,1800,2,0,0,0,604.067444
-947,-1064,3,0,0,0,784.847473
262,-1076,4,0,0,0,815.846985
1558,149,1,0,0,0,757.794922
-33,1044,2,0,0,0,832.668518
-780,-1621,3,1,0,8,58.286087
650,-253,4,0,0,0,948.933655
763,1299,1,0,0,0,768.750061
-1760,781,2,1,0,14,28.306221
-1888,-1665,3,1,0,8,58.286087
1410,-946,4,1,0,7,58.121086
1094,466,1,1,0,6,317.073334
-965,1617,2,0,0,0,663.628479
-129,-924,3,1,0,8,58.286087
219,-628,4,0,0,0,962.644958
1066,1433,1,0,0,0,719.926941
-774,1744,2,0,0,0,659.865051
-570,-1300,3,0,0,0,785.842529
1740,-1547,4,1,0,7,58.121086
1946,1317,1,0,0,0,641.487610
-39,1333,2,0,0,0,762.460754
-1497,-493,3,0,0,0,755.788147
1613,-1740,4,0,0,0,597.796265
1619,1500,1,0,0,0,659.365479
-859,775,2,0,0,0,803.276245
-879,-841,3,0,0,0,830.196106
1790,-1348,4,0,0,0,614.042847
396,878,1,0,0,0,897.404541
-1336,835,2,0,0,0,714.651306
-904,-1937,3,1,0,8,58.286087
1026,-1690,4,1,0,7,58.121086
171,1895,1,0,0,0,701.798218
-830,931,2,0,0,0,781.675415
-1035,-236,3,1,0,8,58.286087
559,-1833,4,1,0,7,58.121086
127,266,1,0,0,0,1238.792236
-678,1723,2,0,0,0,668.442017
-743,-594,3,1,0,8,58.286087
876,-1859,4,0,0,0,638.685669
1183,1386,1,1,0,14,28.306221
-1917,1398,2,0,0,0,597.798279
-1995,-343,3,0,0,0,684.073914
1219,-1461,4,0,0,0,660.656738
925,72,1,0,0,0,908.180542
-1027,520,2,0,0,0,804.719910
-1040,-1384,3,0,0,0,728.861511
1196,-1559,4,0,0,0,651.479492
728,442,1,0,0,0,932.840454
-356,1273,2,0,0,0,764.997070
-1195,-475,3,0,0,0,814.236511
293,-979,4,0,0,0,838.965088
413,1815,1,0,0,0,708.083191
-1955,857,2,0,0,0,627.865051
-970,-159,3,0,0,0,891.553040
1505,-1741,4,0,0,0,606.465332
1491,1708,1,0,0,0,651.688049
-1286,1321,2,0,0,0,669.679871
-911,-1140,3,0,0,0,777.895935
927,-847,4,0,0,0,779.742188
918,28,1,1,0,6,181.911804
-1082,1422,2,1,0,14,28.306221
-1030,-856,3,0,0,0,802.556458
918,-379,4,0,0,0,847.174072
295,42,1,0,0,0,1235.665405
-1167,21,2,0,0,0,800.740967
-415,-912,3,1,0,8,58.286087
1909,-666,4,1,0,7,58.121086
1342,1219,1,0,0,0,715.631531
-1021,949,2,0,0,0,749.755371
-344,-419,3,1,0,8,58.286087
1460,-1707,4,1,0,7,58.121086
1597,993,1,1,0,14,28.306221
-1298,1333,2,1,0,14,28.306221
-874,-881,3,0,0,0,824.470398
411,-381,4,0,0,0,1011.995178
120,345,1,0,0,0,1176.921753
-1474,1560,2,0,0,0,626.317078
-826,-528,3,0,0,0,892.318115
1057,-1340,4,1,0,7,58.121086
571,1282,1,1,0,14,28.306221
-1933,733,2,0,0,0,636.990479
-1005,-931,3,0,0,0,796.044312
1380,-1015,4,0,0,0,690.676636
884,864,1,0,0,0,825.603088
-679,416,2,0,0,0,910.770752
-1395,-83,3,1,0,8,58.286087
1994,-137,4,1,0,14,28.306221
1119,1199,1,0,0,0,744.373657
-766,545,2,0,0,0,862.975525
-398,-1042,3,0,0,0,855.157410
631,-1592,4,0,0,0,690.774170
1947,575,1,0,0,0,683.247131
-652,147,2,0,0,0,961.229004
-1059,-1772,3,0,0,0,678.469910
684,-1260,4,0,0,0,741.687866
384,940,1,0,0,0,882.197205
-1787,1044,2,0,0,0,636.673035
-639,-1153,3,0,0,0,807.107483
425,-1781,4,0,0,0,671.637817
1567,766,1,0,0,0,726.716370
-1124,1256,2,0,0,0,695.320312
-944,-1517,3,0,0,0,719.810852
1521,-83,4,1,0,14,28.306221
912,602,1,1,0,6,319.136139
-1497,1546,2,1,0,14,28.306221
-1903,-1422,3,0,0,0,638.369629
443,-854,4,0,0,0,856.328186
61,940,1,0,0,0,903.812256
-1390,531,2,0,0,0,731.029297
-1237,-1208,3,0,0,0,729.226624
112,-449,4,0,0,0,1067.209106
1341,1473,1,0,0,0,688.673096
-1164,1859,2,0,0,0,620.133545
-403,-1803,3,0,0,0,710.231018
878,-1127,4,0,0,0,742.698730
283,495,1,1,0,14,28.306221
-90,1882,2,0,0,0,663.462952
-1432,-1336,3,0,0,0,693.531738
451,-1959,4,0,0,0,644.972717
362,1371,1,0,0,0,786.143311
-480,389,2,0,0,0,983.885315
-327,-185,3,0,0,0,1168.800049
1006,-525,4,0,0,0,808.842224
763,1565,1,0,0,0,727.228516
-1036,1063,2,1,0,14,28.306221
-1302,-1798,3,0,0,0,657.709167
1123,-522,4,1,0,7,58.121086
974,256,1,1,0,6,230.092346
-1068,814,2,1,0,14,28.306221
-11,-675,3,1,0,7,58.121086
972,-1826,4,1,0,7,58.121086
1360,1574,1,0,0,0,676.285889
-1122,46,2,0,0,0,811.849731
-957,-253,3,1,0,8,58.286087
726,-1640,4,1,0,7,58.121086
1046,1610,1,0,0,0,699.214172
-1027,1824,2,1,0,14,28.306221
-370,-1981,3,0,0,0,685.350525
103,-1323,4,0,0,0,763.877930
1170,960,1,0,0,0,767.432251
-955,1357,2,0,0,0,699.794739
-971,-78,3,1,0,8,58.286087
827,-1588,4,0,0,0,678.042480
935,364,1,0,0,0,885.635498
-1060,1868,2,0,0,0,626.108704
-379,-78,3,0,0,0,1160.298218
1401,-525,4,0,0,0,729.460327
507,339,1,1,0,14,28.306221
-768,194,2,1,0,14,28.306221
-1783,-1714,3,0,0,0,626.893616
1771,-401,4,0,0,0,674.016785
929,813,1,0,0,0,825.974731
-1027,1437,2,0,0,0,681.929077
-1209,-1870,3,0,0,0,656.825867
590,-1476,4,0,0,0,712.102722
1345,768,1,0,0,0,760.797546
-770,975,2,0,0,0,782.800293
-1898,-963,3,0,0,0,669.743408
543,-411,4,0,0,0,955.830078
762,1271,1,0,0,0,773.475891
-948,156,2,0,0,0,856.721008
-751,-1501,3,1,0,8,58.286087
1129,-712,4,0,0,0,762.204590
397,113,1,0,0,0,1141.662109
-1360,1652,2,1,0,14,28.306221
-1648,-1364,3,0,0,0,668.280396
1909,-1222,4,0,0,0,610.785339
1525,1484,1,0,0,0,669.803101
-818,173,2,0,0,0,896.727905
-1792,-493,3,0,0,0,708.516907
246,-1864,4,0,0,0,664.068604
951,1066,1,0,0,0,784.010986
-1924,514,2,0,0,0,647.648804
-1535,-312,3,0,0,0,757.560486
1482,-816,4,0,0,0,694.252930
652,1263,1,0,0,0,785.459961
-393,962,2,0,0,0,834.143555
-828,-1136,3,0,0,0,788.637390
1680,-65,4,0,0,0,696.041870
1792,1096,1,0,0,0,673.492310
-601,1902,2,1,0,14,28.306221
-361,-43,3,0,0,0,1178.284668
1517,-406,4,1,0,7,58.121086
285,1490,1,0,0,0,766.755371
-811,1597,2,0,0,0,677.932983
-1355,-98,3,0,0,0,798.450012
415,-56,4,0,0,0,1096.019165
1215,1195,1,0,0,0,733.371094
-1238,1728,2,1,0,14,28.306221
-601,-247,3,0,0,0,1010.817993
1545,-460,4,0,0,0,708.081726
1381,1807,1,0,0,0,650.800720
-1625,1701,2,0,0,0,600.221985
-884,-1196,3,0,0,0,772.447449
971,-1155,4,1,0,7,58.121086
1999,1554,1,0,0,0,620.210510
-566,1117,2,1,0,14,28.306221
-138,-968,3,0,0,0,893.067749
630,-55,4,0,0,0,977.171570
1670,565,1,1,0,14,28.306221
-1453,1630,2,0,0,0,621.401611
-442,-752,3,1,0,8,58.286087
1050,-649,4,0,0,0,784.656982
1497,1710,1,0,0,0,651.002197
-1157,1592,2,0,0,0,651.028809
-905,-87,3,0,0,0,914.021179
1426,-1910,4,0,0,0,596.485901
660,432,1,0,0,0,954.932617
-1450,697,2,1,0,14,28.306221
-1341,-498,3,0,0,0,783.622375
103,-1756,4,0,0,0,683.105225
533,1069,1,1,0,14,28.306221
-280,1285,2,0,0,0,766.453735
-1299,-470,3,0,0,0,793.651611
1387,-596,4,1,0,7,58.121086
1357,779,1,1,0,14,28.306221
-1301,1592,2,0,0,0,638.556946
-179,-283,3,0,0,0,1202.000732
1401,-1521,4,0,0,0,636.908386
1534,1320,1,0,0,0,684.148071
-770,463,2,0,0,0,876.007996
-395,-534,3,0,0,0,1004.482727
1681,-688,4,0,0,0,673.935913
1476,1394,1,1,0,14,28.306221
-1026,1230,2,0,0,0,709.914734
-1698,-1282,3,1,0,8,58.286087
523,-467,4,0,0,0,947.428833
1569,782,1,1,0,14,28.306221
-1739,391,2,0,0,0,679.326843
-1559,-1803,3,0,0,0,637.418152
1032,-557,4,0,0,0,799.381775
618,1011,1,0,0,0,837.765869
-679,1237,2,0,0,0,746.242676
-365,-805,3,1,0,8,58.286087
298,-623,4,1,0,7,58.121086
939,336,1,1,0,6,249.736816
-937,974,2,0,0,0,758.619629
-1742,-1688,3,1,0,8,58.286087
1331,-1000,4,0,0,0,698.857361
762,1167,1,0,0,0,791.097107
-1854,1087,2,0,0,0,625.927856
-1258,-261,3,0,0,0,814.494568
1330,-1572,4,0,0,0,638.118774
522,591,1,1,0,14,28.306221
-275,506,2,0,0,0,1004.145691
-310,-383,3,0,0,0,1090.588135
927,-584,4,0,0,0,818.931824
726,521,1,0,0,0,918.998230
-776,1923,2,0,0,0,636.115173
-1105,-82,3,1,0,8,58.286087
1359,-849,4,0,0,0,709.796997
450,1398,1,0,0,0,776.061096
-1017,812,2,0,0,0,769.472656
-1317,-1264,3,0,0,0,713.672424
450,-1712,4,0,0,0,681.300598
301,1881,1,0,0,0,701.462769
-242,416,2,1,0,14,28.306221
-693,-588,3,0,0,0,914.125916
1253,-1125,4,1,0,7,58.121086
8,111,1,0,0,0,1519.820557
-1950,1215,2,1,0,14,28.306221
-430,-864,3,0,0,0,896.832153
296,-33,4,1,0,0,270.262360
1744,1024,1,1,0,14,28.306221
-1434,1471,2,0,0,0,638.788818
-434,-1551,3,0,0,0,749.576477
577,-60,4,0,0,0,1002.045654
957,531,1,0,0,0,860.621216
-420,180,2,0,0,0,1070.853394
-578,-531,3,0,0,0,956.370483
664,-999,4,0,0,0,792.883850
798,1858,1,0,0,0,684.378174
-288,315,2,0,0,0,1090.526733
-167,-902,3,0,0,0,911.448547
1000,-81,4,1,0,6,167.772400
995,1198,1,1,0,14,28.306221
-358,1516,2,1,0,14,28.306221
-1084,-651,3,0,0,0,819.080872
1238,-513,4,0,0,0,761.062805
1389,570,1,0,0,0,769.724365
-617,73,2,0,0,0,982.272156
-422,-574,3,1,0,8,58.286087
1514,-1206,4,0,0,0,655.767212
1175,1565,1,0,0,0,693.743652
-738,1012,2,0,0,0,780.468384
-1602,-1730,3,0,0,0,640.512329
697,-1568,4,0,0,0,690.199097
68,613,1,1,0,14,28.306221
-1452,673,2,1,0,14,28.306221
-949,-1256,3,0,0,0,756.130798
198,-764,4,0,0,0,913.336609
667,1388,1,0,0,0,762.447388
-1118,55,2,0,0,0,812.770508
-1902,-777,3,1,0,8,58.286087
1845,-485,4,0,0,0,659.918274
1429,1069,1,0,0,0,720.153442
-707,929,2,0,0,0,800.681885
-55,-1270,3,0,0,0,817.554321
1799,-1889,4,0,0,0,570.917297
1082,1275,1,0,0,0,738.799805
-408,1250,2,0,0,0,766.508667
-377,-92,3,1,0,0,211.142731
113,-632,4,0,0,0,972.817871
1233,357,1,0,0,0,814.751465
-299,728,2,1,0,14,28.306221
-573,-550,3,0,0,0,952.953613
1264,-1033,4,0,0,0,704.481567
1129,810,1,1,0,14,28.306221
-17,1528,2,0,0,0,723.401672
-1842,-676,3,1,0,8,58.286087
1563,-1086,4,0,0,0,660.582458
132,544,1,0,0,0,1053.798096
-526,592,2,0,0,0,912.359558
-267,-1003,3,0,0,0,875.882019
687,-960,4,0,0,0,797.482910
1856,1392,1,0,0,0,645.123535
-1623,526,2,0,0,0,691.842346
-1151,-685,3,0,0,0,802.525146
1884,-1231,4,0,0,0,612.813171
1499,321,1,0,0,0,763.748047
-464,34,2,0,0,0,1065.663940
-714,-1890,3,0,0,0,684.625916
240,-480,4,0,0,0,1024.491821
1170,328,1,0,0,0,830.530640
-700,969,2,0,0,0,793.879333
-800,-466,3,1,0,8,58.286087
1419,-1219,4,0,0,0,665.509338
553,546,1,0,0,0,959.233154
-723,1795,2,0,0,0,655.838379
-1776,-525,3,0,0,0,709.536865
1879,-1014,4,1,0,7,58.121086
516,1189,1,0,0,0,811.965881
-668,1682,2,1,0,14,28.306221
-1459,-635,3,1,0,8,58.286087
665,-1475,4,0,0,0,707.026123
565,1880,1,0,0,0,692.858093
-1011,1721,2,0,0,0,647.002747
-818,-428,3,0,0,0,909.609619
1768,-611,4,1,0,7,58.121086
248,1042,1,0,0,0,866.825317
-525,1031,2,0,0,0,803.267639
-500,-1766,3,0,0,0,712.109009
1738,-835,4,0,0,0,656.867004
381,1559,1,0,0,0,750.593201
-1286,460,2,0,0,0,755.606934
-716,-1601,3,0,0,0,725.141663
594,-1351,4,0,0,0,733.381165
106,1991,1,0,0,0,688.410034
-1582,203,2,0,0,0,711.127991
-1404,-1208,3,0,0,0,709.508423
1938,-785,4,1,0,7,58.121086
120,1563,1,1,0,14,28.306221
-1734,1064,2,1,0,14,28.306221
-1179,-1763,3,0,0,0,670.742371
1647,-648,4,0,0,0,681.343262
1932,849,1,0,0,0,672.172241
-1384,143,2,1,0,8,58.286087
-874,-1632,3,0,0,0,709.641235
277,-1448,4,0,0,0,733.684387
567,1642,1,1,0,14,28.306221
-815,240,2,1,0,14,28.306221
-872,-754,3,0,0,0,845.678406
1374,-1799,4,0,0,0,611.153503
1464,654,1,0,0,0,750.851318
-397,1871,2,0,0,0,659.174805
-1755,-1099,3,0,0,0,677.588440
1391,-1827,4,0,0,0,607.091492
1195,1480,1,1,0,14,28.306221
-1157,1463,2,1,0,14,28.306221
-1662,-1389,3,0,0,0,664.729980
1716,-849,4,0,0,0,658.893921
70,1231,1,0,0,0,826.328857
-1399,142,2,1,0,8,58.286087
-373,-835,3,0,0,0,912.330688
1009,-808,4,1,0,7,58.121086
810,1095,1,0,0,0,797.712341
-1152,687,2,0,0,0,760.802612
-1640,-1964,3,0,0,0,617.223938
129,-235,4,0,0,0,1224.671143
596,371,1,1,0,14,28.306221
-1902,1479,2,0,0,0,593.434448
-983,-483,3,1,0,8,58.286087
1866,-137,4,0,0,0,665.460693
1347,1457,1,0,0,0,689.786194
-483,1058,2,1,0,14,28.306221
-1097,-1268,3,0,0,0,738.038513
961,-1462,4,1,0,7,58.121086
649,673,1,0,0,0,905.969055
-1122,667,2,0,0,0,768.615601
-558,-56,3,0,0,0,1053.274536
250,-488,4,0,0,0,1018.298340
1809,401,1,0,0,0,709.391418
-972,1848,2,0,0,0,634.147522
-868,-1050,3,0,0,0,797.650513
1617,-312,4,0,0,0,701.965515
420,1103,1,0,0,0,838.900879
-1481,444,2,0,0,0,720.039917
-1759,-1847,3,0,0,0,618.126709
510,-174,4,0,0,0,1023.307190
1372,1258,1,0,0,0,708.076660
-1965,796,2,0,0,0,629.804871
-534,-545,3,0,0,0,964.516846
714,-100,4,1,0,14,28.306221
953,1799,1,1,0,14,28.306221
-704,180,2,0,0,0,937.139343
-1321,-822,3,0,0,0,759.494751
44,-707,4,0,0,0,944.479858
1367,1398,1,0,0,0,693.996277
-1921,233,2,0,0,0,655.846924
-661,-202,3,0,0,0,993.013062
251,-491,4,0,0,0,1016.658936
388,687,1,0,0,0,954.865540
-690,663,2,0,0,0,857.874695
-1999,-894,3,0,0,0,661.608459
640,-482,4,0,0,0,909.004456
882,168,1,0,0,0,917.628418
-1598,671,2,0,0,0,687.341309
-441,-993,3,1,0,8,58.286087
361,-799,4,0,0,0,883.050476
1852,613,1,1,0,14,28.306221
-276,655,2,0,0,0,943.502502
-394,-576,3,0,0,0,990.238403
43,-1144,4,0,0,0,806.306091
1709,913,1,0,0,0,696.596497
-914,342,2,0,0,0,852.221802
-1870,-854,3,0,0,0,679.657410
1599,-1557,4,0,0,0,615.185242
586,1675,1,0,0,0,721.772583
-783,903,2,1,0,14,28.306221
-1893,-1050,3,0,0,0,664.901123
599,-1347,4,1,0,7,58.121086
1027,586,1,0,0,0,838.373535
-953,1080,2,0,0,0,740.357544
-1829,-466,3,0,0,0,704.105286
468,-182,4,1,0,14,28.306221
1898,289,1,0,0,0,699.225464
-483,1153,2,0,0,0,781.026978
-535,-1205,3,1,0,8,58.286087
1706,-21,4,0,0,0,691.838806
1698,338,1,0,0,0,728.842896
-1885,33,2,0,0,0,663.290833
-468,-1065,3,0,0,0,843.066345
1352,-1097,4,0,0,0,686.039185
1173,711,1,0,0,0,795.687866
-644,675,2,0,0,0,865.177490
-1141,-1088,3,0,0,0,755.697693
31,-167,4,0,0,0,1356.327148
1150,1115,1,0,0,0,751.146729
-798,982,2,0,0,0,777.537659
-1232,-1070,3,1,0,8,58.286087
1188,-1885,4,1,0,7,58.121086
739,528,1,0,0,0,914.315918
-1240,281,2,1,0,8,58.286087
-1244,-1792,3,0,0,0,662.697693
307,-696,4,1,0,7,58.121086
1175,246,1,0,0,0,834.015198
-1456,160,2,0,0,0,735.536804
-1608,-550,3,1,0,8,58.286087
472,-1342,4,0,0,0,743.917297
305,1702,1,0,0,0,729.207520
-65,1995,2,0,0,0,646.992737
-1226,-263,3,0,0,0,821.494263
236,-455,4,0,0,0,1037.734863
418,1055,1,0,0,0,850.203857
-1592,1703,2,0,0,0,602.795593
-1862,-1619,3,0,0,0,627.563110
186,-1031,4,0,0,0,831.809998
1598,1414,1,0,0,0,669.012756
-800,708,2,0,0,0,826.193970
-621,-1012,3,0,0,0,837.179138
97,-1445,4,0,0,0,738.787964
1831,70,1,1,0,14,28.306221
-1820,559,2,0,0,0,660.483154
-1905,-1507,3,0,0,0,632.034058
1315,-1608,4,0,0,0,635.626038
14,1638,1,0,0,0,744.721863
-494,937,2,0,0,0,828.641418
-1623,-605,3,1,0,8,58.286087
1449,-145,4,1,0,14,28.306221
127,1571,1,0,0,0,755.781616
-119,1274,2,0,0,0,774.335327
-1390,-908,3,0,0,0,740.854858
1638,-371,4,0,0,0,696.343018
558,119,1,0,0,0,1048.307251
-142,1366,2,0,0,0,754.021790
-1368,-74,3,0,0,0,796.035706
859,-1432,4,0,0,0,697.984863
1043,1890,1,0,0,0,665.696045
-867,897,2,0,0,0,781.616394
-1359,-192,3,0,0,0,795.512695
839,-1393,4,0,0,0,705.582764
228,973,1,0,0,0,886.785461
-1683,1252,2,0,0,0,632.842957
-1858,-77,3,0,0,0,708.360474
877,-134,4,0,0,0,879.652283
1293,87,1,0,0,0,812.013672
-466,1763,2,1,0,14,28.306221
-1439,-1993,3,0,0,0,628.629883
633,-539,4,0,0,0,898.352295
996,1622,1,0,0,0,701.694153
-408,1843,2,1,0,14,28.306221
-89,-1298,3,0,0,0,810.879272
1482,-659,4,0,0,0,706.329834
1459,300,1,1,0,6,195.646744
-1873,663,2,0,0,0,648.307373
-316,-142,3,0,0,0,1192.192871
1558,-1149,4,1,0,7,58.121086
1352,447,1,0,0,0,784.932007
-1020,1750,2,0,0,0,642.807678
-1464,-20,3,0,0,0,776.943054
1188,-147,4,0,0,0,793.478455
217,1374,1,0,0,0,791.657898
-1696,1700,2,0,0,0,594.381836
-73,-1124,3,0,0,0,852.347412
246,-1145,4,1,0,7,58.121086
668,324,1,1,0,14,28.306221
-36,1853,2,1,0,14,28.306221
-1991,-1081,3,0,0,0,651.902100
912,-172,4,0,0,0,866.678711
426,644,1,1,0,14,28.306221
-385,1080,2,1,0,14,28.306221
-276,-528,3,0,0,0,1035.827393
390,-1384,4,1,0,7,58.121086
1670,700,1,1,0,14,28.306221
-855,1313,2,1,0,14,28.306221
-1605,-1211,3,0,0,0,686.011292
88,-1359,4,0,0,0,756.438354
1007,1477,1,0,0,0,719.669678
-1838,239,2,0,0,0,668.152832
-1993,-682,3,0,0,0,672.694702
106,-625,4,0,0,0,976.475891
504,104,1,1,0,14,28.306221
-1315,16,2,1,0,8,58.286087
-793,-900,3,0,0,0,834.244080
603,-1342,4,1,0,7,58.121086
830,371,1,1,0,6,239.934418
-1190,1883,2,1,0,14,28.306221
-1660,-1226,3,0,0,0,678.563599
156,-772,4,0,0,0,913.934143
967,1510,1,0,0,0,718.792969
-1923,1526,2,0,0,0,588.120544
-1944,-577,3,0,0,0,683.572754
76,-428,4,0,0,0,1085.249390
995,598,1,0,0,0,843.665039
-263,1730,2,1,0,14,28.306221
-795,-163,3,1,0,8,58.286087
423,-530,4,0,0,0,957.059692
1044,776,1,0,0,0,810.931335
-655,942,2,0,0,0,805.670776
-199,-746,3,0,0,0,961.108276
1430,-677,4,0,0,0,713.438416
876,1429,1,1,0,14,28.306221
-514,921,2,1,0,14,28.306221
-1386,-694,3,1,0,8,58.286087
972,-612,4,0,0,0,805.350647
1359,1228,1,0,0,0,712.700867
-1222,1549,2,0,0,0,650.309387
-443,-1581,3,1,0,8,58.286087
359,-1203,4,1,0,7,58.121086
445,1309,1,1,0,14,28.306221
-1568,690,2,0,0,0,690.671570
-250,-63,3,0,0,0,1277.428467
1820,-312,4,0,0,0,669.222046
326,1636,1,1,0,14,28.306221
-1530,1445,2,0,0,0,631.909180
-761,-1022,3,0,0,0,816.872620
1385,-1894,4,1,0,7,58.121086
779,1060,1,0,0,0,807.711731
-1379,1268,2,1,0,14,28.306221
-1661,-1090,3,0,0,0,689.431824
1147,-1893,4,0,0,0,617.546387
1337,42,1,0,0,0,802.901550
-1191,1809,2,0,0,0,623.723633
-445,-1911,3,0,0,0,692.994568
312,-1267,4,1,0,7,58.121086
1588,1743,1,1,0,14,28.306221
-213,1871,2,1,0,14,28.306221
-46,-1693,3,0,0,0,735.153687
1651,-1322,4,1,0,7,58.121086
1856,477,1,0,0,0,699.756775
-445,1113,2,0,0,0,793.093811
-1433,-1656,3,0,0,0,661.590881
1748,-66,4,1,0,14,28.306221
1429,98,1,0,0,0,783.246643
-1969,1161,2,1,0,14,28.306221
-314,-402,3,0,0,0,1080.601685
202,-1793,4,0,0,0,675.831116
1175,1905,1,1,0,14,28.306221
-1300,232,2,0,0,0,765.280029
-767,-1445,3,0,0,0,745.092590
1743,-1744,4,1,0,7,58.121086
1201,433,1,1,0,6,272.590607
-1530,1336,2,0,0,0,642.014160
-902,-1860,3,0,0,0,678.076660
517,-71,4,1,0,14,28.306221
360,950,1,0,0,0,882.051575
-996,1896,2,0,0,0,626.919434
-1501,-1551,3,0,0,0,665.737183
794,-211,4,0,0,0,901.778748
1209,1940,1,0,0,0,649.349487
-1081,646,2,0,0,0,778.912170
-772,-1190,3,0,0,0,786.043396
1173,-304,4,0,0,0,789.973206
581,1291,1,0,0,0,786.604370
-1555,211,2,1,0,8,58.286087
-1067,-1543,3,0,0,0,705.846375
992,-1938,4,0,0,0,622.245728
322,1223,1,0,0,0,819.030823
-1816,1277,2,0,0,0,616.691101
-1874,-920,3,0,0,0,675.258850
543,-613,4,0,0,0,902.707092
1646,197,1,0,0,0,741.294800
-1409,1445,2,0,0,0,643.839783
-1112,-23,3,0,0,0,855.980164
891,-434,4,0,0,0,847.777588
1770,588,1,0,0,0,707.511902
-434,1518,2,0,0,0,714.043335
-1094,-1211,3,1,0,8,58.286087
801,-1280,4,0,0,0,726.822327
795,129,1,1,0,6,190.524597
-1548,930,2,1,0,14,28.306221
-189,-1136,3,1,0,8,58.286087
684,-1934,4,0,0,0,639.194031
1463,587,1,0,0,0,755.737244
-303,1119,2,0,0,0,802.691040
-1381,-1672,3,0,0,0,664.390259
1856,-1388,4,1,0,7,58.121086
1639,2,1,0,0,0,744.557068
-1721,147,2,0,0,0,688.315796
-207,-1476,3,0,0,0,771.828430
1387,-180,4,0,0,0,748.789612
1050,1063,1,0,0,0,771.116394
-142,500,2,1,0,14,28.306221
-763,-1665,3,0,0,0,712.720947
282,-1973,4,1,0,7,58.121086
1112,435,1,0,0,0,835.557434
-920,696,2,0,0,0,804.104370
-1827,-180,3,0,0,0,712.042114
571,-747,4,1,0,7,58.121086
843,1341,1,0,0,0,754.358582
-1240,630,2,0,0,0,750.387512
-1357,-1772,3,0,0,0,656.169861
513,-373,4,0,0,0,976.319458
994,1151,1,0,0,0,766.038879
-311,177,2,1,0,0,206.240250
-1497,-355,3,0,0,0,762.713928
1880,-350,4,0,0,0,659.227478
1247,1041,1,0,0,0,747.123474
-1922,813,2,0,0,0,634.305725
-478,-1157,3,1,0,8,58.286087
706,-1606,4,0,0,0,683.868958
1438,328,1,0,0,0,774.833008
-545,810,2,0,0,0,852.106079
-124,-1902,3,0,0,0,701.296509
1233,-1233,4,0,0,0,685.603027
485,1611,1,0,0,0,737.056763
-1851,357,2,1,0,8,58.286087
-114,-538,3,0,0,0,1058.911987
991,-1078,4,0,0,0,735.628479
420,1125,1,1,0,14,28.306221
-48,948,2,1,0,14,28.306221
-268,-534,3,0,0,0,1035.009399
1691,-1252,4,0,0,0,631.971741
1707,530,1,0,0,0,719.706665
-1776,248,2,1,0,8,58.286087
-1692,-58,3,0,0,0,735.260437
203,-877,4,0,0,0,875.461792
89,1320,1,0,0,0,806.069763
-1836,1032,2,0,0,0,631.684448
-478,-211,3,0,0,0,1073.675049
1027,-1792,4,0,0,0,637.250366
316,356,1,0,0,0,1100.543579
-879,1264,2,0,0,0,721.253296
-1156,-1525,3,1,0,8,58.286087
286,-1739,4,0,0,0,682.562073
950,329,1,0,0,0,885.061951
-349,1623,2,0,0,0,699.666992
-479,-775,3,1,0,8,58.286087
1877,-1803,4,0,0,0,571.559143
1108,326,1,0,0,0,845.133850
-1253,718,2,0,0,0,739.604248
-1342,-1426,3,1,0,8,58.286087
1695,-99,4,1,0,14,28.306221
494,1585,1,0,0,0,740.870728
-39,642,2,1,0,14,28.306221
-1420,-1841,3,0,0,0,644.508179
344,-1007,4,1,0,7,58.121086
997,1280,1,0,0,0,747.465454
-268,1064,2,0,0,0,818.509521
-596,-401,3,0,0,0,981.901306
1663,-645,4,0,0,0,679.120422
36,1861,1,1,0,14,28.306221
-1183,708,2,0,0,0,752.912659
-882,-1800,3,1,0,8,58.286087
947,-16,4,0,0,0,860.828247
1423,1216,1,0,0,0,706.488831
-150,1796,2,0,0,0,676.162109
-1717,-625,3,0,0,0,713.392090
1233,-1712,4,0,0,0,631.193420
1674,383,1,0,0,0,731.180420
-514,80,2,1,0,14,28.306221
-1584,-1395,3,0,0,0,672.119019
1406,-1613,4,1,0,7,58.121086
1181,1533,1,0,0,0,696.955505
-1706,147,2,0,0,0,690.802307
-929,-954,3,0,0,0,804.206909
997,-317,4,0,0,0,832.211243
221,1342,1,0,0,0,798.125122
-994,1356,2,0,0,0,696.034302
-1219,-1257,3,0,0,0,725.601135
1348,-211,4,0,0,0,755.897339
1485,1486,1,1,0,14,28.306221
-568,867,2,0,0,0,834.888428
-1766,-736,3,0,0,0,700.217957
1861,-328,4,0,0,0,662.625488
1102,1465,1,0,0,0,712.455017
-669,271,2,1,0,14,28.306221
-1617,-28,3,0,0,0,748.391357
656,-158,4,0,0,0,958.485718
1476,1762,1,0,0,0,647.776611
-639,1370,2,0,0,0,726.494507
-728,-1787,3,0,0,0,697.779419
211,-911,4,0,0,0,864.503967
742,94,1,1,0,14,28.306221
-1779,412,2,0,0,0,672.406982
-108,-1353,3,1,0,7,58.121086
27,-1598,4,0,0,0,710.543701
835,1490,1,0,0,0,732.727051
-962,1128,2,0,0,0,732.084045
-276,-1329,3,0,0,0,798.700134
1185,-1336,4,0,0,0,678.782349
1784,728,1,0,0,0,698.191772
-575,990,2,0,0,0,806.290955
-1560,-1728,3,1,0,8,58.286087
1792,-850,4,0,0,0,648.811646
1323,246,1,1,0,6,207.559647
-467,1850,2,1,0,14,28.306221
-1131,-911,3,0,0,0,779.281006
792,-180,4,0,0,0,905.078857
621,905,1,0,0,0,859.799927
-98,1058,2,0,0,0,827.752136
-472,-1904,3,1,0,8,58.286087
941,-1139,4,1,0,7,58.121086
1367,1501,1,0,0,0,683.238342
-1798,307,2,1,0,8,58.286087
-1986,-1471,3,0,0,0,627.099792
1261,-1573,4,0,0,0,644.150452
1288,1575,1,0,0,0,682.619385
-566,36,2,0,0,0,1008.562134
-518,-102,3,0,0,0,1070.683716
790,-1243,4,0,0,0,733.967041
329,457,1,0,0,0,1052.092285
-1064,1237,2,0,0,0,704.616882
-1058,-153,3,0,0,0,867.390137
251,-1804,4,0,0,0,673.144531
177,313,1,0,0,0,1181.453369
-637,42,2,0,0,0,974.456238
-1220,-1100,3,0,0,0,743.913757
1743,-1192,4,0,0,0,630.947937
1405,185,1,1,0,6,188.694946
-948,1391,2,1,0,14,28.306221
-1507,-1326,3,0,0,0,686.479675
1446,-1675,4,0,0,0,617.619324
1115,530,1,1,0,6,354.158630
-1449,907,2,1,0,14,28.306221
-1443,-1492,3,0,0,0,676.906921
1361,-1597,4,0,0,0,632.754333
1147,289,1,0,0,0,838.270203
-331,1153,2,0,0,0,792.876221
-694,-581,3,1,0,8,58.286087
744,-299,4,0,0,0,908.777283
239,400,1,0,0,0,1106.700684
-590,893,2,1,0,14,28.306221
-1079,-601,3,0,0,0,825.839539
823,-1941,4,1,0,7,58.121086
437,1077,1,0,0,0,843.316528
-1583,345,2,0,0,0,706.640259
-964,-1573,3,0,0,0,710.634094
690,-1596,4,0,0,0,686.417114
1340,947,1,0,0,0,744.232544
-682,100,2,0,0,0,952.345398
-1031,-1351,3,0,0,0,734.167542
1178,-559,4,1,0,7,58.121086
76,1545,1,0,0,0,761.159912
-1752,1906,2,0,0,0,573.062988
-140,-1386,3,0,0,0,791.240479
536,-1297,4,1,0,7,58.121086
1515,52,1,0,0,0,766.967163
-840,889,2,0,0,0,787.300110
-1437,-398,3,0,0,0,771.702820
1801,-369,4,1,0,7,58.121086
1278,1577,1,0,0,0,683.289612
-482,1742,2,0,0,0,675.338501
-1643,-328,3,0,0,0,738.253113
1310,-1235,4,1,0,7,58.121086
1292,618,1,0,0,0,783.278687
-837,1353,2,1,0,14,28.306221
-603,-607,3,0,0,0,931.513977
1713,-1345,4,0,0,0,622.141174
1584,815,1,0,0,0,720.672791
-173,1931,2,1,0,14,28.306221
-1811,-1679,3,0,0,0,627.316406
452,-1321,4,1,0,7,58.121086
1163,407,1,0,0,0,826.522156
-918,86,2,1,0,8,58.286087
-1404,-700,3,0,0,0,757.114014
1575,-1207,4,1,0,7,58.121086
280,1935,1,1,0,14,28.306221
-851,1326,2,0,0,0,714.630676
-769,-230,3,0,0,0,949.918213
1199,-1851,4,1,0,7,58.121086
402,1384,1,0,0,0,781.478394
-1221,1683,2,0,0,0,635.347595
-1387,-1539,3,1,0,8,58.286087
845,-882,4,1,0,7,58.121086
692,964,1,0,0,0,837.344849
-1856,1748,2,1,0,14,28.306221
-1011,-811,3,0,0,0,811.977539
1377,-1004,4,0,0,0,692.170105
1670,603,1,0,0,0,721.614014
-1408,1216,2,0,0,0,667.085754
-1312,-652,3,0,0,0,776.758850
1765,-491,4,0,0,0,671.479126
1573,1435,1,0,0,0,669.624146
-1240,981,2,0,0,0,713.625122
-812,-763,3,0,0,0,855.464722
667,-1191,4,0,0,0,755.763245
1498,546,1,0,0,0,752.472778
-381,763,2,0,0,0,891.018860
-1493,-1660,3,1,0,8,58.286087
1535,-25,4,0,0,0,722.071411
1197,1094,1,1,0,14,28.306221
-58,15,2,0,0,0,1657.008545
-545,-1458,3,0,0,0,759.372253
1028,-931,4,0,0,0,751.202637
1171,1828,1,0,0,0,664.084167
-771,1107,2,0,0,0,759.151611
-1185,-310,3,1,0,8,58.286087
620,-634,4,0,0,0,879.785767
170,1341,1,0,0,0,799.893494
-1413,448,2,1,0,14,28.306221
-671,-1189,3,0,0,0,797.029541
660,-1124,4,1,0,7,58.121086
1233,436,1,0,0,0,809.387390
-917,418,2,1,0,14,28.306221
-1331,-850,3,0,0,0,755.211365
1844,-581,4,0,0,0,656.100159
509,243,1,1,0,14,28.306221
-1885,516,2,0,0,0,653.018738
-1272,-702,3,1,0,8,58.286087
579,-568,4,0,0,0,905.471985
963,750,1,0,0,0,829.232849
-730,1970,2,0,0,0,632.396667
-342,-314,3,0,0,0,1107.741089
1195,-1746,4,0,0,0,630.385864
1449,623,1,0,0,0,755.576172
-516,815,2,0,0,0,855.565857
-1762,-40,3,0,0,0,723.732727
329,-1379,4,0,0,0,744.903564
1626,1307,1,0,0,0,675.460754
-1014,1813,2,1,0,14,28.306221
-441,-481,3,0,0,0,1009.583313
1125,-704,4,0,0,0,763.853210
303,893,1,0,0,0,903.498352
-46,1933,2,0,0,0,656.073120
-478,-1151,3,0,0,0,823.238708
1007,-1303,4,0,0,0,701.974548
203,1243,1,0,0,0,820.218201
-1399,121,2,0,0,0,747.644897
-55,-1047,3,0,0,0,872.980835
1884,-711,4,1,0,7,58.121086
270,1219,1,0,0,0,822.723389
-652,1471,2,0,0,0,708.616028
-1871,-1072,3,0,0,0,666.006714
441,-335,4,0,0,0,1015.420715
1012,195,1,0,0,0,877.917847
-1785,791,2,0,0,0,653.302002
-1429,-688,3,1,0,8,58.286087
841,-1657,4,0,0,0,667.424072
103,504,1,0,0,0,1078.170288
-1530,1592,2,1,0,14,28.306221
-1853,-901,3,0,0,0,679.009644
443,-1574,4,0,0,0,704.002136
1105,1245,1,1,0,14,28.306221
-309,1524,2,1,0,14,28.306221
-1796,-1534,3,0,0,0,640.013977
1818,-821,4,0,0,0,647.174683
1830,402,1,1,0,14,28.306221
-1406,643,2,1,0,14,28.306221
-140,-921,3,0,0,0,907.008728
385,-1639,4,0,0,0,695.641113
1053,1489,1,0,0,0,713.941650
-367,678,2,0,0,0,920.088196
-1562,-1010,3,0,0,0,708.283752
1032,-703,4,0,0,0,781.345886
1339,1387,1,0,0,0,698.035645
-1051,813,2,0,0,0,763.500671
-1098,-470,3,1,0,8,58.286087
873,-642,4,1,0,7,58.121086
1082,1315,1,0,0,0,733.583435
-1107,1528,2,0,0,0,663.052979
-1461,-230,3,1,0,8,58.286087
1666,-1011,4,0,0,0,653.835510
830,170,1,0,0,0,934.347351
-1334,795,2,0,0,0,718.781860
-1611,-1220,3,0,0,0,684.561829
783,-1923,4,1,0,7,58.121086
1807,321,1,1,0,14,28.306221
-775,252,2,0,0,0,904.107483
-1936,-1567,3,0,0,0,624.889587
695,-489,4,0,0,0,892.048767
811,112,1,0,0,0,944.217712
-1703,587,2,0,0,0,676.309265
-539,-1795,3,0,0,0,706.123108
1678,-1529,4,0,0,0,610.344238
-1146,363,2,0,0,0,792.266968
-671,-70,3,0,0,0,999.992737
660,-645,4,1,0,7,58.121086
-586,450,2,1,0,14,28.306221
-582,-49,3,1,0,8,58.286087
1400,-1157,4,0,0,0,673.955505
-1452,10,2,1,0,8,58.286087
-753,-1340,3,0,0,0,762.982483
599,-803,4,0,0,0,844.680664
-6,1012,2,0,0,0,841.762390
1900,-770,4,0,0,0,639.374329
-426,1669,2,0,0,0,689.104858
155,-1599,4,0,0,0,709.065857
-462,821,2,0,0,0,862.373352
1628,-388,4,0,0,0,697.348694
-905,128,2,0,0,0,871.075928
904,-579,4,0,0,0,824.790955
-206,1237,2,0,0,0,780.119141
475,-1886,4,0,0,0,654.402649
-1263,848,2,0,0,0,724.683655
380,-1795,4,1,0,7,58.121086
-816,869,2,1,0,14,28.306221
1094,-624,4,0,0,0,778.881897
-491,1647,2,0,0,0,689.750244
1566,-1208,4,0,0,0,649.617126
-501,464,2,0,0,0,955.046997
911,-98,4,0,0,0,870.368469
-840,970,2,0,0,0,773.525085
748,-1104,4,0,0,0,762.468323
-797,1737,2,1,0,14,28.306221
689,-1807,4,0,0,0,656.020935
-1132,1227,2,1,0,14,28.306221
178,-1346,4,1,0,7,58.121086
-1074,1688,2,0,0,0,646.329224
641,-301,4,1,0,7,58.121086
-94,1689,2,0,0,0,694.284119
908,-342,4,0,0,0,853.882935
-60,786,2,0,0,0,913.684692
919,-1037,4,0,0,0,751.472351
-735,507,2,0,0,0,877.800781
1418,-1108,4,0,0,0,676.591003
-129,1881,2,1,0,14,28.306221
104,-951,4,0,0,0,857.945984
-665,141,2,0,0,0,956.347961
620,-44,4,1,0,14,28.306221
-981,527,2,0,0,0,814.253906
148,-1450,4,0,0,0,736.955994
-1270,544,2,0,0,0,752.303650
609,-1434,4,0,0,0,717.854614
-350,1926,2,0,0,0,652.552429
809,-135,4,0,0,0,902.259338
-1992,1068,2,0,0,0,611.586609
214,-680,4,0,0,0,942.650635
-1217,386,2,0,0,0,774.963989
463,-703,4,0,0,0,894.779358
-1225,476,2,0,0,0,766.654968
62,-87,4,0,0,0,1490.109009
-1720,1399,2,1,0,14,28.306221
527,-72,4,0,0,0,1027.060669
-101,1797,2,0,0,0,676.545776
908,-1463,4,0,0,0,689.211426
-1806,1498,2,0,0,0,600.952515
575,-1914,4,0,0,0,646.643433
-185,1483,2,0,0,0,729.775146
940,-1726,4,0,0,0,651.413818
-98,855,2,0,0,0,888.410339
1114,-1671,4,0,0,0,645.249817
-919,409,2,0,0,0,843.505554
930,-1818,4,0,0,0,640.493774
-702,1421,2,1,0,14,28.306221
129,-1049,4,0,0,0,829.279053
-698,1612,2,0,0,0,683.494080
1526,-468,4,1,0,7,58.121086
-621,518,2,0,0,0,906.328003
1291,-848,4,0,0,0,720.322876
-1430,1877,2,0,0,0,599.352295
1313,-52,4,0,0,0,766.698853
-465,1249,2,0,0,0,762.637268
1535,-1983,4,0,0,0,582.089539
-1212,393,2,0,0,0,775.554749
1123,-392,4,0,0,0,795.311035
-278,1053,2,1,0,14,28.306221
1740,-583,4,1,0,7,58.121086
873,-771,4,0,0,0,801.349915
1121,-1387,4,0,0,0,679.173645
1465,-1179,4,0,0,0,664.017883
1275,-1131,4,0,0,0,692.138916
1721,-649,4,0,0,0,670.345520
612,-1461,4,0,0,0,713.104736
535,-1175,4,0,0,0,771.761353
231,-1398,4,0,0,0,745.054749
562,-175,4,1,0,14,28.306221


each generation good chromosome number
0,0,0,0,0,0,0,0,0,0,0,0,0,0,0,0,0,0,0,0,0,0,0,0,0,0,0,0,0,0,0,0,0,0,0,0,0,0,0,0,0,0,0,0,0,0,0,0,0,0,0,0,0,0,0,0,0,0,0,0,0,0,0,0,0,0,0,0,0,0,0,0,0,0,0,0,0,0,0,0,0,0,0,0,0,0,0,0,2,4,6,8,10,12,13,15,16,15,14,15,