each times' max average throughput
0.000000,562.255310,0.000000,0.000000,559.896423,569.861633,0.000000,568.577881,0.000000,0.000000,0.000000,0.000000,0.000000,557.307861,516.111877,599.836243,0.000000,484.787689,0.000000,0.000000,561.509338,556.532410,0.000000,495.595093,0.000000,0.000000,569.786682,0.000000,0.000000,0.000000,568.722412,0.000000,571.490417,411.547028,558.539978,572.508362,570.747253,0.000000,575.248352,572.886414,546.304077,490.959808,428.361084,580.197388,568.338928,566.594055,0.000000,567.684448,555.047791,0.000000,0.000000,567.852295,0.000000,0.000000,566.251038,547.701111,564.358032,519.882385,571.150696,472.578003,559.784302,0.000000,576.478821,453.949402,557.823730,557.611572,555.709595,456.009003,0.000000,569.493347,0.000000,567.587585,464.926117,0.000000,0.000000,0.000000,567.967651,481.002258,568.252380,578.713074,558.421631,0.000000,573.844482,564.168762,564.687683,574.431702,495.723358,0.000000,482.987732,0.000000,0.000000,0.000000,574.991150,556.910950,572.193665,583.834167,557.530518,0.000000,0.000000,566.884521,
avg. throughput in all test times
338.589233
avg. BS TX power in all test times
MBS area 1,MBS area 2,MBS area 3,MBS area 4,MBS area 5,CBSD 1,CBSD 2,CBSD 3,CBSD 4,CBSD 5,CBSD 6,CBSD 7,CBSD 8,CBSD 9,
6.900,7.200,6.975,6.675,6.600,0.131,0.108,0.183,0.225,0.141,0.078,0.136,0.136,0.085,
avg. mbs all power,avg. cbsd enable number,avg. mbs area all power,avg. cbsd all power
46.125,1.000,34.350,1.222
avg. max avg. throughput generation number in all test times
0.630000
avg. number of relay UE
246

the max average throughput times

BS TX power
MBS area 1,MBS area 2,MBS area 3,MBS area 4,MBS area 5,CBSD 1,CBSD 2,CBSD 3,CBSD 4,CBSD 5,CBSD 6,CBSD 7,CBSD 8,CBSD 9,
7.500,10.000,6.250,5.000,6.250,0.000,0.000,0.750,0.750,0.000,0.000,0.000,0.000,0.000,
max average throughput
566.884521

x,y,area,be blocked (1 : NLOS / 0 : LOS),be blocked number (>=1 : CBSD(x) / 0 : no),connect bs number (>=1 : CBSD / 0 : MBS),throughput (unit : M bps)
174,657,1,0,0,0,956.404175
1994,522,2,1,0,3,119.833855
-535,1043,3,0,0,0,773.316956
-1883,-1058,4,1,0,4,59.936272
229,-1843,5,0,0,0,641.561523
488,1434,1,0,0,0,725.913391
1168,862,2,0,0,0,779.404663
-1029,807,3,0,0,0,741.921387
-1905,-621,4,1,0,4,59.936272
278,-1087,5,0,0,0,785.894958
1386,1829,1,0,0,0,607.268738
1472,992,2,0,0,0,721.689514
-277,1776,3,0,0,0,650.882385
-1128,-1204,4,0,0,0,643.500854
529,-1153,5,0,0,0,750.640076
427,909,1,0,0,0,843.966003
1580,1441,2,1,0,3,119.833855
-1007,1853,3,0,0,0,605.367126
-161,-1384,4,0,0,0,691.780518
441,-1970,5,0,0,0,617.796326
1439,1545,1,1,0,3,119.833855
1216,731,2,0,0,0,785.976990
-962,284,3,0,0,0,818.103882
-1523,-54,4,0,0,0,666.158264
804,-1814,5,0,0,0,622.712097
1191,1937,1,0,0,0,609.878235
1770,649,2,0,0,0,704.439087
-578,583,3,1,0,4,59.936272
-1054,-1547,4,1,0,4,59.936272
532,-457,5,0,0,0,921.091125
215,629,1,0,0,0,962.800903
1262,1003,2,0,0,0,749.317078
-27,212,3,0,0,0,1263.757446
-451,-136,4,0,0,0,1003.631714
1274,-616,5,0,0,0,719.290100
149,331,1,0,0,0,1137.240356
444,84,2,0,0,0,1115.553955
-1416,292,3,0,0,0,713.143494
-1666,-1865,4,0,0,0,525.642212
1651,-15,5,0,0,0,675.148682
945,1239,1,0,0,0,717.800781
1643,430,2,0,0,0,734.356934
-1880,1695,3,0,0,0,553.651184
-639,-1689,4,0,0,0,617.764038
1231,-1679,5,0,0,0,609.033142
578,900,1,0,0,0,825.839294
1910,613,2,0,0,0,686.673645
-1666,93,3,1,0,4,59.936272
-2000,-977,4,0,0,0,558.453918
551,-553,5,1,0,3,119.833855
335,1465,1,0,0,0,728.183594
1718,1546,2,0,0,0,646.207947
-1495,1053,3,0,0,0,645.981201
-1661,-1382,4,0,0,0,566.848816
942,-1211,5,1,0,3,119.833855
560,840,1,0,0,0,842.463440
1123,1107,2,0,0,0,755.642700
-836,1891,3,0,0,0,611.002380
-571,-1132,4,0,0,0,718.804504
1599,-552,5,0,0,0,668.217590
191,1495,1,0,0,0,727.357178
974,729,2,0,0,0,830.177185
-142,1619,3,0,0,0,679.660645
-279,-66,4,0,0,0,1146.818237
1819,-375,5,0,0,0,641.549500
1046,1119,1,1,0,3,119.833855
1292,1173,2,0,0,0,726.577576
-1971,1109,3,0,0,0,585.531372
-1539,-243,4,0,0,0,659.835754
1763,-470,5,1,0,3,119.833855
341,825,1,1,0,4,59.936272
1820,42,2,0,0,0,714.449280
-1215,107,3,0,0,0,761.913086
-716,-1587,4,0,0,0,628.166748
634,-362,5,0,0,0,909.526611
340,1706,1,0,0,0,686.288452
1104,1081,2,1,0,3,119.833855
-25,1880,3,1,0,4,59.936272
-1972,-1707,4,0,0,0,513.836731
1694,-1634,5,0,0,0,574.225830
738,1950,1,0,0,0,634.565063
552,550,2,0,0,0,958.453064
-909,1048,3,0,0,0,724.979492
-1661,-642,4,1,0,4,59.936272
387,-1645,5,0,0,0,668.502991
1530,1716,1,0,0,0,606.748413
1999,280,2,0,0,0,684.888733
-1907,396,3,1,0,4,59.936272
-1032,-516,4,1,0,4,59.936272
1754,-1489,5,0,0,0,580.658142
292,528,1,1,0,4,59.936272
1431,590,2,0,0,0,760.976562
-1092,1356,3,0,0,0,659.989502
-497,-870,4,0,0,0,786.348450
1908,-1604,5,1,0,3,119.833855
784,1815,1,0,0,0,649.717407
1197,747,2,0,0,0,787.569885
-1089,764,3,1,0,4,59.936272
-1770,-1090,4,0,0,0,577.807312
1569,-561,5,0,0,0,672.527466
1357,1565,1,1,0,3,119.833855
1384,180,2,0,0,0,790.704163
-1417,1488,3,1,0,4,59.936272
-1298,-982,4,0,0,0,647.371155
1792,-1028,5,0,0,0,611.226196
332,908,1,1,0,4,59.936272
915,808,2,0,0,0,829.211609
-1369,1746,3,0,0,0,590.959290
-293,-1758,4,1,0,4,59.936272
1154,-1973,5,0,0,0,582.522705
122,1643,1,0,0,0,701.844238
1619,855,2,0,0,0,712.815063
-997,359,3,1,0,4,59.936272
-1663,-701,4,0,0,0,617.941772
596,-585,5,1,0,3,119.833855
161,721,1,0,0,0,932.377869
1557,1517,2,0,0,0,663.699280
-578,1427,3,1,0,4,59.936272
-298,-530,4,0,0,0,930.075195
1145,-1966,5,1,0,3,119.833855
354,912,1,0,0,0,851.513611
521,71,2,0,0,0,1071.850342
-433,1859,3,0,0,0,633.751038
-1147,-1299,4,0,0,0,629.498596
1539,-1464,5,0,0,0,603.332153
116,332,1,0,0,0,1146.369629
167,68,2,0,0,0,1380.584351
-1378,118,3,1,0,4,59.936272
-102,-537,4,0,0,0,960.763245
1074,-606,5,0,0,0,758.760559
445,827,1,0,0,0,863.273315
918,114,2,0,0,0,909.034302
-1278,1156,3,1,0,4,59.936272
-585,-1735,4,0,0,0,613.831726
867,-1474,5,0,0,0,665.113647
273,1974,1,0,0,0,647.460327
567,541,2,0,0,0,956.809631
-884,819,3,0,0,0,765.375854
-118,-1101,4,0,0,0,757.637634
1331,-1820,5,0,0,0,586.386719
642,1541,1,0,0,0,698.070312
1485,1412,2,0,0,0,680.582214
-609,1865,3,1,0,4,59.936272
-65,-1910,4,1,0,4,59.936272
127,-1783,5,1,0,4,59.936272
783,1235,1,0,0,0,736.019958
1587,647,2,0,0,0,731.754639
-1757,1413,3,1,0,4,59.936272
-1120,-1381,4,0,0,0,622.172974
1050,-1796,5,1,0,3,119.833855
164,1313,1,0,0,0,764.701538
691,672,2,0,0,0,897.192810
-629,385,3,0,0,0,906.620422
-600,-1815,4,0,0,0,601.580811
1224,-1242,5,0,0,0,659.540771
784,1024,1,0,0,0,772.073120
1954,1123,2,0,0,0,653.394226
-1712,1852,3,0,0,0,554.680908
-1064,-389,4,1,0,4,59.936272
46,-934,5,0,0,0,838.267639
118,786,1,0,0,0,911.311646
1348,241,2,1,0,3,119.833855
-85,1216,3,0,0,0,762.086304
-1801,-8,4,0,0,0,618.524170
11,-1432,5,0,0,0,715.881714
324,521,1,0,0,0,985.901550
1513,749,2,1,0,3,119.833855
-1317,318,3,1,0,4,59.936272
-541,-341,4,0,0,0,915.539673
1077,-1177,5,0,0,0,684.958557
144,1756,1,0,0,0,682.637939
1812,812,2,0,0,0,689.588928
-678,616,3,0,0,0,844.200317
-557,-1056,4,0,0,0,736.036011
1680,-748,5,0,0,0,644.366638
401,1480,1,0,0,0,722.415283
1665,849,2,1,0,3,119.833855
-508,28,3,1,0,4,59.936272
-1193,-1247,4,0,0,0,630.677673
111,-144,5,0,0,0,1310.389771
154,1728,1,0,0,0,687.062866
1582,424,2,0,0,0,744.761475
-915,37,3,1,0,4,59.936272
-197,-1685,4,1,0,4,59.936272
1515,-1673,5,0,0,0,586.102722
87,1427,1,0,0,0,742.496155
1040,802,2,0,0,0,808.180664
-376,1349,3,1,0,4,59.936272
-664,-609,4,0,0,0,816.877197
552,-1611,5,0,0,0,666.307312
579,1219,1,0,0,0,759.048218
1477,1009,2,0,0,0,719.488953
-705,477,3,1,0,4,59.936272
-125,-1211,4,0,0,0,730.437195
39,-47,5,0,0,0,1625.145874
356,1164,1,0,0,0,788.679016
1732,1216,2,1,0,3,119.833855
-1170,1643,3,0,0,0,618.041992
-1236,-1158,4,0,0,0,636.019531
1448,-941,5,1,0,3,119.833855
877,1962,1,0,0,0,625.937561
801,735,2,0,0,0,862.554382
-481,1527,3,0,0,0,683.960144
-1345,-828,4,0,0,0,655.946716
1019,-1889,5,0,0,0,600.376404
1056,1845,1,0,0,0,629.036194
1551,1234,2,0,0,0,690.109863
-1386,1369,3,1,0,4,59.936272
-1534,-424,4,0,0,0,653.770813
1469,-350,5,0,0,0,700.676880
695,769,1,0,0,0,834.878784
1546,1111,2,0,0,0,701.633545
-668,14,3,0,0,0,935.057190
-686,-532,4,0,0,0,827.565735
1240,-1999,5,0,0,0,574.379028
24,303,1,1,0,4,59.936272
1791,721,2,0,0,0,697.619263
-697,1176,3,0,0,0,729.196716
-1709,-266,4,1,0,4,59.936272
109,-1721,5,1,0,4,59.936272
242,1619,1,0,0,0,703.681213
1778,1414,2,0,0,0,651.124573
-1508,1064,3,0,0,0,643.347534
-171,-1989,4,0,0,0,589.268188
1360,-1098,5,0,0,0,658.863281
641,895,1,1,0,4,59.936272
877,756,2,0,0,0,844.410278
-1858,21,3,1,0,4,59.936272
-1644,-1429,4,0,0,0,564.567322
1954,-504,5,0,0,0,617.909790
1199,1337,1,0,0,0,677.175598
1460,130,2,0,0,0,776.621643
-1720,1704,3,0,0,0,566.220764
-1290,-259,4,0,0,0,708.183594
959,-1682,5,0,0,0,629.687012
609,1332,1,0,0,0,735.565491
1948,1030,2,0,0,0,659.821960
-1356,1705,3,1,0,4,59.936272
-1855,-369,4,0,0,0,604.608032
1199,-1755,5,1,0,3,119.833855
210,991,1,0,0,0,841.481384
561,103,2,0,0,0,1048.393555
-515,1157,3,1,0,4,59.936272
-1125,-618,4,0,0,0,715.275696
1066,-1998,5,0,0,0,585.153809
81,1393,1,0,0,0,749.463013
1878,1272,2,1,0,3,119.833855
-427,255,3,0,0,0,1020.141052
-1373,-1700,4,0,0,0,563.665771
746,-667,5,0,0,0,818.776245
404,1340,1,1,0,4,59.936272
1983,1672,2,1,0,3,119.833855
-97,446,3,0,0,0,1044.895752
-1595,-1327,4,1,0,4,59.936272
718,-1672,5,0,0,0,647.384155
89,758,1,0,0,0,922.997864
1946,638,2,0,0,0,680.752747
-149,882,3,0,0,0,851.049561
-1224,-1881,4,1,0,4,59.936272
1147,-1409,5,0,0,0,647.824951
1873,1993,1,0,0,0,557.537231
1957,139,2,1,0,3,119.833855
-523,106,3,1,0,4,59.936272
-945,-1219,4,0,0,0,662.722534
410,-748,5,0,0,0,864.720886
502,1528,1,0,0,0,708.735291
1126,148,2,0,0,0,849.976929
-476,589,3,1,0,4,59.936272
-1936,-1223,4,0,0,0,550.442139
1058,-588,5,1,0,3,119.833855
154,242,1,0,0,0,1205.152222
1488,946,2,0,0,0,723.602844
-615,631,3,0,0,0,855.383118
-1954,-1792,4,0,0,0,509.242432
1955,-612,5,0,0,0,613.627869
1008,1690,1,1,0,4,59.936272
1961,454,2,0,0,0,685.689941
-613,383,3,1,0,4,59.936272
-1800,-651,4,1,0,4,59.936272
853,-1626,5,0,0,0,644.806824
990,1470,1,1,0,4,59.936272
1020,399,2,1,0,3,119.833855
-1047,488,3,0,0,0,777.529358
-88,-1268,4,0,0,0,718.083923
1187,-334,5,0,0,0,758.778198
838,1431,1,1,0,4,59.936272
1808,1537,2,0,0,0,638.679688
-124,1767,3,0,0,0,655.061340
-146,-1257,4,0,0,0,719.349243
1100,-1600,5,0,0,0,628.883850
1186,1413,1,0,0,0,669.498169
1443,77,2,0,0,0,780.711609
-1494,1500,3,0,0,0,604.273071
-607,-1469,4,0,0,0,654.138916
1632,-1999,5,0,0,0,548.207825
743,1915,1,1,0,4,59.936272
1126,641,2,1,0,3,119.833855
-367,92,3,0,0,0,1098.991333
-1338,-1762,4,1,0,4,59.936272
1815,-254,5,0,0,0,645.346741
458,698,1,0,0,0,897.157898
1072,391,2,0,0,0,848.613098
-1283,1384,3,0,0,0,636.987976
-1055,-1148,4,0,0,0,659.638367
882,-90,5,0,0,0,853.607910
1142,1715,1,0,0,0,637.940491
991,248,2,1,0,3,119.833855
-26,1704,3,0,0,0,666.097290
-149,-1928,4,0,0,0,598.309387
669,-1415,5,0,0,0,690.427063
104,1325,1,0,0,0,763.430054
1338,674,2,0,0,0,770.343567
-691,1525,3,0,0,0,671.163574
-236,-281,4,1,0,4,59.936272
1301,-1212,5,0,0,0,653.979187
779,1404,1,1,0,4,59.936272
845,607,2,0,0,0,875.192261
-198,1870,3,0,0,0,638.009827
-422,-1726,4,0,0,0,622.371277
1488,-302,5,1,0,3,119.833855
959,1651,1,0,0,0,659.673950
913,416,2,0,0,0,885.649414
-1079,389,3,0,0,0,779.566101
-1920,-1551,4,1,0,4,59.936272
638,-1798,5,0,0,0,633.888733
366,839,1,0,0,0,870.651672
1733,1510,2,0,0,0,647.772095
-1413,882,3,1,0,4,59.936272
-1019,-1214,4,0,0,0,654.946228
28,-1037,5,1,0,4,59.936272
229,1329,1,0,0,0,759.246948
1352,1230,2,0,0,0,713.302490
-518,396,3,1,0,4,59.936272
-282,-1073,4,0,0,0,757.085510
904,-657,5,1,0,3,119.833855
521,794,1,0,0,0,860.058777
1497,102,2,1,0,3,119.833855
-422,1943,3,0,0,0,622.123230
-1704,-240,4,0,0,0,631.494995
1306,-552,5,0,0,0,718.732544
102,1289,1,0,0,0,771.325012
1606,1268,2,0,0,0,680.988342
-384,1476,3,1,0,4,59.936272
-551,-648,4,1,0,4,59.936272
1283,-1723,5,0,0,0,600.125916
1398,1999,1,1,0,4,59.936272
192,17,2,0,0,0,1361.339600
-1275,1528,3,0,0,0,621.868652
-317,-945,4,1,0,4,59.936272
1164,-1921,5,0,0,0,587.473816
901,1587,1,0,0,0,672.587708
1385,266,2,0,0,0,787.702393
-1950,834,3,0,0,0,603.766174
-392,-1102,4,1,0,4,59.936272
175,-881,5,1,0,4,59.936272
1605,1635,1,0,0,0,607.728149
1054,738,2,0,0,0,814.070557
-463,1741,3,0,0,0,650.241455
-592,-522,4,0,0,0,854.957703
1301,-1047,5,0,0,0,671.894348
1465,1717,1,0,0,0,611.987305
912,731,2,0,0,0,841.706299
-135,1169,3,0,0,0,772.201782
-262,-905,4,0,0,0,804.030151
1282,-94,5,0,0,0,746.847290
842,1351,1,1,0,4,59.936272
1295,211,2,0,0,0,808.452332
-541,1850,3,0,0,0,630.970215
-1830,-483,4,0,0,0,604.409363
506,-731,5,1,0,3,119.833855
1497,1645,1,1,0,3,119.833855
1763,65,2,1,0,3,119.833855
-581,1203,3,1,0,4,59.936272
-1966,-1738,4,0,0,0,512.133484
112,-1410,5,1,0,4,59.936272
956,1836,1,1,0,4,59.936272
1918,1531,2,0,0,0,629.103760
-1179,1092,3,1,0,4,59.936272
-1875,-1197,4,0,0,0,558.627625
190,-1325,5,0,0,0,735.234009
1794,1925,1,0,0,0,568.457520
1981,1240,2,0,0,0,643.031128
-375,1282,3,1,0,4,59.936272
-224,-1684,4,0,0,0,635.159363
384,-792,5,0,0,0,855.692200
1245,1901,1,0,0,0,610.060547
1560,159,2,0,0,0,757.250122
-231,488,3,0,0,0,996.468506
-279,-769,4,0,0,0,844.653137
1938,-1501,5,0,0,0,562.723083
721,1453,1,0,0,0,706.305725
575,301,2,0,0,0,1011.154236
-423,1458,3,0,0,0,699.163879
-1278,-123,4,0,0,0,715.200684
263,-426,5,0,0,0,1018.235779
382,1058,1,0,0,0,811.361877
1854,90,2,0,0,0,708.886230
-961,1336,3,0,0,0,676.074951
-1730,-1187,4,0,0,0,575.181213
669,-969,5,0,0,0,772.021912
1531,1594,1,1,0,3,119.833855
1822,890,2,1,0,3,119.833855
-883,970,3,0,0,0,741.043579
-1983,-1655,4,1,0,4,59.936272
182,-1365,5,0,0,0,727.098083
558,1754,1,1,0,4,59.936272
1921,269,2,0,0,0,696.278687
-1679,548,3,0,0,0,655.897339
-821,-1631,4,1,0,4,59.936272
1854,-1953,5,0,0,0,536.206055
40,1521,1,0,0,0,724.636353
1193,645,2,0,0,0,798.945557
-1167,1437,3,0,0,0,642.483582
-1840,-846,4,1,0,4,59.936272
1490,-958,5,1,0,3,119.833855
498,1331,1,0,0,0,744.214111
1340,283,2,1,0,3,119.833855
-571,485,3,0,0,0,902.085571
-280,-1727,4,0,0,0,626.778076
1033,-534,5,0,0,0,775.616577
27,1048,1,0,0,0,831.616516
1567,1564,2,0,0,0,658.476562
-1094,1578,3,1,0,4,59.936272
-496,-1962,4,0,0,0,585.403870
254,-779,5,0,0,0,876.300537
671,1940,1,0,0,0,639.003723
613,587,2,0,0,0,933.838745
-1132,719,3,0,0,0,734.702026
-92,-1732,4,1,0,4,59.936272
1387,-1202,5,0,0,0,644.930115
554,1021,1,1,0,4,59.936272
1622,558,2,0,0,0,731.507324
-1882,985,3,0,0,0,603.321655
-505,-1770,4,0,0,0,612.334778
213,-12,5,1,0,0,375.416840
742,785,1,1,0,4,59.936272
994,660,2,1,0,3,119.833855
-84,1119,3,1,0,4,59.936272
-955,-1778,4,0,0,0,586.172729
547,-1815,5,0,0,0,635.717651
1455,1788,1,0,0,0,605.986450
1786,698,2,0,0,0,699.572449
-233,1408,3,1,0,4,59.936272
-1533,-285,4,0,0,0,659.615784
1513,-1246,5,0,0,0,626.201477
936,1215,1,0,0,0,722.346863
1753,1575,2,1,0,3,119.833855
-226,923,3,0,0,0,833.649597
-347,-753,4,1,0,4,59.936272
1517,-665,5,0,0,0,674.234680
1025,1554,1,1,0,4,59.936272
1030,890,2,1,0,3,119.833855
-1212,1770,3,0,0,0,600.525635
-1733,-1417,4,0,0,0,556.847961
709,-1498,5,1,0,3,119.833855
512,1831,1,0,0,0,660.884460
1000,362,2,0,0,0,868.875000
-1209,320,3,0,0,0,754.725098
-492,-909,4,0,0,0,777.413269
760,-705,5,0,0,0,808.631592
715,738,1,1,0,4,59.936272
746,312,2,0,0,0,947.787415
-1361,554,3,0,0,0,708.497559
-341,-1109,4,0,0,0,744.237061
1334,-1937,5,0,0,0,574.432251
395,1684,1,0,0,0,687.912231
1839,1737,2,0,0,0,620.473022
-759,1898,3,0,0,0,614.242249
-527,-1370,4,0,0,0,676.875488
1754,-33,5,0,0,0,657.820251
219,1812,1,0,0,0,672.547546
1929,1151,2,0,0,0,654.335938
-711,356,3,0,0,0,884.938049
-1382,-1835,4,1,0,4,59.936272
1163,-1907,5,0,0,0,589.054443
59,152,1,0,0,0,1368.121948
1733,253,2,0,0,0,725.541016
-742,757,3,0,0,0,802.224731
-236,-1787,4,0,0,0,618.287720
1297,-1717,5,0,0,0,599.650452
239,1979,1,0,0,0,647.375671
1690,1652,2,0,0,0,639.849670
-1676,1503,3,0,0,0,586.833069
-27,-583,4,0,0,0,941.878784
97,-61,5,1,0,0,635.098267
1050,1134,1,0,0,0,720.162292
1372,100,2,1,0,3,119.833855
-1389,860,3,0,0,0,678.174866
-1289,-257,4,0,0,0,708.482727
1115,-1344,5,0,0,0,659.127197
227,258,1,0,0,0,1153.035889
1017,444,2,0,0,0,856.638611
-1739,1512,3,0,0,0,580.214111
-682,-1645,4,0,0,0,621.741882
1073,-611,5,0,0,0,758.389465
1067,1560,1,1,0,4,59.936272
1286,118,2,0,0,0,813.018494
-461,1265,3,0,0,0,733.561523
-494,-689,4,0,0,0,834.377502
521,-1155,5,0,0,0,750.977844
138,1938,1,0,0,0,654.694519
956,950,2,0,0,0,800.741211
-70,513,3,0,0,0,1008.548401
-801,-1528,4,0,0,0,630.767212
610,-1162,5,0,0,0,740.897461
315,586,1,0,0,0,962.554871
1691,1060,2,0,0,0,688.130859
-666,129,3,1,0,4,59.936272
-1806,-533,4,0,0,0,605.863159
1165,-809,5,0,0,0,718.635132
785,941,1,0,0,0,786.745422
743,721,2,1,0,3,119.833855
-1151,645,3,0,0,0,739.366638
-1711,-1340,4,0,0,0,565.214172
1485,-1260,5,0,0,0,628.024170
441,1169,1,0,0,0,781.179382
556,356,2,0,0,0,1006.227783
-658,607,3,0,0,0,850.818298
-1230,-1416,4,0,0,0,606.980591
1889,-37,5,0,0,0,636.662476
827,989,1,1,0,4,59.936272
1809,1389,2,0,0,0,649.992065
-1963,432,3,0,0,0,619.037109
-716,-401,4,0,0,0,843.741333
1391,-545,5,0,0,0,703.757935
528,1140,1,1,0,4,59.936272
1693,827,2,1,0,3,119.833855
-1656,1784,3,1,0,4,59.936272
-1339,-1628,4,0,0,0,573.854797
1019,-935,5,0,0,3,119.833855
539,1242,1,1,0,4,59.936272
885,695,2,0,0,0,852.625977
-1405,1691,3,0,0,0,593.553162
-1229,-468,4,0,0,0,708.325745
1558,-1479,5,0,0,0,600.126160
699,1270,1,1,0,4,59.936272
1446,1024,2,0,0,0,722.206848
-1861,605,3,1,0,4,59.936272
-831,-1782,4,1,0,4,59.936272
937,-1336,5,0,0,0,678.499573
214,898,1,0,0,0,868.211853
1931,1659,2,0,0,0,618.662170
-76,1862,3,0,0,0,640.583984
-304,-274,4,1,0,4,59.936272
1924,-881,5,0,0,0,604.403137
114,1234,1,0,0,0,783.525513
1027,621,2,0,0,0,834.091980
-329,539,3,0,0,0,951.320862
-1051,-1515,4,0,0,0,611.836182
556,-1811,5,0,0,0,635.899170
262,1457,1,0,0,0,732.498108
1149,261,2,1,0,3,119.833855
-890,67,3,1,0,4,59.936272
-1970,-1105,4,0,0,0,554.313843
1130,-86,5,0,0,0,783.020813
709,1350,1,0,0,0,724.009949
1116,302,2,0,0,0,844.840637
-1906,126,3,0,0,0,633.542297
-1787,-71,4,0,0,0,620.523560
313,-1148,5,0,0,0,769.014343
747,1477,1,0,0,0,700.520996
1079,362,2,1,0,3,119.833855
-548,356,3,0,0,0,941.450562
-847,-1494,4,0,0,0,632.062561
1101,-1851,5,0,0,0,599.402222
321,750,1,1,0,4,59.936272
1120,805,2,0,0,0,794.094849
-1130,301,3,0,0,0,774.005371
-615,-142,4,0,0,0,919.312195
467,-502,5,1,0,3,119.833855
753,1353,1,0,0,0,719.613525
1504,1423,2,0,0,0,677.617798
-1293,609,3,0,0,0,716.442688
-1360,-998,4,1,0,4,59.936272
663,-214,5,1,0,3,119.833855
557,643,1,0,0,0,891.739197
888,668,2,0,0,0,856.248596
-561,976,3,0,0,0,784.934814
-1853,-2,4,0,0,0,610.430176
551,-1061,5,1,0,3,119.833855
1392,1766,1,0,0,0,613.049011
1714,345,2,0,0,0,726.031189
-1167,1265,3,0,0,0,663.281799
-940,-211,4,0,0,0,797.626038
1236,-1793,5,0,0,0,596.249512
203,472,1,0,0,0,1037.038452
1335,628,2,0,0,0,774.755066
-943,588,3,0,0,0,788.643982
-577,-613,4,0,0,0,836.404663
1889,-1951,5,1,0,3,119.833855
890,1501,1,1,0,4,59.936272
-268,655,3,0,0,0,918.486633
-1441,-165,4,0,0,0,680.295105
1607,-1398,5,1,0,3,119.833855
41,1993,1,0,0,0,647.369629
-1268,173,3,1,0,4,59.936272
-448,-619,4,0,0,0,864.281006
517,-1185,5,0,0,0,745.194092
51,393,1,0,0,0,1111.922241
-1411,1133,3,0,0,0,648.965515
-905,-1962,4,0,0,0,566.860291
1307,-375,5,0,0,0,730.732361
547,1965,1,0,0,0,640.821899
-1866,1058,3,0,0,0,600.541870
-1474,-1942,4,0,0,0,532.783752
354,-27,5,0,0,0,1117.344727
1266,1798,1,0,0,0,619.402588
-1327,1467,3,0,0,0,623.582092
-1899,-735,4,0,0,0,583.650635
915,-564,5,1,0,3,119.833855
728,924,1,1,0,4,59.936272
-856,706,3,0,0,0,789.089111
-1041,-780,4,0,0,0,711.455322
769,-106,5,0,0,0,891.855286
865,1399,1,0,0,0,702.314575
-1428,1049,3,1,0,4,59.936272
-762,-592,4,1,0,4,59.936272
1489,-747,5,0,0,0,672.597046
400,1771,1,0,0,0,674.051392
-152,605,3,1,0,4,59.936272
-637,-1425,4,0,0,0,659.317810
643,-1581,5,0,0,0,665.669189
265,950,1,0,0,0,849.177734
-1385,511,3,0,0,0,707.170288
-158,-387,4,0,0,0,1038.076294
39,-851,5,0,0,0,865.093811
501,1057,1,0,0,0,800.117920
-1214,651,3,0,0,0,727.003662
-513,-1503,4,0,0,0,654.378052
1094,-759,5,0,0,0,736.747192
1496,1835,1,1,0,3,119.833855
-1284,1007,3,0,0,0,678.508118
-1321,-1637,4,1,0,4,59.936272
858,-1100,5,1,0,3,119.833855
752,1369,1,0,0,0,717.122681
-186,955,3,0,0,0,826.865967
-946,-622,4,0,0,0,751.265381
1831,-1225,5,0,0,0,592.976257
1296,1888,1,1,0,4,59.936272
-1481,1669,3,0,0,0,589.347473
-1996,-432,4,0,0,0,582.825256
365,-57,5,0,0,0,1105.881104
144,1065,1,0,0,0,824.478760
-142,1529,3,0,0,0,695.890991
-98,-1041,4,0,0,0,774.099426
796,-1899,5,0,0,0,612.169922
1297,1785,1,1,0,3,119.833855
-794,768,3,0,0,0,790.368225
-220,-635,4,1,0,4,59.936272
134,-1367,5,0,0,0,727.833374
439,935,1,0,0,0,835.878357
-940,1821,3,0,0,0,613.523926
-823,-104,4,0,0,0,840.637878
1726,-1568,5,1,0,3,119.833855
350,1979,1,0,0,0,645.048401
-203,151,3,1,0,4,59.936272
-945,-1829,4,0,0,0,580.545898
1292,-600,5,0,0,0,717.390259
426,1393,1,0,0,0,737.123291
-1693,763,3,0,0,0,641.589355
-347,-1993,4,0,0,0,585.507996
692,-782,5,0,0,0,806.538635
148,743,1,1,0,4,59.936272
-395,1624,3,0,0,0,671.659424
-890,-1695,4,0,0,0,601.157898
1775,-194,5,0,0,0,652.778320
715,1786,1,0,0,0,657.515564
-1067,1574,3,0,0,0,634.826904
-1923,-814,4,0,0,0,576.517517
200,-1123,5,0,0,0,781.150635
-1519,1841,3,0,0,0,570.268921
-1179,-1671,4,0,0,0,582.430359
947,-426,5,0,0,0,808.143005
-1457,1994,3,0,0,0,560.621155
-698,-1927,4,0,0,0,581.813171
1851,-1009,5,0,0,0,605.474976
-354,1749,3,1,0,4,59.936272
-1732,-882,4,1,0,4,59.936272
968,-114,5,0,0,0,826.350586
-1751,1288,3,0,0,0,596.777222
-388,-391,4,1,0,4,59.936272
157,-1706,5,1,0,4,59.936272
-1501,166,3,0,0,0,700.670898
-1033,-508,4,1,0,4,59.936272
1772,-1704,5,1,0,3,119.833855
-488,1870,3,0,0,0,630.210693
-958,-664,4,0,0,0,742.911682
1349,-1705,5,0,0,0,596.720825
-916,1305,3,0,0,0,685.137207
-1667,-1125,4,0,0,0,587.178833
125,-915,5,0,0,0,841.869019
-247,1153,3,0,0,0,771.619080
-232,-939,4,0,0,0,796.481262
1715,-575,5,1,0,3,119.833855
-160,583,3,0,0,0,963.874390
-833,-1277,4,1,0,4,59.936272
257,-1820,5,0,0,0,644.512451
-1892,1852,3,0,0,0,540.984985
-698,-636,4,1,0,4,59.936272
1642,-121,5,0,0,0,675.948914
-1104,1370,3,0,0,0,656.982605
-1048,-1744,4,0,0,0,583.876038
470,-252,5,0,0,0,1000.022827
-1425,1573,3,0,0,0,603.548279
-850,-171,4,0,0,0,827.924683
1964,-302,5,0,0,0,622.297241
-329,391,3,0,0,0,1012.332947
-1184,-1440,4,1,0,4,59.936272
1970,-1156,5,0,0,0,582.718445
-761,1094,3,0,0,0,736.501282
-281,-770,4,0,0,0,844.082764
1602,-1601,5,0,0,0,585.119446
-1385,802,3,0,0,0,684.052856
-377,-506,4,0,0,0,919.393188
1791,-528,5,0,0,0,640.024963
-1311,1840,3,1,0,4,59.936272
-1052,-680,4,0,0,0,722.265503
422,-246,5,0,0,0,1025.334839
-647,103,3,0,0,0,940.717712
-138,-1913,4,0,0,0,600.636169
874,-1687,5,1,0,3,119.833855
-1531,1951,3,0,0,0,559.433716
-1769,-11,4,1,0,4,59.936272
432,-1289,5,0,0,0,730.788757
-1908,1040,3,1,0,4,59.936272
-280,-629,4,0,0,0,894.275513
1651,-1226,5,0,0,0,612.537354
-1424,1919,3,1,0,4,59.936272
-1410,-1710,4,0,0,0,559.666016
1059,-561,5,0,0,0,766.967712
-1327,1671,3,0,0,0,602.035950
-1115,-1012,4,1,0,4,59.936272
858,-1555,5,0,0,0,654.311646
-661,1929,3,1,0,4,59.936272
-1389,-188,4,0,0,0,690.074463
1380,-1295,5,0,0,0,636.194580
-432,1321,3,0,0,0,724.453308
-1130,-235,4,1,0,4,59.936272
77,-192,5,0,0,0,1273.152710
-1307,356,3,0,0,0,731.813293
-349,-1151,4,0,0,0,733.917419
1272,-1031,5,0,0,0,677.532166
-1545,706,3,1,0,4,59.936272
-1575,-1426,4,0,0,0,571.617371
1626,-1012,5,0,0,0,632.790405
-1490,917,3,0,0,0,658.593201
-161,-393,4,1,0,4,59.936272
1478,-204,5,0,0,0,704.130920
-897,860,3,0,0,0,756.560120
-858,-1300,4,0,0,0,659.918518
0,-549,5,0,0,0,991.656982
-231,921,3,0,0,0,833.873169
-1591,-818,4,0,0,0,620.434814
10,-449,5,1,0,4,59.936272
-1517,268,3,0,0,0,694.976929
-1603,-1468,4,0,0,0,565.168945
1719,-1318,5,1,0,3,119.833855
-1263,1634,3,0,0,0,611.323608
-1940,-477,4,0,0,0,589.063110
729,-453,5,1,0,3,119.833855
-193,1809,3,0,0,0,647.443542
-444,-879,4,0,0,0,791.317688
1072,-1863,5,0,0,0,599.968018
-932,470,3,1,0,4,59.936272
-1200,-749,4,0,0,0,687.453125
827,-1089,5,0,0,0,729.115112
-254,979,3,0,0,0,815.714905
-1725,-1656,4,0,0,0,538.241028
1253,-513,5,0,0,0,731.954590
-1728,202,3,0,0,0,660.197449
-1677,-1865,4,0,0,0,524.818420
1310,-1068,5,0,0,0,668.456543
-519,1746,3,0,0,0,647.093018
-763,-700,4,1,0,4,59.936272
1842,-772,5,0,0,0,620.846558
-382,1921,3,0,0,0,626.406372
-601,-1548,4,0,0,0,641.652954
200,-571,5,0,0,0,963.656982
-1457,1880,3,0,0,0,571.250854
-1338,-1032,4,0,0,0,636.686523
1836,-1434,5,1,0,3,119.833855
-1737,92,3,0,0,0,660.251892
-9,-560,4,1,0,4,59.936272
1020,-456,5,0,0,0,787.100220
-352,1947,3,0,0,0,623.520569
-1792,-1484,4,1,0,4,59.936272
1201,-1999,5,0,0,0,576.836243
-1137,1463,3,0,0,0,642.222534
-392,-301,4,0,0,0,989.789795
1227,-1774,5,0,0,0,598.967651
-520,1495,3,0,0,0,687.214661
-1889,-1253,4,1,0,4,59.936272
1346,-321,5,0,0,0,725.713440
-1420,1279,3,0,0,0,633.404602
-1357,-776,4,0,0,0,658.894653
1791,-182,5,0,0,0,650.446045
-1266,1776,3,0,0,0,595.819580
-1437,-1558,4,0,0,0,572.301331
325,-728,5,0,0,0,884.176819
-504,768,3,0,0,0,843.396912
-920,-1056,4,0,0,4,59.936272
1328,-1269,5,0,0,0,644.702637
-1145,1745,3,1,0,4,59.936272
-1530,-1768,4,0,0,0,544.571533
1062,-1995,5,0,0,0,585.721680
-1875,1082,3,0,0,0,597.941956
-1044,-1692,4,0,0,0,590.431946
1043,-1913,5,0,0,0,596.103882
-577,1339,3,0,0,0,710.729431
-645,-969,4,1,0,4,59.936272
1860,-1700,5,1,0,3,119.833855
-634,835,3,0,0,0,805.384216
-92,-622,4,0,0,0,920.415833
881,-1804,5,0,0,0,619.369324
-1348,1086,3,1,0,4,59.936272
-770,-162,4,0,0,0,855.838806
1017,-816,5,0,0,3,119.833855
-57,1174,3,0,0,0,772.540283
-716,-1269,4,0,0,0,678.988525
734,-1345,5,1,0,3,119.833855
-1474,631,3,0,0,0,683.528503
-1434,-1886,4,0,0,0,540.841431
95,-1837,5,0,0,0,644.295532
-313,1160,3,0,0,0,766.233032
-546,-686,4,0,0,0,824.714417
1556,-1741,5,1,0,3,119.833855
-1523,631,3,0,0,0,675.586304
-684,-921,4,1,0,4,59.936272
622,-1201,5,1,0,3,119.833855
-42,974,3,0,0,0,826.286926
-956,-258,4,0,0,0,789.737793
1661,-651,5,0,0,0,653.026489
-254,800,3,0,0,0,869.361694
-1473,-1395,4,0,0,0,584.703003
1120,-1647,5,1,0,3,119.833855
-1625,1206,3,1,0,4,59.936272
-918,-1256,4,0,0,0,660.266418
650,-978,5,0,0,0,772.804626
-975,1860,3,1,0,4,59.936272
-1732,-1381,4,1,0,4,59.936272
1553,-1547,5,0,0,0,594.391846
-1585,455,3,0,0,0,675.504211
-1505,-80,4,0,0,0,669.331482
146,-1673,5,0,0,0,670.292847
-34,1914,3,0,0,0,632.925049
-1882,-764,4,0,0,0,584.363586
355,-1134,5,0,0,0,769.409607
-36,909,3,1,0,4,59.936272
-1093,-1794,4,1,0,4,59.936272
1889,-1219,5,0,0,0,587.216736
-1223,1941,3,0,0,0,581.475098
-48,-1571,4,1,0,4,59.936272
371,-1773,5,0,0,0,648.679810
-1068,195,3,0,0,0,795.352905
-225,-183,4,0,0,0,1143.493530
343,-1179,5,0,0,0,759.994751
-420,880,3,0,0,0,826.232361
-1993,-1998,4,0,0,0,491.792938
829,-830,5,1,0,3,119.833855
-1884,679,3,0,0,0,620.080017
-164,-613,4,0,0,0,917.774414
1634,-1363,5,0,0,0,602.832031
-741,552,3,0,0,0,841.711365
-1600,-370,4,0,0,0,644.821899
201,-201,5,0,0,0,1181.469727
-869,1714,3,0,0,0,631.825073
-1632,-243,4,0,0,0,643.476074
1168,-1171,5,0,0,0,674.654480
-691,886,3,0,0,0,785.482117
-528,-95,4,0,0,0,966.150269
158,-1823,5,0,0,0,645.791260
-1291,678,3,0,0,0,710.694702
-827,-84,4,1,0,4,59.936272
1760,-476,5,1,0,3,119.833855
-351,496,3,0,0,0,962.412109
-1371,-1834,4,1,0,4,59.936272
1932,-289,5,1,0,3,119.833855
-1185,512,3,0,0,0,745.636353
-1168,-1844,4,0,0,0,563.979187
832,-1995,5,1,0,3,119.833855
-648,660,3,1,0,4,59.936272
-397,-1283,4,0,0,0,702.308289
871,-1712,5,0,0,0,631.955200
-248,1156,3,0,0,0,770.854553
-1333,-412,4,0,0,0,691.393677
1749,-1469,5,0,0,0,582.725891
-284,1303,3,0,0,0,736.299011
-925,-1993,4,0,0,0,562.118713
1939,-1639,5,0,0,0,552.802673
-1923,1148,3,0,0,0,588.299988
-1837,-688,4,0,0,0,594.247986
248,-630,5,0,0,0,931.241211
-765,1881,3,0,0,0,616.130310
-1432,-368,4,1,0,4,59.936272
713,-1971,5,0,0,0,607.117432
-1061,1782,3,0,0,0,610.124756
-27,-1011,4,0,0,0,783.663513
107,-869,5,0,0,0,857.206360
-1666,826,3,1,0,4,59.936272
-1421,-1917,4,0,0,0,538.829285
1032,-43,5,1,0,3,119.833855
-1271,575,3,0,0,0,723.388855
-1320,-152,4,0,0,0,705.372498
1084,-334,5,0,0,0,782.761902
-336,395,3,0,0,0,1008.091125
-1742,-1332,4,0,0,0,562.672974
756,-58,5,1,0,3,119.833855
-1354,5,3,0,0,0,731.941772
-248,-1880,4,0,0,0,603.866516
1268,-26,5,0,0,0,750.706848
-1134,1503,3,1,0,4,59.936272
-587,-710,4,0,0,0,810.488159
1106,-1943,5,0,0,0,588.791260
-1131,670,3,0,0,0,740.422058
-1344,-759,4,0,0,0,662.516846
144,-1062,5,0,0,0,799.066467
-707,991,3,0,0,0,762.468323
-411,-1468,4,0,0,0,666.065918
1324,-54,5,1,0,3,119.833855
-1142,1147,3,1,0,4,59.936272
-977,-100,4,0,0,0,792.097351
824,-253,5,1,0,3,119.833855
-1733,310,3,0,0,0,656.813354
-631,-1511,4,0,0,0,645.650208
1493,-810,5,0,0,0,667.042114
-687,1432,3,0,0,0,686.237671
-1266,-992,4,0,0,0,650.766846
149,-842,5,0,0,0,864.018372
-1521,1616,3,0,0,0,590.894958
-1967,-675,4,0,0,0,577.685425
758,-1367,5,0,0,0,690.809326
-384,183,3,0,0,0,1065.210571
-374,-407,4,0,0,0,957.543396
1592,-1352,5,0,0,0,608.118958
-1675,154,3,0,0,0,669.832764
-492,-395,4,0,0,0,919.420776
1371,-91,5,0,0,0,727.736389
-1526,461,3,0,0,0,685.186951
-1494,-764,4,0,0,0,638.673889
1495,-1667,5,0,0,0,588.354248
-334,1712,3,1,0,4,59.936272
-375,-1650,4,0,0,0,636.294922
1478,-1633,5,0,0,0,593.035095
-10,1423,3,0,0,0,717.689514
-319,-1924,4,0,0,0,595.894409
1525,-1522,5,0,0,0,599.288452
-1976,399,3,0,0,0,618.201965
-1069,-1475,4,0,0,0,615.284180
421,-329,5,0,0,0,999.477478
-1401,835,3,1,0,4,59.936272
-1694,-1158,4,1,0,4,59.936272
1059,-419,5,0,0,0,781.602295
-1405,1953,3,1,0,4,59.936272
-308,-733,4,1,0,4,59.936272
1914,-1359,5,0,0,0,574.976990
-1733,1584,3,0,0,0,574.924255
-1853,-1079,4,0,0,0,569.016235
471,-1579,5,1,0,3,119.833855
-590,1256,3,0,0,0,724.901184
-1353,-858,4,0,0,0,651.876831
-1888,1834,3,1,0,4,59.936272
-669,-1650,4,0,0,0,621.790649
-267,1943,3,0,0,0,626.021851
-370,-753,4,0,0,0,837.380005
-319,1303,3,0,0,0,734.607544
-1082,-713,4,0,0,0,712.559204
-1201,1356,3,0,0,0,648.681274
-1555,-678,4,0,0,0,635.570923
-1405,186,3,1,0,4,59.936272
-446,-1659,4,0,0,0,631.977966
-293,1773,3,0,0,0,650.949829
-536,-1373,4,0,0,0,675.699829
-1998,961,3,1,0,4,59.936272
-750,-1952,4,1,0,4,59.936272
-1095,1928,3,0,0,0,591.145691
-1209,-1134,4,1,0,4,59.936272
-1866,160,3,0,0,0,639.165222
-1941,-89,4,1,0,4,59.936272
-1786,804,3,0,0,0,626.404602
-1195,-258,4,1,0,4,59.936272
-1748,1058,3,0,0,0,614.365417
-763,-1890,4,1,0,4,59.936272
-1758,304,3,0,0,0,653.014954
-1738,-1016,4,0,0,0,586.885193
-182,808,3,0,0,0,873.197510
-440,-741,4,0,0,0,829.668396
-1064,1925,3,0,0,0,593.429504
-1550,-1715,4,0,0,0,547.780151
-1147,1651,3,0,0,0,618.987366
-1128,-936,4,0,0,0,677.284058
-1842,330,3,0,0,0,639.396851
-1378,-640,4,0,0,0,667.019531
-1015,-848,4,1,0,4,59.936272
-1547,-1949,4,0,0,0,527.041321
-1566,-1541,4,1,0,4,59.936272
-1731,-1490,4,0,0,0,551.180298
-1165,-1038,4,0,0,0,659.418884
-1908,-297,4,0,0,0,598.716675
-445,-607,4,0,0,0,868.632812
-722,-1561,4,0,0,0,631.649658


each generation good chromosome number
1,2,2,