each times' max average throughput
0.000000,563.064026,0.000000,0.000000,0.000000,0.000000,549.224976,0.000000,0.000000,570.078979,566.905273,579.755310,0.000000,571.755127,439.699036,0.000000,569.936951,567.665771,0.000000,578.581604,493.260925,553.015930,554.413879,0.000000,592.141174,488.588043,0.000000,569.353088,459.936920,0.000000,0.000000,0.000000,509.172363,0.000000,516.457214,0.000000,0.000000,566.221252,467.671631,0.000000,0.000000,0.000000,569.586243,579.354065,578.609680,465.641479,539.152222,0.000000,553.265015,569.476929,564.036865,479.800903,487.647064,514.446533,0.000000,569.994873,557.511597,0.000000,564.912720,0.000000,468.721344,573.508423,0.000000,570.612732,0.000000,564.794128,570.842651,462.319916,558.819092,577.934021,449.720398,568.546021,0.000000,569.229980,0.000000,559.959595,562.255310,0.000000,0.000000,0.000000,0.000000,0.000000,568.577881,559.938477,576.869446,0.000000,0.000000,0.000000,0.000000,557.307861,553.062317,576.471924,599.836243,0.000000,430.463043,0.000000,558.673462,563.794556,561.509338,556.532410,
avg. throughput in all test times
326.406403
avg. BS TX power in all test times
MBS area 1,MBS area 2,MBS area 3,MBS area 4,MBS area 5,CBSD 1,CBSD 2,CBSD 3,CBSD 4,CBSD 5,CBSD 6,CBSD 7,CBSD 8,CBSD 9,
6.775,7.300,6.938,6.650,6.688,0.058,0.121,0.168,0.101,0.183,0.069,0.112,0.155,0.108,
avg. mbs all power,avg. cbsd enable number,avg. mbs area all power,avg. cbsd all power
45.600,1.000,34.350,1.074
avg. max avg. throughput generation number in all test times
0.490000
avg. number of relay UE
242

the max average throughput times

BS TX power
MBS area 1,MBS area 2,MBS area 3,MBS area 4,MBS area 5,CBSD 1,CBSD 2,CBSD 3,CBSD 4,CBSD 5,CBSD 6,CBSD 7,CBSD 8,CBSD 9,
8.750,6.250,5.000,7.500,6.250,0.625,0.000,0.000,0.000,0.500,0.000,0.000,0.000,0.000,
max average throughput
556.532410

x,y,area,be blocked (1 : NLOS / 0 : LOS),be blocked number (>=1 : CBSD(x) / 0 : no),connect bs number (>=1 : CBSD / 0 : MBS),throughput (unit : M bps)
174,657,1,0,0,0,978.616272
1994,522,2,1,0,1,37.918934
-535,1043,3,0,0,0,741.293518
-1883,-1058,4,1,0,1,37.918934
229,-1843,5,0,0,0,641.561523
488,1434,1,0,0,0,748.018127
1168,862,2,0,0,0,711.987000
-1029,807,3,0,0,1,37.918934
-1905,-621,4,1,0,1,37.918934
278,-1087,5,0,0,0,785.894958
1386,1829,1,0,0,0,629.201599
1472,992,2,0,0,0,654.463074
-277,1776,3,0,0,0,619.085083
-1128,-1204,4,0,0,0,701.440369
529,-1153,5,0,0,0,750.640076
427,909,1,0,0,0,866.145752
1580,1441,2,1,0,1,37.918934
-1007,1853,3,0,0,0,573.716248
-161,-1384,4,0,0,0,749.878418
441,-1970,5,0,0,0,617.796326
1439,1545,1,1,0,1,37.918934
1216,731,2,0,0,0,718.541992
-962,284,3,0,0,0,786.035278
-1523,-54,4,0,0,0,724.178650
804,-1814,5,0,0,0,622.712097
1191,1937,1,0,0,0,631.816528
1770,649,2,0,0,0,637.286194
-578,583,3,1,0,1,37.918934
-1054,-1547,4,1,0,1,37.918934
532,-457,5,0,0,0,921.091125
215,629,1,0,0,0,985.014221
1262,1003,2,0,0,0,681.989624
-27,212,3,0,0,0,1231.570312
-451,-136,4,0,0,0,1062.082031
1274,-616,5,0,0,0,719.290100
149,331,1,0,0,0,1159.471924
444,84,2,0,0,0,1047.784790
-1416,292,3,0,0,0,681.207642
-1666,-1865,4,0,0,0,582.874756
1651,-15,5,0,0,0,675.148682
945,1239,1,0,0,0,739.897766
1643,430,2,0,0,0,667.081726
-1880,1695,3,0,0,0,522.233337
-639,-1689,4,0,0,0,675.594604
1231,-1679,5,0,0,0,609.033142
578,900,1,0,0,0,848.011353
1910,613,2,0,0,0,619.606323
-1666,93,3,1,0,1,37.918934
-2000,-977,4,0,0,0,615.944397
551,-553,5,1,0,1,37.918934
335,1465,1,0,0,0,750.290222
1718,1546,2,0,0,0,579.379333
-1495,1053,3,0,0,0,614.197510
-1661,-1382,4,0,0,0,624.396362
942,-1211,5,1,0,1,37.918934
560,840,1,0,0,0,864.642761
1123,1107,2,0,0,0,688.294678
-836,1891,3,0,0,0,579.330811
-571,-1132,4,0,0,0,776.970520
1599,-552,5,0,0,0,668.217590
191,1495,1,0,0,0,749.463257
974,729,2,0,0,0,762.644104
-142,1619,3,0,0,0,647.791870
-279,-66,4,0,0,0,1205.297729
1819,-375,5,0,0,0,641.549500
1046,1119,1,1,0,1,37.918934
1292,1173,2,0,0,0,659.331848
-1971,1109,3,0,0,0,553.960205
-1539,-243,4,0,0,0,717.835022
1763,-470,5,1,0,1,37.918934
341,825,1,1,0,1,37.918934
1820,42,2,0,0,0,647.252625
-1215,107,3,0,0,0,729.903564
-716,-1587,4,0,0,0,686.043701
634,-362,5,0,0,0,909.526611
340,1706,1,0,0,0,708.350647
1104,1081,2,1,0,1,37.918934
-25,1880,3,1,0,1,37.918934
-1972,-1707,4,0,0,0,570.960999
1694,-1634,5,0,0,0,574.225830
738,1950,1,0,0,0,656.550537
552,550,2,0,0,0,890.758606
-909,1048,3,0,0,1,37.918934
-1661,-642,4,1,0,1,37.918934
387,-1645,5,0,0,0,668.502991
1530,1716,1,0,0,0,628.680176
1999,280,2,0,0,0,617.830566
-1907,396,3,1,0,1,37.918934
-1032,-516,4,1,0,1,37.918934
1754,-1489,5,0,0,0,580.658142
292,528,1,1,0,1,37.918934
1431,590,2,0,0,0,693.611877
-1092,1356,3,0,0,0,628.168030
-497,-870,4,0,0,0,844.638245
1908,-1604,5,1,0,1,37.918934
784,1815,1,0,0,0,671.728149
1197,747,2,0,0,0,720.130798
-1089,764,3,1,0,1,37.918934
-1770,-1090,4,0,0,0,635.424744
1569,-561,5,0,0,0,672.527466
1357,1565,1,1,0,1,37.918934
1384,180,2,0,0,0,723.257141
-1417,1488,3,1,0,1,37.918934
-1298,-982,4,0,0,0,705.325195
1792,-1028,5,0,0,0,611.226196
332,908,1,1,0,1,37.918934
915,808,2,0,0,0,761.680359
-1369,1746,3,0,0,0,559.365173
-293,-1758,4,1,0,1,37.918934
1154,-1973,5,0,0,0,582.522705
122,1643,1,0,0,0,723.924316
1619,855,2,0,0,0,645.625366
-997,359,3,1,0,1,37.918934
-1663,-701,4,0,0,0,675.772888
596,-585,5,1,0,1,37.918934
161,721,1,0,0,0,954.584839
1557,1517,2,0,0,0,596.759216
-578,1427,3,1,0,1,37.918934
-298,-530,4,0,0,0,988.495056
1145,-1966,5,1,0,1,37.918934
354,912,1,0,0,0,873.696350
521,71,2,0,0,0,1004.094543
-433,1859,3,0,0,0,602.003540
-1147,-1299,4,0,0,0,687.380981
1539,-1464,5,0,0,0,603.332153
116,332,1,0,0,0,1168.601440
167,68,2,0,0,0,1312.783325
-1378,118,3,1,0,1,37.918934
-102,-537,4,0,0,0,1019.197754
1074,-606,5,0,0,0,758.760559
445,827,1,0,0,0,885.460510
918,114,2,0,0,0,841.385864
-1278,1156,3,1,0,1,37.918934
-585,-1735,4,0,0,0,671.643799
867,-1474,5,0,0,0,665.113647
273,1974,1,0,0,0,669.467773
567,541,2,0,0,0,889.116455
-884,819,3,0,0,1,37.918934
-118,-1101,4,0,0,0,815.881836
1331,-1820,5,0,0,0,586.386719
642,1541,1,0,0,0,720.146179
1485,1412,2,0,0,0,613.546692
-609,1865,3,1,0,1,37.918934
-65,-1910,4,1,0,1,37.918934
127,-1783,5,1,0,1,37.918934
783,1235,1,0,0,0,758.133789
1587,647,2,0,0,0,664.489136
-1757,1413,3,1,0,1,37.918934
-1120,-1381,4,0,0,0,680.023560
1050,-1796,5,1,0,1,37.918934
164,1313,1,0,0,0,786.837769
691,672,2,0,0,0,829.557983
-629,385,3,0,0,0,874.494873
-600,-1815,4,0,0,0,659.331848
1224,-1242,5,0,0,0,659.540771
784,1024,1,0,0,0,794.214783
1954,1123,2,0,0,0,586.518250
-1712,1852,3,0,0,0,523.257568
-1064,-389,4,1,0,1,37.918934
46,-934,5,0,0,0,838.267639
118,786,1,0,0,0,933.513794
1348,241,2,1,0,1,37.918934
-85,1216,3,0,0,0,730.076599
-1801,-8,4,0,0,0,676.357971
11,-1432,5,0,0,0,715.881714
324,521,1,0,0,0,1008.118713
1513,749,2,1,0,1,37.918934
-1317,318,3,1,0,1,37.918934
-541,-341,4,0,0,0,973.951477
1077,-1177,5,0,0,0,684.958557
144,1756,1,0,0,0,704.695618
1812,812,2,0,0,0,622.506775
-678,616,3,0,0,0,812.111145
-557,-1056,4,0,0,0,794.239258
1680,-748,5,0,0,0,644.366638
401,1480,1,0,0,0,744.516541
1665,849,2,1,0,1,37.918934
-508,28,3,1,0,1,37.918934
-1193,-1247,4,0,0,0,688.565063
111,-144,5,0,0,0,1310.389771
154,1728,1,0,0,0,709.126038
1582,424,2,0,0,0,677.449341
-915,37,3,1,0,1,37.918934
-197,-1685,4,1,0,1,37.918934
1515,-1673,5,0,0,0,586.102722
87,1427,1,0,0,0,764.615540
1040,802,2,0,0,0,740.692627
-376,1349,3,1,0,1,37.918934
-664,-609,4,0,0,0,875.206421
552,-1611,5,0,0,0,666.307312
579,1219,1,0,0,0,781.180420
1477,1009,2,0,0,0,652.271423
-705,477,3,1,0,1,37.918934
-125,-1211,4,0,0,0,788.629089
39,-47,5,0,0,0,1625.145874
356,1164,1,0,0,0,810.831055
1732,1216,2,1,0,1,37.918934
-1170,1643,3,0,0,0,586.345642
-1236,-1158,4,0,0,0,693.929138
1448,-941,5,1,0,1,37.918934
877,1962,1,0,0,0,647.907654
801,735,2,0,0,0,794.966187
-481,1527,3,0,0,0,652.081848
-1345,-828,4,0,0,0,713.932129
1019,-1889,5,0,0,0,600.376404
1056,1845,1,0,0,0,651.012024
1551,1234,2,0,0,0,623.025146
-1386,1369,3,1,0,1,37.918934
-1534,-424,4,0,0,0,711.748413
1469,-350,5,0,0,0,700.676880
695,769,1,0,0,0,857.054688
1546,1111,2,0,0,0,634.493469
-668,14,3,0,0,0,902.919556
-686,-532,4,0,0,0,885.906616
1240,-1999,5,0,0,0,574.379028
24,303,1,1,0,1,37.918934
1791,721,2,0,0,0,630.497986
-697,1176,3,0,0,0,697.233826
-1709,-266,4,1,0,1,37.918934
109,-1721,5,1,0,1,37.918934
242,1619,1,0,0,0,725.763306
1778,1414,2,0,0,0,584.263245
-1508,1064,3,0,0,0,611.571411
-171,-1989,4,0,0,0,646.952698
1360,-1098,5,0,0,0,658.863281
641,895,1,1,0,1,37.918934
877,756,2,0,0,0,776.851440
-1858,21,3,1,0,1,37.918934
-1644,-1429,4,0,0,0,622.099731
1954,-504,5,0,0,0,617.909790
1199,1337,1,0,0,0,699.225952
1460,130,2,0,0,0,709.211548
-1720,1704,3,0,0,0,534.738403
-1290,-259,4,0,0,0,766.324585
959,-1682,5,0,0,0,629.687012
609,1332,1,0,0,0,757.678711
1948,1030,2,0,0,0,592.905457
-1356,1705,3,1,0,1,37.918934
-1855,-369,4,0,0,0,662.374573
1199,-1755,5,1,0,1,37.918934
210,991,1,0,0,0,863.660400
561,103,2,0,0,0,980.646851
-515,1157,3,1,0,1,37.918934
-1125,-618,4,0,0,0,773.433777
1066,-1998,5,0,0,0,585.153809
81,1393,1,0,0,0,771.587830
1878,1272,2,1,0,1,37.918934
-427,255,3,0,0,0,987.978821
-1373,-1700,4,0,0,0,621.192078
746,-667,5,0,0,0,818.776245
404,1340,1,1,0,1,37.918934
1983,1672,2,1,0,1,37.918934
-97,446,3,0,0,0,1012.728699
-1595,-1327,4,1,0,1,37.918934
718,-1672,5,0,0,0,647.384155
89,758,1,0,0,0,945.202942
1946,638,2,0,0,0,613.716309
-149,882,3,0,0,0,818.955566
-1224,-1881,4,1,0,1,37.918934
1147,-1409,5,0,0,0,647.824951
1873,1993,1,0,0,0,579.343750
1957,139,2,1,0,1,37.918934
-523,106,3,1,0,1,37.918934
-945,-1219,4,0,0,0,720.731689
410,-748,5,0,0,0,864.720886
502,1528,1,0,0,0,730.822998
1126,148,2,0,0,0,782.408691
-476,589,3,1,0,1,37.918934
-1936,-1223,4,0,0,0,607.875000
1058,-588,5,1,0,1,37.918934
154,242,1,0,0,0,1227.386475
1488,946,2,0,0,0,656.368713
-615,631,3,0,0,0,823.286194
-1954,-1792,4,0,0,0,566.322144
1955,-612,5,0,0,0,613.627869
1008,1690,1,1,0,1,37.918934
1961,454,2,0,0,0,618.627686
-613,383,3,1,0,1,37.918934
-1800,-651,4,1,0,1,37.918934
853,-1626,5,0,0,0,644.806824
990,1470,1,1,0,1,37.918934
1020,399,2,1,0,1,37.918934
-1047,488,3,0,0,0,745.501038
-88,-1268,4,0,0,0,776.248535
1187,-334,5,0,0,0,758.778198
838,1431,1,1,0,1,37.918934
1808,1537,2,0,0,0,571.903259
-124,1767,3,0,0,0,623.252747
-146,-1257,4,0,0,0,777.516479
1100,-1600,5,0,0,0,628.883850
1186,1413,1,0,0,0,691.538452
1443,77,2,0,0,0,713.290405
-1494,1500,3,0,0,0,572.626343
-607,-1469,4,0,0,0,712.117798
1632,-1999,5,0,0,0,548.207825
743,1915,1,1,0,1,37.918934
1126,641,2,1,0,1,37.918934
-367,92,3,0,0,0,1066.816162
-1338,-1762,4,1,0,1,37.918934
1815,-254,5,0,0,0,645.346741
458,698,1,0,0,0,919.356262
1072,391,2,0,0,0,781.047180
-1283,1384,3,0,0,0,605.230591
-1055,-1148,4,0,0,0,717.636658
882,-90,5,0,0,0,853.607910
1142,1715,1,0,0,0,659.932068
991,248,2,1,0,1,37.918934
-26,1704,3,0,0,0,634.260437
-149,-1928,4,0,0,0,656.043518
669,-1415,5,0,0,0,690.427063
104,1325,1,0,0,0,785.565674
1338,674,2,0,0,0,702.951111
-691,1525,3,0,0,0,639.314453
-236,-281,4,1,0,1,37.918934
1301,-1212,5,0,0,0,653.979187
779,1404,1,1,0,1,37.918934
845,607,2,0,0,0,807.585754
-198,1870,3,0,0,0,606.249390
-422,-1726,4,0,0,0,680.222534
1488,-302,5,1,0,1,37.918934
959,1651,1,0,0,0,681.700195
913,416,2,0,0,0,818.028870
-1079,389,3,0,0,0,747.535522
-1920,-1551,4,1,0,1,37.918934
638,-1798,5,0,0,0,633.888733
366,839,1,0,0,0,892.841431
1733,1510,2,0,0,0,580.932922
-1413,882,3,1,0,1,37.918934
-1019,-1214,4,0,0,0,712.928040
28,-1037,5,1,0,1,37.918934
229,1329,1,0,0,0,781.379211
1352,1230,2,0,0,0,646.110718
-518,396,3,1,0,1,37.918934
-282,-1073,4,0,0,0,815.328735
904,-657,5,1,0,1,37.918934
521,794,1,0,0,0,882.244751
1497,102,2,1,0,1,37.918934
-422,1943,3,0,0,0,590.413025
-1704,-240,4,0,0,0,689.385803
1306,-552,5,0,0,0,718.732544
102,1289,1,0,0,0,793.465881
1606,1268,2,0,0,0,613.950684
-384,1476,3,1,0,1,37.918934
-551,-648,4,1,0,1,37.918934
1283,-1723,5,0,0,0,600.125916
1398,1999,1,1,0,1,37.918934
192,17,2,0,0,0,1293.539429
-1275,1528,3,0,0,0,590.159302
-317,-945,4,1,0,1,37.918934
1164,-1921,5,0,0,0,587.473816
901,1587,1,0,0,0,694.632263
1385,266,2,0,0,0,720.263000
-1950,834,3,0,0,0,572.121338
-392,-1102,4,1,0,1,37.918934
175,-881,5,1,0,1,37.918934
1605,1635,1,0,0,0,629.661987
1054,738,2,0,0,0,746.569763
-463,1741,3,0,0,0,618.445923
-592,-522,4,0,0,0,913.325439
1301,-1047,5,0,0,0,671.894348
1465,1717,1,0,0,0,633.929993
912,731,2,0,0,0,774.152161
-135,1169,3,0,0,0,740.179688
-262,-905,4,0,0,0,862.343506
1282,-94,5,0,0,0,746.847290
842,1351,1,1,0,1,37.918934
1295,211,2,0,0,0,740.963745
-541,1850,3,0,0,0,599.231323
-1830,-483,4,0,0,0,662.174927
506,-731,5,1,0,1,37.918934
1497,1645,1,1,0,1,37.918934
1763,65,2,1,0,1,37.918934
-581,1203,3,1,0,1,37.918934
-1966,-1738,4,0,0,0,569.241394
112,-1410,5,1,0,1,37.918934
956,1836,1,1,0,1,37.918934
1918,1531,2,0,0,0,562.397827
-1179,1092,3,1,0,1,37.918934
-1875,-1197,4,0,0,0,616.119324
190,-1325,5,0,0,0,735.234009
1794,1925,1,0,0,0,590.295593
1981,1240,2,0,0,0,576.224243
-375,1282,3,1,0,1,37.918934
-224,-1684,4,0,0,0,693.065430
384,-792,5,0,0,0,855.692200
1245,1901,1,0,0,0,631.999268
1560,159,2,0,0,0,689.897034
-231,488,3,0,0,0,964.311768
-279,-769,4,0,0,0,903.011658
1938,-1501,5,0,0,0,562.723083
721,1453,1,0,0,0,728.390869
575,301,2,0,0,0,943.425293
-423,1458,3,0,0,0,667.254150
-1278,-123,4,0,0,0,773.358582
263,-426,5,0,0,0,1018.235779
382,1058,1,0,0,0,833.526794
1854,90,2,0,0,0,641.713562
-961,1336,3,0,0,0,644.214355
-1730,-1187,4,0,0,0,632.782166
669,-969,5,0,0,0,772.021912
1531,1594,1,1,0,1,37.918934
1822,890,2,1,0,1,37.918934
-883,970,3,0,0,1,37.918934
-1983,-1655,4,1,0,1,37.918934
182,-1365,5,0,0,0,727.098083
558,1754,1,1,0,1,37.918934
1921,269,2,0,0,0,629.163818
-1679,548,3,0,0,0,624.086487
-821,-1631,4,1,0,1,37.918934
1854,-1953,5,0,0,0,536.206055
40,1521,1,0,0,0,746.739685
1193,645,2,0,0,0,731.478577
-1167,1437,3,0,0,0,610.709900
-1840,-846,4,1,0,1,37.918934
1490,-958,5,1,0,1,37.918934
498,1331,1,0,0,0,766.334961
1340,283,2,1,0,1,37.918934
-571,485,3,0,0,0,869.962158
-280,-1727,4,0,0,0,684.648804
1033,-534,5,0,0,0,775.616577
27,1048,1,0,0,0,853.791199
1567,1564,2,0,0,0,591.568420
-1094,1578,3,1,0,1,37.918934
-496,-1962,4,0,0,0,643.066223
254,-779,5,0,0,0,876.300537
671,1940,1,0,0,0,660.996887
613,587,2,0,0,0,866.165222
-1132,719,3,0,0,1,37.918934
-92,-1732,4,1,0,1,37.918934
1387,-1202,5,0,0,0,644.930115
554,1021,1,1,0,1,37.918934
1622,558,2,0,0,0,664.242737
-1882,985,3,0,0,0,571.678528
-505,-1770,4,0,0,0,670.139709
213,-12,5,1,0,0,375.416840
742,785,1,1,0,1,37.918934
994,660,2,1,0,1,37.918934
-84,1119,3,1,0,1,37.918934
-955,-1778,4,0,0,0,643.839783
547,-1815,5,0,0,0,635.717651
1455,1788,1,0,0,0,627.916565
1786,698,2,0,0,0,632.442017
-233,1408,3,1,0,1,37.918934
-1533,-285,4,0,0,0,717.614014
1513,-1246,5,0,0,0,626.201477
936,1215,1,0,0,0,744.448242
1753,1575,2,1,0,1,37.918934
-226,923,3,0,0,0,801.568298
-347,-753,4,1,0,1,37.918934
1517,-665,5,0,0,0,674.234680
1025,1554,1,1,0,1,37.918934
1030,890,2,1,0,1,37.918934
-1212,1770,3,0,0,0,568.893188
-1733,-1417,4,0,0,0,614.327209
709,-1498,5,1,0,1,37.918934
512,1831,1,0,0,0,682.912537
1000,362,2,0,0,0,801.277466
-1209,320,3,0,0,0,722.724976
-492,-909,4,0,0,0,835.689880
760,-705,5,0,0,0,808.631592
715,738,1,1,0,1,37.918934
746,312,2,0,0,0,880.101624
-1361,554,3,0,0,0,676.570129
-341,-1109,4,0,0,0,802.456726
1334,-1937,5,0,0,0,574.432251
395,1684,1,0,0,0,709.976379
1839,1737,2,0,0,0,553.834717
-759,1898,3,0,0,0,582.559082
-527,-1370,4,0,0,0,734.930237
1754,-33,5,0,0,0,657.820251
219,1812,1,0,0,0,694.592041
1929,1151,2,0,0,0,587.453918
-711,356,3,0,0,0,852.823364
-1382,-1835,4,1,0,1,37.918934
1163,-1907,5,0,0,0,589.054443
59,152,1,0,0,0,1390.359863
1733,253,2,0,0,0,658.299255
-742,757,3,0,0,0,770.170532
-236,-1787,4,0,0,0,676.120422
1297,-1717,5,0,0,0,599.650452
239,1979,1,0,0,0,669.382935
1690,1652,2,0,0,0,573.064941
-1676,1503,3,0,0,0,555.256348
-27,-583,4,0,0,0,1000.304626
97,-61,5,1,0,0,635.098267
1050,1134,1,0,0,0,742.261597
1372,100,2,1,0,1,37.918934
-1389,860,3,0,0,0,646.309448
-1289,-257,4,0,0,0,766.624207
1115,-1344,5,0,0,0,659.127197
227,258,1,0,0,0,1175.268311
1017,444,2,0,0,0,789.059631
-1739,1512,3,0,0,0,548.666199
-682,-1645,4,0,0,0,679.590576
1073,-611,5,0,0,0,758.389465
1067,1560,1,1,0,1,37.918934
1286,118,2,0,0,0,745.519958
-461,1265,3,0,0,0,701.591797
-494,-689,4,0,0,0,892.725586
521,-1155,5,0,0,0,750.977844
138,1938,1,0,0,0,676.713257
956,950,2,0,0,0,733.270081
-70,513,3,0,0,0,976.388794
-801,-1528,4,0,0,0,688.655029
610,-1162,5,0,0,0,740.897461
315,586,1,0,0,0,984.768127
1691,1060,2,0,0,0,621.056091
-666,129,3,1,0,1,37.918934
-1806,-533,4,0,0,0,663.636047
1165,-809,5,0,0,0,718.635132
785,941,1,0,0,0,808.896484
743,721,2,1,0,1,37.918934
-1151,645,3,0,0,0,707.388123
-1711,-1340,4,0,0,0,622.750854
1485,-1260,5,0,0,0,628.024170
441,1169,1,0,0,0,803.326721
556,356,2,0,0,0,938.501587
-658,607,3,0,0,0,818.724487
-1230,-1416,4,0,0,0,664.759094
1889,-37,5,0,0,0,636.662476
827,989,1,1,0,1,37.918934
1809,1389,2,0,0,0,583.138245
-1963,432,3,0,0,0,587.337280
-716,-401,4,0,0,0,902.098999
1391,-545,5,0,0,0,703.757935
528,1140,1,1,0,1,37.918934
1693,827,2,1,0,1,37.918934
-1656,1784,3,1,0,1,37.918934
-1339,-1628,4,0,0,0,631.447449
1019,-935,5,0,0,0,725.875854
539,1242,1,1,0,1,37.918934
885,695,2,0,0,0,785.053406
-1405,1691,3,0,0,0,561.948425
-1229,-468,4,0,0,0,766.466858
1558,-1479,5,0,0,0,600.126160
699,1270,1,1,0,1,37.918934
1446,1024,2,0,0,0,654.978333
-1861,605,3,1,0,1,37.918934
-831,-1782,4,1,0,1,37.918934
937,-1336,5,0,0,0,678.499573
214,898,1,0,0,0,890.401001
1931,1659,2,0,0,0,552.038513
-76,1862,3,0,0,0,608.815857
-304,-274,4,1,0,1,37.918934
1924,-881,5,0,0,0,604.403137
114,1234,1,0,0,0,805.674316
1027,621,2,0,0,0,766.551575
-329,539,3,0,0,0,919.177368
-1051,-1515,4,0,0,0,669.638733
556,-1811,5,0,0,0,635.899170
262,1457,1,0,0,0,754.608643
1149,261,2,1,0,1,37.918934
-890,67,3,1,0,1,37.918934
-1970,-1105,4,0,0,0,611.774963
1130,-86,5,0,0,0,783.020813
709,1350,1,0,0,0,746.112671
1116,302,2,0,0,0,777.281128
-1906,126,3,0,0,0,601.795410
-1787,-71,4,0,0,0,678.366455
313,-1148,5,0,0,0,769.014343
747,1477,1,0,0,0,722.599609
1079,362,2,1,0,1,37.918934
-548,356,3,0,0,0,909.310547
-847,-1494,4,0,0,0,689.955811
1101,-1851,5,0,0,0,599.402222
321,750,1,1,0,1,37.918934
1120,805,2,0,0,0,726.639526
-1130,301,3,0,0,0,741.981140
-615,-142,4,0,0,0,977.726440
467,-502,5,1,0,1,37.918934
753,1353,1,0,0,0,741.712280
1504,1423,2,0,0,0,610.598267
-1293,609,3,0,0,0,684.501038
-1360,-998,4,1,0,1,37.918934
663,-214,5,1,0,1,37.918934
557,643,1,0,0,0,913.935913
888,668,2,0,0,0,788.670227
-561,976,3,0,0,0,752.898254
-1853,-2,4,0,0,0,668.225647
551,-1061,5,1,0,1,37.918934
1392,1766,1,0,0,0,634.993896
1714,345,2,0,0,0,658.787598
-1167,1265,3,0,0,0,631.451965
-940,-211,4,0,0,0,855.931335
1236,-1793,5,0,0,0,596.249512
203,472,1,0,0,0,1059.262329
1335,628,2,0,0,0,707.350159
-943,588,3,0,0,0,756.603455
-577,-613,4,0,0,0,894.755066
1889,-1951,5,1,0,1,37.918934
890,1501,1,1,0,1,37.918934
-268,655,3,0,0,0,886.355774
-1441,-165,4,0,0,0,738.360168
1607,-1398,5,1,0,1,37.918934
41,1993,1,0,0,0,669.376892
-1268,173,3,1,0,1,37.918934
-448,-619,4,0,0,0,922.656799
517,-1185,5,0,0,0,745.194092
51,393,1,0,0,0,1134.152100
-1411,1133,3,0,0,0,617.173462
-905,-1962,4,0,0,0,624.407898
1307,-375,5,0,0,0,730.732361
547,1965,1,0,0,0,662.818420
-1866,1058,3,0,0,0,568.909363
-1474,-1942,4,0,0,0,590.077576
354,-27,5,0,0,0,1117.344727
1266,1798,1,0,0,0,641.360168
-1327,1467,3,0,0,0,591.867004
-1899,-735,4,0,0,0,641.302795
915,-564,5,1,0,1,37.918934
728,924,1,1,0,1,37.918934
-856,706,3,0,0,0,757.048218
-1041,-780,4,0,0,0,769.604309
769,-106,5,0,0,0,891.855286
865,1399,1,0,0,0,724.395386
-1428,1049,3,1,0,1,37.918934
-762,-592,4,1,0,1,37.918934
1489,-747,5,0,0,0,672.597046
400,1771,1,0,0,0,696.097656
-152,605,3,1,0,1,37.918934
-637,-1425,4,0,0,0,717.315002
643,-1581,5,0,0,0,665.669189
265,950,1,0,0,0,871.359558
-1385,511,3,0,0,0,675.245300
-158,-387,4,0,0,0,1096.536377
39,-851,5,0,0,0,865.093811
501,1057,1,0,0,0,822.276550
-1214,651,3,0,0,0,695.044312
-513,-1503,4,0,0,0,712.357910
1094,-759,5,0,0,0,736.747192
1496,1835,1,1,0,1,37.918934
-1284,1007,3,0,0,0,646.641907
-1321,-1637,4,1,0,1,37.918934
858,-1100,5,1,0,1,37.918934
752,1369,1,0,0,0,739.218994
-186,955,3,0,0,0,794.790039
-946,-622,4,0,0,0,809.498230
1831,-1225,5,0,0,0,592.976257
1296,1888,1,1,0,1,37.918934
-1481,1669,3,0,0,0,557.760071
-1996,-432,4,0,0,0,640.472778
365,-57,5,0,0,0,1105.881104
144,1065,1,0,0,0,846.649902
-142,1529,3,0,0,0,663.987793
-98,-1041,4,0,0,0,832.370911
796,-1899,5,0,0,0,612.169922
1297,1785,1,1,0,1,37.918934
-794,768,3,0,0,0,758.325928
-220,-635,4,1,0,1,37.918934
134,-1367,5,0,0,0,727.833374
439,935,1,0,0,0,858.054688
-940,1821,3,0,0,0,581.843323
-823,-104,4,0,0,0,898.992249
1726,-1568,5,1,0,1,37.918934
350,1979,1,0,0,0,667.051636
-203,151,3,1,0,1,37.918934
-945,-1829,4,0,0,0,638.179871
1292,-600,5,0,0,0,717.390259
426,1393,1,0,0,0,759.238098
-1693,763,3,0,0,0,609.818298
-347,-1993,4,0,0,0,643.170898
692,-782,5,0,0,0,806.538635
148,743,1,1,0,1,37.918934
-395,1624,3,0,0,0,639.809082
-890,-1695,4,0,0,0,658.906982
1775,-194,5,0,0,0,652.778320
715,1786,1,0,0,0,679.538330
-1067,1574,3,0,0,0,603.076111
-1923,-814,4,0,0,0,634.127014
200,-1123,5,0,0,0,781.150635
-1519,1841,3,0,0,0,538.766968
-1179,-1671,4,0,0,0,640.075562
947,-426,5,0,0,0,808.143005
-1457,1994,3,0,0,0,529.166870
-698,-1927,4,0,0,0,639.454468
1851,-1009,5,0,0,0,605.474976
-354,1749,3,1,0,1,37.918934
-1732,-882,4,1,0,1,37.918934
968,-114,5,0,0,0,826.350586
-1751,1288,3,0,0,0,565.159485
-388,-391,4,1,0,1,37.918934
157,-1706,5,1,0,1,37.918934
-1501,166,3,0,0,0,668.758240
-1033,-508,4,1,0,1,37.918934
1772,-1704,5,1,0,1,37.918934
-488,1870,3,0,0,0,598.474243
-958,-664,4,0,0,0,801.128784
1349,-1705,5,0,0,0,596.720825
-916,1305,3,0,0,0,653.256348
-1667,-1125,4,0,0,0,644.851440
125,-915,5,0,0,0,841.869019
-247,1153,3,0,0,0,739.597656
-232,-939,4,0,0,0,854.784790
1715,-575,5,1,0,1,37.918934
-160,583,3,0,0,0,931.726807
-833,-1277,4,1,0,1,37.918934
257,-1820,5,0,0,0,644.512451
-1892,1852,3,0,0,0,509.638031
-698,-636,4,1,0,1,37.918934
1642,-121,5,0,0,0,675.948914
-1104,1370,3,0,0,0,625.168945
-1048,-1744,4,0,0,0,641.529724
470,-252,5,0,0,0,1000.022827
-1425,1573,3,0,0,0,571.904297
-850,-171,4,0,0,0,886.266235
1964,-302,5,0,0,0,622.297241
-329,391,3,0,0,0,980.172424
-1184,-1440,4,1,0,1,37.918934
1970,-1156,5,0,0,0,582.718445
-761,1094,3,0,0,0,704.527100
-281,-770,4,0,0,0,902.440491
1602,-1601,5,0,0,0,585.119446
-1385,802,3,0,0,0,652.174377
-377,-506,4,0,0,0,977.807434
1791,-528,5,0,0,0,640.024963
-1311,1840,3,1,0,1,37.918934
-1052,-680,4,0,0,0,780.439575
422,-246,5,0,0,0,1025.334839
-647,103,3,0,0,0,908.577942
-138,-1913,4,0,0,0,658.382263
874,-1687,5,1,0,1,37.918934
-1531,1951,3,0,0,0,527.985474
-1769,-11,4,1,0,1,37.918934
432,-1289,5,0,0,0,730.788757
-1908,1040,3,1,0,1,37.918934
-280,-629,4,0,0,0,952.673889
1651,-1226,5,0,0,0,612.537354
-1424,1919,3,1,0,1,37.918934
-1410,-1710,4,0,0,0,617.164978
1059,-561,5,0,0,0,766.967712
-1327,1671,3,0,0,0,570.397705
-1115,-1012,4,1,0,1,37.918934
858,-1555,5,0,0,0,654.311646
-661,1929,3,1,0,1,37.918934
-1389,-188,4,0,0,0,748.167603
1380,-1295,5,0,0,0,636.194580
-432,1321,3,0,0,0,692.498108
-1130,-235,4,1,0,1,37.918934
77,-192,5,0,0,0,1273.152710
-1307,356,3,0,0,0,699.846313
-349,-1151,4,0,0,0,792.116516
1272,-1031,5,0,0,0,677.532166
-1545,706,3,1,0,1,37.918934
-1575,-1426,4,0,0,0,629.195801
1626,-1012,5,0,0,0,632.790405
-1490,917,3,0,0,0,626.775330
-161,-393,4,1,0,1,37.918934
1478,-204,5,0,0,0,704.130920
-897,860,3,0,0,1,37.918934
-858,-1300,4,0,0,0,717.918091
0,-549,5,0,0,0,991.656982
-231,921,3,0,0,0,801.791748
-1591,-818,4,0,0,0,678.277527
10,-449,5,1,0,1,37.918934
-1517,268,3,0,0,0,663.075562
-1603,-1468,4,0,0,0,622.705322
1719,-1318,5,1,0,1,37.918934
-1263,1634,3,0,0,0,579.650818
-1940,-477,4,0,0,0,646.746704
729,-453,5,1,0,1,37.918934
-193,1809,3,0,0,0,615.655762
-444,-879,4,0,0,0,849.614441
1072,-1863,5,0,0,0,599.968018
-932,470,3,1,0,1,37.918934
-1200,-749,4,0,0,0,745.539124
827,-1089,5,0,0,0,729.115112
-254,979,3,0,0,0,783.648376
-1725,-1656,4,0,0,0,595.579712
1253,-513,5,0,0,0,731.954590
-1728,202,3,0,0,0,628.375427
-1677,-1865,4,0,0,0,582.043701
1310,-1068,5,0,0,0,668.456543
-519,1746,3,0,0,0,615.306152
-763,-700,4,1,0,1,37.918934
1842,-772,5,0,0,0,620.846558
-382,1921,3,0,0,0,594.682068
-601,-1548,4,0,0,0,699.585022
200,-571,5,0,0,0,963.656982
-1457,1880,3,0,0,0,539.744263
-1338,-1032,4,0,0,0,694.598816
1836,-1434,5,1,0,1,37.918934
-1737,92,3,0,0,0,628.429688
-9,-560,4,1,0,1,37.918934
1020,-456,5,0,0,0,787.100220
-352,1947,3,0,0,0,591.805725
-1792,-1484,4,1,0,1,37.918934
1201,-1999,5,0,0,0,576.836243
-1137,1463,3,0,0,0,610.449646
-392,-301,4,0,0,0,1048.235596
1227,-1774,5,0,0,0,598.967651
-520,1495,3,0,0,0,655.329346
-1889,-1253,4,1,0,1,37.918934
1346,-321,5,0,0,0,725.713440
-1420,1279,3,0,0,0,601.658142
-1357,-776,4,0,0,0,716.890686
1791,-182,5,0,0,0,650.446045
-1266,1776,3,0,0,0,564.205688
-1437,-1558,4,0,0,0,629.884155
325,-728,5,0,0,0,884.176819
-504,768,3,0,0,0,811.308350
-920,-1056,4,0,0,0,748.396423
1328,-1269,5,0,0,0,644.702637
-1145,1745,3,1,0,1,37.918934
-1530,-1768,4,0,0,0,601.960083
1062,-1995,5,0,0,0,585.721680
-1875,1082,3,0,0,0,566.319641
-1044,-1692,4,0,0,0,648.122925
1043,-1913,5,0,0,0,596.103882
-577,1339,3,0,0,0,678.797913
-645,-969,4,1,0,1,37.918934
1860,-1700,5,1,0,1,37.918934
-634,835,3,0,0,0,773.327026
-92,-622,4,0,0,0,978.830688
881,-1804,5,0,0,0,619.369324
-1348,1086,3,1,0,1,37.918934
-770,-162,4,0,0,0,914.207397
1017,-816,5,0,0,0,742.757935
-57,1174,3,0,0,0,740.517761
-716,-1269,4,0,0,0,737.049744
734,-1345,5,1,0,1,37.918934
-1474,631,3,0,0,0,651.651184
-1434,-1886,4,0,0,0,598.200867
95,-1837,5,0,0,0,644.295532
-313,1160,3,0,0,0,734.218140
-546,-686,4,0,0,0,883.052490
1556,-1741,5,1,0,1,37.918934
-1523,631,3,0,0,0,643.726807
-684,-921,4,1,0,1,37.918934
622,-1201,5,1,0,1,37.918934
-42,974,3,0,0,0,794.211487
-956,-258,4,0,0,0,848.032349
1661,-651,5,0,0,0,653.026489
-254,800,3,0,0,0,837.255920
-1473,-1395,4,0,0,0,642.361328
1120,-1647,5,1,0,1,37.918934
-1625,1206,3,1,0,1,37.918934
-918,-1256,4,0,0,0,718.266907
650,-978,5,0,0,0,772.804626
-975,1860,3,1,0,1,37.918934
-1732,-1381,4,1,0,1,37.918934
1553,-1547,5,0,0,0,594.391846
-1585,455,3,0,0,0,643.644897
-1505,-80,4,0,0,0,727.362244
146,-1673,5,0,0,0,670.292847
-34,1914,3,0,0,0,601.180115
-1882,-764,4,0,0,0,642.020142
355,-1134,5,0,0,0,769.409607
-36,909,3,1,0,1,37.918934
-1093,-1794,4,1,0,1,37.918934
1889,-1219,5,0,0,0,587.216736
-1223,1941,3,0,0,0,549.921631
-48,-1571,4,1,0,1,37.918934
371,-1773,5,0,0,0,648.679810
-1068,195,3,0,0,0,763.305481
-225,-183,4,0,0,0,1201.972290
343,-1179,5,0,0,0,759.994751
-420,880,3,0,0,0,794.156982
-1993,-1998,4,0,0,0,548.689514
829,-830,5,1,0,1,37.918934
-1884,679,3,0,0,0,588.376709
-164,-613,4,0,0,0,976.187805
1634,-1363,5,0,0,0,602.832031
-741,552,3,0,0,0,809.624023
-1600,-370,4,0,0,0,702.766235
201,-201,5,0,0,0,1181.469727
-869,1714,3,0,0,0,600.083496
-1632,-243,4,0,0,0,701.415222
1168,-1171,5,0,0,0,674.654480
-691,886,3,0,0,0,753.445007
-528,-95,4,0,0,0,1024.587036
158,-1823,5,0,0,0,645.791260
-1291,678,3,0,0,0,678.763245
-827,-84,4,1,0,1,37.918934
1760,-476,5,1,0,1,37.918934
-351,496,3,0,0,0,930.264954
-1371,-1834,4,1,0,1,37.918934
1932,-289,5,1,0,1,37.918934
-1185,512,3,0,0,0,713.648743
-1168,-1844,4,0,0,0,621.507629
832,-1995,5,1,0,1,37.918934
-648,660,3,1,0,1,37.918934
-397,-1283,4,0,0,0,760.434448
871,-1712,5,0,0,0,631.955200
-248,1156,3,0,0,0,738.834045
-1333,-412,4,0,0,0,749.490784
1749,-1469,5,0,0,0,582.725891
-284,1303,3,0,0,0,704.325134
-925,-1993,4,0,0,0,619.634521
1939,-1639,5,0,0,0,552.802673
-1923,1148,3,0,0,0,556.716980
-1837,-688,4,0,0,0,651.960266
248,-630,5,0,0,0,931.241211
-765,1881,3,0,0,0,584.440552
-1432,-368,4,1,0,1,37.918934
713,-1971,5,0,0,0,607.117432
-1061,1782,3,0,0,0,578.456299
-27,-1011,4,0,0,0,841.949402
107,-869,5,0,0,0,857.206360
-1666,826,3,1,0,1,37.918934
-1421,-1917,4,0,0,0,596.172668
1032,-43,5,1,0,1,37.918934
-1271,575,3,0,0,0,691.435425
-1320,-152,4,0,0,0,763.506226
1084,-334,5,0,0,0,782.761902
-336,395,3,0,0,0,975.931580
-1742,-1332,4,0,0,0,620.192505
756,-58,5,1,0,1,37.918934
-1354,5,3,0,0,0,699.974548
-248,-1880,4,0,0,0,661.629517
1268,-26,5,0,0,0,750.706848
-1134,1503,3,1,0,1,37.918934
-587,-710,4,0,0,0,868.809509
1106,-1943,5,0,0,0,588.791260
-1131,670,3,0,0,0,708.441956
-1344,-759,4,0,0,0,720.525269
144,-1062,5,0,0,0,799.066467
-707,991,3,0,0,5,836.903442
-411,-1468,4,0,0,0,724.085999
1324,-54,5,1,0,1,37.918934
-1142,1147,3,1,0,1,37.918934
-977,-100,4,0,0,0,850.394958
824,-253,5,1,0,1,37.918934
-1733,310,3,0,0,0,625.000122
-631,-1511,4,0,0,0,703.597717
1493,-810,5,0,0,0,667.042114
-687,1432,3,0,0,0,654.354492
-1266,-992,4,0,0,0,708.733765
149,-842,5,0,0,0,864.018372
-1521,1616,3,0,0,0,559.301147
-1967,-675,4,0,0,0,635.302063
758,-1367,5,0,0,0,690.809326
-384,183,3,0,0,0,1033.040161
-374,-407,4,0,0,0,1015.976746
1592,-1352,5,0,0,0,608.118958
-1675,154,3,0,0,0,637.986816
-492,-395,4,0,0,0,977.834778
1371,-91,5,0,0,0,727.736389
-1526,461,3,0,0,0,653.306030
-1494,-764,4,0,0,0,696.594482
1495,-1667,5,0,0,0,588.354248
-334,1712,3,1,0,1,37.918934
-375,-1650,4,0,0,0,694.205688
1478,-1633,5,0,0,0,593.035095
-10,1423,3,0,0,0,685.745728
-319,-1924,4,0,0,0,653.615417
1525,-1522,5,0,0,0,599.288452
-1976,399,3,0,0,0,586.505005
-1069,-1475,4,0,0,0,673.102905
421,-329,5,0,0,0,999.477478
-1401,835,3,1,0,1,37.918934
-1694,-1158,4,1,0,1,37.918934
1059,-419,5,0,0,0,781.602295
-1405,1953,3,1,0,1,37.918934
-308,-733,4,1,0,1,37.918934
1914,-1359,5,0,0,0,574.976990
-1733,1584,3,0,0,0,543.400391
-1853,-1079,4,0,0,0,626.577942
471,-1579,5,1,0,1,37.918934
-590,1256,3,0,0,0,692.945312
-1353,-858,4,0,0,0,709.847839
-1888,1834,3,1,0,1,37.918934
-669,-1650,4,0,0,0,679.639282
-267,1943,3,0,0,0,594.298828
-370,-753,4,0,0,0,895.731384
-319,1303,3,0,0,0,702.636230
-1082,-713,4,0,0,0,770.710571
-1201,1356,3,0,0,0,616.890076
-1555,-678,4,0,0,0,693.478699
-1405,186,3,1,0,1,37.918934
-446,-1659,4,0,0,0,689.870850
-293,1773,3,0,0,0,619.152344
-536,-1373,4,0,0,0,733.750916
-1998,961,3,1,0,1,37.918934
-750,-1952,4,1,0,1,37.918934
-1095,1928,3,0,0,0,559.550842
-1209,-1134,4,1,0,1,37.918934
-1866,160,3,0,0,0,607.401367
-1941,-89,4,1,0,1,37.918934
-1786,804,3,0,0,0,594.680298
-1195,-258,4,1,0,1,37.918934
-1748,1058,3,0,0,0,582.681824
-763,-1890,4,1,0,1,37.918934
-1758,304,3,0,0,0,621.211853
-1738,-1016,4,0,0,0,644.556274
-182,808,3,0,0,0,841.089478
-440,-741,4,0,0,0,888.011780
-1064,1925,3,0,0,0,561.825256
-1550,-1715,4,0,0,0,605.193176
-1147,1651,3,0,0,0,587.287720
-1128,-936,4,0,0,0,735.339783
-1842,330,3,0,0,0,607.632263
-1378,-640,4,0,0,0,725.042725
-1015,-848,4,1,0,1,37.918934
-1547,-1949,4,0,0,0,584.286133
-1566,-1541,4,1,0,1,37.918934
-1731,-1490,4,0,0,0,608.618591
-1165,-1038,4,0,0,0,717.416687
-1908,-297,4,0,0,0,656.452759
-445,-607,4,0,0,0,927.012390
-722,-1561,4,0,0,0,689.541138


each generation good chromosome number
1,1,2,