616.925964,610.272217,604.903259,612.671814,611.983521,608.334717,611.380249,609.038574,608.797180,606.716248,602.337524,611.490601,620.874207,612.541077,608.044434,613.867737,619.949463,605.458313,607.526489,610.784729,611.602905,614.186279,610.879700,605.928345,612.711670,610.305115,613.829956,603.036743,618.854065,604.896912,611.898987,611.216003,607.179321,611.096924,600.940308,615.995605,611.829346,608.034973,607.293579,612.603882,611.157532,614.274414,613.718933,603.961121,602.824768,608.476135,608.895752,613.833740,617.353027,611.217957,616.452759,609.594604,605.522217,614.223938,605.069397,615.960144,607.980652,606.059814,616.653992,610.665710,610.106628,616.213806,607.378479,612.388245,611.017212,608.366211,607.762756,617.167175,612.520081,612.136658,607.395874,615.415833,607.918030,613.228882,609.334839,606.058838,612.571106,607.706299,611.570007,615.665466,617.327820,610.842590,603.684021,608.247192,614.340393,611.296692,610.439087,597.224609,611.442505,607.410034,613.349243,611.475037,603.494934,613.200073,607.442139,613.221436,614.181458,606.712036,608.772156,605.791687,

avg. max avg. throughput in test times
610.439209
avg. BS TX power in all test times
MBS area 1,MBS area 2,MBS area 3,MBS area 4,CBSD 1,CBSD 2,CBSD 3,CBSD 4,CBSD 5,CBSD 6,CBSD 7,CBSD 8,CBSD 9,CBSD 10,CBSD 11,CBSD 12,CBSD 13,CBSD 14,CBSD 15,CBSD 16,CBSD 17,CBSD 18,CBSD 19,CBSD 20,CBSD 21,CBSD 22,CBSD 23,CBSD 24,CBSD 25,CBSD 26,CBSD 27,CBSD 28,
10.000,8.750,10.000,8.750,0.220,0.190,0.170,0.250,0.210,0.250,0.130,0.250,0.140,0.170,0.120,0.160,0.200,0.160,0.160,0.190,0.130,0.120,0.180,0.130,0.190,0.170,0.270,0.240,0.130,0.130,0.220,0.120,
avg. mbs all power,avg. cbsd enable number,avg. mbs area all power,avg. cbsd all power
75.000,5.000,37.500,5.000
avg. number of relay UE
339

BS TX power
MBS area 1,MBS area 2,MBS area 3,MBS area 4,CBSD 1,CBSD 2,CBSD 3,CBSD 4,CBSD 5,CBSD 6,CBSD 7,CBSD 8,CBSD 9,CBSD 10,CBSD 11,CBSD 12,CBSD 13,CBSD 14,CBSD 15,CBSD 16,CBSD 17,CBSD 18,CBSD 19,CBSD 20,CBSD 21,CBSD 22,CBSD 23,CBSD 24,CBSD 25,CBSD 26,CBSD 27,CBSD 28,
10.000,8.750,10.000,8.750,0.000,0.000,0.000,0.000,0.000,0.000,0.000,1.000,0.000,1.000,0.000,0.000,0.000,0.000,0.000,1.000,0.000,0.000,0.000,0.000,0.000,0.000,0.000,1.000,0.000,0.000,1.000,0.000,
max average power
605.791687

x,y,area,be blocked (1 : NLOS / 0 : LOS),be blocked number (>=1 : CBSD(x) / 0 : no),connect bs number (>=1 : CBSD / 0 : MBS),throughput (unit : M bps)
897,1940,1,0,0,10,55.981026
-1303,1847,2,0,0,0,633.513977
-102,-153,3,0,0,0,1374.928711
1258,-358,4,0,0,0,790.169556
1502,535,1,0,0,0,752.466736
-725,1963,2,0,0,0,655.508423
-1207,-241,3,0,0,0,826.833862
1005,-1096,4,0,0,0,753.321228
288,1674,1,0,0,0,734.313599
-376,1812,2,0,0,0,690.635132
-1492,-1650,3,0,0,8,60.241997
1072,-863,4,1,0,27,163.576675
1944,1436,1,1,0,10,55.981026
-942,1096,2,0,0,0,761.511414
-1530,-1561,3,0,0,8,60.241997
205,-1019,4,0,0,0,856.253357
163,1203,1,1,0,10,55.981026
-630,101,2,0,0,0,996.824280
-1134,-1042,3,0,0,0,762.429993
910,-1862,4,0,0,0,658.268372
219,1373,1,0,0,0,791.797241
-1044,740,2,0,0,0,796.451965
-1543,-34,3,0,0,0,761.808960
1388,-1569,4,0,0,0,655.205261
1266,836,1,0,0,0,766.734924
-955,1877,2,0,0,0,653.689575
-1386,-1769,3,0,0,8,60.241997
1526,-394,4,0,0,0,736.641602
68,1065,1,0,0,0,867.885193
-133,1976,2,0,0,0,671.239685
-692,-290,3,0,0,0,969.353394
1192,-1061,4,1,0,27,217.200897
422,1200,1,0,0,0,817.362366
-1506,1040,2,0,0,0,693.806946
-959,-471,3,0,0,0,867.547913
393,-1680,4,0,0,0,710.697693
1791,1955,1,0,0,10,55.981026
-693,740,2,0,0,0,863.426758
-1568,-888,3,0,0,8,60.241997
703,-373,4,1,0,10,55.981026
1047,1241,1,0,0,0,747.254028
-1445,1098,2,0,0,0,696.219849
-1915,-1683,3,0,0,8,60.241997
1555,-711,4,0,0,0,713.285645
1876,1010,1,0,0,10,55.981026
-1243,1871,2,0,0,0,635.296814
-223,-435,3,0,0,0,1092.883911
1148,-9,4,0,0,0,827.658447
1562,501,1,0,0,0,744.315918
-980,586,2,0,0,0,829.215149
-960,-46,3,1,0,8,60.241997
547,-1226,4,0,0,0,782.680176
1319,1203,1,0,0,10,55.981026
-1406,1854,2,0,0,0,625.256958
-711,-586,3,0,0,0,910.183655
1925,-1809,4,0,0,0,589.192688
262,1000,1,0,0,0,877.042908
-1954,1662,2,0,0,0,597.521179
-1301,-558,3,0,0,0,786.624268
1334,-313,4,0,0,0,776.806030
426,1351,1,0,0,0,786.429993
-658,704,2,0,0,0,878.044495
-1887,-1631,3,1,0,8,60.241997
1143,-1491,4,0,0,0,686.322876
495,727,1,0,0,0,923.572510
-26,596,2,0,0,0,1016.200867
-1551,-559,3,0,0,0,742.871338
1033,-832,4,0,0,0,786.146301
579,1775,1,0,0,10,55.981026
-496,1406,2,0,0,0,752.569824
-1514,-320,3,0,0,0,761.052246
769,-1123,4,0,0,0,778.734009
1988,1985,1,0,0,10,55.981026
-1625,1568,2,0,0,0,633.792358
-1096,-1036,3,0,0,0,768.437805
1064,-514,4,0,0,0,819.359436
431,1477,1,0,0,0,762.698547
-1898,1694,2,1,0,8,60.241997
-1168,-1560,3,0,0,8,60.241997
1160,-681,4,0,0,0,782.117249
733,218,1,0,0,0,963.866821
-393,1191,2,0,0,0,802.236572
-1185,-1506,3,0,0,8,60.241997
1761,-856,4,0,0,0,674.497559
73,890,1,0,0,0,919.194580
-1087,1101,2,0,0,0,741.942871
-1416,-1905,3,0,0,8,60.241997
1254,-435,4,1,0,10,55.981026
1544,1767,1,0,0,10,55.981026
-1173,792,2,0,0,0,767.503357
-1708,-911,3,0,0,8,60.241997
1412,-116,4,0,0,0,767.216614
641,777,1,1,0,10,55.981026
-1597,82,2,0,0,0,732.475952
-1355,-27,3,0,0,0,799.142700
831,-439,4,0,0,0,885.243774
472,1969,1,0,0,10,55.981026
-227,1483,2,0,0,0,750.775940
-1920,-1158,3,0,0,8,60.241997
185,-718,4,0,0,0,953.535950
1805,1457,1,0,0,10,55.981026
-1778,506,2,0,0,0,690.944519
-900,-1335,3,0,0,0,749.672241
398,-1230,4,0,0,0,793.519104
566,1363,1,0,0,0,774.655212
-1981,153,2,0,0,0,670.313416
-1030,-236,3,0,0,0,870.725220
645,-633,4,0,0,0,896.524597
1690,798,1,1,0,10,55.981026
-256,1200,2,0,0,0,808.530396
-212,-1319,3,0,0,0,803.273743
1172,-451,4,0,0,0,801.866455
1194,1838,1,0,0,10,55.981026
-1799,647,2,0,0,0,681.326965
-1312,-1269,3,0,0,8,60.241997
1367,-849,4,0,0,0,730.673218
697,198,1,0,0,0,979.410461
-849,1311,2,0,0,0,739.227356
-1147,-1932,3,0,0,8,60.241997
687,-1262,4,0,0,0,763.168091
1790,771,1,0,0,10,55.981026
-1888,1334,2,0,0,0,627.111511
-896,-1427,3,0,0,0,736.621704
1195,-1922,4,0,0,0,633.154541
227,10,1,0,0,0,1313.873779
-1088,1042,2,0,0,0,749.589539
-1742,-1991,3,0,0,8,60.241997
420,-1754,4,0,0,0,697.999939
474,186,1,0,0,0,1081.116943
-204,752,2,0,0,0,939.235474
-628,-209,3,0,0,0,1005.504395
1570,-892,4,0,0,0,697.663757
182,1807,1,0,0,10,55.981026
-229,737,2,0,0,0,941.992676
-1476,-1627,3,0,0,8,60.241997
1252,-1612,4,1,0,27,144.803848
745,1286,1,0,0,0,772.645447
-1205,905,2,0,0,0,749.492004
-489,-1831,3,0,0,8,60.241997
393,-1584,4,0,0,0,726.633484
246,836,1,0,0,0,926.230042
-1763,650,2,0,0,0,686.276611
-161,-1839,3,0,0,8,60.241997
585,-225,4,0,0,0,1001.960083
472,50,1,0,0,0,1101.378540
-1171,1942,2,0,0,0,632.585938
-1514,-584,3,0,0,0,747.419556
1768,-1765,4,0,0,0,605.040649
103,745,1,0,0,0,968.671448
-1194,1875,2,0,0,0,638.277283
-1026,-512,3,0,0,0,847.210693
857,-638,4,0,0,0,848.337402
1337,1918,1,0,0,10,55.981026
-1997,369,2,0,0,0,664.068848
-1020,-1925,3,0,0,8,60.241997
530,-236,4,0,0,0,1024.236084
1481,752,1,0,0,0,740.735229
-1808,787,2,0,0,0,672.484802
-61,-967,3,0,0,0,895.690430
803,-80,4,0,0,0,929.137146
1642,1518,1,0,0,10,55.981026
-1540,1728,2,0,0,0,626.752808
-1769,-1921,3,0,0,8,60.241997
1076,-1052,4,0,0,0,749.907654
1319,1768,1,0,0,10,55.981026
-1387,1071,2,0,0,0,706.247314
-1683,-926,3,0,0,8,60.241997
88,-12,4,0,0,0,1565.641235
833,1087,1,0,0,0,796.146057
-576,1423,2,1,0,10,55.981026
-751,-1522,3,0,0,0,734.549133
750,-1527,4,0,0,0,714.729370
49,372,1,0,0,0,1169.177490
-1240,539,2,0,0,0,780.635620
-1674,-1696,3,0,0,8,60.241997
1848,-648,4,0,0,0,674.454651
1036,961,1,0,0,0,787.137573
-494,410,2,0,0,0,995.052734
-265,-551,3,0,0,0,1028.362305
63,-794,4,0,0,0,932.902954
648,685,1,0,0,0,903.519104
-377,860,2,0,0,0,885.497192
-1354,-1420,3,0,0,8,60.241997
1831,-784,4,0,0,0,669.611328
8,1078,1,1,0,10,55.981026
-1106,1667,2,0,0,0,668.359680
-493,-29,3,0,0,0,1089.935791
520,-1813,4,0,0,0,685.199280
1245,867,1,0,0,0,766.731140
-1373,1696,2,0,0,0,643.559448
-1090,-818,3,0,0,0,797.550049
797,-1868,4,0,0,0,664.052795
119,1352,1,0,0,0,798.727661
-189,1669,2,0,0,0,718.386475
-986,-1511,3,0,0,8,60.241997
378,-970,4,0,0,0,855.801453
1389,1409,1,0,0,10,55.981026
-56,1829,2,0,0,0,693.860779
-486,-325,3,1,0,8,60.241997
1546,-1684,4,0,0,0,630.295044
1938,633,1,0,0,10,55.981026
-794,1918,2,0,0,0,657.803162
-847,-236,3,0,0,0,923.656250
1196,-101,4,0,0,0,814.866577
948,727,1,0,0,0,835.409912
-643,319,2,0,0,0,962.884949
-1174,-830,3,0,0,0,782.163452
1936,-578,4,1,0,10,55.981026
1523,1470,1,0,0,10,55.981026
-842,1091,2,0,0,0,775.154419
-1758,-379,3,0,0,8,60.241997
1101,-1727,4,1,0,27,128.046814
1952,311,1,0,0,10,55.981026
-69,1202,2,0,0,0,813.976379
-473,-1935,3,0,0,8,60.241997
1021,-327,4,0,0,0,847.348206
523,546,1,0,0,0,967.148376
-1497,1836,2,1,0,10,55.981026
-1039,-692,3,0,0,0,822.767395
1276,-1698,4,0,0,0,651.257935
190,1894,1,0,0,10,55.981026
-1689,1656,2,0,0,0,620.578796
-1024,-22,3,0,0,0,879.705383
578,-335,4,0,0,0,983.572449
41,792,1,0,0,0,953.384583
-517,443,2,0,0,0,978.114014
-547,-1300,3,1,0,8,60.241997
1285,-126,4,0,0,0,793.881042
242,632,1,1,0,10,55.981026
-755,1586,2,0,0,0,705.567688
-1807,-206,3,0,0,8,60.241997
1018,-412,4,0,0,0,840.421326
506,1690,1,0,0,10,55.981026
-848,1492,2,0,0,0,712.230286
-1495,-1272,3,0,0,8,60.241997
641,-6,4,0,0,0,995.479553
696,435,1,0,0,0,943.493896
-429,21,2,0,0,0,1110.936035
-987,-1436,3,0,0,0,726.998352
1668,-766,4,0,0,0,692.982971
1991,1772,1,0,0,10,55.981026
-121,373,2,0,0,0,1137.195801
-1037,-1655,3,0,0,8,60.241997
1900,-815,4,0,0,0,658.965393
867,831,1,0,0,0,833.904541
-843,74,2,1,0,8,60.241997
-1544,-1779,3,0,0,8,60.241997
955,-1737,4,0,0,0,670.987427
1993,601,1,0,0,10,55.981026
-1863,959,2,0,0,0,655.135559
-622,-1567,3,0,0,0,736.458984
239,-981,4,1,0,8,60.241997
276,1917,1,0,0,10,55.981026
-788,938,2,0,0,0,808.984375
-1773,-113,3,0,0,8,60.241997
796,-127,4,0,0,0,929.461304
507,1019,1,0,0,0,849.350342
-1819,480,2,0,0,0,685.933167
-1298,-1849,3,0,0,8,60.241997
620,-84,4,0,0,0,1002.472290
667,398,1,1,0,10,55.981026
-603,1351,2,0,0,0,754.784363
-320,-1222,3,0,0,0,819.366516
1724,-1814,4,0,0,0,604.546875
1254,487,1,0,0,0,801.276184
-1067,1639,2,0,0,0,674.835266
-593,-1275,3,0,0,0,788.550598
479,-1159,4,0,0,0,802.255493
1917,1079,1,0,0,10,55.981026
-1539,97,2,0,0,0,742.895020
-1641,-1477,3,0,0,8,60.241997
256,-214,4,0,0,0,1183.771484
1268,1452,1,0,0,10,55.981026
-810,1045,2,0,0,0,787.062866
-1244,-1129,3,0,0,0,737.481506
1174,-551,4,0,0,0,792.613220
1098,1555,1,0,0,10,55.981026
-1765,1364,2,0,0,0,637.286682
-409,-844,3,0,0,0,905.067993
1359,-675,4,0,0,0,747.518616
892,1114,1,0,0,0,784.299683
-1636,610,2,0,0,0,707.287048
-1036,-1052,3,0,0,0,774.531555
1320,-9,4,0,0,0,787.527466
152,812,1,0,0,0,941.622681
-1654,97,2,0,0,0,722.307556
-454,-954,3,0,0,0,870.772217
1867,-1700,4,0,0,0,602.008240
237,1123,1,0,0,0,846.939758
-1743,1008,2,0,0,0,666.515869
-1321,-1014,3,0,0,0,739.990173
1528,-837,4,0,0,0,707.910400
1469,1078,1,0,0,10,55.981026
-621,523,2,0,0,0,927.386902
-186,-971,3,0,0,0,889.885315
963,-818,4,0,0,0,800.099487
924,1312,1,0,0,0,750.622192
-1040,90,2,0,0,0,855.018372
-682,-814,3,0,0,0,869.298462
64,-1981,4,0,0,0,671.014221
1287,1659,1,0,0,10,55.981026
-154,1509,2,0,0,0,747.625000
-890,-730,3,0,0,0,846.101257
676,-1196,4,0,0,0,776.053528
1482,639,1,0,0,0,748.986694
-1655,6,2,1,0,8,60.241997
-1554,-1384,3,0,0,8,60.241997
51,-1378,4,0,0,0,774.985168
1546,1107,1,0,0,10,55.981026
-1361,692,2,0,0,0,745.742737
-115,-106,3,0,0,0,1421.635376
24,-1371,4,0,0,0,776.600464
1997,602,1,0,0,10,55.981026
-1421,531,2,0,0,0,747.599792
-1390,-1922,3,0,0,8,60.241997
193,-2000,4,0,0,0,667.111389
1297,1998,1,0,0,10,55.981026
-54,1012,2,0,0,0,863.537231
-1944,-115,3,0,0,8,60.241997
550,-1410,4,0,0,0,748.262329
627,1954,1,1,0,10,55.981026
-1850,38,2,0,0,0,690.667603
-60,-586,3,0,0,0,1039.098755
227,-196,4,0,0,0,1214.539185
137,7,1,0,0,0,1459.470581
-488,1873,2,0,0,0,677.800903
-1021,-853,3,0,0,0,804.458862
1621,-1765,4,0,0,0,616.868286
682,897,1,0,0,0,852.230896
-1468,1385,2,1,0,8,60.241997
-911,-162,3,0,0,0,908.959473
1210,-1027,4,0,0,0,734.639771
1985,529,1,0,0,10,55.981026
-1372,763,2,0,0,0,737.763367
-530,-672,3,0,0,0,931.430237
862,-1777,4,0,0,0,672.024658
801,1302,1,0,0,0,764.559021
-1443,1627,2,1,0,10,55.981026
-357,-939,3,0,0,0,885.285767
167,-1280,4,0,0,0,793.950989
1122,803,1,0,0,0,793.998962
-1595,958,2,0,0,0,689.094849
-975,-1554,3,0,0,8,60.241997
971,-274,4,0,0,0,864.824036
1846,576,1,0,0,10,55.981026
-1433,1766,2,0,0,0,631.767029
-1888,-1106,3,0,0,8,60.241997
146,-7,4,0,0,0,1421.894165
1780,708,1,0,0,10,55.981026
-362,1387,2,0,0,0,763.851196
-488,-198,3,0,0,0,1071.399414
1534,-576,4,0,0,0,725.485107
773,1951,1,0,0,10,55.981026
-201,1987,2,0,0,0,668.844299
-1922,-358,3,1,0,8,60.241997
1806,-1495,4,1,0,27,133.494553
1618,560,1,0,0,0,732.030945
-116,69,2,0,0,0,1444.889404
-940,-1591,3,1,0,8,60.241997
384,-603,4,0,0,0,964.049072
275,546,1,0,0,0,1028.395264
-1595,699,2,0,0,0,708.039185
-976,-785,3,0,0,0,821.809509
1318,-1807,4,0,0,0,636.525574
561,1573,1,0,0,0,739.174683
-61,1664,2,0,0,0,720.879700
-1670,-198,3,0,0,0,737.180481
1416,-819,4,0,0,0,725.972534
1708,1913,1,0,0,10,55.981026
-948,227,2,0,0,0,874.726746
-400,-948,3,0,0,0,878.388184
891,-818,4,0,0,0,812.649536
1389,1693,1,0,0,10,55.981026
-1579,367,2,0,0,0,728.560852
-1994,-47,3,0,0,8,60.241997
705,-218,4,0,0,0,954.905273
573,210,1,0,0,0,1028.901978
-354,1277,2,0,0,0,786.413574
-523,-1041,3,0,0,0,842.645874
1074,-1915,4,1,0,27,112.375977
1345,1545,1,0,0,10,55.981026
-692,695,2,0,0,0,872.971985
-1780,-1906,3,0,0,8,60.241997
475,-46,4,0,0,0,1080.559937
1231,967,1,0,0,0,757.742981
-1642,1306,2,0,0,0,654.766968
-256,-1911,3,0,0,8,60.241997
1338,-1712,4,1,0,27,134.143661
920,1737,1,0,0,10,55.981026
-432,531,2,0,0,0,976.553589
-1440,-1174,3,0,0,8,60.241997
1324,-1551,4,0,0,0,662.882141
739,859,1,0,0,0,850.622925
-1150,661,2,0,0,0,786.137512
-900,-1945,3,0,0,8,60.241997
1327,-1539,4,0,0,0,663.885925
409,1755,1,0,0,10,55.981026
-1530,949,2,0,0,0,698.503052
-1828,-1552,3,0,0,8,60.241997
1434,-148,4,0,0,0,762.222473
1742,1479,1,0,0,10,55.981026
-247,213,2,0,0,0,1190.336426
-45,-237,3,0,0,0,1296.606934
789,-43,4,0,0,0,935.199646
158,1895,1,1,0,10,55.981026
-1022,737,2,0,0,0,800.897522
-1181,-132,3,0,0,0,836.934509
499,-1654,4,0,0,0,710.319580
664,227,1,0,0,0,988.645447
-1255,254,2,0,0,0,796.276306
-188,-1211,3,0,0,0,828.079529
209,-1914,4,0,0,0,679.304504
1244,578,1,0,0,0,795.674744
-1384,1642,2,0,0,0,648.122437
-168,-1722,3,0,0,0,729.031250
643,-62,4,0,0,0,993.260376
145,549,1,0,0,0,1049.686279
-860,1272,2,0,0,0,744.127441
-761,-1307,3,0,0,0,767.628479
1166,-150,4,0,0,0,820.833008
1994,1640,1,0,0,10,55.981026
-15,1459,2,0,0,0,758.766602
-1358,-158,3,0,0,0,796.631958
1022,-586,4,0,0,0,820.228333
1525,876,1,0,0,0,724.345032
-162,641,2,0,0,0,986.568909
-852,-782,3,0,0,0,844.758057
1600,-1685,4,0,0,0,625.650208
534,1791,1,0,0,10,55.981026
-265,1368,2,0,0,0,771.983582
-1347,-230,3,0,0,0,796.771790
894,-1944,4,0,0,0,649.154724
1206,244,1,0,0,0,826.924805
-1831,1387,2,0,0,0,628.928833
-834,-1160,3,0,0,0,783.982971
1330,-243,4,0,0,0,780.649292
1536,1243,1,0,0,10,55.981026
-1280,545,2,0,0,0,772.444702
-1,-763,3,0,0,0,964.519348
1162,-622,4,0,0,0,787.969360
979,408,1,0,0,0,869.658264
-92,999,2,0,0,0,866.452209
-1579,-135,3,0,0,0,754.213623
1116,-570,4,1,0,10,55.981026
1593,601,1,1,0,10,55.981026
-270,565,2,0,0,0,1002.226135
-406,-1304,3,0,0,0,796.930054
1763,-885,4,0,0,0,672.368835
1241,1624,1,0,0,10,55.981026
-1642,547,2,0,0,0,709.809326
-397,-930,3,0,0,0,883.395630
1491,-1926,4,0,0,0,612.246338
897,1208,1,0,0,0,769.110962
-1015,1098,2,0,0,0,751.734497
-1431,-482,3,0,0,0,768.086487
980,-1990,4,0,0,0,638.877747
1307,663,1,0,0,0,776.667297
-1216,719,2,0,0,0,768.047363
-54,-1021,3,0,0,0,880.214417
1355,-1650,4,0,0,0,649.774536
1257,1516,1,0,0,10,55.981026
-177,1114,2,0,0,0,832.729187
-1556,-701,3,0,0,0,732.962585
1331,-680,4,0,0,0,751.854492
1043,650,1,0,0,0,827.269409
-1165,869,2,0,0,0,759.884827
-592,-1712,3,0,0,8,60.241997
633,-74,4,0,0,0,997.155945
1799,154,1,0,0,10,55.981026
-1438,1627,2,0,0,0,644.960938
-1774,-15,3,0,0,8,60.241997
1976,-1454,4,0,0,0,610.196655
1025,1450,1,0,0,10,55.981026
-580,101,2,0,0,0,1020.013916
-1661,-1288,3,0,0,8,60.241997
388,-1140,4,1,0,8,60.241997
1558,253,1,0,0,0,755.366150
-869,1509,2,0,0,0,708.057312
-429,-865,3,1,0,8,60.241997
419,-1664,4,0,0,0,712.264771
274,406,1,0,0,0,1092.307007
-326,1165,2,0,0,0,812.601013
-510,-624,3,0,0,0,948.756775
810,-678,4,1,0,10,55.981026
854,1641,1,1,0,10,55.981026
-984,1009,2,0,0,0,768.716736
-401,-201,3,0,0,0,1117.681152
480,-176,4,1,0,10,55.981026
1713,1073,1,0,0,10,55.981026
-1364,864,2,0,0,0,729.707642
-1200,-1237,3,0,0,0,730.153381
854,-141,4,0,0,0,908.949341
1603,1689,1,0,0,10,55.981026
-224,213,2,0,0,0,1205.827271
-865,-1707,3,0,0,8,60.241997
1748,-1582,4,0,0,0,621.518372
775,493,1,0,0,0,911.075867
-1112,85,2,0,0,0,835.993835
-1280,-1217,3,0,0,8,60.241997
1058,-685,4,0,0,0,800.812927
825,76,1,0,0,0,940.790588
-563,1529,2,0,0,0,727.102112
-1310,-539,3,0,0,0,786.434021
1079,-1345,4,0,0,0,710.870300
1994,191,1,0,0,10,55.981026
-1555,1901,2,0,0,0,609.886963
-1485,-588,3,0,0,0,751.974182
1507,-179,4,0,0,0,747.482117
1278,701,1,0,0,0,778.222351
-992,136,2,0,0,0,867.011658
-539,-158,3,0,0,0,1052.823730
1647,-1366,4,0,0,0,649.148743
1408,955,1,1,0,10,55.981026
-398,1196,2,0,0,0,800.791992
-822,-635,3,0,0,0,875.667114
1789,-1992,4,0,0,0,585.373718
84,1561,1,0,0,0,758.134277
-270,555,2,0,0,0,1006.403015
-267,-1938,3,0,0,8,60.241997
8,-1424,4,1,0,8,60.241997
1513,676,1,0,0,0,741.398071
-692,1939,2,0,0,0,660.161072
-537,-1208,3,0,0,0,806.290649
373,-310,4,0,0,0,1075.895508
558,513,1,0,0,0,966.422119
-819,443,2,0,0,0,887.920715
-1769,-345,3,0,0,8,60.241997
502,-1431,4,0,0,0,747.689514
1976,1266,1,0,0,10,55.981026
-70,337,2,0,0,0,1174.809692
-1359,-1340,3,0,0,8,60.241997
237,-328,4,0,0,0,1128.124512
1777,1418,1,0,0,10,55.981026
-1062,1468,2,0,0,0,696.688232
-993,-477,3,0,0,0,858.739197
236,-10,4,0,0,0,1283.415161
1414,314,1,0,0,0,780.038147
-1934,198,2,0,0,0,676.536499
-365,-359,3,0,0,0,1079.549316
572,-1208,4,0,0,0,783.947876
985,1386,1,0,0,0,734.015625
-657,986,2,0,0,0,818.583801
-1265,-166,3,1,0,16,163.680542
318,-1100,4,0,0,0,828.408997
1529,1623,1,0,0,10,55.981026
-59,1339,2,0,0,0,783.149780
-1474,-655,3,0,0,0,749.148743
1462,-1061,4,0,0,0,697.549866
1472,1370,1,0,0,10,55.981026
-1712,1738,2,0,0,0,611.790710
-1925,-1133,3,0,0,8,60.241997
462,-366,4,0,0,0,1019.681946
237,13,1,0,0,0,1301.282593
-912,1672,2,0,0,0,682.414124
-333,-875,3,0,0,0,905.576965
475,-1839,4,0,0,0,683.196167
1596,769,1,0,0,10,55.981026
-591,847,2,0,0,0,858.089050
-1867,-184,3,0,0,8,60.241997
1130,-1739,4,0,0,0,658.073303
440,535,1,0,0,0,992.381104
-900,267,2,0,0,0,885.569031
-1779,-1196,3,0,0,8,60.241997
72,-435,4,0,0,0,1103.378052
968,1079,1,0,0,0,779.814148
-803,683,2,0,0,0,852.194519
-323,-308,3,1,0,8,60.241997
1794,-925,4,0,0,0,665.814758
951,718,1,1,0,10,55.981026
-1074,462,2,1,0,8,60.241997
-1627,-209,3,0,0,0,744.317688
1092,-1895,4,0,0,0,642.903625
1385,859,1,0,0,0,746.179932
-391,822,2,0,0,0,894.450562
-1667,-800,3,0,0,8,60.241997
497,-535,4,0,0,0,957.930664
1730,1299,1,0,0,10,55.981026
-289,198,2,0,0,0,1169.719238
-774,-1755,3,0,0,8,60.241997
1835,-588,4,0,0,0,679.077454
485,1780,1,0,0,10,55.981026
-1176,61,2,1,0,16,136.605667
-235,-732,3,0,0,0,962.338440
606,-537,4,0,0,0,928.168030
1330,714,1,1,0,10,55.981026
-870,613,2,1,0,8,60.241997
-1655,-1546,3,0,0,8,60.241997
92,-1795,4,0,0,0,698.990112
718,445,1,0,0,0,935.202942
-1573,591,2,0,0,0,718.268433
-666,-559,3,1,0,8,60.241997
381,-1513,4,0,0,0,739.532959
1495,1328,1,0,0,10,55.981026
-1336,1551,2,0,0,0,661.790344
-1524,-1228,3,1,0,8,60.241997
480,-81,4,0,0,0,1074.837646
963,1041,1,0,0,0,786.117310
-890,1882,2,0,0,0,656.981873
-782,-980,3,0,0,0,821.523621
423,-505,4,0,0,0,987.618042
942,266,1,0,0,0,892.759216
-1542,224,2,0,0,0,739.909851
-1627,-1554,3,0,0,8,60.241997
263,-896,4,0,0,0,887.097046
1719,493,1,0,0,10,55.981026
-817,86,2,0,0,0,923.993286
-1963,-194,3,0,0,8,60.241997
658,-52,4,0,0,0,987.049927
1249,1358,1,0,0,10,55.981026
-1852,755,2,1,0,8,60.241997
-1701,-474,3,0,0,8,60.241997
1012,-1397,4,0,0,0,710.750549
784,1177,1,0,0,0,786.909973
-506,1204,2,1,0,10,55.981026
-877,-1540,3,0,0,8,60.241997
1473,-1026,4,0,0,0,699.348938
22,1538,1,0,0,0,762.781006
-1137,1689,2,0,0,0,663.332214
-547,-730,3,0,0,0,913.063599
537,-1513,4,0,0,0,731.336548
391,23,1,0,0,0,1156.791382
-542,210,2,0,0,0,1023.694153
-1815,-340,3,0,0,8,60.241997
1663,-1611,4,0,0,0,626.664734
842,1744,1,0,0,10,55.981026
-108,4,2,0,0,0,1509.011719
-1836,-1975,3,0,0,8,60.241997
318,-1436,4,0,0,0,756.471863
1471,1800,1,0,0,10,55.981026
-1385,1552,2,0,0,0,657.215820
-1055,-398,3,0,0,0,852.038818
475,-1976,4,0,0,0,663.860107
556,790,1,0,0,0,896.547852
-181,1019,2,0,0,0,857.492493
-1613,-144,3,0,0,0,748.006287
371,-489,4,0,0,0,1007.986816
361,925,1,0,0,0,888.637451
-825,970,2,0,0,0,797.863831
-1207,-1402,3,0,0,8,60.241997
750,-389,4,0,0,0,915.915100
1603,450,1,0,0,0,740.048401
-555,853,2,1,0,10,55.981026
-816,-1386,3,0,0,0,749.970154
587,-572,4,1,0,10,55.981026
355,654,1,1,0,10,55.981026
-554,771,2,0,0,0,882.327698
-1744,-1152,3,0,0,8,60.241997
687,-1192,4,0,0,0,775.640015
1613,1,1,0,0,0,749.144958
-1039,1931,2,0,0,0,642.166687
-785,-261,3,0,0,0,941.222534
45,-1978,4,0,0,0,671.522583
582,754,1,0,0,0,900.615662
-68,1628,2,0,0,0,727.091492
-1138,-1089,3,1,0,8,60.241997
66,-109,4,0,0,0,1461.488770
756,1057,1,0,0,0,811.214111
-1049,255,2,0,0,0,845.352417
-233,-110,3,0,0,0,1277.602295
1310,-434,4,0,0,0,774.760864
1527,142,1,0,0,0,763.635071
-1227,480,2,0,0,0,788.068542
-559,-1761,3,0,0,8,60.241997
321,-761,4,0,0,0,922.448547
157,1315,1,1,0,10,55.981026
-161,1127,2,0,0,0,830.072083
-849,-735,3,0,0,0,853.220947
444,-25,4,0,0,0,1100.912964
989,844,1,0,0,0,811.071960
-956,1557,2,0,0,0,694.296936
-1455,-1006,3,0,0,8,60.241997
1199,-225,4,0,0,0,810.192688
1187,1868,1,0,0,10,55.981026
-652,966,2,0,0,0,823.330139
-1333,-662,3,0,0,0,772.235840
477,-199,4,0,0,0,1057.559204
1253,1634,1,0,0,10,55.981026
-610,1540,2,0,0,0,722.382080
-1868,-479,3,0,0,8,60.241997
1298,-862,4,0,0,0,739.915405
767,618,1,0,0,0,890.953369
-509,1288,2,0,0,0,773.741516
-146,-783,3,0,0,0,952.139343
1851,-565,4,1,0,10,55.981026
402,1376,1,0,0,0,783.013245
-154,25,2,0,0,0,1403.081299
-1175,-905,3,0,0,0,773.243042
305,-872,4,1,0,8,60.241997
1293,836,1,0,0,0,762.489014
-600,78,2,1,0,8,60.241997
-164,-1727,3,0,0,0,728.271240
504,-92,4,0,0,0,1060.091064
1662,1978,1,0,0,10,55.981026
-1757,168,2,0,0,0,704.189026
-727,-1026,3,0,0,0,820.677185
864,-210,4,0,0,0,901.204285
839,490,1,1,0,10,55.981026
-1586,330,2,0,0,0,728.759277
-1809,-1431,3,0,0,8,60.241997
968,-1041,4,1,0,27,162.064545
1430,121,1,0,0,0,782.694824
-1084,11,2,0,0,0,844.153809
-272,-1274,3,0,0,0,810.511597
1132,-496,4,1,0,10,55.981026
1578,621,1,0,0,0,734.786133
-112,1076,2,0,0,0,844.749451
-1547,-340,3,0,0,0,754.365356
1378,-645,4,0,0,0,746.747986
1998,58,1,0,0,10,55.981026
-641,1191,2,1,0,10,55.981026
-1077,-472,3,0,0,0,839.968018
834,-1226,4,1,0,27,142.673782
1234,1731,1,0,0,10,55.981026
-446,840,2,0,0,0,881.824219
-1948,-1801,3,1,0,8,60.241997
1749,-304,4,0,0,0,702.537659
1426,430,1,0,0,0,772.025696
-1008,1155,2,0,0,0,744.584290
-124,-1835,3,1,0,8,60.241997
550,-974,4,1,0,8,60.241997
309,999,1,0,0,0,873.735840
-1005,1399,2,0,0,0,711.161438
-1310,-324,3,1,0,16,184.684540
1755,-107,4,0,0,0,705.287231
44,1912,1,0,0,10,55.981026
-170,363,2,0,0,0,1130.866455
-298,-1674,3,0,0,0,734.022705
1443,-164,4,0,0,0,760.105164
1062,693,1,1,0,10,55.981026
-1021,1709,2,0,0,0,669.758911
-207,-908,3,0,0,0,907.096558
746,-156,4,0,0,0,945.607361
885,162,1,0,0,0,917.036194
-456,964,2,0,0,0,848.875488
-987,-1411,3,0,0,0,730.398682
990,-197,4,0,0,0,864.683716
527,1588,1,0,0,0,738.639832
-238,1082,2,0,0,0,837.903076
-1589,-1320,3,0,0,8,60.241997
1562,-203,4,0,0,0,736.806641
1090,480,1,1,0,10,55.981026
-299,999,2,0,0,0,855.321899
-1447,-1635,3,0,0,8,60.241997
1256,-155,4,0,0,0,799.644043
1654,1001,1,0,0,10,55.981026
-689,165,2,0,0,0,966.643127
-657,-641,3,0,0,0,911.271179
683,-1758,4,0,0,0,685.211792
1505,747,1,0,0,0,737.437927
-8,166,2,0,0,0,1384.850098
-866,-1967,3,0,0,8,60.241997
482,-518,4,0,0,0,967.016235
162,689,1,0,0,0,986.167419
-1190,1257,2,0,0,0,709.772095
-198,-1178,3,0,0,0,835.444763
1449,-174,4,0,0,0,758.701355
1818,1094,1,0,0,10,55.981026
-1188,1303,2,0,0,0,704.470764
-566,-163,3,0,0,0,1039.128296
1369,-1336,4,0,0,0,681.168701
1862,1624,1,0,0,10,55.981026
-1539,1693,2,0,0,0,630.055298
-23,-1305,3,0,0,0,809.962646
1494,-579,4,0,0,0,731.908264
222,44,1,0,0,0,1315.021240
-1567,590,2,1,0,8,60.241997
-1013,-176,3,0,0,0,878.600342
1920,-1050,4,0,0,0,642.742310
332,1863,1,0,0,10,55.981026
-1096,378,2,0,0,0,824.837219
-840,-829,3,0,0,0,838.918335
120,-1664,4,0,0,0,720.328918
1724,1675,1,0,0,10,55.981026
-631,210,2,0,0,0,984.885620
-159,-1995,3,0,0,8,60.241997
1545,-489,4,0,0,0,728.658264
460,1953,1,0,0,10,55.981026
-880,1934,2,0,0,0,651.151123
-124,-733,3,0,0,0,972.013916
1657,-434,4,0,0,0,712.774048
673,626,1,0,0,0,910.882874
-1031,604,2,0,0,0,816.153625
-979,-1419,3,0,0,0,730.065002
1330,-1450,4,0,0,0,673.104919
1346,187,1,0,0,0,798.367676
-652,26,2,0,0,0,990.358704
-793,-220,3,0,0,0,942.724304
1874,-1373,4,0,0,0,625.708740
747,479,1,0,0,0,921.008179
-825,1979,2,0,0,0,648.573547
-1521,-1537,3,0,0,8,60.241997
1387,-644,4,0,0,0,745.293152
1321,360,1,0,0,0,796.208618
-897,1224,2,0,0,0,747.501221
-319,-69,3,0,0,0,1209.401001
323,-1098,4,0,0,0,828.539856
598,1943,1,0,0,10,55.981026
-1105,893,2,0,0,0,766.412598
-1956,-974,3,1,0,8,60.241997
1027,-1183,4,0,0,0,738.366211
1461,1494,1,0,0,10,55.981026
-1903,351,2,0,0,0,677.864441
-1754,-1169,3,0,0,8,60.241997
920,-1656,4,0,0,0,683.943787
1464,1217,1,0,0,10,55.981026
-1485,516,2,0,0,0,737.361084
-1089,-198,3,0,0,0,857.376709
175,-484,4,0,0,0,1058.777954
564,714,1,0,0,0,913.795227
-1450,1478,2,0,0,0,658.539795
-1847,-1132,3,0,0,8,60.241997
1882,-570,4,1,0,10,55.981026
417,534,1,0,0,0,998.761963
-128,1515,2,0,0,0,746.952576
-1348,-484,3,0,0,0,783.266602
1253,-454,4,1,0,10,55.981026
965,1673,1,0,0,10,55.981026
-1249,1116,2,1,0,8,60.241997
-908,-1147,3,0,0,0,777.185974
1622,-1016,4,0,0,0,681.009216
568,1766,1,0,0,10,55.981026
-869,1408,2,0,0,0,722.699768
-549,-911,3,1,0,8,60.241997
1197,-496,4,0,0,0,792.873962
930,1042,1,0,0,0,790.497192
-500,44,2,0,0,0,1066.002075
-1421,-360,3,0,0,0,776.598938
11,-1733,4,0,0,0,709.425415
1334,1754,1,0,0,10,55.981026
-1385,82,2,0,0,0,773.224121
-1221,-561,3,0,0,0,801.603882
1243,-1154,4,0,0,0,715.596313
1939,1325,1,1,0,10,55.981026
-1309,748,2,0,0,0,749.369751
-274,-99,3,0,0,0,1242.165039
659,-752,4,0,0,0,867.410645
1298,1403,1,0,0,10,55.981026
-767,1340,2,0,0,0,742.535950
-1368,-1915,3,0,0,8,60.241997
331,-870,4,0,0,0,888.011780
1179,45,1,0,0,0,838.998413
-1805,1847,2,0,0,0,595.612366
-71,-1813,3,0,0,8,60.241997
1288,-226,4,0,0,0,790.228882
580,916,1,0,0,0,863.332214
-36,1761,2,0,0,0,704.781128
-1668,-457,3,1,0,8,60.241997
505,-721,4,0,0,0,904.098083
108,488,1,0,0,0,1086.478638
-1165,1310,2,0,0,0,706.130127
-105,-114,3,0,0,0,1424.253784
890,-205,4,0,0,0,893.487366
501,1493,1,0,0,0,756.019836
-1904,906,2,0,0,0,653.339355
-94,-809,3,0,0,0,945.718689
62,-826,4,0,0,0,921.615417
856,917,1,0,0,0,821.367981
-84,586,2,0,0,0,1018.421143
-1852,-889,3,0,0,8,60.241997
261,-290,4,0,0,0,1138.655762
1518,911,1,0,0,10,55.981026
-167,964,2,0,0,0,873.677673
-62,-650,3,0,0,0,1009.413391
1985,-1261,4,1,0,27,127.294296
470,265,1,0,0,0,1064.409424
-1877,337,2,0,0,0,682.045105
-720,-1283,3,0,0,0,775.557068
279,-864,4,0,0,0,895.187073
1767,698,1,0,0,10,55.981026
-417,1985,2,0,0,0,664.417358
-1501,-959,3,0,0,8,60.241997
1707,-107,4,0,0,0,713.199829
76,541,1,0,0,0,1060.823242
-921,606,2,0,0,0,839.303467
-421,-1159,3,0,0,0,826.304138
1224,-346,4,1,0,10,55.981026
332,190,1,0,0,0,1163.611938
-277,1344,2,0,0,0,776.382996
-1150,-1805,3,0,0,8,60.241997
628,-675,4,0,0,0,890.771545
1942,1736,1,0,0,10,55.981026
-240,359,2,0,0,0,1109.381836
-696,-1839,3,0,0,8,60.241997
252,-731,4,0,0,0,941.448303
304,1463,1,0,0,0,771.096191
-645,64,2,0,0,0,992.286926
-921,-1626,3,0,0,8,60.241997
1513,-859,4,0,0,0,708.302856
965,1472,1,0,0,0,724.113159
-1890,1175,2,0,0,0,637.947205
-1658,-130,3,0,0,0,740.371887
789,-999,4,0,0,0,797.952942
149,1784,1,0,0,10,55.981026
-187,1907,2,0,0,0,680.678894
-1211,-947,3,0,0,0,762.938843
227,-470,4,0,0,0,1054.727173
1131,1958,1,0,0,10,55.981026
-374,205,2,0,0,0,1112.967651
-1244,-1325,3,0,0,8,60.241997
417,-534,4,0,0,0,979.517761
827,79,1,0,0,0,940.001709
-606,100,2,0,0,0,1007.805542
-203,-1647,3,0,0,0,740.997986
252,-1505,4,0,0,0,745.906250
1341,707,1,0,0,0,766.954834
-1072,1741,2,0,0,0,662.139282
-135,-793,3,1,0,8,60.241997
1772,-1476,4,0,0,0,627.793518
171,596,1,0,0,0,1024.320068
-1367,1324,2,0,0,0,682.637451
-767,-1741,3,0,0,8,60.241997
590,-695,4,0,0,0,894.006165
272,295,1,0,0,0,1149.818970
-310,1839,2,0,0,0,688.425842
-1949,-1677,3,0,0,8,60.241997
1293,-1775,4,0,0,0,641.746399
1386,280,1,0,0,0,786.952087
-1917,1570,2,0,0,0,607.364868
-486,-385,3,0,0,0,1024.333496
775,-1741,4,0,0,0,682.241577
1356,890,1,0,0,0,747.551147
-1157,1345,2,0,0,0,702.707642
-1909,-612,3,0,0,8,60.241997
1933,-1165,4,0,0,0,633.947021
1292,1625,1,0,0,10,55.981026
-1372,1413,2,0,0,0,672.826477
-515,-1022,3,0,0,0,847.770996
568,-1822,4,0,0,0,681.824829
976,1788,1,0,0,10,55.981026
-868,804,2,0,0,0,818.994751
-1978,-102,3,0,0,8,60.241997
1289,-488,4,0,0,0,775.122620
1684,402,1,0,0,0,728.842102
-543,1759,2,0,0,0,692.138184
-391,-960,3,0,0,0,876.259033
61,-1410,4,0,0,0,768.320801
642,566,1,0,0,0,931.423157
-604,1036,2,0,0,0,815.116638
-562,-1042,3,0,0,0,838.015747
637,-1497,4,0,0,0,727.536438
795,754,1,0,0,0,860.293579
-149,42,2,0,0,0,1405.327271
-1626,-1183,3,0,0,8,60.241997
135,-724,4,0,0,0,955.474731
356,1128,1,1,0,10,55.981026
-565,774,2,0,0,0,879.646973
-702,-723,3,0,0,0,884.381165
1298,-230,4,1,0,10,55.981026
374,1983,1,0,0,10,55.981026
-335,1739,2,0,0,0,703.223999
-1774,-1858,3,0,0,8,60.241997
150,-33,4,0,0,0,1407.608521
1570,81,1,1,0,10,55.981026
-1845,1615,2,0,0,0,610.348999
-997,-1120,3,1,0,8,60.241997
1367,-1094,4,1,0,27,309.043335
1302,1447,1,0,0,10,55.981026
-1046,876,2,0,0,0,778.037720
-495,-1461,3,0,0,0,761.957214
1970,-778,4,0,0,0,652.057068
1999,547,1,1,0,10,55.981026
-242,1985,2,0,0,0,668.478882
-1773,-1150,3,1,0,8,60.241997
345,-799,4,0,0,0,907.376343
23,1718,1,0,0,0,731.030334
-804,1618,2,0,0,0,697.498352
-910,-1686,3,0,0,8,60.241997
196,-1546,4,0,0,0,739.875061
1329,570,1,0,0,0,780.507996
-331,1256,2,0,0,0,792.168030
-1662,-886,3,0,0,8,60.241997
1362,-1043,4,0,0,0,712.340759
1411,595,1,0,0,0,764.059753
-133,129,2,1,0,0,479.176910
-795,-1215,3,0,0,0,779.337524
1260,-1173,4,0,0,0,711.340088
1106,775,1,0,0,0,800.154785
-780,1763,2,0,0,0,678.939087
-1946,-1731,3,0,0,8,60.241997
785,-1362,4,0,0,0,737.373169
1476,359,1,0,0,0,766.373230
-1627,1664,2,0,0,0,625.207947
-1609,-1187,3,0,0,8,60.241997
1823,-933,4,1,0,27,142.557785
1736,1590,1,0,0,10,55.981026
-1913,1636,2,0,0,0,602.893677
-654,-1960,3,1,0,8,60.241997
1445,-927,4,0,0,0,712.123840
8,268,1,1,0,10,55.981026
-117,1966,2,0,0,0,672.830261
-554,-383,3,1,0,8,60.241997
945,-1655,4,0,0,0,682.227966
685,1137,1,0,0,0,805.114563
-1162,63,2,0,0,0,823.759338
-642,-1882,3,0,0,8,60.241997
373,-1263,4,0,0,0,788.203552
679,1247,1,1,0,10,55.981026
-1942,1270,2,0,0,0,626.045410
-1549,-543,3,0,0,0,744.134521
370,-1011,4,0,0,0,846.145203
332,1929,1,0,0,10,55.981026
-329,1573,2,0,0,0,731.057007
-1831,-392,3,0,0,8,60.241997
757,-1897,4,0,0,0,662.433533
1514,195,1,0,0,0,764.964050
-1251,83,2,0,0,0,802.331482
-455,-292,3,0,0,0,1063.834229
1294,-212,4,0,0,0,789.444763
337,364,1,0,0,0,1088.655640
-303,1537,2,0,0,0,738.368530
-1570,-732,3,0,0,0,728.686218
406,-1822,4,0,0,0,688.158752
1637,1940,1,0,0,10,55.981026
-1542,537,2,0,0,0,726.492249
-1938,-969,3,0,0,8,60.241997
1289,-302,4,0,0,0,786.685364
523,840,1,0,0,0,889.636475
-333,1492,2,0,0,0,745.388428
-1430,-1909,3,1,0,8,60.241997
1367,-1617,4,0,0,0,652.146301
1489,1736,1,0,0,10,55.981026
-35,1830,2,0,0,0,693.786133
-1213,-1222,3,0,0,0,730.419861
244,-203,4,0,0,0,1198.183472
35,1255,1,0,0,0,821.128296
-1109,1797,2,0,0,0,652.921448
-1739,-499,3,0,0,8,60.241997
1920,-1550,4,0,0,0,608.547913
466,1857,1,0,0,10,55.981026
-1771,1733,2,0,0,0,607.366394
-521,-914,3,1,0,8,60.241997
1532,-995,4,0,0,0,694.345703
447,1665,1,0,0,0,730.063232
-295,1391,2,0,0,0,766.168762
-1170,-1330,3,0,0,8,60.241997
993,-705,4,0,0,0,810.691162
1070,1497,1,0,0,10,55.981026
-721,348,2,0,0,0,931.425415
-976,-611,3,0,0,0,846.003967
628,-1302,4,0,0,0,761.442322
271,1383,1,0,0,0,787.908569
-648,1094,2,0,0,0,798.288696
-1548,-938,3,1,0,8,60.241997
1952,-509,4,0,0,0,665.978821
1277,1524,1,1,0,10,55.981026
-527,1081,2,0,0,0,814.301636
-237,-391,3,0,0,0,1112.163086
1584,-1737,4,0,0,0,622.340515
583,1796,1,0,0,10,55.981026
-735,1693,2,1,0,10,55.981026
-1510,-1385,3,0,0,8,60.241997
1962,-856,4,0,0,0,649.036194
1332,564,1,0,0,0,780.427002
-51,18,2,0,0,0,1708.761719
-231,-747,3,0,0,0,957.467957
1363,-1397,4,0,0,0,675.413086
1102,84,1,1,0,10,55.981026
-616,357,2,0,0,0,965.226562
-1408,-1323,3,1,0,8,60.241997
520,-404,4,0,0,0,987.730469
390,1781,1,0,0,10,55.981026
-1642,1834,2,0,0,0,609.231140
-155,-1831,3,0,0,8,60.241997
119,-1972,4,0,0,0,671.945312
247,102,1,0,0,0,1267.079590
-1036,73,2,1,0,8,60.241997
-990,-621,3,0,0,0,841.744690
653,-1950,4,1,0,8,60.241997
159,1550,1,0,0,0,759.076965
-124,248,2,0,0,0,1237.177856
-1833,-23,3,0,0,8,60.241997
1792,-848,4,0,0,0,670.944702
1012,1579,1,0,0,10,55.981026
-1131,1402,2,0,0,0,698.358948
-257,-683,3,0,0,0,977.359619
1373,-379,4,0,0,0,765.682007
421,189,1,0,0,0,1109.489502
-582,30,2,0,0,0,1022.945068
-320,-1848,3,0,0,8,60.241997
169,-388,4,0,0,0,1115.201538
495,1030,1,0,0,0,848.187256
-1927,1552,2,0,0,0,607.776855
-771,-674,3,0,0,0,879.752380
1591,-1830,4,0,0,0,613.507446
1832,1171,1,0,0,10,55.981026
-1856,1962,2,0,0,0,582.911865
-1052,-1567,3,1,0,8,60.241997
975,-994,4,0,0,0,772.204773
150,1223,1,0,0,0,826.521118
-44,916,2,0,0,0,892.307007
-674,-57,3,0,0,0,999.239990
268,-478,4,0,0,0,1040.680786
1308,671,1,0,0,0,775.781555
-1758,1061,2,0,0,0,660.914062
-1161,-206,3,0,0,0,839.175049
1559,-625,4,0,0,0,718.395508
350,1092,1,0,0,0,847.195068
-1626,508,2,0,0,0,714.348328
-569,-433,3,0,0,0,983.238770
1950,-444,4,0,0,0,668.448547
1816,1538,1,0,0,10,55.981026
-1653,1033,2,0,0,0,675.784424
-1952,-355,3,0,0,8,60.241997
925,-100,4,0,0,0,888.150879
1204,1041,1,0,0,0,752.971619
-715,1764,2,0,0,0,682.587952
-1705,-44,3,0,0,0,733.138611
1481,-1087,4,0,0,0,692.730347
876,296,1,0,0,0,909.156738
-1394,1022,2,0,0,0,710.175659
-1667,-556,3,0,0,0,724.575684
1156,-1233,4,0,0,0,716.602966
1219,1779,1,0,0,10,55.981026
-140,319,2,0,0,0,1171.331177
-1962,-943,3,0,0,8,60.241997
1700,-57,4,0,0,0,714.777893
406,349,1,0,0,0,1066.649536
-436,1968,2,0,0,0,666.198914
1657,-1018,4,0,0,0,676.445068
109,54,1,0,0,0,1494.150024
-1132,380,2,1,0,8,60.241997
98,-1376,4,0,0,0,774.872375
1090,1000,1,0,0,0,773.999084
-623,1737,2,1,0,10,55.981026
1482,-815,4,0,0,0,716.406189
1296,365,1,0,0,0,801.025757
-926,117,2,0,0,0,887.232300
1004,-17,4,1,0,10,55.981026
1749,448,1,0,0,10,55.981026
-326,777,2,0,0,0,916.687012
1455,-972,4,0,0,0,706.667664
590,1518,1,0,0,0,746.378784
-1738,1810,2,0,0,0,603.778137
1513,-1428,4,0,0,0,657.168945
873,1328,1,0,0,0,753.401917
-1701,212,2,1,0,8,60.241997
1379,-1829,4,0,0,0,629.726013
1619,1153,1,0,0,10,55.981026
-1482,1409,2,0,0,0,662.093628
1392,-1344,4,0,0,0,677.887817
140,5,1,0,0,0,1453.412842
-54,1218,2,0,0,0,810.365417
1834,-1984,4,1,0,27,101.751213
1077,398,1,0,0,0,846.826782
-1918,438,2,0,0,0,673.135559
927,-1279,4,0,0,0,735.992981
606,1167,1,0,0,0,807.821106
-994,1362,2,1,0,10,55.981026
1481,-1687,4,0,0,0,635.476562
215,1332,1,0,0,0,800.423889
-1012,154,2,0,0,0,860.652039
1696,-1453,4,0,0,0,636.946167
1077,44,1,0,0,0,865.005859
-1439,67,2,0,0,0,762.433289
900,-129,4,0,0,0,894.785156
1872,1186,1,0,0,10,55.981026
-1411,863,2,0,0,0,722.800964
1582,-1175,4,0,0,0,672.664551
311,486,1,0,0,0,1045.069946
-812,1227,2,1,0,10,55.981026
859,-1493,4,0,0,0,711.175781
1237,688,1,0,0,0,786.656616
-1054,1732,2,1,0,10,55.981026
1449,-1684,4,0,0,0,638.445007
968,930,1,0,0,0,801.893982
-1334,1374,2,0,0,0,680.841919
1299,1961,1,0,0,10,55.981026
-1307,1475,2,0,0,0,672.645203
504,1290,1,0,0,0,792.914612
-1976,209,2,0,0,0,670.295837
1585,1910,1,0,0,10,55.981026
-433,610,2,0,0,0,950.979919
1843,511,1,1,0,10,55.981026
-1017,1225,2,0,0,0,733.727234
1580,822,1,0,0,10,55.981026
-1930,1988,2,0,0,0,575.664246
1208,24,1,0,0,0,832.160950
803,1842,1,1,0,10,55.981026
1102,1197,1,0,0,0,746.661011
1653,1464,1,0,0,10,55.981026
1984,469,1,0,0,10,55.981026
1067,1366,1,0,0,0,728.508484
75,125,1,0,0,0,1441.936401
398,37,1,0,0,0,1150.930420
1977,1779,1,0,0,10,55.981026
1160,1442,1,0,0,10,55.981026
517,948,1,0,0,0,864.495422
1762,1135,1,0,0,10,55.981026
1966,1262,1,0,0,10,55.981026
725,1518,1,0,0,0,737.086975
1246,1655,1,0,0,10,55.981026
1234,1529,1,0,0,10,55.981026
1109,220,1,0,0,0,851.265381
306,526,1,0,0,0,1029.723755
783,131,1,0,0,0,953.085938
1271,1170,1,0,0,0,729.470947
1071,1140,1,0,0,0,757.966370
1864,1037,1,0,0,10,55.981026
1869,1288,1,0,0,10,55.981026
1930,1787,1,0,0,10,55.981026
