351.584686,343.994934,339.521179,344.120728,350.469269,344.040771,343.799988,345.026062,344.166870,350.503632,344.826965,350.704651,344.374573,342.582458,352.044464,350.507812,352.065369,348.801331,347.147430,351.577667,351.386993,351.692566,344.888916,340.825439,351.081512,342.474274,344.602783,337.638611,351.943390,349.739380,344.298981,351.332001,340.763062,350.755768,343.147614,352.267303,344.089294,343.171967,345.394531,345.536926,351.546478,350.945862,345.316376,339.685547,351.239075,351.373138,351.594360,345.989044,351.152435,343.153137,350.315979,346.609100,347.881287,352.110352,350.982147,350.671234,347.628265,350.668274,344.834961,345.735199,350.907745,350.759674,351.901093,351.551331,345.324066,350.440948,344.105377,352.021362,344.038940,351.751801,338.520233,351.553741,351.277344,344.603333,342.413940,348.330353,344.480408,343.289246,352.001343,343.368011,345.594910,343.201050,349.261139,344.252563,350.158325,350.504517,348.321350,336.848297,338.150604,352.227966,352.258209,342.786224,348.903320,342.851624,346.632477,351.106598,350.764496,351.390137,351.172485,349.552887,

avg. max avg. throughput in test times
347.369049
avg. BS TX power in all test times
MBS area 1,MBS area 2,MBS area 3,MBS area 4,CBSD 1,CBSD 2,CBSD 3,CBSD 4,CBSD 5,CBSD 6,CBSD 7,CBSD 8,CBSD 9,CBSD 10,CBSD 11,CBSD 12,CBSD 13,CBSD 14,CBSD 15,CBSD 16,CBSD 17,CBSD 18,CBSD 19,CBSD 20,CBSD 21,CBSD 22,CBSD 23,CBSD 24,CBSD 25,CBSD 26,CBSD 27,CBSD 28,
10.000,10.000,10.000,10.000,0.180,0.140,0.130,0.200,0.160,0.200,0.110,0.200,0.120,0.130,0.080,0.130,0.150,0.120,0.120,0.150,0.120,0.090,0.150,0.100,0.130,0.130,0.240,0.180,0.110,0.120,0.210,0.100,
avg. mbs all power,avg. cbsd enable number,avg. mbs area all power,avg. cbsd all power
70.000,4.000,40.000,4.000
avg. number of relay UE
757

BS TX power
MBS area 1,MBS area 2,MBS area 3,MBS area 4,CBSD 1,CBSD 2,CBSD 3,CBSD 4,CBSD 5,CBSD 6,CBSD 7,CBSD 8,CBSD 9,CBSD 10,CBSD 11,CBSD 12,CBSD 13,CBSD 14,CBSD 15,CBSD 16,CBSD 17,CBSD 18,CBSD 19,CBSD 20,CBSD 21,CBSD 22,CBSD 23,CBSD 24,CBSD 25,CBSD 26,CBSD 27,CBSD 28,
10.000,10.000,10.000,10.000,0.000,0.000,0.000,0.000,0.000,0.000,0.000,0.000,0.000,1.000,0.000,0.000,0.000,0.000,0.000,1.000,0.000,0.000,0.000,0.000,0.000,0.000,0.000,1.000,0.000,0.000,1.000,0.000,
max average power
349.552887

x,y,area,be blocked (1 : NLOS / 0 : LOS),be blocked number (>=1 : CBSD(x) / 0 : no),connect bs number (>=1 : CBSD / 0 : MBS),throughput (unit : M bps)
865,701,1,0,0,0,855.683655
-1613,248,2,1,0,16,107.777298
-1396,-382,3,0,0,0,780.260986
202,-1381,4,1,0,27,36.219929
1836,241,1,1,0,10,26.477512
-110,81,2,0,0,0,1460.679321
-1263,-766,3,0,0,0,774.404724
692,-1845,4,0,0,27,36.219929
940,1828,1,0,0,10,26.477512
-1989,949,2,0,0,10,26.477512
-1260,-1233,3,0,0,24,90.243469
484,-92,4,0,0,0,1090.629150
1001,571,1,0,0,0,845.771179
-66,511,2,0,0,0,1077.706787
-1052,-1554,3,0,0,24,90.243469
1419,-285,4,0,0,0,780.257690
1341,922,1,1,0,10,26.477512
-866,1646,2,0,0,10,26.477512
-820,-274,3,0,0,0,928.511902
1166,-834,4,0,0,0,783.004150
427,189,1,1,0,10,26.477512
-1367,878,2,1,0,10,26.477512
-636,-1860,3,0,0,27,36.219929
917,-1705,4,0,0,27,36.219929
1923,1804,1,1,0,10,26.477512
-1244,957,2,0,0,0,756.987427
-1274,-891,3,0,0,0,759.718140
1378,-1084,4,0,0,0,725.230774
492,1590,1,0,0,0,740.149170
-1054,100,2,0,0,0,870.169495
-283,-443,3,0,0,0,1071.925537
1221,-1827,4,1,0,27,36.219929
275,1570,1,0,0,0,752.562744
-332,1034,2,0,0,0,862.852417
-632,-1992,3,1,0,27,36.219929
296,-1255,4,1,0,27,36.219929
823,688,1,1,0,10,26.477512
-558,616,2,1,0,10,26.477512
-1834,-1080,3,0,0,24,90.243469
1770,-370,4,0,0,27,36.219929
1000,507,1,0,0,0,853.675415
-14,117,2,1,0,10,26.477512
-1579,-1274,3,1,0,24,90.243469
745,-1712,4,0,0,27,36.219929
1314,1735,1,0,0,10,26.477512
-1451,1287,2,0,0,10,26.477512
-209,-5,3,0,0,0,1337.906616
1226,-375,4,0,0,0,815.104004
66,68,1,1,0,0,783.970093
-356,919,2,1,0,10,26.477512
-1985,-514,3,0,0,16,110.067947
162,-1129,4,1,0,27,36.219929
1254,22,1,0,0,0,821.425049
-27,959,2,0,0,0,898.540527
-661,-1046,3,1,0,24,90.243469
479,-253,4,0,0,0,1063.262573
192,1937,1,0,0,10,26.477512
-572,780,2,0,0,0,896.186157
-743,-298,3,1,0,16,154.932449
1396,-56,4,1,0,10,26.477512
95,1988,1,0,0,10,26.477512
-1113,436,2,0,0,0,835.245422
-134,-671,3,0,0,0,995.916565
574,-903,4,1,0,27,36.219929
737,504,1,0,0,0,919.238586
-1664,1158,2,0,0,10,26.477512
-1617,-649,3,1,0,16,142.035629
1655,-291,4,1,0,27,36.219929
856,203,1,1,0,10,26.477512
-46,423,2,0,0,0,1132.904541
-1604,-371,3,1,0,16,143.899597
413,-1715,4,1,0,27,36.219929
227,240,1,0,0,0,1205.913696
-155,383,2,0,0,0,1141.378052
-736,-1401,3,0,0,0,754.612427
877,-1739,4,0,0,27,36.219929
452,1116,1,1,0,10,26.477512
-1270,1312,2,0,0,10,26.477512
-1580,-1234,3,0,0,24,90.243469
645,-1156,4,1,0,27,36.219929
1833,824,1,0,0,10,26.477512
-281,1757,2,0,0,10,26.477512
-1787,-504,3,0,0,16,126.186584
1604,-1186,4,0,0,27,36.219929
536,1615,1,0,0,0,733.802551
-1336,1194,2,0,0,10,26.477512
-698,-552,3,0,0,0,920.195190
1798,-1076,4,1,0,27,36.219929
1152,940,1,0,0,0,772.523132
-665,1897,2,0,0,10,26.477512
-226,-767,3,0,0,0,951.017151
1191,-945,4,1,0,27,36.219929
462,1937,1,0,0,10,26.477512
-1428,1560,2,0,0,10,26.477512
-1176,-455,3,0,0,0,819.879517
494,-886,4,0,0,0,882.480225
1216,863,1,0,0,0,771.699280
-1690,99,2,0,0,0,735.276855
-1586,-237,3,0,0,0,750.820251
258,-1655,4,1,0,27,36.219929
1420,1705,1,0,0,10,26.477512
-366,950,2,0,0,0,881.445435
-1407,-1849,3,1,0,24,90.243469
49,-264,4,1,0,10,26.477512
1587,782,1,0,0,10,26.477512
-1096,1538,2,0,0,10,26.477512
-1666,-786,3,0,0,16,131.390549
1101,-1591,4,0,0,27,36.219929
67,85,1,1,0,0,726.761414
-1774,1593,2,1,0,10,26.477512
-1231,-1545,3,0,0,24,90.243469
665,-1832,4,0,0,27,36.219929
1236,1221,1,1,0,10,26.477512
-1018,5,2,0,0,0,881.460083
-1253,-1825,3,0,0,24,90.243469
228,-795,4,0,0,0,941.293396
293,1423,1,0,0,0,779.165466
-287,1171,2,0,0,0,832.776123
-697,-678,3,1,0,24,90.243469
1587,-1176,4,0,0,27,36.219929
467,1649,1,0,0,0,731.749084
-1661,1103,2,0,0,10,26.477512
-1084,-167,3,1,0,16,169.259827
1920,-932,4,0,0,27,36.219929
1810,1093,1,0,0,10,26.477512
-622,508,2,1,0,10,26.477512
-1412,-1986,3,0,0,24,90.243469
1257,-612,4,0,0,0,790.207947
1429,518,1,1,0,10,26.477512
-1488,1920,2,0,0,10,26.477512
-478,-1451,3,0,0,0,764.738342
296,-1280,4,0,0,0,808.079651
12,523,1,0,0,0,1073.322754
-480,939,2,1,0,10,26.477512
-91,-1765,3,1,0,27,36.219929
29,-847,4,0,0,0,934.257019
620,416,1,1,0,10,26.477512
-1439,1138,2,0,0,10,26.477512
-481,-1073,3,0,0,0,839.970520
945,-418,4,1,0,27,36.219929
224,887,1,0,0,0,912.229004
-976,1025,2,0,0,0,786.679077
-1462,-286,3,0,0,0,771.969971
729,-524,4,1,0,27,36.219929
774,365,1,0,0,0,931.466431
-612,1702,2,1,0,10,26.477512
-1415,-1139,3,1,0,24,90.243469
61,-1204,4,1,0,27,36.219929
1066,1407,1,0,0,10,26.477512
-1939,1010,2,0,0,10,26.477512
-190,-1902,3,1,0,27,36.219929
275,-1058,4,0,0,0,860.960449
548,1906,1,0,0,10,26.477512
-1841,1426,2,0,0,10,26.477512
-478,-61,3,0,0,0,1097.015137
1165,-352,4,0,0,0,830.078918
343,1194,1,1,0,10,26.477512
-557,994,2,1,0,10,26.477512
-19,-1659,3,0,0,0,741.059204
1114,-1492,4,1,0,27,36.219929
269,1901,1,0,0,10,26.477512
-1806,800,2,0,0,10,26.477512
-1341,-1591,3,0,0,24,90.243469
230,-1050,4,0,0,0,865.808777
52,964,1,0,0,0,896.738831
-5,1567,2,0,0,0,757.446777
-512,-1970,3,0,0,27,36.219929
945,-884,4,0,0,0,812.436890
1989,516,1,1,0,10,26.477512
-1477,1991,2,0,0,10,26.477512
-1021,-198,3,1,0,16,172.778488
749,-191,4,0,0,0,960.778687
186,919,1,0,0,0,905.143372
-1244,203,2,0,0,0,819.993164
-588,-1750,3,1,0,27,36.219929
1377,-485,4,0,0,0,777.772278
1025,780,1,0,0,0,813.770020
-581,1137,2,0,0,0,816.278381
-1441,-1275,3,0,0,24,90.243469
1486,-1282,4,1,0,27,36.219929
338,442,1,1,0,10,26.477512
-1630,291,2,0,0,0,741.636719
-1403,-50,3,1,0,16,140.106110
1708,-925,4,1,0,27,36.219929
232,1982,1,0,0,10,26.477512
-1387,331,2,0,0,0,784.534607
-598,-1743,3,0,0,27,36.219929
1329,-697,4,1,0,27,36.219929
682,1539,1,0,0,0,736.899841
-628,1038,2,1,0,10,26.477512
-1964,-1158,3,1,0,24,90.243469
740,-1898,4,1,0,27,36.219929
898,496,1,1,0,10,26.477512
-1821,404,2,0,0,16,92.842285
-1361,-141,3,0,0,0,796.395691
1785,-1815,4,0,0,27,36.219929
1237,234,1,0,0,0,820.339233
-728,815,2,0,0,0,861.054504
-1670,-1587,3,1,0,24,90.243469
409,-99,4,0,0,0,1136.096191
178,226,1,1,0,10,26.477512
-215,657,2,0,0,0,992.968201
-1639,-1275,3,1,0,24,90.243469
49,-1879,4,0,0,27,36.219929
953,1545,1,1,0,10,26.477512
-1049,1687,2,1,0,10,26.477512
-371,-1649,3,0,0,0,735.730713
401,-1371,4,0,0,0,784.033203
16,861,1,1,0,10,26.477512
-610,1059,2,1,0,10,26.477512
-11,-1572,3,0,0,0,756.526855
810,-375,4,0,0,0,919.321838
410,766,1,0,0,0,927.096924
-1151,360,2,1,0,10,26.477512
-781,-470,3,1,0,16,169.932846
820,-1107,4,1,0,27,36.219929
1704,240,1,0,0,0,730.586060
-1938,875,2,0,0,10,26.477512
-869,-1207,3,1,0,24,90.243469
653,-510,4,0,0,0,940.768005
1234,1927,1,0,0,10,26.477512
-793,438,2,0,0,0,915.053162
-893,-1744,3,1,0,24,90.243469
1345,-1244,4,1,0,27,36.219929
1861,1384,1,1,0,10,26.477512
-496,394,2,0,0,0,1018.156494
-1447,-1810,3,0,0,24,90.243469
1146,-1970,4,1,0,27,36.219929
1551,1549,1,1,0,10,26.477512
-652,1609,2,0,0,0,728.054199
-77,-1393,3,1,0,27,36.219929
1120,-1286,4,0,0,0,733.176392
904,1942,1,1,0,10,26.477512
-975,1685,2,0,0,10,26.477512
-9,-1540,3,0,0,0,762.432495
788,-651,4,0,0,0,880.298645
352,866,1,1,0,10,26.477512
-1520,1709,2,0,0,10,26.477512
-868,-198,3,1,0,16,159.821365
681,-809,4,1,0,27,36.219929
1309,133,1,0,0,0,807.651123
-1518,239,2,0,0,0,763.053345
-1009,-1913,3,0,0,24,90.243469
1305,-1189,4,1,0,27,36.219929
1279,260,1,0,0,0,809.971985
-1219,1785,2,0,0,10,26.477512
-1722,-1260,3,0,0,24,90.243469
807,-1414,4,1,0,27,36.219929
305,1469,1,0,0,0,769.930420
-291,559,2,0,0,0,1019.633545
-1146,-1952,3,1,0,24,90.243469
510,-343,4,0,0,0,1026.857544
972,161,1,0,0,0,890.880249
-1001,1743,2,0,0,10,26.477512
-545,-535,3,1,0,16,136.438873
334,-1488,4,1,0,27,36.219929
1187,120,1,0,0,0,835.799744
-1236,744,2,1,0,10,26.477512
-1581,-1632,3,0,0,24,90.243469
1541,-1468,4,0,0,27,36.219929
658,292,1,0,0,0,981.285095
-1872,585,2,1,0,16,84.225922
-1296,-1412,3,0,0,24,90.243469
1200,-590,4,0,0,0,803.000549
1090,962,1,1,0,10,26.477512
-365,455,2,0,0,0,1041.929077
-915,-1162,3,0,0,0,774.040405
489,-1267,4,1,0,27,36.219929
1287,1035,1,0,0,0,742.370178
-1270,1922,2,0,0,10,26.477512
-1222,-692,3,1,0,16,198.059937
1641,-1984,4,0,0,27,36.219929
1530,1329,1,1,0,10,26.477512
-1829,442,2,0,0,16,91.017227
-1614,-1382,3,1,0,24,90.243469
1578,-1566,4,0,0,27,36.219929
1475,356,1,0,0,0,766.690796
-392,62,2,0,0,0,1152.989502
-517,-556,3,0,0,0,965.948486
164,-976,4,1,0,27,36.219929
545,347,1,0,0,0,1012.457764
-1103,1939,2,0,0,10,26.477512
-508,-90,3,1,0,10,26.477512
1348,-1562,4,0,0,27,36.219929
1077,635,1,0,0,0,822.328125
-1871,544,2,0,0,16,85.789131
-368,-603,3,0,0,0,986.724365
1062,-100,4,0,0,0,868.012329
1574,1288,1,1,0,10,26.477512
-702,1455,2,1,0,10,26.477512
-474,-1739,3,0,0,27,36.219929
1342,-1556,4,1,0,27,36.219929
1252,273,1,0,0,0,815.250000
-997,1811,2,1,0,10,26.477512
-1560,-962,3,0,0,24,90.243469
873,-1872,4,0,0,27,36.219929
1331,1700,1,1,0,10,26.477512
-1351,1410,2,0,0,10,26.477512
-1388,-1973,3,1,0,24,90.243469
1521,-795,4,0,0,0,731.350647
1672,919,1,0,0,10,26.477512
-95,762,2,0,0,0,962.675354
-1845,-1353,3,1,0,24,90.243469
926,-1211,4,0,0,0,765.347839
1430,1503,1,0,0,10,26.477512
-1492,230,2,0,0,0,768.157104
-390,-1634,3,0,0,0,737.487549
162,-742,4,1,0,27,36.219929
308,874,1,0,0,0,908.526855
-1878,790,2,1,0,10,26.477512
-1474,-87,3,1,0,16,138.659241
1657,-653,4,0,0,27,36.219929
1090,1873,1,0,0,10,26.477512
-1886,788,2,0,0,10,26.477512
-720,-413,3,0,0,0,940.252563
498,-1932,4,1,0,27,36.219929
249,1930,1,1,0,10,26.477512
-1386,905,2,1,0,10,26.477512
-544,-1982,3,1,0,27,36.219929
1224,-1937,4,0,0,27,36.219929
633,1137,1,0,0,0,810.816895
-1025,1631,2,0,0,10,26.477512
-408,-56,3,0,0,0,1142.322266
1750,-1528,4,0,0,27,36.219929
1014,577,1,1,0,10,26.477512
-1150,1864,2,0,0,10,26.477512
-1114,-1935,3,0,0,24,90.243469
1269,-1033,4,0,0,0,745.031860
1481,1108,1,1,0,10,26.477512
-1062,1347,2,0,0,0,731.507080
-265,-1467,3,0,0,0,771.771179
1376,-1018,4,0,0,0,732.120056
1399,1537,1,0,0,10,26.477512
-1928,770,2,0,0,10,26.477512
-1659,-773,3,0,0,16,132.630066
1346,-487,4,1,0,27,36.219929
948,801,1,0,0,0,824.445374
-160,44,2,0,0,0,1404.552734
-1495,-1735,3,1,0,24,90.243469
1015,-1640,4,0,0,27,36.219929
679,1538,1,1,0,10,26.477512
-115,639,2,0,0,0,1011.044861
-1725,-629,3,0,0,16,130.989746
81,-1442,4,0,0,0,780.866516
551,495,1,0,0,0,973.070801
-292,995,2,1,0,10,26.477512
-1078,-284,3,0,0,0,855.322449
1050,-1455,4,1,0,27,36.219929
286,1388,1,0,0,0,786.311096
-1203,448,2,0,0,0,814.736023
-254,-1664,3,1,0,27,36.219929
1618,-1491,4,1,0,27,36.219929
1036,901,1,1,0,10,26.477512
-1667,799,2,0,0,10,26.477512
-394,-1626,3,0,0,0,738.658203
1312,-1198,4,0,0,27,36.219929
1386,613,1,0,0,0,767.040100
-1043,824,2,0,0,0,804.720947
-1833,-1611,3,0,0,24,90.243469
1165,-156,4,1,0,10,26.477512
132,441,1,0,0,0,1110.207153
-1515,965,2,0,0,10,26.477512
-1829,-1131,3,0,0,24,90.243469
1812,-1233,4,0,0,27,36.219929
1620,1100,1,1,0,10,26.477512
-1910,1141,2,0,0,10,26.477512
-1043,-422,3,0,0,0,852.662109
515,-85,4,1,0,10,26.477512
172,691,1,0,0,0,984.423279
-1442,1992,2,0,0,10,26.477512
-1364,-1814,3,1,0,24,90.243469
711,-198,4,1,0,10,26.477512
1674,1384,1,1,0,10,26.477512
-1490,1413,2,1,0,10,26.477512
-613,-1109,3,0,0,0,818.471436
679,-1562,4,1,0,27,36.219929
1840,32,1,0,0,10,26.477512
-660,597,2,1,0,10,26.477512
-925,-1023,3,0,0,0,794.115295
1907,-1877,4,1,0,27,36.219929
913,757,1,1,0,10,26.477512
-935,1131,2,0,0,0,776.295410
-1485,-1298,3,0,0,24,90.243469
1764,-592,4,1,0,27,36.219929
1608,237,1,1,0,10,26.477512
-1130,1831,2,1,0,10,26.477512
-246,-728,3,1,0,27,36.219929
970,-419,4,0,0,0,870.742676
67,154,1,0,0,0,1401.089600
-1447,1595,2,0,0,10,26.477512
-1313,-1936,3,0,0,24,90.243469
1231,-226,4,0,0,0,822.026245
1934,665,1,0,0,10,26.477512
-697,1577,2,0,0,0,730.029480
-321,-1111,3,1,0,27,36.219929
1210,-1071,4,1,0,27,36.219929
1082,139,1,0,0,0,861.557068
-420,1329,2,0,0,0,791.089294
-1731,-547,3,0,0,16,131.500900
1654,-131,4,1,0,10,26.477512
1781,593,1,1,0,10,26.477512
-1947,477,2,1,0,16,86.067680
-1802,-189,3,0,0,16,118.801620
539,-310,4,1,0,10,26.477512
532,451,1,1,0,10,26.477512
-1466,1664,2,0,0,10,26.477512
-189,-1362,3,0,0,0,794.978088
226,-490,4,1,0,10,26.477512
601,109,1,1,0,10,26.477512
-913,475,2,0,0,0,878.321655
-926,-679,3,0,0,0,846.806824
1744,-276,4,1,0,27,36.219929
779,1075,1,0,0,0,805.075928
-1606,768,2,1,0,10,26.477512
-1444,-625,3,0,0,0,756.268433
1633,-845,4,0,0,27,36.219929
1150,665,1,0,0,0,804.891846
-1888,1187,2,1,0,10,26.477512
-1886,-829,3,0,0,16,112.525200
394,-1768,4,1,0,27,36.219929
1344,71,1,1,0,10,26.477512
-1459,754,2,0,0,0,743.977783
-918,-1602,3,1,0,24,90.243469
973,-1230,4,1,0,27,36.219929
314,1336,1,1,0,10,26.477512
-99,597,2,0,0,0,1031.329468
-1493,-1946,3,0,0,24,90.243469
561,-629,4,0,0,0,935.847717
1032,1162,1,1,0,10,26.477512
-982,1312,2,1,0,10,26.477512
-1877,-1483,3,1,0,24,90.243469
1466,-1250,4,1,0,27,36.219929
1332,1849,1,0,0,10,26.477512
-780,1530,2,1,0,10,26.477512
-617,-26,3,1,0,10,26.477512
1854,-1347,4,0,0,27,36.219929
1635,1206,1,0,0,10,26.477512
-588,332,2,0,0,0,999.731201
-766,-455,3,0,0,0,919.854919
527,-774,4,0,0,0,905.529114
452,1554,1,0,0,0,748.185974
-1863,1528,2,0,0,10,26.477512
-334,-56,3,1,0,10,26.477512
1337,-1959,4,1,0,27,36.219929
441,1247,1,0,0,0,806.138184
-1540,1947,2,1,0,10,26.477512
-587,-138,3,1,0,10,26.477512
834,-1295,4,0,0,0,762.378052
1575,1530,1,1,0,10,26.477512
-1384,255,2,0,0,0,788.317627
-475,-246,3,0,0,0,1066.899292
533,-564,4,0,0,0,959.649048
1656,1873,1,0,0,10,26.477512
-183,364,2,0,0,0,1145.429443
-512,-1155,3,0,0,0,819.322815
393,-1700,4,0,0,0,726.612610
850,1902,1,0,0,10,26.477512
-811,1858,2,1,0,10,26.477512
-375,-1254,3,0,0,0,809.155823
237,-1611,4,0,0,0,746.429443
177,1549,1,1,0,10,26.477512
-608,593,2,0,0,0,933.644104
-1488,-1144,3,0,0,24,90.243469
1853,-1224,4,1,0,27,36.219929
0,561,1,0,0,0,1053.173340
-554,1094,2,0,0,0,827.898926
-471,-1671,3,0,0,0,728.049377
1940,-1680,4,0,0,27,36.219929
1582,1811,1,0,0,10,26.477512
-923,541,2,0,0,0,867.159058
-1262,-729,3,1,0,16,184.240494
750,-335,4,0,0,0,943.262085
548,913,1,0,0,0,868.515442
-1144,619,2,0,0,0,810.949524
-1628,-1433,3,0,0,24,90.243469
831,-281,4,1,0,10,26.477512
1634,657,1,1,0,10,26.477512
-1850,210,2,1,0,16,99.914459
-1165,-1171,3,0,0,0,742.324280
1020,-690,4,0,0,0,826.685059
471,96,1,0,0,0,1097.729980
-325,1082,2,1,0,10,26.477512
-673,-989,3,0,0,0,835.025818
1535,-1512,4,0,0,27,36.219929
926,149,1,0,0,0,905.058105
-569,1141,2,1,0,10,26.477512
-1828,-1459,3,0,0,24,90.243469
1426,-1227,4,0,0,27,36.219929
73,1823,1,0,0,10,26.477512
-154,1817,2,1,0,10,26.477512
-1057,-1406,3,0,0,0,724.294678
97,-123,4,1,0,10,26.477512
1662,1912,1,1,0,10,26.477512
-881,74,2,1,0,16,130.786102
-961,-1075,3,1,0,24,90.243469
213,-560,4,0,0,0,1034.208374
905,476,1,0,0,0,880.180786
-1883,511,2,0,0,16,86.701614
-140,-575,3,1,0,10,26.477512
771,-1960,4,1,0,27,36.219929
1594,94,1,0,0,0,752.047058
-124,830,2,1,0,10,26.477512
-1198,-1736,3,0,0,24,90.243469
1506,-1047,4,0,0,27,36.219929
887,624,1,0,0,0,863.247803
-1678,1291,2,0,0,10,26.477512
-1434,-1983,3,1,0,24,90.243469
1876,-1695,4,1,0,27,36.219929
311,1659,1,0,0,0,736.124939
-788,97,2,0,0,0,953.062439
-614,-1572,3,0,0,0,736.166260
834,-1245,4,0,0,0,770.275696
1225,789,1,0,0,0,778.326355
-1978,1689,2,0,0,10,26.477512
-1868,-188,3,1,0,16,113.978470
1610,-825,4,0,0,27,36.219929
115,1456,1,0,0,0,777.650696
-910,1019,2,1,0,10,26.477512
-868,-980,3,1,0,24,90.243469
216,-1183,4,0,0,0,833.516663
1966,753,1,0,0,10,26.477512
-747,62,2,0,0,0,969.637939
-1438,-1883,3,1,0,24,90.243469
1126,-1367,4,0,0,27,36.219929
571,1993,1,0,0,10,26.477512
-1522,1870,2,1,0,10,26.477512
-1776,-1764,3,0,0,24,90.243469
401,-1754,4,0,0,27,36.219929
1593,1030,1,0,0,10,26.477512
-1154,1620,2,0,0,10,26.477512
-989,-212,3,0,0,0,883.317261
725,-365,4,0,0,0,946.692322
1128,1341,1,0,0,0,725.383606
-1962,45,2,0,0,16,100.851326
-201,-18,3,1,0,10,26.477512
601,-812,4,0,0,0,883.672302
1605,1688,1,1,0,10,26.477512
-267,1331,2,1,0,10,26.477512
-1677,-194,3,0,0,0,736.076355
1331,-1545,4,1,0,27,36.219929
1458,954,1,1,0,10,26.477512
-1653,1034,2,1,0,10,26.477512
-690,-111,3,0,0,0,989.821960
1208,-1575,4,1,0,27,36.219929
839,1392,1,0,0,0,746.966187
-1885,1987,2,0,0,10,26.477512
-860,-1030,3,0,0,0,802.007568
125,-1110,4,1,0,27,36.219929
615,1546,1,1,0,10,26.477512
-867,413,2,1,0,10,26.477512
-1467,-947,3,0,0,0,726.403381
488,-833,4,1,0,27,36.219929
991,1421,1,0,0,0,728.657532
-810,16,2,0,0,0,947.238464
-1608,-1723,3,1,0,24,90.243469
1158,-691,4,0,0,0,800.582214
1080,487,1,1,0,10,26.477512
-373,1403,2,1,0,10,26.477512
-771,-1707,3,0,0,24,90.243469
1166,-480,4,0,0,0,819.883545
624,1329,1,0,0,0,776.146851
-917,382,2,1,0,10,26.477512
-1121,-1281,3,1,0,24,90.243469
540,-846,4,1,0,27,36.219929
137,313,1,0,0,0,1196.191895
-1969,1065,2,1,0,10,26.477512
-901,-50,3,0,0,0,916.179016
1371,-1847,4,0,0,27,36.219929
727,187,1,0,0,0,969.216675
-1701,363,2,0,0,0,727.523132
-564,-1172,3,0,0,0,810.967896
1799,-1761,4,0,0,27,36.219929
637,1974,1,1,0,10,26.477512
-1304,255,2,0,0,0,804.833557
-616,-1943,3,0,0,27,36.219929
1774,-1695,4,0,0,27,36.219929
716,1751,1,0,0,10,26.477512
-1039,738,2,0,0,0,816.822876
-420,-374,3,1,0,10,26.477512
1798,-80,4,0,0,10,26.477512
1448,148,1,0,0,0,778.633606
-1233,362,2,0,0,0,814.438049
-1138,-1614,3,0,0,24,90.243469
977,-1187,4,0,0,0,762.928528
1076,273,1,1,0,10,26.477512
-1765,1083,2,0,0,10,26.477512
-230,-1959,3,1,0,27,36.219929
1551,-884,4,1,0,27,36.219929
919,598,1,0,0,0,860.098938
-1319,951,2,1,0,10,26.477512
-1622,-199,3,1,0,16,134.124176
264,-1755,4,0,0,27,36.219929
254,1399,1,0,0,0,785.357483
-1799,22,2,0,0,16,110.538864
-1184,-71,3,1,0,16,152.926331
838,-666,4,1,0,27,36.219929
930,1372,1,0,0,0,741.338623
-61,1092,2,1,0,10,26.477512
-203,-1978,3,0,0,27,36.219929
1867,-272,4,1,0,27,36.219929
1088,1078,1,0,0,0,764.005798
-1561,1599,2,1,0,10,26.477512
-1790,-1160,3,0,0,24,90.243469
885,-1930,4,0,0,27,36.219929
1093,948,1,0,0,0,780.356079
-1563,1831,2,0,0,10,26.477512
-373,-1518,3,1,0,27,36.219929
258,-1307,4,0,0,0,804.072571
555,643,1,0,0,0,933.612000
-1902,728,2,1,0,10,26.477512
-768,-757,3,1,0,24,90.243469
1914,-1522,4,1,0,27,36.219929
1992,653,1,1,0,10,26.477512
-494,1723,2,0,0,10,26.477512
-270,-635,3,0,0,0,993.496643
728,-596,4,0,0,0,904.156799
288,875,1,1,0,10,26.477512
-630,1374,2,0,0,0,767.791382
-734,-150,3,0,0,0,969.791077
1019,-376,4,1,0,27,36.219929
1909,17,1,0,0,10,26.477512
-77,1987,2,0,0,10,26.477512
-376,-450,3,0,0,0,1040.400879
1032,-153,4,0,0,0,874.402100
1023,1312,1,0,0,0,740.267822
-1965,1370,2,0,0,10,26.477512
-1742,-365,3,1,0,16,129.007965
930,-1539,4,0,0,27,36.219929
101,1513,1,1,0,10,26.477512
-988,562,2,1,0,10,26.477512
-1719,-808,3,0,0,24,90.243469
1487,-1654,4,0,0,27,36.219929
1942,412,1,1,0,10,26.477512
-1610,673,2,0,0,0,726.585388
-1898,-917,3,0,0,24,90.243469
1683,-1132,4,0,0,27,36.219929
384,149,1,1,0,10,26.477512
-99,1650,2,0,0,0,742.122986
-322,-1732,3,0,0,27,36.219929
773,-1786,4,0,0,27,36.219929
261,1144,1,0,0,0,840.578491
-1275,59,2,1,0,16,134.757111
-1204,-51,3,0,0,0,832.914124
1672,-887,4,1,0,27,36.219929
1284,1648,1,0,0,10,26.477512
-1615,541,2,0,0,0,733.536072
-1195,-1270,3,0,0,0,726.778564
1951,-725,4,1,0,27,36.219929
1062,1194,1,1,0,10,26.477512
-808,803,2,0,0,0,849.099365
-682,-146,3,0,0,0,990.407593
28,-1677,4,0,0,0,737.942749
1723,1664,1,0,0,10,26.477512
-1684,139,2,1,0,16,110.835487
-73,-1222,3,0,0,0,828.391296
31,-1891,4,0,0,27,36.219929
1920,420,1,1,0,10,26.477512
-150,85,2,1,0,10,26.477512
-1397,-902,3,0,0,0,740.405640
1004,-515,4,1,0,27,36.219929
1032,1750,1,0,0,10,26.477512
-608,1922,2,0,0,10,26.477512
-1065,-1894,3,0,0,24,90.243469
299,-480,4,0,0,0,1050.864746
504,1158,1,0,0,0,819.429932
-521,1362,2,0,0,0,778.100769
-1902,-524,3,1,0,16,116.291588
171,-1217,4,0,0,0,827.271179
690,659,1,0,0,0,900.118164
-1666,613,2,0,0,10,26.477512
-1589,-1464,3,0,0,24,90.243469
1030,-1016,4,1,0,27,36.219929
891,1910,1,0,0,10,26.477512
-869,321,2,0,0,0,908.617126
-192,-21,3,1,0,10,26.477512
1210,-929,4,0,0,0,765.153931
315,400,1,1,0,10,26.477512
-583,526,2,1,0,10,26.477512
-801,-1765,3,0,0,27,36.219929
1846,-1796,4,0,0,27,36.219929
1599,665,1,1,0,10,26.477512
-1821,310,2,1,0,16,96.828918
-1392,-1290,3,1,0,24,90.243469
1154,-1837,4,1,0,27,36.219929
1844,1311,1,0,0,10,26.477512
-599,249,2,1,0,10,26.477512
-274,-520,3,0,0,0,1039.731567
1992,-1625,4,0,0,27,36.219929
687,264,1,0,0,0,974.910889
-36,1096,2,0,0,0,860.057495
-1359,-351,3,1,0,16,179.545456
1978,-1585,4,1,0,27,36.219929
806,278,1,0,0,0,932.528687
-1185,465,2,1,0,10,26.477512
-1807,-1752,3,0,0,24,90.243469
1269,-337,4,1,0,27,36.219929
1746,864,1,0,0,10,26.477512
-248,1973,2,0,0,10,26.477512
-1917,-1932,3,1,0,24,90.243469
1768,-1369,4,0,0,27,36.219929
1988,430,1,0,0,10,26.477512
-1985,1899,2,0,0,10,26.477512
-1963,-1207,3,1,0,24,90.243469
809,-819,4,1,0,27,36.219929
1628,954,1,0,0,10,26.477512
-490,1461,2,0,0,0,762.254761
-130,-1188,3,0,0,0,835.308044
765,-852,4,1,0,27,36.219929
1743,9,1,1,0,10,26.477512
-1472,1860,2,1,0,10,26.477512
-1544,-1039,3,1,0,24,90.243469
663,-713,4,0,0,0,894.297485
374,909,1,0,0,0,891.556580
-1822,1423,2,1,0,10,26.477512
-159,-745,3,0,0,0,964.981567
1674,-362,4,1,0,27,36.219929
1866,150,1,1,0,10,26.477512
-1842,292,2,0,0,16,96.800545
-1562,-804,3,1,0,24,90.243469
808,-338,4,0,0,0,924.777649
265,1980,1,0,0,10,26.477512
-1678,1080,2,0,0,10,26.477512
-254,-566,3,1,0,10,26.477512
1533,-372,4,1,0,27,36.219929
1192,100,1,0,0,0,835.044556
-1652,1,2,0,0,0,742.290771
-1595,-272,3,0,0,0,748.252258
432,-1571,4,0,0,0,746.257568
1488,1840,1,0,0,10,26.477512
-1173,1732,2,0,0,10,26.477512
-475,-1485,3,0,0,0,758.895691
337,-1586,4,0,0,0,747.653198
557,1945,1,0,0,10,26.477512
-44,1508,2,1,0,10,26.477512
-575,-1162,3,0,0,0,811.889648
97,-1419,4,0,0,0,785.268372
1468,1743,1,1,0,10,26.477512
-1288,104,2,0,0,0,812.842712
-1249,-1229,3,1,0,24,90.243469
1021,-250,4,1,0,10,26.477512
1555,673,1,0,0,0,735.024170
-705,1292,2,1,0,10,26.477512
-1281,-1162,3,1,0,24,90.243469
1300,-1602,4,0,0,27,36.219929
889,704,1,1,0,10,26.477512
-577,1555,2,0,0,0,741.147156
-393,-1370,3,0,0,0,784.674622
1672,-172,4,1,0,10,26.477512
1249,215,1,1,0,10,26.477512
-217,414,2,1,0,10,26.477512
-1197,-220,3,0,0,0,830.071045
1083,-108,4,0,0,0,862.222656
590,945,1,0,0,0,855.509705
-1340,1855,2,1,0,10,26.477512
-1126,-1255,3,0,0,0,736.432312
1752,-1711,4,1,0,27,36.219929
1007,278,1,0,0,0,874.019043
-1551,17,2,0,0,0,760.377014
-622,-1714,3,1,0,27,36.219929
853,-303,4,0,0,0,915.277039
1038,1160,1,0,0,0,759.357117
-388,1416,2,1,0,10,26.477512
-1302,-1161,3,1,0,24,90.243469
1592,-656,4,0,0,0,730.412781
230,1265,1,0,0,0,814.282227
-639,1486,2,0,0,0,748.334167
-860,-1689,3,1,0,24,90.243469
1873,-915,4,1,0,27,36.219929
1118,835,1,1,0,10,26.477512
-673,610,2,0,0,0,914.294128
-1952,-182,3,1,0,16,108.164284
834,-1762,4,1,0,27,36.219929
1327,1268,1,0,0,10,26.477512
-459,1502,2,1,0,10,26.477512
-777,-1733,3,0,0,27,36.219929
232,-414,4,1,0,10,26.477512
629,461,1,0,0,0,958.226013
-782,1079,2,1,0,10,26.477512
-1701,-1461,3,0,0,24,90.243469
867,-1461,4,1,0,27,36.219929
1124,291,1,1,0,10,26.477512
-885,836,2,1,0,10,26.477512
-130,-1054,3,1,0,27,36.219929
1860,-1932,4,0,0,27,36.219929
1806,259,1,0,0,10,26.477512
-291,837,2,1,0,10,26.477512
-1968,-306,3,1,0,16,109.651375
911,-1155,4,1,0,27,36.219929
269,1198,1,1,0,10,26.477512
-1119,1002,2,1,0,10,26.477512
-363,-18,3,1,0,10,26.477512
335,-978,4,1,0,27,36.219929
1199,1736,1,1,0,10,26.477512
-1279,557,2,0,0,0,790.834351
-1103,-934,3,0,0,0,780.657349
1322,-1227,4,0,0,27,36.219929
1791,23,1,0,0,10,26.477512
-841,1292,2,0,0,0,762.138245
-736,-81,3,1,0,16,136.669830
376,-1903,4,0,0,27,36.219929
431,319,1,0,0,0,1066.205078
-502,978,2,1,0,10,26.477512
-679,-1375,3,0,0,0,763.648926
472,-671,4,1,0,27,36.219929
1722,725,1,1,0,10,26.477512
-918,1769,2,0,0,10,26.477512
-1102,-1885,3,1,0,24,90.243469
1488,-595,4,0,0,0,751.010071
560,174,1,0,0,0,1040.400879
-1133,245,2,0,0,0,844.083557
-232,-648,3,0,0,0,994.223999
1450,-1337,4,0,0,27,36.219929
997,189,1,0,0,0,882.382568
-247,251,2,0,0,0,1187.475952
-1906,-122,3,0,0,16,109.443405
104,-348,4,1,0,10,26.477512
1803,51,1,0,0,10,26.477512
-365,186,2,0,0,0,1143.842896
-1655,-223,3,0,0,0,739.189819
1908,-1509,4,1,0,27,36.219929
46,1543,1,1,0,10,26.477512
-1960,724,2,1,0,10,26.477512
-1716,-1855,3,1,0,24,90.243469
1892,-257,4,0,0,27,36.219929
882,663,1,0,0,0,858.275879
-1274,1488,2,0,0,10,26.477512
-1690,-1662,3,0,0,24,90.243469
1312,-1638,4,0,0,27,36.219929
951,1129,1,1,0,10,26.477512
-293,200,2,1,0,10,26.477512
-66,-107,3,0,0,0,1484.642944
629,-1679,4,0,0,27,36.219929
334,1313,1,0,0,0,799.238892
-1191,34,2,0,0,0,836.177490
-922,-1835,3,0,0,24,90.243469
1492,-1354,4,1,0,27,36.219929
1338,1491,1,0,0,10,26.477512
-664,1826,2,0,0,10,26.477512
-76,-870,3,0,0,0,925.612427
1665,-1502,4,1,0,27,36.219929
890,1267,1,1,0,10,26.477512
-745,218,2,0,0,0,959.561951
-1178,-1246,3,0,0,0,731.607300
1166,-1505,4,1,0,27,36.219929
205,1359,1,1,0,10,26.477512
-534,401,2,1,0,10,26.477512
-1665,-1460,3,1,0,24,90.243469
517,-529,4,0,0,0,973.464172
1698,1678,1,0,0,10,26.477512
-1777,1922,2,1,0,10,26.477512
-1903,-1480,3,1,0,24,90.243469
1795,-1888,4,0,0,27,36.219929
1665,449,1,1,0,10,26.477512
-776,1322,2,0,0,0,763.759155
-709,-1196,3,0,0,0,791.796753
987,-364,4,0,0,0,872.011169
1849,1125,1,1,0,10,26.477512
-1712,1800,2,0,0,10,26.477512
-456,-19,3,1,0,10,26.477512
1909,-260,4,1,0,27,36.219929
1013,811,1,0,0,0,811.631531
-227,975,2,0,0,0,886.290283
-1033,-1620,3,1,0,24,90.243469
1087,-304,4,0,0,0,851.749939
51,947,1,0,0,0,901.863770
-263,735,2,0,0,0,957.934448
-255,-1688,3,0,0,0,732.872375
324,-721,4,1,0,27,36.219929
121,1690,1,1,0,10,26.477512
-1595,1035,2,1,0,10,26.477512
-916,-1089,3,0,0,0,785.126099
1062,-1097,4,0,0,0,764.900513
1966,658,1,1,0,10,26.477512
-564,859,2,1,0,10,26.477512
-170,-1280,3,0,0,0,813.054871
694,-1179,4,1,0,27,36.219929
365,287,1,1,0,10,26.477512
-854,416,2,0,0,0,901.390442
-671,-438,3,0,0,0,950.405640
438,-1493,4,0,0,0,759.484680
1130,1239,1,0,0,0,737.998413
-1987,1359,2,0,0,10,26.477512
-693,-1407,3,0,0,0,757.190857
106,-1200,4,0,0,0,833.011108
52,504,1,0,0,0,1082.543091
-1284,789,2,0,0,0,768.648376
-1918,-753,3,1,0,16,112.220108
487,-1224,4,1,0,27,36.219929
580,1742,1,0,0,10,26.477512
-1168,1800,2,0,0,10,26.477512
-1680,-771,3,1,0,16,130.787415
1023,-247,4,0,0,0,871.897644
1950,869,1,1,0,10,26.477512
-90,734,2,1,0,10,26.477512
-1220,-1740,3,0,0,24,90.243469
1937,-93,4,1,0,10,26.477512
925,926,1,1,0,10,26.477512
-463,1477,2,0,0,0,760.974304
-644,-1655,3,0,0,27,36.219929
1232,-1618,4,0,0,27,36.219929
154,1141,1,0,0,0,846.036316
-477,1724,2,1,0,10,26.477512
-1896,-1134,3,0,0,24,90.243469
999,-1611,4,0,0,27,36.219929
1567,1432,1,1,0,10,26.477512
-1877,934,2,0,0,10,26.477512
-1505,-39,3,0,0,0,768.941467
569,-804,4,0,0,0,890.958679
1734,453,1,1,0,10,26.477512
-1002,1811,2,1,0,10,26.477512
-1606,-710,3,1,0,16,140.860504
1810,-1754,4,1,0,27,36.219929
265,1950,1,1,0,10,26.477512
-1880,990,2,0,0,10,26.477512
-634,-980,3,1,0,24,90.243469
1237,-1948,4,1,0,27,36.219929
1484,161,1,0,0,0,771.392822
-1126,545,2,0,0,0,822.167419
-35,-1938,3,1,0,27,36.219929
123,-322,4,0,0,0,1193.650757
345,1570,1,1,0,10,26.477512
-901,63,2,0,0,0,915.919434
-826,-1824,3,0,0,27,36.219929
246,-1773,4,0,0,27,36.219929
1495,636,1,1,0,10,26.477512
-1013,309,2,1,0,10,26.477512
-1663,-433,3,0,0,0,730.981689
1651,-1809,4,1,0,27,36.219929
1195,34,1,0,0,0,835.213867
-835,1049,2,0,0,0,802.237061
-1529,-97,3,1,0,16,135.295593
182,-499,4,0,0,0,1068.937256
1607,439,1,0,0,0,739.890198
-911,660,2,0,0,0,852.708862
-1665,-1103,3,1,0,24,90.243469
769,-175,4,1,0,10,26.477512
1135,1487,1,0,0,10,26.477512
-1079,1916,2,0,0,10,26.477512
-1242,-1434,3,0,0,24,90.243469
1595,-1370,4,0,0,27,36.219929
1577,436,1,0,0,0,745.054504
-998,333,2,0,0,0,871.981323
-1057,-1947,3,0,0,24,90.243469
380,-899,4,1,0,27,36.219929
1688,495,1,1,0,10,26.477512
-1801,1429,2,1,0,10,26.477512
-297,-555,3,0,0,0,1019.970642
529,-1629,4,0,0,0,731.935181
979,1858,1,0,0,10,26.477512
-18,1197,2,1,0,10,26.477512
-672,-1728,3,0,0,27,36.219929
1973,-1020,4,0,0,27,36.219929
1433,743,1,0,0,0,748.937561
-179,1367,2,0,0,0,794.222839
-691,-1193,3,0,0,0,794.222839
1447,-1303,4,1,0,27,36.219929
486,1630,1,0,0,0,733.922668
-377,732,2,1,0,10,26.477512
-907,-890,3,0,0,0,817.658875
168,-583,4,1,0,27,36.219929
194,279,1,0,0,0,1197.758301
-1076,1935,2,0,0,10,26.477512
-805,-854,3,1,0,24,90.243469
864,-1803,4,0,0,27,36.219929
671,1368,1,1,0,10,26.477512
-688,1281,2,1,0,10,26.477512
-1249,-1587,3,1,0,24,90.243469
1683,-1973,4,0,0,27,36.219929
504,519,1,0,0,0,979.860291
-1295,928,2,1,0,10,26.477512
-1363,-1207,3,0,0,24,90.243469
202,-1385,4,0,0,0,789.882385
549,1128,1,0,0,0,821.353333
-156,985,2,1,0,10,26.477512
-521,-464,3,1,0,16,133.782562
1722,-1933,4,1,0,27,36.219929
1075,1076,1,1,0,10,26.477512
-852,794,2,1,0,10,26.477512
-218,-848,3,0,0,0,924.867981
1559,-1105,4,0,0,27,36.219929
300,1543,1,0,0,0,756.553284
-635,1388,2,0,0,0,764.991760
-8,-594,3,0,0,0,1036.666504
839,-97,4,0,0,0,935.247253
1808,416,1,0,0,10,26.477512
-70,1218,2,0,0,0,829.372253
-278,-352,3,0,0,0,1117.691040
121,-1771,4,0,0,27,36.219929
317,1712,1,0,0,0,727.226746
-1551,339,2,0,0,0,753.697083
-1452,-566,3,1,0,16,168.692169
327,-935,4,0,0,0,889.339050
370,274,1,0,0,0,1110.158813
-1400,328,2,1,0,16,109.333366
-306,-954,3,0,0,0,886.060852
1009,-1128,4,0,0,0,767.434265
722,1181,1,0,0,0,793.069824
-71,1280,2,1,0,10,26.477512
-1206,-1500,3,1,0,24,90.243469
545,-823,4,0,0,0,890.340271
382,1661,1,0,0,0,733.341614
-913,830,2,1,0,10,26.477512
-1213,-1995,3,0,0,24,90.243469
777,-1631,4,0,0,27,36.219929
1414,1975,1,0,0,10,26.477512
-217,661,2,0,0,0,991.129395
-1510,-406,3,0,0,0,758.066467
1739,-139,4,1,0,10,26.477512
1157,1805,1,0,0,10,26.477512
-1199,267,2,1,0,16,117.142937
-908,-328,3,1,0,16,183.201492
406,-1993,4,1,0,27,36.219929
1740,854,1,0,0,10,26.477512
-561,478,2,0,0,0,974.501831
-192,-1294,3,1,0,27,36.219929
1024,-1714,4,1,0,27,36.219929
1794,1791,1,0,0,10,26.477512
-1630,821,2,0,0,10,26.477512
-311,-991,3,1,0,27,36.219929
607,-709,4,1,0,27,36.219929
1307,867,1,1,0,10,26.477512
-1049,1130,2,0,0,0,762.092590
-1905,-1965,3,0,0,24,90.243469
160,-166,4,1,0,10,26.477512
1042,1191,1,0,0,0,754.626770
-1725,138,2,1,0,16,108.918625
-1982,-1238,3,0,0,24,90.243469
1427,-669,4,1,0,27,36.219929
3,964,1,1,0,10,26.477512
-1485,1358,2,0,0,10,26.477512
-409,-1172,3,0,0,0,824.393127
388,-442,4,0,0,0,1039.551514
1272,704,1,1,0,10,26.477512
-452,260,2,0,0,0,1074.257690
-677,-849,3,1,0,24,90.243469
538,-785,4,0,0,0,900.865051
1211,448,1,0,0,0,813.061157
-1826,1192,2,0,0,10,26.477512
-1921,-1895,3,1,0,24,90.243469
1636,-1404,4,1,0,27,36.219929
1637,1739,1,1,0,10,26.477512
-778,528,2,0,0,0,904.341248
-1575,-1689,3,0,0,24,90.243469
350,-1119,4,0,0,0,840.808228
632,138,1,1,0,10,26.477512
-358,1946,2,1,0,10,26.477512
-561,-1425,3,1,0,27,36.219929
736,-989,4,1,0,27,36.219929
1936,749,1,0,0,10,26.477512
-99,970,2,0,0,0,893.878418
-71,-100,3,0,0,0,1491.790527
134,-339,4,0,0,0,1177.515137
750,1639,1,0,0,10,26.477512
-1601,1147,2,1,0,10,26.477512
-296,-839,3,1,0,27,36.219929
305,-191,4,1,0,10,26.477512
526,218,1,0,0,0,1048.895264
-842,99,2,1,0,10,26.477512
-1975,-1393,3,0,0,24,90.243469
526,-410,4,0,0,0,1003.313171
1078,1537,1,0,0,10,26.477512
-251,729,2,0,0,0,961.513794
-416,-856,3,0,0,0,900.845581
1343,-1342,4,0,0,27,36.219929
370,734,1,0,0,0,943.063660
-1841,264,2,0,0,16,98.017677
-1502,-1270,3,0,0,24,90.243469
1158,-264,4,1,0,10,26.477512
1444,1065,1,0,0,10,26.477512
-227,64,2,0,0,0,1303.119873
-276,-1683,3,0,0,0,733.153198
1595,-749,4,0,0,27,36.219929
193,89,1,1,0,10,26.477512
-1374,1147,2,0,0,10,26.477512
-1092,-1789,3,0,0,24,90.243469
1498,-1930,4,0,0,27,36.219929
672,1272,1,0,0,0,781.997375
-1076,840,2,1,0,10,26.477512
-301,-1957,3,0,0,27,36.219929
1431,-437,4,0,0,0,770.714355
1800,1942,1,0,0,10,26.477512
-1873,87,2,0,0,16,103.861183
-743,-1613,3,0,0,24,90.243469
354,-1422,4,1,0,27,36.219929
475,395,1,0,0,0,1025.376343
-1945,454,2,0,0,16,86.953789
-532,-25,3,0,0,0,1068.160400
814,-95,4,0,0,0,943.926392
1639,1533,1,0,0,10,26.477512
-152,1417,2,0,0,0,784.699890
-1434,-512,3,0,0,0,765.687805
1575,-1,4,0,0,0,755.986572
1327,972,1,0,0,0,743.525452
-1145,468,2,0,0,0,825.405823
-1372,-1521,3,0,0,24,90.243469
1929,-1377,4,0,0,27,36.219929
591,1671,1,1,0,10,26.477512
-1196,1101,2,0,0,0,746.910278
-867,-430,3,0,0,0,896.031616
561,-508,4,1,0,27,36.219929
1934,625,1,1,0,10,26.477512
-655,1263,2,1,0,10,26.477512
-1680,-1839,3,0,0,24,90.243469
839,-1340,4,1,0,27,36.219929
1574,1353,1,1,0,10,26.477512
-1783,1259,2,0,0,10,26.477512
-758,-1788,3,0,0,27,36.219929
1397,-1108,4,0,0,27,36.219929
1341,1476,1,0,0,10,26.477512
-1877,1293,2,1,0,10,26.477512
-1996,-853,3,0,0,24,90.243469
435,-464,4,0,0,0,1016.987122
1164,1030,1,0,0,0,759.787231
-189,174,2,1,0,10,26.477512
-1951,-1872,3,0,0,24,90.243469
1944,-1226,4,0,0,27,36.219929
1433,1304,1,1,0,10,26.477512
-1458,1350,2,0,0,10,26.477512
-1855,-798,3,1,0,16,115.609138
381,-1567,4,0,0,0,749.206726
16,52,1,0,0,0,1726.310059
-1960,363,2,1,0,16,89.731804
648,-1494,4,1,0,27,36.219929
1926,707,1,0,0,10,26.477512
-1715,1497,2,1,0,10,26.477512
1778,-1737,4,1,0,27,36.219929
519,358,1,0,0,0,1019.501892
-1397,152,2,0,0,0,788.736572
1188,-1735,4,0,0,27,36.219929
982,835,1,0,0,0,813.551575
-1606,975,2,0,0,10,26.477512
1504,-377,4,1,0,27,36.219929
381,1800,1,0,0,10,26.477512
-1388,513,2,1,0,10,26.477512
1197,-1445,4,1,0,27,36.219929
867,1842,1,0,0,10,26.477512
-1091,1841,2,0,0,10,26.477512
1237,-806,4,1,0,27,36.219929
365,1064,1,1,0,10,26.477512
-1576,221,2,0,0,0,753.010193
1618,-592,4,0,0,0,730.239258
1985,1735,1,0,0,10,26.477512
-1550,237,2,0,0,0,757.262512
593,-1751,4,1,0,27,36.219929
1209,1086,1,0,0,0,746.993958
-383,1684,2,0,0,0,729.557312
550,-327,4,1,0,10,26.477512
1795,83,1,1,0,10,26.477512
-1989,769,2,0,0,10,26.477512
1064,-1556,4,1,0,27,36.219929
10,334,1,0,0,0,1202.611816
-811,1086,2,1,0,10,26.477512
629,-936,4,0,0,0,852.003967
891,1590,1,0,0,10,26.477512
-1764,1757,2,0,0,10,26.477512
511,-1700,4,1,0,27,36.219929
721,902,1,0,0,0,845.187134
-1622,1845,2,0,0,10,26.477512
1811,-248,4,1,0,27,36.219929
-1538,1281,2,1,0,10,26.477512
1497,-172,4,0,0,0,768.685486
-256,1293,2,0,0,0,807.136047
1251,-55,4,0,0,0,821.880493
-1538,1581,2,1,0,10,26.477512
1386,-297,4,1,0,27,36.219929
-387,645,2,0,0,0,968.630676
1730,-1909,4,0,0,27,36.219929
-85,24,2,0,0,0,1586.505249
720,-1265,4,0,0,0,778.632629
-1713,1036,2,0,0,10,26.477512
573,-1899,4,0,0,27,36.219929
-649,1409,2,0,0,0,760.341675
1353,-1024,4,1,0,27,36.219929
-497,1090,2,0,0,0,834.618286
1442,-1948,4,0,0,27,36.219929
-52,940,2,0,0,0,903.977478
663,-1742,4,1,0,27,36.219929
-649,42,2,0,0,0,1010.560425
880,-1345,4,1,0,27,36.219929
-1419,1772,2,0,0,10,26.477512
18,-642,4,1,0,27,36.219929
1738,-623,4,0,0,27,36.219929
341,-270,4,1,0,10,26.477512
1285,-38,4,1,0,10,26.477512
1315,-1978,4,0,0,27,36.219929
782,-906,4,0,0,0,834.894226
1669,-578,4,0,0,27,36.219929
289,-462,4,0,0,0,1061.545898
523,-951,4,1,0,27,36.219929
1185,-1167,4,0,0,0,740.359070
1598,-753,4,0,0,27,36.219929
537,-1270,4,0,0,0,794.182190
128,-1124,4,0,0,0,851.099121
563,-1205,4,0,0,0,804.544678
1877,-733,4,0,0,27,36.219929
1148,-1391,4,0,0,27,36.219929
1475,-1604,4,1,0,27,36.219929
1085,-831,4,0,0,0,796.735168
59,-130,4,0,0,0,1447.959717
1376,-1427,4,1,0,27,36.219929
