each generation's max average throughput
606.612183,606.612183,607.799255,607.979797,607.979797,609.757812,611.253723,611.253723,611.253723,612.994995,613.915161,613.915161,613.915161,613.915161,613.915161,613.915161,613.915161,613.915161,613.915161,613.915161,613.915161,614.148132,614.149353,617.279297,617.279297,617.279297,617.279297,617.279297,617.895142,617.895142,617.895142,617.895142,617.895142,617.895142,618.293640,618.294861,618.294861,618.294861,618.294861,618.294861,618.294861,618.294861,618.294861,618.294861,618.294861,618.294861,618.294861,618.294861,618.294861,618.294861,618.294861,618.294861,618.294861,618.294861,618.294861,618.294861,618.294861,618.294861,618.294861,618.294861,618.294861,618.294861,618.294861,618.294861,618.294861,618.294861,618.294861,618.294861,618.294861,618.294861,618.294861,618.294861,618.294861,618.294861,618.294861,618.294861,618.294861,618.294861,618.294861,618.294861,618.294861,618.294861,618.294861,618.294861,618.294861,618.294861,618.294861,618.294861,618.294861,618.294861,618.294861,618.294861,618.294861,618.294861,618.294861,618.294861,618.294861,618.294861,618.294861,618.294861,


the 1st max average throughput times

BS TX power
MBS area 1,MBS area 2,MBS area 3,MBS area 4,CBSD 1,CBSD 2,CBSD 3,CBSD 4,CBSD 5,CBSD 6,CBSD 7,CBSD 8,CBSD 9,CBSD 10,
10.000,7.500,10.000,8.750,0.000,0.000,1.000,0.625,0.625,1.000,0.625,0.000,0.000,0.000,

max average throughput
606.612183

x,y,area,be blocked (1 : NLOS / 0 : LOS),be blocked number (>=1 : CBSD(x) / 0 : no),connect bs number (>=1 : CBSD / 0 : MBS),throughput (unit : M bps)
1553,1335,1,0,0,0,680.750244
-208,721,2,1,0,5,82.215279
-870,-1076,3,0,0,0,793.172546
1345,-1038,4,1,0,3,83.127991
851,725,1,0,0,0,854.504456
-381,614,2,0,0,0,938.746765
-1711,-1779,3,1,0,4,131.211838
1540,-1904,4,0,0,0,610.714661
330,1825,1,0,0,0,709.131287
-1970,1649,2,0,0,0,575.239136
-377,-370,3,0,0,0,1070.528198
684,-86,4,0,0,0,974.517761
69,552,1,0,0,0,1055.601440
-1479,1006,2,1,0,5,82.215279
-437,-1709,3,0,0,0,723.483521
834,-1235,4,0,0,0,752.703674
1642,1447,1,0,0,0,661.765503
-171,619,2,0,0,0,972.744446
-1003,-761,3,0,0,0,820.320801
1576,-500,4,0,0,0,722.901428
388,463,1,1,0,5,82.215279
-860,195,2,0,0,0,881.393066
-840,-1063,3,0,0,0,799.235352
42,-1666,4,0,0,0,720.636780
1585,1976,1,0,0,0,620.079529
-1239,552,2,1,0,5,82.215279
-452,-1023,3,1,0,4,131.211838
1439,-247,4,0,0,0,758.576538
99,485,1,1,0,5,82.215279
-112,357,2,0,0,0,1128.501953
-802,-1483,3,1,0,4,131.211838
718,-1763,4,1,0,3,83.127991
1856,1007,1,0,0,0,672.000305
-1062,264,2,1,0,5,82.215279
-227,-1100,3,1,0,4,131.211838
1555,-169,4,0,0,0,738.812927
809,1879,1,0,0,0,681.054443
-129,981,2,0,0,0,848.252197
-695,-675,3,0,0,0,895.714905
934,-1697,4,0,0,0,677.576355
937,1931,1,0,0,0,667.336487
-1786,1281,2,0,0,0,619.544067
-1836,-1445,3,1,0,4,131.211838
1186,-1267,4,0,0,0,709.022095
1256,1787,1,1,0,5,82.215279
-1704,1707,2,1,0,5,82.215279
-587,-1826,3,0,0,0,699.500549
814,-1056,4,0,0,0,784.650452
1237,1742,1,0,0,0,668.645020
-817,51,2,0,0,0,902.820435
-1926,-126,3,0,0,0,697.702515
1103,-1905,4,0,0,0,641.063110
745,1392,1,0,0,0,755.290527
-1145,1338,2,0,0,0,682.776611
-335,-798,3,0,0,0,928.213074
1561,-1407,4,0,0,0,654.295349
573,873,1,0,0,0,874.134583
-318,1781,2,0,0,0,675.067810
-1475,-1542,3,0,0,0,669.000427
452,-438,4,1,0,3,83.127991
407,1716,1,0,0,0,723.545410
-250,641,2,0,0,0,952.874878
-209,-1239,3,1,0,4,131.211838
420,-120,4,0,0,0,1106.080200
474,597,1,0,0,0,964.788147
-865,421,2,0,0,0,856.343384
-1505,-1335,3,0,0,0,685.844971
799,-989,4,1,0,3,83.127991
1506,188,1,0,0,0,766.627197
-996,353,2,1,0,5,82.215279
-1261,-768,3,0,0,0,774.535095
1435,-889,4,0,0,0,716.958374
533,101,1,0,0,0,1062.850464
-1142,704,2,1,0,5,82.215279
-25,-1194,3,0,0,0,835.507935
672,-909,4,1,0,3,83.127991
18,956,1,0,0,0,899.505737
-222,278,2,1,0,5,82.215279
-753,-240,3,0,0,0,954.381348
474,-1297,4,1,0,3,83.127991
1810,256,1,0,0,0,713.266785
-1936,731,2,1,0,5,82.215279
-1241,-233,3,0,0,0,819.484985
452,-1209,4,0,0,0,793.977234
468,1347,1,0,0,0,784.527527
-303,1735,2,0,0,0,682.741455
-388,-1398,3,1,0,4,131.211838
725,-121,4,0,0,0,956.042969
757,1742,1,0,0,0,702.299500
-551,1522,2,1,0,5,82.215279
-353,-1892,3,1,0,4,131.211838
201,-1140,4,0,0,0,825.276245
1628,568,1,0,0,0,730.016357
-1057,194,2,1,0,5,82.215279
-1547,-758,3,0,0,0,730.268982
1801,-1449,4,0,0,0,627.135559
1186,611,1,0,0,0,803.660034
-107,681,2,1,0,5,82.215279
-1114,-395,3,0,0,0,838.487244
458,-1155,4,0,0,0,804.924194
629,806,1,1,0,5,82.215279
-559,870,2,1,0,5,82.215279
-1681,-253,3,0,0,0,734.087708
701,-1002,4,0,0,0,809.501038
1709,1053,1,0,0,0,686.473877
-224,1482,2,0,0,0,728.944092
-1133,-1558,3,0,0,0,698.252869
1046,-349,4,1,0,3,83.127991
407,745,1,0,0,0,933.771667
-638,1061,2,0,0,0,783.805054
-319,-109,3,0,0,0,1200.068970
1571,-1449,4,0,0,0,649.489563
1605,1186,1,0,0,0,688.147400
-1834,766,2,0,0,0,648.213135
-603,-28,3,0,0,0,1032.046509
1216,-243,4,0,0,0,805.491516
973,1247,1,1,0,5,82.215279
-1830,1762,2,0,0,0,578.419189
-1475,-1475,3,0,0,0,675.489380
1171,-1010,4,1,0,3,83.127991
1382,891,1,0,0,0,743.626770
-1541,1624,2,0,0,0,614.302185
-424,-1491,3,0,0,0,760.558044
65,-22,4,0,0,0,1640.063843
355,916,1,0,0,0,891.716919
-418,1313,2,0,0,0,753.068420
-620,-1120,3,1,0,4,131.211838
354,-1667,4,1,0,3,83.127991
1701,651,1,0,0,0,714.317871
-1885,1047,2,1,0,5,82.215279
-88,-1785,3,0,0,0,719.741638
1640,-1614,4,0,0,0,628.436951
1376,49,1,0,0,0,794.597656
-563,1811,2,0,0,0,661.597900
-1592,-1502,3,0,0,0,661.750427
1499,-867,4,0,0,0,709.650818
148,1490,1,1,0,5,82.215279
-1909,1389,2,0,0,0,599.210144
-1768,-1927,3,0,0,0,611.012634
446,-428,4,0,0,0,1005.958862
974,1714,1,0,0,0,691.643494
-354,1020,2,0,0,0,823.145996
-246,-535,3,0,0,0,1039.204834
1119,-1547,4,1,0,3,83.127991
1055,262,1,1,0,3,83.127991
-1390,1424,2,0,0,0,647.867859
-437,-1666,3,1,0,4,131.211838
730,-1823,4,0,0,0,673.666016
766,1147,1,0,0,0,794.099426
-598,1018,2,0,0,0,797.446045
-40,-1452,3,0,0,0,779.224976
160,-980,4,0,0,0,869.408691
1961,1819,1,0,0,0,604.609558
-1023,285,2,0,0,0,827.906738
-463,-752,3,0,0,0,922.400757
555,-1568,4,0,0,0,721.188354
108,1848,1,0,0,0,709.663391
-1376,1283,2,1,0,5,82.215279
-1509,-895,3,0,0,0,725.036682
1338,-1894,4,1,0,3,83.127991
1539,614,1,0,0,0,741.430847
-1973,1163,2,0,0,0,607.835022
-46,-537,3,0,0,0,1064.726807
1193,-621,4,0,0,0,782.154602
1641,1354,1,0,0,0,669.856323
-1472,105,2,1,0,5,82.215279
-675,-1188,3,0,0,0,796.798035
1794,-671,4,1,0,3,83.127991
1723,1668,1,0,0,0,635.681580
-1579,730,2,1,0,5,82.215279
-1706,-916,3,0,0,0,696.778015
859,-1536,4,0,0,0,705.023132
915,1111,1,0,0,0,781.860168
-1997,455,2,1,0,5,82.215279
-408,-2000,3,0,0,0,681.693481
1432,-470,4,0,0,0,749.462036
931,923,1,0,0,0,808.690979
-1034,1622,2,0,0,0,657.553162
-1210,-1039,3,0,0,0,752.388062
295,-1710,4,1,0,3,83.127991
1460,1038,1,1,0,3,83.127991
-1835,1126,2,0,0,0,625.428833
-1185,-677,3,0,0,0,797.138062
1368,-70,4,1,0,3,83.127991
1412,1077,1,0,0,0,721.561157
-420,696,2,1,0,5,82.215279
-1322,-1945,3,0,0,0,641.247681
720,-1867,4,0,0,0,668.289673
1589,1872,1,0,0,0,628.947632
-1210,1666,2,0,0,0,638.133301
-241,-1299,3,0,0,0,806.467712
1545,-1412,4,0,0,0,655.450745
1217,427,1,0,0,0,813.389954
-1433,1063,2,0,0,0,679.036560
-1588,-1839,3,0,0,0,631.946960
1801,-1392,4,0,0,0,631.518738
1302,1035,1,0,0,0,740.342651
-508,1228,2,0,0,0,763.461853
-992,-1935,3,0,0,0,663.616455
1792,-428,4,0,0,0,691.905396
427,236,1,0,0,0,1093.445679
-112,800,2,0,0,0,906.641174
-1001,-176,3,0,0,0,881.929443
972,-1034,4,0,0,0,766.735413
893,1116,1,0,0,0,783.859863
-76,253,2,0,0,0,1228.909424
-408,-1672,3,1,0,4,131.211838
1074,-1939,4,0,0,0,639.089111
1711,1537,1,0,0,0,647.596680
-1048,1388,2,0,0,0,686.344727
-1886,-321,3,0,0,0,700.234314
59,-698,4,1,0,3,83.127991
1428,699,1,0,0,0,753.284180
-941,1230,2,0,0,0,719.568237
-63,-839,3,0,0,0,936.349792
521,-1257,4,0,0,0,778.811462
1476,1320,1,0,0,0,690.379028
-397,740,2,0,0,0,895.465271
-839,-1411,3,0,0,0,744.103027
1496,-569,4,0,0,0,732.215759
724,999,1,0,0,0,826.147766
-1195,534,2,0,0,0,767.825195
-1153,-792,3,0,0,0,790.055237
1033,-507,4,0,0,0,826.988708
994,914,1,0,0,0,800.188599
-1025,1915,2,0,0,0,622.909912
-1572,-104,3,1,0,5,82.215279
1154,-1093,4,1,0,3,83.127991
597,1190,1,0,0,0,804.259399
-1470,1468,2,0,0,0,635.591980
-1749,-323,3,0,0,0,721.122864
1678,-1437,4,1,0,3,83.127991
1995,383,1,0,0,0,683.064270
-105,1154,2,0,0,0,802.822266
-205,-530,3,0,0,0,1049.463379
44,-775,4,0,0,0,940.321350
1358,963,1,0,0,0,740.078125
-863,408,2,0,0,0,858.573364
-180,-1482,3,0,0,0,771.357544
1403,-745,4,1,0,3,83.127991
1477,1463,1,0,0,0,676.456909
-1980,192,2,0,0,0,647.962036
-1493,-1125,3,0,0,0,706.853577
1472,-1348,4,0,0,0,669.012207
394,670,1,0,0,0,959.183044
-752,1725,2,1,0,5,82.215279
-1331,-1025,3,1,0,4,131.211838
1616,-811,4,0,0,0,697.286377
1737,1485,1,0,0,0,649.428650
-41,1450,2,0,0,0,738.327454
-192,-1423,3,0,0,0,782.537903
902,-1408,4,0,0,0,719.672668
534,1648,1,0,0,0,728.670105
-1905,1991,2,0,0,0,555.421021
-1648,-170,3,0,0,0,741.468140
142,-464,4,0,0,0,1075.753906
544,795,1,0,0,0,897.364075
-275,1972,2,1,0,5,82.215279
-412,-1672,3,0,0,0,730.387085
981,-1847,4,0,0,0,655.678894
448,1677,1,0,0,0,728.099487
-635,1531,2,0,0,0,700.121704
-171,-1081,3,1,0,4,131.211838
599,-1600,4,0,0,0,713.518433
1725,1662,1,0,0,0,636.006042
-1782,657,2,1,0,5,82.215279
-514,-1182,3,1,0,4,131.211838
23,-1347,4,0,0,0,781.675171
782,1112,1,0,0,0,798.260193
-1111,1719,2,0,0,0,639.837158
-44,-1619,3,0,0,0,747.973755
856,-679,4,1,0,3,83.127991
1277,1030,1,0,0,0,744.274109
-1962,1127,2,0,0,0,611.283875
-1138,-6,3,0,0,0,849.387024
1472,-1973,4,1,0,3,83.127991
1211,136,1,0,0,0,829.701965
-1312,629,2,0,0,0,737.457825
-1672,-772,3,1,0,4,131.211838
1462,-1780,4,1,0,3,83.127991
1336,1268,1,0,0,0,711.093750
-231,627,2,0,0,0,961.300903
-287,-1820,3,0,0,0,711.007202
1755,-661,4,0,0,0,686.833679
952,1076,1,0,0,0,782.378662
-198,244,2,0,0,0,1178.849609
-984,-1952,3,0,0,0,662.106140
614,-796,4,0,0,0,865.860596
947,1230,1,0,0,0,760.149292
-1313,1763,2,0,0,0,619.503052
-103,-1271,3,1,0,4,131.211838
1978,-354,4,0,0,0,667.091797
1355,210,1,1,0,3,83.127991
-300,42,2,0,0,0,1189.417358
-73,-195,3,0,0,0,1339.072998
1220,-540,4,0,0,0,784.467224
746,1511,1,0,0,0,736.597046
-836,1445,2,0,0,0,698.066284
-772,-1432,3,0,0,0,746.693787
91,-1008,4,1,0,3,83.127991
586,1274,1,0,0,0,789.337524
-1557,795,2,0,0,0,684.866333
-1069,-1941,3,0,0,0,658.224792
1574,-900,4,0,0,0,696.487366
1710,1199,1,0,0,0,675.146606
-582,485,2,0,0,0,925.124329
-1403,-975,3,0,0,0,732.642944
1529,-1950,4,0,0,0,607.352417
662,442,1,0,0,0,952.320312
-144,538,2,1,0,5,82.215279
-57,-823,3,1,0,4,131.211838
1110,-1143,4,1,0,3,83.127991
856,481,1,0,0,0,891.863892
-259,1703,2,0,0,0,689.092834
-230,-553,3,0,0,0,1034.312988
1258,-1330,4,0,0,0,693.728821
30,1995,1,0,0,0,688.208252
-1328,883,2,0,0,0,711.165222
-1107,-1347,3,0,0,0,726.828857
1547,-969,4,0,0,0,694.555115
1140,979,1,0,0,0,769.481201
-440,136,2,0,0,0,1068.595581
-1933,-1458,3,0,0,0,632.950073
1445,-1088,4,0,0,0,697.172974
491,1525,1,0,0,0,751.091736
-1361,1454,2,0,0,0,647.631775
-1875,-1634,3,0,0,0,625.303772
1735,-1669,4,1,0,3,83.127991
1048,1390,1,1,0,5,82.215279
-254,1278,2,1,0,5,82.215279
-1434,-172,3,0,0,0,780.865479
733,-776,4,1,0,3,83.127991
21,1144,1,1,0,5,82.215279
-1558,122,2,0,0,0,716.971191
-1981,-556,3,0,0,0,679.411255
1785,-1095,4,0,0,0,655.304810
1103,800,1,1,0,3,83.127991
-201,628,2,0,0,0,965.128601
-1304,-1302,3,0,0,0,710.971191
742,-1747,4,0,0,0,683.393372
1901,561,1,1,0,3,83.127991
-1665,1615,2,0,0,0,604.220154
-1843,-1779,3,0,0,0,616.907043
1112,-1461,4,0,0,0,692.894531
918,258,1,0,0,0,900.290894
-760,764,2,0,0,0,823.692139
-965,-1302,3,0,0,0,747.791809
1010,-635,4,0,0,0,816.602661
1643,210,1,1,0,3,83.127991
-1355,124,2,0,0,0,756.687927
-1670,-708,3,0,0,0,715.490356
1694,-1243,4,1,0,3,83.127991
100,229,1,1,0,0,374.838257
-1687,1065,2,0,0,0,647.138062
-1448,-1946,3,1,0,4,131.211838
1030,-148,4,0,0,0,855.931580
688,259,1,1,0,3,83.127991
-6,662,2,1,0,5,82.215279
-99,-370,3,1,0,0,215.517151
1097,-1344,4,0,0,0,709.123718
78,416,1,0,0,0,1134.429932
-1660,1106,2,0,0,0,647.186707
-1946,-795,3,0,0,0,673.283142
1754,-1857,4,0,0,0,598.721436
715,1804,1,0,0,0,696.163025
-896,283,2,0,0,0,863.118103
-489,-1623,3,1,0,4,131.211838
366,-719,4,1,0,3,83.127991
1717,722,1,0,0,0,707.894043
-473,1514,2,1,0,5,82.215279
-1927,-1216,3,0,0,0,650.261780
1296,-1573,4,0,0,0,663.041443
1884,1345,1,0,0,0,645.758911
-1041,1835,2,1,0,5,82.215279
-599,-1872,3,1,0,4,131.211838
1406,-1558,4,0,0,0,654.689209
867,1670,1,1,0,5,82.215279
-1041,1298,2,0,0,0,699.016235
-1909,-639,3,0,0,0,685.655762
1604,-699,4,0,0,0,706.686035
1532,908,1,0,0,0,720.753845
-1823,9,2,1,0,5,82.215279
-430,-655,3,0,0,0,956.867065
873,-1518,4,0,0,0,706.450867
46,1771,1,0,0,0,722.249634
-503,1888,2,0,0,0,653.090393
-1929,-821,3,1,0,4,131.211838
267,-1062,4,0,0,0,841.250671
303,864,1,0,0,0,911.995239
-171,1294,2,1,0,5,82.215279
-43,-1072,3,1,0,4,131.211838
927,-823,4,0,0,0,805.589478
1813,336,1,0,0,0,710.792297
-869,1177,2,0,0,0,735.874329
-769,-999,3,1,0,4,131.211838
260,-1734,4,1,0,3,83.127991
1474,4,1,0,0,0,775.013672
-1668,927,2,0,0,0,659.827942
-290,-1264,3,0,0,0,811.810364
1178,-1220,4,0,0,0,715.630310
659,201,1,0,0,0,993.934143
-1110,963,2,0,0,0,734.608337
-280,-972,3,0,0,0,883.300598
91,-735,4,0,0,0,953.862183
1785,1636,1,1,0,3,83.127991
-862,1475,2,0,0,0,691.456299
-609,-900,3,0,0,0,862.669617
1497,-804,4,0,0,0,715.066528
1008,1187,1,0,0,0,759.239380
-964,485,2,0,0,0,823.293518
-589,-1674,3,0,0,0,721.764526
59,-403,4,0,0,0,1126.254883
1115,1571,1,0,0,0,698.244812
-424,1971,2,0,0,0,644.144409
-1025,-1204,3,0,0,0,754.856445
422,-1284,4,0,0,0,780.744385
117,681,1,0,0,0,993.096069
-992,1096,2,1,0,5,82.215279
-1714,-445,3,0,0,0,722.374512
1558,-1192,4,0,0,0,673.963074
1631,291,1,0,0,0,741.466125
-1310,1468,2,0,0,0,651.101990
-1841,-150,3,0,0,0,710.291138
1176,-465,4,1,0,3,83.127991
1834,429,1,0,0,0,704.701416
-1839,583,2,0,0,0,656.716064
-830,-498,3,0,0,0,895.983032
736,-1231,4,1,0,3,83.127991
1821,1244,1,0,0,0,659.587646
-541,1333,2,0,0,0,740.706238
-1991,-320,3,1,0,4,131.211838
406,-117,4,0,0,0,1115.669434
209,419,1,1,0,5,82.215279
-778,1532,2,0,0,0,689.817078
-1925,-1992,3,0,0,0,594.656616
233,-1287,4,1,0,3,83.127991
1572,489,1,1,0,3,83.127991
-869,811,2,1,0,5,82.215279
-1628,-1631,3,0,0,0,647.040894
1336,-251,4,0,0,0,779.090515
1843,1661,1,1,0,3,83.127991
-1435,1054,2,0,0,0,679.635803
-1082,-1650,3,0,0,0,691.395203
1266,-1515,4,0,0,0,672.127075
993,1143,1,1,0,5,82.215279
-528,1531,2,1,0,5,82.215279
-1372,-509,3,0,0,0,777.092651
344,-511,4,0,0,0,1006.959534
1162,1141,1,0,0,0,746.394897
-91,1729,2,0,0,0,687.633301
-421,-710,3,0,0,0,941.856506
949,-317,4,0,0,0,867.222778
1818,974,1,1,0,3,83.127991
-1102,188,2,1,0,5,82.215279
-1758,-1416,3,0,0,0,652.934998
1091,-745,4,0,0,0,787.294800
1227,1949,1,1,0,5,82.215279
-555,345,2,0,0,0,967.715149
-1409,-1616,3,0,0,0,667.646912
358,-1207,4,0,0,0,801.136597
119,1348,1,1,0,5,82.215279
-1361,362,2,0,0,0,746.808716
-1352,-1762,3,0,0,0,657.577698
13,-332,4,1,0,0,249.317688
198,1851,1,0,0,0,708.057800
-80,376,2,0,0,0,1120.699219
-1207,-334,3,1,0,4,131.211838
541,-1176,4,0,0,0,793.145569
34,900,1,0,0,0,916.736328
-211,274,2,0,0,0,1151.210693
-511,-213,3,0,0,0,1056.994141
745,-315,4,0,0,0,928.466064
829,669,1,0,0,0,868.397644
-1553,1416,2,0,0,0,632.297852
-1570,-928,3,0,0,0,713.934875
508,-916,4,0,0,0,854.041931
404,850,1,0,0,0,904.073059
-1366,572,2,0,0,0,732.390320
-376,-25,3,0,0,0,1167.937012
1438,-1678,4,0,0,0,639.952576
1887,1524,1,1,0,3,83.127991
-1740,1993,2,0,0,0,566.921875
-202,-1320,3,1,0,4,131.211838
769,-629,4,0,0,0,869.262573
1682,828,1,1,0,3,83.127991
-1338,1051,2,0,0,0,692.629089
-1463,-1489,3,0,0,0,675.284729
1960,-483,4,1,0,3,83.127991
1095,533,1,0,0,0,829.886414
-886,1262,2,0,0,0,720.812744
-205,-620,3,1,0,4,131.211838
1381,-263,4,0,0,0,769.441895
1285,1257,1,1,0,5,82.215279
-1415,1567,2,1,0,5,82.215279
-971,-1729,3,0,0,0,689.967102
1169,-601,4,0,0,0,788.746155
1853,72,1,1,0,3,83.127991
-66,277,2,0,0,0,1207.262451
-1168,-1520,3,0,0,0,699.664978
1764,-325,4,1,0,3,83.127991
1066,1549,1,0,0,0,705.180054
-788,810,2,0,0,0,810.032593
-999,-1828,3,0,0,0,675.873047
919,-592,4,0,0,0,841.744446
553,390,1,0,0,0,999.118958
-1299,1689,2,0,0,0,628.377197
-886,-1911,3,1,0,4,131.211838
1348,-1891,4,1,0,3,83.127991
1665,240,1,0,0,0,737.093323
-1754,969,2,1,0,5,82.215279
-611,-505,3,0,0,0,953.521790
865,-778,4,0,0,0,823.834106
1059,1812,1,0,0,0,673.740356
-1159,1074,2,0,0,0,713.809326
-133,-941,3,0,0,0,901.263000
544,-1121,4,0,0,0,804.108154
485,1230,1,0,0,0,806.250244
-680,268,2,0,0,0,935.455505
-1974,-959,3,0,0,0,660.980835
63,-416,4,0,0,0,1116.886230
1917,1440,1,1,0,3,83.127991
-888,115,2,0,0,0,876.991577
-1806,-1581,3,0,0,0,635.427734
76,-1421,4,0,0,0,765.947815
807,1582,1,0,0,0,721.547302
-1588,957,2,0,0,0,668.059998
-570,-1051,3,1,0,4,131.211838
307,-723,4,0,0,0,936.915161
37,1539,1,1,0,5,82.215279
-990,1417,2,0,0,0,688.098694
-1735,-537,3,0,0,0,715.123962
1269,-1102,4,0,0,0,718.209778
1629,174,1,0,0,0,744.685608
-1793,1857,2,0,0,0,573.890076
-655,-978,3,0,0,0,839.677429
1494,-59,4,0,0,0,751.754639
1026,1556,1,0,0,0,707.710938
-20,762,2,0,0,0,923.354675
-759,-241,3,0,0,0,952.194519
1526,-1193,4,0,0,0,677.585449
152,1114,1,0,0,0,852.870605
-285,1873,2,0,0,0,661.889893
-1014,-520,3,0,0,0,848.997009
1914,-1964,4,1,0,3,83.127991
495,1106,1,0,0,0,831.333801
-385,1995,2,1,0,5,82.215279
-948,-1400,3,1,0,4,131.211838
297,-562,4,0,0,0,997.907410
1415,1560,1,0,0,0,672.738098
-1898,1930,2,0,0,0,560.454346
-1229,-581,3,0,0,0,798.265198
306,-738,4,0,0,0,932.025635
1721,1243,1,0,0,0,670.467041
-1069,1967,2,0,0,0,614.308228
-4,-234,3,0,0,0,1305.349121
13,-1046,4,0,0,0,854.414001
1463,669,1,1,0,3,83.127991
-1814,1491,2,0,0,0,600.745422
-109,-464,3,0,0,0,1100.171997
1549,-230,4,0,0,0,738.478088
1057,452,1,0,0,0,846.476013
-1631,480,2,1,0,5,82.215279
-54,-1721,3,0,0,0,730.414795
1990,-1666,4,0,0,0,594.210083
265,140,1,1,0,0,303.729004
-1717,151,2,0,0,0,688.919434
-1158,-1467,3,1,0,4,131.211838
1187,-596,4,0,0,0,785.749146
966,97,1,0,0,0,895.115723
-1351,1746,2,0,0,0,618.284180
-1304,-830,3,0,0,0,761.369202
588,-1777,4,0,0,0,687.382751
1142,1742,1,0,0,0,675.901428
-469,1672,2,1,0,5,82.215279
-349,-1730,3,0,0,0,723.343018
639,-423,4,0,0,0,944.029114
1994,1205,1,0,0,0,643.918945
-1629,1513,2,0,0,0,616.281250
-1319,-340,3,1,0,4,131.211838
1880,-1772,4,1,0,3,83.127991
1770,648,1,0,0,0,704.491394
-1891,902,2,0,0,0,633.183594
-1150,-350,3,0,0,0,833.630676
1200,-857,4,0,0,0,755.728943
1040,148,1,0,0,0,872.422791
-1881,869,2,0,0,0,636.340515
-1077,-1706,3,0,0,0,685.030396
18,-28,4,0,0,0,1848.808838
10,290,1,0,0,0,1243.319946
-1590,1074,2,0,0,0,658.267395
-299,-74,3,0,0,0,1226.099609
489,-1894,4,0,0,0,674.777527
886,1342,1,0,0,0,750.019531
-436,1311,2,0,0,0,752.305176
-1603,-223,3,0,0,0,748.179688
547,-1784,4,0,0,0,688.267761
751,565,1,0,0,0,904.478333
-280,834,2,0,0,0,882.073792
-1068,-1006,3,0,0,0,776.343872
538,-876,4,1,0,3,83.127991
1995,1576,1,1,0,3,83.127991
-441,334,2,0,0,0,1015.735229
-14,-418,3,1,0,4,131.211838
1329,-491,4,0,0,0,767.207764
847,424,1,0,0,0,902.220398
-1494,1880,2,0,0,0,594.381348
-957,-1374,3,1,0,4,131.211838
1800,-1722,4,1,0,3,83.127991
875,1798,1,0,0,0,687.580750
-1151,666,2,0,0,0,763.274719
-951,-967,3,0,0,0,798.928650
1603,-334,4,0,0,0,725.686279
162,307,1,0,0,0,1191.625610
-279,1525,2,0,0,0,719.264648
-553,-1655,3,0,0,0,726.594482
568,-1801,4,0,0,0,684.843750
1739,97,1,1,0,3,83.127991
-916,1972,2,0,0,0,622.608826
-908,-1129,3,0,0,0,779.961975
364,-1973,4,1,0,3,83.127991
913,538,1,0,0,0,869.900452
-612,522,2,0,0,0,907.863525
-1203,-1651,3,0,0,0,681.468872
1902,-1419,4,0,0,0,619.663269
1890,433,1,1,0,3,83.127991
-872,1959,2,0,0,0,626.571167
-476,-1801,3,0,0,0,707.860840
1736,-1306,4,1,0,3,83.127991
84,393,1,1,0,5,82.215279
-633,1565,2,0,0,0,694.867310
-749,-205,3,1,0,4,131.211838
1239,-497,4,0,0,0,784.295349
1277,1145,1,0,0,0,731.531494
-436,1146,2,0,0,0,786.582397
-986,-529,3,0,0,0,854.250183
1977,-811,4,1,0,3,83.127991
1952,1734,1,1,0,3,83.127991
-203,929,2,1,0,5,82.215279
-1034,-1395,3,0,0,0,727.997253
984,-1943,4,0,0,0,644.100586
1657,297,1,1,0,3,83.127991
-1214,463,2,0,0,0,769.936707
-279,-1024,3,0,0,0,869.464844
180,-1942,4,1,0,3,83.127991
1896,607,1,1,0,3,83.127991
-643,1625,2,0,0,0,684.969360
-1315,-1165,3,1,0,4,131.211838
1819,-1985,4,1,0,3,83.127991
621,1144,1,0,0,0,810.738892
-1355,422,2,1,0,5,82.215279
-318,-1951,3,0,0,0,690.870667
1482,-1956,4,1,0,3,83.127991
691,1947,1,0,0,0,678.241150
-196,324,2,0,0,0,1125.042358
-1071,-1581,3,1,0,4,131.211838
1565,-1479,4,0,0,0,647.349854
845,933,1,1,0,5,82.215279
-1448,1969,2,1,0,5,82.215279
-672,-507,3,0,0,0,936.198730
347,-472,4,0,0,0,1021.438354
643,1181,1,1,0,5,82.215279
-801,206,2,0,0,0,899.854309
-1550,-1457,3,0,0,0,669.882935
1235,-1528,4,0,0,0,673.525940
1312,1278,1,1,0,5,82.215279
-1951,535,2,0,0,0,643.164917
-646,-1827,3,0,0,0,696.558777
1661,-1363,4,0,0,0,647.965820
1976,387,1,0,0,0,685.594482
-1443,211,2,0,0,0,736.796265
-208,-145,3,0,0,0,1282.238892
1991,-1024,4,0,0,0,636.232605
1392,560,1,0,0,0,769.912781
-153,576,2,1,0,5,82.215279
-279,-1750,3,0,0,0,722.168091
1132,-1934,4,0,0,0,635.973755
115,808,1,1,0,5,82.215279
-1672,1106,2,0,0,0,645.760437
-537,-29,3,0,0,0,1065.361084
494,-1180,4,0,0,0,796.548645
1354,1299,1,1,0,5,82.215279
-1331,940,2,0,0,0,704.999695
-1981,-1180,3,0,0,0,646.873962
1905,-1146,4,0,0,0,638.246216
522,148,1,0,0,0,1062.802612
-634,872,2,0,0,0,823.562805
-1815,-1644,3,1,0,4,131.211838
1264,-802,4,0,0,0,751.409607
1489,1821,1,0,0,0,641.184570
-1942,1119,2,0,0,0,613.977417
-890,-1502,3,0,0,0,726.440613
485,-1354,4,0,0,0,762.895203
1389,1667,1,0,0,0,664.224121
-1602,632,2,0,0,0,689.163147
-1172,-913,3,0,0,0,772.753967
1257,-1625,4,1,0,3,83.127991
1038,1243,1,0,0,0,748.006775
-1247,1301,2,1,0,5,82.215279
-793,-1319,3,1,0,4,131.211838
923,-557,4,0,0,0,845.753723
1378,597,1,0,0,0,769.656006
-1158,290,2,0,0,0,794.271545
-200,-1446,3,1,0,4,131.211838
1220,-1363,4,0,0,0,693.955017
601,269,1,0,0,0,1006.993713
-1725,275,2,0,0,0,685.102051
-135,-62,3,0,0,0,1436.480835
1151,-283,4,0,0,0,818.476929
141,1169,1,0,0,0,839.580627
-505,1619,2,0,0,0,693.554626
-1556,-1132,3,0,0,0,698.580750
689,-805,4,1,0,3,83.127991
653,1452,1,0,0,0,752.891479
-1102,1641,2,0,0,0,649.775513
-928,-1944,3,0,0,0,666.298767
899,-1232,4,0,0,0,746.060730
677,490,1,0,0,0,938.288269
-1357,786,2,0,0,0,715.977600
-1799,-1487,3,1,0,4,131.211838
1112,-1729,4,0,0,0,660.585999
1572,220,1,0,0,0,753.750549
-1713,1720,2,0,0,0,591.306213
-392,-123,3,1,0,4,131.211838
1736,-1442,4,0,0,0,633.965027
892,1579,1,1,0,5,82.215279
-149,471,2,0,0,0,1048.367310
-325,-786,3,1,0,4,131.211838
441,-1395,4,0,0,0,757.986816
1523,585,1,1,0,3,83.127991
-1024,1446,2,0,0,0,681.024780
-1094,-1040,3,0,0,0,768.190369
452,-1395,4,0,0,0,757.329773
1439,320,1,1,0,3,83.127991
-1880,1666,2,0,0,0,581.607056
-1926,-1378,3,1,0,4,131.211838
598,-1457,4,1,0,3,83.127991
1487,1083,1,0,0,0,711.459839
-989,1571,2,0,0,0,667.704651
-1400,-136,3,0,0,0,788.461731
1994,-1051,4,0,0,0,634.312988
1779,178,1,0,0,0,719.627136
-98,594,2,0,0,0,991.354980
-852,-580,3,0,0,0,877.899658
59,-390,4,1,0,3,83.127991
1789,1299,1,1,0,3,83.127991
-56,1401,2,0,0,0,748.074829
-737,-205,3,0,0,0,963.772888
948,-1926,4,0,0,0,648.228943
1730,1430,1,0,0,0,654.563599
-558,310,2,0,0,0,974.480591
-94,-1628,3,0,0,0,746.011841
62,-678,4,0,0,0,978.117065
476,1721,1,1,0,5,82.215279
-8,1393,2,0,0,0,749.942444
-1161,-1353,3,0,0,0,720.435913
1387,-707,4,0,0,0,740.165527
11,908,1,1,0,5,82.215279
-487,1915,2,0,0,0,649.880798
-1591,-1146,3,0,0,0,693.193604
967,-1477,4,0,0,0,704.127441
447,893,1,0,0,0,886.995361
-675,1653,2,1,0,5,82.215279
-1796,-889,3,1,0,4,131.211838
559,-1367,4,1,0,3,83.127991
671,1675,1,1,0,5,82.215279
-602,112,2,1,0,5,82.215279
-123,-1196,3,1,0,4,131.211838
1229,-605,4,0,0,0,776.887024
1758,1506,1,0,0,0,645.755920
-1747,845,2,0,0,0,655.029968
-910,-1095,3,1,0,4,131.211838
553,-149,4,0,0,0,1027.960938
566,510,1,0,0,0,964.944336
-585,412,2,0,0,0,941.585205
-920,-1589,3,0,0,0,711.999817
528,-1389,4,0,0,0,753.524902
1606,1853,1,1,0,5,82.215279
-1812,1543,2,0,0,0,596.920837
-350,-1384,3,0,0,0,784.208313
1165,-1664,4,0,0,0,664.001099
1392,1705,1,0,0,0,660.143494
-1722,1775,2,0,0,0,586.034973
-95,-1337,3,0,0,0,802.319641
860,-584,4,1,0,3,83.127991
4,1956,1,0,0,0,693.889160
-1239,1641,2,0,0,0,638.525391
-330,-87,3,0,0,0,1196.524658
103,-1732,4,1,0,3,83.127991
729,1020,1,0,0,0,821.531189
-1405,1416,2,0,0,0,647.177673
-1711,-293,3,0,0,0,728.083435
1844,-315,4,0,0,0,687.542542
673,274,1,0,0,0,978.591492
-312,1351,2,1,0,5,82.215279
-841,-452,3,0,0,0,899.927673
1791,-386,4,1,0,3,83.127991
1044,1403,1,0,0,0,725.959961
-1980,671,2,0,0,0,633.796570
-298,-1551,3,0,0,0,755.191711
996,-293,4,1,0,3,83.127991
284,258,1,0,0,0,1162.731445
-1490,622,2,0,0,0,707.621826
-7,-1446,3,0,0,0,780.520081
1699,-1155,4,0,0,0,660.767334
525,1683,1,0,0,0,723.646362
-1126,1060,2,0,0,0,719.981018
-1766,-280,3,0,0,0,719.598694
469,-115,4,0,0,0,1077.153320
1334,708,1,1,0,3,83.127991
-127,87,2,0,0,0,1384.705566
-1947,-436,3,0,0,0,688.208984
1773,-1214,4,1,0,3,83.127991
82,508,1,0,0,0,1078.081421
-785,950,2,1,0,5,82.215279
-1356,-1967,3,0,0,0,636.754150
1302,-722,4,0,0,0,752.981201
1936,545,1,0,0,0,685.920105
-721,1970,2,1,0,5,82.215279
-1253,-1282,3,1,0,4,131.211838
15,-1743,4,0,0,0,707.772766
557,978,1,1,0,5,82.215279
-335,1409,2,0,0,0,738.783447
-1806,-704,3,0,0,0,696.482056
1964,-107,4,0,0,0,673.203064
1342,1271,1,0,0,0,710.097412
-1482,289,2,0,0,0,726.831909
-1222,-987,3,0,0,0,756.750732
338,-1336,4,0,0,0,775.162231
1476,1681,1,0,0,0,655.514893
-583,30,2,0,0,0,1000.232239
-301,-1896,3,1,0,4,131.211838
861,-949,4,0,0,0,796.067749
384,967,1,0,0,0,875.182922
-1095,1670,2,1,0,5,82.215279
-822,-1350,3,0,0,0,754.974426
819,-788,4,0,0,0,830.555115
1662,1491,1,0,0,0,656.058044
-1059,881,2,0,0,0,753.147583
-1142,-934,3,1,0,4,131.211838
376,-662,4,1,0,3,83.127991
591,512,1,0,0,0,957.455078
-1882,1812,2,1,0,5,82.215279
-246,-481,3,0,0,0,1064.037598
1319,-66,4,0,0,0,787.392456
483,561,1,0,0,0,973.232788
-1410,1464,2,0,0,0,641.820740
-601,-491,3,0,0,0,959.625793
192,-372,4,1,0,3,83.127991
1918,548,1,0,0,0,688.276550
-1724,1965,2,0,0,0,570.322144
-1415,-1017,3,1,0,4,131.211838
235,-600,4,0,0,0,993.976440
1161,1277,1,1,0,5,82.215279
-1699,926,2,1,0,5,82.215279
-1803,-497,3,1,0,4,131.211838
18,-1908,4,1,0,3,83.127991
211,422,1,0,0,0,1103.103760
-1026,260,2,0,0,0,828.863220
-1639,-1156,3,0,0,0,686.716614
716,-1846,4,0,0,0,671.308716
1033,955,1,0,0,0,788.416809
-1367,1215,2,0,0,0,671.965149
-1243,-520,3,0,0,0,800.819214
746,-1507,4,0,0,0,718.067810
281,790,1,0,0,0,937.335999
-614,19,2,1,0,5,82.215279
-1561,-1102,3,0,0,0,700.583374
1880,-1031,4,0,0,0,648.564270
1792,1872,1,0,0,0,613.603638
-1244,293,2,0,0,0,774.673340
-109,-1862,3,0,0,0,707.500366
1366,-1449,4,0,0,0,669.671082
435,1257,1,0,0,0,804.521973
-1503,580,2,0,0,0,708.258850
-1527,-1396,3,1,0,4,131.211838
475,-1019,4,0,0,0,833.674866
421,1257,1,1,0,5,82.215279
-358,961,2,1,0,5,82.215279
-1761,-970,3,0,0,0,686.029907
1474,-1580,4,0,0,0,646.356567
1048,1316,1,0,0,0,737.076416
-19,159,2,0,0,0,1373.331909
-343,-774,3,1,0,4,131.211838
79,-750,4,0,0,0,948.642883
225,262,1,0,0,0,1193.098145
-1126,1486,2,0,0,0,666.469971
-542,-631,3,0,0,0,939.635803
691,-880,4,0,0,0,835.058960
1854,67,1,0,0,0,709.036438
-1636,137,2,0,0,0,702.853271
-1433,-1274,3,1,0,4,131.211838
303,-1226,4,0,0,0,800.244385
868,667,1,0,0,0,860.560791
-1820,1576,2,0,0,0,593.651367
-289,-330,3,0,0,0,1124.116211
601,-1181,4,0,0,0,786.420410
1361,152,1,1,0,3,83.127991
-117,756,2,0,0,0,922.321838
-348,-744,3,0,0,0,943.280273
288,-1117,4,0,0,0,826.285156
1285,222,1,0,0,0,810.219666
-1018,685,2,0,0,0,786.378479
-1614,-1837,3,1,0,4,131.211838
1422,-1245,4,1,0,3,83.127991
703,811,1,0,0,0,866.241577
-1670,987,2,0,0,0,655.142334
-1188,-141,3,0,0,0,835.008179
1930,-641,4,0,0,0,663.667175
578,1650,1,0,0,0,726.042542
-609,55,2,0,0,0,986.866150
-1384,-1285,3,1,0,4,131.211838
1306,-1209,4,0,0,0,701.817139
1427,1873,1,1,0,5,82.215279
-371,716,2,0,0,0,907.138000
-1615,-235,3,0,0,0,745.783813
705,-1295,4,0,0,0,755.755432
49,1510,1,0,0,0,767.934387
-485,1718,2,1,0,5,82.215279
-913,-1727,3,0,0,0,694.258179
373,-627,4,1,0,3,83.127991
82,1004,1,0,0,0,884.493469
-323,546,2,0,0,0,976.266785
-1175,-181,3,0,0,0,836.812195
413,-38,4,0,0,0,1121.027954
535,1147,1,0,0,0,818.813416
-300,1833,2,1,0,5,82.215279
-1058,-393,3,1,0,4,131.211838
1888,-1877,4,0,0,0,586.983337
709,192,1,1,0,3,83.127991
-1375,580,2,1,0,5,82.215279
-603,-1741,3,0,0,0,711.010498
1075,-773,4,0,0,0,786.650269
557,1857,1,0,0,0,696.427002
-793,1647,2,0,0,0,672.112732
-1938,-1356,3,1,0,4,131.211838
1963,-359,4,0,0,0,669.070984
1300,969,1,0,0,0,747.653442
-171,1543,2,0,0,0,718.870483
-1691,-1197,3,0,0,0,677.439514
937,-1513,4,1,0,3,83.127991
112,705,1,0,0,0,983.713196
-1849,1975,2,0,0,0,560.606262
-963,-728,3,0,0,0,832.406311
1692,-1938,4,0,0,0,596.696167
323,474,1,0,0,0,1046.774170
-1350,874,2,0,0,0,708.757935
-250,-1099,3,1,0,4,131.211838
430,-1997,4,0,0,0,662.390930
1674,1180,1,0,0,0,680.728394
-434,243,2,0,0,0,1046.394287
-284,-102,3,0,0,0,1232.022583
1721,-488,4,0,0,0,700.348206
2,1920,1,0,0,0,699.206848
-1837,1857,2,0,0,0,570.537415
-154,-1993,3,1,0,4,131.211838
1256,-506,4,0,0,0,780.208252
940,211,1,0,0,0,897.339294
-784,1817,2,1,0,5,82.215279
-1124,-235,3,0,0,0,846.797485
760,-1267,4,0,0,0,755.173035
1567,65,1,0,0,0,757.201477
-1402,447,2,0,0,0,734.214355
-1836,-1439,3,0,0,0,643.563232
1646,-73,4,1,0,3,83.127991
1252,712,1,0,0,0,781.659058
-1735,319,2,0,0,0,682.283264
-204,-199,3,0,0,0,1248.522949
360,-1643,4,1,0,3,83.127991
655,579,1,0,0,0,925.312317
-705,53,2,1,0,5,82.215279
-482,-486,3,0,0,0,995.817322
1233,-1597,4,0,0,0,665.932678
1656,993,1,0,0,0,697.586060
-1630,382,2,0,0,0,697.252197
-598,-34,3,0,0,0,1034.292480
954,-567,4,0,0,0,837.407532
1909,0,1,0,0,0,700.851929
-1037,156,2,0,0,0,831.528564
-739,-195,3,0,0,0,964.031311
28,-1787,4,0,0,0,700.609253
1697,1956,1,0,0,0,613.813477
-1249,950,2,0,0,0,715.788330
-1083,-369,3,0,0,0,847.843567
650,-696,4,0,0,0,881.442627
1461,1695,1,0,0,0,655.423645
-300,333,2,0,0,0,1076.422852
-1002,-525,3,0,0,0,851.113770
1481,-1502,4,1,0,3,83.127991
1353,949,1,0,0,0,742.180176
-455,954,2,0,0,0,829.266418
-1722,-1107,3,0,0,0,680.863037
1048,-1379,4,0,0,0,709.590942
115,113,1,0,0,0,1412.866211
-485,828,2,1,0,5,82.215279
-1881,-1804,3,1,0,4,131.211838
933,-528,4,0,0,0,847.360291
397,757,1,1,0,5,82.215279
-1288,1068,2,0,0,0,697.418152
-1517,-260,3,0,0,0,762.601440
73,-1334,4,0,0,0,784.073547
1816,570,1,1,0,3,83.127991
-437,143,2,1,0,5,82.215279
-48,-183,3,1,0,0,489.053101
1322,-611,4,0,0,0,759.300354
859,1593,1,0,0,0,716.129089
-283,106,2,1,0,0,264.948975
-1658,-1280,3,1,0,4,131.211838
1845,-1323,4,1,0,3,83.127991
370,874,1,1,0,5,82.215279
-872,799,2,0,0,0,796.946228
-1994,-340,3,0,0,0,684.284973
1343,-1505,4,0,0,0,666.003662
1246,40,1,1,0,3,83.127991
-909,1880,2,0,0,0,634.122009
-1989,-333,3,1,0,4,131.211838
198,-1580,4,1,0,3,83.127991
1423,1913,1,0,0,0,637.338013
-658,430,2,0,0,0,914.505432
-1344,-68,3,0,0,0,801.174927
461,-1576,4,0,0,0,724.879822
1928,1309,1,0,0,0,643.850830
-735,1910,2,0,0,0,639.869690
-1096,-1658,3,0,0,0,689.317505
394,-384,4,1,0,3,83.127991
258,1736,1,0,0,0,724.936462
-644,1518,2,1,0,5,82.215279
-275,-1567,3,0,0,0,753.095398
251,-569,4,0,0,0,1004.210999
961,1159,1,0,0,0,768.925354
-1630,1758,2,0,0,0,594.849121
-1096,-1284,3,0,0,0,736.081116
1911,-246,4,1,0,3,83.127991
1357,519,1,0,0,0,779.163452
-981,138,2,0,0,0,847.899414
-191,-345,3,0,0,0,1154.834473
400,-708,4,0,0,0,926.930176
1375,186,1,0,0,0,792.383301
-1591,1213,2,0,0,0,646.335266
-1586,-1793,3,0,0,0,636.195312
200,-1353,4,0,0,0,777.336060
1440,777,1,1,0,3,83.127991
-587,676,2,0,0,0,877.032043
-1039,-1071,3,0,0,0,771.497009
1889,-169,4,0,0,0,683.619446
144,596,1,0,0,0,1027.544800
-1937,1121,2,0,0,0,614.400146
-602,-108,3,1,0,4,131.211838
1839,-1769,4,0,0,0,599.019287
129,1164,1,0,0,0,841.135437
-1200,618,2,1,0,5,82.215279
-491,-1295,3,0,0,0,792.915344
592,-1121,4,1,0,3,83.127991
926,252,1,1,0,3,83.127991
-14,1360,2,0,0,0,756.812439
-107,-1978,3,0,0,0,690.271240
1445,-679,4,0,0,0,732.929077
811,726,1,0,0,0,862.193115
-1909,1097,2,0,0,0,619.046082
-1586,-418,3,0,0,0,744.354492
1823,-955,4,0,0,0,660.269897
1924,453,1,1,0,3,83.127991
-1375,1285,2,1,0,5,82.215279
-1619,-1922,3,0,0,0,622.350281
419,-371,4,0,0,0,1034.620239
204,926,1,0,0,0,901.914551
-1467,361,2,0,0,0,726.670776
-63,-1308,3,0,0,0,809.013916
1821,-1958,4,0,0,0,585.745850
1388,1874,1,0,0,0,643.646912
-1728,272,2,1,0,5,82.215279
-1056,-1183,3,0,0,0,754.033142
1631,-1680,4,0,0,0,623.469788
1573,1037,1,0,0,0,704.616638
-722,874,2,0,0,0,809.122009
-517,-1398,3,1,0,4,131.211838
120,-1703,4,0,0,0,713.724243
602,926,1,0,0,0,857.994019
-470,1498,2,1,0,5,82.215279
-78,-153,3,1,0,0,529.717651
1036,-1283,4,0,0,0,723.657715
300,376,1,1,0,5,82.215279
-1323,1657,2,0,0,0,629.768799
-1450,-788,3,0,0,0,742.588623
166,-1032,4,0,0,0,854.638428
1445,1332,1,0,0,0,692.538086
-63,1093,2,0,0,0,819.144043
-185,-896,3,0,0,0,912.212585
1420,788,1,0,0,0,747.196777
-967,1284,2,1,0,5,82.215279
-1109,-1942,3,0,0,0,655.603149
250,1020,1,0,0,0,872.501709
-983,223,2,1,0,5,82.215279
-83,-860,3,0,0,0,928.702148
1826,817,1,0,0,0,687.461426
-1580,900,2,1,0,5,82.215279
-1991,-1431,3,0,0,0,629.360474
1344,343,1,0,0,0,792.475708
-1905,239,2,0,0,0,658.090332
-1361,-393,3,0,0,0,786.423401
388,935,1,0,0,0,883.077759
-1051,315,2,1,0,5,82.215279
-307,-1923,3,0,0,0,695.157959
225,1651,1,0,0,0,739.825195
-1728,1436,2,1,0,5,82.215279
-1257,-1514,3,1,0,4,131.211838
1997,1832,1,0,0,0,600.887146
-764,155,2,0,0,0,916.889648
-268,-1251,3,0,0,0,815.706604
744,1938,1,0,0,0,676.871460
-796,1457,2,0,0,0,699.639343
-986,-1429,3,0,0,0,728.042114
1470,326,1,0,0,0,768.901611
-236,964,2,0,0,0,847.374756
-1280,-1466,3,1,0,4,131.211838
1711,1999,1,0,0,0,609.269348
-705,1137,2,0,0,0,761.544922
-1262,-1269,3,1,0,4,131.211838
1219,18,1,0,0,0,829.579163
-80,525,2,1,0,5,82.215279
-87,-409,3,0,0,0,1137.925659
555,580,1,0,0,0,949.881531
-2000,305,2,1,0,5,82.215279
-1246,-269,3,0,0,0,816.760010
1839,1971,1,0,0,0,602.393311
-1428,1510,2,1,0,5,82.215279
-1042,-966,3,0,0,0,785.556335
527,538,1,0,0,0,968.279846
-1284,-1625,3,0,0,0,677.539978
361,256,1,0,0,0,1121.563843
-20,-1462,3,0,0,0,777.335571
1493,389,1,0,0,0,761.907532
-1125,-617,3,0,0,0,814.875671
1641,1088,1,1,0,3,83.127991
-1726,-1409,3,0,0,0,656.659912
1489,120,1,1,0,3,83.127991
-1775,-728,3,0,0,0,699.431885
248,943,1,0,0,0,893.870544
-1614,-11,3,1,0,5,82.215279
1418,1108,1,0,0,0,717.762756
-479,-541,3,1,0,4,131.211838
1303,1101,1,0,0,0,733.086975
-127,-1957,3,1,0,3,83.127991
1112,457,1,0,0,0,833.591492
-227,-843,3,1,0,4,131.211838
1400,276,1,1,0,3,83.127991
-905,-875,3,0,0,0,820.364197
705,918,1,0,0,0,844.508606
-1888,-1429,3,0,0,0,639.305237
1075,802,1,1,0,3,83.127991
-563,-705,3,0,0,0,916.233398
40,1539,1,0,0,0,762.526855
-511,-1740,3,0,0,0,715.553284
277,1356,1,0,0,0,793.113281
-840,-117,3,0,0,0,934.048767
1562,610,1,0,0,0,738.002197
-396,-1345,3,1,0,4,131.211838
591,1969,1,1,0,5,82.215279
-526,-303,3,1,0,4,131.211838
1139,1276,1,0,0,0,732.325806
-1836,-1016,3,1,0,4,131.211838
1223,1589,1,0,0,0,686.787964
-13,-1621,3,0,0,0,747.716187
1981,1296,1,1,0,3,83.127991
887,435,1,0,0,0,890.098022
1359,1714,1,0,0,0,661.923523
1432,294,1,1,0,3,83.127991
926,1857,1,0,0,0,676.986206
1106,1686,1,0,0,0,685.189697
842,1878,1,1,0,5,82.215279
1051,591,1,0,0,0,832.749146
1616,972,1,0,0,0,704.353027
1700,377,1,0,0,0,727.193787
240,1901,1,1,0,5,82.215279
1783,829,1,1,0,3,83.127991
256,1423,1,1,0,5,82.215279
1301,408,1,0,0,0,797.407654
164,1428,1,0,0,0,782.239624
1300,1725,1,0,0,0,665.521912
277,1571,1,0,0,0,752.323303
1484,360,1,0,0,0,764.863159
1788,55,1,0,0,0,719.472839
856,1161,1,0,0,0,781.229858
745,1881,1,0,0,0,684.230713
794,1336,1,0,0,0,759.814697
652,85,1,1,0,3,83.127991
1117,1079,1,0,0,0,760.016968
1379,1203,1,0,0,0,712.957764
1897,1809,1,0,0,0,610.350220
613,753,1,0,0,0,895.083374
354,1950,1,0,0,0,690.129761
1667,1272,1,0,0,0,673.998718
781,49,1,0,0,0,957.234375
800,1496,1,0,0,0,734.672058
1214,1960,1,1,0,5,82.215279
240,410,1,0,0,0,1101.112549
623,430,1,0,0,0,966.799805
643,253,1,0,0,0,993.093811
191,589,1,1,0,5,82.215279
1206,253,1,1,0,3,83.127991
950,1084,1,0,0,0,781.444031


the max average throughput times

BS TX power
MBS area 1,MBS area 2,MBS area 3,MBS area 4,CBSD 1,CBSD 2,CBSD 3,CBSD 4,CBSD 5,CBSD 6,CBSD 7,CBSD 8,CBSD 9,CBSD 10,
10.000,10.000,10.000,10.000,0.625,0.875,0.000,1.000,0.625,0.000,0.000,0.000,0.000,0.000,
max average throughput
618.294861

x,y,area,be blocked (1 : NLOS / 0 : LOS),be blocked number (>=1 : CBSD(x) / 0 : no),connect bs number (>=1 : CBSD / 0 : MBS),throughput (unit : M bps)
1553,1335,1,0,0,0,680.750244
-208,721,2,1,0,5,132.007629
-870,-1076,3,0,0,0,793.172546
1345,-1038,4,1,0,2,76.919121
851,725,1,0,0,0,854.504456
-381,614,2,0,0,0,980.196533
-1711,-1779,3,1,0,4,99.078323
1540,-1904,4,0,0,0,629.717285
330,1825,1,0,0,0,709.131287
-1970,1649,2,0,0,0,616.072327
-377,-370,3,0,0,0,1070.528198
684,-86,4,0,0,0,993.761230
69,552,1,0,0,0,1055.601440
-1479,1006,2,1,0,5,132.007629
-437,-1709,3,0,0,0,723.483521
834,-1235,4,0,0,0,771.870300
1642,1447,1,0,0,0,661.765503
-171,619,2,0,0,0,1014.205750
-1003,-761,3,0,0,0,820.320801
1576,-500,4,0,0,0,742.045654
388,463,1,1,0,2,76.919121
-860,195,2,0,0,0,922.816467
-840,-1063,3,0,0,0,799.235352
42,-1666,4,0,0,0,739.779053
1585,1976,1,0,0,0,620.079529
-1239,552,2,1,0,5,132.007629
-452,-1023,3,1,0,4,99.078323
1439,-247,4,0,0,0,777.747070
99,485,1,1,0,2,76.919121
-112,357,2,0,0,0,1169.991089
-802,-1483,3,1,0,4,99.078323
718,-1763,4,1,0,4,99.078323
1856,1007,1,0,0,0,672.000305
-1062,264,2,1,0,5,132.007629
-227,-1100,3,1,0,4,99.078323
1555,-169,4,0,0,0,757.969666
809,1879,1,0,0,0,681.054443
-129,981,2,0,0,0,889.655151
-695,-675,3,0,0,0,895.714905
934,-1697,4,0,0,0,696.676147
937,1931,1,0,0,0,667.336487
-1786,1281,2,0,0,0,660.554871
-1836,-1445,3,1,0,4,99.078323
1186,-1267,4,0,0,0,728.154175
1256,1787,1,1,0,2,76.919121
-1704,1707,2,1,0,5,132.007629
-587,-1826,3,0,0,0,699.500549
814,-1056,4,0,0,0,803.836487
1237,1742,1,0,0,0,668.645020
-817,51,2,0,0,0,944.255127
-1926,-126,3,0,0,0,697.702515
1103,-1905,4,0,0,0,660.115417
745,1392,1,0,0,0,755.290527
-1145,1338,2,0,0,0,723.962341
-335,-798,3,0,0,0,928.213074
1561,-1407,4,0,0,0,673.366272
573,873,1,0,0,0,874.134583
-318,1781,2,0,0,0,716.236084
-1475,-1542,3,0,0,0,669.000427
452,-438,4,1,0,2,76.919121
407,1716,1,0,0,0,723.545410
-250,641,2,0,0,0,994.329590
-209,-1239,3,1,0,4,99.078323
420,-120,4,0,0,0,1125.336304
474,597,1,0,0,0,964.788147
-865,421,2,0,0,0,897.751831
-1505,-1335,3,0,0,0,685.844971
799,-989,4,1,0,2,76.919121
1506,188,1,0,0,0,766.627197
-996,353,2,1,0,5,132.007629
-1261,-768,3,0,0,0,774.535095
1435,-889,4,0,0,0,736.097534
533,101,1,0,0,0,1062.850464
-1142,704,2,1,0,5,132.007629
-25,-1194,3,0,0,0,835.507935
672,-909,4,1,0,2,76.919121
18,956,1,0,0,0,899.505737
-222,278,2,1,0,0,240.880920
-753,-240,3,0,0,0,954.381348
474,-1297,4,1,0,4,99.078323
1810,256,1,0,0,0,713.266785
-1936,731,2,1,0,5,132.007629
-1241,-233,3,0,0,0,819.484985
452,-1209,4,0,0,0,813.168213
468,1347,1,0,0,0,784.527527
-303,1735,2,0,0,0,723.927124
-388,-1398,3,1,0,4,99.078323
725,-121,4,0,0,0,975.283508
757,1742,1,0,0,0,702.299500
-551,1522,2,1,0,5,132.007629
-353,-1892,3,1,0,4,99.078323
201,-1140,4,0,0,0,844.481567
1628,568,1,0,0,0,730.016357
-1057,194,2,1,0,5,132.007629
-1547,-758,3,0,0,0,730.268982
1801,-1449,4,0,0,0,646.166382
1186,611,1,0,0,0,803.660034
-107,681,2,1,0,5,132.007629
-1114,-395,3,0,0,0,838.487244
458,-1155,4,0,0,0,824.120544
629,806,1,1,0,2,76.919121
-559,870,2,1,0,5,132.007629
-1681,-253,3,0,0,0,734.087708
701,-1002,4,0,0,0,828.699524
1709,1053,1,0,0,0,686.473877
-224,1482,2,0,0,0,770.216919
-1133,-1558,3,0,0,0,698.252869
1046,-349,4,1,0,2,76.919121
407,745,1,0,0,0,933.771667
-638,1061,2,0,0,0,825.150940
-319,-109,3,0,0,0,1200.068970
1571,-1449,4,0,0,0,668.553955
1605,1186,1,0,0,0,688.147400
-1834,766,2,0,0,0,689.312683
-603,-28,3,0,0,0,1032.046509
1216,-243,4,0,0,0,824.688171
973,1247,1,1,0,2,76.919121
-1830,1762,2,0,0,0,619.267090
-1475,-1475,3,0,0,0,675.489380
1171,-1010,4,1,0,2,76.919121
1382,891,1,0,0,0,743.626770
-1541,1624,2,0,0,0,655.294739
-424,-1491,3,0,0,0,760.558044
65,-22,4,0,0,0,1659.328125
355,916,1,0,0,0,891.716919
-418,1313,2,0,0,0,794.376831
-620,-1120,3,1,0,4,99.078323
354,-1667,4,1,0,4,99.078323
1701,651,1,0,0,0,714.317871
-1885,1047,2,1,0,5,132.007629
-88,-1785,3,0,0,0,719.741638
1640,-1614,4,0,0,0,647.469849
1376,49,1,0,0,0,794.597656
-563,1811,2,0,0,0,702.733582
-1592,-1502,3,0,0,0,661.750427
1499,-867,4,0,0,0,728.783447
148,1490,1,1,0,2,76.919121
-1909,1389,2,0,0,0,640.146179
-1768,-1927,3,0,0,0,611.012634
446,-428,4,0,0,0,1025.206421
974,1714,1,0,0,0,691.643494
-354,1020,2,0,0,0,864.529541
-246,-535,3,0,0,0,1039.204834
1119,-1547,4,1,0,2,76.919121
1055,262,1,1,0,2,76.919121
-1390,1424,2,0,0,0,688.966675
-437,-1666,3,1,0,4,99.078323
730,-1823,4,0,0,0,692.761292
766,1147,1,0,0,0,794.099426
-598,1018,2,0,0,0,838.806152
-40,-1452,3,0,0,0,779.224976
160,-980,4,0,0,0,888.629639
1961,1819,1,0,0,0,604.609558
-1023,285,2,0,0,0,869.294189
-463,-752,3,0,0,0,922.400757
555,-1568,4,0,0,0,740.331055
108,1848,1,0,0,0,709.663391
-1376,1283,2,1,0,5,132.007629
-1509,-895,3,0,0,0,725.036682
1338,-1894,4,1,0,4,99.078323
1539,614,1,0,0,0,741.430847
-1973,1163,2,0,0,0,648.804077
-46,-537,3,0,0,0,1064.726807
1193,-621,4,0,0,0,801.339294
1641,1354,1,0,0,0,669.856323
-1472,105,2,1,0,5,132.007629
-675,-1188,3,0,0,0,796.798035
1794,-671,4,1,0,2,76.919121
1723,1668,1,0,0,0,635.681580
-1579,730,2,1,0,5,132.007629
-1706,-916,3,0,0,0,696.778015
859,-1536,4,0,0,0,724.151428
915,1111,1,0,0,0,781.860168
-1997,455,2,1,0,5,132.007629
-408,-2000,3,0,0,0,681.693481
1432,-470,4,0,0,0,768.626465
931,923,1,0,0,0,808.690979
-1034,1622,2,0,0,0,698.678345
-1210,-1039,3,0,0,0,752.388062
295,-1710,4,1,0,4,99.078323
1460,1038,1,1,0,2,76.919121
-1835,1126,2,0,0,0,666.459412
-1185,-677,3,0,0,0,797.138062
1368,-70,4,1,0,2,76.919121
1412,1077,1,0,0,0,721.561157
-420,696,2,1,0,5,132.007629
-1322,-1945,3,0,0,0,641.247681
720,-1867,4,0,0,0,687.378479
1589,1872,1,0,0,0,628.947632
-1210,1666,2,0,0,0,679.203552
-241,-1299,3,0,0,0,806.467712
1545,-1412,4,0,0,0,674.523193
1217,427,1,0,0,0,813.389954
-1433,1063,2,0,0,0,720.214111
-1588,-1839,3,0,0,0,631.946960
1801,-1392,4,0,0,0,650.556580
1302,1035,1,0,0,0,740.342651
-508,1228,2,0,0,0,804.784058
-992,-1935,3,0,0,0,663.616455
1792,-428,4,0,0,0,711.020813
427,236,1,0,0,0,1093.445679
-112,800,2,0,0,0,948.077698
-1001,-176,3,0,0,0,881.929443
972,-1034,4,0,0,0,785.911133
893,1116,1,0,0,0,783.859863
-76,253,2,0,0,0,1270.406006
-408,-1672,3,1,0,4,99.078323
1074,-1939,4,0,0,0,658.138489
1711,1537,1,0,0,0,647.596680
-1048,1388,2,0,0,0,727.538513
-1886,-321,3,0,0,0,700.234314
59,-698,4,1,0,4,99.078323
1428,699,1,0,0,0,753.284180
-941,1230,2,0,0,0,760.825562
-63,-839,3,0,0,0,936.349792
521,-1257,4,0,0,0,797.994324
1476,1320,1,0,0,0,690.379028
-397,740,2,0,0,0,936.896423
-839,-1411,3,0,0,0,744.103027
1496,-569,4,0,0,0,751.367493
724,999,1,0,0,0,826.147766
-1195,534,2,0,0,0,809.152588
-1153,-792,3,0,0,0,790.055237
1033,-507,4,0,0,0,846.194763
994,914,1,0,0,0,800.188599
-1025,1915,2,0,0,0,663.932068
-1572,-104,3,1,0,4,99.078323
1154,-1093,4,1,0,2,76.919121
597,1190,1,0,0,0,804.259399
-1470,1468,2,0,0,0,676.654785
-1749,-323,3,0,0,0,721.122864
1678,-1437,4,1,0,2,76.919121
1995,383,1,0,0,0,683.064270
-105,1154,2,0,0,0,844.187927
-205,-530,3,0,0,0,1049.463379
44,-775,4,0,0,0,959.559204
1358,963,1,0,0,0,740.078125
-863,408,2,0,0,0,899.983276
-180,-1482,3,0,0,0,771.357544
1403,-745,4,1,0,2,76.919121
1477,1463,1,0,0,0,676.456909
-1980,192,2,0,0,0,689.061157
-1493,-1125,3,0,0,0,706.853577
1472,-1348,4,0,0,0,688.101929
394,670,1,0,0,0,959.183044
-752,1725,2,1,0,5,132.007629
-1331,-1025,3,1,0,4,99.078323
1616,-811,4,0,0,0,716.407227
1737,1485,1,0,0,0,649.428650
-41,1450,2,0,0,0,779.615051
-192,-1423,3,0,0,0,782.537903
902,-1408,4,0,0,0,738.814148
534,1648,1,0,0,0,728.670105
-1905,1991,2,0,0,0,596.155212
-1648,-170,3,0,0,0,741.468140
142,-464,4,0,0,0,1095.007935
544,795,1,0,0,0,897.364075
-275,1972,2,1,0,5,132.007629
-412,-1672,3,0,0,0,730.387085
981,-1847,4,0,0,0,674.751709
448,1677,1,0,0,0,728.099487
-635,1531,2,0,0,0,741.343689
-171,-1081,3,1,0,4,99.078323
599,-1600,4,0,0,0,732.654541
1725,1662,1,0,0,0,636.006042
-1782,657,2,1,0,5,132.007629
-514,-1182,3,1,0,4,99.078323
23,-1347,4,0,0,0,800.859619
782,1112,1,0,0,0,798.260193
-1111,1719,2,0,0,0,680.912476
-44,-1619,3,0,0,0,747.973755
856,-679,4,1,0,2,76.919121
1277,1030,1,0,0,0,744.274109
-1962,1127,2,0,0,0,652.265625
-1138,-6,3,0,0,0,849.387024
1472,-1973,4,1,0,2,76.919121
1211,136,1,0,0,0,829.701965
-1312,629,2,0,0,0,778.743896
-1672,-772,3,1,0,4,99.078323
1462,-1780,4,1,0,2,76.919121
1336,1268,1,0,0,0,711.093750
-231,627,2,0,0,0,1002.758667
-287,-1820,3,0,0,0,711.007202
1755,-661,4,0,0,0,705.943726
952,1076,1,0,0,0,782.378662
-198,244,2,0,0,0,1220.343018
-984,-1952,3,0,0,0,662.106140
614,-796,4,0,0,0,885.080444
947,1230,1,0,0,0,760.149292
-1313,1763,2,0,0,0,660.513733
-103,-1271,3,1,0,4,99.078323
1978,-354,4,0,0,0,686.179138
1355,210,1,1,0,2,76.919121
-300,42,2,0,0,0,1230.911743
-73,-195,3,0,0,0,1339.072998
1220,-540,4,0,0,0,803.653198
746,1511,1,0,0,0,736.597046
-836,1445,2,0,0,0,739.284302
-772,-1432,3,0,0,0,746.693787
91,-1008,4,1,0,4,99.078323
586,1274,1,0,0,0,789.337524
-1557,795,2,0,0,0,726.056885
-1069,-1941,3,0,0,0,658.224792
1574,-900,4,0,0,0,715.607361
1710,1199,1,0,0,0,675.146606
-582,485,2,0,0,0,966.568665
-1403,-975,3,0,0,0,732.642944
1529,-1950,4,0,0,0,626.348816
662,442,1,0,0,0,952.320312
-144,538,2,1,0,5,132.007629
-57,-823,3,1,0,4,99.078323
1110,-1143,4,1,0,2,76.919121
856,481,1,0,0,0,891.863892
-259,1703,2,0,0,0,730.292419
-230,-553,3,0,0,0,1034.312988
1258,-1330,4,0,0,0,712.846008
30,1995,1,0,0,0,688.208252
-1328,883,2,0,0,0,752.407776
-1107,-1347,3,0,0,0,726.828857
1547,-969,4,0,0,0,713.673157
1140,979,1,0,0,0,769.481201
-440,136,2,0,0,0,1110.077271
-1933,-1458,3,0,0,0,632.950073
1445,-1088,4,0,0,0,716.293701
491,1525,1,0,0,0,751.091736
-1361,1454,2,0,0,0,688.729919
-1875,-1634,3,0,0,0,625.303772
1735,-1669,4,1,0,2,76.919121
1048,1390,1,1,0,2,76.919121
-254,1278,2,1,0,5,132.007629
-1434,-172,3,0,0,0,780.865479
733,-776,4,1,0,2,76.919121
21,1144,1,1,0,2,76.919121
-1558,122,2,0,0,0,758.224304
-1981,-556,3,0,0,0,679.411255
1785,-1095,4,0,0,0,674.377075
1103,800,1,1,0,2,76.919121
-201,628,2,0,0,0,1006.587585
-1304,-1302,3,0,0,0,710.971191
742,-1747,4,0,0,0,702.499695
1901,561,1,1,0,2,76.919121
-1665,1615,2,0,0,0,645.175659
-1843,-1779,3,0,0,0,616.907043
1112,-1461,4,0,0,0,712.010864
918,258,1,0,0,0,900.290894
-760,764,2,0,0,0,865.076355
-965,-1302,3,0,0,0,747.791809
1010,-635,4,0,0,0,835.804321
1643,210,1,1,0,2,76.919121
-1355,124,2,0,0,0,798.001160
-1670,-708,3,0,0,0,715.490356
1694,-1243,4,1,0,2,76.919121
100,229,1,1,0,0,374.838257
-1687,1065,2,0,0,0,688.234619
-1448,-1946,3,1,0,4,99.078323
1030,-148,4,0,0,0,875.148254
688,259,1,1,0,2,76.919121
-6,662,2,1,0,2,76.919121
-99,-370,3,1,0,0,215.517151
1097,-1344,4,0,0,0,728.255920
78,416,1,0,0,0,1134.429932
-1660,1106,2,0,0,0,688.283386
-1946,-795,3,0,0,0,673.283142
1754,-1857,4,0,0,0,617.701355
715,1804,1,0,0,0,696.163025
-896,283,2,0,0,0,904.530701
-489,-1623,3,1,0,4,99.078323
366,-719,4,1,0,4,99.078323
1717,722,1,0,0,0,707.894043
-473,1514,2,1,0,5,132.007629
-1927,-1216,3,0,0,0,650.261780
1296,-1573,4,0,0,0,682.123718
1884,1345,1,0,0,0,645.758911
-1041,1835,2,1,0,5,132.007629
-599,-1872,3,1,0,4,99.078323
1406,-1558,4,0,0,0,673.760681
867,1670,1,1,0,2,76.919121
-1041,1298,2,0,0,0,740.236084
-1909,-639,3,0,0,0,685.655762
1604,-699,4,0,0,0,725.815918
1532,908,1,0,0,0,720.753845
-1823,9,2,1,0,5,132.007629
-430,-655,3,0,0,0,956.867065
873,-1518,4,0,0,0,725.580505
46,1771,1,0,0,0,722.249634
-503,1888,2,0,0,0,694.203674
-1929,-821,3,1,0,4,99.078323
267,-1062,4,0,0,0,860.462219
303,864,1,0,0,0,911.995239
-171,1294,2,1,0,5,132.007629
-43,-1072,3,1,0,4,99.078323
927,-823,4,0,0,0,824.786133
1813,336,1,0,0,0,710.792297
-869,1177,2,0,0,0,777.157959
-769,-999,3,1,0,4,99.078323
260,-1734,4,1,0,4,99.078323
1474,4,1,0,0,0,775.013672
-1668,927,2,0,0,0,700.959045
-290,-1264,3,0,0,0,811.810364
1178,-1220,4,0,0,0,734.768250
659,201,1,0,0,0,993.934143
-1110,963,2,0,0,0,775.890259
-280,-972,3,0,0,0,883.300598
91,-735,4,0,0,0,973.102417
1785,1636,1,1,0,2,76.919121
-862,1475,2,0,0,0,732.660828
-609,-900,3,0,0,0,862.669617
1497,-804,4,0,0,0,734.204041
1008,1187,1,0,0,0,759.239380
-964,485,2,0,0,0,864.677185
-589,-1674,3,0,0,0,721.764526
59,-403,4,0,0,0,1145.511963
1115,1571,1,0,0,0,698.244812
-424,1971,2,0,0,0,685.232422
-1025,-1204,3,0,0,0,754.856445
422,-1284,4,0,0,0,799.928345
117,681,1,0,0,0,993.096069
-992,1096,2,1,0,5,132.007629
-1714,-445,3,0,0,0,722.374512
1558,-1192,4,0,0,0,693.058655
1631,291,1,0,0,0,741.466125
-1310,1468,2,0,0,0,692.209778
-1841,-150,3,0,0,0,710.291138
1176,-465,4,1,0,2,76.919121
1834,429,1,0,0,0,704.701416
-1839,583,2,0,0,0,697.838745
-830,-498,3,0,0,0,895.983032
736,-1231,4,1,0,4,99.078323
1821,1244,1,0,0,0,659.587646
-541,1333,2,0,0,0,781.997131
-1991,-320,3,1,0,4,99.078323
406,-117,4,0,0,0,1134.926025
209,419,1,1,0,2,76.919121
-778,1532,2,0,0,0,731.017944
-1925,-1992,3,0,0,0,594.656616
233,-1287,4,1,0,4,99.078323
1572,489,1,1,0,2,76.919121
-869,811,2,1,0,5,132.007629
-1628,-1631,3,0,0,0,647.040894
1336,-251,4,0,0,0,798.273560
1843,1661,1,1,0,2,76.919121
-1435,1054,2,0,0,0,720.814758
-1082,-1650,3,0,0,0,691.395203
1266,-1515,4,0,0,0,691.220520
993,1143,1,1,0,2,76.919121
-528,1531,2,1,0,5,132.007629
-1372,-509,3,0,0,0,777.092651
344,-511,4,0,0,0,1026.207275
1162,1141,1,0,0,0,746.394897
-91,1729,2,0,0,0,728.829773
-421,-710,3,0,0,0,941.856506
949,-317,4,0,0,0,886.442993
1818,974,1,1,0,2,76.919121
-1102,188,2,1,0,5,132.007629
-1758,-1416,3,0,0,0,652.934998
1091,-745,4,0,0,0,806.482300
1227,1949,1,1,0,2,76.919121
-555,345,2,0,0,0,1009.174866
-1409,-1616,3,0,0,0,667.646912
358,-1207,4,0,0,0,820.331116
119,1348,1,1,0,2,76.919121
-1361,362,2,0,0,0,788.108704
-1352,-1762,3,0,0,0,657.577698
13,-332,4,1,0,0,265.343018
198,1851,1,0,0,0,708.057800
-80,376,2,0,0,0,1162.187744
-1207,-334,3,1,0,4,99.078323
541,-1176,4,0,0,0,812.336121
34,900,1,0,0,0,916.736328
-211,274,2,0,0,0,1192.702148
-511,-213,3,0,0,0,1056.994141
745,-315,4,0,0,0,947.701660
829,669,1,0,0,0,868.397644
-1553,1416,2,0,0,0,673.350464
-1570,-928,3,0,0,0,713.934875
508,-916,4,0,0,0,873.257935
404,850,1,0,0,0,904.073059
-1366,572,2,0,0,0,773.668579
-376,-25,3,0,0,0,1167.937012
1438,-1678,4,0,0,0,659.003296
1887,1524,1,1,0,2,76.919121
-1740,1993,2,0,0,0,607.715210
-202,-1320,3,1,0,4,99.078323
769,-629,4,0,0,0,888.483459
1682,828,1,1,0,2,76.919121
-1338,1051,2,0,0,0,733.836060
-1463,-1489,3,0,0,0,675.284729
1960,-483,4,1,0,2,76.919121
1095,533,1,0,0,0,829.886414
-886,1262,2,0,0,0,762.072205
-205,-620,3,1,0,4,99.078323
1381,-263,4,0,0,0,788.619202
1285,1257,1,1,0,2,76.919121
-1415,1567,2,1,0,5,132.007629
-971,-1729,3,0,0,0,689.967102
1169,-601,4,0,0,0,807.934448
1853,72,1,1,0,2,76.919121
-66,277,2,0,0,0,1248.757690
-1168,-1520,3,0,0,0,699.664978
1764,-325,4,1,0,2,76.919121
1066,1549,1,0,0,0,705.180054
-788,810,2,0,0,0,851.404663
-999,-1828,3,0,0,0,675.873047
919,-592,4,0,0,0,860.956177
553,390,1,0,0,0,999.118958
-1299,1689,2,0,0,0,669.417297
-886,-1911,3,1,0,4,99.078323
1348,-1891,4,1,0,4,99.078323
1665,240,1,0,0,0,737.093323
-1754,969,2,1,0,5,132.007629
-611,-505,3,0,0,0,953.521790
865,-778,4,0,0,0,843.038818
1059,1812,1,0,0,0,673.740356
-1159,1074,2,0,0,0,755.056580
-133,-941,3,0,0,0,901.263000
544,-1121,4,0,0,0,823.304138
485,1230,1,0,0,0,806.250244
-680,268,2,0,0,0,976.904236
-1974,-959,3,0,0,0,660.980835
63,-416,4,0,0,0,1136.142822
1917,1440,1,1,0,2,76.919121
-888,115,2,0,0,0,918.412781
-1806,-1581,3,0,0,0,635.427734
76,-1421,4,0,0,0,785.123047
807,1582,1,0,0,0,721.547302
-1588,957,2,0,0,0,709.211792
-570,-1051,3,1,0,4,99.078323
307,-723,4,0,0,0,956.152283
37,1539,1,1,0,2,76.919121
-990,1417,2,0,0,0,729.295898
-1735,-537,3,0,0,0,715.123962
1269,-1102,4,0,0,0,737.349976
1629,174,1,0,0,0,744.685608
-1793,1857,2,0,0,0,614.716980
-655,-978,3,0,0,0,839.677429
1494,-59,4,0,0,0,770.920654
1026,1556,1,0,0,0,707.710938
-20,762,2,0,0,0,964.798279
-759,-241,3,0,0,0,952.194519
1526,-1193,4,0,0,0,696.685242
152,1114,1,0,0,0,852.870605
-285,1873,2,0,0,0,703.026062
-1014,-520,3,0,0,0,848.997009
1914,-1964,4,1,0,2,76.919121
495,1106,1,0,0,0,831.333801
-385,1995,2,1,0,5,132.007629
-948,-1400,3,1,0,4,99.078323
297,-562,4,0,0,0,1017.153992
1415,1560,1,0,0,0,672.738098
-1898,1930,2,0,0,0,601.215027
-1229,-581,3,0,0,0,798.265198
306,-738,4,0,0,0,951.261841
1721,1243,1,0,0,0,670.467041
-1069,1967,2,0,0,0,655.300781
-4,-234,3,0,0,0,1305.349121
13,-1046,4,0,0,0,873.630127
1463,669,1,1,0,2,76.919121
-1814,1491,2,0,0,0,641.687500
-109,-464,3,0,0,0,1100.171997
1549,-230,4,0,0,0,757.634583
1057,452,1,0,0,0,846.476013
-1631,480,2,1,0,5,132.007629
-54,-1721,3,0,0,0,730.414795
1990,-1666,4,0,0,0,613.180908
265,140,1,1,0,0,303.729004
-1717,151,2,0,0,0,730.118652
-1158,-1467,3,1,0,4,99.078323
1187,-596,4,0,0,0,804.935791
966,97,1,0,0,0,895.115723
-1351,1746,2,0,0,0,659.290710
-1304,-830,3,0,0,0,761.369202
588,-1777,4,0,0,0,706.493347
1142,1742,1,0,0,0,675.901428
-469,1672,2,1,0,5,132.007629
-349,-1730,3,0,0,0,723.343018
639,-423,4,0,0,0,963.267639
1994,1205,1,0,0,0,643.918945
-1629,1513,2,0,0,0,657.280823
-1319,-340,3,1,0,4,99.078323
1880,-1772,4,1,0,2,76.919121
1770,648,1,0,0,0,704.491394
-1891,902,2,0,0,0,674.238953
-1150,-350,3,0,0,0,833.630676
1200,-857,4,0,0,0,774.897583
1040,148,1,0,0,0,872.422791
-1881,869,2,0,0,0,677.405396
-1077,-1706,3,0,0,0,685.030396
18,-28,4,0,0,0,1868.073364
10,290,1,0,0,0,1243.319946
-1590,1074,2,0,0,0,699.394409
-299,-74,3,0,0,0,1226.099609
489,-1894,4,0,0,0,693.874084
886,1342,1,0,0,0,750.019531
-436,1311,2,0,0,0,793.612793
-1603,-223,3,0,0,0,748.179688
547,-1784,4,0,0,0,707.379333
751,565,1,0,0,0,904.478333
-280,834,2,0,0,0,923.497620
-1068,-1006,3,0,0,0,776.343872
538,-876,4,1,0,4,99.078323
1995,1576,1,1,0,2,76.919121
-441,334,2,0,0,0,1057.207397
-14,-418,3,1,0,0,186.909012
1329,-491,4,0,0,0,786.383789
847,424,1,0,0,0,902.220398
-1494,1880,2,0,0,0,635.298035
-957,-1374,3,1,0,4,99.078323
1800,-1722,4,1,0,2,76.919121
875,1798,1,0,0,0,687.580750
-1151,666,2,0,0,0,804.596436
-951,-967,3,0,0,0,798.928650
1603,-334,4,0,0,0,744.832764
162,307,1,0,0,0,1191.625610
-279,1525,2,0,0,0,760.521729
-553,-1655,3,0,0,0,726.594482
568,-1801,4,0,0,0,703.951599
1739,97,1,1,0,2,76.919121
-916,1972,2,0,0,0,663.630005
-908,-1129,3,0,0,0,779.961975
364,-1973,4,1,0,4,99.078323
913,538,1,0,0,0,869.900452
-612,522,2,0,0,0,949.300659
-1203,-1651,3,0,0,0,681.468872
1902,-1419,4,0,0,0,638.681702
1890,433,1,1,0,2,76.919121
-872,1959,2,0,0,0,667.605469
-476,-1801,3,0,0,0,707.860840
1736,-1306,4,1,0,2,76.919121
84,393,1,1,0,2,76.919121
-633,1565,2,0,0,0,736.078857
-749,-205,3,1,0,4,99.078323
1239,-497,4,0,0,0,803.481262
1277,1145,1,0,0,0,731.531494
-436,1146,2,0,0,0,827.931519
-986,-529,3,0,0,0,854.250183
1977,-811,4,1,0,2,76.919121
1952,1734,1,1,0,2,76.919121
-203,929,2,1,0,5,132.007629
-1034,-1395,3,0,0,0,727.997253
984,-1943,4,0,0,0,663.157349
1657,297,1,1,0,2,76.919121
-1214,463,2,0,0,0,811.266907
-279,-1024,3,0,0,0,869.464844
180,-1942,4,1,0,4,99.078323
1896,607,1,1,0,2,76.919121
-643,1625,2,0,0,0,726.160156
-1315,-1165,3,1,0,4,99.078323
1819,-1985,4,1,0,2,76.919121
621,1144,1,0,0,0,810.738892
-1355,422,2,1,0,5,132.007629
-318,-1951,3,0,0,0,690.870667
1482,-1956,4,1,0,2,76.919121
691,1947,1,0,0,0,678.241150
-196,324,2,0,0,0,1166.531128
-1071,-1581,3,1,0,4,99.078323
1565,-1479,4,0,0,0,666.411194
845,933,1,1,0,2,76.919121
-1448,1969,2,1,0,5,132.007629
-672,-507,3,0,0,0,936.198730
347,-472,4,0,0,0,1040.687622
643,1181,1,1,0,2,76.919121
-801,206,2,0,0,0,941.287598
-1550,-1457,3,0,0,0,669.882935
1235,-1528,4,0,0,0,692.621033
1312,1278,1,1,0,2,76.919121
-1951,535,2,0,0,0,684.250305
-646,-1827,3,0,0,0,696.558777
1661,-1363,4,0,0,0,667.028076
1976,387,1,0,0,0,685.594482
-1443,211,2,0,0,0,778.081604
-208,-145,3,0,0,0,1282.238892
1991,-1024,4,0,0,0,655.277710
1392,560,1,0,0,0,769.912781
-153,576,2,1,0,5,132.007629
-279,-1750,3,0,0,0,722.168091
1132,-1934,4,0,0,0,655.018433
115,808,1,1,0,2,76.919121
-1672,1106,2,0,0,0,686.853027
-537,-29,3,0,0,0,1065.361084
494,-1180,4,0,0,0,815.740967
1354,1299,1,1,0,2,76.919121
-1331,940,2,0,0,0,746.230835
-1981,-1180,3,0,0,0,646.873962
1905,-1146,4,0,0,0,657.294312
522,148,1,0,0,0,1062.802612
-634,872,2,0,0,0,864.946899
-1815,-1644,3,1,0,4,99.078323
1264,-802,4,0,0,0,770.575378
1489,1821,1,0,0,0,641.184570
-1942,1119,2,0,0,0,654.968811
-890,-1502,3,0,0,0,726.440613
485,-1354,4,0,0,0,782.068542
1389,1667,1,0,0,0,664.224121
-1602,632,2,0,0,0,730.362915
-1172,-913,3,0,0,0,772.753967
1257,-1625,4,1,0,2,76.919121
1038,1243,1,0,0,0,748.006775
-1247,1301,2,1,0,5,132.007629
-793,-1319,3,1,0,4,99.078323
923,-557,4,0,0,0,864.966858
1378,597,1,0,0,0,769.656006
-1158,290,2,0,0,0,835.628723
-200,-1446,3,1,0,4,99.078323
1220,-1363,4,0,0,0,713.072510
601,269,1,0,0,0,1006.993713
-1725,275,2,0,0,0,726.292847
-135,-62,3,0,0,0,1436.480835
1151,-283,4,0,0,0,837.679443
141,1169,1,0,0,0,839.580627
-505,1619,2,0,0,0,734.763245
-1556,-1132,3,0,0,0,698.580750
689,-805,4,1,0,2,76.919121
653,1452,1,0,0,0,752.891479
-1102,1641,2,0,0,0,690.879456
-928,-1944,3,0,0,0,666.298767
899,-1232,4,0,0,0,765.222778
677,490,1,0,0,0,938.288269
-1357,786,2,0,0,0,757.228943
-1799,-1487,3,1,0,4,99.078323
1112,-1729,4,0,0,0,679.665161
1572,220,1,0,0,0,753.750549
-1713,1720,2,0,0,0,632.210266
-392,-123,3,1,0,0,192.553345
1736,-1442,4,0,0,0,653.006653
892,1579,1,1,0,2,76.919121
-149,471,2,0,0,0,1089.845825
-325,-786,3,1,0,4,99.078323
441,-1395,4,0,0,0,777.156982
1523,585,1,1,0,2,76.919121
-1024,1446,2,0,0,0,722.206848
-1094,-1040,3,0,0,0,768.190369
452,-1395,4,0,0,0,776.499512
1439,320,1,1,0,2,76.919121
-1880,1666,2,0,0,0,622.469299
-1926,-1378,3,1,0,4,99.078323
598,-1457,4,1,0,4,99.078323
1487,1083,1,0,0,0,711.459839
-989,1571,2,0,0,0,708.855286
-1400,-136,3,0,0,0,788.461731
1994,-1051,4,0,0,0,653.355164
1779,178,1,0,0,0,719.627136
-98,594,2,0,0,0,1032.821411
-852,-580,3,0,0,0,877.899658
59,-390,4,1,0,0,205.753769
1789,1299,1,1,0,2,76.919121
-56,1401,2,0,0,0,789.376587
-737,-205,3,0,0,0,963.772888
948,-1926,4,0,0,0,667.291565
1730,1430,1,0,0,0,654.563599
-558,310,2,0,0,0,1015.942078
-94,-1628,3,0,0,0,746.011841
62,-678,4,0,0,0,997.361023
476,1721,1,1,0,2,76.919121
-8,1393,2,0,0,0,791.246765
-1161,-1353,3,0,0,0,720.435913
1387,-707,4,0,0,0,759.323303
11,908,1,1,0,2,76.919121
-487,1915,2,0,0,0,690.985291
-1591,-1146,3,0,0,0,693.193604
967,-1477,4,0,0,0,723.254883
447,893,1,0,0,0,886.995361
-675,1653,2,1,0,5,132.007629
-1796,-889,3,1,0,4,99.078323
559,-1367,4,1,0,4,99.078323
671,1675,1,1,0,2,76.919121
-602,112,2,1,0,5,132.007629
-123,-1196,3,1,0,4,99.078323
1229,-605,4,0,0,0,796.068787
1758,1506,1,0,0,0,645.755920
-1747,845,2,0,0,0,696.148193
-910,-1095,3,1,0,4,99.078323
553,-149,4,0,0,0,1047.210815
566,510,1,0,0,0,964.944336
-585,412,2,0,0,0,983.036194
-920,-1589,3,0,0,0,711.999817
528,-1389,4,0,0,0,772.692139
1606,1853,1,1,0,2,76.919121
-1812,1543,2,0,0,0,637.847839
-350,-1384,3,0,0,0,784.208313
1165,-1664,4,0,0,0,683.084595
1392,1705,1,0,0,0,660.143494
-1722,1775,2,0,0,0,626.916626
-95,-1337,3,0,0,0,802.319641
860,-584,4,1,0,2,76.919121
4,1956,1,0,0,0,693.889160
-1239,1641,2,0,0,0,679.597107
-330,-87,3,0,0,0,1196.524658
103,-1732,4,1,0,4,99.078323
729,1020,1,0,0,0,821.531189
-1405,1416,2,0,0,0,688.274597
-1711,-293,3,0,0,0,728.083435
1844,-315,4,0,0,0,706.653320
673,274,1,0,0,0,978.591492
-312,1351,2,1,0,5,132.007629
-841,-452,3,0,0,0,899.927673
1791,-386,4,1,0,2,76.919121
1044,1403,1,0,0,0,725.959961
-1980,671,2,0,0,0,674.853882
-298,-1551,3,0,0,0,755.191711
996,-293,4,1,0,2,76.919121
284,258,1,0,0,0,1162.731445
-1490,622,2,0,0,0,748.857910
-7,-1446,3,0,0,0,780.520081
1699,-1155,4,0,0,0,679.846741
525,1683,1,0,0,0,723.646362
-1126,1060,2,0,0,0,761.239319
-1766,-280,3,0,0,0,719.598694
469,-115,4,0,0,0,1096.407471
1334,708,1,1,0,2,76.919121
-127,87,2,0,0,0,1426.206787
-1947,-436,3,0,0,0,688.208984
1773,-1214,4,1,0,2,76.919121
82,508,1,0,0,0,1078.081421
-785,950,2,1,0,5,132.007629
-1356,-1967,3,0,0,0,636.754150
1302,-722,4,0,0,0,772.148071
1936,545,1,0,0,0,685.920105
-721,1970,2,1,0,5,132.007629
-1253,-1282,3,1,0,4,99.078323
15,-1743,4,0,0,0,726.903687
557,978,1,1,0,2,76.919121
-335,1409,2,0,0,0,780.071472
-1806,-704,3,0,0,0,696.482056
1964,-107,4,0,0,0,692.297791
1342,1271,1,0,0,0,710.097412
-1482,289,2,0,0,0,768.101624
-1222,-987,3,0,0,0,756.750732
338,-1336,4,0,0,0,794.342957
1476,1681,1,0,0,0,655.514893
-583,30,2,0,0,0,1041.700928
-301,-1896,3,1,0,4,99.078323
861,-949,4,0,0,0,815.259827
384,967,1,0,0,0,875.182922
-1095,1670,2,1,0,5,132.007629
-822,-1350,3,0,0,0,754.974426
819,-788,4,0,0,0,849.762573
1662,1491,1,0,0,0,656.058044
-1059,881,2,0,0,0,794.456299
-1142,-934,3,1,0,4,99.078323
376,-662,4,1,0,4,99.078323
591,512,1,0,0,0,957.455078
-1882,1812,2,1,0,5,132.007629
-246,-481,3,0,0,0,1064.037598
1319,-66,4,0,0,0,806.580017
483,561,1,0,0,0,973.232788
-1410,1464,2,0,0,0,682.901978
-601,-491,3,0,0,0,959.625793
192,-372,4,1,0,0,186.614624
1918,548,1,0,0,0,688.276550
-1724,1965,2,0,0,0,611.132019
-1415,-1017,3,1,0,4,99.078323
235,-600,4,0,0,0,1013.222473
1161,1277,1,1,0,2,76.919121
-1699,926,2,1,0,5,132.007629
-1803,-497,3,1,0,4,99.078323
18,-1908,4,1,0,4,99.078323
211,422,1,0,0,0,1103.103760
-1026,260,2,0,0,0,870.251648
-1639,-1156,3,0,0,0,686.716614
716,-1846,4,0,0,0,690.401184
1033,955,1,0,0,0,788.416809
-1367,1215,2,0,0,0,713.126343
-1243,-520,3,0,0,0,800.819214
746,-1507,4,0,0,0,737.207886
281,790,1,0,0,0,937.335999
-614,19,2,1,0,5,132.007629
-1561,-1102,3,0,0,0,700.583374
1880,-1031,4,0,0,0,667.627319
1792,1872,1,0,0,0,613.603638
-1244,293,2,0,0,0,816.009155
-109,-1862,3,0,0,0,707.500366
1366,-1449,4,0,0,0,688.761597
435,1257,1,0,0,0,804.521973
-1503,580,2,0,0,0,749.496277
-1527,-1396,3,1,0,4,99.078323
475,-1019,4,0,0,0,852.883545
421,1257,1,1,0,2,76.919121
-358,961,2,1,0,5,132.007629
-1761,-970,3,0,0,0,686.029907
1474,-1580,4,0,0,0,665.416504
1048,1316,1,0,0,0,737.076416
-19,159,2,0,0,0,1414.833130
-343,-774,3,1,0,4,99.078323
79,-750,4,0,0,0,967.882202
225,262,1,0,0,0,1193.098145
-1126,1486,2,0,0,0,707.617798
-542,-631,3,0,0,0,939.635803
691,-880,4,0,0,0,854.268127
1854,67,1,0,0,0,709.036438
-1636,137,2,0,0,0,744.080566
-1433,-1274,3,1,0,4,99.078323
303,-1226,4,0,0,0,819.438538
868,667,1,0,0,0,860.560791
-1820,1576,2,0,0,0,634.565063
-289,-330,3,0,0,0,1124.116211
601,-1181,4,0,0,0,805.607422
1361,152,1,1,0,2,76.919121
-117,756,2,0,0,0,963.765320
-348,-744,3,0,0,0,943.280273
288,-1117,4,0,0,0,845.490906
1285,222,1,0,0,0,810.219666
-1018,685,2,0,0,0,827.727112
-1614,-1837,3,1,0,4,99.078323
1422,-1245,4,1,0,2,76.919121
703,811,1,0,0,0,866.241577
-1670,987,2,0,0,0,696.260864
-1188,-141,3,0,0,0,835.008179
1930,-641,4,0,0,0,682.750244
578,1650,1,0,0,0,726.042542
-609,55,2,0,0,0,1028.331421
-1384,-1285,3,1,0,4,99.078323
1306,-1209,4,0,0,0,720.942383
1427,1873,1,1,0,2,76.919121
-371,716,2,0,0,0,948.574768
-1615,-235,3,0,0,0,745.783813
705,-1295,4,0,0,0,774.924133
49,1510,1,0,0,0,767.934387
-485,1718,2,1,0,5,132.007629
-913,-1727,3,0,0,0,694.258179
373,-627,4,1,0,2,76.919121
82,1004,1,0,0,0,884.493469
-323,546,2,0,0,0,1017.728821
-1175,-181,3,0,0,0,836.812195
413,-38,4,0,0,0,1140.284790
535,1147,1,0,0,0,818.813416
-300,1833,2,1,0,5,132.007629
-1058,-393,3,1,0,4,99.078323
1888,-1877,4,0,0,0,605.939026
709,192,1,1,0,2,76.919121
-1375,580,2,1,0,5,132.007629
-603,-1741,3,0,0,0,711.010498
1075,-773,4,0,0,0,805.837463
557,1857,1,0,0,0,696.427002
-793,1647,2,0,0,0,713.274292
-1938,-1356,3,1,0,4,99.078323
1963,-359,4,0,0,0,688.160767
1300,969,1,0,0,0,747.653442
-171,1543,2,0,0,0,760.126648
-1691,-1197,3,0,0,0,677.439514
937,-1513,4,1,0,4,99.078323
112,705,1,0,0,0,983.713196
-1849,1975,2,0,0,0,601.367737
-963,-728,3,0,0,0,832.406311
1692,-1938,4,0,0,0,615.671997
323,474,1,0,0,0,1046.774170
-1350,874,2,0,0,0,749.996338
-250,-1099,3,1,0,4,99.078323
430,-1997,4,0,0,0,681.472412
1674,1180,1,0,0,0,680.728394
-434,243,2,0,0,0,1087.872314
-284,-102,3,0,0,0,1232.022583
1721,-488,4,0,0,0,719.472046
2,1920,1,0,0,0,699.206848
-1837,1857,2,0,0,0,611.348328
-154,-1993,3,1,0,4,99.078323
1256,-506,4,0,0,0,799.391846
940,211,1,0,0,0,897.339294
-784,1817,2,1,0,5,132.007629
-1124,-235,3,0,0,0,846.797485
760,-1267,4,0,0,0,774.341370
1567,65,1,0,0,0,757.201477
-1402,447,2,0,0,0,775.495728
-1836,-1439,3,0,0,0,643.563232
1646,-73,4,1,0,2,76.919121
1252,712,1,0,0,0,781.659058
-1735,319,2,0,0,0,723.467896
-204,-199,3,0,0,0,1248.522949
360,-1643,4,1,0,4,99.078323
655,579,1,0,0,0,925.312317
-705,53,2,1,0,5,132.007629
-482,-486,3,0,0,0,995.817322
1233,-1597,4,0,0,0,685.018616
1656,993,1,0,0,0,697.586060
-1630,382,2,0,0,0,738.468262
-598,-34,3,0,0,0,1034.292480
954,-567,4,0,0,0,856.617615
1909,0,1,0,0,0,700.851929
-1037,156,2,0,0,0,872.919128
-739,-195,3,0,0,0,964.031311
28,-1787,4,0,0,0,719.733337
1697,1956,1,0,0,0,613.813477
-1249,950,2,0,0,0,757.039124
-1083,-369,3,0,0,0,847.843567
650,-696,4,0,0,0,900.666992
1461,1695,1,0,0,0,655.423645
-300,333,2,0,0,0,1117.905640
-1002,-525,3,0,0,0,851.113770
1481,-1502,4,1,0,2,76.919121
1353,949,1,0,0,0,742.180176
-455,954,2,0,0,0,870.654907
-1722,-1107,3,0,0,0,680.863037
1048,-1379,4,0,0,0,728.723511
115,113,1,0,0,0,1412.866211
-485,828,2,1,0,5,132.007629
-1881,-1804,3,1,0,4,99.078323
933,-528,4,0,0,0,866.574036
397,757,1,1,0,2,76.919121
-1288,1068,2,0,0,0,738.634766
-1517,-260,3,0,0,0,762.601440
73,-1334,4,0,0,0,803.259338
1816,570,1,1,0,2,76.919121
-437,143,2,1,0,5,132.007629
-48,-183,3,1,0,0,489.053101
1322,-611,4,0,0,0,778.471375
859,1593,1,0,0,0,716.129089
-283,106,2,1,0,0,300.586639
-1658,-1280,3,1,0,4,99.078323
1845,-1323,4,1,0,2,76.919121
370,874,1,1,0,2,76.919121
-872,799,2,0,0,0,838.305847
-1994,-340,3,0,0,0,684.284973
1343,-1505,4,0,0,0,685.089722
1246,40,1,1,0,2,76.919121
-909,1880,2,0,0,0,675.180054
-1989,-333,3,1,0,4,99.078323
198,-1580,4,1,0,4,99.078323
1423,1913,1,0,0,0,637.338013
-658,430,2,0,0,0,955.945557
-1344,-68,3,0,0,0,801.174927
461,-1576,4,0,0,0,744.025635
1928,1309,1,0,0,0,643.850830
-735,1910,2,0,0,0,680.945129
-1096,-1658,3,0,0,0,689.317505
394,-384,4,1,0,2,76.919121
258,1736,1,0,0,0,724.936462
-644,1518,2,1,0,5,132.007629
-275,-1567,3,0,0,0,753.095398
251,-569,4,0,0,0,1023.458374
961,1159,1,0,0,0,768.925354
-1630,1758,2,0,0,0,635.767700
-1096,-1284,3,0,0,0,736.081116
1911,-246,4,1,0,2,76.919121
1357,519,1,0,0,0,779.163452
-981,138,2,0,0,0,889.302124
-191,-345,3,0,0,0,1154.834473
400,-708,4,0,0,0,946.165405
1375,186,1,0,0,0,792.383301
-1591,1213,2,0,0,0,687.429749
-1586,-1793,3,0,0,0,636.195312
200,-1353,4,0,0,0,796.518127
1440,777,1,1,0,2,76.919121
-587,676,2,0,0,0,918.453003
-1039,-1071,3,0,0,0,771.497009
1889,-169,4,0,0,0,702.726013
144,596,1,0,0,0,1027.544800
-1937,1121,2,0,0,0,655.393066
-602,-108,3,1,0,4,99.078323
1839,-1769,4,0,0,0,617.999756
129,1164,1,0,0,0,841.135437
-1200,618,2,1,0,5,132.007629
-491,-1295,3,0,0,0,792.915344
592,-1121,4,1,0,4,99.078323
926,252,1,1,0,2,76.919121
-14,1360,2,0,0,0,798.125854
-107,-1978,3,0,0,0,690.271240
1445,-679,4,0,0,0,752.081299
811,726,1,0,0,0,862.193115
-1909,1097,2,0,0,0,660.055237
-1586,-418,3,0,0,0,744.354492
1823,-955,4,0,0,0,679.348694
1924,453,1,1,0,2,76.919121
-1375,1285,2,1,0,5,132.007629
-1619,-1922,3,0,0,0,622.350281
419,-371,4,0,0,0,1053.870850
204,926,1,0,0,0,901.914551
-1467,361,2,0,0,0,767.940186
-63,-1308,3,0,0,0,809.013916
1821,-1958,4,0,0,0,604.698914
1388,1874,1,0,0,0,643.646912
-1728,272,2,1,0,5,132.007629
-1056,-1183,3,0,0,0,754.033142
1631,-1680,4,0,0,0,642.494568
1573,1037,1,0,0,0,704.616638
-722,874,2,0,0,0,850.493286
-517,-1398,3,1,0,4,99.078323
120,-1703,4,0,0,0,732.860535
602,926,1,0,0,0,857.994019
-470,1498,2,1,0,5,132.007629
-78,-153,3,1,0,0,529.717651
1036,-1283,4,0,0,0,742.802551
300,376,1,1,0,2,76.919121
-1323,1657,2,0,0,0,670.813416
-1450,-788,3,0,0,0,742.588623
166,-1032,4,0,0,0,873.854675
1445,1332,1,0,0,0,692.538086
-63,1093,2,0,0,0,860.524170
-185,-896,3,0,0,0,912.212585
1420,788,1,0,0,0,747.196777
-967,1284,2,1,0,5,132.007629
-1109,-1942,3,0,0,0,655.603149
250,1020,1,0,0,0,872.501709
-983,223,2,1,0,5,132.007629
-83,-860,3,0,0,0,928.702148
1826,817,1,0,0,0,687.461426
-1580,900,2,1,0,5,132.007629
-1991,-1431,3,0,0,0,629.360474
1344,343,1,0,0,0,792.475708
-1905,239,2,0,0,0,699.216919
-1361,-393,3,0,0,0,786.423401
388,935,1,0,0,0,883.077759
-1051,315,2,1,0,5,132.007629
-307,-1923,3,0,0,0,695.157959
225,1651,1,0,0,0,739.825195
-1728,1436,2,1,0,5,132.007629
-1257,-1514,3,1,0,4,99.078323
1997,1832,1,0,0,0,600.887146
-764,155,2,0,0,0,958.330566
-268,-1251,3,0,0,0,815.706604
744,1938,1,0,0,0,676.871460
-796,1457,2,0,0,0,740.860168
-986,-1429,3,0,0,0,728.042114
1470,326,1,0,0,0,768.901611
-236,964,2,0,0,0,888.776794
-1280,-1466,3,1,0,4,99.078323
1711,1999,1,0,0,0,609.269348
-705,1137,2,0,0,0,802.864746
-1262,-1269,3,1,0,4,99.078323
1219,18,1,0,0,0,829.579163
-80,525,2,1,0,2,76.919121
-87,-409,3,0,0,0,1137.925659
555,580,1,0,0,0,949.881531
-2000,305,2,1,0,5,132.007629
-1246,-269,3,0,0,0,816.760010
1839,1971,1,0,0,0,602.393311
-1428,1510,2,1,0,5,132.007629
-1042,-966,3,0,0,0,785.556335
527,538,1,0,0,0,968.279846
-1284,-1625,3,0,0,0,677.539978
361,256,1,0,0,0,1121.563843
-20,-1462,3,0,0,0,777.335571
1493,389,1,0,0,0,761.907532
-1125,-617,3,0,0,0,814.875671
1641,1088,1,1,0,2,76.919121
-1726,-1409,3,0,0,0,656.659912
1489,120,1,1,0,2,76.919121
-1775,-728,3,0,0,0,699.431885
248,943,1,0,0,0,893.870544
-1614,-11,3,1,0,5,132.007629
1418,1108,1,0,0,0,717.762756
-479,-541,3,1,0,4,99.078323
1303,1101,1,0,0,0,733.086975
-127,-1957,3,1,0,4,99.078323
1112,457,1,0,0,0,833.591492
-227,-843,3,1,0,4,99.078323
1400,276,1,1,0,2,76.919121
-905,-875,3,0,0,0,820.364197
705,918,1,0,0,0,844.508606
-1888,-1429,3,0,0,0,639.305237
1075,802,1,1,0,2,76.919121
-563,-705,3,0,0,0,916.233398
40,1539,1,0,0,0,762.526855
-511,-1740,3,0,0,0,715.553284
277,1356,1,0,0,0,793.113281
-840,-117,3,0,0,0,934.048767
1562,610,1,0,0,0,738.002197
-396,-1345,3,1,0,4,99.078323
591,1969,1,1,0,2,76.919121
-526,-303,3,1,0,4,99.078323
1139,1276,1,0,0,0,732.325806
-1836,-1016,3,1,0,4,99.078323
1223,1589,1,0,0,0,686.787964
-13,-1621,3,0,0,0,747.716187
1981,1296,1,1,0,2,76.919121
887,435,1,0,0,0,890.098022
1359,1714,1,0,0,0,661.923523
1432,294,1,1,0,2,76.919121
926,1857,1,0,0,0,676.986206
1106,1686,1,0,0,0,685.189697
842,1878,1,1,0,2,76.919121
1051,591,1,0,0,0,832.749146
1616,972,1,0,0,0,704.353027
1700,377,1,0,0,0,727.193787
240,1901,1,1,0,2,76.919121
1783,829,1,1,0,2,76.919121
256,1423,1,1,0,2,76.919121
1301,408,1,0,0,0,797.407654
164,1428,1,0,0,0,782.239624
1300,1725,1,0,0,0,665.521912
277,1571,1,0,0,0,752.323303
1484,360,1,0,0,0,764.863159
1788,55,1,0,0,0,719.472839
856,1161,1,0,0,0,781.229858
745,1881,1,0,0,0,684.230713
794,1336,1,0,0,0,759.814697
652,85,1,1,0,2,76.919121
1117,1079,1,0,0,0,760.016968
1379,1203,1,0,0,0,712.957764
1897,1809,1,0,0,0,610.350220
613,753,1,0,0,0,895.083374
354,1950,1,0,0,0,690.129761
1667,1272,1,0,0,0,673.998718
781,49,1,0,0,0,957.234375
800,1496,1,0,0,0,734.672058
1214,1960,1,1,0,2,76.919121
240,410,1,0,0,0,1101.112549
623,430,1,0,0,0,966.799805
643,253,1,0,0,0,993.093811
191,589,1,1,0,2,76.919121
1206,253,1,1,0,2,76.919121
950,1084,1,0,0,0,781.444031


each generation good chromosome number
212,270,280,280,292,292,294,289,296,294,297,296,296,298,297,296,298,297,295,298,298,296,297,298,298,299,298,298,297,297,297,295,295,297,299,300,300,300,298,298,300,300,298,298,300,300,298,299,300,300,298,300,299,299,300,298,299,300,300,300,300,299,299,299,298,300,300,299,299,299,300,300,299,300,300,299,300,300,300,300,300,300,300,300,300,300,299,300,300,300,300,300,300,300,300,300,300,300,300,300,