the max average throughput times

BS TX power
MBS area 1,MBS area 2,MBS area 3,MBS area 4,CBSD 1,CBSD 2,CBSD 3,CBSD 4,CBSD 5,CBSD 6,CBSD 7,CBSD 8,CBSD 9,CBSD 10,CBSD 11,CBSD 12,CBSD 13,CBSD 14,CBSD 15,CBSD 16,CBSD 17,CBSD 18,CBSD 19,CBSD 20,CBSD 21,CBSD 22,CBSD 23,CBSD 24,CBSD 25,
10.000,10.000,10.000,10.000,0.000,0.000,0.000,0.000,0.000,0.000,0.000,0.000,0.000,0.000,0.000,0.000,0.000,0.000,0.000,0.750,0.750,0.750,0.750,0.000,0.000,0.000,0.000,0.000,0.000,
max average power
696.457581

x,y,area,be blocked (1 : NLOS / 0 : LOS),be blocked number (>=1 : CBSD(x) / 0 : no),connect bs number (>=1 : CBSD / 0 : MBS),throughput (unit : M bps)
676,1005,1,0,0,0,831.457336
-1015,233,2,0,0,0,874.921204
-866,-1665,3,0,0,0,705.730896
1888,-1721,4,0,0,0,617.670349
536,410,1,0,0,0,999.912231
-316,1434,2,1,0,17,218.409836
-357,-409,3,1,0,16,165.022064
1113,-1545,4,1,0,19,131.609467
1084,1011,1,0,0,0,773.404480
-520,1235,2,0,0,0,802.397156
-843,-924,3,0,0,0,822.211182
1941,-1267,4,0,0,0,645.379089
873,33,1,1,0,19,190.297729
-1449,192,2,0,0,0,777.428406
-1544,-1717,3,0,0,0,646.465027
616,-1744,4,0,0,0,709.905151
797,360,1,0,0,0,925.210083
-1828,1030,2,0,0,0,673.816406
-1528,-119,3,0,0,0,763.815125
958,-287,4,0,0,0,886.580872
86,612,1,0,0,0,1025.266968
-1317,1187,2,0,0,0,722.025879
-382,-1562,3,0,0,0,750.030090
396,-588,4,1,0,19,158.935303
690,48,1,0,0,0,992.808472
-1743,1823,2,0,0,0,621.314087
-334,-1767,3,0,0,0,717.963867
824,-947,4,0,0,0,821.170715
1197,101,1,0,0,0,833.828735
-594,602,2,0,0,0,934.861816
-1744,-887,3,0,0,0,693.801208
1100,-1165,4,0,0,0,751.062744
974,382,1,0,0,0,873.588928
-1662,555,2,0,0,0,725.402222
-136,-1129,3,0,0,0,849.603088
1772,-1031,4,0,0,0,680.446838
738,1201,1,0,0,0,787.842407
-334,1478,2,0,0,0,767.085449
-1535,-1827,3,0,0,0,637.096130
190,-1274,4,0,0,0,813.756897
1570,284,1,0,0,0,752.278931
-1128,1359,2,0,0,0,723.133057
-1686,-302,3,0,0,0,731.919617
484,-1602,4,0,0,0,738.578857
1720,332,1,0,0,0,725.479004
-1738,604,2,1,0,17,218.409836
-433,-881,3,0,0,0,891.930664
1871,-935,4,0,0,0,674.715759
208,717,1,0,0,0,970.796814
-1665,1412,2,0,0,0,662.482971
-714,-311,3,0,0,0,958.616333
95,-703,4,0,0,0,985.516235
161,565,1,0,0,0,1039.869385
-434,1887,2,0,0,0,696.792053
-110,-1196,3,0,0,0,833.877991
338,-718,4,0,0,0,953.196289
739,399,1,0,0,0,936.873352
-469,1039,2,0,0,0,848.898987
-1868,-1,3,0,0,0,707.068665
272,-911,4,0,0,0,901.145874
1631,1570,1,1,0,18,217.710342
-805,1749,2,0,0,0,698.408264
-1818,-1192,3,0,0,0,663.685730
1965,-980,4,0,0,0,660.824768
496,628,1,0,0,0,950.784302
-430,1526,2,0,0,0,754.093140
-884,-1066,3,0,0,0,792.937317
302,-285,4,0,0,0,1139.936523
653,1616,1,0,0,0,726.922791
-311,1363,2,0,0,0,790.215515
-1829,-873,3,0,0,0,683.736023
1815,-1875,4,0,0,0,611.623108
983,590,1,0,0,0,847.257996
-1884,1620,2,0,0,0,625.573914
-1771,-1524,3,0,0,0,643.107788
1261,-450,4,0,0,0,802.637756
91,823,1,0,0,0,940.956848
-794,1798,2,0,0,0,692.501404
-868,-1993,3,0,0,0,663.701294
1128,-1950,4,0,0,0,653.517090
1567,1023,1,0,0,0,706.552979
-1855,172,2,0,0,0,707.842957
-169,-584,3,1,0,16,144.933609
53,-895,4,0,0,0,918.042358
699,415,1,0,0,0,946.260803
-1728,320,2,0,0,0,724.559021
-1486,-1557,3,1,0,16,130.214035
1319,-56,4,0,0,0,806.680786
296,1358,1,0,0,0,791.894653
-838,1071,2,0,0,0,798.165466
-1212,-641,3,0,0,0,795.811829
660,-1389,4,0,0,0,762.842285
191,1849,1,0,0,0,708.476685
-579,1833,2,0,0,0,698.868408
-1754,-932,3,0,0,0,689.500183
607,-544,4,0,0,0,945.486877
46,1961,1,0,0,0,693.080505
-709,1538,2,1,0,17,218.409836
-720,-845,3,0,0,0,856.521851
437,-1646,4,0,0,0,733.566772
669,1577,1,0,0,0,731.885864
-1428,449,2,0,0,0,770.582703
-1917,-557,3,0,0,0,688.056946
588,-578,4,0,0,0,942.176636
400,1303,1,0,0,0,797.504578
-660,1681,2,1,0,17,218.409836
-1110,-1273,3,0,0,0,735.942322
1217,-121,4,0,0,0,828.668213
1073,1586,1,1,0,18,217.710342
-1177,1461,2,0,0,0,705.825500
-901,-840,3,0,0,0,826.599670
690,-1027,4,0,0,0,825.332581
1870,1184,1,0,0,0,658.558838
-94,1127,2,0,0,0,851.188599
-647,-46,3,0,0,0,1011.325684
1584,-96,4,0,0,0,753.825134
1665,140,1,0,0,0,739.032104
-821,1415,2,0,0,0,745.095093
-1761,-137,3,0,0,0,723.104370
704,-650,4,0,0,0,898.899658
1451,38,1,0,0,0,779.433411
-1140,434,2,0,0,0,829.417480
-502,-1646,3,1,0,16,116.812599
1570,-328,4,1,0,19,228.409317
416,394,1,0,0,0,1047.087036
-1988,1421,2,0,0,0,630.322327
-1370,-1923,3,0,0,0,640.114624
1160,-1799,4,0,0,0,668.105408
983,39,1,1,0,19,198.434967
-7,1036,2,0,0,0,876.411255
-85,-472,3,0,0,0,1098.385376
700,-851,4,0,0,0,858.665405
1011,1633,1,0,0,0,699.113342
-582,1238,2,0,0,0,796.459778
-731,-350,3,0,0,0,947.127869
1357,-1371,4,0,0,0,697.866394
1979,1658,1,0,0,0,614.671997
-831,152,2,0,0,0,935.179382
-882,-1502,3,0,0,0,727.108887
639,-171,4,0,0,0,1005.669983
1087,103,1,0,0,0,861.299438
-851,1179,2,1,0,17,218.409836
-189,-1884,3,1,0,16,95.197342
991,-1720,4,0,0,0,689.669067
203,747,1,0,0,0,960.360535
-1923,673,2,0,0,0,682.229980
-1680,-1667,3,1,0,16,117.029724
1166,-1013,4,0,0,0,761.585022
790,1981,1,0,0,0,669.155029
-1372,1961,2,1,0,17,218.409836
-1704,-1337,3,1,0,16,138.407776
889,-1851,4,1,0,19,107.779640
641,1453,1,0,0,0,753.607849
-316,1722,2,0,0,0,725.641663
-1409,-1959,3,0,0,0,633.908203
912,-1046,4,0,0,0,792.335632
342,1609,1,0,0,0,743.518433
-858,594,2,0,0,0,874.326965
-1621,-11,3,0,0,0,747.718994
203,-1271,4,0,0,0,813.975830
207,820,1,0,0,0,934.860046
-923,1222,2,0,0,0,764.043335
-1684,-1685,3,0,0,0,637.574402
612,-288,4,0,0,0,999.251648
1373,1289,1,0,0,0,704.739624
-704,1110,2,0,0,0,807.938232
-1613,-1474,3,0,0,0,662.229065
143,-1507,4,0,0,0,767.369690
59,828,1,0,0,0,940.232544
-198,0,2,0,0,0,1353.588257
-1110,-1405,3,1,0,16,149.840820
571,-563,4,0,0,0,950.198120
1767,52,1,0,0,0,722.870239
-14,122,2,0,0,0,1491.416992
-1844,-571,3,0,0,0,697.663269
189,-1747,4,0,0,0,724.589478
1927,685,1,1,0,18,217.710342
-60,1918,2,0,0,0,699.365295
-1164,-586,3,0,0,0,810.407349
236,-178,4,0,0,0,1237.972778
1149,604,1,0,0,0,811.535339
-991,1390,2,0,0,0,732.881470
-548,-1810,3,0,0,0,703.543396
413,-1423,4,0,0,0,773.514221
570,1954,1,0,0,0,682.500305
-1053,162,2,1,0,16,177.306931
-1208,-783,3,0,0,0,781.804138
119,-1741,4,0,0,0,726.575317
551,1799,1,0,0,0,705.008240
-462,1265,2,0,0,0,800.960083
-294,-1020,3,0,0,0,869.411499
41,-406,4,0,0,0,1144.967773
830,1552,1,0,0,0,724.131775
-1133,1518,2,0,0,0,703.079346
-1171,-1472,3,0,0,0,705.088257
1912,-1718,4,0,0,0,615.917908
1426,831,1,0,0,0,742.557373
-1316,1585,2,1,0,17,218.409836
-1484,-1681,3,0,0,0,654.840942
1256,-581,4,0,0,0,793.140747
97,631,1,0,0,0,1015.904602
-1129,1232,2,0,0,0,738.999084
-1894,-1263,3,0,0,0,650.525452
757,-822,4,0,0,0,854.630371
294,1751,1,0,0,0,721.617249
-243,883,2,0,0,0,911.920837
-846,-1443,3,0,0,0,738.716919
1294,-852,4,0,0,0,760.708313
1257,589,1,0,0,0,792.252808
-1380,999,2,0,0,0,733.462280
-297,-331,3,0,0,0,1120.162109
623,-360,4,0,0,0,981.423828
1549,901,1,0,0,0,718.970642
-1031,98,2,0,0,0,876.515991
-535,-1705,3,0,0,0,719.773865
690,-23,4,0,0,0,993.344177
1809,1641,1,1,0,18,217.710342
-861,1346,2,0,0,0,751.858032
-600,-902,3,0,0,0,863.559021
991,-1183,4,0,0,0,761.835144
1011,1020,1,0,0,0,782.487183
-647,1177,2,1,0,17,218.409836
-203,-1242,3,0,0,0,820.443787
508,-901,4,0,0,0,876.878540
1348,1483,1,0,0,0,686.939514
-1616,1581,2,0,0,0,652.504272
-1297,-1589,3,0,0,0,680.304626
126,-1965,4,0,0,0,691.988892
1850,1018,1,0,0,0,671.999023
-1037,1480,2,0,0,0,716.556458
-122,-409,3,0,0,0,1132.015137
1393,-1178,4,0,0,0,713.846802
106,110,1,0,0,0,1428.427612
-1703,1194,2,0,0,0,676.326538
-754,-1975,3,0,0,0,671.668945
1157,-1098,4,0,0,0,752.352539
739,1116,1,0,0,0,802.721558
-11,1349,2,0,0,0,800.465515
-832,-1783,3,0,0,0,692.202759
504,-1181,4,0,0,0,814.660767
793,1844,1,0,0,0,686.484680
-1686,255,2,1,0,16,144.807144
-352,-1346,3,1,0,16,128.604050
1338,-989,4,0,0,0,740.242371
582,841,1,0,0,0,880.125122
-985,1364,2,0,0,0,737.047974
-1762,-859,3,0,0,0,693.270813
1776,-1127,4,0,0,0,673.109924
692,859,1,1,0,18,217.710342
-258,1894,2,0,0,0,700.478516
-773,-1558,3,0,0,0,727.536194
1321,-1229,4,0,0,0,717.008484
13,1810,1,0,0,0,716.096619
-204,1951,2,0,0,0,693.066406
-618,-1549,3,0,0,0,739.572449
402,-1791,4,0,0,0,712.086365
113,1915,1,0,0,0,699.455811
-1925,1245,2,0,0,0,648.522888
-1209,-96,3,0,0,0,831.075867
975,-1308,4,0,0,0,745.889404
692,796,1,0,0,0,871.256714
-1268,818,2,0,0,0,768.284180
-209,-427,3,0,0,0,1100.914551
448,-1986,4,0,0,0,682.435486
1402,946,1,1,0,18,217.710342
-340,108,2,0,0,0,1183.740234
-1950,-1781,3,0,0,0,608.227539
1970,-1039,4,0,0,0,656.773254
1755,9,1,0,0,0,724.943787
-465,1538,2,0,0,0,750.257690
-1478,-934,3,1,0,16,193.799988
1091,-974,4,0,0,0,777.260925
1187,1552,1,0,0,0,694.199158
-201,1678,2,0,0,0,735.768799
-556,-552,3,0,0,0,956.887085
1958,-479,4,1,0,19,165.694931
1660,1899,1,0,0,0,621.305115
-759,1730,2,1,0,17,218.409836
-1834,-303,3,1,0,16,167.145569
1022,-1118,4,0,0,0,767.187378
1768,1578,1,0,0,0,639.068298
-434,1889,2,0,0,0,696.504211
-268,-504,3,0,0,0,1048.167725
1190,-1010,4,0,0,0,758.580078
280,300,1,0,0,0,1143.346069
-1229,899,2,0,0,0,765.679016
-44,-1901,3,0,0,0,701.977539
1598,-862,4,0,0,0,715.208252
9,1481,1,0,0,0,773.648926
-890,1939,2,1,0,17,218.409836
-1966,-858,3,0,0,0,667.504395
564,-1280,4,0,0,0,790.068115
268,858,1,0,0,0,917.300049
-200,1141,2,1,0,17,218.409836
-138,-1604,3,0,0,0,749.692627
16,-1029,4,1,0,16,120.229362
536,26,1,0,0,0,1065.979614
-762,1688,2,0,0,0,709.529053
-945,-1095,3,0,0,0,780.445374
705,-1536,4,0,0,0,735.756958
1672,956,1,0,0,0,698.311951
-1524,1513,2,0,0,0,667.181152
-1120,-786,3,0,0,0,796.396179
515,-381,4,0,0,0,1014.912231
1352,63,1,1,0,19,198.424591
-1162,201,2,1,0,16,172.187180
-1803,-629,3,0,0,0,700.766663
1280,-1748,4,0,0,0,664.658752
964,1931,1,0,0,0,665.753784
-1166,1569,2,0,0,0,694.062622
-108,-1589,3,0,0,0,752.785583
1996,-352,4,0,0,0,683.716980
639,1844,1,0,0,0,694.537476
-1836,813,2,0,0,0,686.389709
-1820,-485,3,0,0,0,704.700134
740,-1902,4,0,0,0,681.736633
113,441,1,0,0,0,1113.410278
-1976,955,2,1,0,17,218.409836
-292,-594,3,0,0,0,1005.492981
1283,-1224,4,1,0,19,163.286331
1329,2,1,0,0,0,804.768127
-1396,1084,2,0,0,0,722.921570
-794,-42,3,0,0,0,952.640991
1143,-1351,4,0,0,0,722.565369
813,1435,1,0,0,0,742.759949
-102,318,2,1,0,0,263.483551
-851,-683,3,0,0,0,861.479187
1730,-1223,4,0,0,0,671.047119
1784,1156,1,0,0,0,670.083740
-483,467,2,0,0,0,1001.189331
-1251,-1067,3,0,0,0,743.643372
463,-1649,4,0,0,0,731.930908
286,880,1,0,0,0,908.954163
-263,584,2,0,0,0,1014.968689
-1841,-1821,3,0,0,0,613.822510
166,-1782,4,0,0,0,719.333618
934,1858,1,0,0,0,676.370239
-165,1549,2,0,0,0,759.145325
-1723,-1327,3,0,0,0,663.574829
1249,-1898,4,0,0,0,651.076904
245,1360,1,0,0,0,793.551941
-1798,1748,2,0,0,0,622.958923
-1147,-1437,3,0,0,0,711.607300
1990,-1891,4,1,0,19,96.106239
1340,773,1,0,0,0,761.140259
-943,1768,2,0,0,0,686.986511
-502,-870,3,1,0,16,171.414642
564,-1613,4,0,0,0,732.602112
1330,1591,1,0,0,0,677.177124
-883,847,2,0,0,0,828.536804
-1791,-848,3,1,0,16,165.758087
333,-379,4,0,0,0,1083.778442
1676,1775,1,0,0,0,630.603577
-1119,188,2,0,0,0,850.230896
-340,-111,3,0,0,0,1182.997559
1013,-872,4,0,0,0,803.125000
777,1731,1,0,0,0,702.598511
-1220,1339,2,1,0,17,218.409836
-1456,-1154,3,0,0,0,708.627380
1664,-984,4,0,0,0,697.249878
715,686,1,0,0,0,889.241150
-1611,92,2,0,0,0,749.034058
-1776,-368,3,0,0,0,715.515015
1451,-766,4,0,0,0,744.245911
207,682,1,1,0,18,217.710342
-1075,908,2,0,0,0,788.346191
-1053,-1513,3,1,0,16,139.261383
1371,-646,4,0,0,0,767.027954
1354,1367,1,0,0,0,698.602356
-1710,1002,2,0,0,0,690.119202
-802,-787,3,0,0,0,853.044556
247,-1282,4,0,0,0,809.880066
778,1667,1,0,0,0,711.454834
-47,1850,2,0,0,0,709.749695
-981,-596,3,0,0,0,846.909424
384,-1747,4,1,0,19,102.090324
1712,627,1,0,0,0,714.021423
-992,1,2,0,0,0,888.912354
-1807,-1410,3,0,0,0,648.585571
853,-1323,4,1,0,19,145.893051
1962,1933,1,0,0,0,596.289368
-1945,1808,2,0,0,0,606.658020
-1174,-100,3,0,0,0,839.390625
22,-1572,4,1,0,16,100.592178
581,661,1,0,0,0,923.399963
-319,418,2,0,0,0,1071.848755
-1437,-709,3,0,0,0,751.039062
1042,-1147,4,0,0,0,760.646790
92,952,1,0,0,0,899.425781
-1086,869,2,0,0,0,791.688232
-974,-1281,3,0,0,0,749.815613
1212,-779,4,0,0,0,781.566406
484,1505,1,1,0,18,217.710342
-350,452,2,0,0,0,1047.741943
-78,-231,3,0,0,0,1293.538940
1722,-1510,4,1,0,19,125.023323
540,919,1,0,0,0,868.225220
-1113,1214,2,0,0,0,743.162598
-437,-721,3,0,0,0,935.756897
425,-338,4,0,0,0,1062.567139
443,684,1,0,0,0,945.547607
-1960,24,2,0,0,0,693.283630
-1766,-1541,3,0,0,0,642.212036
722,-1943,4,0,0,0,677.298401
1662,644,1,1,0,18,217.710342
-935,771,2,0,0,0,831.294128
-895,-1018,3,1,0,16,194.436432
1998,-568,4,0,0,0,676.697693
311,504,1,1,0,18,217.710342
-1684,910,2,0,0,0,700.081177
-742,-1238,3,0,0,0,781.053711
1053,-477,4,0,0,0,844.875305
976,656,1,0,0,0,839.947266
-1021,1505,2,0,0,0,714.738892
-1658,-607,3,0,0,0,723.218140
238,-61,4,0,0,0,1291.323608
600,1861,1,0,0,0,693.987732
-436,668,2,0,0,0,951.705017
-332,-1284,3,0,0,0,805.368591
1492,-790,4,0,0,0,736.066284
524,992,1,0,0,0,853.493408
-1967,149,2,0,0,0,691.466309
-299,-1946,3,1,0,16,95.455681
1039,-1960,4,0,0,0,657.908752
983,338,1,0,0,0,875.450439
-470,1735,2,0,0,0,718.084412
-771,-821,3,0,0,0,852.372681
985,-1859,4,0,0,0,673.051697
1352,1509,1,0,0,0,683.819214
-465,977,2,0,0,0,863.908875
-1179,-442,3,0,0,0,820.295776
380,-683,4,0,0,0,957.581360
344,1679,1,0,0,0,731.744812
-1301,1735,2,1,0,17,218.409836
-1358,-33,3,0,0,0,798.479309
1854,-32,4,0,0,0,709.180603
1574,101,1,0,0,0,755.579163
-1104,114,2,0,0,0,856.593384
-75,-1065,3,0,0,0,867.758789
1476,-666,4,0,0,0,748.026733
532,358,1,0,0,0,1014.630676
-1793,382,2,0,0,0,712.448730
-1367,-542,3,0,0,0,775.692017
1318,-1500,4,0,0,0,687.985840
1432,478,1,0,0,0,768.148010
-151,971,2,0,0,0,891.633179
-1114,-856,3,0,0,0,788.807983
391,-342,4,0,0,0,1075.353638
188,1240,1,0,0,0,821.430359
-1819,1922,2,0,0,0,607.650269
-1278,-1525,3,0,0,0,689.001587
1040,-1570,4,1,0,19,128.936386
887,443,1,0,0,0,889.065613
-1044,970,2,0,0,0,784.710999
-1462,-1234,3,0,0,0,700.227783
1691,-1301,4,0,0,0,669.041321
1317,1696,1,0,0,0,667.207214
-153,1136,2,0,0,0,847.310791
-747,-986,3,0,0,0,825.391418
1486,-425,4,1,0,19,257.372101
1148,1590,1,0,0,0,693.141357
-690,956,2,0,0,0,839.208191
-1814,-173,3,1,0,16,163.837769
541,-906,4,0,0,0,871.122681
34,146,1,0,0,0,1433.870239
-1581,659,2,0,0,0,731.917603
-1259,-744,3,1,0,16,260.077332
1602,-108,4,0,0,0,750.458069
310,1099,1,0,0,0,848.410400
-1719,1727,2,0,0,0,631.133118
-1213,-1324,3,0,0,0,718.385437
1135,-1359,4,1,0,19,148.689835
471,1368,1,0,0,0,780.362122
-214,301,2,0,0,0,1173.744263
-1214,-1185,3,0,0,0,734.671753
1351,-777,4,1,0,19,235.849045
1639,1520,1,1,0,18,217.710342
-1205,515,2,0,0,0,808.811646
-657,-1267,3,0,0,0,784.279968
908,-289,4,0,0,0,900.497559
9,896,1,0,0,0,918.210388
-1450,1380,2,0,0,0,687.277954
-380,-1151,3,0,0,0,831.241821
18,-1659,4,0,0,0,741.060974
727,1646,1,0,0,0,717.786926
-1218,1191,2,0,0,0,733.481934
-243,-77,3,0,0,0,1280.700928
808,-1717,4,1,0,19,114.714836
1333,1832,1,1,0,18,217.710342
-804,939,2,0,0,0,825.585693
-678,-1779,3,0,0,0,701.630005
388,-146,4,0,0,0,1140.413086
1638,1269,1,0,0,0,677.402588
-1520,16,2,0,0,0,766.174316
-1667,-1653,3,0,0,0,641.749146
107,-117,4,0,0,0,1417.696777
1602,1724,1,1,0,18,217.710342
-663,1030,2,0,0,0,828.213196
-1221,-1662,3,0,0,0,678.751465
1487,-697,4,0,0,0,743.989380
1677,997,1,0,0,0,694.624756
-84,958,2,0,0,0,897.852234
-382,-1476,3,0,0,0,765.316833
449,-1537,4,1,0,19,115.052849
944,1340,1,0,0,0,744.535156
-542,1002,2,1,0,17,218.409836
-1683,-536,3,0,0,0,723.109131
1223,-974,4,1,0,19,200.300247
1675,1528,1,0,0,0,651.686035
-503,1230,2,0,0,0,804.795410
-539,-799,3,0,0,0,897.215088
1688,-1091,4,0,0,0,686.114563
190,1931,1,1,0,17,218.409836
-601,1487,2,0,0,0,750.775452
-1390,-527,3,0,0,0,772.580139
1632,-1983,4,0,0,0,616.166809
238,586,1,0,0,0,1018.592529
-64,1324,2,0,0,0,805.516541
-750,-610,3,0,0,0,896.337646
98,-107,4,0,0,0,1443.279907
46,228,1,0,0,0,1307.129883
-1583,1678,2,0,0,0,646.744690
-687,-1936,3,0,0,0,679.865601
1025,-1972,4,1,0,19,102.107880
1861,218,1,0,0,0,706.192505
-638,593,2,0,0,0,926.366394
-1571,-385,3,0,0,0,748.348022
1166,-1140,4,0,0,0,746.015137
912,770,1,0,0,0,835.671143
-576,1364,2,0,0,0,773.725342
-380,-999,3,0,0,0,867.436951
90,-627,4,0,0,0,1018.164856
402,958,1,1,0,18,217.710342
-751,315,2,0,0,0,945.738464
-1340,-1575,3,0,0,0,677.975708
1618,-377,4,0,0,0,740.673462
1104,612,1,0,0,0,819.576172
-1976,1840,2,1,0,17,218.409836
-767,-28,3,0,0,0,962.820862
132,-119,4,0,0,0,1384.761841
367,1389,1,0,0,0,782.383484
-837,1489,2,0,0,0,732.708923
-362,-1140,3,1,0,16,141.545807
1416,-59,4,0,0,0,786.296997
1171,518,1,0,0,0,815.466187
-552,238,2,0,0,0,1033.256226
-1205,-1172,3,0,0,0,737.307129
889,-1737,4,0,0,0,694.581482
743,1769,1,0,0,0,699.400696
-1473,745,2,0,0,0,742.519592
-1291,-36,3,0,0,0,812.996521
1290,-806,4,0,0,0,765.983154
1846,611,1,0,0,0,695.579041
-1413,1680,2,0,0,0,660.903564
-133,-364,3,0,0,0,1159.855835
1290,-89,4,0,0,0,812.648254
1629,1210,1,0,0,0,683.375549
-674,59,2,0,0,0,999.166809
-970,-1826,3,1,0,16,114.536301
1434,-1983,4,0,0,0,629.911438
1274,1228,1,0,0,0,722.592285
-1173,1532,2,0,0,0,697.794739
-287,-812,3,0,0,0,929.626770
1852,-1708,4,0,0,0,621.632629
1688,128,1,0,0,0,735.285645
-1984,1485,2,0,0,0,626.322327
-711,-1375,3,0,0,0,760.959473
833,-1535,4,0,0,0,726.346191
1605,583,1,0,0,0,732.796326
-217,688,2,0,0,0,980.673218
-1390,-118,3,0,0,0,790.839172
1320,-1193,4,1,0,19,166.425629
357,175,1,1,0,0,203.147476
-1065,930,2,0,0,0,786.971802
-887,-1574,3,0,0,0,716.623352
1328,-713,4,1,0,19,255.601181
199,551,1,0,0,0,1040.683838
-1389,1270,2,1,0,17,218.409836
-272,-96,3,0,0,0,1245.043579
880,-1364,4,0,0,0,747.329895
1403,1947,1,1,0,18,217.710342
-1438,1536,2,1,0,17,218.409836
-753,-883,3,0,0,0,843.764343
459,-1630,4,0,0,0,735.192932
232,576,1,1,0,18,217.710342
-568,1693,2,1,0,17,218.409836
-928,-916,3,0,0,0,810.242432
15,-450,4,0,0,0,1116.593628
1898,567,1,0,0,0,690.272766
-853,1771,2,0,0,0,692.471497
-1495,-59,3,0,0,0,770.728699
1634,-1006,4,0,0,0,699.378113
833,1934,1,0,0,0,672.789062
-715,1210,2,0,0,0,788.692139
-911,-1198,3,1,0,16,170.248672
820,-1437,4,0,0,0,741.857178
1673,378,1,0,0,0,731.528442
-199,563,2,1,0,17,218.409836
-214,-442,3,1,0,16,149.514969
324,-1134,4,1,0,19,130.546722
1795,1123,1,0,0,0,671.221619
-1780,50,2,1,0,16,153.380569
-980,-168,3,1,0,16,235.100800
1169,-871,4,0,0,0,778.187561
1127,203,1,0,0,0,847.592346
-1171,1929,2,0,0,0,653.028748
-876,-670,3,0,0,0,858.419678
286,-1638,4,0,0,0,740.425049
864,1621,1,0,0,0,711.880310
-736,404,2,0,0,0,936.957153
-1935,-1430,3,0,0,0,634.738770
1197,-1763,4,1,0,19,115.604187
1596,1317,1,0,0,0,677.792603
-173,1288,2,1,0,17,218.409836
-154,-363,3,0,0,0,1154.854004
1854,-1255,4,0,0,0,655.286743
1591,252,1,0,0,0,749.530823
-1671,1611,2,0,0,0,644.986755
-609,-739,3,0,0,0,899.074707
1034,-1578,4,1,0,19,128.238190
1723,894,1,0,0,0,696.074768
-1020,306,2,0,0,0,868.494751
-187,-1731,3,0,0,0,727.231506
239,-934,4,1,0,19,133.483780
649,1798,1,0,0,0,700.470459
-1943,1495,2,0,0,0,629.398010
-1846,-402,3,1,0,16,168.227539
840,-644,4,0,0,0,870.244080
1597,57,1,0,0,0,751.822937
-308,516,2,0,0,0,1033.347168
-1019,-1517,3,1,0,16,138.662766
1623,-1507,4,0,0,0,658.371765
1304,1653,1,0,0,0,672.834778
-1819,1101,2,0,0,0,670.021484
-1313,-1308,3,1,0,16,157.659943
593,-655,4,0,0,0,922.252991
872,510,1,0,0,0,883.680908
-907,699,2,0,0,0,847.601929
-1331,-1394,3,0,0,0,698.108521
1306,-1736,4,0,0,0,663.886963
576,1203,1,0,0,0,803.735229
-1894,216,2,0,0,0,701.260559
-886,-317,3,0,0,0,904.110535
350,-906,4,1,0,19,143.465744
931,1113,1,0,0,0,779.522949
-456,1257,2,0,0,0,803.009888
-810,-617,3,0,0,0,881.399170
1878,-1168,4,0,0,0,658.782043
526,1234,1,0,0,0,802.092651
-1944,879,2,0,0,0,669.050903
-753,-75,3,0,0,0,966.899292
582,-1107,4,0,0,0,822.234375
1985,1810,1,0,0,0,603.383057
-97,1715,2,0,0,0,731.099304
-156,-460,3,0,0,0,1094.716797
1895,-1945,4,0,0,0,600.311829
150,1489,1,1,0,17,218.409836
-1289,402,2,0,0,0,800.212830
-1577,-628,3,1,0,16,209.043961
1503,-583,4,0,0,0,749.303467
1652,1179,1,0,0,0,683.326782
-1720,1239,2,1,0,17,218.409836
-208,-61,3,0,0,0,1327.470581
1971,-830,4,0,0,0,668.363220
921,1611,1,0,0,0,708.963501
-927,442,2,0,0,0,878.934631
-885,-61,3,0,0,0,921.100525
1015,-1061,4,0,0,0,776.124878
201,875,1,0,0,0,917.650208
-214,1345,2,0,0,0,797.736084
-1966,-1384,3,0,0,0,634.948547
1135,-42,4,0,0,0,849.953674
949,90,1,0,0,0,900.383972
-295,1030,2,0,0,0,866.742920
-784,-128,3,0,0,0,952.905518
1194,-443,4,1,0,19,584.662781
431,1531,1,0,0,0,753.174316
-1647,1927,2,0,0,0,619.877014
-211,-407,3,0,0,0,1111.392700
725,-1180,4,1,0,19,152.873474
607,1095,1,0,0,0,821.931274
-1498,390,2,0,0,0,760.961975
-1456,-332,3,0,0,0,771.264954
312,-1088,4,0,0,0,850.949951
960,946,1,1,0,18,217.710342
-568,1349,2,1,0,17,218.409836
-1797,-1171,3,0,0,0,667.531494
1658,-546,4,0,0,0,726.488708
1511,1672,1,0,0,0,653.409790
-311,618,2,1,0,17,218.409836
-11,-1748,3,0,0,0,726.087341
757,-508,4,0,0,0,913.236145
1956,697,1,0,0,0,676.793152
-673,979,2,0,0,0,837.017395
-888,-1254,3,0,0,0,763.076782
894,-428,4,0,0,0,889.153381
542,1555,1,0,0,0,743.203674
-1101,1157,2,0,0,0,751.980774
-1247,-785,3,0,0,0,775.110046
450,-1369,4,1,0,19,124.671288
1679,1431,1,0,0,0,659.493347
-1320,1714,2,0,0,0,665.076782
-1496,-314,3,1,0,16,219.908112
866,-177,4,0,0,0,922.140137
1123,521,1,1,0,18,217.710342
-1189,1772,2,0,0,0,668.990662
-1127,-335,3,0,0,0,840.005371
1945,-263,4,0,0,0,692.911072
1923,1669,1,0,0,0,618.608643
-93,1712,2,0,0,0,731.636780
-1232,-1952,3,0,0,0,646.569275
1938,-1872,4,0,0,0,602.521057
223,52,1,1,0,0,410.145294
-579,905,2,0,0,0,865.950073
-1376,-455,3,0,0,0,779.873413
1544,-1464,4,0,0,0,669.823425
1823,1542,1,0,0,0,636.922363
-1861,1605,2,0,0,0,628.710449
-596,-700,3,0,0,0,910.812805
1660,-1732,4,0,0,0,635.570923
492,1168,1,1,0,18,217.710342
-129,1984,2,0,0,0,689.218933
-1994,-514,3,0,0,0,679.183960
799,-1795,4,0,0,0,692.605713
39,824,1,0,0,0,942.035156
-483,798,2,0,0,0,906.635620
-1578,-709,3,0,0,0,729.067017
1437,-1477,4,1,0,19,135.363449
1486,815,1,0,0,0,734.951111
-433,1690,2,0,0,0,726.653137
-1178,-1524,3,0,0,0,698.283508
417,-815,4,0,0,0,912.028137
1078,1901,1,0,0,0,662.185913
-1969,1991,2,0,0,0,591.595337
-1389,-324,3,0,0,0,784.466431
284,-1142,4,0,0,0,839.749207
641,824,1,0,0,0,874.213928
-1149,228,2,0,0,0,841.067505
-98,-957,3,1,0,16,130.423737
1478,-1566,4,1,0,19,127.453575
380,998,1,0,0,0,867.688965
-61,225,2,0,0,0,1306.475586
-415,-475,3,0,0,0,1019.383911
623,-402,4,0,0,0,972.780396
198,430,1,0,0,0,1102.135742
-1591,1224,2,0,0,0,686.475159
-199,-1059,3,0,0,0,865.102661
1769,-1866,4,0,0,0,615.830933
978,1093,1,0,0,0,776.445801
-1170,233,2,0,0,0,835.817993
-818,-1588,3,0,0,0,719.880859
1964,-1552,4,0,0,0,623.464539
579,1745,1,0,0,0,711.620361
-837,907,2,0,0,0,826.049500
-46,-1081,3,0,0,0,863.918518
1024,-1062,4,0,0,0,774.767456
632,1535,1,0,0,0,740.902527
-502,94,2,0,0,0,1080.247681
-1379,-593,3,0,0,0,769.783630
146,-1720,4,0,0,0,729.693298
159,1098,1,1,0,18,217.710342
-549,1473,2,1,0,17,218.409836
-1144,-988,3,0,0,0,767.784851
452,-1476,4,0,0,0,761.756226
1149,1499,1,1,0,18,217.710342
-1086,1327,2,0,0,0,731.601013
-751,-275,3,0,0,0,950.958435
1686,-1535,4,0,0,0,650.073792
1732,1839,1,0,0,0,620.859558
-879,96,2,0,0,0,922.034912
-1396,-146,3,0,0,0,789.070496
1715,-99,4,0,0,0,731.080139
221,43,1,0,0,0,1316.521729
-1067,1463,2,0,0,0,715.983643
-1603,-351,3,1,0,16,202.626999
1163,-1943,4,0,0,0,652.036011
1916,1199,1,1,0,18,217.710342
-617,16,2,1,0,16,170.465622
-467,-1292,3,0,0,0,795.237549
945,-1767,4,0,0,0,686.977905
1678,262,1,0,0,0,734.357910
-773,1887,2,0,0,0,681.973755
-286,-1150,3,1,0,16,135.677353
1723,-110,4,1,0,19,183.987396
1459,264,1,0,0,0,773.326050
-345,977,2,0,0,0,876.383240
-931,-589,3,0,0,0,858.727051
1562,-617,4,0,0,0,737.564880
1968,1667,1,0,0,0,614.959839
-307,1642,2,0,0,0,739.104675
-776,-1054,3,0,0,0,809.159851
1170,-687,4,1,0,19,274.834503
1316,341,1,0,0,0,798.254883
-175,622,2,0,0,0,1012.431702
-1659,-41,3,0,0,0,740.990417
1156,-1004,4,0,0,0,764.096069
1871,1140,1,1,0,18,217.710342
-744,241,2,0,0,0,957.409729
-1667,-1269,3,0,0,0,674.246765
921,-1121,4,0,0,0,779.567139
1588,1197,1,0,0,0,689.159180
-1310,1099,2,0,0,0,732.404175
-1537,-935,3,0,0,0,717.842285
937,-203,4,0,0,0,898.733276
1934,800,1,1,0,18,217.710342
-658,597,2,0,0,0,920.656982
-702,-890,3,0,0,0,850.522095
1348,-853,4,0,0,0,752.326599
1677,1528,1,0,0,0,651.500061
-1267,1601,2,1,0,17,218.409836
-699,-492,3,0,0,0,931.788513
505,-1193,4,0,0,0,812.111633
701,1413,1,0,0,0,755.562317
-1094,148,2,1,0,16,179.648605
-1420,-793,3,0,0,0,746.767395
1241,-835,4,0,0,0,770.805664
1880,1714,1,0,0,0,618.856628
-603,125,2,0,0,0,1026.291748
-582,-850,3,0,0,0,878.046021
99,-1249,4,0,0,0,821.717834
1446,1187,1,0,0,0,706.640015
-45,1311,2,0,0,0,808.519226
-132,-997,3,1,0,16,131.543442
1436,-1947,4,0,0,0,633.177368
1812,906,1,1,0,18,217.710342
-669,357,2,0,0,0,966.302612
-1184,-108,3,0,0,0,836.798584
1986,-971,4,0,0,0,658.900940
340,11,1,0,0,0,1197.453979
-663,119,2,1,0,16,164.239288
-18,-1613,3,0,0,0,749.127319
450,-1365,4,0,0,0,782.264343
260,1930,1,0,0,0,695.145874
-1541,1187,2,0,0,0,695.480225
-1067,-371,3,0,0,0,851.507812
1732,-1613,4,0,0,0,639.431946
1777,1794,1,0,0,0,620.984070
-1938,1411,2,1,0,17,218.409836
-771,-1290,3,0,0,0,769.449402
1873,-1324,4,1,0,19,131.227570
1238,1001,1,0,0,0,752.895264
-1337,91,2,0,0,0,802.379211
-638,-259,3,0,0,0,994.103271
1995,-1909,4,0,0,0,595.573181
1031,713,1,0,0,0,821.577881
-178,807,2,0,0,0,941.520142
-575,-258,3,0,0,0,1019.623718
924,-129,4,0,0,0,906.581970
1205,1742,1,0,0,0,671.112183
-662,1476,2,0,0,0,748.317566
-1325,-1886,3,0,0,0,646.984741
1087,-553,4,0,0,0,829.473328
1614,1405,1,0,0,0,668.198547
-165,1331,2,0,0,0,802.144409
-1469,-1199,3,0,0,0,702.778564
1797,-1247,4,0,0,0,661.937073
851,1057,1,0,0,0,798.775635
-1835,1760,2,0,0,0,619.018616
-1306,-646,3,1,0,16,275.426819
1357,-754,4,0,0,0,760.133911
625,1299,1,1,0,18,217.710342
-223,1016,2,0,0,0,875.257202
-1156,-1114,3,0,0,0,750.498901
633,-1265,4,1,0,19,140.821121
1110,940,1,0,0,0,778.830933
-4,1904,2,0,0,0,701.602112
-1688,-397,3,0,0,0,728.388855
757,-1099,4,0,0,0,803.584534
886,893,1,1,0,18,217.710342
-1351,32,2,0,0,0,799.968750
-1325,-1967,3,0,0,0,638.844910
1739,-1593,4,0,0,0,640.449219
1396,1851,1,0,0,0,645.319458
-1138,1833,2,0,0,0,665.849609
-1929,-1809,3,0,0,0,607.839539
1680,-253,4,0,0,0,734.254395
1864,458,1,0,0,0,699.290100
-674,1170,2,0,0,0,800.208801
-1294,-74,3,0,0,0,811.971497
1095,-592,4,0,0,0,823.590576
291,1906,1,1,0,18,217.710342
-1246,1762,2,0,0,0,665.781372
-134,-1725,3,0,0,0,729.027710
1977,-1119,4,0,0,0,651.124573
732,637,1,0,0,0,895.264221
-1164,1828,2,0,0,0,664.580444
-1036,-1592,3,1,0,16,132.321075
172,-1552,4,0,0,0,758.457031
170,1262,1,1,0,18,217.710342
-629,1398,2,0,0,0,763.748047
-360,-1643,3,0,0,0,737.132568
1390,-1665,4,0,0,0,664.342102
1731,438,1,1,0,18,217.710342
-910,994,2,0,0,0,800.764954
-1600,-1562,3,0,0,0,655.643311
566,-1837,4,0,0,0,698.876221
1856,1612,1,1,0,18,217.710342
-922,593,2,0,0,0,860.150757
-1186,-1630,3,0,0,0,685.271851
48,-1981,4,0,0,0,690.171692
1579,704,1,0,0,0,729.254089
-1518,1919,2,0,0,0,629.953003
-966,-1293,3,0,0,0,748.966797
1578,-1123,4,0,0,0,696.712341
235,1608,1,0,0,0,747.004028
-1944,11,2,0,0,0,695.646362
-409,-1508,3,0,0,0,758.277283
1659,-1625,4,0,0,0,644.845459
1997,293,1,0,0,0,684.907776
-849,760,2,0,0,0,849.018494
-133,-828,3,0,0,0,937.292419
901,-85,4,1,0,19,210.289078
333,420,1,0,0,0,1066.322021
-940,619,2,0,0,0,852.568054
-1918,-1184,3,0,0,0,653.356628
1380,-104,4,0,0,0,793.131958
624,1692,1,0,0,0,717.151428
-1474,631,2,0,0,0,750.861145
-1211,-1839,3,0,0,0,660.033142
1979,-1247,4,0,0,0,642.783630
1041,1788,1,0,0,0,677.828552
-1595,107,2,0,0,0,751.721130
-9,-1265,3,0,0,0,818.950806
416,-1437,4,0,0,0,770.759766
1355,785,1,0,0,0,757.637634
-1435,268,2,0,0,0,777.793030
-618,-1148,3,0,0,0,810.277283
754,-9,4,0,0,0,967.918640
1181,1318,1,0,0,0,722.554504
-397,1682,2,0,0,0,729.356079
-511,-961,3,0,0,0,862.211792
655,-1632,4,0,0,0,724.370483
172,358,1,0,0,0,1152.769775
-1261,451,2,0,0,0,802.565552
-1539,-621,3,0,0,0,740.980103
878,-1963,4,0,0,0,666.794189
894,650,1,0,0,0,857.775330
-1084,1431,2,0,0,0,718.453430
-304,-108,3,0,0,0,1212.746216
1361,-1427,4,0,0,0,691.563354
1404,1135,1,0,0,0,716.834534
-1362,1504,2,0,0,0,683.399170
-245,-1049,3,0,0,0,865.184082
209,-1624,4,0,0,0,744.838562
1094,394,1,0,0,0,843.191467
-719,713,2,0,0,0,882.998901
-439,-668,3,0,0,0,951.111816
1252,-1927,4,0,0,0,647.840759
1612,376,1,0,0,0,741.723633
-1454,530,2,1,0,17,218.409836
-656,-514,3,0,0,0,939.094238
1628,-1386,4,0,0,0,668.436951
457,481,1,1,0,18,217.710342
-760,1761,2,0,0,0,699.505310
-1994,-210,3,0,0,0,686.806335
155,-1354,4,1,0,19,111.099030
943,992,1,0,0,0,796.310608
-216,1940,2,0,0,0,694.477417
-300,-1145,3,1,0,16,136.909805
739,-820,4,1,0,19,189.042801
852,796,1,0,0,0,842.401245
-869,1551,2,0,0,0,721.239197
-1134,-135,3,0,0,0,848.379578
728,-34,4,0,0,0,977.738586
1059,636,1,1,0,18,217.710342
-305,20,2,1,0,0,296.288483
-335,-1566,3,0,0,0,751.210754
636,-1013,4,0,0,0,835.064514
1639,611,1,0,0,0,725.899048
-1452,349,2,0,0,0,771.268738
-1433,-182,3,0,0,0,780.819336
1471,-1342,4,1,0,19,146.598373
829,1473,1,0,0,0,735.724426
-1391,1387,2,0,0,0,692.671570
-1625,-1783,3,0,0,0,633.987854
1219,-775,4,1,0,19,245.436020
304,1139,1,0,0,0,839.239258
-1360,1594,2,0,0,0,674.208069
-1285,-1212,3,0,0,0,723.091553
152,-1660,4,0,0,0,739.707764
33,1615,1,0,0,0,748.729614
-1520,1461,2,0,0,0,672.445374
-588,-1404,3,0,0,0,765.783142
1009,-777,4,0,0,0,817.031494
1331,1455,1,0,0,0,691.565857
-410,560,2,0,0,0,991.819031
-284,-358,3,0,0,0,1112.322021
1050,-1225,4,0,0,0,749.070374
1795,376,1,0,0,0,712.336731
-1518,1833,2,0,0,0,637.847290
-1006,-1776,3,0,0,0,681.701965
678,-1206,4,0,0,0,793.214233
1249,554,1,0,0,0,796.802063
-1785,576,2,0,0,0,705.900696
-1211,-366,3,0,0,0,818.935364
1164,-352,4,0,0,0,830.305298
572,319,1,1,0,18,217.710342
-1786,1119,2,0,0,0,672.540771
-202,-1554,3,1,0,16,110.533707
1581,-490,4,0,0,0,741.737244
424,1528,1,0,0,0,754.036926
-380,1634,2,0,0,0,737.879272
-1695,-997,3,0,0,0,692.360840
1803,-498,4,0,0,0,706.684021
871,878,1,1,0,18,217.710342
-1177,1255,2,0,0,0,730.627869
-1480,-440,3,0,0,0,761.688904
1950,-1673,4,0,0,0,616.043823
358,313,1,0,0,0,1100.836182
-844,16,2,0,0,0,935.396301
-794,-1574,3,1,0,16,130.161057
706,-971,4,0,0,0,834.001526
1940,1230,1,0,0,0,647.958008
-539,1313,2,0,0,0,785.871765
-559,-884,3,0,0,0,873.676147
347,-1777,4,0,0,0,716.015076
1532,1381,1,0,0,0,678.714294
-591,1953,2,0,0,0,681.795410
-1755,-1823,3,0,0,0,620.378540
162,-1246,4,0,0,0,820.899719
506,1199,1,0,0,0,810.801758
-647,860,2,0,0,0,865.459351
-1639,-1868,3,0,0,0,625.530396
1724,-1923,4,0,0,0,614.571533
533,1625,1,1,0,18,217.710342
-877,703,2,0,0,0,852.957336
-1113,-899,3,0,0,0,783.574219
205,-1613,4,0,0,0,746.846252
1995,895,1,0,0,0,662.031433
-1624,828,2,0,0,0,714.069519
-955,-1415,3,0,0,0,732.878174
273,-1894,4,0,0,0,700.166687
849,1283,1,0,0,0,762.722778
-54,930,2,1,0,17,218.409836
-607,-662,3,0,0,0,917.531006
437,-1886,4,1,0,19,97.001778
1088,304,1,0,0,0,851.504517
-1802,1915,2,0,0,0,609.456177
-1875,-1197,3,0,0,0,657.118286
307,-1034,4,0,0,0,864.815186
2,1059,1,0,0,0,870.096436
-1379,1258,2,1,0,17,218.409836
-1440,-196,3,0,0,0,779.081177
1959,-817,4,0,0,0,670.521484
191,46,1,0,0,0,1355.839111
-689,194,2,0,0,0,982.926880
-1633,-663,3,0,0,0,723.731995
1124,-1887,4,0,0,0,660.750061
1807,730,1,0,0,0,694.932922
-1008,424,2,0,0,0,860.858093
-229,-259,3,0,0,0,1192.792603
1897,-978,4,1,0,19,152.505295
1694,554,1,0,0,0,720.525269
-582,1312,2,0,0,0,782.658203
-153,-975,3,0,0,0,890.387634
90,-245,4,0,0,0,1273.878662
945,349,1,0,0,0,884.481323
-1118,1149,2,0,0,0,750.900696
-638,-1226,3,0,0,0,793.514832
1651,-849,4,0,0,0,708.836975
1939,1306,1,0,0,0,642.942505
-1502,20,2,0,0,0,769.585388
-502,-793,3,0,0,0,904.865845
1560,-1693,4,0,0,0,647.328064
460,1349,1,0,0,0,784.671082
-1650,919,2,1,0,17,218.409836
-1656,-1108,3,1,0,16,159.579285
1686,-1790,4,0,0,0,628.537292
601,926,1,1,0,18,217.710342
-1859,1304,2,1,0,17,218.409836
-1542,-1960,3,0,0,0,624.527893
1112,-165,4,0,0,0,852.908264
1411,752,1,0,0,0,751.667725
-1272,367,2,0,0,0,805.876831
-825,-257,3,0,0,0,928.666504
1567,-797,4,1,0,19,203.861206
1401,1462,1,0,0,0,683.984253
-1446,1737,2,1,0,17,218.409836
-704,-423,3,1,0,16,221.496719
492,-1847,4,0,0,0,700.491333
117,905,1,0,0,0,912.958862
-1694,310,2,0,0,0,730.367432
-402,-1585,3,0,0,0,745.225891
1305,-1941,4,1,0,19,104.240448
913,1259,1,0,0,0,759.617798
-261,147,2,0,0,0,1234.144775
-1364,-684,3,0,0,0,765.079285
820,-806,4,0,0,0,846.423462
456,1095,1,0,0,0,837.467407
-1252,874,2,0,0,0,764.892700
-1377,-1318,3,0,0,0,701.285706
54,-1377,4,0,0,0,794.350281
674,568,1,0,0,0,922.950806
-1631,397,2,1,0,16,136.654327
-1403,-179,3,0,0,0,786.876404
1130,-80,4,0,0,0,850.701782
13,1470,1,0,0,0,775.784058
-1857,1210,2,1,0,17,218.409836
-468,-418,3,0,0,0,1020.877930
567,-1014,4,0,0,0,843.445679
1055,1898,1,0,0,0,664.005371
-1244,1873,2,0,0,0,654.058655
-586,-559,3,0,0,0,947.343750
425,-652,4,0,0,0,958.803650
1302,314,1,0,0,0,802.543335
-378,1827,2,0,0,0,707.422607
-1580,-553,3,0,0,0,738.499756
1753,-918,4,0,0,0,690.570557
862,754,1,1,0,18,217.710342
-521,1267,2,1,0,17,218.409836
-1020,-926,3,0,0,0,794.438660
1941,-1176,4,0,0,0,651.407288
1615,1245,1,0,0,0,681.975525
-1384,554,2,1,0,17,218.409836
-467,-836,3,0,0,0,899.077271
358,-1901,4,0,0,0,697.065613
80,1789,1,1,0,17,218.409836
-247,1520,2,0,0,0,762.448914
-218,-852,3,0,0,0,923.596008
404,-1105,4,0,0,0,839.809326
1083,130,1,0,0,0,861.588135
-226,1895,2,0,0,0,700.937439
-109,-517,3,0,0,0,1070.455200
770,-863,4,0,0,0,844.732239
1121,1929,1,0,0,0,656.277222
-1317,655,2,0,0,0,775.621643
-1527,-636,3,0,0,0,741.917114
173,-1179,4,0,0,0,836.143677
568,572,1,0,0,0,948.683105
-1684,499,2,0,0,0,724.722717
-472,-1225,3,0,0,0,808.297058
787,-586,4,0,0,0,892.062927
1915,797,1,0,0,0,677.102234
-1690,426,2,0,0,0,726.936646
-1392,-1260,3,0,0,0,705.605652
1121,-1820,4,0,0,0,668.510254
1464,1408,1,0,0,0,683.097168
-1074,983,2,0,0,0,778.555420
-1912,-1998,3,0,0,0,595.137329
1744,-1581,4,0,0,0,640.980164
509,791,1,0,0,0,904.228149
-108,200,2,0,0,0,1313.776123
-484,-1217,3,0,0,0,808.971008
994,-1151,4,0,0,0,766.038879
1766,1711,1,0,0,0,628.547302
-823,1665,2,0,0,0,708.714417
-1306,-1880,3,0,0,0,648.947449
573,-630,4,0,0,0,932.864258
1307,992,1,0,0,0,744.237549
-429,325,2,0,0,0,1065.133911
-412,-773,3,0,0,0,924.746765
465,-414,4,1,0,19,168.523590
1685,1737,1,0,0,0,633.092773
-367,390,2,1,0,17,218.409836
-1486,-664,3,0,0,0,746.559204
1439,-337,4,0,0,0,774.249268
1835,452,1,0,0,0,703.738831
-1789,1944,2,0,0,0,608.121704
-331,-1374,3,0,0,0,787.092896
835,-1719,4,0,0,0,700.541626
927,177,1,0,0,0,903.271729
-1906,277,2,0,0,0,698.310425
-104,-106,3,1,0,0,591.334351
1583,-1926,4,0,0,0,624.619446
1837,1055,1,0,0,0,671.080017
-673,976,2,0,0,0,837.616516
635,-1781,4,0,0,0,703.592224
997,703,1,0,0,0,829.392273
-1816,402,2,0,0,0,708.303833
1045,-1860,4,0,0,0,669.055908
1911,147,1,1,0,19,146.979782
-1812,173,2,1,0,16,142.729477
1079,-80,4,0,0,0,863.922791
1543,443,1,0,0,0,750.512024
-125,522,2,0,0,0,1065.910889
748,1971,1,0,0,0,672.463989
-853,1136,2,0,0,0,785.614380
17,1274,1,1,0,17,218.409836
-1219,1800,2,1,0,17,218.409836
244,35,1,0,0,0,1290.380371
-280,421,2,1,0,17,218.409836
771,487,1,0,0,0,913.149902
-1432,1935,2,0,0,0,634.597595
814,703,1,0,0,0,865.633789
-1042,225,2,0,0,0,868.196411
1827,1194,1,0,0,0,662.554749
178,770,1,0,0,0,954.387146
1960,1290,1,0,0,0,641.893921
1026,1219,1,0,0,0,752.669373
1851,1863,1,1,0,18,217.710342
1589,1883,1,0,0,0,627.975403
1561,209,1,0,0,0,755.999695
974,1167,1,0,0,0,766.180115
791,1832,1,1,0,18,217.710342
1371,1550,1,1,0,18,217.710342
1891,563,1,1,0,18,217.710342
497,25,1,0,0,0,1087.738892
484,1699,1,0,0,0,723.060059
1508,41,1,0,0,0,768.359863
1901,1076,1,1,0,18,217.710342
