Algorithm result
CBSD number,Modified GA,,,DP,,,HA,,,BARSPAA,,ES
24,472.813599,72.169998,513.0,474.270264,77.519997,512.0,477.189941,6.2,509.0,322.725464,790.0,476.365723
25,381.364136,55.84,512.0,434.023285,72.019997,513.0,477.163239,6.8,510.0,323.041351,790.0,476.365723
26,288.09436,42.959999,513.0,344.043945,54.779999,514.0,476.917145,8.1,508.0,323.055847,790.0,476.365723
""
BS power
CBSD number,Modified GA,,,,DP,,,,HA,,,,BARSPAA,,,
24,73.312,4.0,37.537,0.884,74.113,4.0,37.588,0.8945,75.0,5.0,37.5,0.7426,70.0,4.0,40.0,1.0
25,72.525,4.0,37.125,0.879,73.463,4.0,37.088,0.913,75.0,5.0,37.5,0.7224,70.0,4.0,40.0,1.0
26,71.938,5.0,34.213,0.7602,72.825,5.0,34.95,0.771,75.0,5.0,37.5,0.775,70.0,4.0,40.0,1.0
