the max average throughput times

BS TX power
MBS area 1,MBS area 2,MBS area 3,MBS area 4,CBSD 1,CBSD 2,CBSD 3,CBSD 4,CBSD 5,CBSD 6,CBSD 7,CBSD 8,CBSD 9,CBSD 10,CBSD 11,CBSD 12,CBSD 13,CBSD 14,CBSD 15,CBSD 16,CBSD 17,CBSD 18,CBSD 19,CBSD 20,CBSD 21,
10.000,10.000,10.000,10.000,0.000,0.000,0.000,0.000,0.000,0.750,0.000,0.000,0.000,0.000,0.750,0.750,0.000,0.000,0.000,0.000,0.750,0.000,0.000,0.000,0.000,
max average power
433.987305

x,y,area,be blocked (1 : NLOS / 0 : LOS),be blocked number (>=1 : CBSD(x) / 0 : no),connect bs number (>=1 : CBSD / 0 : MBS),throughput (unit : M bps)
373,1760,1,0,0,0,717.836243
-402,829,2,0,0,0,910.195984
-1883,-68,3,1,0,12,63.572792
1324,-1809,4,1,0,11,63.404190
911,986,1,1,0,6,71.327469
-876,592,2,1,0,17,72.243256
-1488,-111,3,1,0,12,63.572792
1683,-1325,4,1,0,11,63.404190
1554,53,1,0,0,0,759.672485
-72,1090,2,0,0,0,861.165955
-1174,-727,3,1,0,12,63.572792
1621,-1066,4,0,0,0,696.225647
272,1780,1,0,0,0,717.586060
-250,551,2,0,0,0,1031.372559
-874,-698,3,0,0,0,854.360168
1461,-99,4,0,0,0,776.901184
893,977,1,0,0,0,805.933899
-1603,45,2,0,0,0,750.816528
-1174,-1071,3,1,0,12,63.572792
1186,-1567,4,0,0,0,692.544128
269,792,1,0,0,0,938.041748
-1045,1050,2,1,0,17,72.243256
-1680,-900,3,1,0,12,63.572792
315,-397,4,0,0,0,1082.479248
1181,1430,1,1,0,6,71.327469
-933,1061,2,1,0,17,72.243256
-446,-1730,3,1,0,11,63.404190
830,-1872,4,1,0,11,63.404190
1030,240,1,1,0,6,71.327469
-1262,1679,2,1,0,17,72.243256
-220,-251,3,1,0,0,263.690247
620,-1204,4,0,0,0,799.357056
1101,1501,1,0,0,0,708.066345
-175,1011,2,0,0,0,879.200623
-1775,-451,3,0,0,0,712.736572
539,-1809,4,1,0,11,63.404190
257,933,1,1,0,17,72.243256
-600,1200,2,0,0,0,802.047485
-140,-346,3,1,0,0,224.259811
235,-1007,4,1,0,11,63.404190
838,724,1,0,0,0,857.224548
-1729,1273,2,1,0,17,72.243256
-1838,-1322,3,1,0,12,63.572792
1023,-1810,4,0,0,0,676.432800
986,390,1,1,0,6,71.327469
-227,207,2,1,0,0,294.375732
-1382,-1204,3,0,0,0,712.501282
1839,-1444,4,1,0,11,63.404190
1104,1603,1,0,0,0,695.299683
-1784,1447,2,1,0,17,72.243256
-1799,-590,3,1,0,12,63.572792
1992,-412,4,0,0,0,682.680176
1363,1997,1,1,0,17,72.243256
-1886,770,2,1,0,12,63.572792
-1172,-759,3,0,0,0,790.570618
1534,-918,4,0,0,0,719.656067
806,147,1,0,0,0,944.007141
-956,1382,2,0,0,0,737.395813
-625,-1360,3,0,0,0,770.618469
1548,-1131,4,0,0,0,699.632080
1493,854,1,1,0,6,71.327469
-1460,1337,2,0,0,0,690.444885
-1756,-1523,3,0,0,0,644.577332
645,-791,4,1,0,11,63.404190
588,1461,1,0,0,0,756.007507
-1835,882,2,1,0,12,63.572792
-343,-1790,3,1,0,11,63.404190
412,-1943,4,0,0,0,689.505432
1971,1499,1,1,0,6,71.327469
-1240,1402,2,1,0,17,72.243256
-1541,-1258,3,1,0,12,63.572792
763,-617,4,0,0,0,892.049011
1829,417,1,0,0,0,705.854919
-1328,1130,2,0,0,0,726.799438
-1655,-1724,3,0,0,0,636.669983
358,-1302,4,0,0,0,800.193665
677,1408,1,1,0,17,72.243256
-225,388,2,0,0,0,1117.704712
-507,-1749,3,1,0,11,63.404190
1068,-868,4,1,0,11,63.404190
889,105,1,1,0,6,71.327469
-610,74,2,1,0,0,87.699913
-408,-1960,3,1,0,11,63.404190
1110,-1604,4,1,0,11,63.404190
672,1927,1,0,0,0,681.746704
-678,1443,2,0,0,0,752.483398
-1887,-1516,3,1,0,12,63.572792
1594,-1903,4,0,0,0,625.841553
1445,955,1,0,0,0,728.718506
-871,1486,2,0,0,0,730.314331
-134,-226,3,1,0,0,354.856079
1594,-1999,4,1,0,11,63.404190
1252,1143,1,1,0,6,71.327469
-915,1825,2,1,0,17,72.243256
-627,-159,3,0,0,0,1012.121033
1655,-1239,4,1,0,11,63.404190
1745,389,1,0,0,0,719.635193
-342,335,2,1,0,0,146.932556
-1451,-1065,3,0,0,0,717.708130
1810,-1983,4,0,0,0,603.539307
1050,848,1,0,0,0,800.332764
-1835,235,2,1,0,12,63.572792
-1538,-909,3,1,0,12,63.572792
340,-1438,4,0,0,0,774.304810
1101,1936,1,1,0,17,72.243256
-20,658,2,1,0,17,72.243256
-1773,-969,3,1,0,12,63.572792
802,-334,4,1,0,11,63.404190
394,347,1,1,0,0,122.721199
-808,46,2,0,0,0,947.540955
-1788,-929,3,1,0,12,63.572792
899,-1557,4,1,0,11,63.404190
327,961,1,1,0,17,72.243256
-1864,1831,2,1,0,17,72.243256
-1670,-1635,3,1,0,11,63.404190
527,-297,4,0,0,0,1031.436646
558,420,1,0,0,0,990.015869
-1009,47,2,1,0,12,63.572792
-330,-619,3,0,0,0,988.751770
196,-826,4,0,0,0,933.768127
321,847,1,1,0,17,72.243256
-1310,58,2,1,0,12,63.572792
-530,-922,3,1,0,12,63.572792
834,-1643,4,0,0,0,710.997131
1931,1942,1,0,0,0,597.904541
-801,1125,2,1,0,17,72.243256
-367,-1459,3,0,0,0,769.142700
207,-1717,4,0,0,0,729.154358
994,1170,1,1,0,6,71.327469
-1817,1517,2,0,0,0,639.401855
-1106,-1250,3,0,0,0,739.345215
1942,-596,4,1,0,11,63.404190
167,1120,1,0,0,0,850.815002
-929,348,2,0,0,0,888.900757
-928,-1142,3,0,0,0,775.500000
1287,-518,4,1,0,11,63.404190
1960,951,1,1,0,6,71.327469
-1740,960,2,0,0,0,689.352905
-1124,-91,3,0,0,0,852.013062
1980,-4,4,1,0,17,72.243256
1493,465,1,0,0,0,758.046570
-653,347,2,0,0,0,973.546448
-438,-1566,3,1,0,11,63.404190
833,-275,4,0,0,0,924.326782
9,1345,1,0,0,0,801.322144
-496,791,2,1,0,17,72.243256
-1776,-1409,3,1,0,12,63.572792
1907,-177,4,1,0,11,63.404190
1428,844,1,1,0,6,71.327469
-411,1332,2,0,0,0,791.051941
-1057,-1653,3,1,0,12,63.572792
1443,-1346,4,0,0,0,691.368042
1396,1597,1,1,0,6,71.327469
-578,1804,2,1,0,17,72.243256
-1428,-454,3,1,0,12,63.572792
518,-1486,4,0,0,0,756.224304
876,438,1,0,0,0,892.594055
-1013,1711,2,1,0,6,71.327469
-807,-1391,3,1,0,12,63.572792
1589,-331,4,0,0,0,747.352539
1978,580,1,0,0,0,678.892578
-3,1107,2,1,0,17,72.243256
-1136,-273,3,1,0,12,63.572792
1114,-34,4,0,0,0,855.390686
895,818,1,0,0,0,831.149109
-1062,389,2,0,0,0,851.166077
-1059,-223,3,1,0,12,63.572792
1881,-1176,4,1,0,11,63.404190
1396,667,1,0,0,0,761.105713
-1020,821,2,1,0,6,71.327469
-1084,-35,3,0,0,0,863.231140
671,-370,4,0,0,0,963.294250
516,1701,1,1,0,17,72.243256
-1489,411,2,1,0,17,72.243256
-1953,-960,3,1,0,12,63.572792
589,-642,4,1,0,11,63.404190
1286,831,1,0,0,0,764.095825
-1557,1176,2,0,0,0,694.591309
-545,-67,3,0,0,0,1059.354248
58,-850,4,0,0,0,932.737976
1360,397,1,1,0,6,71.327469
-451,771,2,1,0,17,72.243256
-1552,-273,3,0,0,0,755.835815
245,-1301,4,0,0,0,805.880615
236,1171,1,0,0,0,835.439697
-274,828,2,1,0,17,72.243256
-1669,-1704,3,1,0,12,63.572792
490,-1267,4,1,0,11,63.404190
1519,495,1,0,0,0,751.894531
-1432,1097,2,0,0,0,717.072388
-632,-401,3,0,0,0,970.056091
604,-43,4,0,0,0,1031.150513
413,585,1,0,0,0,982.804077
-1549,933,2,0,0,0,716.375977
-1244,-540,3,0,0,0,798.956421
830,-1208,4,1,0,11,63.404190
323,755,1,0,0,0,943.341553
-33,1948,2,0,0,0,695.021667
-1092,-1939,3,0,0,0,657.010437
104,-1361,4,1,0,11,63.404190
1046,638,1,1,0,6,71.327469
-1362,519,2,1,0,11,63.404190
-433,-1533,3,0,0,0,752.729370
1504,-31,4,1,0,6,71.327469
71,839,1,0,0,0,936.131897
-668,271,2,1,0,0,60.226799
-131,-87,3,0,0,0,1420.057495
376,-949,4,1,0,11,63.404190
1417,1814,1,0,0,0,647.365112
-1847,1085,2,0,0,0,667.898865
-1661,-338,3,0,0,0,734.913879
610,-1692,4,1,0,11,63.404190
531,726,1,0,0,0,917.113098
-1528,533,2,0,0,0,748.205139
-1179,-645,3,0,0,0,801.564026
1921,-914,4,1,0,17,72.243256
667,1570,1,0,0,0,733.097778
-1477,1435,2,1,0,17,72.243256
-221,-683,3,0,0,0,982.093201
51,-1527,4,0,0,0,764.711121
583,1509,1,0,0,0,748.309204
-1791,1344,2,0,0,0,655.239075
-1062,-453,3,0,0,0,845.229614
41,-807,4,1,0,11,63.404190
850,1074,1,0,0,0,796.106384
-24,899,2,0,0,0,917.159363
-1522,-966,3,0,0,0,717.265930
1909,-396,4,0,0,0,694.821838
992,643,1,0,0,0,838.436707
-1693,1120,2,1,0,17,72.243256
-1271,-359,3,0,0,0,806.563354
347,-78,4,0,0,0,1184.616699
107,709,1,0,0,0,982.429138
-1137,1626,2,0,0,0,689.808533
-1478,-395,3,1,0,12,63.572792
426,-130,4,1,0,0,167.657227
449,1328,1,1,0,17,72.243256
-893,1523,2,0,0,0,723.238281
-139,-732,3,1,0,11,63.404190
842,-1133,4,0,0,0,787.437378
1269,621,1,1,0,6,71.327469
-679,391,2,0,0,0,956.867859
-723,-1772,3,1,0,11,63.404190
1717,-117,4,0,0,0,730.558838
1971,68,1,1,0,6,71.327469
-447,837,2,1,0,17,72.243256
-1326,-1980,3,0,0,0,637.483765
1845,-964,4,0,0,0,676.079712
715,1694,1,1,0,17,72.243256
-32,795,2,1,0,6,71.327469
-1226,-1927,3,0,0,0,649.592102
1073,-1053,4,0,0,0,769.348022
1830,1150,1,0,0,0,665.345276
-1771,1437,2,0,0,0,650.003113
-944,-1504,3,0,0,0,721.584778
18,-1787,4,1,0,12,63.572792
233,1715,1,1,0,17,72.243256
-1020,984,2,0,0,0,786.288391
-1677,-1840,3,1,0,12,63.572792
1597,-1741,4,0,0,0,639.944824
1493,1316,1,0,0,0,688.929443
-1363,1264,2,0,0,0,708.469116
-1466,-478,3,1,0,12,63.572792
1146,-1593,4,0,0,0,692.956848
1900,963,1,0,0,0,669.503906
-950,1486,2,1,0,17,72.243256
-8,-1127,3,0,0,0,852.178589
808,-1318,4,0,0,0,761.328857
679,1759,1,0,0,0,704.397827
-1440,919,2,1,0,12,63.572792
-210,-1908,3,1,0,11,63.404190
8,-230,4,0,0,0,1310.191162
1101,1723,1,1,0,6,71.327469
-277,1567,2,0,0,0,753.032898
-1707,-46,3,0,0,0,732.793823
1227,-257,4,0,0,0,821.555176
450,857,1,1,0,17,72.243256
-1983,1653,2,1,0,17,72.243256
-193,-1833,3,0,0,0,710.907288
735,-891,4,0,0,0,845.115906
532,1849,1,1,0,17,72.243256
-671,1930,2,1,0,17,72.243256
-1827,-966,3,1,0,12,63.572792
1123,-643,4,1,0,11,63.404190
1103,1922,1,0,0,0,658.211243
-723,1500,2,1,0,17,72.243256
-943,-1410,3,1,0,12,63.572792
464,-106,4,0,0,0,1100.581909
693,56,1,1,0,6,71.327469
-1938,885,2,0,0,0,669.450439
-890,-1614,3,0,0,0,710.909058
1710,-1447,4,1,0,12,63.572792
1496,1385,1,1,0,6,71.327469
-692,273,2,1,0,12,63.572792
-1177,-1242,3,0,0,0,732.208496
669,-1037,4,0,0,0,826.076538
1947,1877,1,1,0,6,71.327469
-1516,1924,2,0,0,0,629.640686
-1887,-1715,3,0,0,0,618.203247
534,-1975,4,0,0,0,681.032043
275,583,1,1,0,6,71.327469
-40,213,2,0,0,0,1327.519653
-1989,-1010,3,0,0,0,656.319336
1783,-589,4,0,0,0,705.575256
530,719,1,0,0,0,919.116394
-597,1505,2,0,0,0,748.064758
-1635,-909,3,1,0,12,63.572792
127,-864,4,1,0,11,63.404190
1688,512,1,0,0,0,723.490784
-1889,1339,2,0,0,0,645.685242
-1493,-539,3,0,0,0,753.751282
493,-18,4,0,0,0,1090.241821
725,1920,1,1,0,17,72.243256
-571,235,2,0,0,0,1025.521484
-238,-372,3,0,0,0,1122.175659
824,-1671,4,0,0,0,707.817810
1836,811,1,1,0,6,71.327469
-889,728,2,1,0,12,63.572792
-995,-1139,3,1,0,12,63.572792
678,-1249,4,0,0,0,785.501831
1330,523,1,1,0,6,71.327469
-482,827,2,1,0,12,63.572792
-1246,-916,3,0,0,0,761.233765
1300,-1986,4,1,0,11,63.404190
988,983,1,1,0,6,71.327469
-568,604,2,1,0,0,42.279625
-359,-204,3,1,0,0,190.955170
339,-1919,4,0,0,0,694.958069
790,1777,1,0,0,0,695.549133
-848,1973,2,1,0,17,72.243256
-1023,-1774,3,0,0,0,680.765076
466,-489,4,1,0,11,63.404190
520,1711,1,1,0,17,72.243256
-1451,379,2,1,0,12,63.572792
-1703,-134,3,1,0,12,63.572792
744,-175,4,0,0,0,964.027527
1662,1159,1,1,0,6,71.327469
-1823,1767,2,1,0,17,72.243256
-390,-649,3,1,0,12,63.572792
1907,-729,4,1,0,17,72.243256
390,1284,1,0,0,0,801.987122
-51,1947,2,0,0,0,695.111633
-151,-856,3,0,0,0,926.966858
525,-1051,4,1,0,11,63.404190
846,408,1,0,0,0,904.649048
-570,348,2,0,0,0,1002.915649
-984,-1720,3,0,0,0,690.171936
312,-1792,4,0,0,0,714.689575
471,1845,1,1,0,17,72.243256
-942,1128,2,0,0,0,775.871887
-1723,-577,3,0,0,0,714.990784
693,-1420,4,0,0,0,755.062622
1285,1370,1,1,0,6,71.327469
-1684,0,2,1,0,12,63.572792
-940,-1239,3,0,0,0,759.613525
1857,-1468,4,0,0,0,639.384338
162,1852,1,0,0,0,708.440979
-1102,113,2,0,0,0,857.136353
-1516,-960,3,1,0,12,63.572792
899,-302,4,0,0,0,901.864502
565,677,1,1,0,6,71.327469
-985,97,2,1,0,12,63.572792
-1796,-959,3,0,0,0,682.421692
1361,-703,4,0,0,0,763.962891
1957,912,1,0,0,0,665.645386
-1269,199,2,1,0,11,63.404190
-1253,-1629,3,0,0,0,679.744263
1628,-211,4,0,0,0,744.099731
162,884,1,1,0,17,72.243256
-1779,335,2,1,0,12,63.572792
-580,-1110,3,1,0,12,63.572792
777,-1731,4,1,0,11,63.404190
1324,1736,1,1,0,6,71.327469
-421,1178,2,1,0,17,72.243256
-1768,-1319,3,0,0,0,659.528992
1750,-151,4,1,0,11,63.404190
693,1521,1,0,0,0,738.936340
-125,1676,2,1,0,6,71.327469
-1856,-1457,3,0,0,0,640.300476
460,-1616,4,0,0,0,737.436646
182,779,1,1,0,17,72.243256
-1594,1149,2,1,0,17,72.243256
-410,-1787,3,0,0,0,712.419006
971,-936,4,0,0,0,800.543274
433,696,1,1,0,17,72.243256
-1932,812,2,1,0,12,63.572792
-171,-1714,3,0,0,0,730.304504
1525,-327,4,0,0,0,758.795105
282,1831,1,1,0,17,72.243256
-763,1504,2,1,0,6,71.327469
-973,-1328,3,1,0,12,63.572792
213,-1181,4,1,0,11,63.404190
282,1823,1,1,0,17,72.243256
-617,1177,2,1,0,17,72.243256
-420,-636,3,0,0,0,964.835022
1138,-1723,4,1,0,11,63.404190
1990,289,1,1,0,6,71.327469
-1389,1785,2,1,0,17,72.243256
-595,-1971,3,0,0,0,679.230164
912,-1677,4,0,0,0,700.859985
423,1290,1,0,0,0,798.652466
-537,287,2,0,0,0,1029.558105
-1558,-954,3,1,0,12,63.572792
138,-521,4,1,0,0,116.330200
825,250,1,1,0,6,71.327469
-1196,543,2,1,0,12,63.572792
-756,-1289,3,0,0,0,771.078796
325,-963,4,1,0,11,63.404190
259,1017,1,1,0,17,72.243256
-1299,1052,2,0,0,0,738.914917
-28,-1049,3,1,0,11,63.404190
303,-573,4,0,0,0,1011.526978
675,794,1,0,0,0,874.716125
-1518,1066,2,1,0,17,72.243256
-1115,-747,3,0,0,0,801.949036
1214,-50,4,1,0,12,63.572792
866,418,1,1,0,6,71.327469
-1287,1720,2,1,0,6,71.327469
-88,-724,3,0,0,0,977.526978
1808,-726,4,1,0,11,63.404190
1230,1138,1,0,0,0,738.206482
-1271,449,2,0,0,0,800.693237
-526,-1394,3,0,0,0,771.926331
1100,-1336,4,1,0,11,63.404190
282,1222,1,0,0,0,821.442749
-1325,1786,2,1,0,6,71.327469
-778,-787,3,0,0,0,857.432068
845,-176,4,1,0,11,63.404190
1358,1950,1,1,0,17,72.243256
-739,1068,2,0,0,0,811.387878
-136,-1974,3,0,0,0,690.590942
1903,-343,4,0,0,0,697.177002
306,679,1,0,0,0,971.490173
-1742,86,2,0,0,0,726.729919
-154,-1399,3,0,0,0,788.286072
966,-536,4,1,0,11,63.404190
1006,1624,1,1,0,6,71.327469
-136,171,2,1,0,0,429.342499
-48,-1259,3,1,0,11,63.404190
932,-1532,4,1,0,11,63.404190
545,601,1,1,0,6,71.327469
-1495,1995,2,0,0,0,624.626953
-856,-1205,3,1,0,12,63.572792
1446,-1213,4,1,0,11,63.404190
1799,424,1,1,0,6,71.327469
-708,724,2,1,0,6,71.327469
-340,-159,3,1,0,0,222.356659
1158,-1151,4,0,0,0,745.659058
676,93,1,1,0,6,71.327469
-1505,321,2,0,0,0,762.651367
-516,-1812,3,0,0,0,704.620422
1874,-1342,4,1,0,11,63.404190
1816,984,1,0,0,0,678.314209
-957,327,2,0,0,0,883.357727
-915,-1826,3,1,0,11,63.404190
552,-1315,4,1,0,11,63.404190
1594,707,1,1,0,6,71.327469
-261,1375,2,1,0,17,72.243256
-1052,-599,3,1,0,12,63.572792
1127,-239,4,1,0,11,63.404190
468,853,1,1,0,6,71.327469
-922,457,2,0,0,0,878.357056
-1882,-1207,3,0,0,0,655.673889
777,-1900,4,1,0,11,63.404190
312,1783,1,1,0,17,72.243256
-309,1000,2,1,0,17,72.243256
-1418,-963,3,1,0,12,63.572792
1019,-1274,4,1,0,11,63.404190
1595,89,1,1,0,6,71.327469
-1152,217,2,1,0,12,63.572792
-1558,-37,3,1,0,12,63.572792
1350,-915,4,0,0,0,745.984619
1464,1107,1,1,0,6,71.327469
-426,1095,2,1,0,17,72.243256
-1713,-2,3,0,0,0,731.891663
424,-1289,4,0,0,0,798.787537
550,1453,1,1,0,17,72.243256
-1892,1085,2,0,0,0,662.754944
-1011,-862,3,0,0,0,804.856018
1135,-1997,4,0,0,0,647.965027
1807,802,1,1,0,6,71.327469
-1002,195,2,0,0,0,880.673401
-1206,-260,3,1,0,12,63.572792
367,-1243,4,1,0,11,63.404190
662,956,1,0,0,0,843.180115
-1859,1251,2,0,0,0,655.044006
-452,-864,3,0,0,0,893.863220
201,-1851,4,0,0,0,708.008484
102,465,1,1,0,0,148.490005
-1123,553,2,0,0,0,821.980286
-445,-1124,3,1,0,12,63.572792
630,-1099,4,0,0,0,818.556274
1312,1164,1,0,0,0,725.123779
-269,1903,2,0,0,0,698.920959
-1671,-257,3,1,0,12,63.572792
1639,-725,4,1,0,11,63.404190
1078,1016,1,1,0,6,71.327469
-907,406,2,0,0,0,888.413147
-508,-1103,3,0,0,0,830.707214
1468,-3,4,0,0,0,776.185669
270,1319,1,1,0,17,72.243256
-1715,605,2,0,0,0,714.748474
-1306,-1226,3,0,0,0,719.081909
1140,-27,4,1,0,11,63.404190
1495,96,1,0,0,0,770.361450
-1203,1629,2,1,0,17,72.243256
-210,-1492,3,0,0,0,768.712463
398,-1413,4,0,0,0,776.189758
669,137,1,1,0,6,71.327469
-1409,574,2,1,0,12,63.572792
-1075,-277,3,0,0,0,856.530151
770,-734,4,1,0,11,63.404190
64,1670,1,0,0,0,738.971863
-969,1813,2,0,0,0,679.667175
-293,-1886,3,1,0,11,63.404190
296,-473,4,0,0,0,1054.728394
1109,1937,1,1,0,6,71.327469
-1027,1566,2,0,0,0,706.345703
-1717,-304,3,1,0,12,63.572792
675,-735,4,0,0,0,887.198669
1032,1616,1,1,0,6,71.327469
-1766,252,2,0,0,0,720.268005
-556,-175,3,0,0,0,1042.136475
105,-1477,4,0,0,0,773.706970
808,291,1,0,0,0,930.438538
-525,273,2,1,0,0,95.361664
-1653,-1079,3,0,0,0,691.269287
1006,-1211,4,0,0,0,756.106323
1709,85,1,1,0,6,71.327469
-1976,1874,2,0,0,0,599.497498
-225,-962,3,1,0,11,63.404190
1676,-936,4,1,0,17,72.243256
902,1514,1,1,0,17,72.243256
-1734,1882,2,0,0,0,617.184937
-1687,-358,3,1,0,12,63.572792
213,-773,4,1,0,11,63.404190
611,1838,1,0,0,0,696.699036
-1581,933,2,1,0,17,72.243256
-154,-1070,3,0,0,0,864.172058
645,-1116,4,0,0,0,813.557373
664,128,1,0,0,0,999.317200
-210,1448,2,0,0,0,777.137024
-835,-1004,3,0,0,0,809.820190
1465,-448,4,1,0,11,63.404190
1589,1274,1,0,0,0,682.328491
-192,1056,2,0,0,0,866.232971
-1248,-460,3,1,0,12,63.572792
1445,-1254,4,0,0,0,700.214417
258,989,1,0,0,0,880.306946
-511,1035,2,0,0,0,845.305664
-1008,-915,3,1,0,12,63.572792
1105,-431,4,0,0,0,837.485352
429,999,1,1,0,6,71.327469
-1820,27,2,0,0,0,714.494019
-50,-1756,3,1,0,11,63.404190
725,-177,4,1,0,11,63.404190
526,1979,1,0,0,0,680.781616
-506,1108,2,1,0,17,72.243256
-670,-584,3,1,0,12,63.572792
859,-1500,4,1,0,11,63.404190
1124,1656,1,0,0,0,687.320435
-817,1655,2,0,0,0,710.512512
-871,-1672,3,0,0,0,704.434021
539,-728,4,1,0,11,63.404190
732,1572,1,1,0,17,72.243256
-1425,109,2,1,0,12,63.572792
-51,-61,3,0,0,0,1616.832520
874,-1213,4,1,0,11,63.404190
1320,1022,1,1,0,6,71.327469
-97,1018,2,1,0,17,72.243256
-577,-336,3,1,0,12,63.572792
513,-1196,4,0,0,0,810.806335
1046,509,1,1,0,6,71.327469
-1178,1846,2,0,0,0,661.603455
-1608,-1820,3,1,0,12,63.572792
1837,-1364,4,1,0,11,63.404190
1384,834,1,0,0,0,748.636353
-377,1051,2,0,0,0,854.861389
-840,-1643,3,0,0,0,710.574158
921,-1433,4,1,0,11,63.404190
467,540,1,1,0,6,71.327469
-456,1693,2,1,0,6,71.327469
-988,-1006,3,1,0,12,63.572792
1667,-1087,4,0,0,0,688.945801
1488,1821,1,1,0,6,71.327469
-451,1460,2,0,0,0,764.669739
-696,-87,3,1,0,12,63.572792
927,-795,4,0,0,0,829.089600
1516,1150,1,1,0,6,71.327469
-984,1898,2,1,0,17,72.243256
-1859,-608,3,1,0,12,63.572792
1375,-772,4,0,0,0,755.640930
1931,795,1,0,0,0,675.176514
-1040,1361,2,1,0,17,72.243256
-1729,-628,3,1,0,12,63.572792
889,-776,4,0,0,0,838.953735
169,271,1,0,0,0,1215.655151
-612,1274,2,0,0,0,787.079834
-1434,-89,3,0,0,0,782.365051
602,-1799,4,0,0,0,702.649536
1282,292,1,0,0,0,807.849121
-1626,1660,2,0,0,0,644.672058
-1361,-1254,3,1,0,12,63.572792
462,-1060,4,1,0,11,63.404190
481,369,1,0,0,0,1030.813965
-311,1451,2,1,0,17,72.243256
-1400,-140,3,0,0,0,788.381714
1257,-618,4,0,0,0,789.666565
240,206,1,0,0,0,1218.462402
-723,890,2,1,0,17,72.243256
-1204,-1355,3,1,0,12,63.572792
1165,-1373,4,0,0,0,717.587585
1583,1167,1,0,0,0,692.333496
-1587,855,2,1,0,17,72.243256
-1709,-768,3,1,0,12,63.572792
853,-684,4,1,0,11,63.404190
1643,800,1,1,0,6,71.327469
-361,1790,2,1,0,17,72.243256
-1856,-1685,3,0,0,0,623.056946
1411,-216,4,0,0,0,784.235046
766,629,1,1,0,6,71.327469
-887,642,2,1,0,17,72.243256
-1801,-1210,3,1,0,12,63.572792
1438,-1769,4,0,0,0,650.118408
627,473,1,0,0,0,956.180420
-1414,114,2,0,0,0,786.021423
-57,-342,3,1,0,0,249.994385
385,-983,4,0,0,0,870.993958
533,31,1,0,0,0,1067.449951
-899,682,2,1,0,17,72.243256
-983,-1988,3,1,0,11,63.404190
249,-17,4,0,0,0,1286.795410
552,778,1,1,0,6,71.327469
-671,1652,2,0,0,0,720.399414
-1350,-656,3,1,0,12,63.572792
1233,-1026,4,1,0,11,63.404190
971,252,1,1,0,6,71.327469
-1570,1010,2,1,0,6,71.327469
-571,-1842,3,0,0,0,697.946594
1488,-1585,4,1,0,11,63.404190
1253,1033,1,1,0,6,71.327469
-1344,1539,2,1,0,17,72.243256
-590,-284,3,0,0,0,1008.600342
1884,-407,4,0,0,0,698.096741
685,802,1,1,0,6,71.327469
-1383,366,2,0,0,0,783.597168
-1564,-1482,3,1,0,12,63.572792
574,-450,4,1,0,11,63.404190
1243,1693,1,0,0,0,673.530457
-1818,1726,2,0,0,0,623.051941
-1090,-1517,3,1,0,12,63.572792
1318,-1636,4,1,0,11,63.404190
26,1310,1,0,0,0,808.851318
-1661,1139,2,1,0,17,72.243256
-1079,-706,3,1,0,12,63.572792
1141,-1794,4,1,0,11,63.404190
701,491,1,0,0,0,931.430725
-172,1685,2,1,0,17,72.243256
-1091,-1396,3,1,0,12,63.572792
1363,-1282,4,1,0,11,63.404190
1320,459,1,0,0,0,790.319214
-1271,1501,2,0,0,0,692.308838
-1434,-1017,3,0,0,0,724.454041
1851,-914,4,0,0,0,678.465393
1059,1688,1,1,0,17,72.243256
-343,930,2,0,0,0,889.134399
-235,-1504,3,0,0,0,765.765747
1042,-1660,4,1,0,11,63.404190
1850,1753,1,0,0,0,618.345215
-391,213,2,0,0,0,1119.812500
-278,-419,3,1,0,0,133.718353
1246,-1769,4,1,0,11,63.404190
1046,1815,1,0,0,0,674.276367
-1420,1117,2,0,0,0,716.630188
-1117,-1800,3,0,0,0,671.077026
1818,-362,4,0,0,0,709.271179
1721,711,1,0,0,0,707.977051
-119,1943,2,0,0,0,695.262512
-1493,-1705,3,1,0,12,63.572792
881,-1937,4,0,0,0,669.795105
1643,1142,1,1,0,6,71.327469
-1281,207,2,1,0,12,63.572792
-217,-1370,3,0,0,0,792.475220
625,-1932,4,0,0,0,683.184387
1273,1928,1,1,0,17,72.243256
-1497,1099,2,1,0,17,72.243256
-587,-503,3,1,0,12,63.572792
709,-1565,4,1,0,11,63.404190
845,1877,1,0,0,0,679.287903
-1315,1586,2,1,0,17,72.243256
-188,-1147,3,0,0,0,843.310730
1106,-1393,4,0,0,0,721.106750
1471,255,1,1,0,6,71.327469
-1264,1035,2,1,0,17,72.243256
-78,-1238,3,1,0,11,63.404190
1540,-615,4,1,0,11,63.404190
1900,1657,1,0,0,0,621.442627
-1245,1407,2,0,0,0,705.426575
-1183,-383,3,0,0,0,823.898010
1862,-1273,4,1,0,11,63.404190
1399,1261,1,1,0,6,71.327469
-284,1398,2,0,0,0,784.412476
-1665,-1768,3,0,0,0,632.082581
1465,-528,4,0,0,0,759.240906
1234,1203,1,0,0,0,730.163208
-1268,233,2,0,0,0,813.502625
-1148,-1111,3,0,0,0,751.903625
147,-1232,4,1,0,11,63.404190
1766,1342,1,1,0,6,71.327469
-1638,547,2,1,0,12,63.572792
-1912,-1923,3,1,0,11,63.404190
171,-1610,4,0,0,0,748.069824
1776,892,1,0,0,0,689.329773
-436,405,2,1,0,0,94.187828
-176,-521,3,0,0,0,1058.922852
641,-906,4,1,0,11,63.404190
551,1915,1,1,0,17,72.243256
-667,818,2,0,0,0,871.058716
-1415,-254,3,1,0,12,63.572792
1748,-801,4,1,0,17,72.243256
1029,455,1,0,0,0,852.669678
-1531,1441,2,1,0,17,72.243256
-1625,-219,3,0,0,0,744.436340
1934,-1828,4,0,0,0,606.053894
1235,1047,1,0,0,0,748.064758
-89,882,2,0,0,0,921.302185
-1464,-718,3,1,0,12,63.572792
1180,-1501,4,1,0,11,63.404190
1633,201,1,1,0,6,71.327469
-732,1530,2,0,0,0,734.736267
-1821,-1988,3,1,0,12,63.572792
1785,-1494,4,0,0,0,644.176514
267,1320,1,0,0,0,800.958618
-506,705,2,0,0,0,927.439819
-228,-79,3,0,0,0,1296.530151
1490,-1672,4,1,0,11,63.404190
753,116,1,1,0,6,71.327469
-619,1757,2,0,0,0,707.859314
-1369,-958,3,0,0,0,739.027039
1787,-29,4,1,0,6,71.327469
1716,245,1,1,0,6,71.327469
-1308,470,2,1,0,12,63.572792
-1076,-1248,3,0,0,0,743.019226
1959,-1522,4,1,0,11,63.404190
1207,704,1,1,0,6,71.327469
-1009,203,2,0,0,0,878.308533
-640,-616,3,0,0,0,920.714661
1324,-315,4,1,0,11,63.404190
470,992,1,1,0,17,72.243256
-973,9,2,0,0,0,894.468750
-1167,-979,3,0,0,0,765.574585
1301,-532,4,0,0,0,788.670471
1114,1952,1,0,0,0,654.181519
-28,562,2,1,0,0,106.306915
-405,-62,3,1,0,0,193.429672
1181,-456,4,1,0,11,63.404190
1104,1426,1,0,0,0,717.148865
-944,316,2,0,0,0,887.902527
-1114,-1485,3,0,0,0,708.852783
654,-1416,4,1,0,11,63.404190
1894,332,1,0,0,0,698.778137
-1700,1594,2,1,0,17,72.243256
-1613,-240,3,1,0,12,63.572792
1814,-133,4,1,0,11,63.404190
1460,692,1,1,0,6,71.327469
-72,1588,2,1,0,17,72.243256
-747,-934,3,1,0,12,63.572792
1249,-972,4,1,0,11,63.404190
107,1806,1,1,0,17,72.243256
-78,1209,2,1,0,17,72.243256
-147,-1060,3,1,0,11,63.404190
883,-1653,4,0,0,0,706.141174
455,1029,1,0,0,0,852.669678
-1247,761,2,0,0,0,777.585388
-106,-677,3,1,0,11,63.404190
108,-1804,4,0,0,0,716.542847
1350,1511,1,0,0,0,683.797058
-1324,614,2,0,0,0,777.865417
-716,-432,3,0,0,0,938.112610
1829,-763,4,0,0,0,690.144592
1909,149,1,0,0,0,699.982361
-914,48,2,0,0,0,912.099182
-342,-1245,3,0,0,0,813.081604
295,-1072,4,1,0,11,63.404190
1443,1414,1,0,0,0,684.634705
-1589,1596,2,0,0,0,653.594299
-1077,-1634,3,1,0,12,63.572792
590,-1305,4,0,0,0,783.283020
1339,6,1,1,0,6,71.327469
-1450,1503,2,0,0,0,675.152954
-989,-1987,3,0,0,0,657.758789
972,-1184,4,0,0,0,763.956116
745,1457,1,0,0,0,745.008911
-1248,861,2,1,0,6,71.327469
-1107,-1430,3,0,0,0,716.355835
1210,-1316,4,0,0,0,719.652588
524,1059,1,0,0,0,838.586548
-1492,169,2,0,0,0,769.698608
-1434,-391,3,0,0,0,772.618469
774,-1110,4,1,0,11,63.404190
1555,67,1,0,0,0,759.388611
-1989,218,2,0,0,0,687.394287
-411,-1983,3,1,0,11,63.404190
698,-454,4,0,0,0,939.345764
703,1816,1,0,0,0,695.162170
-1761,1295,2,0,0,0,662.118225
-1507,-1027,3,1,0,12,63.572792
737,-362,4,1,0,11,63.404190
580,220,1,1,0,6,71.327469
-1912,1823,2,0,0,0,608.133179
-497,-30,3,1,0,0,136.311234
946,-777,4,1,0,11,63.404190
1167,246,1,1,0,6,71.327469
-36,1045,2,1,0,17,72.243256
-910,-1739,3,1,0,12,63.572792
401,-570,4,1,0,11,63.404190
1168,949,1,1,0,6,71.327469
-1595,1525,2,0,0,0,659.409607
-1084,-624,3,1,0,12,63.572792
781,-239,4,0,0,0,944.903259
656,977,1,1,0,17,72.243256
-1333,1545,2,1,0,11,63.404190
-246,-651,3,0,0,0,991.037964
257,-841,4,0,0,0,923.614258
1185,1924,1,1,0,6,71.327469
-161,1287,2,1,0,17,72.243256
-542,-851,3,0,0,0,884.036743
1588,-366,4,0,0,0,746.201843
1515,1279,1,1,0,6,71.327469
-1453,747,2,0,0,0,745.473328
-1576,-215,3,0,0,0,753.158447
118,-758,4,0,0,0,962.964172
712,217,1,1,0,6,71.327469
-1517,1895,2,0,0,0,632.221252
-15,-540,3,1,0,0,115.779732
814,-752,4,0,0,0,857.027649
1507,1365,1,1,0,6,71.327469
-1196,1060,2,0,0,0,751.802795
-1003,-1948,3,1,0,12,63.572792
1396,-1631,4,0,0,0,667.266968
399,1091,1,1,0,6,71.327469
-1812,611,2,0,0,0,700.366333
-942,-526,3,1,0,12,63.572792
1318,-3,4,1,0,6,71.327469
1244,684,1,1,0,6,71.327469
-919,578,2,1,0,17,72.243256
-798,-2000,3,0,0,0,666.407227
1387,-581,4,1,0,11,63.404190
1869,1115,1,0,0,0,663.372070
-1977,1172,2,1,0,12,63.572792
-1351,-788,3,1,0,12,63.572792
1434,-128,4,1,0,11,63.404190
1093,1435,1,1,0,6,71.327469
-829,1795,2,1,0,17,72.243256
-385,-1574,3,0,0,0,747.831421
1380,-846,4,1,0,11,63.404190
1959,1441,1,1,0,6,71.327469
-933,251,2,1,0,17,72.243256
-1550,-1059,3,0,0,0,705.657715
368,-1893,4,1,0,11,63.404190
1377,69,1,0,0,0,794.210693
-1011,108,2,1,0,12,63.572792
-883,-1239,3,0,0,0,765.916565
840,-1843,4,0,0,0,683.914429
474,1968,1,0,0,0,684.073181
-1789,58,2,0,0,0,719.297668
-830,-1094,3,0,0,0,795.360718
166,-1805,4,1,0,11,63.404190
1042,1339,1,0,0,0,734.638794
-1795,1943,2,0,0,0,607.763123
-242,-885,3,1,0,11,63.404190
1768,-1411,4,1,0,11,63.404190
147,19,1,0,0,0,1437.129395
-1434,1944,2,0,0,0,633.601868
-602,-1422,3,0,0,0,761.659424
262,-619,4,0,0,0,1001.053101
945,860,1,1,0,6,71.327469
-1972,1925,2,0,0,0,596.130798
-639,-709,3,0,0,0,900.019714
422,-602,4,0,0,0,975.224304
582,1941,1,0,0,0,683.776733
-330,728,2,0,0,0,951.125732
-814,-1289,3,1,0,12,63.572792
1676,-1485,4,0,0,0,655.234070
524,489,1,0,0,0,982.550659
-1310,1177,2,1,0,17,72.243256
-1629,-1107,3,0,0,0,691.915710
399,-648,4,1,0,11,63.404190
188,847,1,0,0,0,927.498718
-918,1471,2,0,0,0,728.407471
-757,-1968,3,0,0,0,672.408508
1432,-1599,4,0,0,0,667.315125
1659,1859,1,1,0,6,71.327469
-601,1,2,0,0,0,1033.314453
-1271,-1927,3,0,0,0,646.552246
1697,-1422,4,0,0,0,658.467529
1569,1105,1,1,0,6,71.327469
-66,954,2,0,0,0,899.472351
-1811,-538,3,1,0,12,63.572792
1309,-1355,4,0,0,0,704.624207
1959,1103,1,1,0,6,71.327469
-488,1882,2,0,0,0,695.615723
-173,-1658,3,1,0,11,63.404190
1026,-78,4,0,0,0,878.380554
935,1656,1,1,0,6,71.327469
-340,302,2,1,0,0,161.530899
-172,-1860,3,1,0,11,63.404190
1745,-1411,4,0,0,0,654.616272
853,1848,1,1,0,17,72.243256
-1013,1402,2,0,0,0,729.114319
-1598,-1851,3,1,0,12,63.572792
1203,-1998,4,1,0,11,63.404190
1765,621,1,0,0,0,706.600037
-1736,59,2,1,0,12,63.572792
-1680,-1103,3,0,0,0,686.136414
1050,-226,4,0,0,0,866.036011
1031,1480,1,1,0,6,71.327469
-344,434,2,1,0,0,109.945488
-674,-756,3,1,0,12,63.572792
1446,-1055,4,1,0,11,63.404190
1560,784,1,1,0,6,71.327469
-750,518,2,1,0,17,72.243256
-182,-720,3,0,0,0,972.311584
1283,-854,4,0,0,0,762.207336
1422,1522,1,0,0,0,675.906738
-1772,450,2,1,0,6,71.327469
-241,-570,3,0,0,0,1024.874390
1982,-1425,4,0,0,0,630.619629
1171,1598,1,0,0,0,690.237793
-1959,769,2,0,0,0,672.956787
-1046,-410,3,0,0,0,853.085205
944,-1353,4,1,0,11,63.404190
1850,1258,1,0,0,0,655.494324
-1368,1736,2,0,0,0,658.956604
-1414,-1891,3,1,0,12,63.572792
855,-1540,4,0,0,0,723.899658
1070,745,1,1,0,6,71.327469
-1145,1164,2,0,0,0,745.650757
-866,-498,3,0,0,0,886.893921
1278,-572,4,1,0,11,63.404190
1408,1464,1,0,0,0,683.097168
-76,814,2,0,0,0,944.625122
-1964,-1621,3,1,0,12,63.572792
1111,-1043,4,1,0,11,63.404190
370,1972,1,1,0,17,72.243256
-198,1203,2,0,0,0,829.566833
-1285,-1504,3,1,0,12,63.572792
1021,-1954,4,1,0,11,63.404190
1036,635,1,0,0,0,830.527100
-892,862,2,1,0,17,72.243256
-1209,-67,3,1,0,12,63.572792
1667,-1583,4,0,0,0,647.734497
1828,1166,1,1,0,6,71.327469
-1175,1540,2,1,0,17,72.243256
-955,-1021,3,1,0,12,63.572792
1880,-8,4,0,0,0,705.232361
1440,233,1,1,0,6,71.327469
-530,57,2,1,0,0,118.991219
-81,-617,3,1,0,11,63.404190
613,-446,4,1,0,11,63.404190
387,1218,1,1,0,17,72.243256
-1497,292,2,1,0,12,63.572792
-1194,-1578,3,0,0,0,690.570801
569,-1597,4,0,0,0,734.863708
1935,1564,1,0,0,0,625.194702
-283,1070,2,0,0,0,857.392639
-177,-1491,3,1,0,11,63.404190
1351,-1117,4,1,0,11,63.404190
1724,1920,1,1,0,17,72.243256
-1100,340,2,0,0,0,846.036011
-837,-100,3,1,0,12,63.572792
850,-503,4,0,0,0,890.169617
1310,517,1,1,0,6,71.327469
-1210,378,2,1,0,12,63.572792
-1069,-1475,3,1,0,12,63.572792
1368,-1990,4,0,0,0,633.698975
858,22,1,0,0,0,930.613892
-1291,27,2,0,0,0,813.045227
-1723,-591,3,0,0,0,714.283142
226,-1709,4,0,0,0,730.076843
19,408,1,1,0,0,194.427536
-1821,677,2,1,0,17,72.243256
-408,-455,3,0,0,0,1028.492432
159,-515,4,1,0,11,63.404190
1532,1338,1,0,0,0,682.699036
-484,1357,2,1,0,17,72.243256
-1574,-917,3,0,0,0,714.267822
1871,-70,4,0,0,0,706.408813
684,1048,1,1,0,6,71.327469
-509,1390,2,1,0,17,72.243256
-1241,-612,3,1,0,12,63.572792
864,-1883,4,0,0,0,677.443054
292,671,1,1,0,17,72.243256
-349,835,2,1,0,17,72.243256
-3,-1786,3,1,0,11,63.404190
1409,-1037,4,0,0,0,725.851929
1566,1679,1,0,0,0,648.095886
-1907,1466,2,0,0,0,634.820435
-1905,-1295,3,0,0,0,647.161621
1961,-1082,4,0,0,0,655.175903
131,1451,1,1,0,17,72.243256
-1595,1836,2,0,0,0,631.675659
-92,-1745,3,0,0,0,726.187561
661,-1872,4,1,0,11,63.404190
1410,349,1,0,0,0,779.225281
-564,650,2,0,0,0,929.843872
-427,-612,3,1,0,12,63.572792
1433,-567,4,1,0,11,63.404190
507,456,1,1,0,6,71.327469
-727,297,2,0,0,0,956.208496
-403,-787,3,0,0,0,922.049316
1241,-648,4,1,0,11,63.404190
575,865,1,0,0,0,875.674927
-1563,573,2,0,0,0,740.090454
-543,-1905,3,0,0,0,690.273254
160,-1212,4,1,0,11,63.404190
68,44,1,0,0,0,1611.501221
-1078,1047,2,1,0,6,71.327469
-1372,-982,3,1,0,12,63.572792
1217,-201,4,0,0,0,826.212708
1118,600,1,1,0,6,71.327469
-671,792,2,1,0,17,72.243256
-1852,-545,3,1,0,12,63.572792
1768,-544,4,0,0,0,709.872986
961,734,1,1,0,6,71.327469
-1820,1143,2,0,0,0,666.961304
-1850,-1322,3,0,0,0,650.861877
754,-685,4,1,0,11,63.404190
1834,256,1,0,0,0,709.566528
-1142,1736,2,0,0,0,676.590454
-131,-423,3,0,0,0,1121.392334
905,-300,4,1,0,11,63.404190
1375,197,1,0,0,0,792.069336
-530,417,2,1,0,17,72.243256
-24,-403,3,1,0,0,198.174347
1681,-769,4,1,0,11,63.404190
754,1179,1,0,0,0,789.916931
-1110,904,2,0,0,0,783.409668
-1305,-1501,3,0,0,0,689.105896
852,-326,4,0,0,0,913.051208
73,266,1,1,0,0,335.728241
-1860,917,2,1,0,12,63.572792
-1855,-1060,3,0,0,0,668.648315
1977,-791,4,1,0,11,63.404190
433,609,1,0,0,0,970.534058
-538,720,2,1,0,17,72.243256
-576,-92,3,0,0,0,1041.933350
1591,-1747,4,1,0,11,63.404190
259,1833,1,0,0,0,709.655090
-1346,565,2,1,0,11,63.404190
-989,-1045,3,0,0,0,781.957275
1247,-332,4,1,0,11,63.404190
261,1294,1,0,0,0,806.708801
-869,915,2,1,0,6,71.327469
-1908,-1862,3,0,0,0,605.541626
862,-1465,4,1,0,11,63.404190
991,854,1,0,0,0,809.302307
-1561,932,2,1,0,17,72.243256
-1175,-1397,3,0,0,0,713.670410
1931,-400,4,1,0,6,71.327469
1794,838,1,1,0,6,71.327469
-479,355,2,0,0,0,1035.622070
-1889,-225,3,0,0,0,701.850586
24,-935,4,0,0,0,905.858521
95,646,1,0,0,0,1009.414429
-643,1406,2,0,0,0,761.310913
-1958,-563,3,1,0,12,63.572792
1937,-592,4,0,0,0,683.908142
352,1544,1,0,0,0,754.420837
-1093,1997,2,1,0,17,72.243256
-1423,-1796,3,1,0,12,63.572792
1009,-602,4,1,0,11,63.404190
1686,1029,1,1,0,6,71.327469
-1129,885,2,0,0,0,782.811646
-101,-1883,3,1,0,11,63.404190
272,-811,4,1,0,11,63.404190
1732,1899,1,0,0,0,615.944885
-453,1401,2,0,0,0,775.323425
-798,-49,3,1,0,12,63.572792
909,573,1,1,0,6,71.327469
-414,536,2,0,0,0,998.872559
-1981,-54,3,1,0,12,63.572792
1186,678,1,1,0,6,71.327469
-1739,1070,2,1,0,12,63.572792
-1866,-1493,3,1,0,12,63.572792
554,1164,1,0,0,0,813.528625
-62,87,2,1,0,0,732.359070
-1371,-910,3,0,0,0,743.418152
715,120,1,1,0,6,71.327469
-1253,216,2,0,0,0,817.488403
-1766,-71,3,1,0,12,63.572792
1830,373,1,1,0,6,71.327469
-1785,91,2,1,0,12,63.572792
-614,-1995,3,1,0,11,63.404190
1904,820,1,1,0,6,71.327469
-1878,1555,2,1,0,17,72.243256
-380,-400,3,0,0,0,1057.980713
573,375,1,0,0,0,995.683899
-1833,639,2,0,0,0,696.065491
-1466,-1631,3,1,0,12,63.572792
797,217,1,1,0,6,71.327469
-235,1488,2,1,0,17,72.243256
-950,-841,3,0,0,0,818.101868
1046,126,1,0,0,0,871.579041
-657,1422,2,0,0,0,757.550903
-470,-1978,3,1,0,11,63.404190
740,1865,1,0,0,0,686.604065
-329,366,2,1,0,0,139.415649
-995,-992,3,1,0,12,63.572792
1711,1199,1,1,0,6,71.327469
-1590,1288,2,0,0,0,680.988831
-526,-1477,3,1,0,11,63.404190
691,766,1,0,0,0,877.637878
-1090,1294,2,1,0,17,72.243256
-568,-1767,3,0,0,0,708.907166
1060,1476,1,0,0,0,714.968445
-79,21,2,0,0,0,1608.842896
-106,-1456,3,0,0,0,777.784668
73,1338,1,0,0,0,802.401428
-1583,1029,2,1,0,11,63.404190
-702,-719,3,1,0,12,63.572792
103,1303,1,0,0,0,809.552795
-653,1339,2,1,0,17,72.243256
-463,-327,3,1,0,0,104.663559
770,1217,1,1,0,6,71.327469
-1836,341,2,1,0,12,63.572792
-502,-975,3,0,0,0,860.043335
302,1475,1,0,0,0,768.923584
-1907,1603,2,1,0,6,71.327469
-763,-625,3,0,0,0,890.570984
1353,1834,1,1,0,6,71.327469
-1776,1497,2,1,0,17,72.243256
-1683,-1539,3,0,0,0,650.014160
264,566,1,0,0,0,1022.237305
-1296,1171,2,1,0,17,72.243256
-1287,-1539,3,0,0,0,686.637207
314,611,1,0,0,0,994.776001
-1553,1995,2,1,0,6,71.327469
-1560,-1071,3,1,0,12,63.572792
1756,1224,1,1,0,6,71.327469
-1289,75,2,1,0,12,63.572792
-1401,-1281,3,1,0,12,63.572792
1182,1455,1,1,0,6,71.327469
-668,1741,2,0,0,0,707.567017
-1120,-1709,3,0,0,0,681.398010
845,47,1,1,0,6,71.327469
-1421,1858,2,1,0,17,72.243256
-840,-1452,3,0,0,0,737.902466
1920,1069,1,1,0,6,71.327469
-513,167,2,0,0,0,1064.442627
-110,-1519,3,1,0,11,63.404190
1012,1744,1,0,0,0,685.195007
-701,486,2,1,0,12,63.572792
-619,-358,3,1,0,12,63.572792
1152,1163,1,1,0,6,71.327469
-630,769,2,0,0,0,888.299805
-1727,-1656,3,1,0,12,63.572792
97,303,1,0,0,0,1216.767944
-879,779,2,1,0,17,72.243256
-33,-1020,3,0,0,0,880.747986
1623,1711,1,1,0,6,71.327469
-1307,196,2,1,0,12,63.572792
-1562,-190,3,0,0,0,756.257812
1757,527,1,0,0,0,712.278137
-1485,1813,2,0,0,0,642.244080
-835,-137,3,1,0,12,63.572792
543,1093,1,0,0,0,829.268677
-1008,1151,2,1,0,6,71.327469
-1410,-504,3,0,0,0,770.497437
1583,1481,1,1,0,6,71.327469
-1446,326,2,1,0,12,63.572792
-153,-28,3,1,0,0,571.638977
841,902,1,1,0,6,71.327469
-1898,1976,2,1,0,11,63.404190
-1664,-1355,3,1,0,12,63.572792
747,1786,1,0,0,0,696.842590
-320,1365,2,1,0,17,72.243256
-5,-1263,3,0,0,0,819.410706
-487,919,2,0,0,0,875.291138
-1723,-1257,3,1,0,12,63.572792
-855,55,2,0,0,0,931.122742
-61,-862,3,0,0,0,928.649048
-533,1546,2,1,0,17,72.243256
-1151,-13,3,1,0,12,63.572792
-1766,1420,2,0,0,0,651.831909
-1235,-9,3,0,0,0,825.852478
-1530,1931,2,1,0,17,72.243256
-1231,-168,3,1,0,12,63.572792
-708,1433,2,0,0,0,751.761475
-32,-1010,3,1,0,11,63.404190
-16,1399,2,0,0,0,789.997681
-1629,-1375,3,0,0,0,669.287048
-1885,65,2,1,0,12,63.572792
-1193,-1903,3,0,0,0,654.369568
-532,652,2,1,0,17,72.243256
-540,-629,3,1,0,12,63.572792
-644,312,2,0,0,0,983.004822
-1880,-79,3,0,0,0,704.982361
-872,-1848,3,1,0,12,63.572792
-212,-641,3,1,0,0,70.546555
