mbs coordinate
0,0

cbsd coordinate and channel
-970,900,2
740,900,1
980,-860,1
-750,-850,5
-750,1000,4
1050,600,2
760,-1135,3
-870,-1100,1
-1080,450,1
970,530,3
540,-1000,2
-1200,-300,3
-200,1170,7
820,1255,4
930,-1080,6
-1115,-505,2
-180,1230,3
500,1150,8
1200,-450,10
-500,-1100,7
-650,980,9
1180,450,9
700,-1160,7
-1050,-900,8
-1200,820,10
1200,1000,11
1340,-1120,12
-1440,-1280,10
-1160,1350,13
1420,960,14

building coordinate
-885,985
-1055,815
830,810
650,990
1060,-860
900,-860
-830,-770
-670,-930
-668,1070
-832,930
965,675
1135,525
832,-1059
688,-1211
-965,-1035
-775,-1165
-1135,365
-1025,535
907,591
1033,469
638,-906
442,-1094
-1275,-390
-1125,-210
-298,1123
-102,1217
910,1206
730,1304
1005,-1005
855,-1155
-1178,-407
-1052,-603
-120,1290
-240,1170
410,1240
590,1060
1275,-375
1125,-525
-577,-1023
-423,-1177
-600,1070
-710,890
1135,535
1225,365
743,-1077
657,-1243
-1138,-855
-962,-945
-1100,866
-1300,774
1100,1100
1300,900
1440,-1020
1240,-1220
-1540,-1180
-1340,-1380
-1060,1450
-1260,1250
1320,1060
1520,860

area numbers
303,313,315,269

x , y , block , block number
area 1
373,1760,0,0
911,986,1,0
1554,53,0,0
272,1780,0,0
893,977,0,0
269,792,0,0
1181,1430,1,0
1030,240,1,0
1101,1501,0,0
257,933,1,0
838,724,0,0
986,390,1,0
1104,1603,0,0
1363,1997,1,0
806,147,0,0
1493,854,1,0
588,1461,0,0
1971,1499,1,0
1829,417,0,0
677,1408,1,0
889,105,1,0
672,1927,0,0
1445,955,0,0
1252,1143,1,0
1745,389,0,0
1050,848,0,0
1101,1936,1,0
394,347,1,0
327,961,1,0
558,420,0,0
321,847,1,0
1931,1942,0,0
994,1170,1,0
167,1120,0,0
1960,951,1,0
1493,465,0,0
9,1345,0,0
1428,844,1,0
1396,1597,1,0
876,438,0,0
1978,580,0,0
895,818,0,0
1396,667,0,0
516,1701,1,0
1286,831,0,0
1360,397,1,0
236,1171,0,0
1519,495,0,0
413,585,0,0
323,755,0,0
1046,638,1,0
71,839,0,0
1417,1814,0,0
531,726,0,0
667,1570,0,0
583,1509,0,0
850,1074,0,0
992,643,0,0
107,709,0,0
449,1328,1,0
1269,621,1,0
1971,68,1,0
715,1694,1,0
1830,1150,0,0
233,1715,1,0
1493,1316,0,0
1900,963,0,0
679,1759,0,0
1101,1723,1,0
450,857,1,0
532,1849,1,0
1103,1922,0,0
693,56,1,0
1496,1385,1,0
1947,1877,1,0
275,583,1,0
530,719,0,0
1688,512,0,0
725,1920,1,0
1836,811,1,0
1330,523,1,0
988,983,1,0
790,1777,0,0
520,1711,1,0
1662,1159,1,0
390,1284,0,0
846,408,0,0
471,1845,1,0
1285,1370,1,0
162,1852,0,0
565,677,1,0
1957,912,0,0
162,884,1,0
1324,1736,1,0
693,1521,0,0
182,779,1,0
433,696,1,0
282,1831,1,0
282,1823,1,0
1990,289,1,0
423,1290,0,0
825,250,1,0
259,1017,1,0
675,794,0,0
866,418,1,0
1230,1138,0,0
282,1222,0,0
1358,1950,1,0
306,679,0,0
1006,1624,1,0
545,601,1,0
1799,424,1,0
676,93,1,0
1816,984,0,0
1594,707,1,0
468,853,1,0
312,1783,1,0
1595,89,1,0
1464,1107,1,0
550,1453,1,0
1807,802,1,0
662,956,0,0
102,465,1,0
1312,1164,0,0
1078,1016,1,0
270,1319,1,0
1495,96,0,0
669,137,1,0
64,1670,0,0
1109,1937,1,0
1032,1616,1,0
808,291,0,0
1709,85,1,0
902,1514,1,0
611,1838,0,0
664,128,0,0
1589,1274,0,0
258,989,0,0
429,999,1,0
526,1979,0,0
1124,1656,0,0
732,1572,1,0
1320,1022,1,0
1046,509,1,0
1384,834,0,0
467,540,1,0
1488,1821,1,0
1516,1150,1,0
1931,795,0,0
169,271,0,0
1282,292,0,0
481,369,0,0
240,206,0,0
1583,1167,0,0
1643,800,1,0
766,629,1,0
627,473,0,0
533,31,0,0
552,778,1,0
971,252,1,0
1253,1033,1,0
685,802,1,0
1243,1693,0,0
26,1310,0,0
701,491,0,0
1320,459,0,0
1059,1688,1,0
1850,1753,0,0
1046,1815,0,0
1721,711,0,0
1643,1142,1,0
1273,1928,1,0
845,1877,0,0
1471,255,1,0
1900,1657,0,0
1399,1261,1,0
1234,1203,0,0
1766,1342,1,0
1776,892,0,0
551,1915,1,0
1029,455,0,0
1235,1047,0,0
1633,201,1,0
267,1320,0,0
753,116,1,0
1716,245,1,0
1207,704,1,0
470,992,1,0
1114,1952,0,0
1104,1426,0,0
1894,332,0,0
1460,692,1,0
107,1806,1,0
455,1029,0,0
1350,1511,0,0
1909,149,0,0
1443,1414,0,0
1339,6,1,0
745,1457,0,0
524,1059,0,0
1555,67,0,0
703,1816,0,0
580,220,1,0
1167,246,1,0
1168,949,1,0
656,977,1,0
1185,1924,1,0
1515,1279,1,0
712,217,1,0
1507,1365,1,0
399,1091,1,0
1244,684,1,0
1869,1115,0,0
1093,1435,1,0
1959,1441,1,0
1377,69,0,0
474,1968,0,0
1042,1339,0,0
147,19,0,0
945,860,1,0
582,1941,0,0
524,489,0,0
188,847,0,0
1659,1859,1,0
1569,1105,1,0
1959,1103,1,0
935,1656,1,0
853,1848,1,0
1765,621,0,0
1031,1480,1,0
1560,784,1,0
1422,1522,0,0
1171,1598,0,0
1850,1258,0,0
1070,745,1,0
1408,1464,0,0
370,1972,1,0
1036,635,0,0
1828,1166,1,0
1440,233,1,0
387,1218,1,0
1935,1564,0,0
1724,1920,1,0
1310,517,1,0
858,22,0,0
19,408,1,0
1532,1338,0,0
684,1048,1,0
292,671,1,0
1566,1679,0,0
131,1451,1,0
1410,349,0,0
507,456,1,0
575,865,0,0
68,44,0,0
1118,600,1,0
961,734,1,0
1834,256,0,0
1375,197,0,0
754,1179,0,0
73,266,1,0
433,609,0,0
259,1833,0,0
261,1294,0,0
991,854,0,0
1794,838,1,0
95,646,0,0
352,1544,0,0
1686,1029,1,0
1732,1899,0,0
909,573,1,0
1186,678,1,0
554,1164,0,0
715,120,1,0
1830,373,1,0
1904,820,1,0
573,375,0,0
797,217,1,0
1046,126,0,0
740,1865,0,0
1711,1199,1,0
691,766,0,0
1060,1476,0,0
73,1338,0,0
103,1303,0,0
770,1217,1,0
302,1475,0,0
1353,1834,1,0
264,566,0,0
314,611,0,0
1756,1224,1,0
1182,1455,1,0
845,47,1,0
1920,1069,1,0
1012,1744,0,0
1152,1163,1,0
97,303,0,0
1623,1711,1,0
1757,527,0,0
543,1093,0,0
1583,1481,1,0
841,902,1,0
747,1786,0,0
area 2
-402,829,0,0
-876,592,1,0
-72,1090,0,0
-250,551,0,0
-1603,45,0,0
-1045,1050,1,0
-933,1061,1,0
-1262,1679,1,0
-175,1011,0,0
-600,1200,0,0
-1729,1273,1,0
-227,207,1,0
-1784,1447,1,0
-1886,770,1,0
-956,1382,0,0
-1460,1337,0,0
-1835,882,1,0
-1240,1402,1,0
-1328,1130,0,0
-225,388,0,0
-610,74,1,0
-678,1443,0,0
-871,1486,0,0
-915,1825,1,0
-342,335,1,0
-1835,235,1,0
-20,658,1,0
-808,46,0,0
-1864,1831,1,0
-1009,47,1,0
-1310,58,1,0
-801,1125,1,0
-1817,1517,0,0
-929,348,0,0
-1740,960,0,0
-653,347,0,0
-496,791,1,0
-411,1332,0,0
-578,1804,1,0
-1013,1711,1,0
-3,1107,1,0
-1062,389,0,0
-1020,821,1,0
-1489,411,1,0
-1557,1176,0,0
-451,771,1,0
-274,828,1,0
-1432,1097,0,0
-1549,933,0,0
-33,1948,0,0
-1362,519,1,0
-668,271,1,0
-1847,1085,0,0
-1528,533,0,0
-1477,1435,1,0
-1791,1344,0,0
-24,899,0,0
-1693,1120,1,0
-1137,1626,0,0
-893,1523,0,0
-679,391,0,0
-447,837,1,0
-32,795,1,0
-1771,1437,0,0
-1020,984,0,0
-1363,1264,0,0
-950,1486,1,0
-1440,919,1,0
-277,1567,0,0
-1983,1653,1,0
-671,1930,1,0
-723,1500,1,0
-1938,885,0,0
-692,273,1,0
-1516,1924,0,0
-40,213,0,0
-597,1505,0,0
-1889,1339,0,0
-571,235,0,0
-889,728,1,0
-482,827,1,0
-568,604,1,0
-848,1973,1,0
-1451,379,1,0
-1823,1767,1,0
-51,1947,0,0
-570,348,0,0
-942,1128,0,0
-1684,0,1,0
-1102,113,0,0
-985,97,1,0
-1269,199,1,0
-1779,335,1,0
-421,1178,1,0
-125,1676,1,0
-1594,1149,1,0
-1932,812,1,0
-763,1504,1,0
-617,1177,1,0
-1389,1785,1,0
-537,287,0,0
-1196,543,1,0
-1299,1052,0,0
-1518,1066,1,0
-1287,1720,1,0
-1271,449,0,0
-1325,1786,1,0
-739,1068,0,0
-1742,86,0,0
-136,171,1,0
-1495,1995,0,0
-708,724,1,0
-1505,321,0,0
-957,327,0,0
-261,1375,1,0
-922,457,0,0
-309,1000,1,0
-1152,217,1,0
-426,1095,1,0
-1892,1085,0,0
-1002,195,0,0
-1859,1251,0,0
-1123,553,0,0
-269,1903,0,0
-907,406,0,0
-1715,605,0,0
-1203,1629,1,0
-1409,574,1,0
-969,1813,0,0
-1027,1566,0,0
-1766,252,0,0
-525,273,1,0
-1976,1874,0,0
-1734,1882,0,0
-1581,933,1,0
-210,1448,0,0
-192,1056,0,0
-511,1035,0,0
-1820,27,0,0
-506,1108,1,0
-817,1655,0,0
-1425,109,1,0
-97,1018,1,0
-1178,1846,0,0
-377,1051,0,0
-456,1693,1,0
-451,1460,0,0
-984,1898,1,0
-1040,1361,1,0
-612,1274,0,0
-1626,1660,0,0
-311,1451,1,0
-723,890,1,0
-1587,855,1,0
-361,1790,1,0
-887,642,1,0
-1414,114,0,0
-899,682,1,0
-671,1652,0,0
-1570,1010,1,0
-1344,1539,1,0
-1383,366,0,0
-1818,1726,0,0
-1661,1139,1,0
-172,1685,1,0
-1271,1501,0,0
-343,930,0,0
-391,213,0,0
-1420,1117,0,0
-119,1943,0,0
-1281,207,1,0
-1497,1099,1,0
-1315,1586,1,0
-1264,1035,1,0
-1245,1407,0,0
-284,1398,0,0
-1268,233,0,0
-1638,547,1,0
-436,405,1,0
-667,818,0,0
-1531,1441,1,0
-89,882,0,0
-732,1530,0,0
-506,705,0,0
-619,1757,0,0
-1308,470,1,0
-1009,203,0,0
-973,9,0,0
-28,562,1,0
-944,316,0,0
-1700,1594,1,0
-72,1588,1,0
-78,1209,1,0
-1247,761,0,0
-1324,614,0,0
-914,48,0,0
-1589,1596,0,0
-1450,1503,0,0
-1248,861,1,0
-1492,169,0,0
-1989,218,0,0
-1761,1295,0,0
-1912,1823,0,0
-36,1045,1,0
-1595,1525,0,0
-1333,1545,1,0
-161,1287,1,0
-1453,747,0,0
-1517,1895,0,0
-1196,1060,0,0
-1812,611,0,0
-919,578,1,0
-1977,1172,1,0
-829,1795,1,0
-933,251,1,0
-1011,108,1,0
-1789,58,0,0
-1795,1943,0,0
-1434,1944,0,0
-1972,1925,0,0
-330,728,0,0
-1310,1177,1,0
-918,1471,0,0
-601,1,0,0
-66,954,0,0
-488,1882,0,0
-340,302,1,0
-1013,1402,0,0
-1736,59,1,0
-344,434,1,0
-750,518,1,0
-1772,450,1,0
-1959,769,0,0
-1368,1736,0,0
-1145,1164,0,0
-76,814,0,0
-198,1203,0,0
-892,862,1,0
-1175,1540,1,0
-530,57,1,0
-1497,292,1,0
-283,1070,0,0
-1100,340,0,0
-1210,378,1,0
-1291,27,0,0
-1821,677,1,0
-484,1357,1,0
-509,1390,1,0
-349,835,1,0
-1907,1466,0,0
-1595,1836,0,0
-564,650,0,0
-727,297,0,0
-1563,573,0,0
-1078,1047,1,0
-671,792,1,0
-1820,1143,0,0
-1142,1736,0,0
-530,417,1,0
-1110,904,0,0
-1860,917,1,0
-538,720,1,0
-1346,565,1,0
-869,915,1,0
-1561,932,1,0
-479,355,0,0
-643,1406,0,0
-1093,1997,1,0
-1129,885,0,0
-453,1401,0,0
-414,536,0,0
-1739,1070,1,0
-62,87,1,0
-1253,216,0,0
-1785,91,1,0
-1878,1555,1,0
-1833,639,0,0
-235,1488,1,0
-657,1422,0,0
-329,366,1,0
-1590,1288,0,0
-1090,1294,1,0
-79,21,0,0
-1583,1029,1,0
-653,1339,1,0
-1836,341,1,0
-1907,1603,1,0
-1776,1497,1,0
-1296,1171,1,0
-1553,1995,1,0
-1289,75,1,0
-668,1741,0,0
-1421,1858,1,0
-513,167,0,0
-701,486,1,0
-630,769,0,0
-879,779,1,0
-1307,196,1,0
-1485,1813,0,0
-1008,1151,1,0
-1446,326,1,0
-1898,1976,1,0
-320,1365,1,0
-487,919,0,0
-855,55,0,0
-533,1546,1,0
-1766,1420,0,0
-1530,1931,1,0
-708,1433,0,0
-16,1399,0,0
-1885,65,1,0
-532,652,1,0
-644,312,0,0
area 3
-1883,-68,1,0
-1488,-111,1,0
-1174,-727,1,0
-874,-698,0,0
-1174,-1071,1,0
-1680,-900,1,0
-446,-1730,1,0
-220,-251,1,0
-1775,-451,0,0
-140,-346,1,0
-1838,-1322,1,0
-1382,-1204,0,0
-1799,-590,1,0
-1172,-759,0,0
-625,-1360,0,0
-1756,-1523,0,0
-343,-1790,1,0
-1541,-1258,1,0
-1655,-1724,0,0
-507,-1749,1,0
-408,-1960,1,0
-1887,-1516,1,0
-134,-226,1,0
-627,-159,0,0
-1451,-1065,0,0
-1538,-909,1,0
-1773,-969,1,0
-1788,-929,1,0
-1670,-1635,1,0
-330,-619,0,0
-530,-922,1,0
-367,-1459,0,0
-1106,-1250,0,0
-928,-1142,0,0
-1124,-91,0,0
-438,-1566,1,0
-1776,-1409,1,0
-1057,-1653,1,0
-1428,-454,1,0
-807,-1391,1,0
-1136,-273,1,0
-1059,-223,1,0
-1084,-35,0,0
-1953,-960,1,0
-545,-67,0,0
-1552,-273,0,0
-1669,-1704,1,0
-632,-401,0,0
-1244,-540,0,0
-1092,-1939,0,0
-433,-1533,0,0
-131,-87,0,0
-1661,-338,0,0
-1179,-645,0,0
-221,-683,0,0
-1062,-453,0,0
-1522,-966,0,0
-1271,-359,0,0
-1478,-395,1,0
-139,-732,1,0
-723,-1772,1,0
-1326,-1980,0,0
-1226,-1927,0,0
-944,-1504,0,0
-1677,-1840,1,0
-1466,-478,1,0
-8,-1127,0,0
-210,-1908,1,0
-1707,-46,0,0
-193,-1833,0,0
-1827,-966,1,0
-943,-1410,1,0
-890,-1614,0,0
-1177,-1242,0,0
-1887,-1715,0,0
-1989,-1010,0,0
-1635,-909,1,0
-1493,-539,0,0
-238,-372,0,0
-995,-1139,1,0
-1246,-916,0,0
-359,-204,1,0
-1023,-1774,0,0
-1703,-134,1,0
-390,-649,1,0
-151,-856,0,0
-984,-1720,0,0
-1723,-577,0,0
-940,-1239,0,0
-1516,-960,1,0
-1796,-959,0,0
-1253,-1629,0,0
-580,-1110,1,0
-1768,-1319,0,0
-1856,-1457,0,0
-410,-1787,0,0
-171,-1714,0,0
-973,-1328,1,0
-420,-636,0,0
-595,-1971,0,0
-1558,-954,1,0
-756,-1289,0,0
-28,-1049,1,0
-1115,-747,0,0
-88,-724,0,0
-526,-1394,0,0
-778,-787,0,0
-136,-1974,0,0
-154,-1399,0,0
-48,-1259,1,0
-856,-1205,1,0
-340,-159,1,0
-516,-1812,0,0
-915,-1826,1,0
-1052,-599,1,0
-1882,-1207,0,0
-1418,-963,1,0
-1558,-37,1,0
-1713,-2,0,0
-1011,-862,0,0
-1206,-260,1,0
-452,-864,0,0
-445,-1124,1,0
-1671,-257,1,0
-508,-1103,0,0
-1306,-1226,0,0
-210,-1492,0,0
-1075,-277,0,0
-293,-1886,1,0
-1717,-304,1,0
-556,-175,0,0
-1653,-1079,0,0
-225,-962,1,0
-1687,-358,1,0
-154,-1070,0,0
-835,-1004,0,0
-1248,-460,1,0
-1008,-915,1,0
-50,-1756,1,0
-670,-584,1,0
-871,-1672,0,0
-51,-61,0,0
-577,-336,1,0
-1608,-1820,1,0
-840,-1643,0,0
-988,-1006,1,0
-696,-87,1,0
-1859,-608,1,0
-1729,-628,1,0
-1434,-89,0,0
-1361,-1254,1,0
-1400,-140,0,0
-1204,-1355,1,0
-1709,-768,1,0
-1856,-1685,0,0
-1801,-1210,1,0
-57,-342,1,0
-983,-1988,1,0
-1350,-656,1,0
-571,-1842,0,0
-590,-284,0,0
-1564,-1482,1,0
-1090,-1517,1,0
-1079,-706,1,0
-1091,-1396,1,0
-1434,-1017,0,0
-235,-1504,0,0
-278,-419,1,0
-1117,-1800,0,0
-1493,-1705,1,0
-217,-1370,0,0
-587,-503,1,0
-188,-1147,0,0
-78,-1238,1,0
-1183,-383,0,0
-1665,-1768,0,0
-1148,-1111,0,0
-1912,-1923,1,0
-176,-521,0,0
-1415,-254,1,0
-1625,-219,0,0
-1464,-718,1,0
-1821,-1988,1,0
-228,-79,0,0
-1369,-958,0,0
-1076,-1248,0,0
-640,-616,0,0
-1167,-979,0,0
-405,-62,1,0
-1114,-1485,0,0
-1613,-240,1,0
-747,-934,1,0
-147,-1060,1,0
-106,-677,1,0
-716,-432,0,0
-342,-1245,0,0
-1077,-1634,1,0
-989,-1987,0,0
-1107,-1430,0,0
-1434,-391,0,0
-411,-1983,1,0
-1507,-1027,1,0
-497,-30,1,0
-910,-1739,1,0
-1084,-624,1,0
-246,-651,0,0
-542,-851,0,0
-1576,-215,0,0
-15,-540,1,0
-1003,-1948,1,0
-942,-526,1,0
-798,-2000,0,0
-1351,-788,1,0
-385,-1574,0,0
-1550,-1059,0,0
-883,-1239,0,0
-830,-1094,0,0
-242,-885,1,0
-602,-1422,0,0
-639,-709,0,0
-814,-1289,1,0
-1629,-1107,0,0
-757,-1968,0,0
-1271,-1927,0,0
-1811,-538,1,0
-173,-1658,1,0
-172,-1860,1,0
-1598,-1851,1,0
-1680,-1103,0,0
-674,-756,1,0
-182,-720,0,0
-241,-570,0,0
-1046,-410,0,0
-1414,-1891,1,0
-866,-498,0,0
-1964,-1621,1,0
-1285,-1504,1,0
-1209,-67,1,0
-955,-1021,1,0
-81,-617,1,0
-1194,-1578,0,0
-177,-1491,1,0
-837,-100,1,0
-1069,-1475,1,0
-1723,-591,0,0
-408,-455,0,0
-1574,-917,0,0
-1241,-612,1,0
-3,-1786,1,0
-1905,-1295,0,0
-92,-1745,0,0
-427,-612,1,0
-403,-787,0,0
-543,-1905,0,0
-1372,-982,1,0
-1852,-545,1,0
-1850,-1322,0,0
-131,-423,0,0
-24,-403,1,0
-1305,-1501,0,0
-1855,-1060,0,0
-576,-92,0,0
-989,-1045,0,0
-1908,-1862,0,0
-1175,-1397,0,0
-1889,-225,0,0
-1958,-563,1,0
-1423,-1796,1,0
-101,-1883,1,0
-798,-49,1,0
-1981,-54,1,0
-1866,-1493,1,0
-1371,-910,0,0
-1766,-71,1,0
-614,-1995,1,0
-380,-400,0,0
-1466,-1631,1,0
-950,-841,0,0
-470,-1978,1,0
-995,-992,1,0
-526,-1477,1,0
-568,-1767,0,0
-106,-1456,0,0
-702,-719,1,0
-463,-327,1,0
-502,-975,0,0
-763,-625,0,0
-1683,-1539,0,0
-1287,-1539,0,0
-1560,-1071,1,0
-1401,-1281,1,0
-1120,-1709,0,0
-840,-1452,0,0
-110,-1519,1,0
-619,-358,1,0
-1727,-1656,1,0
-33,-1020,0,0
-1562,-190,0,0
-835,-137,1,0
-1410,-504,0,0
-153,-28,1,0
-1664,-1355,1,0
-5,-1263,0,0
-1723,-1257,1,0
-61,-862,0,0
-1151,-13,1,0
-1235,-9,0,0
-1231,-168,1,0
-32,-1010,1,0
-1629,-1375,0,0
-1193,-1903,0,0
-540,-629,1,0
-1880,-79,0,0
-872,-1848,1,0
-212,-641,1,0
area 4
1324,-1809,1,0
1683,-1325,1,0
1621,-1066,0,0
1461,-99,0,0
1186,-1567,0,0
315,-397,0,0
830,-1872,1,0
620,-1204,0,0
539,-1809,1,0
235,-1007,1,0
1023,-1810,0,0
1839,-1444,1,0
1992,-412,0,0
1534,-918,0,0
1548,-1131,0,0
645,-791,1,0
412,-1943,0,0
763,-617,0,0
358,-1302,0,0
1068,-868,1,0
1110,-1604,1,0
1594,-1903,0,0
1594,-1999,1,0
1655,-1239,1,0
1810,-1983,0,0
340,-1438,0,0
802,-334,1,0
899,-1557,1,0
527,-297,0,0
196,-826,0,0
834,-1643,0,0
207,-1717,0,0
1942,-596,1,0
1287,-518,1,0
1980,-4,1,0
833,-275,0,0
1907,-177,1,0
1443,-1346,0,0
518,-1486,0,0
1589,-331,0,0
1114,-34,0,0
1881,-1176,1,0
671,-370,0,0
589,-642,1,0
58,-850,0,0
245,-1301,0,0
490,-1267,1,0
604,-43,0,0
830,-1208,1,0
104,-1361,1,0
1504,-31,1,0
376,-949,1,0
610,-1692,1,0
1921,-914,1,0
51,-1527,0,0
41,-807,1,0
1909,-396,0,0
347,-78,0,0
426,-130,1,0
842,-1133,0,0
1717,-117,0,0
1845,-964,0,0
1073,-1053,0,0
18,-1787,1,0
1597,-1741,0,0
1146,-1593,0,0
808,-1318,0,0
8,-230,0,0
1227,-257,0,0
735,-891,0,0
1123,-643,1,0
464,-106,0,0
1710,-1447,1,0
669,-1037,0,0
534,-1975,0,0
1783,-589,0,0
127,-864,1,0
493,-18,0,0
824,-1671,0,0
678,-1249,0,0
1300,-1986,1,0
339,-1919,0,0
466,-489,1,0
744,-175,0,0
1907,-729,1,0
525,-1051,1,0
312,-1792,0,0
693,-1420,0,0
1857,-1468,0,0
899,-302,0,0
1361,-703,0,0
1628,-211,0,0
777,-1731,1,0
1750,-151,1,0
460,-1616,0,0
971,-936,0,0
1525,-327,0,0
213,-1181,1,0
1138,-1723,1,0
912,-1677,0,0
138,-521,1,0
325,-963,1,0
303,-573,0,0
1214,-50,1,0
1808,-726,1,0
1100,-1336,1,0
845,-176,1,0
1903,-343,0,0
966,-536,1,0
932,-1532,1,0
1446,-1213,1,0
1158,-1151,0,0
1874,-1342,1,0
552,-1315,1,0
1127,-239,1,0
777,-1900,1,0
1019,-1274,1,0
1350,-915,0,0
424,-1289,0,0
1135,-1997,0,0
367,-1243,1,0
201,-1851,0,0
630,-1099,0,0
1639,-725,1,0
1468,-3,0,0
1140,-27,1,0
398,-1413,0,0
770,-734,1,0
296,-473,0,0
675,-735,0,0
105,-1477,0,0
1006,-1211,0,0
1676,-936,1,0
213,-773,1,0
645,-1116,0,0
1465,-448,1,0
1445,-1254,0,0
1105,-431,0,0
725,-177,1,0
859,-1500,1,0
539,-728,1,0
874,-1213,1,0
513,-1196,0,0
1837,-1364,1,0
921,-1433,1,0
1667,-1087,0,0
927,-795,0,0
1375,-772,0,0
889,-776,0,0
602,-1799,0,0
462,-1060,1,0
1257,-618,0,0
1165,-1373,0,0
853,-684,1,0
1411,-216,0,0
1438,-1769,0,0
385,-983,0,0
249,-17,0,0
1233,-1026,1,0
1488,-1585,1,0
1884,-407,0,0
574,-450,1,0
1318,-1636,1,0
1141,-1794,1,0
1363,-1282,1,0
1851,-914,0,0
1042,-1660,1,0
1246,-1769,1,0
1818,-362,0,0
881,-1937,0,0
625,-1932,0,0
709,-1565,1,0
1106,-1393,0,0
1540,-615,1,0
1862,-1273,1,0
1465,-528,0,0
147,-1232,1,0
171,-1610,0,0
641,-906,1,0
1748,-801,1,0
1934,-1828,0,0
1180,-1501,1,0
1785,-1494,0,0
1490,-1672,1,0
1787,-29,1,0
1959,-1522,1,0
1324,-315,1,0
1301,-532,0,0
1181,-456,1,0
654,-1416,1,0
1814,-133,1,0
1249,-972,1,0
883,-1653,0,0
108,-1804,0,0
1829,-763,0,0
295,-1072,1,0
590,-1305,0,0
972,-1184,0,0
1210,-1316,0,0
774,-1110,1,0
698,-454,0,0
737,-362,1,0
946,-777,1,0
401,-570,1,0
781,-239,0,0
257,-841,0,0
1588,-366,0,0
118,-758,0,0
814,-752,0,0
1396,-1631,0,0
1318,-3,1,0
1387,-581,1,0
1434,-128,1,0
1380,-846,1,0
368,-1893,1,0
840,-1843,0,0
166,-1805,1,0
1768,-1411,1,0
262,-619,0,0
422,-602,0,0
1676,-1485,0,0
399,-648,1,0
1432,-1599,0,0
1697,-1422,0,0
1309,-1355,0,0
1026,-78,0,0
1745,-1411,0,0
1203,-1998,1,0
1050,-226,0,0
1446,-1055,1,0
1283,-854,0,0
1982,-1425,0,0
944,-1353,1,0
855,-1540,0,0
1278,-572,1,0
1111,-1043,1,0
1021,-1954,1,0
1667,-1583,0,0
1880,-8,0,0
613,-446,1,0
569,-1597,0,0
1351,-1117,1,0
850,-503,0,0
1368,-1990,0,0
226,-1709,0,0
159,-515,1,0
1871,-70,0,0
864,-1883,0,0
1409,-1037,0,0
1961,-1082,0,0
661,-1872,1,0
1433,-567,1,0
1241,-648,1,0
160,-1212,1,0
1217,-201,0,0
1768,-544,0,0
754,-685,1,0
905,-300,1,0
1681,-769,1,0
852,-326,0,0
1977,-791,1,0
1591,-1747,1,0
1247,-332,1,0
862,-1465,1,0
1931,-400,1,0
24,-935,0,0
1937,-592,0,0
1009,-602,1,0
272,-811,1,0

near cbsd peopel number
54
65
57
53
63
57
61
57
72
66
60
62
64
62
60
53
65
61
55
58
62
57
62
65
56
67
48
72
63
64
