each times' max average throughput
473.075012,475.236816,475.179535,475.793701,473.830536,476.291473,477.207397,474.208740,474.796783,474.666626,474.302765,475.006134,472.933167,476.079895,474.572174,474.087921,471.884491,477.684692,471.378326,474.765411,475.589630,471.318970,475.354797,473.932343,477.121552,474.759155,473.628754,476.706940,472.967072,476.871765,471.767670,474.727295,472.131561,474.150360,474.759064,472.259277,474.633179,476.030884,473.834534,474.646210,472.680206,473.803589,476.080109,473.654633,473.422913,473.911255,474.433746,472.188904,471.821045,475.877289,474.561310,475.737671,473.905060,474.107544,472.529785,475.711029,475.579224,474.659576,470.977539,472.089386,474.679474,474.630951,476.661041,473.843597,474.898376,475.420013,472.996887,475.523956,473.577850,471.181915,476.078644,476.539886,474.288696,473.177856,475.676361,475.177612,473.550110,475.009369,473.788116,473.558685,473.346161,470.815521,471.670715,475.508698,472.203552,473.763397,471.941620,474.307037,474.953552,472.661499,474.756317,475.485321,475.648346,476.212341,472.784271,472.045990,474.330261,473.792877,477.569519,475.062561,
avg. throughput in all test times
474.270264
avg. BS TX power in all test times
MBS area 1,MBS area 2,MBS area 3,MBS area 4,CBSD 1,CBSD 2,CBSD 3,CBSD 4,CBSD 5,CBSD 6,CBSD 7,CBSD 8,CBSD 9,CBSD 10,CBSD 11,CBSD 12,CBSD 13,CBSD 14,CBSD 15,CBSD 16,CBSD 17,CBSD 18,CBSD 19,CBSD 20,CBSD 21,CBSD 22,CBSD 23,CBSD 24,
9.525,9.538,9.337,9.188,0.121,0.095,0.070,0.157,0.174,0.142,0.104,0.146,0.170,0.108,0.139,0.155,0.239,0.151,0.179,0.127,0.094,0.174,0.192,0.129,0.199,0.231,0.086,0.195,
avg. mbs all power,avg. cbsd enable number,avg. mbs area all power,avg. cbsd all power
74.113,4.000,37.588,3.578
avg. max avg. throughput generation number in all test times
77.519997
avg. number of relay UE
512

the max average throughput times

BS TX power
MBS area 1,MBS area 2,MBS area 3,MBS area 4,CBSD 1,CBSD 2,CBSD 3,CBSD 4,CBSD 5,CBSD 6,CBSD 7,CBSD 8,CBSD 9,CBSD 10,CBSD 11,CBSD 12,CBSD 13,CBSD 14,CBSD 15,CBSD 16,CBSD 17,CBSD 18,CBSD 19,CBSD 20,CBSD 21,CBSD 22,CBSD 23,CBSD 24,
10.000,8.750,8.750,10.000,0.000,0.000,0.000,0.000,0.875,0.875,0.000,0.000,0.000,0.000,0.000,0.750,0.500,0.000,0.500,0.000,0.000,0.000,0.000,0.000,0.000,0.000,0.000,0.000,
max average throughput
475.062561

x,y,area,be blocked (1 : NLOS / 0 : LOS),be blocked number (>=1 : CBSD(x) / 0 : no),connect bs number (>=1 : CBSD / 0 : MBS),throughput (unit : M bps)
687,1568,1,1,0,6,51.557358
-1514,145,2,1,0,5,91.887665
-1543,-889,3,1,0,12,84.006905
1149,-446,4,0,0,0,826.437012
1164,1981,1,0,0,0,647.883362
-1672,33,2,1,0,12,84.006905
-100,-867,3,1,0,6,51.557358
1068,-824,4,0,0,0,800.491028
1198,936,1,1,0,6,51.557358
-952,1987,2,0,0,0,640.803650
-286,-1130,3,1,0,12,84.006905
1580,-1765,4,0,0,0,639.177002
1914,606,1,1,0,6,51.557358
-1498,348,2,0,0,0,743.670593
-480,-617,3,1,0,12,84.006905
1984,-392,4,0,0,0,684.345032
948,1984,1,0,0,0,660.430481
-516,1140,2,0,0,0,802.884155
-998,-1701,3,0,0,0,672.441895
1811,-241,4,1,0,6,51.557358
1402,1423,1,1,0,6,51.557358
-1311,733,2,1,0,5,91.887665
-1206,-1130,3,1,0,12,84.006905
1786,-1836,4,1,0,15,74.431229
1036,1022,1,1,0,6,51.557358
-1923,890,2,0,0,0,651.934937
-671,-1046,3,0,0,0,804.871155
205,-356,4,0,0,0,1143.037231
1134,488,1,1,0,6,51.557358
-1807,1747,2,1,0,5,91.887665
-1273,-1670,3,1,0,12,84.006905
391,-1502,4,0,0,0,760.198486
409,718,1,1,0,6,51.557358
-137,1021,2,0,0,0,858.830200
-956,-168,3,0,0,0,875.954834
1934,-1556,4,1,0,15,76.045380
971,1034,1,1,0,6,51.557358
-1672,1686,2,1,0,5,91.887665
-181,-898,3,1,0,6,51.557358
150,-1763,4,0,0,0,722.610168
154,88,1,1,0,0,516.118469
-529,42,2,1,0,5,91.887665
-1985,-1644,3,0,0,0,596.176941
517,-268,4,1,0,6,51.557358
332,1437,1,1,0,13,171.118195
-36,408,2,1,0,0,179.559357
-1409,-1579,3,0,0,0,652.300964
1107,-854,4,1,0,15,159.925934
1829,839,1,0,0,0,685.777405
-602,1817,2,1,0,5,91.887665
-1976,-27,3,1,0,12,84.006905
493,-95,4,0,0,0,1085.176636
1069,897,1,0,0,0,790.739990
-1756,827,2,1,0,5,91.887665
-1790,-81,3,0,0,0,699.871460
1310,-133,4,1,0,6,51.557358
1800,163,1,1,0,6,51.557358
-206,249,2,1,0,0,259.259613
-265,-1252,3,0,0,0,796.435059
1962,-1894,4,1,0,15,66.291191
128,1409,1,0,0,0,786.789307
-458,866,2,1,0,5,91.887665
-8,-1434,3,0,0,0,763.738953
1767,-190,4,1,0,6,51.557358
1635,220,1,0,0,0,742.684387
-175,488,2,0,0,0,1056.677368
-108,-1923,3,0,0,0,679.207581
1343,-1045,4,1,0,15,136.748871
1954,475,1,0,0,0,685.968872
-323,228,2,0,0,0,1134.830322
-936,-780,3,1,0,12,84.006905
693,-197,4,0,0,0,981.054443
128,43,1,1,0,0,631.892639
-1229,1324,2,1,0,5,91.887665
-876,-889,3,0,0,0,803.635010
863,-1651,4,0,0,0,707.844482
1223,469,1,1,0,6,51.557358
-303,302,2,0,0,0,1112.088867
-1253,-671,3,1,0,12,84.006905
583,-1586,4,0,0,0,735.809082
893,311,1,0,0,0,902.705078
-629,1936,2,1,0,5,91.887665
-1016,-331,3,1,0,12,84.006905
997,-1599,4,0,0,0,704.571594
1688,1763,1,1,0,6,51.557358
-1173,529,2,0,0,0,794.860962
-1259,-948,3,0,0,0,736.648926
1883,-1657,4,1,0,15,75.889610
1984,1698,1,0,0,0,611.422302
-1116,749,2,0,0,0,782.347900
-287,-1012,3,0,0,0,852.815308
1485,-332,4,1,0,6,51.557358
1383,1246,1,1,0,6,51.557358
-945,1941,2,1,0,5,91.887665
-492,-1025,3,0,0,0,830.445496
1874,-267,4,1,0,6,51.557358
1732,661,1,0,0,0,709.247253
-623,1304,2,1,0,5,91.887665
-1733,-458,3,1,0,12,84.006905
672,-960,4,0,0,0,840.962891
1300,799,1,1,0,6,51.557358
-130,1443,2,1,0,13,241.633377
-1762,-1062,3,1,0,12,84.006905
1199,-91,4,1,0,6,51.557358
1564,1286,1,1,0,6,51.557358
-1841,307,2,1,0,5,91.887665
-134,-1085,3,0,0,0,841.725769
1141,-698,4,0,0,0,802.921509
1447,1806,1,0,0,0,645.839600
-8,783,2,0,0,0,937.810974
-8,-1830,3,0,0,0,693.835632
638,-865,4,0,0,0,865.825195
499,1534,1,1,0,13,145.098465
-726,1355,2,1,0,5,91.887665
-479,-397,3,0,0,0,1004.103638
1387,-263,4,0,0,0,787.416931
1379,1693,1,1,0,6,51.557358
-411,1591,2,0,0,0,724.672363
-1993,-72,3,0,0,0,669.251160
1293,-783,4,0,0,0,767.781311
1312,740,1,1,0,6,51.557358
-108,352,2,0,0,0,1155.364990
-1577,-386,3,0,0,0,728.125427
1221,-488,4,0,0,0,807.832703
831,1176,1,1,0,6,51.557358
-615,1448,2,0,0,0,737.161072
-1879,-603,3,1,0,12,84.006905
1923,-472,4,0,0,0,690.388611
1225,1361,1,1,0,6,51.557358
-977,419,2,0,0,0,849.781799
-187,-149,3,0,0,0,1279.906006
1494,-351,4,0,0,0,763.431091
1012,709,1,1,0,6,51.557358
-987,1651,2,1,0,5,91.887665
-1796,-1849,3,1,0,12,84.006905
1464,-409,4,0,0,0,766.179321
246,1120,1,0,0,0,847.200317
-533,1959,2,0,0,0,664.151855
-60,-584,3,1,0,6,51.557358
139,-638,4,1,0,6,51.557358
82,555,1,0,0,0,1053.160645
-1448,1493,2,0,0,0,657.254700
-1804,-1327,3,1,0,12,84.006905
276,-437,4,1,0,0,126.642944
430,1287,1,0,0,0,798.789795
-724,1254,2,1,0,5,91.887665
-594,-6,3,0,0,0,1017.429260
1405,-487,4,0,0,0,772.491333
492,1995,1,0,0,0,679.797058
-241,776,2,0,0,0,927.149536
-1599,-70,3,1,0,12,84.006905
89,-762,4,1,0,6,51.557358
1612,1017,1,1,0,6,51.557358
-789,172,2,0,0,0,928.939026
-1063,-533,3,1,0,12,84.006905
182,-272,4,1,0,0,270.860840
920,642,1,0,0,0,853.502014
-891,1862,2,0,0,0,659.410339
-1905,-1279,3,0,0,0,629.238586
712,-738,4,1,0,15,138.116425
1852,540,1,0,0,0,697.850342
-1306,1937,2,0,0,0,624.119019
-376,-767,3,1,0,12,84.006905
20,-280,4,0,0,0,1252.880981
1820,390,1,0,0,0,708.095276
-1100,659,2,0,0,0,795.861267
-1607,-142,3,0,0,0,729.948669
758,-677,4,1,0,15,133.253433
1898,1124,1,1,0,6,51.557358
-427,1878,2,0,0,0,679.222107
-214,-1783,3,0,0,0,699.238770
591,-1864,4,1,0,15,91.817955
1993,1939,1,1,0,6,51.557358
-361,1396,2,1,0,13,243.108414
-1880,-1831,3,0,0,0,591.057739
1893,-1079,4,1,0,6,51.557358
564,1015,1,1,0,6,51.557358
-1578,1886,2,0,0,0,609.527832
-1258,-1116,3,0,0,0,718.044678
287,-1927,4,0,0,0,695.025208
1944,733,1,0,0,0,676.638184
-469,923,2,0,0,0,857.389343
-10,-959,3,1,0,6,51.557358
1529,-1627,4,1,0,15,94.966049
1471,1632,1,0,0,0,660.657715
-1638,209,2,0,0,0,723.271484
-333,-24,3,0,0,0,1183.599121
1476,-601,4,0,0,0,752.605103
197,1185,1,1,0,13,209.124588
-173,408,2,0,0,0,1101.913818
-1234,-393,3,0,0,0,793.012817
874,-1510,4,0,0,0,726.634766
297,722,1,1,0,6,51.557358
-2000,1381,2,1,0,5,91.887665
-151,-1975,3,0,0,0,671.197266
1994,-1147,4,1,0,6,51.557358
174,1724,1,0,0,0,728.603638
-54,1395,2,0,0,0,771.445557
-1251,-1770,3,0,0,0,645.478577
1590,-1558,4,1,0,15,94.685287
460,1609,1,0,0,0,738.588196
-1854,983,2,1,0,5,91.887665
-593,-519,3,1,0,12,84.006905
324,-910,4,1,0,15,110.609581
1654,1998,1,0,0,0,613.348267
-1951,353,2,0,0,0,670.921387
-166,-558,3,0,0,0,1023.244385
1245,-640,4,1,0,6,51.557358
824,1842,1,1,0,6,51.557358
-473,1005,2,0,0,0,837.156616
-1003,-1414,3,1,0,12,84.006905
1392,-833,4,1,0,15,122.049118
282,1794,1,0,0,0,715.151367
-548,1091,2,1,0,5,91.887665
-744,-1420,3,0,0,0,731.759949
1217,-550,4,1,0,6,51.557358
940,1903,1,1,0,6,51.557358
-357,972,2,0,0,0,857.343323
-665,-1162,3,0,0,0,783.464417
189,-1496,4,0,0,0,768.486755
544,335,1,0,0,0,1015.695679
-807,61,2,1,0,5,91.887665
-512,-495,3,0,0,0,965.151672
1220,-304,4,1,0,6,51.557358
1216,1931,1,0,0,0,649.838196
-1461,1269,2,1,0,5,91.887665
-716,-1579,3,0,0,0,709.306885
1563,-244,4,0,0,0,754.726379
1238,1777,1,1,0,6,51.557358
-567,4,2,0,0,0,1030.848389
-1193,-761,3,1,0,12,84.006905
713,-160,4,0,0,0,976.973083
655,1526,1,1,0,6,51.557358
-1214,72,2,1,0,12,84.006905
-940,-1844,3,0,0,0,658.641357
1709,-1850,4,0,0,0,621.722168
1004,7,1,0,0,0,885.443542
-226,12,2,1,0,0,396.812347
-71,-1648,3,1,0,15,73.977303
35,-410,4,1,0,0,192.052109
1864,1875,1,1,0,6,51.557358
-1520,1864,2,1,0,5,91.887665
-130,-969,3,1,0,6,51.557358
1992,-1596,4,1,0,15,72.483055
853,852,1,1,0,6,51.557358
-247,687,2,0,0,0,957.999756
-12,-1454,3,1,0,15,81.499878
1481,-928,4,0,0,0,726.138000
356,553,1,1,0,6,51.557358
-529,211,2,0,0,0,1029.572998
-280,-140,3,1,0,0,270.833160
1447,-1918,4,0,0,0,635.147827
18,1516,1,0,0,0,766.926575
-459,289,2,1,0,5,91.887665
-1943,-701,3,0,0,0,659.218689
998,-1190,4,1,0,15,210.450226
1590,368,1,1,0,6,51.557358
-814,439,2,0,0,0,889.875427
-565,-404,3,0,0,0,972.354370
344,-1775,4,1,0,15,88.037376
456,62,1,1,0,6,51.557358
-1815,1119,2,1,0,5,91.887665
-534,-507,3,0,0,0,955.526855
1739,-997,4,1,0,6,51.557358
1194,1576,1,1,0,6,51.557358
-866,1701,2,0,0,0,681.783630
-1500,-1959,3,0,0,0,608.576416
655,-1358,4,1,0,15,140.414673
1568,461,1,1,0,6,51.557358
-223,699,2,0,0,0,956.560059
-1089,-93,3,0,0,0,841.799316
325,-939,4,1,0,15,111.422295
1770,624,1,1,0,6,51.557358
-1075,1651,2,1,0,5,91.887665
-540,-1690,3,0,0,0,702.706665
1125,-862,4,0,0,0,786.287415
1354,341,1,0,0,0,790.575684
-328,607,2,1,0,5,91.887665
-291,-1620,3,1,0,12,84.006905
1242,-1475,4,0,0,0,697.978027
878,608,1,1,0,6,51.557358
-526,145,2,1,0,5,91.887665
-659,-245,3,1,0,12,84.006905
601,-669,4,1,0,15,121.741951
55,621,1,0,0,0,1022.750549
-1909,816,2,0,0,0,657.770813
-666,-1494,3,0,0,0,725.984619
1833,-142,4,1,0,6,51.557358
55,808,1,1,0,13,198.889999
-1379,468,2,0,0,0,759.323303
-602,-555,3,1,0,12,84.006905
166,-546,4,1,0,6,51.557358
1067,602,1,1,0,6,51.557358
-139,553,2,0,0,0,1029.232178
-502,-827,3,0,0,0,876.909424
620,-950,4,1,0,15,149.951431
1104,1279,1,1,0,6,51.557358
-23,177,2,1,0,0,494.795715
-164,-277,3,0,0,0,1194.118286
1662,-153,4,1,0,6,51.557358
1301,1951,1,1,0,6,51.557358
-336,7,2,1,0,0,245.262482
-1198,-805,3,1,0,12,84.006905
546,-1495,4,0,0,0,752.980469
1200,1571,1,0,0,0,690.851807
-949,1324,2,0,0,0,727.168823
-597,-1937,3,0,0,0,664.616577
1389,-1864,4,0,0,0,644.557312
212,401,1,0,0,0,1114.461304
-775,658,2,1,0,5,91.887665
-1387,-389,3,1,0,12,84.006905
1695,-1474,4,0,0,0,654.339966
443,97,1,0,0,0,1114.522095
-200,1495,2,0,0,0,749.241211
-1139,-202,3,1,0,12,84.006905
212,-492,4,1,0,0,117.778404
1602,382,1,0,0,0,743.175232
-323,936,2,0,0,0,870.224854
-1090,-161,3,1,0,12,84.006905
1980,-867,4,0,0,0,665.324158
179,40,1,1,0,0,502.039246
-910,240,2,0,0,0,884.850281
-286,-569,3,1,0,5,91.887665
1027,-617,4,1,0,6,51.557358
1521,502,1,0,0,0,751.162292
-864,1877,2,1,0,5,91.887665
-452,-842,3,0,0,0,880.437927
604,-1510,4,0,0,0,746.785522
1398,1173,1,0,0,0,713.751953
-870,1556,2,0,0,0,701.333496
-958,-1661,3,0,0,0,680.481445
1503,-936,4,0,0,0,722.407227
185,1162,1,1,0,13,212.071548
-1590,740,2,1,0,5,91.887665
-478,-1869,3,0,0,0,678.743958
1008,-1387,4,1,0,15,153.705414
1188,1575,1,0,0,0,691.441406
-518,1274,2,1,0,5,91.887665
-370,-111,3,0,0,0,1141.526489
1380,-1257,4,1,0,15,127.065521
1754,647,1,1,0,6,51.557358
-1616,1274,2,1,0,5,91.887665
-212,-1233,3,0,0,0,802.941467
1612,-1046,4,0,0,0,698.964172
1972,798,1,1,0,6,51.557358
-398,1611,2,1,0,13,190.627274
-1790,-1862,3,0,0,0,595.575928
871,-1830,4,1,0,15,99.583435
760,645,1,1,0,6,51.557358
-995,722,2,0,0,0,807.980408
-1918,-1000,3,1,0,12,84.006905
1515,-1077,4,1,0,15,115.158974
1273,628,1,1,0,6,51.557358
-1588,1101,2,0,0,0,678.272278
-1223,-1504,3,0,0,0,677.363953
137,-1113,4,1,0,15,96.299484
457,1016,1,1,0,6,51.557358
-637,660,2,0,0,0,892.242493
-392,-1714,3,0,0,0,705.287720
914,-1406,4,1,0,15,151.812164
562,172,1,1,0,6,51.557358
-934,1145,2,0,0,0,755.140808
-1858,-1329,3,1,0,12,84.006905
1553,-382,4,0,0,0,751.594360
701,1362,1,1,0,6,51.557358
-509,1358,2,1,0,5,91.887665
-338,-1524,3,0,0,0,739.386292
1908,-566,4,0,0,0,688.932739
1940,1581,1,1,0,6,51.557358
-63,297,2,0,0,0,1211.001953
-1912,-1286,3,1,0,12,84.006905
1463,-1788,4,0,0,0,646.323730
810,718,1,0,0,0,863.801941
-1201,573,2,1,0,5,91.887665
-305,-962,3,1,0,12,84.006905
525,-364,4,0,0,0,1015.709900
381,1892,1,0,0,0,697.722839
-675,959,2,0,0,0,821.536987
-715,-812,3,1,0,12,84.006905
541,-1240,4,1,0,15,135.823776
667,1540,1,1,0,6,51.557358
-1490,560,2,1,0,5,91.887665
-1705,-145,3,0,0,0,713.065186
1198,-906,4,1,0,15,153.154007
1247,850,1,1,0,6,51.557358
-244,592,2,1,0,5,91.887665
-155,-1328,3,1,0,15,75.946808
212,-1454,4,1,0,15,95.087479
1231,289,1,0,0,0,819.078613
-1470,1661,2,0,0,0,638.897278
-1076,-617,3,1,0,12,84.006905
471,-359,4,1,0,6,51.557358
1655,18,1,0,0,0,741.753357
-1497,180,2,1,0,5,91.887665
-872,-133,3,1,0,12,84.006905
581,-636,4,0,0,0,929.559998
1190,73,1,0,0,0,835.996094
-1853,1969,2,1,0,5,91.887665
-723,-702,3,0,0,0,865.161560
856,-460,4,1,0,6,51.557358
1679,1094,1,0,0,0,686.957825
-1306,541,2,0,0,0,767.853455
-12,-1433,3,0,0,0,763.933655
1241,-660,4,1,0,6,51.557358
1016,1123,1,1,0,6,51.557358
-1490,632,2,0,0,0,729.020142
-370,-1153,3,0,0,0,812.325256
184,-619,4,0,0,0,1012.601868
473,841,1,0,0,0,896.891846
-1138,41,2,0,0,0,829.997314
-1402,-937,3,0,0,0,717.258911
1207,-1460,4,0,0,0,703.062012
843,50,1,0,0,0,935.283630
-515,634,2,0,0,0,925.647034
-169,-364,3,1,0,0,185.896713
1772,-65,4,1,0,6,51.557358
388,1265,1,0,0,0,806.033142
-1155,776,2,1,0,5,91.887665
-1615,-32,3,0,0,0,729.583496
597,-733,4,0,0,0,902.781250
1221,834,1,0,0,0,774.110779
-656,1384,2,1,0,5,91.887665
-145,-1125,3,0,0,0,831.119019
912,-1178,4,0,0,0,771.957581
694,693,1,0,0,0,892.194458
-705,1428,2,1,0,5,91.887665
-220,-756,3,0,0,0,936.226318
1402,-300,4,1,0,6,51.557358
226,1011,1,1,0,13,196.389313
-592,1237,2,0,0,0,776.568665
-625,-1054,3,1,0,12,84.006905
818,-1157,4,1,0,15,207.295502
824,340,1,1,0,6,51.557358
-1221,978,2,0,0,0,738.769592
-583,-1742,3,0,0,0,692.750732
702,-1260,4,1,0,15,159.175690
455,26,1,1,0,6,51.557358
-702,788,2,0,0,0,851.877563
-226,-1850,3,1,0,15,63.159794
1131,-1190,4,0,0,0,744.080566
1552,694,1,1,0,6,51.557358
-1957,1594,2,0,0,0,602.119568
-1048,-790,3,0,0,0,789.192383
8,-1748,4,1,0,15,74.610931
1827,1161,1,0,0,0,664.904114
-1934,684,2,1,0,5,91.887665
-1241,-1683,3,1,0,12,84.006905
1980,-1412,4,0,0,0,631.694702
14,1640,1,0,0,0,744.371887
-1088,1118,2,0,0,0,739.571960
-1346,-1837,3,0,0,0,631.381104
719,-1033,4,0,0,0,820.418518
1544,460,1,0,0,0,749.489258
-518,1323,2,1,0,5,91.887665
-1655,-291,3,0,0,0,718.263367
495,-677,4,1,0,6,51.557358
1282,83,1,1,0,6,51.557358
-1616,1449,2,1,0,5,91.887665
-1957,-1466,3,0,0,0,611.137268
654,-1455,4,1,0,15,129.437134
1521,1246,1,0,0,0,692.400818
-435,187,2,0,0,0,1082.823486
-1154,-1733,3,0,0,0,656.949768
806,-232,4,0,0,0,937.254211
412,1300,1,1,0,13,166.469452
-1992,640,2,1,0,5,91.887665
-803,-1652,3,1,0,12,84.006905
155,-985,4,0,0,0,887.430115
319,622,1,0,0,0,989.755859
-1119,31,2,0,0,0,834.916443
-790,-1164,3,1,0,12,84.006905
764,-1138,4,0,0,0,795.894836
568,1738,1,0,0,0,713.196838
-372,684,2,1,0,5,91.887665
-1439,-1463,3,0,0,0,661.090210
1404,-140,4,1,0,6,51.557358
988,70,1,0,0,0,889.355225
-1714,1408,2,1,0,5,91.887665
-1814,-1046,3,0,0,0,655.322083
650,-1551,4,0,0,0,737.180725
1852,1894,1,1,0,6,51.557358
-637,1461,2,0,0,0,733.423462
-1439,-1490,3,1,0,12,84.006905
644,-335,4,1,0,6,51.557358
303,1696,1,1,0,13,152.434006
-1343,317,2,0,0,0,774.784851
-1386,-1142,3,1,0,12,84.006905
1851,-1727,4,0,0,0,620.259033
1842,448,1,1,0,6,51.557358
-1205,1612,2,0,0,0,666.640808
-23,-360,3,1,0,0,220.720947
1972,-413,4,0,0,0,685.417847
1421,1679,1,1,0,6,51.557358
-1993,404,2,1,0,5,91.887665
-1382,-914,3,0,0,0,722.297485
1855,-265,4,0,0,0,706.175903
1297,1628,1,0,0,0,676.103577
-104,1238,2,0,0,0,804.954773
-537,-638,3,1,0,12,84.006905
654,-1129,4,0,0,0,810.063660
1971,112,1,0,0,0,691.242371
-901,754,2,0,0,0,821.013855
-1694,-1712,3,1,0,12,84.006905
1046,-473,4,0,0,0,846.880127
1795,1149,1,1,0,6,51.557358
-1901,338,2,0,0,0,678.498291
-1722,-1621,3,1,0,12,84.006905
494,-208,4,0,0,0,1066.316528
197,403,1,1,0,0,165.548965
-667,409,2,1,0,5,91.887665
-1514,-1996,3,1,0,12,84.006905
1350,-1073,4,1,0,15,135.907822
3,1313,1,0,0,0,808.249573
-1051,1514,2,0,0,0,691.806396
-1771,-1552,3,0,0,0,621.853943
1028,-1373,4,1,0,15,155.280487
185,744,1,0,0,0,963.142334
-211,969,2,1,0,13,273.589844
-55,-1720,3,0,0,0,711.441711
843,-227,4,1,0,6,51.557358
426,131,1,1,0,6,51.557358
-1794,606,2,0,0,0,684.065918
-384,-1491,3,1,0,12,84.006905
744,-144,4,0,0,0,966.487671
1477,893,1,1,0,6,51.557358
-217,1074,2,0,0,0,841.079102
-668,-1755,3,1,0,12,84.006905
436,-874,4,1,0,15,120.709007
181,299,1,1,0,0,247.135483
-1045,681,2,1,0,5,91.887665
-194,-1230,3,0,0,0,804.297241
1985,-171,4,0,0,0,688.620605
176,1181,1,1,0,13,214.287506
-1427,1639,2,1,0,5,91.887665
-1645,-117,3,0,0,0,723.640320
696,-1038,4,0,0,0,822.447083
1984,780,1,1,0,6,51.557358
-1917,529,2,0,0,0,670.061890
-895,-204,3,1,0,12,84.006905
344,-763,4,0,0,0,937.860535
1108,46,1,1,0,6,51.557358
-1532,1819,2,0,0,0,619.042358
-1589,-1528,3,1,0,12,84.006905
864,-1307,4,0,0,0,757.491638
1325,922,1,1,0,6,51.557358
-911,1491,2,0,0,0,707.080200
-1698,-1271,3,1,0,12,84.006905
652,-1919,4,1,0,15,89.741196
1568,73,1,0,0,0,756.954407
-773,544,2,0,0,0,883.593628
-341,-584,3,0,0,0,980.054993
1866,-1054,4,0,0,0,667.766907
758,409,1,0,0,0,929.601257
-344,90,2,0,0,0,1165.422974
-1544,-684,3,0,0,0,716.845337
1760,-667,4,0,0,0,704.907654
544,1256,1,1,0,6,51.557358
-1310,1219,2,0,0,0,700.255432
-137,-1168,3,0,0,0,820.735535
484,-1318,4,1,0,15,124.281166
1380,1909,1,1,0,6,51.557358
-1519,468,2,1,0,5,91.887665
-538,-836,3,1,0,12,84.006905
1734,-993,4,1,0,6,51.557358
34,1582,1,0,0,0,754.647705
-29,197,2,1,0,0,449.250397
-1037,-1505,3,0,0,0,694.202148
1910,-292,4,0,0,0,697.394958
198,1203,1,1,0,13,208.630722
-982,1005,2,0,0,0,769.585632
-630,-1657,3,0,0,0,702.941040
332,-722,4,0,0,0,952.798706
1312,597,1,1,0,6,51.557358
-1068,1340,2,0,0,0,712.665894
-399,-1650,3,0,0,0,715.350708
1608,-453,4,0,0,0,739.080933
1816,711,1,0,0,0,694.736084
-1549,819,2,1,0,5,91.887665
-340,-1590,3,0,0,0,727.703430
486,-576,4,0,0,0,968.077087
1398,1063,1,1,0,6,51.557358
-388,9,2,0,0,0,1140.175903
-790,-936,3,1,0,12,84.006905
1003,-1395,4,1,0,15,152.403946
618,1322,1,0,0,0,777.890137
-637,1433,2,0,0,0,738.071960
-862,-1318,3,0,0,0,736.857788
1152,-1516,4,0,0,0,701.597046
138,726,1,1,0,13,177.157547
-1111,84,2,0,0,0,836.270752
-294,-1680,3,0,0,0,714.008118
1725,-465,4,0,0,0,719.836792
1332,275,1,1,0,6,51.557358
-957,1452,2,0,0,0,708.439941
-1176,-705,3,1,0,12,84.006905
893,-1659,4,0,0,0,704.615112
1450,1138,1,0,0,0,710.890198
-1344,922,2,0,0,0,727.015259
-712,-1414,3,0,0,0,735.352661
1562,-820,4,1,0,6,51.557358
1051,1362,1,1,0,6,51.557358
-1331,870,2,1,0,5,91.887665
-1482,-882,3,0,0,0,710.822998
1726,-785,4,1,0,6,51.557358
723,1517,1,0,0,0,737.388062
-427,1890,2,0,0,0,677.489990
-339,-1891,3,1,0,12,84.006905
1648,-118,4,1,0,6,51.557358
978,1507,1,1,0,6,51.557358
-714,1065,2,0,0,0,795.884033
-1417,-747,3,0,0,0,731.985352
288,-1897,4,0,0,0,699.395203
603,1263,1,1,0,6,51.557358
-124,659,2,0,0,0,982.495422
-1113,-589,3,1,0,12,84.006905
1415,-226,4,1,0,6,51.557358
1071,664,1,1,0,6,51.557358
-677,1327,2,0,0,0,752.802002
-59,-1790,3,1,0,15,70.700424
310,-1867,4,0,0,0,703.328125
556,459,1,0,0,0,980.843811
-387,1322,2,0,0,0,775.289856
-530,-237,3,0,0,0,1024.033691
817,-270,4,1,0,6,51.557358
96,647,1,0,0,0,1008.913574
-247,831,2,0,0,0,908.493958
-809,-1810,3,1,0,12,84.006905
852,-1388,4,1,0,15,153.512421
1433,143,1,0,0,0,781.694336
-1784,1238,2,1,0,5,91.887665
-268,-414,3,1,0,0,127.251472
1453,-921,4,0,0,0,730.671692
1915,1105,1,1,0,6,51.557358
-1613,1250,2,1,0,5,91.887665
-557,-838,3,1,0,12,84.006905
1726,-388,4,1,0,6,51.557358
1127,567,1,0,0,0,819.733276
-1961,1397,2,0,0,0,615.530334
-1875,-799,3,0,0,0,663.038696
1927,-724,4,1,0,6,51.557358
1638,222,1,0,0,0,742.121460
-221,1333,2,1,0,13,292.873810
-865,-386,3,1,0,12,84.006905
1086,-1980,4,0,0,0,652.818176
1749,932,1,0,0,0,690.136536
-841,861,2,0,0,0,814.071838
-234,-1998,3,1,0,15,59.519463
868,-940,4,1,0,15,199.738464
349,735,1,1,0,6,51.557358
-184,1553,2,1,0,13,212.501801
-1782,-1912,3,1,0,12,84.006905
29,-651,4,0,0,0,1009.989990
1401,530,1,1,0,6,51.557358
-127,578,2,1,0,5,91.887665
-679,-1870,3,1,0,12,84.006905
1532,-1851,4,0,0,0,635.130798
54,50,1,1,0,0,893.058411
-757,1370,2,1,0,5,91.887665
-364,-1069,3,1,0,12,84.006905
1518,-538,4,0,0,0,749.587036
1515,1897,1,1,0,6,51.557358
-246,729,2,1,0,13,198.763260
-1654,-854,3,1,0,12,84.006905
107,-1637,4,0,0,0,744.296021
1399,1453,1,0,0,0,685.098999
-1454,1949,2,1,0,5,91.887665
-733,-1921,3,0,0,0,660.533813
1730,-123,4,0,0,0,728.337708
1304,371,1,0,0,0,799.040710
-1268,567,2,0,0,0,772.898987
-1068,-576,3,0,0,0,811.729553
1858,-1531,4,0,0,0,634.566589
831,576,1,0,0,0,883.419678
-728,711,2,0,0,0,862.358704
-256,-455,3,0,0,0,1054.657471
1914,-1285,4,1,0,6,51.557358
291,732,1,0,0,0,955.330994
-409,1912,2,0,0,0,674.902100
-947,-1660,3,1,0,12,84.006905
1024,-1330,4,0,0,0,737.720581
828,202,1,0,0,0,932.634216
-1889,1932,2,1,0,5,91.887665
-1907,-281,3,1,0,12,84.006905
400,-790,4,1,0,15,113.153969
433,106,1,0,0,0,1119.467407
-1204,1495,2,1,0,5,91.887665
-348,-1766,3,0,0,0,698.575745
1490,-1874,4,0,0,0,636.152222
1330,267,1,0,0,0,798.874084
-201,39,2,1,0,0,437.749695
-1640,-1796,3,0,0,0,612.662537
712,-1983,4,0,0,0,672.628418
168,1070,1,1,0,13,212.993515
-86,1575,2,0,0,0,736.404602
-1876,-1492,3,0,0,0,616.804810
1928,-1459,4,0,0,0,633.349060
62,424,1,1,0,0,179.357147
-1102,712,2,0,0,0,789.280457
-1686,-184,3,0,0,0,715.611877
574,-1737,4,1,0,15,99.998817
301,409,1,0,0,0,1081.892090
-20,180,2,0,0,0,1360.053467
-1650,-287,3,1,0,12,84.006905
679,-852,4,1,0,15,149.401810
115,945,1,0,0,0,900.772766
-394,529,2,1,0,5,91.887665
-678,-1868,3,1,0,12,84.006905
320,-1724,4,1,0,15,89.523453
1572,392,1,1,0,6,51.557358
-466,436,2,1,0,5,91.887665
-950,-1811,3,0,0,0,662.072571
63,-941,4,0,0,0,903.467224
1484,1843,1,0,0,0,639.500549
-944,1730,2,0,0,0,672.639221
-847,-1748,3,1,0,12,84.006905
870,-1824,4,0,0,0,684.556580
1360,837,1,0,0,0,752.019043
-565,503,2,0,0,0,947.760864
-1741,-1962,3,1,0,12,84.006905
1421,-1701,4,0,0,0,658.155029
1631,1031,1,0,0,0,697.788208
-1120,1677,2,0,0,0,666.072205
-862,-1351,3,0,0,0,731.854370
1384,-1949,4,0,0,0,636.598877
1829,1187,1,0,0,0,662.835693
-965,488,2,1,0,5,91.887665
-55,-1743,3,1,0,15,72.156708
1678,-1017,4,0,0,0,692.993530
549,1766,1,0,0,0,709.940125
-1205,1714,2,0,0,0,655.156128
-313,-901,3,1,0,12,84.006905
1943,-432,4,1,0,6,51.557358
114,1751,1,1,0,13,161.436768
-1914,106,2,0,0,0,680.561340
-393,-1770,3,0,0,0,696.492920
978,-1762,4,0,0,0,685.355286
1115,270,1,1,0,6,51.557358
-127,397,2,0,0,0,1119.588989
-786,-1141,3,0,0,0,773.617920
579,-1544,4,0,0,0,742.813660
1811,994,1,0,0,0,678.258972
-61,297,2,1,0,0,282.637085
-1446,-34,3,1,0,12,84.006905
846,-1189,4,0,0,0,777.901489
1310,1932,1,0,0,0,643.377380
-210,552,2,1,0,5,91.887665
-793,-1196,3,0,0,0,763.540527
309,-945,4,1,0,15,110.009659
1836,1763,1,0,0,0,618.705627
-1809,1042,2,1,0,5,91.887665
-1583,-860,3,0,0,0,698.327026
1896,-1669,4,1,0,15,74.980881
443,857,1,1,0,6,51.557358
-1344,300,2,1,0,5,91.887665
-547,-1742,3,0,0,0,694.486206
1820,-1850,4,0,0,0,613.196899
1579,809,1,1,0,6,51.557358
-1851,1765,2,0,0,0,598.363708
-1310,-1014,3,1,0,12,84.006905
1707,-1060,4,1,0,15,97.581131
1748,542,1,0,0,0,712.939880
-655,597,2,0,0,0,902.147583
-968,-583,3,0,0,0,832.211487
1052,-76,4,0,0,0,871.256714
57,925,1,0,0,0,908.504333
-1499,389,2,0,0,0,741.670227
-1637,-1749,3,1,0,12,84.006905
1928,-94,4,0,0,0,697.676819
1526,270,1,1,0,6,51.557358
-406,969,2,0,0,0,853.168884
-1631,-1410,3,0,0,0,646.993530
1790,-1565,4,1,0,15,83.066154
40,0,1,0,0,0,1815.062012
-746,311,2,0,0,0,928.689270
-1291,-1213,3,1,0,12,84.006905
208,-1333,4,0,0,0,800.447388
134,1523,1,1,0,13,190.130798
-7,1886,2,0,0,0,685.212341
-295,-1597,3,0,0,0,728.043335
837,-1065,4,0,0,0,799.295959
1634,1331,1,1,0,6,51.557358
-1253,1859,2,1,0,5,91.887665
-803,-1490,3,0,0,0,716.187988
910,-1692,4,0,0,0,699.029846
770,1742,1,0,0,0,701.514099
-229,1436,2,1,0,13,246.558090
-1344,-30,3,1,0,12,84.006905
271,-1071,4,0,0,0,857.922974
519,627,1,0,0,0,945.898376
-38,861,2,0,0,0,910.190979
-1446,-173,3,1,0,12,84.006905
397,-1567,4,1,0,15,102.116776
1485,593,1,0,0,0,751.642517
-1193,1055,2,0,0,0,733.650391
-1097,-935,3,1,0,12,84.006905
1355,-32,4,0,0,0,799.119446
370,1553,1,1,0,13,157.811295
-858,454,2,1,0,5,91.887665
-656,-357,3,0,0,0,951.445374
746,-1609,4,0,0,0,721.937500
1666,1871,1,1,0,6,51.557358
-668,1802,2,1,0,5,91.887665
-697,-1217,3,0,0,0,770.128662
669,-1804,4,1,0,15,98.187798
772,635,1,1,0,6,51.557358
-1764,1630,2,0,0,0,616.232544
-145,-1378,3,0,0,0,773.600464
445,-1868,4,0,0,0,699.166138
539,1297,1,1,0,6,51.557358
-1866,833,2,0,0,0,662.290283
-1902,-1863,3,0,0,0,586.969360
774,-360,4,0,0,0,932.181030
70,1428,1,1,0,13,214.971603
-1139,1236,2,1,0,5,91.887665
-1113,-1624,3,1,0,12,84.006905
939,-291,4,0,0,0,891.519897
1735,1389,1,0,0,0,657.375122
-925,1675,2,0,0,0,681.083069
-1312,-291,3,1,0,12,84.006905
862,-383,4,1,0,6,51.557358
472,9,1,1,0,6,51.557358
-138,928,2,1,0,13,253.077301
-1732,-1247,3,0,0,0,649.890076
1122,-437,4,1,0,6,51.557358
439,1810,1,1,0,13,132.525146
-1775,871,2,0,0,0,671.713867
-1546,-275,3,1,0,12,84.006905
1851,-451,4,1,0,6,51.557358
1722,7,1,0,0,0,730.386841
-442,1719,2,1,0,13,170.379288
-689,-944,3,0,0,0,822.528137
1724,-1498,4,1,0,15,88.826012
71,1530,1,1,0,13,197.243607
-233,767,2,1,0,13,207.459656
-1427,-1236,3,1,0,12,84.006905
1520,-433,4,0,0,0,754.991272
1858,440,1,0,0,0,700.793579
-379,390,2,1,0,5,91.887665
-634,-146,3,0,0,0,991.210144
1803,-1914,4,1,0,15,71.184898
1841,727,1,0,0,0,690.494690
-1094,537,2,0,0,0,810.484863
-1309,-1240,3,1,0,12,84.006905
1618,-1239,4,0,0,0,682.154663
638,1278,1,0,0,0,784.041260
-121,309,2,0,0,0,1185.347412
-1192,-51,3,0,0,0,816.588501
226,-1977,4,1,0,15,74.522408
1874,1424,1,0,0,0,641.017273
-37,666,2,0,0,0,984.020020
-1113,-1110,3,1,0,12,84.006905
1423,-345,4,0,0,0,776.925903
1632,1880,1,0,0,0,625.022156
-1468,1717,2,0,0,0,633.684204
-549,-1364,3,1,0,12,84.006905
1376,-1116,4,1,0,15,131.936447
149,1739,1,0,0,0,726.524475
-8,390,2,0,0,0,1138.710083
-145,-172,3,1,0,0,399.245056
1153,-786,4,0,0,0,790.752075
168,1977,1,0,0,0,689.804504
-343,450,2,1,0,5,91.887665
-715,-1315,3,1,0,12,84.006905
7,-948,4,1,0,6,51.557358
1685,1822,1,0,0,0,625.919067
-339,1539,2,1,0,13,209.833725
-602,-1120,3,0,0,0,798.282898
1877,-1681,4,1,0,15,75.492142
135,937,1,0,0,0,902.379517
-1671,1991,2,0,0,0,593.775269
-1160,-1031,3,0,0,0,741.059204
1975,-1933,4,0,0,0,595.334839
1931,689,1,1,0,6,51.557358
-1081,1743,2,0,0,0,661.242188
-1788,-1186,3,1,0,12,84.006905
1392,-1641,4,1,0,15,101.711174
1671,474,1,1,0,6,51.557358
-1785,216,2,0,0,0,698.884277
-999,-1545,3,1,0,12,84.006905
385,-950,4,0,0,0,879.477051
890,1560,1,0,0,0,718.325317
-1605,453,2,1,0,5,91.887665
-1872,-1104,3,0,0,0,644.712402
78,-652,4,1,0,6,51.557358
1906,1173,1,1,0,6,51.557358
-427,768,2,0,0,0,904.603271
-169,-389,3,0,0,0,1114.577393
776,-1717,4,0,0,0,704.593750
1888,180,1,1,0,6,51.557358
-268,310,2,1,0,0,179.408905
-347,-1620,3,0,0,0,722.324158
759,-999,4,0,0,0,821.326355
1077,1190,1,0,0,0,750.571533
-252,185,2,0,0,0,1202.567505
-492,-1043,3,0,0,0,826.362976
1381,-1075,4,0,0,0,725.751953
1507,631,1,1,0,6,51.557358
-940,1216,2,0,0,0,743.843445
-1027,-862,3,1,0,12,84.006905
1274,-1799,4,1,0,15,96.040230
1049,778,1,0,0,0,809.782837
-340,1232,2,1,0,13,299.607697
-887,-691,3,0,0,0,833.644775
1500,-841,4,0,0,0,730.776672
1314,1402,1,1,0,6,51.557358
-10,988,2,0,0,0,870.839966
-1724,-36,3,0,0,0,710.860291
577,-271,4,0,0,0,1016.329773
1649,1359,1,0,0,0,668.602600
-1639,1343,2,0,0,0,651.936707
-310,-315,3,0,0,0,1102.700195
1902,-803,4,0,0,0,678.438049
1361,1225,1,1,0,6,51.557358
-704,1941,2,0,0,0,659.337585
-635,-80,3,0,0,0,995.933289
1118,-1140,4,1,0,15,183.651688
445,1630,1,1,0,13,144.618195
-688,1247,2,0,0,0,765.711487
-1449,-935,3,0,0,0,710.843140
1489,-116,4,1,0,6,51.557358
110,366,1,1,0,0,216.257477
-765,541,2,0,0,0,886.122620
-1623,-1191,3,1,0,12,84.006905
1248,-1461,4,1,0,15,125.439018
1977,867,1,1,0,6,51.557358
-1419,1173,2,1,0,5,91.887665
-747,-1052,3,0,0,0,794.087036
1484,-1647,4,1,0,15,96.374092
1388,1889,1,0,0,0,642.174927
-988,510,2,0,0,0,836.866821
-499,-1829,3,0,0,0,683.724487
392,-1470,4,1,0,15,107.244278
601,350,1,1,0,6,51.557358
-1765,31,2,1,0,12,84.006905
-620,-292,3,0,0,0,976.221985
438,-374,4,0,0,0,1045.589478
290,1961,1,0,0,0,690.063904
-1517,609,2,0,0,0,726.167908
-262,-639,3,1,0,5,91.887665
1336,-1706,4,1,0,15,100.091034
332,817,1,0,0,0,922.800293
-1058,1943,2,0,0,0,639.629517
-1209,-1949,3,0,0,0,629.362732
1711,-1883,4,1,0,15,75.568031
188,1396,1,0,0,0,788.051147
-170,1161,2,1,0,13,450.667419
-1892,-460,3,1,0,12,84.006905
1061,-364,4,0,0,0,853.541687
889,507,1,0,0,0,879.937500
-1075,1110,2,1,0,5,91.887665
-1151,-1509,3,0,0,0,683.420776
781,-480,4,1,0,6,51.557358
26,909,1,0,0,0,913.957947
-5,1063,2,1,0,13,264.106049
-1965,-770,3,0,0,0,653.080627
1711,-536,4,0,0,0,718.809570
1736,1084,1,1,0,6,51.557358
-1224,1231,2,0,0,0,708.943359
-1478,-1191,3,0,0,0,683.377808
1673,-487,4,1,0,6,51.557358
1311,325,1,0,0,0,800.116638
-1774,1663,2,0,0,0,612.724487
-343,-1163,3,0,0,0,811.942688
1602,-843,4,0,0,0,716.062378
875,1035,1,0,0,0,799.135132
-1986,41,2,0,0,0,670.381958
-337,-488,3,1,0,5,91.887665
335,-945,4,1,0,15,112.542236
44,32,1,0,0,0,1726.310059
-1307,1422,2,0,0,0,678.410645
-552,-1748,3,0,0,0,693.356018
628,-1792,4,0,0,0,702.377441
1037,863,1,1,0,6,51.557358
-1224,1551,2,0,0,0,671.914673
-337,-1556,3,1,0,12,84.006905
253,-1151,4,0,0,0,839.335266
558,545,1,0,0,0,958.172119
-1356,474,2,1,0,5,91.887665
-867,-253,3,1,0,12,84.006905
50,-42,4,0,0,0,1673.649536
1244,1223,1,0,0,0,726.668274
-602,622,2,0,0,0,908.931885
-1858,-858,3,0,0,0,661.864075
1875,-323,4,1,0,6,51.557358
1377,1316,1,0,0,0,701.493469
-675,1986,2,1,0,5,91.887665
-884,-880,3,0,0,0,803.804932
6,-240,4,0,0,0,1297.996826
499,1793,1,1,0,13,129.379913
-696,963,2,1,0,5,91.887665
-851,-13,3,0,0,0,913.802368
1297,-853,4,1,0,15,134.213394
62,722,1,0,0,0,979.379089
-1085,1625,2,0,0,0,675.095703
-293,-1632,3,1,0,12,84.006905
5,-585,4,1,0,6,51.557358
846,754,1,1,0,6,51.557358
-542,935,2,0,0,0,845.036255
-575,-532,3,0,0,0,937.694580
921,-325,4,0,0,0,893.399902
1835,1228,1,1,0,6,51.557358
-1754,554,2,1,0,5,91.887665
-1112,-296,3,0,0,0,826.986450
125,-983,4,0,0,0,889.227478
247,1947,1,1,0,13,133.330627
-1339,402,2,1,0,5,91.887665
-809,-760,3,0,0,0,837.351929
1485,-231,4,1,0,6,51.557358
851,1735,1,0,0,0,697.354248
-214,30,2,0,0,0,1309.098145
-799,-974,3,1,0,12,84.006905
674,-1469,4,0,0,0,748.569092
1507,408,1,0,0,0,758.502625
-908,1733,2,0,0,0,674.725342
-55,-1224,3,0,0,0,808.945007
1378,-364,4,0,0,0,784.672363
1166,1267,1,0,0,0,730.410522
-1153,1180,2,0,0,0,723.530090
-1411,-1120,3,0,0,0,698.334595
1628,-1655,4,0,0,0,644.938110
1125,1319,1,1,0,6,51.557358
-1791,577,2,0,0,0,685.874634
-1291,-1020,3,0,0,0,724.307495
1882,-315,4,0,0,0,700.974915
345,1561,1,0,0,0,751.705750
-1950,1777,2,0,0,0,589.556519
-1503,-115,3,1,0,12,84.006905
852,-1744,4,0,0,0,696.094666
986,1168,1,0,0,0,764.582520
-1115,248,2,1,0,5,91.887665
-670,-933,3,1,0,12,84.006905
20,-1853,4,1,0,15,71.831436
1605,202,1,0,0,0,748.317017
-1107,44,2,0,0,0,837.901245
-56,-99,3,1,0,0,686.311829
1271,-379,4,0,0,0,805.352173
31,609,1,1,0,13,169.338608
-1391,1155,2,1,0,5,91.887665
-1669,-1479,3,1,0,12,84.006905
280,-740,4,0,0,0,954.060913
1560,1175,1,0,0,0,694.328613
-1555,1094,2,0,0,0,682.906494
-989,-909,3,1,0,12,84.006905
1553,-584,4,1,0,6,51.557358
784,1769,1,0,0,0,696.987183
-166,156,2,1,0,0,394.173401
-330,-1656,3,1,0,12,84.006905
43,-1511,4,0,0,0,767.779297
1029,356,1,1,0,6,51.557358
-819,380,2,0,0,0,896.798767
-850,-1894,3,1,0,12,84.006905
106,-407,4,0,0,0,1136.256836
1784,1601,1,1,0,6,51.557358
-203,1182,2,0,0,0,815.094666
-1655,-1193,3,1,0,12,84.006905
1652,-327,4,0,0,0,736.779175
794,1575,1,1,0,6,51.557358
-700,1113,2,1,0,5,91.887665
-216,-1617,3,0,0,0,726.749817
13,-962,4,0,0,0,897.728821
426,245,1,1,0,6,51.557358
-821,402,2,0,0,0,893.225342
-575,-836,3,0,0,0,863.192688
1571,-1780,4,0,0,0,638.547974
980,1653,1,0,0,0,698.958435
-662,1632,2,1,0,5,91.887665
-706,-1421,3,0,0,0,734.705505
1257,-816,4,0,0,0,770.255005
656,322,1,1,0,6,51.557358
-947,693,2,1,0,5,91.887665
-1033,-304,3,0,0,0,846.085083
1464,-1761,4,1,0,15,91.022469
231,982,1,1,0,13,193.230484
-1617,1671,2,1,0,5,91.887665
-355,-1904,3,0,0,0,677.611572
749,-167,4,0,0,0,962.865662
200,1362,1,0,0,0,794.653198
-799,542,2,1,0,5,91.887665
-1356,-1050,3,1,0,12,84.006905
63,-1772,4,1,0,15,76.141953
1113,4,1,0,0,0,855.781189
-1627,1870,2,1,0,5,91.887665
-1611,-651,3,0,0,0,708.678162
1852,-92,4,1,0,6,51.557358
1852,547,1,0,0,0,697.558167
-1663,1584,2,0,0,0,628.974915
-1242,-1935,3,1,0,12,84.006905
644,-257,4,1,0,6,51.557358
1815,1432,1,0,0,0,646.122253
-513,190,2,1,0,5,91.887665
-122,-644,3,0,0,0,989.064697
1735,-1059,4,0,0,0,682.891174
961,651,1,1,0,6,51.557358
-145,561,2,1,0,5,91.887665
-14,-242,3,0,0,0,1275.949097
426,-1236,4,0,0,0,809.489380
886,40,1,1,0,6,51.557358
-776,1704,2,0,0,0,687.288025
-1961,-973,3,0,0,0,642.642639
326,-1027,4,1,0,15,112.931053
261,1667,1,0,0,0,736.225220
-602,312,2,0,0,0,979.297302
-454,-1709,3,1,0,12,84.006905
377,-641,4,1,0,6,51.557358
7,1606,1,0,0,0,750.390320
-1761,432,2,1,0,5,91.887665
-1075,-1102,3,0,0,0,743.372253
944,-1802,4,0,0,0,682.661804
1219,1576,1,1,0,6,51.557358
-1490,567,2,1,0,5,91.887665
-1873,-358,3,1,0,12,84.006905
137,-266,4,1,0,0,304.364838
755,148,1,1,0,6,51.557358
-1516,301,2,1,0,5,91.887665
-1860,-1003,3,0,0,0,652.713135
387,-99,4,0,0,0,1151.113647
128,1081,1,0,0,0,862.175171
-274,1729,2,1,0,13,176.179214
-1857,-1209,3,1,0,12,84.006905
1528,-510,4,1,0,6,51.557358
1364,1605,1,0,0,0,672.715759
-323,1616,2,0,0,0,723.847534
-1315,-501,3,0,0,0,769.159119
1172,-353,4,1,0,6,51.557358
1599,1856,1,0,0,0,629.605164
-171,1533,2,1,0,13,217.354568
-812,-811,3,0,0,0,827.758972
218,-1367,4,0,0,0,793.057190
1715,1612,1,1,0,6,51.557358
-1863,64,2,1,0,5,91.887665
-1570,-1815,3,1,0,12,84.006905
930,1281,1,0,0,0,754.534241
-1813,1498,2,1,0,5,91.887665
-1983,-213,3,0,0,0,669.235901
293,1719,1,1,0,13,151.164261
-1617,478,2,0,0,0,717.278992
-1698,-663,3,1,0,12,84.006905
221,885,1,0,0,0,913.070923
-507,1607,2,0,0,0,717.464478
-257,-1727,3,0,0,0,707.288025
1986,1346,1,1,0,6,51.557358
-1789,1882,2,0,0,0,594.066956
-1061,-1583,3,1,0,12,84.006905
1299,1700,1,1,0,6,51.557358
-1511,468,2,1,0,5,91.887665
-1349,-1985,3,1,0,12,84.006905
1762,1312,1,0,0,0,660.695862
-1753,1908,2,0,0,0,594.678284
-1238,-1407,3,0,0,0,687.023193
1542,674,1,0,0,0,736.981201
-1636,620,2,1,0,5,91.887665
-1088,-1473,3,0,0,0,693.643066
1683,817,1,0,0,0,706.636230
-1002,283,2,1,0,5,91.887665
-370,-965,3,0,0,0,857.895691
1671,1824,1,0,0,0,626.839600
-1991,237,2,0,0,0,667.714172
879,1385,1,1,0,6,51.557358
-74,514,2,0,0,0,1056.193604
1458,1378,1,0,0,0,686.645996
-274,193,2,0,0,0,1182.490601
656,786,1,1,0,6,51.557358
-1697,932,2,0,0,0,677.718506
1360,1082,1,0,0,0,727.752991
-1427,1564,2,0,0,0,652.176636
1548,1645,1,0,0,0,652.747437
-815,1373,2,0,0,0,732.912659
885,414,1,0,0,0,893.285828
-1066,1200,2,0,0,0,731.402283
1,872,1,0,0,0,926.045593
-1087,221,2,0,0,0,837.546997
1733,445,1,1,0,6,51.557358
-885,1742,2,0,0,0,675.097900
924,184,1,0,0,0,903.761963
-1535,116,2,1,0,12,84.006905
1255,118,1,0,0,0,819.974731
757,138,1,0,0,0,962.084290
1715,419,1,0,0,0,723.247070
1819,1508,1,0,0,0,639.910767
926,120,1,0,0,0,906.340881
1714,407,1,0,0,0,723.861877
331,590,1,1,0,6,51.557358
1804,574,1,1,0,6,51.557358
1732,1142,1,1,0,6,51.557358
1685,1297,1,0,0,0,670.006653
790,176,1,1,0,6,51.557358
882,126,1,0,0,0,919.851379
1232,1033,1,0,0,0,750.077515
1260,482,1,1,0,6,51.557358
25,1442,1,0,0,0,781.276001
1853,1875,1,0,0,0,608.742432
624,744,1,1,0,6,51.557358
1241,112,1,0,0,0,823.299805
1990,1772,1,1,0,6,51.557358
323,1691,1,0,0,0,730.460632
378,1598,1,0,0,0,744.015320
1528,1459,1,0,0,0,671.850464
1232,1789,1,0,0,0,663.917053
854,1005,1,1,0,6,51.557358
300,1212,1,0,0,0,822.715820


each generation good chromosome number
3,7,10,13,15,16,18,22,26,28,34,38,40,43,40,39,41,42,42,41,43,43,46,47,48,49,51,51,48,49,51,54,55,54,52,55,55,55,57,58,59,59,59,61,62,64,68,69,68,72,71,73,76,82,85,83,83,84,83,82,83,82,85,86,84,85,82,84,86,85,87,88,84,84,83,85,87,86,87,87,87,88,88,89,89,91,91,89,88,90,91,94,96,94,96,96,96,98,98,99,