each times' max average throughput
0.000000,0.000000,0.000000,0.000000,0.000000,0.000000,0.000000,0.000000,0.000000,0.000000,0.000000,0.000000,0.000000,0.000000,0.000000,0.000000,0.000000,0.000000,0.000000,0.000000,0.000000,0.000000,0.000000,0.000000,0.000000,0.000000,0.000000,0.000000,0.000000,0.000000,0.000000,0.000000,0.000000,0.000000,0.000000,0.000000,0.000000,0.000000,0.000000,0.000000,0.000000,0.000000,0.000000,0.000000,0.000000,0.000000,0.000000,0.000000,0.000000,0.000000,0.000000,0.000000,0.000000,0.000000,0.000000,0.000000,0.000000,0.000000,0.000000,0.000000,0.000000,0.000000,0.000000,0.000000,0.000000,0.000000,0.000000,0.000000,0.000000,0.000000,0.000000,0.000000,0.000000,0.000000,0.000000,0.000000,0.000000,0.000000,0.000000,0.000000,0.000000,0.000000,0.000000,0.000000,0.000000,0.000000,0.000000,0.000000,0.000000,0.000000,0.000000,0.000000,0.000000,0.000000,0.000000,0.000000,0.000000,0.000000,0.000000,0.000000,
avg. throughput in all test times
0.000000
avg. BS TX power in all test times
MBS area 1,MBS area 2,MBS area 3,MBS area 4,MBS area 5,MBS area 6,MBS area 7,MBS area 8,CBSD 1,CBSD 2,CBSD 3,CBSD 4,CBSD 5,CBSD 6,CBSD 7,CBSD 8,CBSD 9,CBSD 10,
0.000,0.000,0.000,0.000,0.000,0.000,0.000,0.000,0.000,0.000,0.000,0.000,0.000,0.000,0.000,0.000,0.000,0.000,
avg. mbs all power,avg. cbsd enable number,avg. mbs area all power,avg. cbsd all power
0.000,0.000,0.000,0.000
avg. max avg. throughput generation number in all test times
0.000000
avg. number of relay UE
0

the max average throughput times

BS TX power
MBS area 1,MBS area 2,MBS area 3,MBS area 4,MBS area 5,MBS area 6,MBS area 7,MBS area 8,CBSD 1,CBSD 2,CBSD 3,CBSD 4,CBSD 5,CBSD 6,CBSD 7,CBSD 8,CBSD 9,CBSD 10,
0.000,0.000,0.000,0.000,0.000,0.000,0.000,0.000,0.000,0.000,0.000,0.000,0.000,0.000,0.000,0.000,0.000,0.000,
max average throughput
0.000000

x,y,area,be blocked (1 : NLOS / 0 : LOS),be blocked number (>=1 : CBSD(x) / 0 : no),connect bs number (>=1 : CBSD / 0 : MBS),throughput (unit : M bps)
0,0,0,0,0,0,0.000000
0,0,0,0,0,0,0.000000
0,0,0,0,0,0,0.000000
0,0,0,0,0,0,0.000000
0,0,0,0,0,0,0.000000
0,0,0,0,0,0,0.000000
0,0,0,0,0,0,0.000000
0,0,0,0,0,0,0.000000
0,0,0,0,0,0,0.000000
0,0,0,0,0,0,0.000000
0,0,0,0,0,0,0.000000
0,0,0,0,0,0,0.000000
0,0,0,0,0,0,0.000000
0,0,0,0,0,0,0.000000
0,0,0,0,0,0,0.000000
0,0,0,0,0,0,0.000000
0,0,0,0,0,0,0.000000
0,0,0,0,0,0,0.000000
0,0,0,0,0,0,0.000000
0,0,0,0,0,0,0.000000
0,0,0,0,0,0,0.000000
0,0,0,0,0,0,0.000000
0,0,0,0,0,0,0.000000
0,0,0,0,0,0,0.000000
0,0,0,0,0,0,0.000000
0,0,0,0,0,0,0.000000
0,0,0,0,0,0,0.000000
0,0,0,0,0,0,0.000000
0,0,0,0,0,0,0.000000
0,0,0,0,0,0,0.000000
0,0,0,0,0,0,0.000000
0,0,0,0,0,0,0.000000
0,0,0,0,0,0,0.000000
0,0,0,0,0,0,0.000000
0,0,0,0,0,0,0.000000
0,0,0,0,0,0,0.000000
0,0,0,0,0,0,0.000000
0,0,0,0,0,0,0.000000
0,0,0,0,0,0,0.000000
0,0,0,0,0,0,0.000000
0,0,0,0,0,0,0.000000
0,0,0,0,0,0,0.000000
0,0,0,0,0,0,0.000000
0,0,0,0,0,0,0.000000
0,0,0,0,0,0,0.000000
0,0,0,0,0,0,0.000000
0,0,0,0,0,0,0.000000
0,0,0,0,0,0,0.000000
0,0,0,0,0,0,0.000000
0,0,0,0,0,0,0.000000
0,0,0,0,0,0,0.000000
0,0,0,0,0,0,0.000000
0,0,0,0,0,0,0.000000
0,0,0,0,0,0,0.000000
0,0,0,0,0,0,0.000000
0,0,0,0,0,0,0.000000
0,0,0,0,0,0,0.000000
0,0,0,0,0,0,0.000000
0,0,0,0,0,0,0.000000
0,0,0,0,0,0,0.000000
0,0,0,0,0,0,0.000000
0,0,0,0,0,0,0.000000
0,0,0,0,0,0,0.000000
0,0,0,0,0,0,0.000000
0,0,0,0,0,0,0.000000
0,0,0,0,0,0,0.000000
0,0,0,0,0,0,0.000000
0,0,0,0,0,0,0.000000
0,0,0,0,0,0,0.000000
0,0,0,0,0,0,0.000000
0,0,0,0,0,0,0.000000
0,0,0,0,0,0,0.000000
0,0,0,0,0,0,0.000000
0,0,0,0,0,0,0.000000
0,0,0,0,0,0,0.000000
0,0,0,0,0,0,0.000000
0,0,0,0,0,0,0.000000
0,0,0,0,0,0,0.000000
0,0,0,0,0,0,0.000000
0,0,0,0,0,0,0.000000
0,0,0,0,0,0,0.000000
0,0,0,0,0,0,0.000000
0,0,0,0,0,0,0.000000
0,0,0,0,0,0,0.000000
0,0,0,0,0,0,0.000000
0,0,0,0,0,0,0.000000
0,0,0,0,0,0,0.000000
0,0,0,0,0,0,0.000000
0,0,0,0,0,0,0.000000
0,0,0,0,0,0,0.000000
0,0,0,0,0,0,0.000000
0,0,0,0,0,0,0.000000
0,0,0,0,0,0,0.000000
0,0,0,0,0,0,0.000000
0,0,0,0,0,0,0.000000
0,0,0,0,0,0,0.000000
0,0,0,0,0,0,0.000000
0,0,0,0,0,0,0.000000
0,0,0,0,0,0,0.000000
0,0,0,0,0,0,0.000000
0,0,0,0,0,0,0.000000
0,0,0,0,0,0,0.000000
0,0,0,0,0,0,0.000000
0,0,0,0,0,0,0.000000
0,0,0,0,0,0,0.000000
0,0,0,0,0,0,0.000000
0,0,0,0,0,0,0.000000
0,0,0,0,0,0,0.000000
0,0,0,0,0,0,0.000000
0,0,0,0,0,0,0.000000
0,0,0,0,0,0,0.000000
0,0,0,0,0,0,0.000000
0,0,0,0,0,0,0.000000
0,0,0,0,0,0,0.000000
0,0,0,0,0,0,0.000000
0,0,0,0,0,0,0.000000
0,0,0,0,0,0,0.000000
0,0,0,0,0,0,0.000000
0,0,0,0,0,0,0.000000
0,0,0,0,0,0,0.000000
0,0,0,0,0,0,0.000000
0,0,0,0,0,0,0.000000
0,0,0,0,0,0,0.000000
0,0,0,0,0,0,0.000000
0,0,0,0,0,0,0.000000
0,0,0,0,0,0,0.000000
0,0,0,0,0,0,0.000000
0,0,0,0,0,0,0.000000
0,0,0,0,0,0,0.000000
0,0,0,0,0,0,0.000000
0,0,0,0,0,0,0.000000
0,0,0,0,0,0,0.000000
0,0,0,0,0,0,0.000000
0,0,0,0,0,0,0.000000
0,0,0,0,0,0,0.000000
0,0,0,0,0,0,0.000000
0,0,0,0,0,0,0.000000
0,0,0,0,0,0,0.000000
0,0,0,0,0,0,0.000000
0,0,0,0,0,0,0.000000
0,0,0,0,0,0,0.000000
0,0,0,0,0,0,0.000000
0,0,0,0,0,0,0.000000
0,0,0,0,0,0,0.000000
0,0,0,0,0,0,0.000000
0,0,0,0,0,0,0.000000
0,0,0,0,0,0,0.000000
0,0,0,0,0,0,0.000000
0,0,0,0,0,0,0.000000
0,0,0,0,0,0,0.000000
0,0,0,0,0,0,0.000000
0,0,0,0,0,0,0.000000
0,0,0,0,0,0,0.000000
0,0,0,0,0,0,0.000000
0,0,0,0,0,0,0.000000
0,0,0,0,0,0,0.000000
0,0,0,0,0,0,0.000000
0,0,0,0,0,0,0.000000
0,0,0,0,0,0,0.000000
0,0,0,0,0,0,0.000000
0,0,0,0,0,0,0.000000
0,0,0,0,0,0,0.000000
0,0,0,0,0,0,0.000000
0,0,0,0,0,0,0.000000
0,0,0,0,0,0,0.000000
0,0,0,0,0,0,0.000000
0,0,0,0,0,0,0.000000
0,0,0,0,0,0,0.000000
0,0,0,0,0,0,0.000000
0,0,0,0,0,0,0.000000
0,0,0,0,0,0,0.000000
0,0,0,0,0,0,0.000000
0,0,0,0,0,0,0.000000
0,0,0,0,0,0,0.000000
0,0,0,0,0,0,0.000000
0,0,0,0,0,0,0.000000
0,0,0,0,0,0,0.000000
0,0,0,0,0,0,0.000000
0,0,0,0,0,0,0.000000
0,0,0,0,0,0,0.000000
0,0,0,0,0,0,0.000000
0,0,0,0,0,0,0.000000
0,0,0,0,0,0,0.000000
0,0,0,0,0,0,0.000000
0,0,0,0,0,0,0.000000
0,0,0,0,0,0,0.000000
0,0,0,0,0,0,0.000000
0,0,0,0,0,0,0.000000
0,0,0,0,0,0,0.000000
0,0,0,0,0,0,0.000000
0,0,0,0,0,0,0.000000
0,0,0,0,0,0,0.000000
0,0,0,0,0,0,0.000000
0,0,0,0,0,0,0.000000
0,0,0,0,0,0,0.000000
0,0,0,0,0,0,0.000000
0,0,0,0,0,0,0.000000
0,0,0,0,0,0,0.000000
0,0,0,0,0,0,0.000000
0,0,0,0,0,0,0.000000
0,0,0,0,0,0,0.000000
0,0,0,0,0,0,0.000000
0,0,0,0,0,0,0.000000
0,0,0,0,0,0,0.000000
0,0,0,0,0,0,0.000000
0,0,0,0,0,0,0.000000
0,0,0,0,0,0,0.000000
0,0,0,0,0,0,0.000000
0,0,0,0,0,0,0.000000
0,0,0,0,0,0,0.000000
0,0,0,0,0,0,0.000000
0,0,0,0,0,0,0.000000
0,0,0,0,0,0,0.000000
0,0,0,0,0,0,0.000000
0,0,0,0,0,0,0.000000
0,0,0,0,0,0,0.000000
0,0,0,0,0,0,0.000000
0,0,0,0,0,0,0.000000
0,0,0,0,0,0,0.000000
0,0,0,0,0,0,0.000000
0,0,0,0,0,0,0.000000
0,0,0,0,0,0,0.000000
0,0,0,0,0,0,0.000000
0,0,0,0,0,0,0.000000
0,0,0,0,0,0,0.000000
0,0,0,0,0,0,0.000000
0,0,0,0,0,0,0.000000
0,0,0,0,0,0,0.000000
0,0,0,0,0,0,0.000000
0,0,0,0,0,0,0.000000
0,0,0,0,0,0,0.000000
0,0,0,0,0,0,0.000000
0,0,0,0,0,0,0.000000
0,0,0,0,0,0,0.000000
0,0,0,0,0,0,0.000000
0,0,0,0,0,0,0.000000
0,0,0,0,0,0,0.000000
0,0,0,0,0,0,0.000000
0,0,0,0,0,0,0.000000
0,0,0,0,0,0,0.000000
0,0,0,0,0,0,0.000000
0,0,0,0,0,0,0.000000
0,0,0,0,0,0,0.000000
0,0,0,0,0,0,0.000000
0,0,0,0,0,0,0.000000
0,0,0,0,0,0,0.000000
0,0,0,0,0,0,0.000000
0,0,0,0,0,0,0.000000
0,0,0,0,0,0,0.000000
0,0,0,0,0,0,0.000000
0,0,0,0,0,0,0.000000
0,0,0,0,0,0,0.000000
0,0,0,0,0,0,0.000000
0,0,0,0,0,0,0.000000
0,0,0,0,0,0,0.000000
0,0,0,0,0,0,0.000000
0,0,0,0,0,0,0.000000
0,0,0,0,0,0,0.000000
0,0,0,0,0,0,0.000000
0,0,0,0,0,0,0.000000
0,0,0,0,0,0,0.000000
0,0,0,0,0,0,0.000000
0,0,0,0,0,0,0.000000
0,0,0,0,0,0,0.000000
0,0,0,0,0,0,0.000000
0,0,0,0,0,0,0.000000
0,0,0,0,0,0,0.000000
0,0,0,0,0,0,0.000000
0,0,0,0,0,0,0.000000
0,0,0,0,0,0,0.000000
0,0,0,0,0,0,0.000000
0,0,0,0,0,0,0.000000
0,0,0,0,0,0,0.000000
0,0,0,0,0,0,0.000000
0,0,0,0,0,0,0.000000
0,0,0,0,0,0,0.000000
0,0,0,0,0,0,0.000000
0,0,0,0,0,0,0.000000
0,0,0,0,0,0,0.000000
0,0,0,0,0,0,0.000000
0,0,0,0,0,0,0.000000
0,0,0,0,0,0,0.000000
0,0,0,0,0,0,0.000000
0,0,0,0,0,0,0.000000
0,0,0,0,0,0,0.000000
0,0,0,0,0,0,0.000000
0,0,0,0,0,0,0.000000
0,0,0,0,0,0,0.000000
0,0,0,0,0,0,0.000000
0,0,0,0,0,0,0.000000
0,0,0,0,0,0,0.000000
0,0,0,0,0,0,0.000000
0,0,0,0,0,0,0.000000
0,0,0,0,0,0,0.000000
0,0,0,0,0,0,0.000000
0,0,0,0,0,0,0.000000
0,0,0,0,0,0,0.000000
0,0,0,0,0,0,0.000000
0,0,0,0,0,0,0.000000
0,0,0,0,0,0,0.000000
0,0,0,0,0,0,0.000000
0,0,0,0,0,0,0.000000
0,0,0,0,0,0,0.000000
0,0,0,0,0,0,0.000000
0,0,0,0,0,0,0.000000
0,0,0,0,0,0,0.000000
0,0,0,0,0,0,0.000000
0,0,0,0,0,0,0.000000
0,0,0,0,0,0,0.000000
0,0,0,0,0,0,0.000000
0,0,0,0,0,0,0.000000
0,0,0,0,0,0,0.000000
0,0,0,0,0,0,0.000000
0,0,0,0,0,0,0.000000
0,0,0,0,0,0,0.000000
0,0,0,0,0,0,0.000000
0,0,0,0,0,0,0.000000
0,0,0,0,0,0,0.000000
0,0,0,0,0,0,0.000000
0,0,0,0,0,0,0.000000
0,0,0,0,0,0,0.000000
0,0,0,0,0,0,0.000000
0,0,0,0,0,0,0.000000
0,0,0,0,0,0,0.000000
0,0,0,0,0,0,0.000000
0,0,0,0,0,0,0.000000
0,0,0,0,0,0,0.000000
0,0,0,0,0,0,0.000000
0,0,0,0,0,0,0.000000
0,0,0,0,0,0,0.000000
0,0,0,0,0,0,0.000000
0,0,0,0,0,0,0.000000
0,0,0,0,0,0,0.000000
0,0,0,0,0,0,0.000000
0,0,0,0,0,0,0.000000
0,0,0,0,0,0,0.000000
0,0,0,0,0,0,0.000000
0,0,0,0,0,0,0.000000
0,0,0,0,0,0,0.000000
0,0,0,0,0,0,0.000000
0,0,0,0,0,0,0.000000
0,0,0,0,0,0,0.000000
0,0,0,0,0,0,0.000000
0,0,0,0,0,0,0.000000
0,0,0,0,0,0,0.000000
0,0,0,0,0,0,0.000000
0,0,0,0,0,0,0.000000
0,0,0,0,0,0,0.000000
0,0,0,0,0,0,0.000000
0,0,0,0,0,0,0.000000
0,0,0,0,0,0,0.000000
0,0,0,0,0,0,0.000000
0,0,0,0,0,0,0.000000
0,0,0,0,0,0,0.000000
0,0,0,0,0,0,0.000000
0,0,0,0,0,0,0.000000
0,0,0,0,0,0,0.000000
0,0,0,0,0,0,0.000000
0,0,0,0,0,0,0.000000
0,0,0,0,0,0,0.000000
0,0,0,0,0,0,0.000000
0,0,0,0,0,0,0.000000
0,0,0,0,0,0,0.000000
0,0,0,0,0,0,0.000000
0,0,0,0,0,0,0.000000
0,0,0,0,0,0,0.000000
0,0,0,0,0,0,0.000000
0,0,0,0,0,0,0.000000
0,0,0,0,0,0,0.000000
0,0,0,0,0,0,0.000000
0,0,0,0,0,0,0.000000
0,0,0,0,0,0,0.000000
0,0,0,0,0,0,0.000000
0,0,0,0,0,0,0.000000
0,0,0,0,0,0,0.000000
0,0,0,0,0,0,0.000000
0,0,0,0,0,0,0.000000
0,0,0,0,0,0,0.000000
0,0,0,0,0,0,0.000000
0,0,0,0,0,0,0.000000
0,0,0,0,0,0,0.000000
0,0,0,0,0,0,0.000000
0,0,0,0,0,0,0.000000
0,0,0,0,0,0,0.000000
0,0,0,0,0,0,0.000000
0,0,0,0,0,0,0.000000
0,0,0,0,0,0,0.000000
0,0,0,0,0,0,0.000000
0,0,0,0,0,0,0.000000
0,0,0,0,0,0,0.000000
0,0,0,0,0,0,0.000000
0,0,0,0,0,0,0.000000
0,0,0,0,0,0,0.000000
0,0,0,0,0,0,0.000000
0,0,0,0,0,0,0.000000
0,0,0,0,0,0,0.000000
0,0,0,0,0,0,0.000000
0,0,0,0,0,0,0.000000
0,0,0,0,0,0,0.000000
0,0,0,0,0,0,0.000000
0,0,0,0,0,0,0.000000
0,0,0,0,0,0,0.000000
0,0,0,0,0,0,0.000000
0,0,0,0,0,0,0.000000
0,0,0,0,0,0,0.000000
0,0,0,0,0,0,0.000000
0,0,0,0,0,0,0.000000
0,0,0,0,0,0,0.000000
0,0,0,0,0,0,0.000000
0,0,0,0,0,0,0.000000
0,0,0,0,0,0,0.000000
0,0,0,0,0,0,0.000000
0,0,0,0,0,0,0.000000
0,0,0,0,0,0,0.000000
0,0,0,0,0,0,0.000000
0,0,0,0,0,0,0.000000
0,0,0,0,0,0,0.000000
0,0,0,0,0,0,0.000000
0,0,0,0,0,0,0.000000
0,0,0,0,0,0,0.000000
0,0,0,0,0,0,0.000000
0,0,0,0,0,0,0.000000
0,0,0,0,0,0,0.000000
0,0,0,0,0,0,0.000000
0,0,0,0,0,0,0.000000
0,0,0,0,0,0,0.000000
0,0,0,0,0,0,0.000000
0,0,0,0,0,0,0.000000
0,0,0,0,0,0,0.000000
0,0,0,0,0,0,0.000000
0,0,0,0,0,0,0.000000
0,0,0,0,0,0,0.000000
0,0,0,0,0,0,0.000000
0,0,0,0,0,0,0.000000
0,0,0,0,0,0,0.000000
0,0,0,0,0,0,0.000000
0,0,0,0,0,0,0.000000
0,0,0,0,0,0,0.000000
0,0,0,0,0,0,0.000000
0,0,0,0,0,0,0.000000
0,0,0,0,0,0,0.000000
0,0,0,0,0,0,0.000000
0,0,0,0,0,0,0.000000
0,0,0,0,0,0,0.000000
0,0,0,0,0,0,0.000000
0,0,0,0,0,0,0.000000
0,0,0,0,0,0,0.000000
0,0,0,0,0,0,0.000000
0,0,0,0,0,0,0.000000
0,0,0,0,0,0,0.000000
0,0,0,0,0,0,0.000000
0,0,0,0,0,0,0.000000
0,0,0,0,0,0,0.000000
0,0,0,0,0,0,0.000000
0,0,0,0,0,0,0.000000
0,0,0,0,0,0,0.000000
0,0,0,0,0,0,0.000000
0,0,0,0,0,0,0.000000
0,0,0,0,0,0,0.000000
0,0,0,0,0,0,0.000000
0,0,0,0,0,0,0.000000
0,0,0,0,0,0,0.000000
0,0,0,0,0,0,0.000000
0,0,0,0,0,0,0.000000
0,0,0,0,0,0,0.000000
0,0,0,0,0,0,0.000000
0,0,0,0,0,0,0.000000
0,0,0,0,0,0,0.000000
0,0,0,0,0,0,0.000000
0,0,0,0,0,0,0.000000
0,0,0,0,0,0,0.000000
0,0,0,0,0,0,0.000000
0,0,0,0,0,0,0.000000
0,0,0,0,0,0,0.000000
0,0,0,0,0,0,0.000000
0,0,0,0,0,0,0.000000
0,0,0,0,0,0,0.000000
0,0,0,0,0,0,0.000000
0,0,0,0,0,0,0.000000
0,0,0,0,0,0,0.000000
0,0,0,0,0,0,0.000000
0,0,0,0,0,0,0.000000
0,0,0,0,0,0,0.000000
0,0,0,0,0,0,0.000000
0,0,0,0,0,0,0.000000
0,0,0,0,0,0,0.000000
0,0,0,0,0,0,0.000000
0,0,0,0,0,0,0.000000
0,0,0,0,0,0,0.000000
0,0,0,0,0,0,0.000000
0,0,0,0,0,0,0.000000
0,0,0,0,0,0,0.000000
0,0,0,0,0,0,0.000000
0,0,0,0,0,0,0.000000
0,0,0,0,0,0,0.000000
0,0,0,0,0,0,0.000000
0,0,0,0,0,0,0.000000
0,0,0,0,0,0,0.000000
0,0,0,0,0,0,0.000000
0,0,0,0,0,0,0.000000
0,0,0,0,0,0,0.000000
0,0,0,0,0,0,0.000000
0,0,0,0,0,0,0.000000
0,0,0,0,0,0,0.000000
0,0,0,0,0,0,0.000000
0,0,0,0,0,0,0.000000
0,0,0,0,0,0,0.000000
0,0,0,0,0,0,0.000000
0,0,0,0,0,0,0.000000
0,0,0,0,0,0,0.000000
0,0,0,0,0,0,0.000000
0,0,0,0,0,0,0.000000
0,0,0,0,0,0,0.000000
0,0,0,0,0,0,0.000000
0,0,0,0,0,0,0.000000
0,0,0,0,0,0,0.000000
0,0,0,0,0,0,0.000000
0,0,0,0,0,0,0.000000
0,0,0,0,0,0,0.000000
0,0,0,0,0,0,0.000000
0,0,0,0,0,0,0.000000
0,0,0,0,0,0,0.000000
0,0,0,0,0,0,0.000000
0,0,0,0,0,0,0.000000
0,0,0,0,0,0,0.000000
0,0,0,0,0,0,0.000000
0,0,0,0,0,0,0.000000
0,0,0,0,0,0,0.000000
0,0,0,0,0,0,0.000000
0,0,0,0,0,0,0.000000
0,0,0,0,0,0,0.000000
0,0,0,0,0,0,0.000000
0,0,0,0,0,0,0.000000
0,0,0,0,0,0,0.000000
0,0,0,0,0,0,0.000000
0,0,0,0,0,0,0.000000
0,0,0,0,0,0,0.000000
0,0,0,0,0,0,0.000000
0,0,0,0,0,0,0.000000
0,0,0,0,0,0,0.000000
0,0,0,0,0,0,0.000000
0,0,0,0,0,0,0.000000
0,0,0,0,0,0,0.000000
0,0,0,0,0,0,0.000000
0,0,0,0,0,0,0.000000
0,0,0,0,0,0,0.000000
0,0,0,0,0,0,0.000000
0,0,0,0,0,0,0.000000
0,0,0,0,0,0,0.000000
0,0,0,0,0,0,0.000000
0,0,0,0,0,0,0.000000
0,0,0,0,0,0,0.000000
0,0,0,0,0,0,0.000000
0,0,0,0,0,0,0.000000
0,0,0,0,0,0,0.000000
0,0,0,0,0,0,0.000000
0,0,0,0,0,0,0.000000
0,0,0,0,0,0,0.000000
0,0,0,0,0,0,0.000000
0,0,0,0,0,0,0.000000
0,0,0,0,0,0,0.000000
0,0,0,0,0,0,0.000000
0,0,0,0,0,0,0.000000
0,0,0,0,0,0,0.000000
0,0,0,0,0,0,0.000000
0,0,0,0,0,0,0.000000
0,0,0,0,0,0,0.000000
0,0,0,0,0,0,0.000000
0,0,0,0,0,0,0.000000
0,0,0,0,0,0,0.000000
0,0,0,0,0,0,0.000000
0,0,0,0,0,0,0.000000
0,0,0,0,0,0,0.000000
0,0,0,0,0,0,0.000000
0,0,0,0,0,0,0.000000
0,0,0,0,0,0,0.000000
0,0,0,0,0,0,0.000000
0,0,0,0,0,0,0.000000
0,0,0,0,0,0,0.000000
0,0,0,0,0,0,0.000000
0,0,0,0,0,0,0.000000
0,0,0,0,0,0,0.000000
0,0,0,0,0,0,0.000000
0,0,0,0,0,0,0.000000
0,0,0,0,0,0,0.000000
0,0,0,0,0,0,0.000000
0,0,0,0,0,0,0.000000
0,0,0,0,0,0,0.000000
0,0,0,0,0,0,0.000000
0,0,0,0,0,0,0.000000
0,0,0,0,0,0,0.000000
0,0,0,0,0,0,0.000000
0,0,0,0,0,0,0.000000
0,0,0,0,0,0,0.000000
0,0,0,0,0,0,0.000000
0,0,0,0,0,0,0.000000
0,0,0,0,0,0,0.000000
0,0,0,0,0,0,0.000000
0,0,0,0,0,0,0.000000
0,0,0,0,0,0,0.000000
0,0,0,0,0,0,0.000000
0,0,0,0,0,0,0.000000
0,0,0,0,0,0,0.000000
0,0,0,0,0,0,0.000000
0,0,0,0,0,0,0.000000
0,0,0,0,0,0,0.000000
0,0,0,0,0,0,0.000000
0,0,0,0,0,0,0.000000
0,0,0,0,0,0,0.000000
0,0,0,0,0,0,0.000000
0,0,0,0,0,0,0.000000
0,0,0,0,0,0,0.000000
0,0,0,0,0,0,0.000000
0,0,0,0,0,0,0.000000
0,0,0,0,0,0,0.000000
0,0,0,0,0,0,0.000000
0,0,0,0,0,0,0.000000
0,0,0,0,0,0,0.000000
0,0,0,0,0,0,0.000000
0,0,0,0,0,0,0.000000
0,0,0,0,0,0,0.000000
0,0,0,0,0,0,0.000000
0,0,0,0,0,0,0.000000
0,0,0,0,0,0,0.000000
0,0,0,0,0,0,0.000000
0,0,0,0,0,0,0.000000
0,0,0,0,0,0,0.000000
0,0,0,0,0,0,0.000000
0,0,0,0,0,0,0.000000
0,0,0,0,0,0,0.000000
0,0,0,0,0,0,0.000000
0,0,0,0,0,0,0.000000
0,0,0,0,0,0,0.000000
0,0,0,0,0,0,0.000000
0,0,0,0,0,0,0.000000
0,0,0,0,0,0,0.000000
0,0,0,0,0,0,0.000000
0,0,0,0,0,0,0.000000
0,0,0,0,0,0,0.000000
0,0,0,0,0,0,0.000000
0,0,0,0,0,0,0.000000
0,0,0,0,0,0,0.000000
0,0,0,0,0,0,0.000000
0,0,0,0,0,0,0.000000
0,0,0,0,0,0,0.000000
0,0,0,0,0,0,0.000000
0,0,0,0,0,0,0.000000
0,0,0,0,0,0,0.000000
0,0,0,0,0,0,0.000000
0,0,0,0,0,0,0.000000
0,0,0,0,0,0,0.000000
0,0,0,0,0,0,0.000000
0,0,0,0,0,0,0.000000
0,0,0,0,0,0,0.000000
0,0,0,0,0,0,0.000000
0,0,0,0,0,0,0.000000
0,0,0,0,0,0,0.000000
0,0,0,0,0,0,0.000000
0,0,0,0,0,0,0.000000
0,0,0,0,0,0,0.000000
0,0,0,0,0,0,0.000000
0,0,0,0,0,0,0.000000
0,0,0,0,0,0,0.000000
0,0,0,0,0,0,0.000000
0,0,0,0,0,0,0.000000
0,0,0,0,0,0,0.000000
0,0,0,0,0,0,0.000000
0,0,0,0,0,0,0.000000
0,0,0,0,0,0,0.000000
0,0,0,0,0,0,0.000000
0,0,0,0,0,0,0.000000
0,0,0,0,0,0,0.000000
0,0,0,0,0,0,0.000000
0,0,0,0,0,0,0.000000
0,0,0,0,0,0,0.000000
0,0,0,0,0,0,0.000000
0,0,0,0,0,0,0.000000
0,0,0,0,0,0,0.000000
0,0,0,0,0,0,0.000000
0,0,0,0,0,0,0.000000
0,0,0,0,0,0,0.000000
0,0,0,0,0,0,0.000000
0,0,0,0,0,0,0.000000
0,0,0,0,0,0,0.000000
0,0,0,0,0,0,0.000000
0,0,0,0,0,0,0.000000
0,0,0,0,0,0,0.000000
0,0,0,0,0,0,0.000000
0,0,0,0,0,0,0.000000
0,0,0,0,0,0,0.000000
0,0,0,0,0,0,0.000000
0,0,0,0,0,0,0.000000
0,0,0,0,0,0,0.000000
0,0,0,0,0,0,0.000000
0,0,0,0,0,0,0.000000
0,0,0,0,0,0,0.000000
0,0,0,0,0,0,0.000000
0,0,0,0,0,0,0.000000
0,0,0,0,0,0,0.000000
0,0,0,0,0,0,0.000000
0,0,0,0,0,0,0.000000
0,0,0,0,0,0,0.000000
0,0,0,0,0,0,0.000000
0,0,0,0,0,0,0.000000
0,0,0,0,0,0,0.000000
0,0,0,0,0,0,0.000000
0,0,0,0,0,0,0.000000
0,0,0,0,0,0,0.000000
0,0,0,0,0,0,0.000000
0,0,0,0,0,0,0.000000
0,0,0,0,0,0,0.000000
0,0,0,0,0,0,0.000000
0,0,0,0,0,0,0.000000
0,0,0,0,0,0,0.000000
0,0,0,0,0,0,0.000000
0,0,0,0,0,0,0.000000
0,0,0,0,0,0,0.000000
0,0,0,0,0,0,0.000000
0,0,0,0,0,0,0.000000
0,0,0,0,0,0,0.000000
0,0,0,0,0,0,0.000000
0,0,0,0,0,0,0.000000
0,0,0,0,0,0,0.000000
0,0,0,0,0,0,0.000000
0,0,0,0,0,0,0.000000
0,0,0,0,0,0,0.000000
0,0,0,0,0,0,0.000000
0,0,0,0,0,0,0.000000
0,0,0,0,0,0,0.000000
0,0,0,0,0,0,0.000000
0,0,0,0,0,0,0.000000
0,0,0,0,0,0,0.000000
0,0,0,0,0,0,0.000000
0,0,0,0,0,0,0.000000
0,0,0,0,0,0,0.000000
0,0,0,0,0,0,0.000000
0,0,0,0,0,0,0.000000
0,0,0,0,0,0,0.000000
0,0,0,0,0,0,0.000000
0,0,0,0,0,0,0.000000
0,0,0,0,0,0,0.000000
0,0,0,0,0,0,0.000000
0,0,0,0,0,0,0.000000
0,0,0,0,0,0,0.000000
0,0,0,0,0,0,0.000000
0,0,0,0,0,0,0.000000
0,0,0,0,0,0,0.000000
0,0,0,0,0,0,0.000000
0,0,0,0,0,0,0.000000
0,0,0,0,0,0,0.000000
0,0,0,0,0,0,0.000000
0,0,0,0,0,0,0.000000
0,0,0,0,0,0,0.000000
0,0,0,0,0,0,0.000000
0,0,0,0,0,0,0.000000
0,0,0,0,0,0,0.000000
0,0,0,0,0,0,0.000000
0,0,0,0,0,0,0.000000
0,0,0,0,0,0,0.000000
0,0,0,0,0,0,0.000000
0,0,0,0,0,0,0.000000
0,0,0,0,0,0,0.000000
0,0,0,0,0,0,0.000000
0,0,0,0,0,0,0.000000
0,0,0,0,0,0,0.000000
0,0,0,0,0,0,0.000000
0,0,0,0,0,0,0.000000
0,0,0,0,0,0,0.000000
0,0,0,0,0,0,0.000000
0,0,0,0,0,0,0.000000
0,0,0,0,0,0,0.000000
0,0,0,0,0,0,0.000000
0,0,0,0,0,0,0.000000
0,0,0,0,0,0,0.000000
0,0,0,0,0,0,0.000000
0,0,0,0,0,0,0.000000
0,0,0,0,0,0,0.000000
0,0,0,0,0,0,0.000000
0,0,0,0,0,0,0.000000
0,0,0,0,0,0,0.000000
0,0,0,0,0,0,0.000000
0,0,0,0,0,0,0.000000
0,0,0,0,0,0,0.000000
0,0,0,0,0,0,0.000000
0,0,0,0,0,0,0.000000
0,0,0,0,0,0,0.000000
0,0,0,0,0,0,0.000000
0,0,0,0,0,0,0.000000
0,0,0,0,0,0,0.000000
0,0,0,0,0,0,0.000000
0,0,0,0,0,0,0.000000
0,0,0,0,0,0,0.000000
0,0,0,0,0,0,0.000000
0,0,0,0,0,0,0.000000
0,0,0,0,0,0,0.000000
0,0,0,0,0,0,0.000000
0,0,0,0,0,0,0.000000
0,0,0,0,0,0,0.000000
0,0,0,0,0,0,0.000000
0,0,0,0,0,0,0.000000
0,0,0,0,0,0,0.000000
0,0,0,0,0,0,0.000000
0,0,0,0,0,0,0.000000
0,0,0,0,0,0,0.000000
0,0,0,0,0,0,0.000000
0,0,0,0,0,0,0.000000
0,0,0,0,0,0,0.000000
0,0,0,0,0,0,0.000000
0,0,0,0,0,0,0.000000
0,0,0,0,0,0,0.000000
0,0,0,0,0,0,0.000000
0,0,0,0,0,0,0.000000
0,0,0,0,0,0,0.000000
0,0,0,0,0,0,0.000000
0,0,0,0,0,0,0.000000
0,0,0,0,0,0,0.000000
0,0,0,0,0,0,0.000000
0,0,0,0,0,0,0.000000
0,0,0,0,0,0,0.000000
0,0,0,0,0,0,0.000000
0,0,0,0,0,0,0.000000
0,0,0,0,0,0,0.000000
0,0,0,0,0,0,0.000000
0,0,0,0,0,0,0.000000
0,0,0,0,0,0,0.000000
0,0,0,0,0,0,0.000000
0,0,0,0,0,0,0.000000
0,0,0,0,0,0,0.000000
0,0,0,0,0,0,0.000000
0,0,0,0,0,0,0.000000
0,0,0,0,0,0,0.000000
0,0,0,0,0,0,0.000000
0,0,0,0,0,0,0.000000
0,0,0,0,0,0,0.000000
0,0,0,0,0,0,0.000000
0,0,0,0,0,0,0.000000
0,0,0,0,0,0,0.000000
0,0,0,0,0,0,0.000000
0,0,0,0,0,0,0.000000
0,0,0,0,0,0,0.000000
0,0,0,0,0,0,0.000000
0,0,0,0,0,0,0.000000
0,0,0,0,0,0,0.000000
0,0,0,0,0,0,0.000000
0,0,0,0,0,0,0.000000
0,0,0,0,0,0,0.000000
0,0,0,0,0,0,0.000000
0,0,0,0,0,0,0.000000
0,0,0,0,0,0,0.000000
0,0,0,0,0,0,0.000000
0,0,0,0,0,0,0.000000
0,0,0,0,0,0,0.000000
0,0,0,0,0,0,0.000000
0,0,0,0,0,0,0.000000
0,0,0,0,0,0,0.000000
0,0,0,0,0,0,0.000000
0,0,0,0,0,0,0.000000
0,0,0,0,0,0,0.000000
0,0,0,0,0,0,0.000000
0,0,0,0,0,0,0.000000
0,0,0,0,0,0,0.000000
0,0,0,0,0,0,0.000000
0,0,0,0,0,0,0.000000
0,0,0,0,0,0,0.000000
0,0,0,0,0,0,0.000000
0,0,0,0,0,0,0.000000
0,0,0,0,0,0,0.000000
0,0,0,0,0,0,0.000000
0,0,0,0,0,0,0.000000
0,0,0,0,0,0,0.000000
0,0,0,0,0,0,0.000000
0,0,0,0,0,0,0.000000
0,0,0,0,0,0,0.000000
0,0,0,0,0,0,0.000000
0,0,0,0,0,0,0.000000
0,0,0,0,0,0,0.000000
0,0,0,0,0,0,0.000000
0,0,0,0,0,0,0.000000
0,0,0,0,0,0,0.000000
0,0,0,0,0,0,0.000000
0,0,0,0,0,0,0.000000
0,0,0,0,0,0,0.000000
0,0,0,0,0,0,0.000000
0,0,0,0,0,0,0.000000
0,0,0,0,0,0,0.000000
0,0,0,0,0,0,0.000000
0,0,0,0,0,0,0.000000
0,0,0,0,0,0,0.000000
0,0,0,0,0,0,0.000000
0,0,0,0,0,0,0.000000
0,0,0,0,0,0,0.000000
0,0,0,0,0,0,0.000000
0,0,0,0,0,0,0.000000
0,0,0,0,0,0,0.000000
0,0,0,0,0,0,0.000000
0,0,0,0,0,0,0.000000
0,0,0,0,0,0,0.000000
0,0,0,0,0,0,0.000000
0,0,0,0,0,0,0.000000
0,0,0,0,0,0,0.000000
0,0,0,0,0,0,0.000000
0,0,0,0,0,0,0.000000
0,0,0,0,0,0,0.000000
0,0,0,0,0,0,0.000000
0,0,0,0,0,0,0.000000
0,0,0,0,0,0,0.000000
0,0,0,0,0,0,0.000000
0,0,0,0,0,0,0.000000
0,0,0,0,0,0,0.000000
0,0,0,0,0,0,0.000000
0,0,0,0,0,0,0.000000
0,0,0,0,0,0,0.000000
0,0,0,0,0,0,0.000000
0,0,0,0,0,0,0.000000
0,0,0,0,0,0,0.000000
0,0,0,0,0,0,0.000000
0,0,0,0,0,0,0.000000
0,0,0,0,0,0,0.000000
0,0,0,0,0,0,0.000000
0,0,0,0,0,0,0.000000
0,0,0,0,0,0,0.000000
0,0,0,0,0,0,0.000000
0,0,0,0,0,0,0.000000
0,0,0,0,0,0,0.000000
0,0,0,0,0,0,0.000000
0,0,0,0,0,0,0.000000
0,0,0,0,0,0,0.000000
0,0,0,0,0,0,0.000000
0,0,0,0,0,0,0.000000
0,0,0,0,0,0,0.000000
0,0,0,0,0,0,0.000000
0,0,0,0,0,0,0.000000
0,0,0,0,0,0,0.000000
0,0,0,0,0,0,0.000000
0,0,0,0,0,0,0.000000
0,0,0,0,0,0,0.000000
0,0,0,0,0,0,0.000000
0,0,0,0,0,0,0.000000
0,0,0,0,0,0,0.000000
0,0,0,0,0,0,0.000000
0,0,0,0,0,0,0.000000
0,0,0,0,0,0,0.000000
0,0,0,0,0,0,0.000000
0,0,0,0,0,0,0.000000
0,0,0,0,0,0,0.000000
0,0,0,0,0,0,0.000000
0,0,0,0,0,0,0.000000
0,0,0,0,0,0,0.000000
0,0,0,0,0,0,0.000000
0,0,0,0,0,0,0.000000
0,0,0,0,0,0,0.000000
0,0,0,0,0,0,0.000000
0,0,0,0,0,0,0.000000
0,0,0,0,0,0,0.000000
0,0,0,0,0,0,0.000000
0,0,0,0,0,0,0.000000
0,0,0,0,0,0,0.000000
0,0,0,0,0,0,0.000000
0,0,0,0,0,0,0.000000
0,0,0,0,0,0,0.000000
0,0,0,0,0,0,0.000000
0,0,0,0,0,0,0.000000
0,0,0,0,0,0,0.000000
0,0,0,0,0,0,0.000000
0,0,0,0,0,0,0.000000
0,0,0,0,0,0,0.000000
0,0,0,0,0,0,0.000000
0,0,0,0,0,0,0.000000
0,0,0,0,0,0,0.000000
0,0,0,0,0,0,0.000000
0,0,0,0,0,0,0.000000
0,0,0,0,0,0,0.000000
0,0,0,0,0,0,0.000000
0,0,0,0,0,0,0.000000
0,0,0,0,0,0,0.000000
0,0,0,0,0,0,0.000000
0,0,0,0,0,0,0.000000
0,0,0,0,0,0,0.000000
0,0,0,0,0,0,0.000000
0,0,0,0,0,0,0.000000
0,0,0,0,0,0,0.000000
0,0,0,0,0,0,0.000000
0,0,0,0,0,0,0.000000
0,0,0,0,0,0,0.000000
0,0,0,0,0,0,0.000000
0,0,0,0,0,0,0.000000
0,0,0,0,0,0,0.000000
0,0,0,0,0,0,0.000000
0,0,0,0,0,0,0.000000
0,0,0,0,0,0,0.000000
0,0,0,0,0,0,0.000000
0,0,0,0,0,0,0.000000
0,0,0,0,0,0,0.000000
0,0,0,0,0,0,0.000000
0,0,0,0,0,0,0.000000
0,0,0,0,0,0,0.000000
0,0,0,0,0,0,0.000000
0,0,0,0,0,0,0.000000
0,0,0,0,0,0,0.000000
0,0,0,0,0,0,0.000000


each generation good chromosome number
0,0,0,