mbs coordinate
0,0

cbsd coordinate and channel
-970,900,2
740,900,1
980,-860,1
-750,-850,5
-750,1000,4
1050,600,2
760,-1135,3
-870,-1100,1
-1080,450,1
970,530,3

building coordinate
-885,985
-1055,815
830,810
650,990
1060,-860
900,-860
-830,-770
-670,-930
-668,1070
-832,930
965,675
1135,525
832,-1059
688,-1211
-965,-1035
-775,-1165
-1135,365
-1025,535
907,591
1033,469

area numbers
16,14,23,25,22,

x , y , block , block number
area 1
410,456,0,0
1676,1721,1,0
205,210,0,0
358,1229,0,0
1734,1835,0,0
1035,1961,1,0
772,933,1,0
508,1771,1,0
67,150,0,0
303,629,0,0
991,1681,0,0
672,1537,0,0
729,1729,0,0
664,929,1,0
1324,1513,0,0
673,1687,0,0
area 2
1456,1031,0,0
1275,371,0,0
1232,643,1,0
1759,508,0,0
1991,828,0,0
588,556,0,0
1389,264,0,0
1007,34,0,0
1883,1589,0,0
1804,1475,0,0
1391,87,1,0
644,48,0,0
1783,1525,0,0
1185,354,0,0
area 3
-1318,1461,0,0
-80,1947,0,0
-332,1430,1,0
-1426,1219,0,0
-380,680,1,0
-78,900,0,0
-1918,750,0,0
-1258,6,0,0
-455,618,0,0
-846,346,1,0
-970,1803,0,0
-1593,1361,0,0
-1619,728,0,0
-1504,1824,1,0
-1281,1294,0,0
-127,480,0,0
-1273,1380,1,0
-487,1209,0,0
-449,493,1,0
-544,689,0,0
-842,545,0,0
-211,587,0,0
-1400,1281,0,0
area 4
-1500,-1055,0,0
-1724,-1737,1,0
-1124,-1768,1,0
-709,-1088,0,0
-744,-1652,1,0
-836,-1220,1,0
-1449,-555,0,0
-391,-308,0,0
-1217,-986,1,0
-1479,-1932,0,0
-976,-1974,0,0
-1053,-974,0,0
-1419,-97,0,0
-1558,-1051,0,0
-176,-913,1,0
-1295,-1662,0,0
-1999,-1968,0,0
-47,-919,1,0
-1164,-1254,0,0
-1039,-169,0,0
-1838,-1283,0,0
-389,-425,0,0
-606,-1852,0,0
-636,-111,1,0
-163,-1463,0,0
area 5
246,-1128,0,0
1362,-868,0,0
736,-1907,0,0
1420,-1069,0,0
74,-1571,0,0
1878,-1137,0,0
109,-1598,1,0
1062,-1244,0,0
1735,-1186,1,0
198,-775,0,0
981,-395,1,0
518,-358,0,0
1277,-271,1,0
409,-1803,0,0
438,-1220,0,0
354,-140,0,0
1188,-1931,1,0
1612,-405,1,0
1328,-1162,0,0
1514,-1698,0,0
1962,-1705,1,0
802,-522,0,0

near cbsd peopel number
2
3
6
4
5
6
2
5
3
7
