581.294922,581.294922,581.294922,581.294922,581.294922,581.294922,581.294922,581.294922,581.294922,581.294922,581.294922,581.294922,581.294922,581.294922,581.294922,581.294922,581.294922,581.294922,581.294922,581.294922,581.294922,581.294922,581.294922,581.294922,581.294922,581.294922,581.294922,581.294922,581.294922,581.294922,581.294922,581.294922,581.294922,581.294922,581.294922,581.294922,581.294922,581.294922,581.294922,581.294922,581.294922,581.294922,581.294922,581.294922,581.294922,581.294922,581.294922,581.294922,581.294922,581.294922,581.294922,581.294922,581.294922,581.294922,581.294922,581.294922,581.294922,581.294922,581.294922,581.294922,581.294922,581.294922,581.294922,581.294922,581.294922,581.294922,581.294922,581.294922,581.294922,581.294922,581.294922,581.294922,581.294922,581.294922,581.294922,581.294922,581.294922,581.294922,581.294922,581.294922,581.294922,581.294922,581.294922,581.294922,581.294922,581.294922,581.294922,581.294922,581.294922,581.294922,581.294922,581.294922,581.294922,581.294922,581.294922,581.294922,581.294922,581.294922,581.294922,581.294922,

avg. max avg. throughput in test times
581.295776
avg. BS TX power in all test times
MBS area 1,MBS area 2,MBS area 3,MBS area 4,MBS area 5,CBSD 1,CBSD 2,CBSD 3,CBSD 4,CBSD 5,
10.000,10.000,10.000,10.000,10.000,0.000,0.000,0.000,0.000,0.000,
avg. mbs all power,avg. cbsd enable number,avg. mbs area all power,avg. cbsd all power
50.000,0.000,50.000,0.000
avg. number of relay UE
0

BS TX power
MBS area 1,MBS area 2,MBS area 3,MBS area 4,MBS area 5,CBSD 1,CBSD 2,CBSD 3,CBSD 4,CBSD 5,
10.000,10.000,10.000,10.000,10.000,0.000,0.000,0.000,0.000,0.000,
max average power
544.470337

x,y,area,be blocked (1 : NLOS / 0 : LOS),be blocked number (>=1 : CBSD(x) / 0 : no),connect bs number (>=1 : CBSD / 0 : MBS),throughput (unit : M bps)
410,456,1,0,0,0,1027.512695
1456,1031,2,0,0,0,720.239319
-1318,1461,3,0,0,0,692.190430
-1500,-1055,4,0,0,0,712.352844
246,-1128,5,0,0,0,845.246033
1676,1721,1,1,0,0,2.005841
1275,371,2,0,0,0,805.010803
-80,1947,3,0,0,0,694.968384
-1724,-1737,4,1,0,0,1.897778
1362,-868,5,0,0,0,748.776245
205,210,1,0,0,0,1240.059570
1232,643,2,1,0,0,10.073002
-332,1430,3,1,0,0,8.589594
-1124,-1768,4,1,0,0,3.013366
736,-1907,5,0,0,0,681.286255
358,1229,1,0,0,0,815.550537
1759,508,2,0,0,0,712.816833
-1426,1219,3,0,0,0,705.842346
-709,-1088,4,0,0,0,811.415161
1420,-1069,5,0,0,0,721.311951
1734,1835,1,0,0,0,621.032532
1991,828,2,0,0,0,666.011230
-380,680,3,1,0,0,49.632145
-744,-1652,4,1,0,0,4.632854
74,-1571,5,0,0,0,756.398499
1035,1961,1,1,0,0,2.545778
588,556,2,0,0,0,947.562927
-78,900,3,0,0,0,915.864014
-836,-1220,4,1,0,0,8.406176
1878,-1137,5,0,0,0,660.883484
772,933,1,1,0,0,14.963937
1389,264,2,0,0,0,786.979370
-1918,750,3,0,0,0,679.150513
-1449,-555,4,0,0,0,760.273376
109,-1598,5,1,0,0,6.658245
508,1771,1,1,0,0,4.409156
1007,34,2,0,0,0,884.427429
-1258,6,3,0,0,0,820.550354
-391,-308,4,0,0,0,1087.674316
1062,-1244,5,0,0,0,745.142700
67,150,1,0,0,0,1407.447144
1883,1589,2,0,0,0,627.975403
-455,618,3,0,0,0,962.851257
-1217,-986,4,1,0,0,7.108996
1735,-1186,5,1,0,0,2.985438
303,629,1,0,0,0,990.108826
1804,1475,2,0,0,0,643.866882
-846,346,3,1,0,0,32.673862
-1479,-1932,4,0,0,0,631.552063
198,-775,5,0,0,0,950.912598
991,1681,1,0,0,0,694.568176
1391,87,2,1,0,0,9.989113
-970,1803,3,0,0,0,680.829590
-976,-1974,4,0,0,0,660.009094
981,-395,5,1,0,0,21.921654
672,1537,1,0,0,0,737.899902
644,48,2,0,0,0,1012.593750
-1593,1361,3,0,0,0,674.223145
-1053,-974,4,0,0,0,782.838379
518,-358,5,0,0,0,1019.878174
729,1729,1,0,0,0,705.783508
1783,1525,2,0,0,0,641.919434
-1619,728,3,0,0,0,721.675903
-1419,-97,4,0,0,0,785.268372
1277,-271,5,1,0,0,12.067421
664,929,1,1,0,0,17.677107
1185,354,2,0,0,0,825.453796
-1504,1824,3,1,0,0,2.103791
-1558,-1051,4,0,0,0,705.333496
409,-1803,5,0,0,0,710.026733
1324,1513,1,0,0,0,686.025391
-1281,1294,3,0,0,0,714.395874
-176,-913,4,1,0,0,31.202028
438,-1220,5,0,0,0,811.942932
673,1687,1,0,0,0,715.110596
-127,480,3,0,0,0,1088.383789
-1295,-1662,4,0,0,0,672.627136
354,-140,5,0,0,0,1165.006348
-1273,1380,3,1,0,0,4.170193
-1999,-1968,4,0,0,0,591.089905
1188,-1931,5,1,0,0,2.382997
-487,1209,3,0,0,0,810.360107
-47,-919,4,1,0,0,32.087406
1612,-405,5,1,0,0,5.972865
-449,493,3,1,0,0,72.647781
-1164,-1254,4,0,0,0,732.232178
1328,-1162,5,0,0,0,723.383057
-544,689,3,0,0,0,924.112976
-1039,-169,4,0,0,0,871.826843
1514,-1698,5,0,0,0,650.717957
-842,545,3,0,0,0,885.740234
-1838,-1283,4,0,0,0,654.945740
1962,-1705,5,1,0,0,1.585637
-211,587,3,0,0,0,1022.593323
-389,-425,4,0,0,0,1045.491211
802,-522,5,0,0,0,899.281128
-1400,1281,3,0,0,0,702.563782
-606,-1852,4,0,0,0,694.970886
-636,-111,4,1,0,0,78.345154
-163,-1463,4,0,0,0,775.394592
