each times' max average throughput
0.000000,0.000000,0.000000,0.000000,0.000000,0.000000,0.000000,0.000000,0.000000,0.000000,583.093628,617.867554,624.276428,615.663269,633.494446,632.898499,0.000000,599.687683,0.000000,0.000000,0.000000,0.000000,0.000000,0.000000,0.000000,622.062683,0.000000,0.000000,618.527527,0.000000,0.000000,0.000000,0.000000,0.000000,0.000000,0.000000,614.032043,610.919189,0.000000,0.000000,0.000000,0.000000,0.000000,0.000000,0.000000,628.944946,593.769775,0.000000,0.000000,0.000000,0.000000,579.721069,584.897034,629.173889,0.000000,0.000000,0.000000,0.000000,0.000000,0.000000,0.000000,0.000000,0.000000,0.000000,0.000000,0.000000,0.000000,0.000000,0.000000,0.000000,0.000000,0.000000,0.000000,0.000000,0.000000,0.000000,0.000000,0.000000,614.273987,590.403259,587.790405,0.000000,0.000000,0.000000,613.424316,0.000000,0.000000,0.000000,0.000000,0.000000,0.000000,0.000000,0.000000,0.000000,0.000000,0.000000,0.000000,0.000000,0.000000,605.758667,
avg. throughput in all test times
128.006805
avg. BS TX power in all test times
MBS area 1,MBS area 2,MBS area 3,MBS area 4,CBSD 1,CBSD 2,CBSD 3,CBSD 4,CBSD 5,CBSD 6,CBSD 7,CBSD 8,CBSD 9,CBSD 10,CBSD 11,CBSD 12,CBSD 13,CBSD 14,CBSD 15,CBSD 16,CBSD 17,CBSD 18,CBSD 19,CBSD 20,CBSD 21,CBSD 22,CBSD 23,CBSD 24,CBSD 25,CBSD 26,CBSD 27,CBSD 28,
7.012,7.400,7.762,7.950,0.065,0.204,0.054,0.006,0.320,0.005,0.000,0.186,0.286,0.090,0.257,0.034,0.114,0.025,0.134,0.285,0.023,0.064,0.034,0.075,0.256,0.074,0.090,0.275,0.000,0.176,0.210,0.180,
avg. mbs all power,avg. cbsd enable number,avg. mbs area all power,avg. cbsd all power
64.325,4.000,30.125,3.521
avg. max avg. throughput generation number in all test times
12.430000
avg. number of relay UE
239

the max average throughput times

BS TX power
MBS area 1,MBS area 2,MBS area 3,MBS area 4,CBSD 1,CBSD 2,CBSD 3,CBSD 4,CBSD 5,CBSD 6,CBSD 7,CBSD 8,CBSD 9,CBSD 10,CBSD 11,CBSD 12,CBSD 13,CBSD 14,CBSD 15,CBSD 16,CBSD 17,CBSD 18,CBSD 19,CBSD 20,CBSD 21,CBSD 22,CBSD 23,CBSD 24,CBSD 25,CBSD 26,CBSD 27,CBSD 28,
6.250,6.250,10.000,7.500,0.000,0.000,0.000,0.000,0.000,0.000,0.000,0.875,0.000,0.000,0.000,1.000,0.000,1.000,0.625,0.000,0.000,0.000,0.000,0.000,0.875,0.000,0.625,0.000,0.000,0.000,0.000,0.000,
max average throughput
605.758667

x,y,area,be blocked (1 : NLOS / 0 : LOS),be blocked number (>=1 : CBSD(x) / 0 : no),connect bs number (>=1 : CBSD / 0 : MBS),throughput (unit : M bps)
967,478,1,0,0,0,797.202698
-1620,1398,2,1,0,21,94.379333
-267,-1127,3,0,0,0,844.329651
1424,-1999,4,0,0,0,588.187317
796,1416,1,0,0,0,679.804321
-218,1657,2,0,0,0,671.670898
-1422,-1886,3,1,0,8,100.204926
1307,-524,4,0,0,0,746.848022
555,44,1,1,0,14,88.334244
-388,1929,2,0,0,0,625.097656
-1336,-941,3,1,0,8,141.921753
1806,-1823,4,0,0,0,575.564514
144,1821,1,0,0,0,646.282654
-1686,1043,2,0,0,0,622.949646
-1175,-1974,3,0,0,0,647.936462
634,-823,4,1,0,23,155.010147
877,315,1,0,0,0,839.277649
-636,609,2,0,0,0,855.570129
-446,-1594,3,0,0,0,741.732422
168,-171,4,0,0,0,1256.927490
1718,1555,1,0,0,0,578.641174
-1422,1335,2,0,0,0,627.593628
-483,-712,3,1,0,8,135.182846
81,-1387,4,1,0,23,114.029129
867,556,1,0,0,0,810.489624
-1688,642,2,1,0,12,97.824379
-80,-133,3,0,0,0,1423.846069
752,-1073,4,1,0,23,232.345734
432,1324,1,1,0,14,159.811783
-1751,1954,2,1,0,21,74.544853
-1615,-948,3,0,0,0,706.352234
977,-567,4,1,0,15,129.458588
1079,832,1,0,0,0,730.144836
-1661,450,2,0,0,0,663.315186
-1001,-1055,3,0,0,0,778.876831
363,-861,4,0,0,0,864.726990
1646,213,1,0,0,0,673.653748
-1962,927,2,0,0,0,597.264038
-1348,-230,3,0,0,0,796.564514
1855,-687,4,0,0,0,649.567017
978,539,1,0,0,0,787.253418
-76,782,2,0,0,0,888.384521
-740,-1088,3,1,0,8,225.987595
590,-137,4,0,0,0,989.604492
955,641,1,1,0,14,130.368347
-1685,141,2,1,0,12,127.743492
-1156,-382,3,1,0,12,251.323929
132,-799,4,0,0,0,905.919189
1001,447,1,0,0,0,792.556946
-273,1312,2,0,0,0,734.902283
-1523,-1531,3,0,0,0,665.587158
1093,-416,4,0,0,0,800.174988
1292,387,1,0,0,0,733.065063
-1910,314,2,1,0,12,105.364426
-1844,-1136,3,0,0,0,664.752075
452,-1954,4,0,0,0,645.632629
418,243,1,0,0,0,1028.281006
-1170,722,2,0,0,0,727.564697
-101,-1807,3,0,0,0,716.132629
1056,-1640,4,0,0,0,653.570740
1590,556,1,0,0,0,669.434387
-1565,1344,2,1,0,21,98.670952
-1181,-1557,3,1,0,8,134.637207
662,-1946,4,0,0,0,638.621033
272,1735,1,1,0,14,121.133186
-1319,438,2,0,0,0,724.457825
-676,-857,3,0,0,0,861.390198
879,-140,4,0,0,0,878.712585
1510,1734,1,0,0,0,580.839844
-195,812,2,1,0,21,142.870178
-1311,-1758,3,0,0,0,661.190491
1315,-1116,4,1,0,15,147.515549
846,276,1,0,0,0,852.537781
-1027,817,2,1,0,21,153.361969
-197,-1410,3,0,0,0,784.989075
823,-717,4,0,0,0,820.010376
630,1908,1,0,0,0,619.129822
-806,1450,2,0,0,0,673.786072
-977,-1403,3,0,0,0,732.451294
1584,-1678,4,0,0,0,605.698914
211,1530,1,0,0,0,694.236572
-329,435,2,0,0,0,993.551086
-1720,-735,3,1,0,12,125.633606
884,-792,4,0,0,0,795.928955
1204,1885,1,0,0,0,588.667725
-1564,78,2,0,0,0,690.287292
-986,-716,3,0,0,0,829.717896
1011,-1912,4,0,0,0,624.121277
1143,1558,1,0,0,0,630.257751
-1094,161,2,0,0,0,790.074463
-1851,-273,3,0,0,0,706.605530
1102,-806,4,0,0,0,755.711304
1469,194,1,0,0,0,706.106506
-573,298,2,0,0,0,944.831909
-654,-206,3,0,0,0,995.316040
1129,-1400,4,0,0,0,676.756226
303,1231,1,0,0,0,750.825562
-642,1836,2,0,0,0,628.391418
-1122,-1433,3,0,0,0,714.526733
1786,-497,4,0,0,0,668.093140
1390,898,1,0,0,0,674.495850
-1200,1186,2,0,0,0,668.964050
-1863,-67,3,1,0,12,123.384056
1841,-755,4,0,0,0,647.888367
1646,1334,1,1,0,14,113.013718
-330,483,2,0,0,0,973.366211
-128,-1354,3,1,0,8,112.746071
1200,-980,4,0,0,0,719.447388
1000,509,1,0,0,0,785.869019
-394,156,2,0,0,0,1066.308838
-102,-869,3,0,0,0,925.067871
68,-1898,4,1,0,23,90.150650
943,1767,1,1,0,14,141.516327
-931,1464,2,1,0,21,133.860168
-869,-1109,3,0,0,0,787.987305
1448,-116,4,1,0,15,82.977043
1642,1199,1,0,0,0,615.772705
-1985,665,2,0,0,0,607.466003
-1852,-1757,3,1,0,8,87.568855
513,-1098,4,0,0,0,789.931335
1966,640,1,0,0,0,611.002869
-1536,1428,2,1,0,21,98.169327
-218,-1110,3,0,0,0,851.114258
866,-594,4,0,0,0,831.125366
522,632,1,0,0,0,876.182434
-1340,1310,2,0,0,0,638.996948
-1728,-1981,3,1,0,8,85.155365
389,-1110,4,0,0,0,798.533020
587,1784,1,0,0,0,638.368164
-77,758,2,0,0,0,897.235596
-1044,-622,3,0,0,0,830.497803
601,-214,4,0,0,0,974.645569
1305,302,1,1,0,14,97.339867
-269,1057,2,1,0,21,156.844543
-115,-841,3,1,0,8,111.652267
1057,-1650,4,1,0,15,121.600960
504,153,1,0,0,0,1003.603821
-642,866,2,0,0,0,797.382446
-1496,-648,3,0,0,0,746.081909
1928,-668,4,0,0,0,640.720215
918,1885,1,0,0,0,607.029053
-541,269,2,0,0,0,964.050537
-1924,-1283,3,0,0,0,646.041565
952,-1638,4,0,0,0,661.889893
31,1655,1,0,0,0,674.418518
-592,1357,2,0,0,0,706.346985
-1868,-981,3,0,0,0,672.224976
632,-571,4,0,0,0,891.388123
1989,397,1,0,0,0,616.463684
-891,1328,2,0,0,0,684.274170
-1638,-592,3,0,0,0,727.128540
80,-624,4,1,0,23,100.555534
782,998,1,0,0,0,750.793579
-351,279,2,0,0,0,1050.025879
-457,-674,3,0,0,0,945.760498
1852,-1123,4,0,0,0,623.721130
1575,1698,1,0,0,0,578.791992
-1064,632,2,0,0,0,757.744263
-297,-290,3,0,0,0,1140.036865
1266,-455,4,0,0,0,759.950867
1181,72,1,0,0,0,770.638672
-122,109,2,0,0,0,1340.847534
-748,-132,3,0,0,0,965.822693
840,-346,4,1,0,15,106.902145
413,734,1,0,0,0,868.382751
-35,1551,2,1,0,21,108.541443
-796,-1129,3,0,0,0,793.654907
1385,-575,4,0,0,0,728.794006
454,206,1,0,0,0,1019.444397
-1975,936,2,0,0,0,595.230103
-697,-810,3,0,0,0,867.499084
1864,-95,4,0,0,0,666.164307
1914,894,1,0,0,0,604.889648
-221,319,2,1,0,0,162.084549
-793,-1492,3,0,0,0,735.827698
109,-1102,4,0,0,0,815.863159
1504,427,1,0,0,0,690.745239
-1272,1741,2,0,0,0,599.075928
-1514,-13,3,1,0,12,154.979218
926,-1569,4,1,0,23,135.585693
920,1273,1,1,0,14,245.746567
-348,667,2,0,0,0,900.877991
-1743,-432,3,1,0,12,137.773178
1645,-404,4,1,0,15,89.385162
1037,1543,1,0,0,0,641.267212
-145,514,2,1,0,21,120.990952
-325,-368,3,0,0,0,1091.625122
1839,-1833,4,0,0,0,572.231934
1204,1999,1,0,0,0,576.648621
-1434,1243,2,0,0,0,635.401917
-474,-1546,3,0,0,0,748.428711
1937,-1751,4,0,0,0,570.642334
112,595,1,0,0,0,963.449158
-1831,1929,2,1,0,21,72.777740
-1839,-1775,3,0,0,0,617.535889
1329,-203,4,0,0,0,760.135925
1150,1294,1,0,0,0,661.612732
-1318,1288,2,0,0,0,643.770630
-843,-1911,3,1,0,8,110.628571
1806,-1085,4,0,0,0,631.590088
412,106,1,1,0,0,136.488541
-617,1075,2,0,0,0,757.295532
-207,-1433,3,0,0,0,780.151489
925,-505,4,0,0,0,830.104675
368,446,1,1,0,14,106.157600
-1087,1858,2,1,0,21,98.921089
-997,-1548,3,1,0,8,145.439957
389,-1360,4,0,0,0,745.544617
225,1913,1,1,0,14,108.861816
-1129,1617,2,0,0,0,624.446655
-87,-38,3,0,0,0,1565.670898
1677,-411,4,0,0,0,688.421326
726,1939,1,0,0,0,610.603027
-1669,624,2,0,0,0,653.375977
-477,-569,3,1,0,8,123.455238
388,-128,4,0,0,0,1103.125732
1026,1224,1,0,0,0,684.644470
-1117,940,2,0,0,0,710.363342
-221,-56,3,0,0,0,1312.904663
1209,-1499,4,1,0,15,130.908157
244,1245,1,0,0,0,750.612366
-288,435,2,0,0,0,1006.360718
-1014,-410,3,0,0,0,860.803223
1423,-598,4,0,0,0,720.518188
1057,771,1,0,0,0,741.787354
-75,1257,2,0,0,0,752.757629
-756,-753,3,0,0,0,867.923584
35,-1724,4,0,0,0,688.798767
1244,1351,1,1,0,14,153.608261
-1967,418,2,1,0,12,98.421524
-608,-893,3,0,0,0,864.357117
619,-1040,4,0,0,0,790.324036
1482,61,1,0,0,0,705.816711
-288,875,2,1,0,21,158.790253
-758,-1180,3,1,0,8,222.634476
1125,-260,4,0,0,0,803.844360
1428,1657,1,0,0,0,594.989258
-967,850,2,1,0,21,164.824463
-28,-1936,3,1,0,8,87.312744
1175,-946,4,0,0,0,727.102844
393,1066,1,0,0,0,782.294617
-1562,1175,2,0,0,0,626.990234
-404,-902,3,0,0,0,889.976379
1614,-1885,4,0,0,0,585.057190
1141,396,1,1,0,14,106.808105
-1894,1093,2,0,0,0,595.077026
-179,-1624,3,0,0,0,745.462769
597,-1287,4,0,0,0,744.696960
1114,917,1,0,0,0,713.722717
-1416,1723,2,0,0,0,589.493958
-466,-826,3,0,0,0,901.860168
336,-48,4,0,0,0,1156.613281
1247,1287,1,1,0,14,154.565063
-1931,1457,2,0,0,0,566.472168
-1665,-289,3,0,0,0,735.785889
1480,-434,4,0,0,0,720.745300
829,32,1,0,0,0,872.720398
-995,1074,2,0,0,0,709.545166
-1898,-947,3,0,0,0,670.710510
274,-955,4,0,0,0,847.066895
820,23,1,1,0,14,88.709190
-956,821,2,0,0,0,752.549438
-1589,-671,3,0,0,0,729.912659
152,-570,4,0,0,0,997.212646
186,1538,1,0,0,0,693.362549
-1826,640,2,0,0,0,629.874390
-1270,-627,3,0,0,0,786.476440
1908,-391,4,0,0,0,653.998474
180,1941,1,0,0,0,627.759460
-1008,1997,2,0,0,0,588.632812
-1097,-1314,3,0,0,0,732.105225
753,-1354,4,0,0,0,719.451965
1061,1348,1,1,0,14,186.554367
-11,897,2,0,0,0,850.224060
-1457,-551,3,0,0,0,759.155640
1060,-1522,4,0,0,0,667.956604
790,1451,1,0,0,0,674.966370
-433,1938,2,0,0,0,622.483521
-1178,-1342,3,0,0,0,719.980530
1932,-1084,4,0,0,0,617.295898
982,751,1,0,0,0,758.043762
-1920,270,2,0,0,0,629.288635
-252,-485,3,0,0,0,1060.692017
831,-853,4,0,0,0,794.968201
152,425,1,0,0,0,1048.111938
-96,1957,2,0,0,0,626.298767
-391,-1953,3,0,0,0,688.706299
811,-1747,4,1,0,23,120.179977
1973,1491,1,1,0,14,91.485428
-1006,1678,2,0,0,0,626.720032
-359,-1840,3,0,0,0,706.044067
1364,-1990,4,0,0,0,593.055054
1826,1893,1,0,0,0,542.842896
-626,1694,2,1,0,21,118.561249
-1702,-1297,3,0,0,0,668.198792
275,-371,4,0,0,0,1067.802246
95,1017,1,0,0,0,812.882385
-1139,209,2,0,0,0,776.815369
-1717,-474,3,0,0,0,720.696167
1476,-1959,4,1,0,15,86.341759
1100,1443,1,0,0,0,648.199158
-1967,1556,2,0,0,0,556.257507
-878,-997,3,0,0,0,804.878235
396,-1888,4,1,0,23,102.903526
667,1321,1,0,0,0,706.476501
-1690,1503,2,1,0,21,88.466743
-1732,-515,3,1,0,12,136.107605
691,-1741,4,0,0,0,665.140991
496,995,1,1,0,14,156.478912
-386,115,2,1,0,0,151.430069
-398,-217,3,0,0,0,1114.637939
75,-1431,4,1,0,23,111.994911
862,1359,1,0,0,0,682.470642
-619,1304,2,0,0,0,713.606201
-1238,-176,3,1,0,12,230.258804
1947,-570,4,0,0,0,642.363342
1594,1465,1,1,0,14,115.134346
-469,1530,2,0,0,0,684.084534
-1789,-1671,3,1,0,8,92.912010
612,-1065,4,1,0,23,216.799606
1343,525,1,0,0,0,713.902405
-938,1628,2,0,0,0,638.246704
-1822,-1565,3,0,0,0,635.237000
35,-632,4,0,0,0,976.911316
295,809,1,0,0,0,861.997437
-1682,194,2,1,0,12,124.513412
-1705,-1632,3,0,0,0,640.226807
80,-1941,4,0,0,0,654.732605
1512,35,1,1,0,14,80.914070
-866,21,2,0,0,0,860.282227
-63,-944,3,1,0,8,109.831070
1736,-257,4,0,0,0,683.772461
1521,1620,1,0,0,0,590.522644
-702,1916,2,0,0,0,614.740967
-361,-47,3,0,0,0,1177.892456
153,-1830,4,0,0,0,670.799866
1218,1361,1,1,0,14,157.021179
-1508,544,2,1,0,12,108.075737
-1393,-864,3,1,0,12,133.709274
1356,-1202,4,0,0,0,674.611816
1368,1732,1,1,0,14,121.302803
-868,1486,2,0,0,0,663.305603
-1165,-675,3,0,0,0,801.025024
1827,-1140,4,1,0,15,94.882210
1625,1605,1,0,0,0,582.734375
-270,1351,2,0,0,0,726.965637
-1848,-319,3,0,0,0,705.946960
1969,-499,4,0,0,0,642.008118
692,1434,1,0,0,0,685.523621
-852,526,2,0,0,0,818.607788
-480,-1243,3,0,0,0,804.021057
534,-106,4,0,0,0,1020.351501
1505,195,1,1,0,14,87.250916
-417,1410,2,1,0,21,142.346771
-1925,-1730,3,1,0,8,85.203110
46,-1022,4,0,0,0,838.647217
1635,1980,1,0,0,0,549.608887
-1875,1351,2,0,0,0,579.400696
-1639,-895,3,1,0,12,120.202431
451,-1260,4,0,0,0,761.448120
1793,1001,1,1,0,14,101.113930
-1846,1334,2,1,0,21,84.304863
-248,-1325,3,1,0,8,123.376511
1020,-590,4,0,0,0,798.006470
39,965,1,1,0,21,120.808441
-71,564,2,0,0,0,981.621521
-1600,-50,3,0,0,0,751.327148
823,-1650,4,0,0,0,669.638184
1237,583,1,0,0,0,729.099243
-1188,1545,2,1,0,21,113.071991
-886,-1497,3,0,0,0,727.483582
1981,-705,4,0,0,0,632.151917
1198,826,1,0,0,0,711.294556
-1328,1543,2,1,0,21,105.512207
-29,-1690,3,0,0,0,735.725952
967,-946,4,1,0,15,212.299500
1505,1941,1,0,0,0,562.167908
-1441,1065,2,0,0,0,651.777283
-1315,-938,3,0,0,0,748.743225
68,-483,4,0,0,0,1052.034546
100,186,1,0,0,0,1267.199463
-1863,1730,2,1,0,21,76.326637
-1673,-1835,3,1,0,8,92.538719
457,-258,4,1,0,0,100.513176
1409,1955,1,0,0,0,567.547058
-615,1354,2,0,0,0,705.070374
-114,-1450,3,0,0,0,778.844788
761,-1215,4,1,0,23,245.690872
1883,608,1,0,0,0,623.497314
-251,617,2,0,0,0,935.940613
-546,-780,3,0,0,0,900.730530
1941,-1430,4,0,0,0,593.255493
460,929,1,0,0,0,808.629578
-549,1687,2,0,0,0,654.620544
-1407,-923,3,0,0,0,737.004639
1320,-1074,4,0,0,0,692.578308
765,1991,1,0,0,0,602.156738
-1996,107,2,0,0,0,620.614319
-652,-618,3,1,0,8,137.403076
558,-1426,4,0,0,0,722.803528
619,637,1,1,0,14,128.286911
-1303,597,2,0,0,0,715.639099
-568,-822,3,0,0,0,886.843872
524,-1420,4,0,0,0,726.133972
1982,859,1,0,0,0,598.553589
-1994,1762,2,1,0,21,71.263580
-401,-661,3,0,0,0,960.720764
1631,-745,4,1,0,15,103.848656
137,508,1,0,0,0,1003.911743
-951,223,2,0,0,0,825.729675
-114,-965,3,0,0,0,894.863037
90,-1959,4,0,0,0,652.039490
1582,1981,1,0,0,0,553.218750
-941,1119,2,0,0,0,709.937134
-1444,-1708,3,1,0,8,108.767921
1562,-1691,4,0,0,0,606.378967
44,911,1,1,0,21,120.063957
-1703,1185,2,1,0,21,93.431152
-109,-991,3,0,0,0,887.471802
640,-1498,4,1,0,23,155.031845
1615,1036,1,1,0,14,113.401619
-1782,810,2,0,0,0,626.574951
-812,-133,3,1,0,12,155.424377
1616,-493,4,0,0,0,694.637024
704,384,1,0,0,0,882.496399
-666,944,2,0,0,0,777.492798
-407,-584,3,1,0,8,120.436981
1362,-275,4,0,0,0,750.672302
1710,1685,1,0,0,0,568.622559
-1235,1797,2,0,0,0,595.893921
-1052,-390,3,0,0,0,853.474487
1303,-659,4,0,0,0,736.438049
188,127,1,1,0,0,350.937927
-978,1712,2,0,0,0,624.516174
-1333,-212,3,0,0,0,800.314819
1596,-252,4,0,0,0,707.416565
78,414,1,1,0,0,139.088348
-1500,1825,2,0,0,0,573.181335
-139,-630,3,0,0,0,1012.877136
1561,-1612,4,0,0,0,613.645081
109,1913,1,0,0,0,632.657227
-1832,839,2,0,0,0,618.329163
-1412,-864,3,1,0,12,133.035980
1263,-955,4,0,0,0,713.211426
795,327,1,0,0,0,862.493408
-1581,1861,2,0,0,0,563.808838
-992,-1503,3,0,0,0,717.555603
1905,-1652,4,0,0,0,580.529724
1736,1594,1,1,0,14,102.910324
-673,898,2,0,0,0,785.840210
-138,-1676,3,1,0,8,102.093842
990,-800,4,1,0,15,166.497772
1748,25,1,1,0,14,75.346611
-460,306,2,1,0,21,119.809395
-1079,-24,3,0,0,0,864.640503
1460,-1642,4,0,0,0,619.632019
1615,442,1,0,0,0,671.138977
-1528,678,2,0,0,0,671.604675
-100,-1263,3,0,0,0,818.514343
1114,-764,4,0,0,0,758.773438
132,955,1,0,0,0,829.498596
-577,138,2,0,0,0,969.304016
-642,-1526,3,0,0,0,741.675476
1951,-1934,4,0,0,0,556.285828
745,378,1,1,0,14,109.347786
-516,269,2,0,0,0,974.878479
-156,-18,3,1,0,0,567.581360
700,-1477,4,0,0,0,704.119873
1706,1670,1,0,0,0,570.202332
-39,415,2,1,0,0,141.952408
-571,-1804,3,0,0,0,703.381165
732,-1842,4,0,0,0,648.992554
1897,785,1,1,0,14,91.579445
-78,1685,2,0,0,0,669.028564
-1487,-804,3,0,0,0,735.693481
1713,-601,4,1,0,15,93.612579
1856,400,1,0,0,0,635.270020
-941,115,2,1,0,12,146.158203
-917,-1132,3,1,0,8,278.740967
811,-750,4,0,0,0,816.575867
879,563,1,0,0,0,806.641418
-972,66,2,0,0,0,826.483765
-1888,-211,3,0,0,0,702.241882
1543,-867,4,0,0,0,681.341797
351,550,1,0,0,0,941.902832
-1643,1499,2,1,0,21,90.784050
-1147,-249,3,1,0,12,266.254272
710,-1782,4,0,0,0,658.343140
24,1211,1,0,0,0,763.912476
-1762,393,2,0,0,0,649.642944
-854,-619,3,0,0,0,871.257202
1816,-1121,4,0,0,0,627.927063
1518,87,1,0,0,0,698.717529
-635,1376,2,0,0,0,699.667297
-429,-1610,3,0,0,0,739.840027
31,-1079,4,0,0,0,823.209167
1694,1582,1,0,0,0,578.567017
-1585,230,2,0,0,0,683.846619
-147,-1991,3,0,0,0,688.037354
1998,-1869,4,0,0,0,557.442993
272,414,1,0,0,0,1021.296021
-821,458,2,1,0,21,135.035355
-332,-278,3,0,0,0,1127.846069
413,-988,4,0,0,0,825.509399
295,231,1,0,0,0,1101.805664
-1657,626,2,0,0,0,655.067871
-668,-286,3,1,0,12,140.847824
1163,-1416,4,1,0,15,143.994141
1089,1481,1,0,0,0,644.477417
-779,672,2,0,0,0,810.815125
-217,-317,3,1,0,0,214.518127
980,-1066,4,1,0,15,274.797852
173,1229,1,0,0,0,756.917358
-999,911,2,0,0,0,732.366150
-970,-1203,3,0,0,0,761.441528
354,-566,4,0,0,0,961.565125
195,872,1,0,0,0,851.358643
-147,999,2,0,0,0,816.186157
-203,-998,3,0,0,0,881.340210
816,-1497,4,0,0,0,692.036377
1076,1011,1,0,0,0,707.134094
-358,928,2,1,0,21,173.955978
-1082,-352,3,1,0,12,230.623032
700,-1485,4,1,0,23,158.491043
654,179,1,1,0,14,96.237595
-1988,312,2,1,0,12,101.597481
-1516,-1685,3,1,0,8,106.201324
1505,-1970,4,0,0,0,585.340576
664,1191,1,0,0,0,729.920227
-1075,1289,2,0,0,0,670.449707
-957,-67,3,0,0,0,898.551636
779,-464,4,0,0,0,873.380798
1383,1254,1,0,0,0,640.076538
-583,1890,2,0,0,0,623.619568
-1239,-1370,3,0,0,0,710.281067
702,-1345,4,0,0,0,725.456604
783,449,1,0,0,0,848.454407
-1186,1957,2,1,0,21,91.114624
-1093,-739,3,1,0,8,151.305511
1195,-1625,4,1,0,15,119.286064
386,473,1,0,0,0,961.049561
-1705,1107,2,0,0,0,615.817200
-405,-1026,3,0,0,0,858.369385
766,-108,4,0,0,0,919.110535
602,557,1,0,0,0,876.022888
-1684,1422,2,0,0,0,592.837158
-342,-1230,3,0,0,0,816.319275
333,-1572,4,1,0,23,125.153801
1918,87,1,0,0,0,632.082336
-736,1965,2,0,0,0,606.803589
-507,-1687,3,0,0,0,723.881531
1469,-1147,4,0,0,0,666.572815
116,994,1,0,0,0,818.763855
-859,1289,2,0,0,0,693.400513
-252,-1717,3,0,0,0,728.168030
743,-1919,4,0,0,0,638.303040
317,1456,1,0,0,0,704.496399
-1170,895,2,1,0,21,137.654053
-1518,-251,3,1,0,12,172.643646
359,-536,4,0,0,0,971.431641
241,1990,1,1,0,14,105.562630
-1947,1772,2,0,0,0,542.577026
-412,-293,3,0,0,0,1083.177612
564,-303,4,0,0,0,973.619873
696,198,1,0,0,0,912.083557
-254,726,2,0,0,0,894.508728
-722,-1719,3,0,0,0,707.610535
1625,-1290,4,0,0,0,635.962463
1001,1813,1,0,0,0,610.531067
-1800,1811,2,0,0,0,551.199097
-1587,-1124,3,1,0,8,118.299774
887,-1436,4,0,0,0,694.920105
227,1366,1,1,0,14,132.955582
-705,1339,2,0,0,0,700.082703
-1753,-770,3,0,0,0,700.004700
73,-1303,4,0,0,0,768.669067
1857,992,1,0,0,0,605.851685
-482,1313,2,0,0,0,722.637573
-1828,-68,3,0,0,0,713.070984
1962,-1747,4,0,0,0,568.920288
584,1192,1,0,0,0,737.639465
-952,1705,2,0,0,0,627.256348
-820,-251,3,0,0,0,930.857849
1944,-166,4,1,0,15,69.944244
1634,1369,1,0,0,0,602.318665
-1946,1906,2,1,0,21,69.868210
-1470,-1174,3,0,0,0,705.041443
970,-1351,4,0,0,0,699.139465
1569,286,1,0,0,0,685.054016
-1734,649,2,0,0,0,642.437988
-1320,-626,3,1,0,12,167.791504
1368,-38,4,0,0,0,755.033630
1526,1637,1,0,0,0,588.508728
-858,345,2,0,0,0,841.475098
-787,-1400,3,0,0,0,750.385742
1247,-1302,4,0,0,0,676.069702
1797,199,1,0,0,0,649.218384
-1526,938,2,0,0,0,651.874573
-592,-535,3,0,0,0,951.621521
1493,-480,4,1,0,15,100.314957
1407,1769,1,0,0,0,585.689819
-1557,697,2,0,0,0,665.813965
-1113,-1769,3,0,0,0,674.935974
1167,-909,4,0,0,0,732.715210
1153,1147,1,0,0,0,679.460999
-1867,751,2,0,0,0,618.696167
-1118,-589,3,0,0,0,819.261963
1843,-802,4,0,0,0,645.015808
1226,1899,1,0,0,0,585.682312
-298,495,2,0,0,0,976.930542
-1093,-59,3,1,0,12,185.251831
393,-191,4,0,0,0,1083.753784
452,1070,1,0,0,0,775.939697
-836,574,2,0,0,0,814.955994
-781,-1860,3,0,0,0,685.058533
855,-1426,4,0,0,0,699.222473
1219,41,1,1,0,14,86.499313
-257,674,2,0,0,0,912.992493
-1791,-1962,3,0,0,0,606.552734
1624,-1906,4,0,0,0,582.502808
687,1924,1,0,0,0,614.403687
-1895,308,2,0,0,0,632.097900
-1878,-1492,3,0,0,0,635.632019
434,-1711,4,0,0,0,682.104431
936,1523,1,0,0,0,652.449097
-224,998,2,0,0,0,812.487915
-1153,-1005,3,0,0,0,764.397644
449,-1071,4,0,0,0,802.192139
1889,1986,1,0,0,0,531.230957
-355,1537,2,0,0,0,688.190125
-905,-703,3,0,0,0,847.384338
600,-1792,4,0,0,0,662.611389
60,1675,1,0,0,0,670.852112
-1805,1480,2,0,0,0,576.575500
-483,-1316,3,0,0,0,789.434387
1725,-1528,4,1,0,15,93.969582
731,876,1,0,0,0,781.083496
-1608,1442,2,0,0,0,598.588989
-407,-1110,3,0,0,0,838.412476
1013,-623,4,0,0,0,795.360962
1440,765,1,0,0,0,678.716553
-1444,1843,2,0,0,0,575.711304
-829,-28,3,0,0,0,940.450195
535,-852,4,0,0,0,843.465149
1731,1626,1,1,0,14,102.474304
-441,1406,2,0,0,0,707.698853
-1288,-523,3,0,0,0,791.843201
1692,-337,4,1,0,15,84.649223
195,1869,1,0,0,0,638.208130
-1939,1954,2,0,0,0,530.013550
-1893,-1962,3,1,0,8,80.117920
929,-1310,4,0,0,0,709.159485
1310,1076,1,0,0,0,667.601257
-928,3,2,1,0,12,157.746109
-1214,-1520,3,0,0,0,695.459595
497,-461,4,0,0,0,957.153381
532,939,1,0,0,0,797.058044
-1291,715,2,0,0,0,707.264893
-8,-1628,3,0,0,0,746.485657
1692,-769,4,0,0,0,667.370850
1866,732,1,0,0,0,619.821777
-1592,1109,2,0,0,0,629.097717
-491,-919,3,0,0,0,874.771484
1063,-1189,4,1,0,15,198.809814
1436,1191,1,1,0,14,131.309402
-1057,770,2,0,0,0,741.916382
-718,-950,3,1,0,8,194.772171
624,-85,4,0,0,0,978.374512
1759,149,1,0,0,0,656.037476
-1905,948,2,0,0,0,602.832031
-38,-238,3,0,0,0,1296.869995
980,-299,4,0,0,0,838.208069
1580,1537,1,0,0,0,592.813232
-405,1770,2,1,0,21,109.441277
-868,-759,3,0,0,0,845.612976
1046,-41,4,0,0,0,832.040405
281,183,1,1,0,0,207.619217
-1667,1623,2,1,0,21,86.469841
-1624,-434,3,0,0,0,737.300903
1098,-1932,4,0,0,0,616.413208
1447,333,1,0,0,0,705.514099
-228,830,2,0,0,0,862.118042
-753,-779,3,0,0,0,863.528931
1558,-1381,4,0,0,0,634.979126
1259,1003,1,0,0,0,682.406372
-1270,807,2,0,0,0,701.704468
-1535,-7,3,1,0,12,152.125977
1774,-1737,4,0,0,0,584.918701
539,160,1,0,0,0,984.785095
-641,1536,2,0,0,0,672.852356
-288,-1562,3,0,0,0,753.568054
1596,-217,4,0,0,0,708.319702
414,1760,1,1,0,14,128.470459
-1166,1108,2,0,0,0,682.620117
-1729,-1655,3,0,0,0,636.239868
1429,-1320,4,0,0,0,654.333923
1041,823,1,0,0,0,737.713501
-150,1073,2,0,0,0,795.941833
-1593,-1190,3,0,0,0,689.188293
385,-1926,4,0,0,0,651.597839
573,815,1,0,0,0,820.052795
-126,1010,2,0,0,0,813.896790
-432,-43,3,1,0,0,175.363144
366,-548,4,0,0,0,965.302795
55,266,1,0,0,0,1194.580444
-848,798,2,0,0,0,775.228088
-1837,-176,3,0,0,0,710.553284
394,-4,4,0,0,0,1113.582520
153,1984,1,0,0,0,621.895386
-1682,1227,2,0,0,0,609.024902
-1943,-1489,3,0,0,0,629.822876
180,-1334,4,0,0,0,759.778442
1758,1686,1,0,0,0,564.515198
-1541,967,2,1,0,21,104.827477
-1465,-1730,3,0,0,0,651.721619
1772,-662,4,0,0,0,662.332947
421,833,1,0,0,0,838.818542
-1333,1068,2,0,0,0,665.448608
-1451,-1107,3,0,0,0,713.729797
1662,-1449,4,0,0,0,618.631165
95,1705,1,1,0,14,111.274879
-884,1596,2,0,0,0,646.629395
-1216,-700,3,0,0,0,789.177979
1623,-1058,4,0,0,0,655.505920
825,136,1,0,0,0,870.468079
-1583,1244,2,0,0,0,618.564880
-178,-901,3,0,0,0,911.108032
1537,-948,4,0,0,0,675.593079
470,25,1,0,0,0,1036.038940
-1817,259,2,0,0,0,644.930115
-1199,-366,3,1,0,12,273.124084
122,-1333,4,0,0,0,761.386047
154,656,1,1,0,14,108.262283
-155,946,2,0,0,0,831.133667
-556,-1907,3,1,0,8,106.598907
1057,-1621,4,0,0,0,655.833374
1331,936,1,1,0,14,133.049622
-755,1415,2,1,0,21,147.949509
-718,-429,3,0,0,0,938.053894
466,-1231,4,0,0,0,766.213623
89,660,1,0,0,0,935.995544
-1962,433,2,0,0,0,619.145081
-258,-819,3,0,0,0,930.481567
577,-910,4,0,0,0,823.724976
394,121,1,1,0,0,145.023056
-1976,557,2,0,0,0,613.010559
-1506,-422,3,0,0,0,757.996887
1119,-1733,4,1,0,15,112.124886
946,800,1,1,0,14,148.398499
-525,512,2,0,0,0,908.243774
-4,-408,3,0,0,0,1145.000000
1492,-756,4,1,0,15,115.038925
1619,1414,1,0,0,0,599.949280
-316,1615,2,0,0,0,676.092529
-1756,-1553,3,0,0,0,642.162415
1616,-660,4,1,0,15,101.708908
1687,807,1,0,0,0,639.585938
-1396,1090,2,0,0,0,655.095398
-1369,-765,3,0,0,0,757.220642
1860,-1602,4,0,0,0,588.135010
523,363,1,0,0,0,948.978455
-1885,864,2,1,0,21,84.635887
-1875,-1988,3,1,0,8,79.968689
1156,-1725,4,0,0,0,635.723145
804,151,1,0,0,0,876.759949
-534,56,2,0,0,0,998.065918
-1653,-1347,3,0,0,0,669.206726
1709,-1993,4,1,0,15,77.482147
1074,113,1,0,0,0,796.873291
-1263,152,2,1,0,12,150.540787
-1904,-1746,3,0,0,0,614.494080
710,-44,4,0,0,0,943.264587
715,1069,1,0,0,0,746.706116
-1696,333,2,1,0,12,114.963905
-941,-1206,3,0,0,0,764.367920
1147,-1727,4,0,0,0,636.180298
1471,611,1,0,0,0,685.414062
-330,1123,2,0,0,0,773.740234
-657,-507,3,1,0,12,135.310715
1967,-1869,4,1,0,15,72.649940
622,837,1,1,0,14,149.695160
-660,1100,2,0,0,0,747.435486
-894,-29,3,0,0,0,918.717102
1874,-660,4,0,0,0,648.315369
1482,1314,1,0,0,0,623.222473
-455,1863,2,0,0,0,632.411194
-598,-506,3,1,0,12,129.613556
227,-445,4,0,0,0,1045.147217
613,1526,1,0,0,0,676.284607
-586,957,2,0,0,0,785.850342
-1044,-551,3,0,0,0,838.846558
611,-287,4,0,0,0,958.362244
720,1501,1,0,0,0,672.789307
-954,1222,2,0,0,0,693.162231
-28,-1841,3,1,0,8,90.720360
1479,-1,4,0,0,0,732.763062
367,1766,1,0,0,0,649.890564
-1552,1349,2,1,0,21,99.309555
-1714,-199,3,0,0,0,729.804871
1809,-1845,4,0,0,0,573.609558
1305,1413,1,0,0,0,631.569275
-1143,179,2,0,0,0,777.084839
-1388,-160,3,0,0,0,790.388123
1733,-917,4,0,0,0,652.098694
1316,1281,1,1,0,14,145.199646
-120,1109,2,0,0,0,787.567627
-491,-607,3,0,0,0,957.902283
1284,-1954,4,0,0,0,601.958618
759,939,1,0,0,0,764.824829
-494,1123,2,0,0,0,760.235291
-305,-1266,3,0,0,0,810.619934
574,-1199,4,0,0,0,763.378601
1411,1400,1,1,0,14,132.413300
-1384,1697,2,1,0,21,96.149902
-1278,-920,3,0,0,0,756.041016
1573,-1596,4,1,0,15,100.190933
1029,974,1,0,0,0,718.933899
-1714,1157,2,0,0,0,610.946960
-1877,-28,3,0,0,0,705.660522
1608,-597,4,0,0,0,690.313721
1018,246,1,0,0,0,805.690735
-215,1611,2,0,0,0,679.648865
-510,-1981,3,0,0,0,681.077026
1800,-1168,4,0,0,0,626.380615
340,537,1,1,0,14,110.524780
-548,1763,2,0,0,0,643.250854
-143,-1424,3,0,0,0,783.486389
1939,-1415,4,0,0,0,594.492065
1065,1505,1,0,0,0,643.637146
-1731,688,2,0,0,0,640.711914
-1696,-1615,3,0,0,0,642.440491
896,-539,4,0,0,0,832.363831
1082,402,1,0,0,0,777.747314
-339,651,2,0,0,0,907.988770
-1135,-569,3,1,0,12,182.189316
522,-1418,4,0,0,0,726.620911
285,1777,1,0,0,0,650.527466
-172,484,2,0,0,0,1010.840515
-1153,-483,3,0,0,0,822.370056
541,-111,4,0,0,0,1016.223389
604,1613,1,1,0,14,156.070709
-1918,1259,2,0,0,0,581.459167
-1842,-1434,3,1,0,8,96.048485
380,-1806,4,0,0,0,669.377686
462,945,1,0,0,0,804.434387
-167,693,2,0,0,0,916.405701
-1087,-1311,3,0,0,0,733.566528
1415,-400,4,0,0,0,734.425415
264,742,1,0,0,0,887.695923
-955,1315,2,0,0,0,679.664673
-465,-749,3,0,0,0,922.890381
727,-1948,4,0,0,0,635.350647
1199,1390,1,0,0,0,644.882263
-1419,445,2,0,0,0,705.067383
-1115,-1722,3,0,0,0,680.257690
313,-1226,4,0,0,0,777.545227
1801,807,1,0,0,0,624.244568
-1665,1148,2,0,0,0,617.282410
-313,-523,3,0,0,0,1029.262817
254,-443,4,0,0,0,1038.812256
67,662,1,0,0,0,936.251587
-693,1172,2,0,0,0,730.348328
-1524,-1454,3,0,0,0,672.710266
898,-1564,4,0,0,0,675.969238
518,1775,1,0,0,0,642.813232
-1921,136,2,0,0,0,631.217712
-236,-829,3,0,0,0,929.389160
221,-1651,4,0,0,0,698.698425
174,591,1,0,0,0,958.432556
-366,471,2,0,0,0,967.747009
-656,-1524,3,1,0,8,144.194168
685,-1567,4,0,0,0,691.160706
948,479,1,0,0,0,801.646301
-1068,343,2,0,0,0,785.961365
-338,-639,3,0,0,0,980.084106
635,-1766,4,1,0,23,118.930023
1053,1142,1,0,0,0,692.593384
-1536,997,2,1,0,21,105.170502
-1663,-1500,3,1,0,8,105.030563
199,-798,4,0,0,0,901.470154
613,369,1,0,0,0,915.335022
-1722,812,2,0,0,0,634.485962
-207,-1023,3,0,0,0,874.277161
1227,-1856,4,0,0,0,616.066833
759,1302,1,0,0,0,701.254028
-1541,1826,2,0,0,0,569.963684
-911,-1181,3,0,0,0,771.618347
1067,-828,4,1,0,15,166.392624
1516,657,1,0,0,0,674.945251
-746,1709,2,0,0,0,640.404358
-1406,-1547,3,0,0,0,674.873474
1924,-1418,4,1,0,15,85.467751
1224,449,1,0,0,0,742.788940
-698,1931,2,0,0,0,612.972290
-1562,-1563,3,0,0,0,659.024353
941,-11,4,1,0,14,86.788826
1378,1513,1,1,0,14,131.773315
-1384,1913,2,1,0,21,87.283035
-384,-146,3,0,0,0,1143.027832
880,-142,4,0,0,0,878.291321
1599,794,1,0,0,0,652.824158
-294,878,2,0,0,0,841.117004
-834,-878,3,0,0,0,831.512390
340,-1528,4,0,0,0,716.494995
345,88,1,0,0,0,1116.518677
-1138,342,2,0,0,0,769.406799
-715,-1797,3,0,0,0,697.124207
1222,-912,4,0,0,0,724.019531
1323,384,1,0,0,0,726.989563
-1730,1437,2,1,0,21,88.020958
-1384,-466,3,0,0,0,777.687561
1033,-829,4,0,0,0,764.417542
543,1599,1,0,0,0,668.710510
-527,479,2,0,0,0,916.680420
-1603,-1074,3,0,0,0,697.789734
347,-1254,4,1,0,23,151.105408
1061,209,1,1,0,14,97.105911
-1068,479,2,0,0,0,773.736450
-689,-1301,3,0,0,0,775.369080
1449,-1465,4,1,0,15,115.279274
1987,1596,1,0,0,0,551.726624
-1967,1042,2,0,0,0,590.034729
-700,-1750,3,0,0,0,704.503479
1704,-1812,4,0,0,0,584.397217
353,190,1,0,0,0,1082.310547
-1567,1814,2,0,0,0,569.046509
-217,-158,3,1,0,0,346.402527
7,-1573,4,0,0,0,715.098755
444,960,1,0,0,0,802.849792
-1230,709,2,0,0,0,718.359497
-85,-1165,3,0,0,0,841.880676
1491,-1613,4,0,0,0,619.718018
487,410,1,0,0,0,948.988831
-1065,1913,2,0,0,0,594.723938
-1671,-843,3,0,0,0,706.517273
832,-1976,4,1,0,23,100.029602
444,1492,1,1,0,14,152.210449
-401,261,2,0,0,0,1031.303955
-1476,-786,3,1,0,12,137.763168
1838,-1819,4,1,0,15,78.954407
1446,378,1,0,0,0,703.636475
-639,749,2,0,0,0,823.458252
-726,-1606,3,0,0,0,723.729492
466,-13,4,0,0,0,1065.083984
258,740,1,0,0,0,889.117737
-370,82,2,0,0,0,1098.517578
-1701,-1174,3,0,0,0,678.127869
773,-815,4,0,0,0,811.763855
843,541,1,0,0,0,818.500183
-1136,1389,2,0,0,0,651.372925
-65,-1710,3,0,0,0,732.187317
1901,-1881,4,1,0,15,74.673927
523,935,1,0,0,0,799.169983
-1651,1969,2,1,0,21,77.117165
-1318,-1140,3,0,0,0,726.976685
12,-833,4,0,0,0,897.765503
276,875,1,0,0,0,843.744873
-1571,1662,2,0,0,0,582.364380
-1280,-1264,3,0,0,0,717.864197
1446,-684,4,0,0,0,710.294678
603,350,1,0,0,0,922.788879
-954,1225,2,1,0,21,156.563232
-1255,-336,3,0,0,0,811.287842
854,-522,4,0,0,0,844.940491
1018,1396,1,0,0,0,662.175903
-414,995,2,0,0,0,797.468750
-425,-1303,3,0,0,0,795.918335
377,-669,4,0,0,0,921.227295
1769,1319,1,1,0,14,104.547508
-1944,1201,2,0,0,0,582.601379
-1168,-1861,3,0,0,0,660.649719
1067,-1910,4,0,0,0,620.851074
1537,589,1,0,0,0,676.028748
-1656,876,2,0,0,0,639.077576
-1258,-1120,3,0,0,0,736.732056
1690,-1214,4,0,0,0,635.131348
87,1037,1,1,0,14,118.100540
-537,11,2,0,0,0,997.966919
-1045,-1427,3,0,0,0,722.716125
1124,-113,4,1,0,15,89.243896
659,1351,1,0,0,0,701.999939
-892,1158,2,0,0,0,710.005066
-1354,-243,3,0,0,0,794.856689
373,-659,4,0,0,0,925.259399
115,764,1,1,0,21,111.908188
-1858,1914,2,0,0,0,538.870911
-810,-463,3,0,0,0,906.573364
1418,-1532,4,1,0,15,113.478600
1505,1227,1,0,0,0,628.863037
-601,1008,2,0,0,0,772.983704
-639,-615,3,1,0,8,136.435654
1740,-932,4,0,0,0,650.180054
1895,998,1,0,0,0,600.983704
-891,1592,2,0,0,0,646.643433
-231,-1323,3,0,0,0,801.753113
152,-172,4,0,0,0,1269.446655
1073,458,1,0,0,0,774.679932
-1869,251,2,0,0,0,637.203552
-180,-1523,3,1,0,8,110.790352
1795,-1893,4,0,0,0,570.901855
765,845,1,1,0,14,156.745728
-132,745,2,1,0,21,132.840210
-552,-977,3,0,0,0,853.425415
484,-1271,4,1,0,23,176.930801
58,923,1,0,0,0,841.457642
-1522,1444,2,1,0,21,98.482887
-432,-1138,3,0,0,0,830.026611
1392,-559,4,0,0,0,728.711426
693,251,1,0,0,0,906.783630
-1613,937,2,0,0,0,640.300476
-467,-1943,3,0,0,0,687.762939
1319,-1054,4,0,0,0,694.829102
1201,76,1,0,0,0,765.775574
-1640,348,2,1,0,12,116.606430
-1673,-52,3,0,0,0,738.529236
605,-807,4,0,0,0,842.735352
1685,347,1,1,0,14,87.635254
-946,1178,2,1,0,21,162.380249
-197,-521,3,0,0,0,1055.236206
712,-1012,4,1,0,23,208.118423
1555,1693,1,0,0,0,580.909058
-1452,1539,2,0,0,0,604.438293
-1553,-620,3,0,0,0,738.807129
219,-338,4,0,0,0,1107.264526
1412,539,1,1,0,14,106.001869
-238,1055,2,0,0,0,796.451965
-1789,-619,3,0,0,0,703.252380
1774,-1221,4,0,0,0,625.342285
1326,92,1,1,0,14,86.953308
-833,1092,2,0,0,0,727.855530
-1665,-1172,3,0,0,0,682.404114
668,-1486,4,1,0,23,157.993744
418,1798,1,0,0,0,643.290161
-1797,1396,2,0,0,0,583.787598
-328,-1116,3,1,0,8,135.848892
495,-1901,4,0,0,0,651.556213
1197,1805,1,0,0,0,597.805786
-983,1440,2,1,0,21,132.943344
-627,-1751,3,0,0,0,708.317444
252,-1353,4,0,0,0,753.414795
998,1681,1,0,0,0,626.941650
-1725,1500,2,1,0,21,86.925690
-1728,-78,3,0,0,0,729.100220
1524,-1613,4,0,0,0,616.813599
1604,963,1,0,0,0,639.465210
-1491,75,2,1,0,12,148.059921
-48,-969,3,1,0,8,109.048386
1084,-1456,4,0,0,0,674.114197
1924,990,1,0,0,0,598.077148
-615,1944,2,1,0,21,99.938713
-1240,-1079,3,1,0,8,159.860199
1265,-55,4,0,0,0,777.347473
869,1114,1,0,0,0,719.746948
-1802,721,2,1,0,12,91.055267
-1014,-1882,3,0,0,0,668.476379
968,-291,4,0,0,0,842.110107
396,1669,1,0,0,0,664.236450
-1123,1051,2,1,0,21,143.750381
-1067,-1610,3,0,0,0,697.501343
868,-556,4,0,0,0,836.470642
760,1829,1,0,0,0,623.225220
-1782,93,2,0,0,0,652.961548
-418,-1410,3,0,0,0,775.667542
688,-851,4,0,0,0,819.272827
1822,478,1,1,0,14,86.969696
-1964,1059,2,1,0,21,81.077858
-1907,-482,3,1,0,12,120.999840
223,-1767,4,0,0,0,679.551392
534,676,1,0,0,0,861.875854
-1263,598,2,0,0,0,722.895630
-168,-1089,3,0,0,0,858.671997
405,-1542,4,0,0,0,711.248718
806,1484,1,0,0,0,668.698486
-71,211,2,0,0,0,1251.969971
-600,-1418,3,0,0,0,762.490234
633,-1924,4,0,0,0,642.822754
414,1074,1,0,0,0,778.553406
-1276,430,2,0,0,0,733.535339
-350,-1690,3,1,0,8,112.573624
981,-12,4,0,0,0,850.697205
1950,183,1,1,0,14,74.710030
-730,649,2,1,0,21,165.211670
-804,-978,3,1,0,8,222.142609
777,-1144,4,0,0,0,752.031433
1371,701,1,0,0,0,695.101868
-730,1441,2,0,0,0,681.400330
-646,-1705,3,1,0,8,124.939751
1983,-1313,4,0,0,0,597.119873
198,1830,1,0,0,0,644.105591
-336,1240,2,0,0,0,747.009277
-1764,-1931,3,0,0,0,610.985168
606,-1389,4,1,0,23,175.719208
1588,982,1,0,0,0,640.041260
-199,178,2,1,0,0,288.236084
-154,-657,3,1,0,8,108.337921
1423,-201,4,0,0,0,741.000488
398,1964,1,0,0,0,619.895569
-1588,1338,2,1,0,21,97.482964
-166,-61,3,0,0,0,1386.175537
1098,-1260,4,0,0,0,697.743958
550,1278,1,1,0,14,183.523056
-206,845,2,0,0,0,859.123962
-1775,-1901,3,0,0,0,612.574829
1539,-1785,4,0,0,0,599.691589
834,1882,1,0,0,0,612.248352
-50,1750,2,0,0,0,658.406128
-1956,-965,3,1,0,12,101.037430
784,-1572,4,0,0,0,683.489563
1099,632,1,0,0,0,750.820801
-283,1591,2,0,0,0,681.291565
-372,-1188,3,0,0,0,823.568359
630,-694,4,0,0,0,863.832031
1490,1671,1,0,0,0,588.398621
-1674,1042,2,1,0,21,96.162270
-360,-1519,3,1,0,8,123.508972
1534,-456,4,0,0,0,710.164856
176,91,1,0,0,0,1285.593506
-1589,350,2,0,0,0,679.331116
-1193,-1299,3,0,0,0,723.529541
609,-1433,4,0,0,0,718.023743
14,149,1,1,0,0,521.686279
-104,674,2,1,0,21,126.836769
-1621,-1024,3,0,0,0,699.602905
588,-737,4,0,0,0,862.142273
598,568,1,0,0,0,874.411194
-1851,144,2,0,0,0,641.650696
-899,-163,3,0,0,0,912.603699
278,-1092,4,0,0,0,810.856323
233,1246,1,0,0,0,750.858093
-515,1420,2,0,0,0,700.604004
-636,-218,3,1,0,12,136.533630
1411,-134,4,1,0,15,84.819962
47,1009,1,0,0,0,816.090210
-813,131,2,0,0,0,874.855713
-1876,-332,3,1,0,12,125.744591
1369,-51,4,0,0,0,754.735657
214,645,1,0,0,0,930.171570
-1199,1695,2,0,0,0,609.815063
-763,-1271,3,0,0,0,773.376221
1972,-321,4,1,0,15,73.276665
137,527,1,0,0,0,994.020691
-1147,643,2,0,0,0,740.339417
-1835,-634,3,0,0,0,696.028564
701,-1243,4,0,0,0,743.020264
1857,1200,1,0,0,0,591.949280
-122,252,2,0,0,0,1185.844482
-1260,-1747,3,0,0,0,666.320862
898,-812,4,1,0,15,170.242966
296,389,1,0,0,0,1025.131470
-1824,109,2,0,0,0,646.193665
-23,-1159,3,0,0,0,844.073425
1409,-1322,4,0,0,0,656.288757
1112,1821,1,0,0,0,602.054443
-1857,712,2,0,0,0,622.048950
-1787,-414,3,0,0,0,712.278625
1197,-1150,4,0,0,0,699.699219
578,1439,1,0,0,0,693.078491
-810,1207,2,0,0,0,711.601257
-1527,-464,3,0,0,0,752.196289
866,-1122,4,1,0,15,250.158951
1353,1763,1,0,0,0,590.495728
-1741,619,2,0,0,0,643.009583
-423,-1624,3,0,0,0,737.780029
1265,-972,4,0,0,0,711.067078
1834,452,1,0,0,0,636.735596
-979,1428,2,0,0,0,661.579834
-1053,-1006,3,0,0,0,778.482239
1119,-958,4,0,0,0,733.916138
371,796,1,0,0,0,856.336792
-108,1674,2,1,0,21,105.562134
-896,-1600,3,0,0,0,712.361633
199,-764,4,0,0,0,913.244995
1683,1291,1,0,0,0,603.730957
-1512,510,2,0,0,0,684.903015
-1890,-798,3,0,0,0,680.244385
1244,-1397,4,0,0,0,665.524902
1401,1262,1,0,0,0,637.232361
-225,1936,2,0,0,0,627.803040
-737,-447,3,0,0,0,929.381348
594,-1089,4,0,0,0,783.244385
1727,1537,1,0,0,0,579.292725
-990,1798,2,1,0,21,105.192619
-1680,-331,3,0,0,0,732.009521
1289,-1505,4,0,0,0,649.073792
1984,519,1,0,0,0,613.321594
-906,530,2,1,0,21,138.760391
-1503,-1854,3,0,0,0,637.041565
836,-964,4,0,0,0,775.130920
1700,202,1,0,0,0,664.799500
-1749,-1261,3,0,0,0,666.028259
736,-1616,4,0,0,0,680.404358
243,610,1,0,0,0,940.071106
-1811,-1708,3,0,0,0,625.041138
730,-1852,4,1,0,23,110.961182
-878,-84,3,0,0,0,922.758301
1660,-938,4,0,0,0,660.067749
-974,-1611,3,1,0,8,138.305573
-266,-115,3,0,0,0,1243.695801
-886,-691,3,1,0,8,153.580109
-1372,-310,3,0,0,0,788.462769


each generation good chromosome number
0,0,0,0,0,0,0,0,0,0,0,0,0,0,0,0,0,0,0,0,0,0,0,0,0,0,0,0,0,0,0,0,0,0,0,0,0,1,2,3,4,5,6,7,8,9,11,13,15,16,18,19,18,17,15,14,14,13,13,13,13,13,13,13,13,13,13,13,13,13,13,13,13,13,13,13,13,13,13,13,13,13,13,13,13,13,13,13,13,13,13,13,14,15,16,17,18,19,19,19,