417.710388,410.163818,404.071686,410.117645,416.593750,408.188110,417.796722,406.261536,410.154968,417.432251,406.929596,416.832184,405.870697,408.238434,414.655884,416.632996,410.287292,413.672668,413.815399,417.703064,409.935516,417.818085,416.525818,404.883179,404.482117,417.092957,411.011780,401.865479,417.251129,409.703583,409.178070,414.768433,410.083435,405.851501,404.443634,413.566528,395.947510,410.561218,405.218842,409.159149,416.718353,416.211456,409.671997,402.635559,410.581451,417.502869,417.721527,411.897858,417.280518,409.551636,416.444702,410.354492,404.107147,418.236786,402.896606,416.798248,407.421448,416.631012,408.838409,410.685425,409.478882,416.601471,418.029694,413.129822,401.867828,416.567932,410.176025,417.780396,409.638184,415.720612,408.237579,417.678223,417.404633,402.702545,402.452271,411.918457,407.985321,405.078400,417.222626,409.023895,410.247528,418.358612,409.821411,415.953308,416.286652,411.503601,417.606628,402.542725,415.522461,417.096405,412.790436,408.420013,403.547363,409.192078,411.858582,417.412933,415.934113,409.961060,417.300934,409.742584,

avg. max avg. throughput in test times
411.544495
avg. BS TX power in all test times
MBS area 1,MBS area 2,MBS area 3,MBS area 4,CBSD 1,CBSD 2,CBSD 3,CBSD 4,CBSD 5,CBSD 6,CBSD 7,CBSD 8,CBSD 9,CBSD 10,CBSD 11,CBSD 12,CBSD 13,CBSD 14,CBSD 15,CBSD 16,CBSD 17,CBSD 18,CBSD 19,CBSD 20,CBSD 21,CBSD 22,CBSD 23,CBSD 24,CBSD 25,CBSD 26,CBSD 27,CBSD 28,
10.000,10.000,10.000,10.000,0.180,0.140,0.130,0.200,0.160,0.200,0.110,0.200,0.120,0.130,0.080,0.130,0.150,0.120,0.120,0.150,0.120,0.090,0.150,0.100,0.130,0.130,0.240,0.180,0.110,0.120,0.210,0.100,
avg. mbs all power,avg. cbsd enable number,avg. mbs area all power,avg. cbsd all power
70.000,4.000,40.000,4.000
avg. number of relay UE
669

BS TX power
MBS area 1,MBS area 2,MBS area 3,MBS area 4,CBSD 1,CBSD 2,CBSD 3,CBSD 4,CBSD 5,CBSD 6,CBSD 7,CBSD 8,CBSD 9,CBSD 10,CBSD 11,CBSD 12,CBSD 13,CBSD 14,CBSD 15,CBSD 16,CBSD 17,CBSD 18,CBSD 19,CBSD 20,CBSD 21,CBSD 22,CBSD 23,CBSD 24,CBSD 25,CBSD 26,CBSD 27,CBSD 28,
10.000,10.000,10.000,10.000,0.000,0.000,0.000,0.000,0.000,0.000,0.000,0.000,0.000,1.000,0.000,0.000,0.000,0.000,0.000,1.000,0.000,0.000,0.000,0.000,0.000,0.000,0.000,1.000,0.000,0.000,1.000,0.000,
max average power
409.742584

x,y,area,be blocked (1 : NLOS / 0 : LOS),be blocked number (>=1 : CBSD(x) / 0 : no),connect bs number (>=1 : CBSD / 0 : MBS),throughput (unit : M bps)
1466,196,1,0,0,0,774.033630
-871,1979,2,0,0,10,33.322041
-431,-1192,3,0,0,0,818.384033
723,-8,4,0,0,0,980.021057
1342,690,1,1,0,10,33.322041
-70,1183,2,0,0,0,837.730713
-1419,-1451,3,0,0,16,52.181866
1648,-468,4,1,0,27,42.381050
1973,607,1,1,0,10,33.322041
-581,711,2,1,0,10,33.322041
-1153,-582,3,0,0,0,812.982849
1947,-1670,4,0,0,27,42.381050
1042,1957,1,0,0,10,33.322041
-517,1880,2,0,0,10,33.322041
-582,-1407,3,0,0,0,765.695618
1814,-656,4,0,0,27,42.381050
10,1416,1,0,0,0,786.539001
-918,1855,2,1,0,10,33.322041
-43,-380,3,1,0,10,33.322041
1603,-1310,4,0,0,27,42.381050
855,761,1,0,0,0,847.723022
-1813,7,2,0,0,16,52.181866
-329,-1389,3,0,0,0,784.236084
401,-50,4,0,0,0,1147.780518
1980,1150,1,0,0,10,33.322041
-1719,1501,2,0,0,16,52.181866
-799,-146,3,1,0,16,52.181866
1178,-1863,4,0,0,27,42.381050
894,458,1,1,0,10,33.322041
-432,1202,2,0,0,0,816.181396
-415,-1256,3,0,0,0,806.115662
1121,-1009,4,0,0,0,768.424438
113,1000,1,0,0,0,884.773376
-309,290,2,1,0,10,33.322041
-202,-1596,3,0,0,0,749.905396
1995,-633,4,0,0,27,42.381050
1666,200,1,0,0,0,737.818298
-180,877,2,0,0,0,918.456055
-1730,-454,3,1,0,16,52.181866
156,-799,4,1,0,27,42.381050
465,1816,1,0,0,10,33.322041
-965,1795,2,1,0,10,33.322041
-1239,-519,3,0,0,0,801.690002
87,-1379,4,0,0,0,793.583252
985,1706,1,1,0,10,33.322041
-1112,45,2,1,0,16,52.181866
-1689,-292,3,0,0,0,731.715332
1313,-1052,4,1,0,27,42.381050
1035,81,1,1,0,10,33.322041
-1853,802,2,0,0,16,52.181866
-1549,-1219,3,0,0,16,52.181866
263,-1197,4,0,0,0,828.068726
1566,767,1,1,0,10,33.322041
-1584,1663,2,0,0,10,33.322041
-1120,-1233,3,0,0,0,739.915100
833,-447,4,0,0,0,902.781250
1625,1836,1,0,0,10,33.322041
-1218,1178,2,1,0,10,33.322041
-153,-1929,3,1,0,27,42.381050
733,-1274,4,0,0,0,775.830750
1010,1084,1,0,0,0,773.536682
-1216,1439,2,0,0,10,33.322041
-94,-132,3,1,0,10,33.322041
1147,-493,4,0,0,0,822.742126
75,84,1,0,0,0,1516.413086
-667,491,2,0,0,0,940.881165
-1961,-309,3,1,0,16,52.181866
1173,-1958,4,0,0,27,42.381050
980,1994,1,0,0,10,33.322041
-1151,1446,2,1,0,10,33.322041
-1047,-60,3,1,0,16,52.181866
102,-67,4,0,0,0,1493.217163
400,670,1,0,0,0,958.051147
-138,14,2,0,0,0,1456.270996
-1910,-298,3,0,0,16,52.181866
66,-1968,4,0,0,27,42.381050
1631,1466,1,0,0,10,33.322041
-1933,1425,2,0,0,16,52.181866
-1940,-123,3,0,0,16,52.181866
219,-1699,4,0,0,0,731.882324
1464,1388,1,1,0,10,33.322041
-281,1712,2,0,0,0,728.248352
-212,-553,3,0,0,0,1037.546265
1039,-442,4,0,0,0,851.648315
792,1092,1,0,0,0,800.480957
-1671,315,2,0,0,0,734.003540
-1289,-72,3,0,0,0,813.106140
167,-97,4,0,0,0,1360.777832
250,1777,1,0,0,10,33.322041
-1782,145,2,0,0,16,52.181866
-894,-1660,3,0,0,16,52.181866
1555,-876,4,0,0,27,42.381050
1781,212,1,1,0,10,33.322041
-1541,358,2,0,0,0,754.706970
-1347,-255,3,1,0,16,52.181866
237,-1657,4,0,0,0,738.519653
765,1891,1,1,0,10,33.322041
-1285,1373,2,0,0,10,33.322041
-1206,-363,3,0,0,0,820.223267
1067,-1822,4,1,0,27,42.381050
1532,802,1,1,0,10,33.322041
-1112,1339,2,0,0,0,727.319885
-1230,-399,3,1,0,16,52.181866
1539,-1661,4,1,0,27,42.381050
1443,242,1,0,0,0,777.136292
-3,1340,2,0,0,0,802.398438
-26,-1454,3,1,0,27,42.381050
1198,-1382,4,0,0,27,42.381050
28,1357,1,1,0,10,33.322041
-1367,1019,2,1,0,16,52.181866
-163,-1183,3,0,0,0,835.528381
538,-416,4,0,0,0,997.681091
1780,1646,1,0,0,10,33.322041
-285,1259,2,0,0,0,813.140442
-999,-694,3,0,0,0,830.223938
1413,-792,4,1,0,27,42.381050
448,1692,1,0,0,0,725.715210
-1083,1547,2,1,0,10,33.322041
-1621,-1605,3,0,0,16,52.181866
1605,-819,4,0,0,27,42.381050
1967,1943,1,1,0,10,33.322041
-389,589,2,0,0,0,986.952759
-322,-536,3,0,0,0,1021.894897
1155,-577,4,1,0,27,42.381050
1990,675,1,1,0,10,33.322041
-506,815,2,0,0,0,898.563782
-975,-1109,3,0,0,0,774.498291
180,-1374,4,0,0,0,792.752808
1427,926,1,0,0,0,733.887695
-447,1645,2,1,0,10,33.322041
-1422,-1281,3,0,0,16,52.181866
497,-368,4,0,0,0,1025.081055
858,717,1,0,0,0,854.455200
-879,87,2,0,0,0,922.338501
-901,-1732,3,0,0,16,52.181866
889,-1668,4,0,0,27,42.381050
1219,639,1,1,0,10,33.322041
-1409,129,2,0,0,0,786.770935
-86,-218,3,0,0,0,1304.959961
1527,-177,4,0,0,0,762.955261
949,734,1,0,0,0,834.193298
-971,142,2,0,0,0,892.027039
-1318,-1510,3,1,0,16,52.181866
287,-1003,4,0,0,0,874.409424
39,1064,1,0,0,0,868.547852
-140,519,2,0,0,0,1065.485229
-78,-1701,3,0,0,0,733.606323
986,-892,4,0,0,0,804.636841
1413,995,1,0,0,0,729.362915
-361,706,2,0,0,0,953.427612
-1800,-963,3,0,0,16,52.181866
1006,-1470,4,0,0,27,42.381050
533,461,1,0,0,0,987.425659
-1277,1952,2,1,0,10,33.322041
-333,-263,3,0,0,0,1133.692749
472,-1230,4,1,0,27,42.381050
134,1569,1,0,0,0,756.039246
-1213,1578,2,0,0,10,33.322041
-582,-698,3,0,0,0,914.137329
1179,-728,4,0,0,0,792.771729
415,627,1,1,0,10,33.322041
-705,16,2,0,0,0,987.231201
-677,-1202,3,0,0,0,794.041382
264,-1732,4,1,0,27,42.381050
268,1131,1,0,0,0,843.307190
-1391,433,2,0,0,0,778.379028
-1336,-436,3,0,0,0,788.716370
1942,-1497,4,0,0,27,42.381050
1029,801,1,0,0,0,810.225281
-1725,1197,2,0,0,16,52.181866
-910,-1489,3,1,0,16,52.181866
1503,-1556,4,0,0,27,42.381050
1245,722,1,0,0,0,781.876526
-264,290,2,0,0,0,1156.429077
-1699,-145,3,0,0,0,733.204346
324,-640,4,0,0,0,982.304077
1596,1910,1,0,0,10,33.322041
-1501,50,2,1,0,16,52.181866
-1265,-1843,3,0,0,16,52.181866
1053,-1653,4,0,0,27,42.381050
1403,1444,1,1,0,10,33.322041
-1106,851,2,0,0,0,790.734924
-1534,-1969,3,1,0,16,52.181866
455,-761,4,1,0,27,42.381050
310,1424,1,0,0,0,778.277161
-802,707,2,0,0,0,867.354980
-1634,-752,3,1,0,16,52.181866
1411,-1762,4,1,0,27,42.381050
1104,1183,1,0,0,0,748.236145
-1044,583,2,0,0,0,835.148926
-551,-1645,3,0,0,0,728.261658
1777,-476,4,0,0,27,42.381050
628,384,1,1,0,10,33.322041
-555,725,2,0,0,0,912.797241
-609,-1219,3,0,0,0,797.579590
1264,-1649,4,0,0,27,42.381050
1889,372,1,0,0,10,33.322041
-241,692,2,0,0,0,976.172119
-810,-1650,3,0,0,16,52.181866
1789,-1413,4,0,0,27,42.381050
1139,930,1,0,0,0,775.707397
-1392,1887,2,0,0,10,33.322041
-1742,-226,3,0,0,0,724.686462
465,-147,4,0,0,0,1093.561523
540,1389,1,0,0,0,771.861267
-1153,703,2,0,0,0,800.173950
-1277,-1499,3,1,0,16,52.181866
364,-1830,4,0,0,27,42.381050
444,440,1,0,0,0,1021.984802
-503,88,2,0,0,0,1080.295532
-1323,-1101,3,1,0,16,52.181866
1963,-1555,4,0,0,27,42.381050
370,1911,1,1,0,10,33.322041
-1862,464,2,0,0,16,52.181866
-871,-225,3,0,0,0,917.072327
185,-206,4,0,0,0,1256.850464
522,574,1,1,0,10,33.322041
-1874,551,2,0,0,16,52.181866
-1476,-475,3,1,0,16,52.181866
1570,-1016,4,0,0,27,42.381050
638,853,1,1,0,10,33.322041
-1939,1123,2,0,0,16,52.181866
-66,-1293,3,0,0,0,812.288879
1488,-737,4,0,0,0,740.816101
734,649,1,0,0,0,892.483276
-1067,423,2,0,0,0,846.926636
-6,-1570,3,0,0,0,756.897156
168,-598,4,1,0,27,42.381050
1005,449,1,1,0,10,33.322041
-1958,894,2,0,0,16,52.181866
-1737,-777,3,0,0,16,52.181866
870,-1750,4,0,0,27,42.381050
338,1031,1,1,0,10,33.322041
-1155,1355,2,1,0,10,33.322041
-998,-462,3,1,0,16,52.181866
1843,-1185,4,0,0,27,42.381050
1584,156,1,0,0,0,752.966309
-1129,1401,2,1,0,10,33.322041
-963,-1235,3,0,0,0,757.617432
186,-6,4,1,0,10,33.322041
1860,362,1,1,0,10,33.322041
-43,1272,2,1,0,10,33.322041
-1512,-1572,3,1,0,16,52.181866
1797,-586,4,1,0,27,42.381050
1018,974,1,1,0,10,33.322041
-202,176,2,0,0,0,1266.340210
-813,-1854,3,1,0,16,52.181866
240,-1438,4,0,0,0,778.171143
166,252,1,0,0,0,1232.022583
-997,164,2,1,0,16,52.181866
-1529,-68,3,0,0,0,764.211792
1292,-1787,4,0,0,27,42.381050
1082,941,1,1,0,10,33.322041
-1581,1635,2,0,0,10,33.322041
-723,-473,3,0,0,0,928.708252
1125,-919,4,0,0,0,779.205811
1236,1573,1,0,0,10,33.322041
-407,1929,2,0,0,10,33.322041
-1599,-134,3,0,0,0,750.642334
195,-1397,4,0,0,0,787.655457
1610,812,1,0,0,10,33.322041
-1174,1148,2,0,0,0,744.031677
-846,-397,3,1,0,16,52.181866
1789,-950,4,0,0,27,42.381050
1425,58,1,1,0,10,33.322041
-1594,1624,2,1,0,10,33.322041
-644,-333,3,1,0,16,52.181866
1864,-934,4,1,0,27,42.381050
19,766,1,0,0,0,963.300293
-847,537,2,0,0,0,885.770569
-287,-1738,3,1,0,27,42.381050
1232,-1362,4,1,0,27,42.381050
832,1974,1,0,0,10,33.322041
-1493,959,2,0,0,16,52.181866
-1655,-715,3,1,0,16,52.181866
591,-802,4,0,0,0,887.686035
635,1426,1,0,0,0,758.550537
-1350,961,2,1,0,16,52.181866
-664,-999,3,1,0,16,52.181866
806,-4,4,0,0,0,948.717773
1981,692,1,0,0,10,33.322041
-1459,1562,2,0,0,10,33.322041
-756,-130,3,1,0,16,52.181866
1122,-1187,4,0,0,0,745.546936
1219,985,1,1,0,10,33.322041
-810,1001,2,0,0,0,813.850098
-279,-558,3,0,0,0,1022.550781
1065,-1576,4,0,0,27,42.381050
1723,1581,1,0,0,10,33.322041
-1626,469,2,0,0,0,735.380127
-374,-172,3,0,0,0,1142.441406
82,-1666,4,1,0,27,42.381050
1809,1402,1,1,0,10,33.322041
-1077,339,2,0,0,0,851.652100
-277,-1575,3,0,0,0,751.615540
391,-1123,4,1,0,27,42.381050
1801,1460,1,0,0,10,33.322041
-1816,783,2,0,0,16,52.181866
-1736,-1923,3,1,0,16,52.181866
865,-217,4,0,0,0,919.577087
1902,1135,1,0,0,10,33.322041
-817,1542,2,0,0,0,726.574829
-1785,-397,3,1,0,16,52.181866
831,-1677,4,0,0,27,42.381050
1277,1192,1,0,0,0,726.276733
-1346,1010,2,0,0,0,736.992554
-44,-1106,3,1,0,27,42.381050
1468,-764,4,1,0,27,42.381050
1922,1219,1,1,0,10,33.322041
-558,1551,2,0,0,0,742.930298
-188,-833,3,0,0,0,932.070923
723,-1992,4,0,0,27,42.381050
838,479,1,0,0,0,896.787354
-297,154,2,1,0,10,33.322041
-1136,-1237,3,0,0,0,737.558350
1221,-507,4,0,0,0,806.269470
1514,1740,1,0,0,10,33.322041
-527,792,2,1,0,10,33.322041
-1535,-1583,3,1,0,16,52.181866
1814,-537,4,1,0,27,42.381050
1315,646,1,1,0,10,33.322041
-1117,1435,2,1,0,10,33.322041
-454,-171,3,1,0,16,52.181866
1524,-48,4,0,0,0,765.293396
1565,434,1,0,0,0,747.183960
-1071,1861,2,1,0,10,33.322041
-16,-1186,3,1,0,27,42.381050
1857,-239,4,1,0,27,42.381050
1180,1238,1,1,0,10,33.322041
-307,127,2,0,0,0,1204.272217
-974,-1712,3,0,0,16,52.181866
697,-976,4,0,0,0,834.290344
928,1996,1,0,0,10,33.322041
-705,594,2,1,0,10,33.322041
-730,-1755,3,0,0,16,52.181866
250,-249,4,0,0,0,1186.906128
994,1221,1,0,0,0,756.087891
-151,1934,2,0,0,10,33.322041
-400,-77,3,0,0,0,1145.478027
336,-1791,4,1,0,27,42.381050
1581,1245,1,1,0,10,33.322041
-1013,1432,2,0,0,0,725.097839
-391,-964,3,0,0,0,875.231689
482,-296,4,0,0,0,1050.802124
1283,1488,1,0,0,10,33.322041
-692,1550,2,1,0,10,33.322041
-1219,-572,3,1,0,16,52.181866
819,-617,4,0,0,0,879.377930
390,387,1,0,0,0,1059.184570
-1336,856,2,0,0,0,753.861694
-551,-565,3,0,0,0,954.793152
1327,-602,4,0,0,0,778.313721
136,1752,1,0,0,0,724.576904
-1741,1523,2,0,0,16,52.181866
-1039,-393,3,0,0,0,856.341614
1458,-1411,4,0,0,27,42.381050
1065,163,1,0,0,0,865.138550
-1794,1920,2,0,0,10,33.322041
-1810,-1546,3,1,0,16,52.181866
1757,-1113,4,1,0,27,42.381050
1980,1674,1,1,0,10,33.322041
-915,1600,2,0,0,10,33.322041
-1231,-521,3,0,0,0,803.105103
899,-210,4,0,0,0,909.610840
634,165,1,0,0,0,1008.457520
-657,1101,2,0,0,0,815.091125
-152,-1306,3,0,0,0,807.852905
773,-1886,4,0,0,27,42.381050
1889,551,1,0,0,10,33.322041
-646,1998,2,0,0,10,33.322041
-1750,-1965,3,0,0,16,52.181866
1293,-1533,4,1,0,27,42.381050
1580,992,1,0,0,10,33.322041
-1599,1329,2,0,0,16,52.181866
-129,-1147,3,1,0,27,42.381050
776,-1596,4,1,0,27,42.381050
741,1346,1,1,0,10,33.322041
-1653,803,2,0,0,16,52.181866
-1235,-1489,3,0,0,16,52.181866
1662,-791,4,0,0,27,42.381050
458,1619,1,1,0,10,33.322041
-277,1348,2,0,0,0,794.745117
-1908,-1177,3,1,0,16,52.181866
1601,-987,4,1,0,27,42.381050
990,768,1,0,0,0,821.706482
-168,134,2,0,0,0,1329.963379
-790,-140,3,1,0,16,52.181866
1422,-1857,4,0,0,27,42.381050
1759,832,1,0,0,10,33.322041
-1422,395,2,0,0,0,774.656189
-1027,-1814,3,0,0,16,52.181866
190,-1447,4,0,0,0,777.869690
718,834,1,0,0,0,859.035706
-919,1974,2,1,0,10,33.322041
-1655,-1463,3,0,0,16,52.181866
673,-1625,4,0,0,0,724.319336
1678,524,1,0,0,0,724.471924
-1097,759,2,0,0,0,803.694336
-1811,-361,3,0,0,16,52.181866
977,-1812,4,1,0,27,42.381050
442,122,1,0,0,0,1111.339111
-361,13,2,1,0,16,52.181866
-1797,-1476,3,0,0,16,52.181866
920,-437,4,0,0,0,881.318481
451,1901,1,1,0,10,33.322041
-1654,892,2,1,0,16,52.181866
-728,-311,3,0,0,0,953.898682
387,-203,4,1,0,10,33.322041
627,1147,1,1,0,10,33.322041
-983,318,2,0,0,0,877.209045
-24,-157,3,0,0,0,1417.198364
295,-1893,4,0,0,27,42.381050
392,711,1,0,0,0,946.618896
-1556,523,2,1,0,16,52.181866
-662,-1555,3,0,0,0,735.759460
1082,-1434,4,0,0,27,42.381050
660,1925,1,0,0,10,33.322041
-828,1297,2,0,0,0,762.668030
-337,-1182,3,0,0,0,827.236816
1868,-1995,4,0,0,27,42.381050
1607,4,1,0,0,0,750.213623
-844,1266,2,0,0,0,765.899170
-1841,-1450,3,0,0,16,52.181866
404,-1249,4,1,0,27,42.381050
1533,1888,1,0,0,10,33.322041
-1495,38,2,0,0,0,770.859375
-250,-1637,3,1,0,27,42.381050
736,-517,4,1,0,27,42.381050
307,1424,1,1,0,10,33.322041
-1590,1895,2,0,0,10,33.322041
-802,-731,3,0,0,0,863.074097
300,-647,4,1,0,27,42.381050
169,1349,1,0,0,0,798.237183
-633,261,2,0,0,0,995.727966
-750,-1292,3,0,0,0,771.161804
497,-494,4,0,0,0,989.049744
25,879,1,0,0,0,923.626160
-1474,1493,2,1,0,10,33.322041
-499,-985,3,0,0,0,858.071106
1651,-819,4,0,0,27,42.381050
1326,1302,1,0,0,10,33.322041
-1674,548,2,1,0,16,52.181866
-1915,-747,3,1,0,16,52.181866
411,-283,4,0,0,0,1086.939941
945,553,1,0,0,0,860.498108
-1049,1134,2,1,0,10,33.322041
-1590,-106,3,0,0,0,752.630066
1762,-1185,4,0,0,27,42.381050
1289,1682,1,1,0,10,33.322041
-69,1605,2,0,0,0,750.306885
-59,-1690,3,0,0,0,735.593445
1802,-1616,4,0,0,27,42.381050
541,292,1,0,0,0,1026.782593
-1564,1655,2,0,0,10,33.322041
-1386,-1046,3,0,0,0,728.000549
1180,-1148,4,0,0,0,743.282288
1420,574,1,0,0,0,764.002747
-1117,47,2,1,0,16,52.181866
-351,-1405,3,0,0,0,780.090698
775,-1135,4,0,0,0,795.123718
569,1629,1,0,0,0,729.804626
-640,361,2,0,0,0,975.375671
-1931,-783,3,1,0,16,52.181866
119,-997,4,1,0,27,42.381050
1780,1861,1,0,0,10,33.322041
-1380,91,2,0,0,0,793.322266
-1957,-873,3,0,0,16,52.181866
1767,-1364,4,1,0,27,42.381050
142,424,1,0,0,0,1118.588379
-1307,231,2,0,0,0,805.145874
-1503,-1318,3,0,0,16,52.181866
1274,-553,4,0,0,0,792.110229
1243,1173,1,0,0,0,732.547485
-1086,695,2,0,0,0,813.476074
-1538,-1890,3,0,0,16,52.181866
452,-714,4,0,0,0,935.091614
1430,636,1,1,0,10,33.322041
-1567,1749,2,0,0,10,33.322041
-1564,-67,3,1,0,16,52.181866
1170,-394,4,0,0,0,825.962830
1664,1718,1,0,0,10,33.322041
-264,217,2,0,0,0,1196.133911
-32,-1777,3,0,0,27,42.381050
1966,-86,4,0,0,10,33.322041
1080,197,1,1,0,10,33.322041
-1185,97,2,0,0,0,836.786987
-1245,-1469,3,1,0,16,52.181866
654,-559,4,0,0,0,929.921570
1163,1498,1,0,0,10,33.322041
-1239,1774,2,0,0,10,33.322041
-1603,-709,3,0,0,0,725.307800
1691,-1703,4,1,0,27,42.381050
1369,671,1,0,0,0,765.322876
-67,385,2,0,0,0,1157.447388
-1059,-873,3,0,0,0,795.522766
291,-1541,4,0,0,0,757.222168
974,1403,1,0,0,0,732.738647
-938,24,2,0,0,0,904.936707
-362,-602,3,1,0,16,52.181866
177,-1715,4,0,0,0,730.038330
569,1998,1,0,0,10,33.322041
-716,1233,2,1,0,10,33.322041
-1608,-1477,3,1,0,16,52.181866
627,-440,4,0,0,0,963.395447
1893,488,1,0,0,10,33.322041
-1779,1346,2,0,0,16,52.181866
-1014,-505,3,1,0,16,52.181866
1682,-1778,4,1,0,27,42.381050
783,1437,1,1,0,10,33.322041
-536,1458,2,1,0,10,33.322041
-295,-1077,3,0,0,0,854.835327
973,-1445,4,0,0,0,727.069885
35,1547,1,1,0,10,33.322041
-696,1091,2,0,0,0,812.418457
-1734,-439,3,0,0,16,52.181866
432,-808,4,0,0,0,911.792053
1143,1986,1,1,0,10,33.322041
-1551,385,2,0,0,0,751.813660
-816,-896,3,0,0,0,831.293640
1647,-1630,4,0,0,27,42.381050
401,473,1,1,0,10,33.322041
-1949,260,2,0,0,16,52.181866
-1952,-67,3,0,0,16,52.181866
1130,-34,4,1,0,10,33.322041
938,952,1,0,0,0,803.157593
-1587,1730,2,0,0,10,33.322041
-30,-293,3,1,0,10,33.322041
45,-1691,4,1,0,27,42.381050
1681,1857,1,1,0,10,33.322041
-1874,810,2,0,0,16,52.181866
-1915,-1317,3,1,0,16,52.181866
1621,-1379,4,0,0,27,42.381050
1533,112,1,0,0,0,762.981201
-1186,591,2,0,0,0,805.614258
-253,-921,3,0,0,0,899.822693
685,-1944,4,0,0,27,42.381050
1167,579,1,0,0,0,810.505554
-1234,729,2,0,0,0,783.067993
-617,-718,3,0,0,0,902.376465
1889,-1275,4,1,0,27,42.381050
353,734,1,0,0,0,945.708313
-890,997,2,1,0,10,33.322041
-1240,-662,3,1,0,16,52.181866
64,-497,4,1,0,10,33.322041
110,642,1,0,0,0,1010.118347
-278,372,2,0,0,0,1107.668823
-1247,-682,3,0,0,0,785.470032
1210,-1459,4,1,0,27,42.381050
401,938,1,0,0,0,880.864807
-1650,462,2,1,0,16,52.181866
-1782,-153,3,1,0,16,52.181866
544,-840,4,0,0,0,886.379028
813,349,1,0,0,0,921.866638
-1007,1836,2,1,0,10,33.322041
-1099,-1896,3,0,0,16,52.181866
924,-326,4,0,0,0,892.469116
1187,284,1,0,0,0,829.256287
-1247,1171,2,0,0,0,732.289062
-1242,-803,3,0,0,0,774.046753
325,-273,4,0,0,0,1133.615967
440,1606,1,0,0,0,740.010864
-118,1887,2,0,0,10,33.322041
-448,-1462,3,0,0,0,764.476562
594,-217,4,1,0,10,33.322041
1355,1901,1,0,0,10,33.322041
-529,1650,2,0,0,0,728.608948
-1495,-118,3,0,0,0,770.060547
1700,-136,4,0,0,0,733.161499
1586,206,1,0,0,0,751.588562
-474,224,2,1,0,10,33.322041
-872,-1993,3,0,0,16,52.181866
1363,-428,4,0,0,0,783.997070
453,736,1,0,0,0,928.621948
-1348,1868,2,1,0,10,33.322041
-1419,-973,3,0,0,0,730.630859
119,-823,4,1,0,27,42.381050
1833,1250,1,0,0,10,33.322041
-1323,696,2,1,0,16,52.181866
-861,-426,3,0,0,0,898.167664
470,-798,4,0,0,0,908.700623
1140,1810,1,1,0,10,33.322041
-920,116,2,0,0,0,908.339905
-1611,-517,3,1,0,16,52.181866
987,-1092,4,0,0,0,775.414734
1059,33,1,0,0,0,869.957336
-1616,100,2,1,0,16,52.181866
-1793,-729,3,1,0,16,52.181866
1991,-855,4,0,0,27,42.381050
445,660,1,1,0,10,33.322041
-795,606,2,0,0,0,886.706299
-1055,-201,3,1,0,16,52.181866
524,-270,4,0,0,0,1038.899658
417,26,1,0,0,0,1138.160767
-95,1051,2,0,0,0,871.108521
-84,-1120,3,1,0,27,42.381050
845,-1249,4,1,0,27,42.381050
1045,164,1,1,0,10,33.322041
-1134,1192,2,0,0,0,743.466736
-129,-145,3,1,0,10,33.322041
1902,-1892,4,0,0,27,42.381050
1395,755,1,1,0,10,33.322041
-30,1684,2,1,0,10,33.322041
-1865,-378,3,0,0,16,52.181866
1029,-1719,4,0,0,27,42.381050
1054,827,1,0,0,0,802.459534
-1339,727,2,1,0,16,52.181866
-1620,-742,3,0,0,16,52.181866
1794,-1921,4,0,0,27,42.381050
1415,378,1,1,0,10,33.322041
-609,212,2,0,0,0,1013.014343
-818,-306,3,0,0,0,925.596436
386,-1585,4,0,0,0,745.903748
1772,6,1,1,0,10,33.322041
-145,159,2,0,0,0,1329.570312
-975,-1247,3,0,0,0,754.547119
1378,-1526,4,1,0,27,42.381050
601,1197,1,0,0,0,802.526428
-1701,283,2,1,0,16,52.181866
-1936,-963,3,0,0,16,52.181866
738,-1557,4,1,0,27,42.381050
1739,1755,1,0,0,10,33.322041
-419,693,2,0,0,0,947.358459
-1624,-129,3,0,0,0,746.292603
1403,-845,4,0,0,0,744.764954
1398,1783,1,0,0,10,33.322041
-1235,343,2,0,0,0,815.176453
-1344,-1411,3,0,0,16,52.181866
709,-713,4,0,0,0,885.017944
771,678,1,0,0,0,879.012024
-1289,511,2,0,0,0,792.575867
-208,-1346,3,0,0,0,797.723755
131,-1846,4,0,0,27,42.381050
292,1385,1,0,0,0,786.658386
-847,584,2,0,0,0,878.420776
-1112,-234,3,0,0,0,849.807556
1685,-1238,4,1,0,27,42.381050
455,813,1,1,0,10,33.322041
-954,1753,2,1,0,10,33.322041
-1192,-1960,3,1,0,16,52.181866
1151,-412,4,1,0,27,42.381050
799,677,1,0,0,0,873.309021
-895,796,2,0,0,0,834.665283
-1109,-603,3,1,0,16,52.181866
333,-735,4,0,0,0,948.393799
1213,1916,1,0,0,10,33.322041
-732,75,2,1,0,16,52.181866
-1575,-1280,3,0,0,16,52.181866
1917,-1288,4,0,0,27,42.381050
1002,1896,1,1,0,10,33.322041
-157,715,2,1,0,10,33.322041
-1437,-1178,3,0,0,16,52.181866
350,-627,4,1,0,27,42.381050
646,1224,1,0,0,0,793.111267
-456,178,2,0,0,0,1092.482544
-398,-581,3,0,0,0,987.613037
176,-1188,4,0,0,0,833.897461
334,1563,1,1,0,10,33.322041
-228,993,2,0,0,0,881.226440
-1840,-581,3,1,0,16,52.181866
1843,-1681,4,1,0,27,42.381050
552,1635,1,1,0,10,33.322041
-251,1167,2,1,0,10,33.322041
-303,-540,3,1,0,16,52.181866
518,-330,4,0,0,0,1027.057861
930,1880,1,1,0,10,33.322041
-103,664,2,1,0,10,33.322041
-1544,-56,3,0,0,0,761.504089
285,-1050,4,0,0,0,862.323303
1296,492,1,0,0,0,792.647827
-550,544,2,1,0,10,33.322041
-1806,-1879,3,0,0,16,52.181866
822,-211,4,1,0,10,33.322041
358,1164,1,1,0,10,33.322041
-712,195,2,0,0,0,974.034485
-886,-1200,3,0,0,0,771.597900
295,-1644,4,0,0,0,739.138184
773,412,1,0,0,0,924.746765
-1836,587,2,0,0,16,52.181866
-1240,-784,3,0,0,0,776.370850
1094,-1212,4,0,0,0,745.658325
1310,1780,1,0,0,10,33.322041
-276,942,2,0,0,0,891.947083
-376,-172,3,1,0,16,52.181866
1732,-491,4,0,0,27,42.381050
1450,392,1,0,0,0,769.600769
-1190,241,2,0,0,0,830.755249
-1406,-997,3,1,0,16,52.181866
1450,-1960,4,0,0,27,42.381050
1773,456,1,1,0,10,33.322041
-60,1918,2,1,0,10,33.322041
-781,-571,3,0,0,0,896.121887
379,-220,4,0,0,0,1124.401245
122,1418,1,0,0,0,785.081177
-355,1873,2,0,0,10,33.322041
-31,-1489,3,0,0,0,772.044861
72,-1925,4,0,0,27,42.381050
1513,338,1,0,0,0,760.524719
-130,1417,2,1,0,10,33.322041
-510,-280,3,0,0,0,1042.672363
1206,-1979,4,1,0,27,42.381050
888,931,1,0,0,0,814.092834
-474,776,2,0,0,0,913.976379
-1155,-1367,3,1,0,16,52.181866
37,-1185,4,1,0,27,42.381050
1790,1720,1,0,0,10,33.322041
-1308,1325,2,0,0,10,33.322041
-193,-1409,3,0,0,0,785.299683
877,-1822,4,0,0,27,42.381050
417,1885,1,0,0,10,33.322041
-904,1680,2,1,0,10,33.322041
-1422,-362,3,1,0,16,52.181866
1892,-1592,4,0,0,27,42.381050
1662,842,1,1,0,10,33.322041
-191,782,2,1,0,10,33.322041
-1168,-1472,3,0,0,16,52.181866
812,-93,4,0,0,0,944.706665
972,706,1,0,0,0,833.807739
-1670,118,2,0,0,0,738.468262
-870,-1576,3,0,0,16,52.181866
1797,-1536,4,0,0,27,42.381050
427,204,1,0,0,0,1102.238159
-1143,1964,2,0,0,10,33.322041
-1948,-1828,3,1,0,16,52.181866
1044,-534,4,0,0,0,840.763000
293,1454,1,0,0,0,773.222351
-170,768,2,0,0,0,955.745300
-1260,-1677,3,0,0,16,52.181866
1851,-157,4,0,0,27,42.381050
590,1468,1,0,0,0,754.691040
-960,76,2,0,0,0,897.454895
-676,-298,3,0,0,0,973.820312
1790,-1752,4,0,0,27,42.381050
863,923,1,0,0,0,819.275085
-219,1018,2,0,0,0,874.951538
-280,-1813,3,0,0,27,42.381050
1365,-1908,4,1,0,27,42.381050
1146,1308,1,0,0,0,727.569946
-843,333,2,1,0,16,52.181866
-1839,-222,3,0,0,16,52.181866
1079,-1328,4,0,0,0,732.211731
477,1517,1,0,0,0,753.225464
-50,1478,2,0,0,0,774.072205
-83,-87,3,0,0,0,1497.493652
1322,-1171,4,1,0,27,42.381050
1261,433,1,0,0,0,803.846313
-659,695,2,0,0,0,899.026917
-863,-1603,3,0,0,16,52.181866
597,-1294,4,0,0,0,784.710205
1202,204,1,0,0,0,829.566040
-690,1752,2,1,0,10,33.322041
-1917,-1426,3,0,0,16,52.181866
1652,-676,4,0,0,27,42.381050
1204,1988,1,0,0,10,33.322041
-1477,579,2,0,0,0,753.910889
-1437,-1269,3,1,0,16,52.181866
1344,-49,4,0,0,0,801.351440
108,1024,1,0,0,0,878.179565
-1233,1471,2,1,0,10,33.322041
-122,-1308,3,0,0,0,808.102112
1900,-1361,4,0,0,27,42.381050
246,1288,1,0,0,0,808.626587
-1774,1171,2,0,0,16,52.181866
-582,-334,3,0,0,0,1001.540527
1074,-1943,4,0,0,27,42.381050
1356,385,1,0,0,0,787.848511
-1159,714,2,1,0,16,52.181866
-1739,-39,3,0,0,0,727.500671
1735,-1720,4,0,0,27,42.381050
573,1417,1,0,0,0,764.595093
-107,1513,2,0,0,0,766.799500
-430,-1100,3,0,0,0,838.705811
153,-947,4,0,0,0,898.570618
817,1211,1,0,0,0,777.593445
-1693,1863,2,0,0,10,33.322041
-1732,-584,3,1,0,16,52.181866
1518,-1649,4,0,0,27,42.381050
1079,39,1,0,0,0,864.523987
-1756,1590,2,0,0,16,52.181866
-1382,-1892,3,0,0,16,52.181866
1823,-1923,4,0,0,27,42.381050
833,638,1,0,0,0,872.758545
-565,1050,2,1,0,10,33.322041
-925,-175,3,1,0,16,52.181866
1421,-1885,4,1,0,27,42.381050
85,770,1,1,0,10,33.322041
-1005,1532,2,0,0,10,33.322041
-1928,-970,3,0,0,16,52.181866
1601,-47,4,0,0,0,751.164307
718,1636,1,1,0,10,33.322041
-99,698,2,0,0,0,987.311218
-593,-1891,3,1,0,16,52.181866
333,-943,4,0,0,0,886.580078
1896,739,1,1,0,10,33.322041
-860,370,2,0,0,0,905.579224
-1447,-534,3,1,0,16,52.181866
122,-1212,4,0,0,0,829.817139
318,1928,1,0,0,10,33.322041
-187,162,2,0,0,0,1289.311279
-128,-109,3,1,0,10,33.322041
1419,-147,4,0,0,0,784.404602
1817,764,1,1,0,10,33.322041
-919,1990,2,0,0,10,33.322041
-654,-1575,3,0,0,0,733.169067
1777,-224,4,0,0,27,42.381050
216,474,1,0,0,0,1074.561279
-484,116,2,0,0,0,1087.693481
-1693,-1025,3,0,0,16,52.181866
73,-4,4,1,0,0,895.907898
824,48,1,0,0,0,941.869385
-1497,1280,2,1,0,16,52.181866
-1194,-82,3,0,0,0,834.894226
1024,-667,4,0,0,0,828.886230
278,1156,1,0,0,0,836.788208
-257,884,2,0,0,0,910.423462
-1524,-202,3,0,0,0,762.935852
1048,-1308,4,0,0,0,738.144043
1742,1612,1,1,0,10,33.322041
-95,404,2,0,0,0,1140.093872
-522,-989,3,1,0,16,52.181866
1227,-208,4,0,0,0,823.655029
1187,550,1,1,0,10,33.322041
-699,56,2,1,0,16,52.181866
-1347,-1089,3,0,0,0,728.705139
1671,-1952,4,0,0,27,42.381050
1413,193,1,1,0,10,33.322041
-407,138,2,0,0,0,1130.027588
-1655,-1354,3,0,0,16,52.181866
307,-1939,4,0,0,27,42.381050
1810,1674,1,1,0,10,33.322041
-1992,1824,2,0,0,16,52.181866
-1619,-909,3,0,0,16,52.181866
253,-1247,4,0,0,0,817.279297
1210,1994,1,1,0,10,33.322041
-1447,1823,2,1,0,10,33.322041
-776,-291,3,1,0,16,52.181866
803,-982,4,1,0,27,42.381050
338,1642,1,0,0,0,738.080811
-1167,1840,2,0,0,10,33.322041
-1990,-1292,3,0,0,16,52.181866
301,-11,4,1,0,10,33.322041
900,1378,1,0,0,0,743.357422
-1608,336,2,1,0,16,52.181866
-1449,-279,3,0,0,0,774.700073
556,-1094,4,0,0,0,827.686707
409,1918,1,0,0,10,33.322041
-981,329,2,0,0,0,876.779419
-1752,-419,3,0,0,16,52.181866
1708,-995,4,0,0,27,42.381050
1277,1513,1,0,0,10,33.322041
-727,1065,2,0,0,0,813.447266
-568,-1549,3,1,0,16,52.181866
1656,-110,4,0,0,0,740.965759
1576,1437,1,1,0,10,33.322041
-1186,679,2,1,0,16,52.181866
-150,-1019,3,0,0,0,878.095093
1653,-838,4,1,0,27,42.381050
560,1689,1,0,0,10,33.322041
-1069,4,2,0,0,0,867.389648
-986,-59,3,0,0,0,890.144836
1424,-1635,4,0,0,27,42.381050
1574,487,1,1,0,10,33.322041
-506,1668,2,1,0,10,33.322041
-1987,-1288,3,0,0,16,52.181866
635,-572,4,0,0,0,931.838867
1968,45,1,0,0,10,33.322041
-546,1231,2,0,0,0,800.975525
-1565,-1390,3,0,0,16,52.181866
1222,-767,4,1,0,27,42.381050
189,177,1,1,0,10,33.322041
-884,327,2,0,0,0,903.639771
-139,-1252,3,0,0,0,820.166931
604,-746,4,1,0,27,42.381050
1136,154,1,0,0,0,847.277161
-1142,475,2,0,0,0,825.430298
-1337,-1511,3,0,0,16,52.181866
918,-1752,4,0,0,27,42.381050
677,552,1,0,0,0,925.544861
-778,1096,2,0,0,0,801.529419
-1077,-1094,3,0,0,0,763.338013
744,-1963,4,0,0,27,42.381050
451,435,1,0,0,0,1021.289185
-1398,437,2,1,0,16,52.181866
-385,-1228,3,0,0,0,814.014221
127,-925,4,1,0,27,42.381050
1583,56,1,0,0,0,754.353027
-1108,1604,2,1,0,10,33.322041
-952,-238,3,0,0,0,892.035583
1168,-732,4,0,0,0,794.274353
376,975,1,0,0,0,873.931030
-1435,1940,2,1,0,10,33.322041
-1323,-1265,3,0,0,16,52.181866
1056,-1172,4,0,0,0,755.519165
1510,1446,1,0,0,10,33.322041
-598,239,2,0,0,0,1013.396240
-1660,-523,3,0,0,0,727.335754
670,-1440,4,1,0,27,42.381050
1908,514,1,1,0,10,33.322041
-49,91,2,1,0,0,746.598022
-82,-1245,3,0,0,0,822.918396
1628,-1259,4,0,0,27,42.381050
610,787,1,1,0,10,33.322041
-887,1457,2,1,0,10,33.322041
-1108,-1993,3,0,0,16,52.181866
1614,-1490,4,0,0,27,42.381050
767,1988,1,0,0,10,33.322041
-305,954,2,0,0,0,886.148376
-1723,-1400,3,0,0,16,52.181866
282,-978,4,0,0,0,881.507629
1356,661,1,0,0,0,768.365662
-952,1949,2,0,0,10,33.322041
-885,-148,3,1,0,16,52.181866
783,-1189,4,0,0,0,784.996155
117,1123,1,0,0,0,851.655640
-1733,1689,2,0,0,10,33.322041
-1231,-718,3,1,0,16,52.181866
602,-1312,4,0,0,0,781.016663
1842,353,1,0,0,10,33.322041
-264,731,2,1,0,10,33.322041
-1636,-1576,3,0,0,16,52.181866
986,-1357,4,0,0,0,737.915527
1631,354,1,1,0,10,33.322041
-1900,0,2,0,0,16,52.181866
-183,-507,3,1,0,16,52.181866
1714,-1102,4,0,0,27,42.381050
388,570,1,0,0,0,993.702942
-1579,881,2,0,0,16,52.181866
-1372,-1683,3,1,0,16,52.181866
672,-842,4,1,0,27,42.381050
1647,284,1,1,0,10,33.322041
-783,1793,2,0,0,10,33.322041
-174,-536,3,0,0,0,1051.873291
1240,-1721,4,0,0,27,42.381050
1138,722,1,1,0,10,33.322041
-1378,33,2,0,0,0,794.280151
-503,-13,3,0,0,0,1084.546387
1593,-1527,4,0,0,27,42.381050
1134,618,1,0,0,0,813.004822
-380,1462,2,0,0,0,767.975769
-1748,-1430,3,0,0,16,52.181866
1839,-1813,4,0,0,27,42.381050
327,1491,1,0,0,0,764.976929
-342,24,2,1,0,10,33.322041
-858,-27,3,0,0,0,930.565796
383,-368,4,0,0,0,1068.943359
361,1107,1,1,0,10,33.322041
-764,1827,2,1,0,10,33.322041
-1344,-1011,3,1,0,16,52.181866
1249,-1377,4,0,0,27,42.381050
1230,1174,1,0,0,0,734.017883
-1203,1750,2,1,0,10,33.322041
-29,-1993,3,0,0,27,42.381050
1329,-636,4,0,0,0,775.143066
1466,929,1,0,0,0,728.139038
-1366,1966,2,1,0,10,33.322041
-1006,-460,3,1,0,16,52.181866
1617,-938,4,0,0,27,42.381050
1645,1315,1,0,0,10,33.322041
-551,179,2,0,0,0,1043.894897
-1260,-367,3,1,0,16,52.181866
683,-90,4,1,0,10,33.322041
782,1033,1,0,0,0,812.082581
-390,1392,2,0,0,0,780.602600
-132,-1791,3,0,0,27,42.381050
485,-47,4,1,0,10,33.322041
17,751,1,0,0,0,969.014221
-1402,723,2,0,0,0,755.541382
-700,-76,3,0,0,0,987.667969
149,-343,4,1,0,10,33.322041
1472,1656,1,0,0,10,33.322041
-394,1965,2,0,0,10,33.322041
-113,-1544,3,1,0,27,42.381050
227,-103,4,0,0,0,1287.147583
1411,551,1,1,0,10,33.322041
-135,1671,2,0,0,0,738.077759
-252,-1422,3,1,0,27,42.381050
448,-415,4,0,0,0,1028.708740
1883,1077,1,0,0,10,33.322041
-697,277,2,0,0,0,969.462280
-957,-609,3,0,0,0,850.317627
38,-1899,4,0,0,27,42.381050
1828,1918,1,0,0,10,33.322041
-1257,396,2,0,0,0,807.178955
-669,-1923,3,1,0,16,52.181866
229,-1759,4,0,0,27,42.381050
1536,569,1,0,0,0,744.731689
-120,178,2,0,0,0,1330.263672
-1573,-864,3,0,0,16,52.181866
663,-362,4,0,0,0,967.408569
246,155,1,0,0,0,1242.737183
-1728,931,2,0,0,16,52.181866
-801,-492,3,0,0,0,904.406738
1376,-1527,4,0,0,27,42.381050
774,378,1,1,0,10,33.322041
-608,1818,2,0,0,10,33.322041
-893,-126,3,1,0,16,52.181866
15,-154,4,1,0,10,33.322041
1236,1662,1,0,0,10,33.322041
-794,533,2,0,0,0,899.463989
-31,-1099,3,1,0,27,42.381050
211,-516,4,0,0,0,1054.991577
328,241,1,0,0,0,1145.707520
-439,1396,2,1,0,10,33.322041
-469,-1802,3,0,0,27,42.381050
1005,-1050,4,1,0,27,42.381050
763,702,1,0,0,0,876.193054
-1430,1559,2,0,0,10,33.322041
-695,-1266,3,0,0,0,780.876587
1209,-711,4,1,0,27,42.381050
151,597,1,0,0,0,1026.300903
-629,452,2,1,0,10,33.322041
-1869,-97,3,0,0,16,52.181866
131,-686,4,0,0,0,990.017944
1719,365,1,1,0,10,33.322041
-1057,1092,2,1,0,10,33.322041
-24,-888,3,1,0,27,42.381050
384,-1953,4,0,0,27,42.381050
1711,680,1,1,0,10,33.322041
-579,785,2,0,0,0,893.762573
-215,-379,3,0,0,0,1126.043823
351,-114,4,1,0,10,33.322041
749,687,1,1,0,10,33.322041
-929,984,2,0,0,0,799.570068
-1857,-1783,3,1,0,16,52.181866
1693,-1955,4,1,0,27,42.381050
1639,1480,1,1,0,10,33.322041
-1209,647,2,0,0,0,795.776489
1606,-1976,4,1,0,27,42.381050
801,1349,1,0,0,0,757.103149
-1402,1456,2,0,0,10,33.322041
1056,-133,4,0,0,0,868.648438
1121,9,1,0,0,0,853.712830
-1909,1572,2,1,0,16,52.181866
1416,-1711,4,0,0,27,42.381050
1824,1067,1,0,0,10,33.322041
-37,1038,2,1,0,10,33.322041
1701,-814,4,0,0,27,42.381050
395,458,1,0,0,0,1031.495361
-498,936,2,0,0,0,869.761169
442,-34,4,0,0,0,1121.076416
375,1081,1,0,0,0,847.828613
-1039,1287,2,0,0,0,741.934753
1536,-72,4,1,0,10,33.322041
399,1267,1,0,0,0,804.911072
-1428,1364,2,1,0,10,33.322041
320,-378,4,1,0,10,33.322041
1091,1364,1,1,0,10,33.322041
-941,33,2,1,0,16,52.181866
407,-1791,4,0,0,27,42.381050
1864,1227,1,0,0,10,33.322041
-1583,80,2,0,0,0,754.166504
253,-554,4,0,0,0,1029.485352
1827,1926,1,1,0,10,33.322041
-1453,562,2,1,0,16,52.181866
1999,-1201,4,0,0,27,42.381050
1622,1419,1,1,0,10,33.322041
-24,214,2,1,0,10,33.322041
669,-628,4,1,0,27,42.381050
1541,844,1,0,0,0,724.622498
-1985,1200,2,0,0,16,52.181866
1052,-1504,4,1,0,27,42.381050
1510,1637,1,1,0,10,33.322041
-1785,215,2,0,0,16,52.181866
452,-586,4,0,0,0,973.314331
1108,1567,1,0,0,10,33.322041
-1411,1869,2,0,0,10,33.322041
222,-1481,4,0,0,0,770.463623
606,285,1,0,0,0,1002.123901
-808,363,2,0,0,0,921.524292
35,-951,4,1,0,27,42.381050
1762,1743,1,0,0,10,33.322041
-321,1241,2,0,0,0,815.154785
1931,-529,4,0,0,27,42.381050
325,52,1,0,0,0,1206.974854
-1499,332,2,0,0,0,763.310059
1415,-1534,4,0,0,27,42.381050
613,38,1,0,0,0,1027.062134
-478,1062,2,1,0,10,33.322041
459,-441,4,0,0,0,1016.758728
1930,243,1,1,0,10,33.322041
-207,139,2,0,0,0,1287.073364
666,-890,4,0,0,0,856.144958
1408,1795,1,0,0,10,33.322041
-1313,1700,2,0,0,10,33.322041
651,-946,4,0,0,0,846.784851
897,1726,1,0,0,10,33.322041
-553,1451,2,0,0,0,760.059814
448,-1686,4,0,0,0,726.666748
362,904,1,0,0,0,894.248474
-1425,1288,2,1,0,16,52.181866
1210,-804,4,1,0,27,42.381050
621,472,1,1,0,10,33.322041
-811,733,2,0,0,0,860.957947
423,-1887,4,0,0,27,42.381050
1359,1710,1,1,0,10,33.322041
-1089,711,2,0,0,0,810.988098
1355,-1952,4,0,0,27,42.381050
1765,1768,1,1,0,10,33.322041
-514,105,2,0,0,0,1072.509399
961,-615,4,0,0,0,848.648499
28,1582,1,1,0,10,33.322041
-306,569,2,1,0,10,33.322041
1994,-553,4,0,0,27,42.381050
1648,246,1,0,0,0,739.825684
1837,-792,4,0,0,27,42.381050
1189,640,1,0,0,0,800.197449
1823,-595,4,0,0,27,42.381050
1007,1705,1,0,0,10,33.322041
979,-1275,4,1,0,27,42.381050
928,1031,1,0,0,0,792.463562
1975,-457,4,0,0,27,42.381050
1198,228,1,0,0,0,829.491760
1128,-1337,4,0,0,0,725.884644
230,1917,1,1,0,10,33.322041
173,-907,4,0,0,0,909.564087
1652,639,1,1,0,10,33.322041
803,-717,4,0,0,0,865.373657
947,1804,1,0,0,10,33.322041
416,-301,4,1,0,10,33.322041
765,71,1,0,0,0,962.529541
1240,-1887,4,0,0,27,42.381050
1737,152,1,1,0,10,33.322041
443,-182,4,0,0,0,1098.784790
1145,1534,1,0,0,10,33.322041
1489,-1407,4,0,0,27,42.381050
505,1232,1,0,0,0,804.231628
257,-290,4,0,0,0,1159.890259
1786,727,1,0,0,10,33.322041
863,-307,4,1,0,10,33.322041
799,271,1,1,0,10,33.322041
1234,-1294,4,1,0,27,42.381050
147,207,1,0,0,0,1281.859985
952,-359,4,0,0,0,881.621948
1350,1532,1,0,0,10,33.322041
29,-1165,4,0,0,0,842.555359
573,785,1,0,0,0,894.812195
29,-571,4,0,0,0,1047.707520
1799,1248,1,0,0,10,33.322041
1951,-153,4,1,0,27,42.381050
1103,35,1,0,0,0,858.235413
1701,-948,4,0,0,27,42.381050
1388,1277,1,1,0,10,33.322041
1587,-1837,4,0,0,27,42.381050
1728,591,1,0,0,10,33.322041
1521,-682,4,0,0,0,739.714844
780,378,1,0,0,0,927.779846
474,-1081,4,0,0,0,838.877380
662,1414,1,0,0,0,758.495361
479,-1850,4,0,0,27,42.381050
1394,530,1,0,0,0,771.653381
581,-1512,4,0,0,0,747.940491
6,12,1,0,0,0,2130.261963
211,-1796,4,0,0,27,42.381050
532,740,1,0,0,0,913.320923
654,-35,4,0,0,0,1008.538025
1794,1484,1,0,0,10,33.322041
837,-1161,4,1,0,27,42.381050
868,791,1,0,0,0,840.343750
71,-648,4,0,0,0,1009.887146
752,471,1,0,0,0,921.027405
744,-372,4,1,0,10,33.322041
407,1477,1,1,0,10,33.322041
835,-56,4,0,0,0,937.890137
1237,1238,1,0,0,0,725.750732
1517,-588,4,1,0,27,42.381050
1882,1860,1,1,0,10,33.322041
281,-1917,4,0,0,27,42.381050
1516,247,1,0,0,0,763.185974
652,-128,4,0,0,0,1004.382446
1898,1041,1,0,0,10,33.322041
825,-614,4,0,0,0,878.535583
1,1906,1,1,0,10,33.322041
1208,-600,4,0,0,0,800.517578
1197,1622,1,1,0,10,33.322041
1548,-1097,4,0,0,27,42.381050
1697,1476,1,0,0,10,33.322041
989,-707,4,0,0,0,830.385864
1576,1704,1,1,0,10,33.322041
355,-580,4,0,0,0,997.704590
1530,1394,1,0,0,10,33.322041
1781,-1913,4,0,0,27,42.381050
1216,95,1,1,0,10,33.322041
1317,-836,4,0,0,0,758.745972
1509,-1019,4,0,0,27,42.381050
1125,-485,4,0,0,0,828.176819
228,-1900,4,0,0,27,42.381050
969,-764,4,0,0,0,826.102295
68,-60,4,1,0,0,802.923828
40,-1352,4,1,0,27,42.381050
1698,-1142,4,0,0,27,42.381050
1912,-333,4,0,0,27,42.381050
294,-197,4,1,0,10,33.322041
275,-278,4,1,0,10,33.322041
1082,-1032,4,0,0,0,770.905762
821,-661,4,0,0,0,871.453369
102,-466,4,0,0,0,1099.929077
1432,-300,4,0,0,0,777.149170
479,-1114,4,1,0,27,42.381050
1334,-973,4,0,0,0,742.439209
1386,-519,4,0,0,0,773.851013
1803,-612,4,0,0,27,42.381050
