396.692627,396.692627,396.692627,396.692627,396.692627,396.692627,396.692627,396.692627,396.692627,396.692627,396.692627,396.692627,396.692627,396.692627,396.692627,396.692627,396.692627,396.692627,396.692627,396.692627,396.692627,396.692627,396.692627,396.692627,396.692627,396.692627,396.692627,396.692627,396.692627,396.692627,396.692627,396.692627,396.692627,396.692627,396.692627,396.692627,396.692627,396.692627,396.692627,396.692627,396.692627,396.692627,396.692627,396.692627,396.692627,396.692627,396.692627,396.692627,396.692627,396.692627,396.692627,396.692627,396.692627,396.692627,396.692627,396.692627,396.692627,396.692627,396.692627,396.692627,396.692627,396.692627,396.692627,396.692627,396.692627,396.692627,396.692627,396.692627,396.692627,396.692627,396.692627,396.692627,396.692627,396.692627,396.692627,396.692627,396.692627,396.692627,396.692627,396.692627,396.692627,396.692627,396.692627,396.692627,396.692627,396.692627,396.692627,396.692627,396.692627,396.692627,396.692627,396.692627,396.692627,396.692627,396.692627,396.692627,396.692627,396.692627,396.692627,396.692627,

avg. max avg. throughput in test times
396.692657
avg. BS TX power in all test times
MBS area 1,MBS area 2,MBS area 3,MBS area 4,CBSD 1,CBSD 2,CBSD 3,CBSD 4,CBSD 5,
10.000,10.000,10.000,10.000,1.000,0.000,0.000,0.000,0.000,
avg. mbs all power,avg. cbsd enable number,avg. mbs area all power,avg. cbsd all power
47.500,1.000,40.000,1.000
avg. number of relay UE
66

BS TX power
MBS area 1,MBS area 2,MBS area 3,MBS area 4,CBSD 1,CBSD 2,CBSD 3,CBSD 4,CBSD 5,
10.000,10.000,10.000,10.000,1.000,0.000,0.000,0.000,0.000,
max average power
599.247803

x,y,area,be blocked (1 : NLOS / 0 : LOS),be blocked number (>=1 : CBSD(x) / 0 : no),connect bs number (>=1 : CBSD / 0 : MBS),throughput (unit : M bps)
131,205,1,0,0,0,1294.168823
-1326,886,2,0,0,1,139.036087
-117,-1872,3,0,0,1,139.036087
1726,-1445,4,0,0,1,139.036087
708,3,1,0,0,0,986.078796
-217,1541,2,1,0,1,139.036087
-958,-1683,3,0,0,1,139.036087
177,-1044,4,0,0,0,870.124756
197,646,1,0,0,0,999.681519
-899,1663,2,0,0,1,139.036087
-872,-541,3,1,0,1,139.036087
842,-1435,4,0,0,0,740.251465
1407,550,1,1,0,1,139.036087
-1420,668,2,1,0,1,139.036087
-1189,-1187,3,0,0,0,737.455322
1710,-924,4,0,0,1,139.036087
1314,299,1,1,0,1,139.036087
-1016,718,2,0,0,1,139.036087
-1700,-577,3,0,0,1,139.036087
382,-387,4,0,0,0,1062.164917
1726,903,1,0,0,1,139.036087
-1777,1693,2,0,0,1,139.036087
-1058,-46,3,0,0,0,870.097168
682,-229,4,0,0,0,981.469360
1474,1888,1,0,0,1,139.036087
-1788,1359,2,0,0,1,139.036087
-1719,-1585,3,0,0,1,139.036087
988,-1953,4,1,0,1,139.036087
1948,451,1,0,0,1,139.036087
-1370,1002,2,0,0,1,139.036087
-194,-291,3,1,0,1,139.036087
1076,-271,4,1,0,1,139.036087
1740,21,1,1,0,1,139.036087
-664,484,2,0,0,1,139.036087
-47,-871,3,0,0,0,925.957520
1471,-1584,4,0,0,1,139.036087
1526,1204,1,1,0,1,139.036087
-1337,921,2,0,0,1,139.036087
-679,-1816,3,0,0,1,139.036087
271,-801,4,1,0,1,139.036087
717,1357,1,0,0,0,763.412903
-799,440,2,0,0,1,139.036087
-105,-1807,3,1,0,1,139.036087
345,-499,4,0,0,0,1030.616333
594,657,1,0,0,0,921.551636
-22,754,2,0,0,0,967.816589
-1761,-471,3,1,0,1,139.036087
1963,-1662,4,1,0,1,139.036087
977,1201,1,0,0,0,760.912537
-971,1074,2,0,0,1,139.036087
-451,-863,3,0,0,0,894.262085
1809,-835,4,0,0,1,139.036087
949,1243,1,0,0,0,758.024353
-1670,436,2,0,0,1,139.036087
-1420,-194,3,0,0,0,783.079346
1891,-182,4,1,0,1,139.036087
1535,263,1,0,0,0,759.218201
-1926,851,2,1,0,1,139.036087
-844,-614,3,0,0,0,874.283264
1265,-1169,4,1,0,1,139.036087
1200,1897,1,0,0,1,139.036087
-1920,355,2,1,0,1,139.036087
-473,-1558,3,0,0,0,746.450867
1957,-132,4,0,0,1,139.036087
1202,1217,1,0,0,0,732.306458
-1401,1510,2,0,0,1,139.036087
-1801,-1847,3,0,0,1,139.036087
657,-1521,4,0,0,0,741.453247
1143,1710,1,0,0,1,139.036087
-1378,689,2,0,0,1,139.036087
-557,-670,3,0,0,0,926.279907
162,-162,4,0,0,0,1311.493408
1513,1858,1,1,0,1,139.036087
-1082,854,2,0,0,1,139.036087
-1699,-67,3,0,0,0,734.022217
385,-1073,4,0,0,0,848.890869
1689,1427,1,0,0,1,139.036087
-1056,662,2,1,0,1,139.036087
-1550,-874,3,0,0,1,139.036087
264,93,1,0,0,0,1253.716187
-349,1087,2,1,0,1,139.036087
-1569,-294,3,0,0,0,752.130249
1840,917,1,0,0,1,139.036087
-1068,1551,2,0,0,1,139.036087
-1709,-1201,3,0,0,1,139.036087
158,1907,1,0,0,1,139.036087
-1744,-28,3,0,0,0,726.712830
1671,1672,1,1,0,1,139.036087
-272,-535,3,0,0,0,1033.711304
431,1326,1,1,0,1,139.036087
-1312,-1415,3,1,0,1,139.036087
1109,1450,1,0,0,1,139.036087
-1736,-1015,3,1,0,1,139.036087
1394,290,1,0,0,0,784.958740
-1742,-441,3,0,0,1,139.036087
1299,231,1,0,0,0,806.856995
326,318,1,0,0,0,1113.305908
1751,447,1,0,0,1,139.036087
1363,1798,1,0,0,1,139.036087
1383,1442,1,1,0,1,139.036087
