mbs coordinate
0,0

cbsd coordinate and channel
-970,900,2
740,900,1
980,-860,1
-750,-850,5
-750,1000,4
1050,600,2
760,-1135,3
-870,-1100,1
-1080,450,1
970,530,3
540,-1000,2
-1200,-300,3
-200,1170,7
820,1255,4
930,-1080,6
-1115,-505,2
-180,1230,3
500,1150,8
1200,-450,10
-500,-1100,7
-650,980,9
1180,450,9
700,-1160,7
-1050,-900,8
-1200,820,10
1200,1000,11
1340,-1120,12
-1440,-1280,10
-1160,1350,13
1420,960,14

building coordinate
-885,985
-1055,815
830,810
650,990
1060,-860
900,-860
-830,-770
-670,-930
-668,1070
-832,930
965,675
1135,525
832,-1059
688,-1211
-965,-1035
-775,-1165
-1135,365
-1025,535
907,591
1033,469
638,-906
442,-1094
-1275,-390
-1125,-210
-298,1123
-102,1217
910,1206
730,1304
1005,-1005
855,-1155
-1178,-407
-1052,-603
-120,1290
-240,1170
410,1240
590,1060
1275,-375
1125,-525
-577,-1023
-423,-1177
-600,1070
-710,890
1135,535
1225,365
743,-1077
657,-1243
-1138,-855
-962,-945
-1100,866
-1300,774
1100,1100
1300,900
1440,-1020
1240,-1220
-1540,-1180
-1340,-1380
-1060,1450
-1260,1250
1320,1060
1520,860

area numbers
325,301,279,295

x , y , block , block number
area 1
897,1940,0,0
1502,535,0,0
288,1674,0,0
1944,1436,1,0
163,1203,1,0
219,1373,0,0
1266,836,0,0
68,1065,0,0
422,1200,0,0
1791,1955,0,0
1047,1241,0,0
1876,1010,0,0
1562,501,0,0
1319,1203,0,0
262,1000,0,0
426,1351,0,0
495,727,0,0
579,1775,0,0
1988,1985,0,0
431,1477,0,0
733,218,0,0
73,890,0,0
1544,1767,0,0
641,777,1,0
472,1969,0,0
1805,1457,0,0
566,1363,0,0
1690,798,1,0
1194,1838,0,0
697,198,0,0
1790,771,0,0
227,10,0,0
474,186,0,0
182,1807,0,0
745,1286,0,0
246,836,0,0
472,50,0,0
103,745,0,0
1337,1918,0,0
1481,752,0,0
1642,1518,0,0
1319,1768,0,0
833,1087,0,0
49,372,0,0
1036,961,0,0
648,685,0,0
8,1078,1,0
1245,867,0,0
119,1352,0,0
1389,1409,0,0
1938,633,0,0
948,727,0,0
1523,1470,0,0
1952,311,0,0
523,546,0,0
190,1894,0,0
41,792,0,0
242,632,1,0
506,1690,0,0
696,435,0,0
1991,1772,0,0
867,831,0,0
1993,601,0,0
276,1917,0,0
507,1019,0,0
667,398,1,0
1254,487,0,0
1917,1079,0,0
1268,1452,0,0
1098,1555,0,0
892,1114,0,0
152,812,0,0
237,1123,0,0
1469,1078,0,0
924,1312,0,0
1287,1659,0,0
1482,639,0,0
1546,1107,0,0
1997,602,0,0
1297,1998,0,0
627,1954,1,0
137,7,0,0
682,897,0,0
1985,529,0,0
801,1302,0,0
1122,803,0,0
1846,576,0,0
1780,708,0,0
773,1951,0,0
1618,560,0,0
275,546,0,0
561,1573,0,0
1708,1913,0,0
1389,1693,0,0
573,210,0,0
1345,1545,0,0
1231,967,0,0
920,1737,0,0
739,859,0,0
409,1755,0,0
1742,1479,0,0
158,1895,1,0
664,227,0,0
1244,578,0,0
145,549,0,0
1994,1640,0,0
1525,876,0,0
534,1791,0,0
1206,244,0,0
1536,1243,0,0
979,408,0,0
1593,601,1,0
1241,1624,0,0
897,1208,0,0
1307,663,0,0
1257,1516,0,0
1043,650,0,0
1799,154,0,0
1025,1450,0,0
1558,253,0,0
274,406,0,0
854,1641,1,0
1713,1073,0,0
1603,1689,0,0
775,493,0,0
825,76,0,0
1994,191,0,0
1278,701,0,0
1408,955,1,0
84,1561,0,0
1513,676,0,0
558,513,0,0
1976,1266,0,0
1777,1418,0,0
1414,314,0,0
985,1386,0,0
1529,1623,0,0
1472,1370,0,0
237,13,0,0
1596,769,0,0
440,535,0,0
968,1079,0,0
951,718,1,0
1385,859,0,0
1730,1299,0,0
485,1780,0,0
1330,714,1,0
718,445,0,0
1495,1328,0,0
963,1041,0,0
942,266,0,0
1719,493,0,0
1249,1358,0,0
784,1177,0,0
22,1538,0,0
391,23,0,0
842,1744,0,0
1471,1800,0,0
556,790,0,0
361,925,0,0
1603,450,0,0
355,654,1,0
1613,1,0,0
582,754,0,0
756,1057,0,0
1527,142,0,0
157,1315,1,0
989,844,0,0
1187,1868,0,0
1253,1634,0,0
767,618,0,0
402,1376,0,0
1293,836,0,0
1662,1978,0,0
839,490,1,0
1430,121,0,0
1578,621,0,0
1998,58,0,0
1234,1731,0,0
1426,430,0,0
309,999,0,0
44,1912,0,0
1062,693,1,0
885,162,0,0
527,1588,0,0
1090,480,1,0
1654,1001,0,0
1505,747,0,0
162,689,0,0
1818,1094,0,0
1862,1624,0,0
222,44,0,0
332,1863,0,0
1724,1675,0,0
460,1953,0,0
673,626,0,0
1346,187,0,0
747,479,0,0
1321,360,0,0
598,1943,0,0
1461,1494,0,0
1464,1217,0,0
564,714,0,0
417,534,0,0
965,1673,0,0
568,1766,0,0
930,1042,0,0
1334,1754,0,0
1939,1325,1,0
1298,1403,0,0
1179,45,0,0
580,916,0,0
108,488,0,0
501,1493,0,0
856,917,0,0
1518,911,0,0
470,265,0,0
1767,698,0,0
76,541,0,0
332,190,0,0
1942,1736,0,0
304,1463,0,0
965,1472,0,0
149,1784,0,0
1131,1958,0,0
827,79,0,0
1341,707,0,0
171,596,0,0
272,295,0,0
1386,280,0,0
1356,890,0,0
1292,1625,0,0
976,1788,0,0
1684,402,0,0
642,566,0,0
795,754,0,0
356,1128,1,0
374,1983,0,0
1570,81,1,0
1302,1447,0,0
1999,547,1,0
23,1718,0,0
1329,570,0,0
1411,595,0,0
1106,775,0,0
1476,359,0,0
1736,1590,0,0
8,268,1,0
685,1137,0,0
679,1247,1,0
332,1929,0,0
1514,195,0,0
337,364,0,0
1637,1940,0,0
523,840,0,0
1489,1736,0,0
35,1255,0,0
466,1857,0,0
447,1665,0,0
1070,1497,0,0
271,1383,0,0
1277,1524,1,0
583,1796,0,0
1332,564,0,0
1102,84,1,0
390,1781,0,0
247,102,0,0
159,1550,0,0
1012,1579,0,0
421,189,0,0
495,1030,0,0
1832,1171,0,0
150,1223,0,0
1308,671,0,0
350,1092,0,0
1816,1538,0,0
1204,1041,0,0
876,296,0,0
1219,1779,0,0
406,349,0,0
109,54,0,0
1090,1000,0,0
1296,365,0,0
1749,448,0,0
590,1518,0,0
873,1328,0,0
1619,1153,0,0
140,5,0,0
1077,398,0,0
606,1167,0,0
215,1332,0,0
1077,44,0,0
1872,1186,0,0
311,486,0,0
1237,688,0,0
968,930,0,0
1299,1961,0,0
504,1290,0,0
1585,1910,0,0
1843,511,1,0
1580,822,0,0
1208,24,0,0
803,1842,1,0
1102,1197,0,0
1653,1464,0,0
1984,469,0,0
1067,1366,0,0
75,125,0,0
398,37,0,0
1977,1779,0,0
1160,1442,0,0
517,948,0,0
1762,1135,0,0
1966,1262,0,0
725,1518,0,0
1246,1655,0,0
1234,1529,0,0
1109,220,0,0
306,526,0,0
783,131,0,0
1271,1170,0,0
1071,1140,0,0
1864,1037,0,0
1869,1288,0,0
1930,1787,0,0
area 2
-1303,1847,0,0
-725,1963,0,0
-376,1812,0,0
-942,1096,0,0
-630,101,0,0
-1044,740,0,0
-955,1877,0,0
-133,1976,0,0
-1506,1040,0,0
-693,740,0,0
-1445,1098,0,0
-1243,1871,0,0
-980,586,0,0
-1406,1854,0,0
-1954,1662,0,0
-658,704,0,0
-26,596,0,0
-496,1406,0,0
-1625,1568,0,0
-1898,1694,1,0
-393,1191,0,0
-1087,1101,0,0
-1173,792,0,0
-1597,82,0,0
-227,1483,0,0
-1778,506,0,0
-1981,153,0,0
-256,1200,0,0
-1799,647,0,0
-849,1311,0,0
-1888,1334,0,0
-1088,1042,0,0
-204,752,0,0
-229,737,0,0
-1205,905,0,0
-1763,650,0,0
-1171,1942,0,0
-1194,1875,0,0
-1997,369,0,0
-1808,787,0,0
-1540,1728,0,0
-1387,1071,0,0
-576,1423,1,0
-1240,539,0,0
-494,410,0,0
-377,860,0,0
-1106,1667,0,0
-1373,1696,0,0
-189,1669,0,0
-56,1829,0,0
-794,1918,0,0
-643,319,0,0
-842,1091,0,0
-69,1202,0,0
-1497,1836,1,0
-1689,1656,0,0
-517,443,0,0
-755,1586,0,0
-848,1492,0,0
-429,21,0,0
-121,373,0,0
-843,74,1,0
-1863,959,0,0
-788,938,0,0
-1819,480,0,0
-603,1351,0,0
-1067,1639,0,0
-1539,97,0,0
-810,1045,0,0
-1765,1364,0,0
-1636,610,0,0
-1654,97,0,0
-1743,1008,0,0
-621,523,0,0
-1040,90,0,0
-154,1509,0,0
-1655,6,1,0
-1361,692,0,0
-1421,531,0,0
-54,1012,0,0
-1850,38,0,0
-488,1873,0,0
-1468,1385,1,0
-1372,763,0,0
-1443,1627,1,0
-1595,958,0,0
-1433,1766,0,0
-362,1387,0,0
-201,1987,0,0
-116,69,0,0
-1595,699,0,0
-61,1664,0,0
-948,227,0,0
-1579,367,0,0
-354,1277,0,0
-692,695,0,0
-1642,1306,0,0
-432,531,0,0
-1150,661,0,0
-1530,949,0,0
-247,213,0,0
-1022,737,0,0
-1255,254,0,0
-1384,1642,0,0
-860,1272,0,0
-15,1459,0,0
-162,641,0,0
-265,1368,0,0
-1831,1387,0,0
-1280,545,0,0
-92,999,0,0
-270,565,0,0
-1642,547,0,0
-1015,1098,0,0
-1216,719,0,0
-177,1114,0,0
-1165,869,0,0
-1438,1627,0,0
-580,101,0,0
-869,1509,0,0
-326,1165,0,0
-984,1009,0,0
-1364,864,0,0
-224,213,0,0
-1112,85,0,0
-563,1529,0,0
-1555,1901,0,0
-992,136,0,0
-398,1196,0,0
-270,555,0,0
-692,1939,0,0
-819,443,0,0
-70,337,0,0
-1062,1468,0,0
-1934,198,0,0
-657,986,0,0
-59,1339,0,0
-1712,1738,0,0
-912,1672,0,0
-591,847,0,0
-900,267,0,0
-803,683,0,0
-1074,462,1,0
-391,822,0,0
-289,198,0,0
-1176,61,1,0
-870,613,1,0
-1573,591,0,0
-1336,1551,0,0
-890,1882,0,0
-1542,224,0,0
-817,86,0,0
-1852,755,1,0
-506,1204,1,0
-1137,1689,0,0
-542,210,0,0
-108,4,0,0
-1385,1552,0,0
-181,1019,0,0
-825,970,0,0
-555,853,1,0
-554,771,0,0
-1039,1931,0,0
-68,1628,0,0
-1049,255,0,0
-1227,480,0,0
-161,1127,0,0
-956,1557,0,0
-652,966,0,0
-610,1540,0,0
-509,1288,0,0
-154,25,0,0
-600,78,1,0
-1757,168,0,0
-1586,330,0,0
-1084,11,0,0
-112,1076,0,0
-641,1191,1,0
-446,840,0,0
-1008,1155,0,0
-1005,1399,0,0
-170,363,0,0
-1021,1709,0,0
-456,964,0,0
-238,1082,0,0
-299,999,0,0
-689,165,0,0
-8,166,0,0
-1190,1257,0,0
-1188,1303,0,0
-1539,1693,0,0
-1567,590,1,0
-1096,378,0,0
-631,210,0,0
-880,1934,0,0
-1031,604,0,0
-652,26,0,0
-825,1979,0,0
-897,1224,0,0
-1105,893,0,0
-1903,351,0,0
-1485,516,0,0
-1450,1478,0,0
-128,1515,0,0
-1249,1116,1,0
-869,1408,0,0
-500,44,0,0
-1385,82,0,0
-1309,748,0,0
-767,1340,0,0
-1805,1847,0,0
-36,1761,0,0
-1165,1310,0,0
-1904,906,0,0
-84,586,0,0
-167,964,0,0
-1877,337,0,0
-417,1985,0,0
-921,606,0,0
-277,1344,0,0
-240,359,0,0
-645,64,0,0
-1890,1175,0,0
-187,1907,0,0
-374,205,0,0
-606,100,0,0
-1072,1741,0,0
-1367,1324,0,0
-310,1839,0,0
-1917,1570,0,0
-1157,1345,0,0
-1372,1413,0,0
-868,804,0,0
-543,1759,0,0
-604,1036,0,0
-149,42,0,0
-565,774,0,0
-335,1739,0,0
-1845,1615,0,0
-1046,876,0,0
-242,1985,0,0
-804,1618,0,0
-331,1256,0,0
-133,129,1,0
-780,1763,0,0
-1627,1664,0,0
-1913,1636,0,0
-117,1966,0,0
-1162,63,0,0
-1942,1270,0,0
-329,1573,0,0
-1251,83,0,0
-303,1537,0,0
-1542,537,0,0
-333,1492,0,0
-35,1830,0,0
-1109,1797,0,0
-1771,1733,0,0
-295,1391,0,0
-721,348,0,0
-648,1094,0,0
-527,1081,0,0
-735,1693,1,0
-51,18,0,0
-616,357,0,0
-1642,1834,0,0
-1036,73,1,0
-124,248,0,0
-1131,1402,0,0
-582,30,0,0
-1927,1552,0,0
-1856,1962,0,0
-44,916,0,0
-1758,1061,0,0
-1626,508,0,0
-1653,1033,0,0
-715,1764,0,0
-1394,1022,0,0
-140,319,0,0
-436,1968,0,0
-1132,380,1,0
-623,1737,1,0
-926,117,0,0
-326,777,0,0
-1738,1810,0,0
-1701,212,1,0
-1482,1409,0,0
-54,1218,0,0
-1918,438,0,0
-994,1362,1,0
-1012,154,0,0
-1439,67,0,0
-1411,863,0,0
-812,1227,1,0
-1054,1732,1,0
-1334,1374,0,0
-1307,1475,0,0
-1976,209,0,0
-433,610,0,0
-1017,1225,0,0
-1930,1988,0,0
area 3
-102,-153,0,0
-1207,-241,0,0
-1492,-1650,0,0
-1530,-1561,0,0
-1134,-1042,0,0
-1543,-34,0,0
-1386,-1769,0,0
-692,-290,0,0
-959,-471,0,0
-1568,-888,0,0
-1915,-1683,0,0
-223,-435,0,0
-960,-46,1,0
-711,-586,0,0
-1301,-558,0,0
-1887,-1631,1,0
-1551,-559,0,0
-1514,-320,0,0
-1096,-1036,0,0
-1168,-1560,0,0
-1185,-1506,0,0
-1416,-1905,0,0
-1708,-911,0,0
-1355,-27,0,0
-1920,-1158,0,0
-900,-1335,0,0
-1030,-236,0,0
-212,-1319,0,0
-1312,-1269,0,0
-1147,-1932,0,0
-896,-1427,0,0
-1742,-1991,0,0
-628,-209,0,0
-1476,-1627,0,0
-489,-1831,0,0
-161,-1839,0,0
-1514,-584,0,0
-1026,-512,0,0
-1020,-1925,0,0
-61,-967,0,0
-1769,-1921,0,0
-1683,-926,0,0
-751,-1522,0,0
-1674,-1696,0,0
-265,-551,0,0
-1354,-1420,0,0
-493,-29,0,0
-1090,-818,0,0
-986,-1511,0,0
-486,-325,1,0
-847,-236,0,0
-1174,-830,0,0
-1758,-379,0,0
-473,-1935,0,0
-1039,-692,0,0
-1024,-22,0,0
-547,-1300,1,0
-1807,-206,0,0
-1495,-1272,0,0
-987,-1436,0,0
-1037,-1655,0,0
-1544,-1779,0,0
-622,-1567,0,0
-1773,-113,0,0
-1298,-1849,0,0
-320,-1222,0,0
-593,-1275,0,0
-1641,-1477,0,0
-1244,-1129,0,0
-409,-844,0,0
-1036,-1052,0,0
-454,-954,0,0
-1321,-1014,0,0
-186,-971,0,0
-682,-814,0,0
-890,-730,0,0
-1554,-1384,0,0
-115,-106,0,0
-1390,-1922,0,0
-1944,-115,0,0
-60,-586,0,0
-1021,-853,0,0
-911,-162,0,0
-530,-672,0,0
-357,-939,0,0
-975,-1554,0,0
-1888,-1106,0,0
-488,-198,0,0
-1922,-358,1,0
-940,-1591,1,0
-976,-785,0,0
-1670,-198,0,0
-400,-948,0,0
-1994,-47,0,0
-523,-1041,0,0
-1780,-1906,0,0
-256,-1911,0,0
-1440,-1174,0,0
-900,-1945,0,0
-1828,-1552,0,0
-45,-237,0,0
-1181,-132,0,0
-188,-1211,0,0
-168,-1722,0,0
-761,-1307,0,0
-1358,-158,0,0
-852,-782,0,0
-1347,-230,0,0
-834,-1160,0,0
-1,-763,0,0
-1579,-135,0,0
-406,-1304,0,0
-397,-930,0,0
-1431,-482,0,0
-54,-1021,0,0
-1556,-701,0,0
-592,-1712,0,0
-1774,-15,0,0
-1661,-1288,0,0
-429,-865,1,0
-510,-624,0,0
-401,-201,0,0
-1200,-1237,0,0
-865,-1707,0,0
-1280,-1217,0,0
-1310,-539,0,0
-1485,-588,0,0
-539,-158,0,0
-822,-635,0,0
-267,-1938,0,0
-537,-1208,0,0
-1769,-345,0,0
-1359,-1340,0,0
-993,-477,0,0
-365,-359,0,0
-1265,-166,1,0
-1474,-655,0,0
-1925,-1133,0,0
-333,-875,0,0
-1867,-184,0,0
-1779,-1196,0,0
-323,-308,1,0
-1627,-209,0,0
-1667,-800,0,0
-774,-1755,0,0
-235,-732,0,0
-1655,-1546,0,0
-666,-559,1,0
-1524,-1228,1,0
-782,-980,0,0
-1627,-1554,0,0
-1963,-194,0,0
-1701,-474,0,0
-877,-1540,0,0
-547,-730,0,0
-1815,-340,0,0
-1836,-1975,0,0
-1055,-398,0,0
-1613,-144,0,0
-1207,-1402,0,0
-816,-1386,0,0
-1744,-1152,0,0
-785,-261,0,0
-1138,-1089,1,0
-233,-110,0,0
-559,-1761,0,0
-849,-735,0,0
-1455,-1006,0,0
-1333,-662,0,0
-1868,-479,0,0
-146,-783,0,0
-1175,-905,0,0
-164,-1727,0,0
-727,-1026,0,0
-1809,-1431,0,0
-272,-1274,0,0
-1547,-340,0,0
-1077,-472,0,0
-1948,-1801,1,0
-124,-1835,1,0
-1310,-324,1,0
-298,-1674,0,0
-207,-908,0,0
-987,-1411,0,0
-1589,-1320,0,0
-1447,-1635,0,0
-657,-641,0,0
-866,-1967,0,0
-198,-1178,0,0
-566,-163,0,0
-23,-1305,0,0
-1013,-176,0,0
-840,-829,0,0
-159,-1995,0,0
-124,-733,0,0
-979,-1419,0,0
-793,-220,0,0
-1521,-1537,0,0
-319,-69,0,0
-1956,-974,1,0
-1754,-1169,0,0
-1089,-198,0,0
-1847,-1132,0,0
-1348,-484,0,0
-908,-1147,0,0
-549,-911,1,0
-1421,-360,0,0
-1221,-561,0,0
-274,-99,0,0
-1368,-1915,0,0
-71,-1813,0,0
-1668,-457,1,0
-105,-114,0,0
-94,-809,0,0
-1852,-889,0,0
-62,-650,0,0
-720,-1283,0,0
-1501,-959,0,0
-421,-1159,0,0
-1150,-1805,0,0
-696,-1839,0,0
-921,-1626,0,0
-1658,-130,0,0
-1211,-947,0,0
-1244,-1325,0,0
-203,-1647,0,0
-135,-793,1,0
-767,-1741,0,0
-1949,-1677,0,0
-486,-385,0,0
-1909,-612,0,0
-515,-1022,0,0
-1978,-102,0,0
-391,-960,0,0
-562,-1042,0,0
-1626,-1183,0,0
-702,-723,0,0
-1774,-1858,0,0
-997,-1120,1,0
-495,-1461,0,0
-1773,-1150,1,0
-910,-1686,0,0
-1662,-886,0,0
-795,-1215,0,0
-1946,-1731,0,0
-1609,-1187,0,0
-654,-1960,1,0
-554,-383,1,0
-642,-1882,0,0
-1549,-543,0,0
-1831,-392,0,0
-455,-292,0,0
-1570,-732,0,0
-1938,-969,0,0
-1430,-1909,1,0
-1213,-1222,0,0
-1739,-499,0,0
-521,-914,1,0
-1170,-1330,0,0
-976,-611,0,0
-1548,-938,1,0
-237,-391,0,0
-1510,-1385,0,0
-231,-747,0,0
-1408,-1323,1,0
-155,-1831,0,0
-990,-621,0,0
-1833,-23,0,0
-257,-683,0,0
-320,-1848,0,0
-771,-674,0,0
-1052,-1567,1,0
-674,-57,0,0
-1161,-206,0,0
-569,-433,0,0
-1952,-355,0,0
-1705,-44,0,0
-1667,-556,0,0
-1962,-943,0,0
area 4
1258,-358,0,0
1005,-1096,0,0
1072,-863,1,0
205,-1019,0,0
910,-1862,0,0
1388,-1569,0,0
1526,-394,0,0
1192,-1061,1,0
393,-1680,0,0
703,-373,1,0
1555,-711,0,0
1148,-9,0,0
547,-1226,0,0
1925,-1809,0,0
1334,-313,0,0
1143,-1491,0,0
1033,-832,0,0
769,-1123,0,0
1064,-514,0,0
1160,-681,0,0
1761,-856,0,0
1254,-435,1,0
1412,-116,0,0
831,-439,0,0
185,-718,0,0
398,-1230,0,0
645,-633,0,0
1172,-451,0,0
1367,-849,0,0
687,-1262,0,0
1195,-1922,0,0
420,-1754,0,0
1570,-892,0,0
1252,-1612,1,0
393,-1584,0,0
585,-225,0,0
1768,-1765,0,0
857,-638,0,0
530,-236,0,0
803,-80,0,0
1076,-1052,0,0
88,-12,0,0
750,-1527,0,0
1848,-648,0,0
63,-794,0,0
1831,-784,0,0
520,-1813,0,0
797,-1868,0,0
378,-970,0,0
1546,-1684,0,0
1196,-101,0,0
1936,-578,1,0
1101,-1727,1,0
1021,-327,0,0
1276,-1698,0,0
578,-335,0,0
1285,-126,0,0
1018,-412,0,0
641,-6,0,0
1668,-766,0,0
1900,-815,0,0
955,-1737,0,0
239,-981,1,0
796,-127,0,0
620,-84,0,0
1724,-1814,0,0
479,-1159,0,0
256,-214,0,0
1174,-551,0,0
1359,-675,0,0
1320,-9,0,0
1867,-1700,0,0
1528,-837,0,0
963,-818,0,0
64,-1981,0,0
676,-1196,0,0
51,-1378,0,0
24,-1371,0,0
193,-2000,0,0
550,-1410,0,0
227,-196,0,0
1621,-1765,0,0
1210,-1027,0,0
862,-1777,0,0
167,-1280,0,0
971,-274,0,0
146,-7,0,0
1534,-576,0,0
1806,-1495,1,0
384,-603,0,0
1318,-1807,0,0
1416,-819,0,0
891,-818,0,0
705,-218,0,0
1074,-1915,1,0
475,-46,0,0
1338,-1712,1,0
1324,-1551,0,0
1327,-1539,0,0
1434,-148,0,0
789,-43,0,0
499,-1654,0,0
209,-1914,0,0
643,-62,0,0
1166,-150,0,0
1022,-586,0,0
1600,-1685,0,0
894,-1944,0,0
1330,-243,0,0
1162,-622,0,0
1116,-570,1,0
1763,-885,0,0
1491,-1926,0,0
980,-1990,0,0
1355,-1650,0,0
1331,-680,0,0
633,-74,0,0
1976,-1454,0,0
388,-1140,1,0
419,-1664,0,0
810,-678,1,0
480,-176,1,0
854,-141,0,0
1748,-1582,0,0
1058,-685,0,0
1079,-1345,0,0
1507,-179,0,0
1647,-1366,0,0
1789,-1992,0,0
8,-1424,1,0
373,-310,0,0
502,-1431,0,0
237,-328,0,0
236,-10,0,0
572,-1208,0,0
318,-1100,0,0
1462,-1061,0,0
462,-366,0,0
475,-1839,0,0
1130,-1739,0,0
72,-435,0,0
1794,-925,0,0
1092,-1895,0,0
497,-535,0,0
1835,-588,0,0
606,-537,0,0
92,-1795,0,0
381,-1513,0,0
480,-81,0,0
423,-505,0,0
263,-896,0,0
658,-52,0,0
1012,-1397,0,0
1473,-1026,0,0
537,-1513,0,0
1663,-1611,0,0
318,-1436,0,0
475,-1976,0,0
371,-489,0,0
750,-389,0,0
587,-572,1,0
687,-1192,0,0
45,-1978,0,0
66,-109,0,0
1310,-434,0,0
321,-761,0,0
444,-25,0,0
1199,-225,0,0
477,-199,0,0
1298,-862,0,0
1851,-565,1,0
305,-872,1,0
504,-92,0,0
864,-210,0,0
968,-1041,1,0
1132,-496,1,0
1378,-645,0,0
834,-1226,1,0
1749,-304,0,0
550,-974,1,0
1755,-107,0,0
1443,-164,0,0
746,-156,0,0
990,-197,0,0
1562,-203,0,0
1256,-155,0,0
683,-1758,0,0
482,-518,0,0
1449,-174,0,0
1369,-1336,0,0
1494,-579,0,0
1920,-1050,0,0
120,-1664,0,0
1545,-489,0,0
1657,-434,0,0
1330,-1450,0,0
1874,-1373,0,0
1387,-644,0,0
323,-1098,0,0
1027,-1183,0,0
920,-1656,0,0
175,-484,0,0
1882,-570,1,0
1253,-454,1,0
1622,-1016,0,0
1197,-496,0,0
11,-1733,0,0
1243,-1154,0,0
659,-752,0,0
331,-870,0,0
1288,-226,0,0
505,-721,0,0
890,-205,0,0
62,-826,0,0
261,-290,0,0
1985,-1261,1,0
279,-864,0,0
1707,-107,0,0
1224,-346,1,0
628,-675,0,0
252,-731,0,0
1513,-859,0,0
789,-999,0,0
227,-470,0,0
417,-534,0,0
252,-1505,0,0
1772,-1476,0,0
590,-695,0,0
1293,-1775,0,0
775,-1741,0,0
1933,-1165,0,0
568,-1822,0,0
1289,-488,0,0
61,-1410,0,0
637,-1497,0,0
135,-724,0,0
1298,-230,1,0
150,-33,0,0
1367,-1094,1,0
1970,-778,0,0
345,-799,0,0
196,-1546,0,0
1362,-1043,0,0
1260,-1173,0,0
785,-1362,0,0
1823,-933,1,0
1445,-927,0,0
945,-1655,0,0
373,-1263,0,0
370,-1011,0,0
757,-1897,0,0
1294,-212,0,0
406,-1822,0,0
1289,-302,0,0
1367,-1617,0,0
244,-203,0,0
1920,-1550,0,0
1532,-995,0,0
993,-705,0,0
628,-1302,0,0
1952,-509,0,0
1584,-1737,0,0
1962,-856,0,0
1363,-1397,0,0
520,-404,0,0
119,-1972,0,0
653,-1950,1,0
1792,-848,0,0
1373,-379,0,0
169,-388,0,0
1591,-1830,0,0
975,-994,0,0
268,-478,0,0
1559,-625,0,0
1950,-444,0,0
925,-100,0,0
1481,-1087,0,0
1156,-1233,0,0
1700,-57,0,0
1657,-1018,0,0
98,-1376,0,0
1482,-815,0,0
1004,-17,1,0
1455,-972,0,0
1513,-1428,0,0
1379,-1829,0,0
1392,-1344,0,0
1834,-1984,1,0
927,-1279,0,0
1481,-1687,0,0
1696,-1453,0,0
900,-129,0,0
1582,-1175,0,0
859,-1493,0,0
1449,-1684,0,0

near cbsd peopel number
62
68
58
57
62
70
47
62
54
66
53
58
66
60
42
56
67
62
72
54
64
67
48
52
54
72
57
60
60
69
