each times' max average throughput
582.723389,590.467651,577.685730,594.811462,592.445984,592.439270,596.286255,586.098999,594.783020,591.792603,591.136353,587.205566,591.962463,598.301392,586.619690,592.351807,591.970886,583.343811,585.352356,584.486877,591.256287,593.288757,594.278320,591.284424,591.349792,579.872803,583.684448,585.250305,589.338867,588.026367,594.658691,587.597107,598.260864,595.971985,594.768127,588.929382,595.632446,586.519104,592.044067,593.196411,592.265259,582.575745,588.110779,592.185547,593.205994,591.259399,596.374329,587.152161,585.461609,588.324341,597.313965,596.210754,596.908325,596.505310,588.768677,596.568604,597.581848,591.258057,598.506836,598.640320,592.195862,583.211487,588.812378,596.637939,591.120789,586.518677,576.680664,588.708435,595.647217,589.472229,593.212036,584.578430,584.484070,589.578491,590.138672,587.826477,589.730896,590.829224,597.342773,594.003540,578.185486,593.026917,574.188721,591.977173,591.319214,576.306702,567.930176,584.433777,593.077759,588.455627,583.304199,600.284424,583.204041,580.201721,597.623779,579.747192,583.717346,597.267578,584.570007,569.430847,
avg. throughput in all test times
589.516479
avg. BS TX power in all test times
MBS area 1,MBS area 2,MBS area 3,MBS area 4,CBSD 1,CBSD 2,CBSD 3,CBSD 4,CBSD 5,
8.200,8.125,8.325,8.150,0.284,0.290,0.338,0.319,0.311,
avg. mbs all power,avg. cbsd enable number,avg. mbs area all power,avg. cbsd all power
48.325,2.000,32.800,1.541
avg. max avg. throughput generation number in all test times
0.840000
avg. number of relay UE
130

the max average throughput times

BS TX power
MBS area 1,MBS area 2,MBS area 3,MBS area 4,CBSD 1,CBSD 2,CBSD 3,CBSD 4,CBSD 5,
5.000,10.000,5.000,8.750,0.000,0.875,0.000,0.000,0.750,
max average throughput
569.430847

x,y,area,be blocked (1 : NLOS / 0 : LOS),be blocked number (>=1 : CBSD(x) / 0 : no),connect bs number (>=1 : CBSD / 0 : MBS),throughput (unit : M bps)
1962,690,1,0,0,0,577.658264
-1910,454,2,0,0,0,692.835938
-183,-1373,3,0,0,0,693.467896
1444,-1040,4,1,0,2,141.395432
1748,1058,1,0,0,0,582.681824
-1109,1844,2,1,0,5,146.445969
-198,-380,3,1,0,2,141.395432
1376,-1931,4,1,0,2,141.395432
1387,1268,1,0,0,0,606.430603
-506,1710,2,0,0,0,720.363647
-388,-42,3,0,0,0,1057.878418
1561,-1948,4,0,0,0,605.259827
669,1163,1,0,0,0,702.591736
-157,1450,2,0,0,0,778.055908
-999,-1702,3,0,0,0,592.529053
1709,-884,4,0,0,0,679.495117
713,324,1,0,0,0,857.192932
-263,1267,2,0,0,0,812.438904
-186,-1576,3,0,0,0,654.593689
1196,-939,4,0,0,0,746.919861
1513,279,1,0,0,0,663.443359
-1060,1706,2,1,0,5,146.445969
-357,-616,3,1,0,5,146.445969
848,-457,4,0,0,0,878.141846
1734,75,1,0,0,0,629.054932
-1154,490,2,1,0,5,146.445969
-58,-595,3,0,0,0,934.954956
1620,-1937,4,0,0,0,601.993286
1228,861,1,1,0,2,141.395432
-1207,940,2,1,0,5,146.445969
-1865,-1600,3,1,0,5,146.445969
919,-270,4,0,0,0,879.778687
1716,519,1,0,0,0,619.830811
-1831,95,2,0,0,0,712.414001
-244,-1228,3,1,0,2,141.395432
1601,-962,4,0,0,0,687.989380
236,1620,1,1,0,2,141.395432
-473,608,2,1,0,5,146.445969
-438,-1597,3,0,0,0,642.443726
522,-1580,4,1,0,2,141.395432
1316,534,1,0,0,0,686.313049
-796,1438,2,0,0,0,743.751221
-54,-1502,3,0,0,0,670.120361
887,-1777,4,0,0,0,670.431885
1390,441,1,1,0,2,141.395432
-1489,182,2,0,0,0,769.977844
-468,-1311,3,0,0,0,692.048462
970,-1395,4,0,0,0,715.091492
1953,782,1,1,0,2,141.395432
-1489,875,2,1,0,5,146.445969
-199,-1392,3,0,0,0,689.159912
1938,-236,4,1,0,2,141.395432
526,913,1,0,0,0,771.888977
-205,1233,2,0,0,0,822.405396
-883,-550,3,0,0,0,775.564331
873,-421,4,0,0,0,876.381714
1454,1485,1,1,0,2,141.395432
-197,839,2,1,0,5,146.445969
-44,-1142,3,0,0,0,748.571106
257,-327,4,1,0,2,141.395432
1832,1796,1,0,0,0,518.463867
-662,981,2,1,0,5,146.445969
-1009,-1272,3,0,0,0,648.076294
1577,-164,4,0,0,0,734.924927
679,653,1,1,0,2,141.395432
-141,207,2,1,0,0,373.913757
-915,-377,3,0,0,0,789.905823
1202,-710,4,0,0,0,771.448059
271,770,1,1,0,2,141.395432
-393,822,2,0,0,0,913.405945
-558,-875,3,0,0,0,776.256104
806,-1248,4,0,0,0,753.587708
1844,915,1,0,0,0,580.569519
-332,312,2,1,0,5,146.445969
-892,-1298,3,0,0,0,656.758179
1678,-979,4,0,0,0,676.742126
13,549,1,1,0,2,141.395432
-359,879,2,0,0,0,901.526062
-1970,-141,3,0,0,0,592.311462
190,-271,4,0,0,0,1186.110596
720,1577,1,1,0,2,141.395432
-854,1677,2,0,0,0,704.941589
-276,-1151,3,1,0,2,141.395432
280,-1532,4,0,0,0,740.058716
1323,523,1,1,0,2,141.395432
-642,1705,2,0,0,0,714.232056
-953,-1890,3,0,0,0,572.680786
1398,-1806,4,0,0,0,630.565796
391,245,1,0,0,0,1009.593445
-325,815,2,0,0,0,924.263794
-541,-576,3,0,0,0,854.609375
1218,-215,4,1,0,2,141.395432
807,916,1,0,0,2,141.395432
-219,319,2,1,0,5,146.445969
-1590,-784,3,0,0,0,623.021912
1754,-1440,4,0,0,0,632.377686
1900,1095,1,1,0,2,141.395432
-931,575,2,0,0,0,860.671997
-1205,-1278,3,0,0,0,625.648438
716,-1769,4,1,0,2,141.395432
215,323,1,0,0,0,1059.548462
-1338,1693,2,0,0,0,665.801941
-1341,-1329,3,0,0,0,605.111755
343,-744,4,0,0,0,924.785278
1007,728,1,0,0,0,724.573914
-1798,1430,2,0,0,0,647.925476
-1618,-732,3,0,0,0,622.525024
677,-680,4,0,0,0,879.266907
910,1472,1,1,0,2,141.395432
-1992,1187,2,0,0,0,645.265869
-669,-708,3,0,0,0,794.455811
1871,-107,4,0,0,0,687.031494
1153,333,1,0,0,0,734.543579
-513,1501,2,0,0,0,753.945129
-472,-822,3,0,0,0,802.292358
1830,-1692,4,0,0,0,605.708618
385,206,1,1,0,2,141.395432
-926,1050,2,0,0,0,789.812988
-1010,-1442,3,0,0,0,624.996643
1220,-324,4,0,0,0,800.380493
1423,321,1,0,0,0,678.655518
-1213,421,2,0,0,0,814.675415
-1388,-427,3,1,0,5,146.445969
1402,-924,4,0,0,0,718.483093
1114,931,1,0,0,0,680.019836
-803,206,2,1,0,5,146.445969
-1636,-696,3,0,0,0,622.201965
1087,-719,4,0,0,0,791.197571
1390,1492,1,1,0,2,141.395432
-653,419,2,0,0,0,959.700439
-1752,-712,3,0,0,0,604.637268
805,-1755,4,0,0,0,678.498047
119,719,1,0,0,0,877.907715
-1891,1184,2,0,0,0,656.275696
-1246,-873,3,0,0,0,666.638794
1812,-1070,4,0,0,0,653.912231
1249,1885,1,1,0,2,141.395432
-1800,517,2,1,0,5,146.445969
-131,-1449,3,1,0,2,141.395432
1651,-1128,4,0,0,0,668.500488
887,1461,1,1,0,2,141.395432
-244,1465,2,0,0,0,772.844727
-152,-1680,3,0,0,0,637.174744
1878,-1702,4,0,0,0,600.942810
1740,1427,1,0,0,0,555.369446
-806,1413,2,0,0,0,746.715454
-337,-520,3,0,0,0,924.622070
250,-47,4,0,0,0,1262.037842
1231,1763,1,0,0,0,568.228149
-242,666,2,0,0,0,985.835510
-1417,-171,3,0,0,0,684.893494
839,-1633,4,1,0,2,141.395432
587,1827,1,0,0,0,600.486206
-66,1160,2,0,0,0,843.416870
-1114,-1826,3,0,0,0,569.712646
1692,-1534,4,1,0,2,141.395432
1861,491,1,0,0,0,599.643921
-1610,66,2,1,0,5,146.445969
-1956,-256,3,1,0,5,146.445969
1431,-1065,4,0,0,0,701.155701
302,792,1,0,0,0,834.435364
-94,1076,2,1,0,5,146.445969
-698,-193,3,0,0,0,879.726624
419,-337,4,0,0,0,1046.149414
1496,1010,1,0,0,0,617.891785
-864,557,2,1,0,5,146.445969
-215,-285,3,0,0,0,1083.568970
507,-112,4,0,0,0,1056.235840
364,644,1,0,0,0,873.606628
-776,1667,2,0,0,0,711.586670
-1800,-91,3,1,0,5,146.445969
1441,-1631,4,0,0,0,644.307007
725,45,1,0,0,0,878.851685
-613,615,2,0,0,0,927.261414
-193,-1478,3,0,0,0,672.492371
1584,-1946,4,0,0,0,603.795593
1378,1103,1,0,0,0,624.262329
-461,317,2,0,0,0,1053.959229
-264,-938,3,0,0,0,794.347534
292,-189,4,0,0,0,1171.778931
1387,1441,1,0,0,0,588.739441
-1478,502,2,1,0,5,146.445969
-1303,-888,3,0,0,0,656.419922
169,-1347,4,0,0,0,779.473755
195,1926,1,0,0,0,598.001587
-1808,737,2,0,0,0,694.410767
-574,-72,3,0,0,0,944.420898
1275,-1726,4,0,0,0,648.336731
1443,1353,1,0,0,0,591.872986
-1426,1400,2,1,0,5,146.445969
-283,-1311,3,0,0,0,702.696594
896,-1734,4,0,0,0,675.405762
979,199,1,0,0,0,787.190308
-1808,958,2,0,0,0,681.002930
-433,-316,3,1,0,5,146.445969
1385,-549,4,0,0,0,752.778320
1010,57,1,0,0,0,783.593384
-1835,1586,2,0,0,0,632.455994
-545,-1535,3,0,0,0,647.149353
100,-582,4,1,0,2,141.395432
1165,1095,1,0,0,0,652.463135
-1067,926,2,0,0,0,787.198914
-98,-165,3,0,0,0,1262.614624
811,-1833,4,0,0,0,667.808044
763,1679,1,0,0,0,611.778198
-1539,1466,2,1,0,5,146.445969
-19,-2000,3,0,0,0,588.735474
1706,-897,4,0,0,0,678.997620
1654,79,1,0,0,0,642.459290
-801,757,2,0,0,0,858.612305
-914,-1501,3,1,0,5,146.445969
1729,-1810,4,0,0,0,604.484009
644,853,1,0,0,2,141.395432
-213,1883,2,0,0,0,702.957886
-1135,-1552,3,0,0,0,599.930847
1495,-1087,4,0,0,0,690.974976
273,741,1,0,0,0,854.804749
-687,1650,2,1,0,5,146.445969
-532,-1217,3,0,0,0,705.485168
743,-1826,4,0,0,0,672.555115
1601,386,1,1,0,2,141.395432
-486,1752,2,0,0,0,714.815674
-567,-839,3,0,0,0,783.304443
1880,-979,4,1,0,2,141.395432
713,577,1,0,0,0,811.741882
-1852,1126,2,0,0,0,664.540771
-625,-222,3,1,0,5,146.445969
346,-915,4,0,0,0,873.714355
465,1337,1,0,0,0,687.253601
-368,1203,2,0,0,0,820.547363
-915,-1125,3,0,0,0,680.353149
1735,-1277,4,1,0,2,141.395432
165,1158,1,1,0,2,141.395432
-324,133,2,0,0,0,1189.048950
-1896,-1132,3,0,0,0,560.704102
648,-1029,4,0,0,0,811.111328
655,1951,1,1,0,2,141.395432
-954,1722,2,0,0,0,692.051697
-654,-11,3,0,0,0,909.041931
1628,-1875,4,0,0,0,606.759644
1283,1765,1,0,0,0,564.075562
-1153,1948,2,0,0,0,652.139282
-238,-869,3,1,0,2,141.395432
162,-1646,4,0,0,0,722.807800
428,900,1,0,0,0,787.891418
-1706,1110,2,1,0,5,146.445969
-319,-1820,3,0,0,0,611.237915
324,-77,4,0,0,0,1184.325562
1504,755,1,0,0,0,637.850830
-998,716,2,1,0,5,146.445969
-1949,-335,3,0,0,0,591.946533
272,-1687,4,0,0,0,713.461792
1913,488,1,0,0,0,592.423096
-1583,1319,2,0,0,0,679.001343
-837,-510,3,0,0,0,792.673340
1344,-768,4,1,0,2,141.395432
1588,409,1,0,0,0,645.239075
-1569,1901,2,0,0,0,627.859314
-1164,-997,3,0,0,0,664.540039
192,-1879,4,1,0,2,141.395432
254,1283,1,0,0,0,709.895874
-1126,849,2,1,0,5,146.445969
-1119,-807,3,0,0,0,694.606628
1573,-1889,4,0,0,0,609.632263
1419,252,1,0,0,0,682.117249
-1874,160,2,0,0,0,705.110413
-793,-112,3,1,0,5,146.445969
1203,-1048,4,0,0,0,733.129028
1918,1047,1,0,0,0,563.671753
-1253,648,2,1,0,5,146.445969
-1953,-762,3,1,0,5,146.445969
1817,-921,4,1,0,2,141.395432
1187,31,1,0,0,0,737.599121
-1894,1152,2,0,0,0,658.105408
-1239,-497,3,0,0,0,704.030334
1612,-354,4,0,0,0,723.422058
1901,1593,1,1,0,2,141.395432
-341,1884,2,0,0,0,700.011536
-656,-843,3,1,0,5,146.445969
1758,-854,4,0,0,0,675.019592
1958,1990,1,0,0,0,494.807739
-932,1631,2,0,0,0,705.462524
-1930,-1652,3,0,0,0,521.216248
1199,-994,4,1,0,2,141.395432
1973,1265,1,1,0,2,141.395432
-1998,729,2,1,0,5,146.445969
-82,-890,3,0,0,0,819.189697
1763,-329,4,0,0,0,699.615479
1540,310,1,0,0,0,657.494995
-988,480,2,0,0,0,859.575684
-832,-1914,3,0,0,0,576.677002
719,-5,4,0,0,0,962.389282
1995,1282,1,0,0,0,540.586060
-1672,1459,2,1,0,5,146.445969
-1144,-1830,3,0,0,0,567.188721
1793,-1951,4,0,0,0,588.318665
1932,1397,1,0,0,0,539.074219
-1231,146,2,0,0,0,824.784424
-1483,-1091,3,0,0,0,612.265564
1214,-1993,4,1,0,2,141.395432
328,1624,1,0,0,0,642.303223
-723,289,2,1,0,5,146.445969
-1980,-402,3,0,0,0,585.870605
1583,-1140,4,0,0,0,675.559204
489,948,1,1,0,2,141.395432
-1025,1250,2,0,0,0,748.520203
-361,-1016,3,0,0,0,765.276489
980,-1736,4,0,0,0,669.363831
174,1873,1,0,0,0,606.156982
-1275,1043,2,1,0,5,146.445969
-745,-389,3,1,0,5,146.445969
1278,-1563,4,0,0,0,665.737915
1901,1222,1,0,0,0,554.171021
-384,235,2,0,0,0,1116.624756
-132,-1672,3,0,0,0,638.811890
1139,-924,4,0,0,0,757.278381
1663,1441,1,1,0,2,141.395432
-661,146,2,0,0,0,999.015625
-87,-1779,3,0,0,0,621.685120
1096,-72,4,0,0,0,840.381653
1723,69,1,0,0,0,630.905884
-1131,663,2,0,0,0,808.687683
-734,-532,3,0,0,0,815.116394
1746,-303,4,0,0,0,703.042419
589,557,1,0,0,0,847.263245
-1193,1221,2,0,0,0,732.885986
-1891,-1847,3,0,0,0,510.083862
1931,-128,4,0,0,0,677.844055
995,1339,1,0,0,0,640.343506
-1319,76,2,0,0,0,806.463135
-859,-906,3,0,0,0,723.217407
1994,-1309,4,0,0,0,618.196472
1851,1489,1,1,0,2,141.395432
-1599,914,2,0,0,0,711.115662
-8,-1843,3,0,0,0,611.966309
1070,-401,4,0,0,0,829.005188
1311,1983,1,0,0,0,539.899658
-1507,168,2,1,0,5,146.445969
-1914,-787,3,1,0,5,146.445969
1986,-1661,4,0,0,0,594.897217
482,1063,1,0,0,0,742.528381
-1659,1346,2,0,0,0,668.667847
-1344,-1381,3,0,0,0,599.295654
1361,-1883,4,1,0,2,141.395432
78,329,1,1,0,2,141.395432
-1257,1434,2,0,0,0,701.161499
-416,-33,3,0,0,0,1038.562256
1861,-1951,4,0,0,0,583.387451
1355,1468,1,0,0,0,589.066101
-1699,963,2,1,0,5,146.445969
-255,-1755,3,1,0,2,141.395432
881,-1955,4,1,0,2,141.395432
350,1365,1,0,0,0,688.549255
-913,714,2,0,0,0,844.120911
-1165,-146,3,0,0,0,740.827942
1329,-160,4,0,0,0,783.514893
611,1499,1,0,0,0,648.930908
-1672,1296,2,0,0,0,671.475403
-1933,-1898,3,0,0,0,503.212067
928,-612,4,0,0,0,836.926697
59,271,1,1,0,2,141.395432
-784,1452,2,0,0,0,742.614075
-953,-311,3,0,0,0,786.202332
983,-1320,4,0,0,0,724.222412
976,1921,1,0,0,0,567.639465
-933,12,2,0,0,0,906.546326
-861,-1692,3,1,0,5,146.445969
1016,-1491,4,1,0,2,141.395432
1766,1499,1,1,0,2,141.395432
-1381,185,2,0,0,0,791.181885
-1905,-969,3,1,0,5,146.445969
1578,-1838,4,0,0,0,613.794250
167,770,1,0,0,0,855.457153
-1793,1236,2,0,0,0,663.186462
-1502,-201,3,0,0,0,667.768860
1633,-864,4,0,0,0,691.117737
768,1046,1,1,0,2,141.395432
-1404,1026,2,0,0,0,727.583801
-1672,-1678,3,0,0,0,540.893921
934,-812,4,0,0,0,806.054077
38,1415,1,0,0,0,687.262390
-1745,1200,2,0,0,0,671.161865
-1212,-1765,3,1,0,5,146.445969
601,-649,4,1,0,2,141.395432
550,1771,1,0,0,0,610.209656
-630,524,2,1,0,5,146.445969
-1090,-1663,3,1,0,5,146.445969
994,-613,4,0,0,0,822.744385
1022,424,1,0,0,0,757.856201
-1446,1033,2,0,0,0,721.364258
-772,-1709,3,0,0,0,607.032776
1197,-1195,4,0,0,0,716.391846
1680,490,1,0,0,0,626.705017
-532,1610,2,0,0,0,734.816101
-766,-1620,3,1,0,5,146.445969
1510,-1517,4,0,0,0,649.060730
1712,1646,1,0,0,0,540.167847
-1819,1157,2,0,0,0,666.080444
-305,-1186,3,0,0,0,728.757019
419,-1603,4,0,0,0,722.305298
120,499,1,0,0,0,978.920349
-1678,796,2,1,0,5,146.445969
-924,-511,3,0,0,0,771.288696
1372,-242,4,0,0,0,772.035583
608,1628,1,0,0,0,628.692932
-1904,397,2,0,0,0,695.511414
-384,-1889,3,0,0,0,599.208618
1214,-874,4,0,0,0,751.616272
259,1343,1,0,0,0,697.084961
-1231,743,2,0,0,0,782.147278
-1613,-723,3,0,0,0,623.851379
1578,-1326,4,0,0,0,659.831970
640,799,1,0,0,0,780.174438
-1902,959,2,0,0,0,669.506653
-1438,-1279,3,1,0,5,146.445969
1111,-394,4,0,0,0,820.054810
1105,1401,1,0,0,0,621.174072
-1410,114,2,1,0,5,146.445969
-763,-1986,3,0,0,0,571.233215
611,-514,4,0,0,0,932.197937
579,1837,1,0,0,0,599.436890
-1618,1794,2,1,0,5,146.445969
-677,-704,3,1,0,5,146.445969
853,-1653,4,1,0,2,141.395432
85,683,1,0,0,0,894.374878
-1270,113,2,0,0,0,816.690063
-1311,-337,3,0,0,0,700.056763
1626,-38,4,0,0,0,727.615540
857,317,1,0,0,0,812.832886
-190,578,2,0,0,0,1029.773560
-397,-1449,3,0,0,0,670.228577
1501,-673,4,1,0,2,141.395432
1224,14,1,0,0,0,728.876343
-1559,1260,2,1,0,5,146.445969
-683,-765,3,0,0,0,779.666565
820,-1957,4,1,0,2,141.395432
479,1896,1,0,0,0,595.123108
-1044,228,2,0,0,0,867.497620
-1317,-903,3,0,0,0,652.818176
1193,-1073,4,0,0,0,731.501282
427,1541,1,1,0,2,141.395432
-117,1310,2,1,0,5,146.445969
-754,-920,3,0,0,0,737.093018
1861,-1859,4,1,0,2,141.395432
167,1368,1,0,0,0,694.914856
-895,88,2,0,0,0,917.160889
-528,-810,3,0,0,0,796.582703
1194,-1193,4,0,0,0,716.991577
284,953,1,0,0,0,788.517517
-1195,1947,2,0,0,0,649.525879
-234,-984,3,0,0,0,783.640808
96,-1313,4,1,0,2,141.395432
1688,979,1,0,0,0,595.736023
-1724,1087,2,1,0,5,146.445969
-378,-1534,3,0,0,0,655.864929
858,-361,4,1,0,2,141.395432
1121,1347,1,0,0,0,626.308044
-1065,1822,2,1,0,5,146.445969
-1561,-393,3,0,0,0,650.526978
1454,-973,4,0,0,0,706.712952
190,1445,1,0,0,0,678.913940
-913,1294,2,0,0,0,754.411499
-1612,-100,3,0,0,0,649.573547
597,-625,4,0,0,0,909.365723
840,905,1,0,0,2,141.395432
-1983,1297,2,0,0,0,639.103882
-472,-1772,3,1,0,2,141.395432
611,-1517,4,1,0,2,141.395432
727,200,1,1,0,2,141.395432
-723,1955,2,0,0,0,675.703064
-1128,-648,3,0,0,0,711.437927
39,-532,4,0,0,0,1048.453857
-1411,1090,2,0,0,0,720.414001
-979,-1917,3,1,0,5,146.445969
539,-1016,4,0,0,0,827.136780
-1716,1462,2,0,0,0,653.314026
-855,-1052,3,1,0,5,146.445969
1353,-138,4,0,0,0,778.954041
-83,217,2,1,0,0,404.234161
-1879,-82,3,1,0,5,146.445969
1503,-379,4,0,0,0,741.411682
-1726,92,2,1,0,5,146.445969
-66,-1807,3,0,0,0,617.390930
-1274,1822,2,0,0,0,657.282288
-641,-1605,3,0,0,0,630.264526
-1017,822,2,0,0,0,809.421997
-1737,-552,3,0,0,0,615.134766
-1315,491,2,1,0,5,146.445969
-418,-1439,3,0,0,0,670.975098
-524,-1013,3,0,0,0,749.160583
-248,-1419,3,0,0,0,682.255127
-1809,-136,3,0,0,0,616.464172
-1396,-163,3,1,0,5,146.445969
-1309,-1112,3,0,0,0,632.034546
-1934,-732,3,0,0,0,579.284241
-898,-1940,3,0,0,0,569.875671
-1965,-631,3,0,0,0,579.841736
-1154,-476,3,0,0,0,723.256409
-179,-1986,3,0,0,0,589.593384
-1313,-1516,3,1,0,5,146.445969


each generation good chromosome number
8,9,10,