mbs coordinate
0,0

cbsd coordinate and channel
-970,900,2
740,900,1
980,-860,1
-750,-850,5
-750,1000,4
1050,600,2
760,-1135,3
-870,-1100,1
-1080,450,1
970,530,3
540,-1000,2
-1200,-300,3
-200,1170,7
820,1255,4
930,-1080,6
-1115,-505,2
-180,1230,3
500,1150,8
1200,-450,10
-500,-1100,7
-650,980,9
1180,450,9
700,-1160,7
-1050,-900,8
-1200,820,10
1200,1000,11
1340,-1120,12
-1440,-1280,10
-1160,1350,13
1420,960,14

building coordinate
-885,985
-1055,815
830,810
650,990
1060,-860
900,-860
-830,-770
-670,-930
-668,1070
-832,930
965,675
1135,525
832,-1059
688,-1211
-965,-1035
-775,-1165
-1135,365
-1025,535
907,591
1033,469
638,-906
442,-1094
-1275,-390
-1125,-210
-298,1123
-102,1217
910,1206
730,1304
1005,-1005
855,-1155
-1178,-407
-1052,-603
-120,1290
-240,1170
410,1240
590,1060
1275,-375
1125,-525
-577,-1023
-423,-1177
-600,1070
-710,890
1135,535
1225,365
743,-1077
657,-1243
-1138,-855
-962,-945
-1100,866
-1300,774
1100,1100
1300,900
1440,-1020
1240,-1220
-1540,-1180
-1340,-1380
-1060,1450
-1260,1250
1320,1060
1520,860

area numbers
924,878,875,923

x , y , block , block number
area 1
1807,694,1,0
140,1551,0,0
1892,590,0,0
833,207,1,0
1668,1705,0,0
284,616,0,0
1166,1472,0,0
1138,148,0,0
382,1490,0,0
579,1929,0,0
774,673,0,0
1402,169,0,0
638,1827,0,0
268,1685,0,0
700,1526,1,0
952,1757,1,0
484,1832,0,0
1238,1057,1,0
1861,536,0,0
603,1410,0,0
262,685,0,0
1321,1600,0,0
1532,1753,0,0
945,678,1,0
935,1951,0,0
1831,1231,0,0
1956,882,0,0
1523,1390,0,0
568,1818,1,0
818,621,0,0
629,1365,0,0
335,321,0,0
1241,1457,0,0
1412,155,0,0
179,1258,0,0
474,1314,0,0
693,1068,0,0
1470,1618,0,0
418,775,0,0
711,914,0,0
109,660,0,0
76,1321,0,0
1228,642,0,0
347,821,1,0
1688,494,0,0
1348,65,0,0
570,11,0,0
1644,1907,0,0
1590,1625,0,0
806,1945,1,0
1442,1003,1,0
765,877,0,0
1855,1175,0,0
760,1505,0,0
634,995,0,0
1281,1537,0,0
1911,1197,0,0
461,660,1,0
292,1219,0,0
454,1204,0,0
1914,703,0,0
295,1806,0,0
1630,298,1,0
1979,1299,0,0
1039,1902,0,0
1840,848,0,0
1960,414,0,0
1322,1713,0,0
497,773,0,0
942,1166,0,0
352,140,0,0
159,1474,0,0
492,1429,0,0
1433,567,0,0
729,996,0,0
938,766,0,0
1558,1484,0,0
485,1616,1,0
818,1045,0,0
703,1646,1,0
303,1403,0,0
691,1236,1,0
1030,730,1,0
482,199,0,0
138,517,0,0
1659,6,0,0
1940,419,0,0
1556,1448,0,0
566,1834,0,0
1118,916,1,0
242,400,1,0
510,724,1,0
1339,523,1,0
1927,876,0,0
1262,529,1,0
681,440,0,0
1654,1233,0,0
1369,206,0,0
50,1988,0,0
146,1809,0,0
311,1768,0,0
1189,1568,0,0
938,893,1,0
40,796,0,0
1373,1681,0,0
720,1654,0,0
1017,3,0,0
1901,1549,0,0
1848,380,0,0
1693,493,1,0
616,1414,0,0
954,27,0,0
1877,1468,1,0
992,258,0,0
1343,1196,1,0
1112,257,1,0
407,534,0,0
365,369,1,0
1861,1060,1,0
1038,635,0,0
400,358,1,0
1586,1473,0,0
1813,777,1,0
1034,1162,1,0
1904,754,0,0
1292,1069,0,0
825,415,0,0
1420,9,0,0
1217,395,0,0
547,1070,0,0
572,1937,1,0
247,709,1,0
389,1603,1,0
975,750,1,0
680,258,0,0
1593,242,1,0
772,310,0,0
1885,1493,1,0
626,53,1,0
1078,258,1,0
1102,563,1,0
1679,1023,1,0
395,251,0,0
248,887,0,0
623,1809,0,0
813,1415,1,0
548,1373,0,0
1721,273,0,0
1672,72,1,0
511,772,0,0
149,1947,1,0
119,974,1,0
234,1572,0,0
1666,473,0,0
866,740,0,0
1255,1202,0,0
716,885,0,0
885,652,0,0
556,195,0,0
1199,555,0,0
642,1653,1,0
1358,1587,1,0
370,289,0,0
825,764,1,0
303,345,0,0
425,580,0,0
778,1250,0,0
1846,505,0,0
1912,1678,0,0
906,109,0,0
1330,616,1,0
486,495,0,0
65,1920,0,0
357,646,1,0
330,1172,0,0
1850,1197,0,0
810,225,0,0
1840,592,1,0
976,1262,0,0
1675,1247,0,0
12,610,0,0
1183,318,1,0
403,1588,0,0
732,1132,1,0
1195,1278,0,0
575,814,1,0
848,824,0,0
1074,1265,1,0
109,611,0,0
1267,272,0,0
1425,336,0,0
1376,1363,0,0
1819,1177,1,0
1821,1316,1,0
1426,990,1,0
1979,1769,0,0
398,284,0,0
825,1054,1,0
31,1976,0,0
139,458,0,0
124,636,0,0
1569,953,0,0
529,1043,0,0
459,764,0,0
776,1353,0,0
1401,1418,0,0
623,1996,0,0
826,1742,0,0
1244,220,0,0
1997,1371,0,0
1665,1642,0,0
211,1253,0,0
1422,1773,0,0
92,491,0,0
1600,1165,0,0
310,102,1,0
1564,1205,1,0
524,1659,0,0
717,1261,0,0
503,665,0,0
1112,1245,0,0
163,596,0,0
1377,103,0,0
1268,1564,1,0
29,636,0,0
1363,1073,0,0
1256,366,0,0
1169,173,0,0
1634,1261,0,0
883,424,0,0
503,695,0,0
721,1337,0,0
531,923,1,0
1292,788,0,0
1345,741,1,0
781,210,0,0
1049,1668,0,0
661,1448,0,0
1776,958,0,0
1839,1342,1,0
653,1372,0,0
1425,1974,0,0
731,435,0,0
752,912,0,0
793,1080,1,0
1315,1103,1,0
1451,1722,0,0
1864,315,0,0
30,1186,0,0
956,595,1,0
22,1003,0,0
1163,1543,0,0
568,65,1,0
1726,291,1,0
1616,1047,0,0
1281,1095,0,0
1986,417,1,0
181,697,0,0
541,587,0,0
1500,540,0,0
722,297,1,0
1456,1339,1,0
114,505,0,0
1570,1125,0,0
1115,268,0,0
542,215,1,0
830,393,0,0
598,91,0,0
306,1268,0,0
1585,1297,0,0
572,277,0,0
1669,413,0,0
290,893,0,0
700,585,0,0
1182,477,0,0
480,483,0,0
1417,1139,0,0
1041,1375,0,0
1742,969,0,0
15,971,0,0
1544,1536,0,0
387,1317,0,0
445,115,0,0
1870,547,0,0
1900,356,0,0
663,429,1,0
1544,1008,0,0
908,1200,0,0
59,1366,0,0
1696,555,1,0
678,1358,0,0
1943,895,0,0
498,1419,0,0
431,1265,1,0
940,1578,0,0
193,824,1,0
223,1559,0,0
154,461,0,0
961,1513,1,0
1959,341,0,0
1153,1642,0,0
1471,1448,1,0
477,729,1,0
497,503,0,0
226,187,0,0
1870,343,0,0
1468,719,0,0
1133,168,0,0
1422,1409,1,0
573,125,0,0
1242,168,0,0
1159,1468,0,0
1079,930,0,0
1031,33,0,0
1052,1389,0,0
230,790,0,0
1690,1640,0,0
1018,633,0,0
1735,788,0,0
515,246,0,0
1832,492,0,0
144,544,0,0
1900,1115,0,0
1709,602,1,0
713,1524,0,0
1349,1852,0,0
1781,1382,0,0
819,548,1,0
1363,1855,0,0
1185,46,0,0
1541,1483,0,0
1930,373,0,0
294,608,0,0
901,210,0,0
307,1125,1,0
725,1368,0,0
1606,1125,1,0
1096,372,0,0
1768,1034,0,0
5,1334,0,0
1082,673,0,0
291,275,0,0
198,1089,0,0
1393,1134,1,0
1291,459,1,0
1701,1750,0,0
383,1634,1,0
262,1908,0,0
869,365,1,0
578,1513,0,0
1237,1254,1,0
662,392,0,0
1388,196,1,0
1934,1050,0,0
1076,1180,1,0
741,192,0,0
1781,1136,1,0
1269,1905,0,0
327,1836,1,0
117,639,1,0
694,1956,0,0
883,1985,1,0
1056,1212,0,0
592,481,1,0
804,45,0,0
1382,764,0,0
827,1632,0,0
1625,90,0,0
682,1490,0,0
508,998,1,0
1639,1020,1,0
1758,103,0,0
373,1366,0,0
1783,1648,0,0
570,1881,1,0
1836,48,0,0
570,1237,0,0
312,1329,0,0
1297,691,0,0
691,625,0,0
1011,402,0,0
327,988,0,0
1299,1057,0,0
825,1163,0,0
1229,422,1,0
450,1518,0,0
274,144,0,0
1840,1557,0,0
83,1346,1,0
1551,1024,1,0
1137,1741,1,0
127,1920,0,0
1267,756,0,0
843,258,0,0
330,1498,1,0
603,1680,0,0
779,715,0,0
1118,277,0,0
49,705,0,0
170,1401,0,0
402,343,1,0
336,1752,1,0
698,1431,1,0
856,1752,0,0
1845,489,0,0
492,788,0,0
706,580,0,0
30,574,0,0
296,978,0,0
439,126,0,0
1827,1088,0,0
1753,122,0,0
1673,1220,0,0
1659,702,0,0
915,465,0,0
493,1251,1,0
1049,322,0,0
1717,877,0,0
1655,566,0,0
1000,588,0,0
1210,1699,0,0
1064,1888,0,0
528,1930,1,0
1211,560,1,0
851,703,0,0
1984,1039,0,0
1624,97,0,0
225,1200,0,0
1570,1411,1,0
1720,43,0,0
414,81,0,0
1268,291,1,0
561,734,1,0
50,1865,0,0
1260,486,0,0
1216,1120,0,0
1339,755,1,0
1111,83,0,0
1982,846,0,0
1154,1261,0,0
116,1274,0,0
1908,448,1,0
1820,122,0,0
1609,1460,0,0
1691,1650,0,0
279,611,0,0
991,1829,0,0
47,1381,0,0
788,1710,0,0
986,1231,0,0
1418,1676,0,0
418,899,0,0
258,1242,1,0
1330,832,0,0
412,1571,0,0
1929,1227,1,0
1231,1529,0,0
585,1502,0,0
1274,1653,0,0
1893,756,0,0
207,1723,0,0
1487,903,0,0
1912,1,1,0
1135,830,0,0
1238,80,0,0
522,265,0,0
10,1742,0,0
42,1005,0,0
1831,650,0,0
55,1426,0,0
824,149,0,0
1195,1850,0,0
635,493,0,0
1532,596,0,0
805,542,0,0
1723,630,0,0
1252,155,0,0
693,369,0,0
1269,1740,0,0
1842,1511,1,0
1739,605,0,0
1033,1940,0,0
1823,622,0,0
434,1750,1,0
1389,70,0,0
171,1079,1,0
1947,819,0,0
1381,916,0,0
589,1885,0,0
1465,1365,0,0
306,1790,0,0
1817,85,0,0
846,43,1,0
1225,1001,0,0
131,880,0,0
1468,505,0,0
647,1302,0,0
1046,1319,1,0
103,1777,0,0
1480,864,0,0
603,1587,0,0
934,743,0,0
1335,469,0,0
955,703,0,0
1814,798,0,0
647,1198,0,0
1944,816,0,0
1747,627,0,0
1480,1295,0,0
12,1751,0,0
1422,1702,0,0
1407,354,1,0
1684,68,0,0
869,1749,0,0
44,785,0,0
1506,1201,0,0
1398,268,0,0
155,1717,1,0
1417,1098,0,0
245,967,0,0
179,1590,0,0
1525,1224,1,0
555,901,0,0
588,717,0,0
1108,787,0,0
1163,428,0,0
647,570,0,0
505,943,0,0
813,1249,0,0
103,1475,0,0
712,654,0,0
1165,1141,0,0
1145,1616,0,0
1317,1535,0,0
1769,965,0,0
1079,1076,0,0
1461,1520,0,0
250,415,0,0
1795,1503,1,0
1970,1422,0,0
874,599,0,0
1758,341,0,0
291,822,1,0
986,1261,1,0
1217,1153,1,0
756,1984,0,0
1485,1257,0,0
395,97,0,0
877,1745,0,0
148,1824,0,0
1824,1754,1,0
1099,88,0,0
1489,566,1,0
1477,1213,1,0
1347,1614,1,0
290,50,1,0
1866,1438,0,0
1042,1107,0,0
395,1402,0,0
939,136,0,0
738,1358,0,0
55,6,0,0
814,310,1,0
436,1168,0,0
694,508,0,0
728,1025,0,0
64,908,0,0
323,1013,1,0
230,500,0,0
924,1032,0,0
1132,1683,1,0
509,1406,0,0
1963,1479,1,0
1549,1821,0,0
870,35,0,0
474,481,0,0
987,266,0,0
106,920,0,0
967,996,1,0
1240,1602,0,0
1148,1650,0,0
605,1046,0,0
1529,527,1,0
1716,470,0,0
1648,573,0,0
1555,712,0,0
622,115,0,0
1989,412,0,0
1029,660,0,0
1265,1914,0,0
438,1773,0,0
1105,1075,0,0
1745,312,0,0
390,1756,1,0
1847,254,0,0
162,1603,0,0
764,825,0,0
1568,1842,1,0
851,1100,0,0
74,1280,0,0
508,1731,0,0
90,1770,0,0
1657,122,1,0
906,1115,0,0
1074,777,0,0
737,1828,0,0
341,1855,0,0
812,1964,0,0
754,996,0,0
1074,377,0,0
275,264,1,0
892,397,0,0
1502,1697,0,0
1037,902,1,0
1473,761,1,0
5,1450,0,0
127,1991,0,0
1424,979,0,0
249,1801,1,0
1198,1215,1,0
1135,1514,0,0
1753,1122,0,0
1840,1692,0,0
1822,884,0,0
693,132,0,0
1221,790,0,0
395,1816,0,0
79,950,0,0
1498,376,0,0
744,383,1,0
702,389,0,0
1071,1969,0,0
699,748,0,0
1529,1144,1,0
1258,1643,0,0
504,1757,0,0
1329,1273,0,0
604,1398,0,0
873,538,1,0
1815,1820,0,0
1118,1334,0,0
1577,481,1,0
1793,583,1,0
1314,508,0,0
1684,558,0,0
1831,110,1,0
1603,325,0,0
1280,1439,0,0
733,1433,1,0
178,767,1,0
1638,1874,0,0
1517,116,0,0
737,675,0,0
1349,476,0,0
1312,1698,0,0
1264,1443,0,0
1299,277,1,0
816,738,1,0
295,1989,0,0
1902,855,1,0
1672,66,0,0
1613,1181,0,0
925,912,0,0
206,713,1,0
100,496,0,0
1376,490,0,0
859,1748,0,0
801,1192,0,0
895,1292,0,0
599,96,0,0
1002,1335,0,0
1081,1736,0,0
1400,1213,0,0
51,977,0,0
1485,1651,0,0
867,1465,0,0
1281,698,0,0
1175,1642,0,0
302,749,1,0
1284,1836,0,0
652,459,0,0
1869,504,1,0
253,739,0,0
1957,1556,0,0
1367,1391,0,0
653,1053,1,0
1175,912,1,0
114,355,0,0
282,1408,0,0
1275,127,0,0
216,1775,1,0
1529,1454,0,0
141,1337,1,0
842,985,0,0
1918,317,0,0
1457,1819,0,0
1593,801,0,0
1678,1474,0,0
1644,643,0,0
440,1096,0,0
1321,1264,0,0
1677,820,1,0
895,738,0,0
157,1205,0,0
1526,1318,0,0
303,1480,0,0
1084,1413,0,0
1906,1230,0,0
1812,1057,0,0
747,333,0,0
9,1053,0,0
683,493,0,0
785,1762,0,0
1351,943,0,0
1512,329,0,0
1518,1578,0,0
1415,1467,0,0
1742,982,1,0
1868,700,0,0
1486,461,1,0
1118,1478,0,0
38,1541,0,0
1003,1185,1,0
1367,19,0,0
507,8,0,0
274,1837,0,0
669,915,0,0
621,17,0,0
592,522,0,0
1259,559,1,0
882,1656,0,0
441,1133,0,0
1336,128,0,0
260,1721,1,0
407,859,0,0
1794,1275,0,0
608,592,1,0
861,284,0,0
1944,1130,0,0
1077,552,1,0
813,469,0,0
1130,240,0,0
333,643,0,0
886,1853,1,0
1077,1211,0,0
1442,347,0,0
1642,1297,0,0
235,170,0,0
477,1505,0,0
1223,1821,0,0
1748,1134,0,0
640,10,0,0
1521,1477,0,0
1842,594,1,0
337,1962,0,0
1001,531,1,0
1025,877,0,0
381,1843,0,0
74,753,0,0
1461,1298,0,0
1120,1671,1,0
523,855,0,0
558,583,0,0
204,1449,0,0
798,1649,1,0
461,1351,0,0
1973,1489,0,0
373,257,0,0
1004,1256,0,0
1459,1299,1,0
852,109,1,0
162,1363,0,0
1245,913,1,0
1322,1869,0,0
1463,613,0,0
1222,1301,0,0
518,568,0,0
676,730,1,0
810,1791,0,0
317,1927,0,0
428,758,0,0
886,1974,0,0
1345,1377,1,0
1120,669,0,0
1579,467,0,0
1307,1801,1,0
819,1782,0,0
1802,143,1,0
1044,419,1,0
606,1053,0,0
1034,1588,0,0
1091,1000,0,0
241,1448,0,0
12,1712,0,0
1977,952,0,0
1979,1791,0,0
1529,121,0,0
1192,1812,0,0
1186,73,0,0
508,906,0,0
497,894,0,0
547,1612,0,0
1930,906,0,0
717,1094,0,0
1973,41,1,0
553,216,0,0
796,1448,0,0
384,627,0,0
435,9,0,0
533,660,1,0
1298,1501,1,0
212,1361,0,0
1175,66,1,0
465,1144,0,0
1094,484,1,0
21,1616,0,0
5,1848,0,0
398,1688,0,0
1449,559,0,0
1960,1519,0,0
624,894,0,0
1942,771,0,0
205,1249,0,0
1085,1561,1,0
158,1270,1,0
1010,912,0,0
565,56,0,0
931,578,1,0
532,1372,0,0
1843,357,0,0
1116,1170,0,0
1363,522,0,0
1209,74,0,0
864,223,0,0
12,1170,0,0
17,93,0,0
1227,23,0,0
668,101,0,0
1418,1035,0,0
908,330,1,0
17,1110,0,0
218,1694,1,0
506,1558,0,0
1623,1333,0,0
618,1874,0,0
1046,1481,0,0
1819,381,0,0
595,518,0,0
27,194,0,0
632,1946,0,0
1539,45,0,0
806,1660,0,0
494,1647,0,0
214,1711,0,0
1686,1273,0,0
93,754,0,0
559,205,0,0
111,707,0,0
640,170,0,0
135,686,0,0
705,312,0,0
1949,1503,0,0
1788,615,1,0
1576,1216,1,0
1139,913,0,0
1216,568,0,0
1242,1730,0,0
1664,1286,0,0
541,1207,0,0
1923,591,0,0
1342,1604,0,0
1786,1062,0,0
1548,562,0,0
1153,1531,0,0
997,1905,0,0
1048,1125,0,0
143,880,0,0
32,1434,1,0
81,1882,0,0
503,1907,0,0
1206,1970,0,0
1381,1715,0,0
507,1508,0,0
1067,1650,0,0
1214,844,1,0
1627,960,0,0
1564,1785,0,0
1339,1528,1,0
999,1342,0,0
1917,1117,1,0
1293,653,0,0
276,244,0,0
957,803,1,0
481,462,0,0
378,1187,0,0
168,876,0,0
1211,219,0,0
1792,1112,0,0
91,1521,1,0
1816,297,0,0
1613,1701,0,0
677,1265,0,0
241,1712,0,0
479,1791,0,0
1330,1589,0,0
1477,110,0,0
905,213,1,0
67,541,0,0
1856,1643,0,0
1399,634,0,0
735,1039,0,0
528,1765,0,0
35,1761,0,0
1586,445,1,0
865,1173,0,0
1622,903,0,0
1865,480,0,0
1401,1419,1,0
381,673,1,0
1665,1059,1,0
571,890,0,0
588,1360,0,0
1416,859,1,0
21,765,1,0
area 2
-265,1130,0,0
-1065,41,0,0
-99,634,1,0
-902,462,1,0
-1436,1890,0,0
-624,987,1,0
-1493,1387,1,0
-933,287,0,0
-1954,261,1,0
-618,1398,0,0
-933,1668,1,0
-1057,1882,0,0
-1694,971,0,0
-1361,527,0,0
-916,1670,0,0
-571,288,0,0
-767,1786,0,0
-574,1928,0,0
-22,855,0,0
-1708,814,1,0
-682,246,0,0
-1449,1037,1,0
-1417,1499,0,0
-1777,1037,0,0
-1433,517,0,0
-523,1146,1,0
-218,602,0,0
-671,1053,1,0
-757,789,0,0
-706,1111,1,0
-1316,132,1,0
-1746,1433,0,0
-1872,951,0,0
-986,1130,0,0
-1273,63,0,0
-249,782,0,0
-1586,699,1,0
-895,1281,0,0
-291,1964,0,0
-1552,725,1,0
-891,930,0,0
-267,1802,0,0
-422,540,0,0
-857,780,1,0
-1308,1037,0,0
-1651,748,0,0
-1553,114,0,0
-371,390,1,0
-597,22,1,0
-420,1526,0,0
-1614,618,0,0
-543,359,1,0
-1101,1129,0,0
-147,1776,0,0
-1664,104,0,0
-97,1008,0,0
-1614,783,0,0
-1530,1126,0,0
-1556,786,0,0
-1735,413,0,0
-612,26,0,0
-370,1758,0,0
-157,1979,1,0
-53,1168,0,0
-409,349,0,0
-1514,712,0,0
-171,1574,0,0
-1389,438,1,0
-1457,1267,0,0
-1277,442,0,0
-304,1537,0,0
-1246,1130,1,0
-768,9,0,0
-1053,27,0,0
-1166,561,1,0
-1018,1819,0,0
-523,1786,0,0
-586,1515,0,0
-508,1944,0,0
-549,148,0,0
-1917,73,0,0
-300,646,1,0
-730,1,0,0
-1750,586,0,0
-1305,679,0,0
-536,709,0,0
-1396,197,0,0
-792,938,0,0
-222,1976,0,0
-1004,797,0,0
-1261,594,0,0
-1059,485,0,0
-129,1580,0,0
-616,1100,0,0
-1490,144,0,0
-1318,1337,0,0
-1877,1112,0,0
-604,1348,0,0
-1584,1011,0,0
-1578,881,0,0
-1152,1651,0,0
-1997,1238,0,0
-1709,1944,0,0
-1061,1823,0,0
-1700,105,1,0
-805,223,0,0
-1098,511,0,0
-56,1226,1,0
-815,605,0,0
-752,1317,0,0
-310,1969,1,0
-654,797,0,0
-554,817,1,0
-48,1302,0,0
-1568,1063,0,0
-1494,1658,0,0
-1048,753,0,0
-1350,398,0,0
-872,1517,1,0
-1562,1379,1,0
-880,812,0,0
-1924,1976,0,0
-1367,1600,0,0
-779,136,1,0
-1594,996,0,0
-1386,178,0,0
-24,722,0,0
-1767,689,1,0
-821,840,0,0
-1766,1666,0,0
-1383,491,1,0
-1015,531,0,0
-886,1054,1,0
-1693,967,0,0
-1149,1425,0,0
-1045,298,0,0
-1099,495,0,0
-735,535,1,0
-1958,91,0,0
-1687,1261,0,0
-1128,1047,0,0
-1250,940,1,0
-1495,102,0,0
-940,1361,1,0
-1233,1569,0,0
-586,1509,1,0
-1559,311,0,0
-1466,1193,0,0
-1880,644,0,0
-1833,468,0,0
-1483,1744,0,0
-1820,260,0,0
-615,787,1,0
-1370,1330,0,0
-263,934,0,0
-1040,1473,0,0
-96,1476,0,0
-63,964,0,0
-1133,497,0,0
-841,1742,1,0
-1164,1019,0,0
-1195,349,1,0
-113,1162,0,0
-564,1546,0,0
-572,620,0,0
-439,685,1,0
-1676,506,0,0
-975,10,0,0
-1049,1757,0,0
-598,1476,0,0
-672,1815,1,0
-809,176,1,0
-1521,1129,0,0
-1041,572,0,0
-1195,1494,0,0
-318,485,0,0
-257,5,1,0
-503,515,0,0
-822,10,1,0
-621,348,0,0
-1555,652,0,0
-270,1021,0,0
-1248,1395,0,0
-456,1136,1,0
-755,1603,1,0
-855,440,0,0
-407,1287,0,0
-1017,1797,0,0
-958,1447,1,0
-886,452,0,0
-1318,290,1,0
-9,1140,1,0
-1837,1272,0,0
-644,1026,0,0
-1331,919,1,0
-439,140,0,0
-539,1461,0,0
-701,1871,0,0
-1035,1445,0,0
-1258,1072,0,0
-1551,247,0,0
-617,1981,1,0
-91,957,0,0
-1166,1221,0,0
-1952,940,0,0
-867,1950,0,0
-718,345,0,0
-870,1760,0,0
-364,1036,0,0
-1385,988,0,0
-1716,68,0,0
-345,1897,0,0
-1125,246,0,0
-187,1078,1,0
-24,814,0,0
-1366,314,0,0
-1820,655,1,0
-1760,1395,1,0
-1626,377,1,0
-48,1806,0,0
-1301,1088,0,0
-1099,458,0,0
-203,310,0,0
-1807,796,1,0
-978,1143,0,0
-679,1802,0,0
-823,75,0,0
-1197,1570,0,0
-1186,785,1,0
-17,498,1,0
-194,1765,0,0
-1837,1461,0,0
-1196,1462,1,0
-680,1800,0,0
-1155,670,0,0
-987,414,0,0
-149,390,0,0
-989,124,0,0
-870,1798,1,0
-510,1244,1,0
-488,1320,1,0
-183,569,1,0
-309,1276,0,0
-449,1650,1,0
-936,330,1,0
-1804,774,1,0
-729,1794,0,0
-491,1442,0,0
-1308,338,1,0
-1050,851,1,0
-1185,139,0,0
-1030,402,0,0
-1432,1261,1,0
-1796,75,0,0
-1019,696,1,0
-1565,1775,0,0
-546,693,1,0
-274,435,1,0
-638,587,0,0
-1617,29,0,0
-474,108,0,0
-359,1513,0,0
-1730,1261,0,0
-214,1121,0,0
-904,408,0,0
-477,825,1,0
-942,1781,0,0
-1656,717,0,0
-872,1815,0,0
-239,661,1,0
-1500,1627,1,0
-318,1463,1,0
-103,589,0,0
-565,580,0,0
-903,399,0,0
-981,937,1,0
-1259,1002,0,0
-970,837,1,0
-322,974,0,0
-1782,1900,1,0
-1188,1822,0,0
-547,616,1,0
-1988,1458,1,0
-131,1669,0,0
-621,1653,1,0
-257,472,0,0
-609,1307,0,0
-1602,1271,0,0
-895,899,0,0
-1711,90,0,0
-1972,883,0,0
-188,1260,1,0
-447,831,0,0
-1183,1784,0,0
-1541,902,0,0
-647,942,0,0
-241,339,0,0
-1750,648,0,0
-536,940,1,0
-1238,1153,0,0
-1434,306,0,0
-1544,974,1,0
-1622,1598,0,0
-1315,1621,0,0
-1114,747,0,0
-1479,1259,0,0
-912,1664,0,0
-1362,859,0,0
-1364,956,0,0
-133,1171,1,0
-826,991,0,0
-1267,882,0,0
-394,1203,0,0
-1601,1165,0,0
-1749,1619,0,0
-1861,831,0,0
-474,529,1,0
-1010,924,0,0
-484,1653,0,0
-1502,1614,1,0
-1842,965,0,0
-1953,1418,0,0
-1593,1063,0,0
-362,1026,1,0
-1753,222,0,0
-1548,1069,0,0
-48,1740,0,0
-60,602,0,0
-1186,497,0,0
-517,631,1,0
-433,1916,0,0
-334,1786,0,0
-139,1501,0,0
-811,485,0,0
-924,378,1,0
-1651,978,1,0
-43,1089,0,0
-187,1380,1,0
-1494,951,1,0
-53,1083,0,0
-138,1806,1,0
-1625,828,0,0
-115,349,1,0
-1841,574,0,0
-692,256,0,0
-861,888,0,0
-961,1118,0,0
-1244,188,0,0
-1848,1975,0,0
-1558,369,0,0
-786,1092,0,0
-1438,1511,0,0
-573,25,1,0
-1155,1952,0,0
-792,735,1,0
-332,41,0,0
-938,972,0,0
-1524,331,1,0
-1378,736,0,0
-1624,314,1,0
-1145,1866,0,0
-1317,1966,1,0
-874,1519,0,0
-965,497,1,0
-1030,733,0,0
-601,816,0,0
-667,1516,1,0
-1243,1181,0,0
-719,1609,0,0
-1546,157,0,0
-1070,769,1,0
-137,1065,0,0
-529,1111,0,0
-821,1139,0,0
-1302,362,0,0
-617,1809,0,0
-1555,685,0,0
-1393,804,0,0
-902,1432,0,0
-77,1051,1,0
-72,807,0,0
-1327,879,0,0
-283,702,0,0
-1565,100,0,0
-1910,568,0,0
-432,1724,1,0
-1802,430,0,0
-661,1567,0,0
-1850,1926,0,0
-1602,1449,0,0
-918,1987,0,0
-1233,857,1,0
-1491,728,1,0
-467,1473,0,0
-884,472,0,0
-352,1854,0,0
-1252,233,0,0
-1151,1205,1,0
-1517,1585,0,0
-700,1301,1,0
-744,475,0,0
-1582,333,0,0
-34,1708,0,0
-932,348,1,0
-1535,1516,1,0
-409,1174,1,0
-609,1752,0,0
-982,1401,0,0
-1042,482,1,0
-43,1503,0,0
-1047,524,0,0
-217,1661,0,0
-63,1808,0,0
-497,1418,1,0
-1901,687,0,0
-1449,24,0,0
-984,745,1,0
-134,403,1,0
-1920,1517,0,0
-1490,525,0,0
-1322,1164,1,0
-1164,966,1,0
-1718,1031,0,0
-872,221,0,0
-1729,1894,0,0
-241,940,0,0
-1189,1282,0,0
-1219,1118,0,0
-1294,1368,0,0
-548,195,0,0
-1073,105,0,0
-1503,872,0,0
-228,1708,0,0
-105,1866,0,0
-440,1241,0,0
-1255,1108,1,0
-1681,1181,0,0
-1052,1505,0,0
-1820,1154,0,0
-1929,1588,1,0
-237,678,0,0
-1848,1817,1,0
-1120,662,0,0
-1613,1557,0,0
-432,1613,1,0
-921,1491,0,0
-1507,150,0,0
-1766,886,0,0
-1496,1132,0,0
-1777,689,0,0
-651,408,1,0
-646,1244,0,0
-1519,928,0,0
-1667,993,1,0
-924,1493,0,0
-306,1151,0,0
-1062,347,0,0
-41,1709,0,0
-1429,1356,1,0
-698,1947,0,0
-276,1543,0,0
-926,1546,0,0
-1128,1777,0,0
-1907,1347,1,0
-169,1310,0,0
-1743,225,0,0
-1901,455,1,0
-1026,1952,0,0
-1073,545,1,0
-1798,388,0,0
-99,960,0,0
-1710,1178,1,0
-1272,391,0,0
-251,1950,1,0
-859,1501,0,0
-1279,19,0,0
-1909,1470,0,0
-309,232,0,0
-1728,165,1,0
-69,189,0,0
-824,1068,0,0
-408,1260,0,0
-1365,466,1,0
-1021,33,1,0
-392,1083,0,0
-503,74,0,0
-1756,1639,1,0
-1198,292,1,0
-652,1713,0,0
-1121,270,0,0
-849,218,1,0
-325,1639,0,0
-1706,6,0,0
-1168,1422,0,0
-604,1580,0,0
-735,1499,0,0
-593,0,0,0
-1599,1284,0,0
-614,399,0,0
-628,190,1,0
-182,1290,0,0
-721,964,0,0
-175,601,0,0
-29,874,0,0
-727,1616,0,0
-892,764,1,0
-1850,1416,0,0
-1663,647,0,0
-136,1725,0,0
-1368,1403,1,0
-1311,970,1,0
-727,545,0,0
-992,34,0,0
-453,667,1,0
-254,1316,0,0
-1834,1424,0,0
-38,1432,0,0
-1496,1035,1,0
-824,1113,0,0
-1805,1440,1,0
-1775,148,0,0
-892,1800,1,0
-1100,960,0,0
-1499,1439,0,0
-996,1074,0,0
-1201,87,0,0
-120,623,0,0
-1346,304,0,0
-1703,1045,0,0
-1709,630,0,0
-242,1398,0,0
-865,1122,1,0
-1781,522,1,0
-1646,647,1,0
-1732,1929,0,0
-1727,1793,1,0
-692,664,0,0
-1560,398,0,0
-852,165,0,0
-1565,458,0,0
-345,1027,0,0
-1137,758,0,0
-204,727,0,0
-1165,1586,0,0
-1113,1699,0,0
-1370,1158,0,0
-1481,834,0,0
-359,736,1,0
-1351,1125,0,0
-1052,95,0,0
-1297,1404,0,0
-1003,367,0,0
-691,1885,0,0
-291,707,0,0
-1034,1449,0,0
-1656,1361,0,0
-1368,399,0,0
-458,1526,0,0
-598,714,0,0
-272,379,0,0
-1112,1518,0,0
-1169,719,1,0
-296,1521,0,0
-906,224,0,0
-1109,1470,0,0
-678,859,0,0
-1292,386,0,0
-1345,651,1,0
-16,592,1,0
-1801,419,0,0
-8,989,0,0
-1620,1070,1,0
-278,1597,0,0
-671,1567,0,0
-1780,1726,0,0
-1833,1312,0,0
-1311,387,1,0
-781,1989,1,0
-1617,165,1,0
-1550,4,1,0
-632,962,1,0
-1750,261,1,0
-1494,1003,1,0
-611,164,0,0
-1900,1514,0,0
-436,1508,1,0
-384,120,1,0
-176,655,0,0
-1834,1201,0,0
-514,477,1,0
-1517,1148,0,0
-559,1859,0,0
-560,1087,0,0
-674,610,0,0
-1537,623,1,0
-799,431,1,0
-1479,1462,0,0
-1170,820,1,0
-1607,531,1,0
-227,1343,0,0
-314,1054,0,0
-104,447,1,0
-436,1016,1,0
-304,429,1,0
-1353,209,0,0
-1843,1298,0,0
-1078,1170,0,0
-438,789,0,0
-1460,1207,0,0
-686,340,0,0
-1793,1575,1,0
-535,1734,0,0
-1990,972,0,0
-957,1385,0,0
-1728,1024,1,0
-1357,1084,0,0
-1640,932,0,0
-529,1609,0,0
-560,1456,0,0
-1565,1373,0,0
-429,1455,0,0
-1161,1287,0,0
-1185,1853,0,0
-1108,1601,0,0
-249,988,0,0
-914,1232,0,0
-900,1425,0,0
-963,130,0,0
-535,1613,0,0
-163,1689,0,0
-350,668,0,0
-1354,1115,0,0
-1946,346,0,0
-1023,1442,0,0
-741,652,0,0
-482,1961,0,0
-1768,889,0,0
-1055,797,0,0
-55,1242,0,0
-514,13,0,0
-658,1040,1,0
-1497,355,1,0
-120,1531,0,0
-1924,1123,1,0
-711,1366,1,0
-1454,617,1,0
-270,792,0,0
-1438,16,0,0
-988,1039,1,0
-1149,977,0,0
-1650,155,0,0
-1639,1515,0,0
-415,1369,1,0
-124,468,1,0
-1988,1649,0,0
-1060,1384,0,0
-1385,1663,1,0
-16,710,1,0
-281,968,1,0
-1448,337,0,0
-1881,1086,1,0
-1125,286,0,0
-1738,1835,1,0
-291,1865,0,0
-1728,893,0,0
-1483,1205,0,0
-541,1102,0,0
-149,1034,0,0
-1465,494,1,0
-1677,290,0,0
-1919,1429,0,0
-1009,51,0,0
-1263,1341,0,0
-380,729,1,0
-211,1797,0,0
-498,661,0,0
-561,727,0,0
-164,204,0,0
-1615,1454,0,0
-400,1831,0,0
-547,1850,0,0
-1229,491,0,0
-1457,190,0,0
-1703,569,0,0
-1376,201,0,0
-626,1601,0,0
-886,1063,0,0
-552,8,0,0
-807,1879,1,0
-952,1826,0,0
-1074,343,1,0
-1456,1475,0,0
-1015,527,0,0
-790,1917,0,0
-1164,1527,0,0
-1505,1471,0,0
-1321,1381,1,0
-692,1702,0,0
-869,561,0,0
-1681,706,0,0
-176,1421,0,0
-811,1734,1,0
-166,1441,0,0
-457,1303,0,0
-351,1776,0,0
-448,190,0,0
-1093,380,1,0
-1593,1116,0,0
-732,1223,1,0
-1918,691,0,0
-968,13,0,0
-166,774,0,0
-1925,1153,1,0
-1975,689,0,0
-883,1271,1,0
-1605,1431,0,0
-1852,1658,0,0
-1011,806,0,0
-1380,1595,0,0
-1065,1317,1,0
-910,907,0,0
-1310,649,0,0
-924,1423,0,0
-384,837,0,0
-321,1206,0,0
-1443,1372,0,0
-53,923,0,0
-137,1211,0,0
-1672,1488,0,0
-1553,537,0,0
-253,836,1,0
-1786,460,1,0
-480,1946,0,0
-1261,154,1,0
-1778,1425,1,0
-1711,203,0,0
-1045,1974,1,0
-1419,148,0,0
-1764,61,1,0
-65,1378,1,0
-1604,1779,0,0
-242,1746,1,0
-716,1914,0,0
-7,914,0,0
-478,1866,1,0
-872,22,0,0
-1132,1465,0,0
-510,130,1,0
-1844,321,1,0
-757,1940,0,0
-1734,481,1,0
-856,398,0,0
-351,1516,1,0
-464,42,0,0
-1573,189,0,0
-345,992,1,0
-744,1080,0,0
-1038,169,0,0
-814,1216,0,0
-214,1533,0,0
-811,161,1,0
-1524,586,1,0
-1104,1846,0,0
-225,878,0,0
-1196,1298,0,0
-1921,1062,0,0
-1037,394,0,0
-925,639,0,0
-1842,684,0,0
-1084,1101,1,0
-592,253,0,0
-1460,1819,0,0
-1485,34,0,0
-1342,734,0,0
-350,1307,0,0
-1654,1625,1,0
-342,1387,0,0
-429,780,1,0
-992,100,1,0
-129,1535,0,0
-371,985,1,0
-982,307,0,0
-1662,1087,1,0
-825,845,0,0
-1813,1080,0,0
-641,747,0,0
-1257,1165,0,0
-253,1489,0,0
-1696,437,1,0
-1867,179,0,0
-960,846,0,0
-1768,1717,0,0
-233,1423,1,0
-822,1361,0,0
-746,652,0,0
-884,511,0,0
-1956,1878,0,0
-1691,1556,0,0
-656,1990,1,0
-90,1752,0,0
-623,1438,0,0
-860,391,0,0
-837,558,0,0
-1624,1690,0,0
-1483,23,0,0
-1547,944,0,0
-1780,666,1,0
-793,717,0,0
-1732,1527,0,0
-1102,182,0,0
-1742,199,0,0
-299,1732,0,0
-1665,62,0,0
-150,1049,0,0
-1624,1630,0,0
-1540,1553,0,0
-673,441,0,0
-1456,895,0,0
-1233,466,0,0
-747,953,1,0
-1341,703,0,0
-1546,262,1,0
-206,1102,0,0
-473,1102,0,0
-1176,1488,0,0
-1928,1028,0,0
-1700,543,0,0
-259,717,0,0
-826,195,0,0
-866,1084,0,0
-1977,822,0,0
-1282,1166,0,0
-963,91,0,0
-1501,854,0,0
-1642,1636,0,0
-1745,555,0,0
-415,274,0,0
-1327,676,0,0
-304,1972,1,0
-1407,1495,0,0
-1539,1215,0,0
-917,853,1,0
-1102,1088,0,0
-1079,1793,0,0
-1010,952,0,0
-1320,1161,0,0
-242,1974,0,0
-1493,583,1,0
-333,189,0,0
-179,382,0,0
-1594,513,1,0
-457,1780,0,0
-1190,1641,1,0
-437,907,0,0
-632,1644,0,0
-663,1147,0,0
-832,748,0,0
-808,962,1,0
-1184,974,0,0
-974,1185,0,0
-1750,339,1,0
-1209,915,1,0
-853,819,1,0
-1633,1458,0,0
-1192,803,1,0
-1074,1559,0,0
-1081,313,0,0
-1642,953,1,0
-689,159,0,0
-1621,1306,0,0
-1847,559,0,0
-759,49,0,0
-765,1605,0,0
-1761,1196,0,0
-1073,971,0,0
-1389,767,0,0
-231,363,1,0
-826,1377,0,0
area 3
-1188,-389,0,0
-1119,-1573,0,0
-1141,-1792,0,0
-1825,-806,0,0
-602,-1327,0,0
-36,-1348,0,0
-1204,-1205,0,0
-417,-1643,0,0
-970,-468,1,0
-511,-1658,0,0
-181,-345,0,0
-1305,-622,0,0
-1992,-1830,1,0
-1542,-1524,0,0
-200,-424,1,0
-110,-1110,0,0
-1825,-1050,1,0
-1280,-1760,0,0
-1521,-424,0,0
-520,-853,0,0
-83,-355,0,0
-851,-1530,0,0
-1804,-138,0,0
-1632,-906,0,0
-262,-22,0,0
-657,-1642,0,0
-1353,-892,0,0
-973,-1273,0,0
-1426,-1500,1,0
-137,-583,0,0
-1000,-835,1,0
-669,-1306,0,0
-552,-1803,1,0
-462,-754,0,0
-1710,-1587,0,0
-1844,-501,0,0
-1094,-1592,0,0
-1313,-865,0,0
-197,-871,1,0
-51,-1603,0,0
-1334,-159,0,0
-1939,-1732,1,0
-297,-955,0,0
-368,-7,1,0
-951,-488,0,0
-717,-361,0,0
-1031,-1331,1,0
-507,-1581,0,0
-736,-1492,1,0
-400,-979,0,0
-225,-1353,0,0
-1108,-470,0,0
-1649,-597,0,0
-84,-1473,0,0
-1535,-1250,0,0
-1307,-899,0,0
-581,-790,0,0
-1340,-73,1,0
-1148,-1111,1,0
-1335,-1052,0,0
-1247,-1807,0,0
-1399,-800,0,0
-1677,-1747,0,0
-1043,-167,0,0
-67,-1213,0,0
-294,-348,0,0
-1097,-1636,0,0
-145,-842,1,0
-1433,-996,1,0
-1803,-505,1,0
-1545,-51,0,0
-1136,-119,0,0
-1929,-1690,0,0
-1463,-686,0,0
-1155,-670,0,0
-770,-417,1,0
-611,-1470,0,0
-365,-1169,0,0
-961,-1932,0,0
-1171,-1150,0,0
-1111,-1055,1,0
-1669,-1752,0,0
-241,-1182,0,0
-820,-1679,0,0
-1176,-1775,0,0
-1933,-1477,0,0
-357,-1302,0,0
-1053,-485,1,0
-1434,-616,0,0
-227,-767,0,0
-25,-844,0,0
-1426,-380,0,0
-672,-28,0,0
-758,-1708,0,0
-165,-1047,0,0
-625,-507,0,0
-1926,-402,0,0
-1944,-752,0,0
-856,-774,0,0
-634,-576,0,0
-1854,-1668,1,0
-6,-1160,1,0
-1465,-1768,0,0
-1553,-850,0,0
-840,-791,0,0
-1439,-1657,0,0
-433,-640,0,0
-1794,-1293,0,0
-394,-1294,0,0
-1038,-161,0,0
-1398,-432,0,0
-1512,-354,1,0
-1721,-944,0,0
-1384,-1945,0,0
-438,-16,1,0
-627,-1467,1,0
-963,-1599,1,0
-1564,-1810,0,0
-1031,-1141,1,0
-1999,-59,1,0
-1439,-1272,1,0
-1084,-937,0,0
-1478,-1228,0,0
-1295,-361,0,0
-285,-636,0,0
-1018,-346,0,0
-1056,-334,1,0
-1076,-1057,0,0
-560,-1101,0,0
-1555,-918,0,0
-1532,-893,0,0
-953,-365,0,0
-1299,-1173,0,0
-1816,-762,0,0
-1514,-289,0,0
-161,-363,1,0
-284,-1153,1,0
-1768,-1736,1,0
-1211,-1092,0,0
-106,-498,0,0
-598,-1255,1,0
-1637,-1847,0,0
-966,-970,1,0
-297,-84,0,0
-1411,-1041,0,0
-1538,-1243,0,0
-1810,-1550,0,0
-348,-1852,0,0
-1093,-435,0,0
-229,-1189,0,0
-272,-1652,0,0
-724,-961,0,0
-1952,-34,0,0
-108,-1372,0,0
-750,-990,1,0
-908,-467,0,0
-1275,-788,1,0
-1751,-500,0,0
-1105,-1530,0,0
-1866,-1062,0,0
-1163,-1762,0,0
-1717,-4,0,0
-1837,-203,0,0
-1253,-219,0,0
-301,-338,0,0
-639,-370,0,0
-947,-687,0,0
-1242,-1188,1,0
-1468,-630,0,0
-901,-83,0,0
-1164,-1182,1,0
-1020,-1669,1,0
-886,-1602,0,0
-603,-1153,0,0
-393,-181,0,0
-29,-950,0,0
-1550,-1180,1,0
-1038,-1468,0,0
-153,-698,1,0
-1464,-316,1,0
-1658,-1354,1,0
-1949,-219,0,0
-852,-425,0,0
-125,-179,0,0
-1899,-976,0,0
-1099,-776,0,0
-730,-1790,0,0
-292,-1721,0,0
-109,-1701,0,0
-770,-1775,1,0
-605,-221,1,0
-791,-1299,1,0
-153,-1486,0,0
-1003,-717,0,0
-249,-1907,1,0
-1910,-1824,1,0
-787,-1089,0,0
-136,-1353,0,0
-1265,-700,0,0
-645,-1203,0,0
-570,-771,0,0
-478,-1676,0,0
-1668,-1324,0,0
-1560,-1326,0,0
-385,-338,0,0
-1833,-807,1,0
-595,-736,0,0
-550,-582,0,0
-1274,-1811,0,0
-1270,-1418,1,0
-541,-1257,0,0
-1287,-627,0,0
-685,-1195,1,0
-1225,-1746,0,0
-426,-737,0,0
-1398,-1203,0,0
-126,-1308,1,0
-912,-1495,0,0
-820,-106,0,0
-1013,-1794,0,0
-314,-1036,1,0
-1735,-1063,0,0
-471,-949,0,0
-1830,-679,0,0
-1349,-1075,0,0
-632,-774,0,0
-950,-571,0,0
-1115,-1843,0,0
-1661,-661,0,0
-51,-569,0,0
-1527,-1717,1,0
-1416,-872,0,0
-1203,-1143,0,0
-1788,-1190,0,0
-1905,-565,0,0
-640,-53,1,0
-1425,-865,0,0
-1780,-1884,1,0
-107,-1316,1,0
-1659,-140,0,0
-292,-1329,0,0
-688,-1570,1,0
-1568,-1316,0,0
-745,-260,1,0
-653,-809,0,0
-1033,-1602,1,0
-403,-1257,0,0
-430,-1744,0,0
-1145,-1459,0,0
-1658,-675,0,0
-512,-1587,0,0
-1368,-1572,0,0
-1972,-21,0,0
-686,-1350,1,0
-1743,-1004,0,0
-1617,-596,1,0
-1077,-999,0,0
-1967,-496,1,0
-1813,-1738,1,0
-410,-1443,0,0
-955,-1269,0,0
-609,-161,0,0
-104,-1300,0,0
-1139,-1592,0,0
-1476,-1059,0,0
-990,-1437,1,0
-220,-1075,0,0
-724,-764,0,0
-1316,-1525,0,0
-779,-862,0,0
-930,-1119,0,0
-1065,-1945,0,0
-1954,-360,0,0
-1771,-349,0,0
-175,-1164,0,0
-635,-396,0,0
-12,-1084,0,0
-826,-1577,1,0
-1307,-179,0,0
-67,-626,0,0
-759,-547,0,0
-1372,-351,0,0
-1500,-1450,0,0
-516,-203,1,0
-692,-246,0,0
-719,-1192,0,0
-595,-1473,0,0
-210,-1022,0,0
-629,-5,0,0
-1563,-558,0,0
-1937,-799,0,0
-181,-1707,0,0
-1066,-1703,0,0
-1501,-156,0,0
-1210,-1702,0,0
-1733,-961,0,0
-894,-1716,0,0
-1680,-335,1,0
-1344,-429,0,0
-1489,-923,1,0
-1038,-1556,1,0
-897,-1992,0,0
-853,-1279,1,0
-1660,-782,1,0
-1561,-1560,0,0
-1356,-83,1,0
-701,-21,0,0
-42,-822,0,0
-1617,-1226,0,0
-648,-372,0,0
-874,-920,0,0
-397,-1200,1,0
-382,-1226,0,0
-1140,-185,0,0
-1611,-1435,0,0
-182,-735,1,0
-997,-1758,0,0
-1513,-157,0,0
-383,-1537,0,0
-1747,-737,0,0
-1132,-938,1,0
-267,-1590,0,0
-511,-990,0,0
-1979,-561,1,0
-468,-908,1,0
-84,-405,0,0
-1771,-454,0,0
-936,-116,0,0
-892,-1071,0,0
-1485,-340,0,0
-1519,-296,0,0
-511,-738,1,0
-271,-1678,0,0
-1022,-754,0,0
-1828,-1155,1,0
-993,-1330,1,0
-1765,-811,0,0
-693,-137,0,0
-768,-1981,0,0
-61,-545,0,0
-1318,-1818,0,0
-1566,-1857,0,0
-313,-535,1,0
-801,-809,0,0
-1934,-67,0,0
-1841,-1400,1,0
-470,-1077,0,0
-1430,-668,0,0
-778,-1933,1,0
-1794,-1287,0,0
-1890,-729,0,0
-551,-767,1,0
-1173,-1730,1,0
-447,-615,0,0
-274,-918,0,0
-300,-1428,0,0
-1577,-1297,0,0
-1992,-1515,0,0
-526,-1635,1,0
-1361,-819,0,0
-952,-1490,0,0
-1310,-777,0,0
-816,-1716,0,0
-501,-845,0,0
-353,-896,0,0
-1773,-1889,0,0
-1539,-1907,0,0
-1059,-1159,0,0
-844,-1539,0,0
-1347,-570,1,0
-1719,-1288,0,0
-653,-418,0,0
-51,-1107,0,0
-1229,-480,1,0
-1473,-469,1,0
-1605,-1042,1,0
-1701,-43,0,0
-1222,-284,0,0
-166,-1581,1,0
-1467,-1104,1,0
-453,-751,0,0
-1439,-179,1,0
-1430,-134,0,0
-866,-31,1,0
-1585,-1045,0,0
-151,-270,0,0
-472,-823,0,0
-1601,-1274,1,0
-1351,-844,0,0
-752,-1051,0,0
-743,-642,1,0
-1260,-1122,0,0
-1695,-92,1,0
-1252,-939,1,0
-1216,-537,0,0
-1290,-798,1,0
-1260,-1530,0,0
-915,-1810,0,0
-986,-463,0,0
-93,-1458,1,0
-452,-836,0,0
-283,-1421,0,0
-1742,-1618,0,0
-1102,-330,0,0
-692,-641,0,0
-1996,-1122,0,0
-978,-566,0,0
-785,-211,0,0
-1581,-1014,0,0
-262,-806,0,0
-1112,-1172,0,0
-15,-1291,0,0
-552,-21,0,0
-439,-976,1,0
-1429,-932,1,0
-322,-1483,0,0
-1356,-92,0,0
-1286,-1066,1,0
-498,-1524,0,0
-538,-1232,0,0
-1698,-91,0,0
-798,-647,0,0
-1978,-954,0,0
-1905,-425,0,0
-1762,-1219,0,0
-130,-1809,0,0
-81,-1482,0,0
-464,-532,1,0
-600,-980,0,0
-1858,-611,1,0
-1085,-1612,0,0
-1029,-1376,0,0
-28,-790,0,0
-440,-1569,1,0
-1417,-1220,1,0
-118,-248,0,0
-69,-402,0,0
-1445,-1377,0,0
-1174,-819,1,0
-1177,-1368,0,0
-1042,-1818,0,0
-19,-868,0,0
-945,-1871,0,0
-163,-151,1,0
-1563,-965,0,0
-1517,-373,0,0
-385,-1841,0,0
-1626,-1388,0,0
-1912,-141,0,0
-387,-1912,0,0
-1571,-1232,1,0
-1360,-1619,0,0
-1514,-750,1,0
-803,-1735,0,0
-594,-558,0,0
-178,-606,1,0
-1633,-561,0,0
-599,-1675,0,0
-516,-890,0,0
-1475,-1630,0,0
-510,-1514,1,0
-18,-1554,0,0
-776,-540,1,0
-1557,-731,0,0
-1492,-987,0,0
-238,-1129,0,0
-1957,-422,0,0
-27,-1091,0,0
-1300,-1123,0,0
-1583,-1902,0,0
-215,-1158,0,0
-767,-70,0,0
-733,-1698,0,0
-394,-663,0,0
-1894,-1902,1,0
-1435,-1830,0,0
-439,-232,0,0
-922,-330,0,0
-785,-126,0,0
-1029,-808,0,0
-1721,-1062,0,0
-920,-973,0,0
-1495,-126,0,0
-229,-1232,0,0
-993,-1671,0,0
-394,-1582,0,0
-103,-1719,0,0
-1320,-1828,0,0
-976,-243,0,0
-1113,-140,0,0
-1894,-475,1,0
-960,-941,1,0
-1117,-781,0,0
-1521,-1603,0,0
-772,-165,1,0
-1531,-1040,0,0
-1940,-959,1,0
-1091,-1930,0,0
-490,-1806,0,0
-329,-1798,0,0
-546,-1407,0,0
-1224,-1839,0,0
-1547,-1360,1,0
-1,-1109,0,0
-1406,-485,0,0
-140,-1042,0,0
-1617,-811,0,0
-438,-499,0,0
-613,-1094,0,0
-602,-1892,0,0
-1903,-1552,0,0
-585,-91,0,0
-1640,-1204,1,0
-1345,-1002,0,0
-899,-1097,0,0
-1202,-544,0,0
-1411,-716,1,0
-406,-915,0,0
-1679,-715,0,0
-558,-1896,0,0
-1268,-1184,0,0
-674,-1235,1,0
-1624,-1359,1,0
-1170,-348,0,0
-254,-1650,0,0
-1673,-532,1,0
-1168,-1521,0,0
-767,-670,1,0
-1168,-1231,0,0
-166,-176,0,0
-1011,-904,0,0
-137,-186,0,0
-295,-1596,0,0
-915,-223,0,0
-906,-121,0,0
-268,-1093,1,0
-325,-226,0,0
-1711,-356,1,0
-731,-1839,0,0
-498,-1155,0,0
-1737,-45,0,0
-891,-591,0,0
-1851,-1435,1,0
-1204,-681,0,0
-585,-1420,0,0
-299,-1776,0,0
-998,-1218,0,0
-1422,-985,0,0
-1304,-624,0,0
-1027,-922,0,0
-56,-1690,1,0
-161,-830,0,0
-1369,-1125,0,0
-1936,-771,0,0
-1440,-1861,0,0
-1263,-110,0,0
-1908,-1371,0,0
-386,-926,0,0
-468,-946,0,0
-1669,-333,1,0
-1482,-1380,0,0
-1694,-1175,0,0
-541,-227,0,0
-1442,-794,0,0
-31,-1320,0,0
-1129,-1878,0,0
-101,-1099,1,0
-1983,-1559,1,0
-867,-1529,1,0
-795,-174,0,0
-1209,-820,0,0
-686,-1270,0,0
-1134,-645,0,0
-181,-396,1,0
-1880,-1418,0,0
-120,-1428,0,0
-1202,-1583,0,0
-1371,-498,0,0
-1639,-659,0,0
-850,-976,1,0
-1590,-56,1,0
-638,-1149,1,0
-978,-903,0,0
-991,-1494,0,0
-1138,-1634,0,0
-1234,-1587,1,0
-1834,-378,0,0
-377,-1096,0,0
-754,-1206,1,0
-1885,-1528,1,0
-401,-147,0,0
-1903,-179,1,0
-288,-163,0,0
-254,-697,1,0
-1975,-1778,1,0
-1500,-1845,0,0
-1231,-149,1,0
-1601,-1116,0,0
-537,-961,0,0
-808,-887,0,0
-1503,-1291,0,0
-98,-628,0,0
-106,-1290,0,0
-564,-1254,0,0
-808,-1685,0,0
-437,-1178,0,0
-288,-535,0,0
-1292,-359,1,0
-1970,-1336,0,0
-381,-894,1,0
-472,-1130,0,0
-924,-1441,0,0
-1072,-542,0,0
-400,-1251,1,0
-811,-31,0,0
-923,-1697,0,0
-1492,-632,0,0
-1838,-1502,0,0
-852,-1588,0,0
-1199,-1561,1,0
-1960,-543,1,0
-1544,-884,1,0
-568,-1338,0,0
-1151,-246,0,0
-1134,-1827,0,0
-1369,-693,1,0
-907,-240,0,0
-1785,-376,0,0
-206,-537,0,0
-704,-566,0,0
-673,-1859,0,0
-308,-698,0,0
-1915,-612,0,0
-1394,-977,0,0
-739,-650,0,0
-1624,-511,0,0
-1727,-1754,0,0
-1199,-1999,0,0
-998,-85,0,0
-1270,-245,0,0
-739,-706,1,0
-1921,-1110,1,0
-297,-1060,0,0
-282,-1487,0,0
-1834,-687,0,0
-771,-978,1,0
-1215,-207,0,0
-1599,-1136,0,0
-395,-43,0,0
-886,-1613,0,0
-1615,-1004,0,0
-318,-732,1,0
-82,-400,0,0
-431,-689,0,0
-1034,-197,0,0
-689,-1790,0,0
-1006,-108,0,0
-684,-1383,1,0
-1766,-304,0,0
-330,-724,0,0
-1506,-893,0,0
-1825,-1120,0,0
-1370,-191,0,0
-13,-935,1,0
-1631,-848,0,0
-1638,-1264,0,0
-1455,-1156,0,0
-626,-1683,0,0
-642,-785,1,0
-707,-736,0,0
-647,-598,1,0
-1919,-1517,0,0
-106,-1413,0,0
-1985,-1747,0,0
-87,-966,0,0
-1716,-1488,0,0
-862,-757,0,0
-1408,-631,1,0
-153,-1331,1,0
-1201,-1133,1,0
-1827,-1728,0,0
-962,-1061,0,0
-1668,-14,0,0
-847,-171,1,0
-1775,-1617,0,0
-1123,-1922,0,0
-1355,-1595,0,0
-1707,-153,0,0
-1755,-1744,0,0
-806,-552,0,0
-1489,-1587,0,0
-1409,-425,0,0
-549,-1836,1,0
-1403,-404,0,0
-1876,-1719,0,0
-1013,-567,0,0
-1062,-334,0,0
-1388,-1846,1,0
-678,-1616,0,0
-1571,-1245,1,0
-1023,-892,1,0
-1673,-361,0,0
-1650,-810,0,0
-799,-940,0,0
-418,-25,1,0
-151,-1245,1,0
-758,-161,0,0
-1419,-672,0,0
-1002,-1917,0,0
-1397,-447,0,0
-1963,-559,1,0
-1527,-137,0,0
-1829,-1258,0,0
-273,-798,1,0
-1468,-1629,0,0
-1144,-212,0,0
-1348,-869,0,0
-1792,-1189,0,0
-1376,-1109,0,0
-380,-1578,1,0
-1793,-1501,1,0
-246,-137,0,0
-994,-1928,0,0
-341,-985,0,0
-1527,-144,0,0
-962,-14,0,0
-1309,-203,0,0
-215,-854,0,0
-422,-115,0,0
-962,-1933,1,0
-368,-227,0,0
-1061,-1012,0,0
-715,-551,1,0
-1568,-1570,0,0
-467,-644,0,0
-1866,-12,0,0
-1581,-596,0,0
-1982,-928,0,0
-904,-1420,0,0
-401,-1584,1,0
-1872,-999,0,0
-1309,-661,0,0
-144,-923,0,0
-1741,-140,0,0
-239,-391,0,0
-1256,-39,0,0
-1255,-1193,0,0
-1791,-990,0,0
-941,-1365,0,0
-1477,-1497,0,0
-1950,-1986,0,0
-1113,-480,0,0
-1874,-727,0,0
-805,-1122,0,0
-1648,-1544,0,0
-1127,-139,0,0
-1030,-763,0,0
-158,-1896,0,0
-1960,-1028,0,0
-188,-260,1,0
-534,-1213,0,0
-786,-1705,0,0
-885,-1184,0,0
-416,-1907,0,0
-1645,-1522,0,0
-468,-1863,1,0
-602,-1887,1,0
-119,-1375,0,0
-914,-608,0,0
-1884,-1195,0,0
-1532,-1972,0,0
-174,-1783,0,0
-592,-1218,0,0
-1278,-1450,0,0
-1899,-556,0,0
-1574,-1528,1,0
-359,-260,0,0
-1443,-317,1,0
-1582,-1989,0,0
-230,-635,0,0
-1869,-1080,0,0
-1624,-254,0,0
-797,-717,1,0
-939,-1404,0,0
-1612,-898,1,0
-125,-982,0,0
-122,-976,1,0
-1900,-900,0,0
-929,-1034,0,0
-321,-916,0,0
-1178,-1446,0,0
-425,-942,0,0
-230,-1528,0,0
-58,-34,0,0
-1938,-1658,0,0
-1797,-612,1,0
-1078,-197,0,0
-561,-1379,0,0
-1336,-73,1,0
-1179,-1617,0,0
-721,-1015,0,0
-1693,-133,0,0
-1409,-1468,0,0
-1184,-733,0,0
-505,-1379,0,0
-818,-262,1,0
-593,-832,1,0
-1804,-354,0,0
-1061,-1340,1,0
-804,-919,0,0
-1516,-698,0,0
-79,-1644,0,0
-1001,-377,0,0
-1077,-649,1,0
-1958,-1726,0,0
-983,-38,0,0
-491,-650,1,0
-1470,-1038,0,0
-1152,-1960,0,0
-1790,-1791,0,0
-1407,-1072,0,0
-40,-195,0,0
-1032,-798,0,0
-1772,-756,1,0
-1221,-1829,0,0
-669,-1404,0,0
-1733,-1303,1,0
-1911,-96,0,0
-988,-519,1,0
-843,-1198,0,0
-1474,-191,0,0
-1098,-1753,0,0
-1634,-523,0,0
-368,-786,0,0
-324,-1416,0,0
-178,-1952,1,0
-334,-555,1,0
-1133,-1351,0,0
-534,-1493,0,0
-1823,-84,1,0
-592,-99,0,0
-1240,-1581,0,0
-302,-524,0,0
-1360,-1027,0,0
-198,-764,1,0
-765,-234,0,0
-294,-1181,0,0
-906,-1871,1,0
-1221,-30,1,0
-516,-709,1,0
-1630,-1331,1,0
-320,-139,0,0
-174,-251,0,0
-1578,-1295,1,0
-1077,-1713,0,0
-1418,-494,0,0
-343,-469,0,0
-1547,-1540,0,0
-1960,-1543,0,0
-119,-276,1,0
-1175,-769,0,0
-632,-31,1,0
-1848,-1966,0,0
-1756,-401,0,0
-670,-1851,0,0
-1456,-1487,0,0
-1071,-720,0,0
-1801,-381,1,0
-1330,-726,0,0
-1934,-1757,0,0
-1950,-1697,0,0
-716,-98,1,0
-1756,-1607,0,0
-605,-874,1,0
-1039,-1897,0,0
area 4
180,-628,0,0
1593,-881,1,0
852,-1005,0,0
1024,-331,0,0
223,-1580,1,0
936,-1467,0,0
1170,-279,0,0
1094,-1474,0,0
823,-507,0,0
236,-1614,0,0
621,-1551,0,0
603,-1822,0,0
1556,-683,0,0
1254,-1324,0,0
939,-318,1,0
1343,-476,1,0
499,-1291,0,0
1152,-1740,0,0
1298,-1733,1,0
190,-996,1,0
1395,-1397,0,0
1342,-45,1,0
1106,-687,1,0
1306,-1176,0,0
41,-857,0,0
439,-1449,0,0
1928,-699,1,0
1283,-1247,0,0
574,-661,0,0
1749,-24,0,0
758,-249,0,0
619,-1670,1,0
1782,-604,0,0
1011,-388,0,0
861,-538,0,0
1848,-1394,1,0
472,-1596,0,0
1271,-1921,0,0
1034,-1816,1,0
1399,-1239,0,0
318,-1128,0,0
385,-1899,0,0
1514,-1790,1,0
543,-1810,0,0
329,-1468,1,0
448,-624,0,0
1369,-1079,0,0
1387,-854,0,0
1049,-1217,0,0
1803,-1553,1,0
891,-1614,1,0
196,-390,0,0
949,-150,0,0
1108,-1468,1,0
310,-470,0,0
1464,-419,0,0
1518,-108,0,0
1248,-724,0,0
972,-1412,0,0
1831,-1399,0,0
1200,-1569,1,0
808,-1458,0,0
970,-574,0,0
1676,-338,0,0
785,-147,0,0
1124,-893,1,0
1447,-1270,1,0
1551,-1644,0,0
1477,-1603,1,0
1661,-773,1,0
1278,-797,0,0
1380,-1386,0,0
817,-1566,0,0
1194,-1664,0,0
759,-45,0,0
805,-1751,0,0
302,-917,1,0
303,-1268,0,0
1025,-1311,0,0
1191,-1804,0,0
460,-1610,0,0
507,-1390,1,0
511,-967,0,0
1330,-1611,1,0
1221,-590,0,0
1903,-1300,0,0
1723,-318,0,0
544,-1004,1,0
542,-1759,0,0
788,-1245,0,0
1568,-199,0,0
1915,-994,1,0
147,-1151,0,0
326,-1437,0,0
759,-1822,0,0
1693,-551,1,0
1172,-1857,0,0
544,-1855,0,0
370,-718,0,0
1964,-1521,0,0
588,-1817,1,0
429,-1098,0,0
1273,-528,0,0
1837,-166,1,0
1348,-285,0,0
791,-1698,0,0
1365,-1697,0,0
1,-823,0,0
445,-1488,0,0
286,-769,0,0
1012,-181,0,0
207,-957,0,0
1213,-1240,0,0
941,-1353,0,0
1386,-615,1,0
492,-203,0,0
696,-1638,0,0
582,-1659,0,0
1651,-1721,0,0
1188,-880,0,0
1315,-1414,1,0
1421,-260,0,0
245,-1766,1,0
1358,-381,0,0
1464,-625,1,0
1565,-1069,0,0
947,-189,1,0
955,-1466,0,0
1163,-1056,1,0
914,-473,0,0
345,-1531,0,0
774,-464,0,0
150,-302,0,0
335,-181,0,0
1735,-369,1,0
1339,-2000,0,0
251,-572,0,0
1052,-702,0,0
1979,-935,0,0
1932,-838,0,0
1132,-467,0,0
70,-1511,0,0
737,-18,0,0
1473,-760,0,0
1593,-1664,0,0
1915,-1217,0,0
886,-1230,0,0
768,-540,1,0
1504,-765,0,0
129,-366,1,0
1758,-1489,0,0
256,-1730,0,0
694,-1254,0,0
1945,-796,0,0
1415,-657,1,0
331,-1099,1,0
459,-1401,0,0
1118,-178,0,0
1840,-545,1,0
1189,-1168,0,0
1247,-75,0,0
1074,-1099,0,0
1358,-481,0,0
1430,-497,0,0
986,-1905,1,0
271,-1764,0,0
42,-329,0,0
1064,-860,0,0
714,-1199,0,0
1850,-1598,0,0
1253,-1065,0,0
1042,-1161,0,0
512,-1752,0,0
1088,-928,0,0
810,-238,0,0
862,-1303,0,0
1098,-440,0,0
345,-332,1,0
1701,-269,0,0
756,-1884,0,0
1567,-1038,0,0
823,-745,0,0
1258,-1529,0,0
755,-532,1,0
1839,-1463,0,0
461,-419,0,0
1914,-1022,0,0
1663,-750,0,0
1030,-1061,1,0
1322,-1030,0,0
989,-720,0,0
214,-456,0,0
1251,-869,0,0
245,-1300,0,0
1491,-151,0,0
851,-556,0,0
1206,-1872,0,0
1265,-103,0,0
1129,-1646,0,0
1704,-430,1,0
118,-1358,0,0
581,-266,0,0
1966,-409,0,0
1946,-939,0,0
845,-1581,0,0
870,-44,1,0
83,-1328,1,0
388,-900,0,0
1780,-859,1,0
19,-1101,1,0
676,-1982,0,0
1298,-398,0,0
1389,-321,0,0
630,-1592,0,0
161,-903,0,0
334,-1104,0,0
686,-937,1,0
831,-595,0,0
1579,-121,0,0
1833,-1500,0,0
219,-843,0,0
345,-589,1,0
983,-1264,0,0
1007,-1535,0,0
1240,-1675,0,0
407,-1516,0,0
685,-1993,0,0
383,-742,0,0
1760,-501,1,0
2,-1181,0,0
1147,-538,0,0
1681,-70,1,0
526,-1867,1,0
1638,-748,0,0
1443,-815,1,0
559,-824,0,0
876,-251,0,0
864,-624,0,0
510,-1685,0,0
1972,-1517,0,0
618,-821,0,0
364,-1486,0,0
1009,-1203,0,0
1154,-327,0,0
1883,-965,0,0
1090,-181,0,0
505,-986,0,0
1017,-713,1,0
904,-1195,0,0
532,-1255,0,0
329,-19,0,0
1107,-822,0,0
829,-342,1,0
1104,-438,1,0
889,-714,0,0
617,-1945,0,0
972,-631,0,0
222,-1543,0,0
796,-928,0,0
707,-1493,0,0
482,-221,0,0
1680,-1649,0,0
330,-1502,0,0
1724,-1108,0,0
319,-1656,0,0
218,-554,0,0
30,-1764,0,0
156,-1147,0,0
1395,-1189,0,0
1134,-804,1,0
1027,-1114,0,0
1173,-1069,0,0
886,-1200,0,0
724,-1082,0,0
1420,-163,0,0
1157,-716,0,0
23,-769,0,0
1813,-605,1,0
1635,-1845,0,0
344,-201,0,0
1052,-1463,0,0
478,-952,0,0
1035,-249,0,0
1452,-1772,0,0
1261,-1305,1,0
1148,-1942,0,0
217,-1110,1,0
1509,-618,0,0
1568,-1598,1,0
422,-24,0,0
1596,-1485,0,0
1053,-1289,0,0
148,-913,0,0
576,-1060,0,0
1232,-318,0,0
171,-97,1,0
249,-1465,0,0
1715,-532,0,0
252,-1478,0,0
1761,-1069,0,0
1044,-1039,0,0
591,-339,0,0
808,-1443,0,0
1390,-1424,0,0
962,-585,0,0
1037,-7,0,0
562,-755,0,0
792,-1253,0,0
684,-910,1,0
1093,-1166,0,0
1562,-682,1,0
252,-1385,0,0
197,-1741,0,0
1169,-378,0,0
1222,-1284,0,0
136,-1811,0,0
1859,-500,0,0
1423,-1749,1,0
218,-645,0,0
93,-1204,0,0
1604,-1246,0,0
1608,-641,0,0
1432,-1840,0,0
1723,-977,0,0
520,-222,0,0
1366,-1171,0,0
624,-321,1,0
1502,-591,0,0
1553,-464,1,0
1210,-33,0,0
1789,-1449,1,0
1553,-1380,0,0
209,-486,0,0
1098,-1033,1,0
323,-1794,1,0
1722,-1428,0,0
573,-259,0,0
778,-980,0,0
155,-1136,0,0
1286,-946,0,0
791,-1496,0,0
1151,-1697,0,0
509,-79,1,0
1715,-1149,0,0
1867,-899,0,0
1934,-1669,1,0
1129,-1761,0,0
1382,-246,0,0
565,-1302,0,0
1095,-188,0,0
502,-938,0,0
564,-185,1,0
1376,-135,0,0
776,-1196,0,0
191,-541,1,0
1195,-523,0,0
1473,-1085,0,0
1713,-1247,0,0
1500,-1803,1,0
1028,-736,1,0
683,-599,0,0
1723,-515,0,0
686,-1074,0,0
709,-327,1,0
793,-1899,1,0
1221,-523,1,0
1151,-1099,0,0
790,-802,0,0
1498,-946,0,0
1236,-989,0,0
1742,-989,0,0
1670,-947,0,0
164,-396,1,0
1407,-321,0,0
580,-1603,0,0
1459,-317,0,0
1498,-1934,0,0
1659,-828,0,0
491,-1162,0,0
461,-1717,1,0
1153,-1125,0,0
453,-1991,0,0
1235,-1660,0,0
519,-1693,0,0
1088,-1686,0,0
1684,-942,0,0
636,-1858,0,0
27,-605,0,0
1580,-1419,1,0
213,-76,0,0
976,-1703,0,0
1770,-1010,0,0
376,-384,0,0
826,-1528,1,0
990,-1084,0,0
1740,-1057,0,0
146,-1877,0,0
1449,-1688,0,0
72,-1630,1,0
1626,-1680,0,0
161,-1057,0,0
1223,-246,0,0
354,-1362,0,0
1156,-1279,0,0
1493,-448,0,0
118,-649,0,0
960,-226,0,0
1486,-1749,0,0
929,-30,0,0
806,-217,0,0
860,-241,1,0
1217,-1025,0,0
1264,-90,0,0
515,-1603,1,0
1554,-321,1,0
786,-658,0,0
1350,-603,1,0
625,-1504,1,0
102,-1390,0,0
1869,-454,0,0
478,-766,0,0
1974,-583,0,0
1667,-466,0,0
1262,-1050,0,0
216,-773,0,0
1027,-398,0,0
1310,-1618,0,0
61,-1350,0,0
662,-1262,0,0
1225,-962,0,0
1416,-584,0,0
1053,-1245,0,0
546,-1997,0,0
434,-798,0,0
103,-1337,0,0
1593,-868,1,0
1946,-1552,0,0
636,-1680,1,0
611,-518,0,0
1641,-713,1,0
48,-1349,0,0
915,-1385,0,0
854,-1392,1,0
1211,-295,0,0
1094,-1494,1,0
42,-1662,0,0
1354,-910,0,0
1367,-1003,0,0
175,-1304,0,0
1433,-193,0,0
886,-326,0,0
241,-1983,0,0
1018,-227,0,0
59,-193,1,0
3,-1152,0,0
532,-233,0,0
1205,-862,1,0
1297,-684,1,0
677,-1225,0,0
567,-471,0,0
1031,-1700,0,0
806,-961,0,0
288,-1274,1,0
771,-1308,0,0
1569,-882,1,0
1132,-1886,0,0
534,-1795,0,0
760,-1830,0,0
1416,-213,0,0
386,-1492,0,0
914,-450,1,0
1834,-615,1,0
405,-1480,1,0
1016,-150,0,0
1625,-1309,0,0
172,-1554,1,0
310,-778,1,0
1203,-1718,0,0
1217,-664,1,0
749,-697,0,0
372,-1336,0,0
790,-1377,0,0
1233,-1874,0,0
1757,-312,0,0
1715,-215,0,0
1432,-331,0,0
766,-979,0,0
1125,-1955,0,0
1686,-247,0,0
1331,-1458,0,0
1055,-1688,0,0
848,-89,0,0
722,-37,0,0
239,-698,0,0
1376,-972,0,0
277,-223,0,0
939,-1721,1,0
652,-1340,1,0
1863,-110,0,0
600,-1587,0,0
935,-468,0,0
1396,-87,0,0
971,-1778,0,0
843,-43,0,0
1403,-1102,0,0
105,-895,0,0
478,-164,0,0
876,-1538,0,0
1378,-179,0,0
1674,-1038,0,0
449,-1323,0,0
134,-890,0,0
969,-758,0,0
1772,-1351,0,0
160,-903,0,0
814,-930,0,0
635,-1554,1,0
1602,-518,1,0
248,-1195,0,0
1405,-676,0,0
1461,-1362,0,0
492,-56,0,0
1471,-538,0,0
435,-1444,0,0
405,-538,0,0
1017,-1649,1,0
1518,-1940,0,0
323,-868,0,0
1432,-921,0,0
208,-1476,0,0
1879,-207,0,0
1062,-1307,0,0
433,-963,1,0
612,-1450,0,0
924,-1047,0,0
1667,-1662,0,0
1100,-508,0,0
1890,-831,0,0
1605,-1704,0,0
1315,-1421,0,0
1725,-494,0,0
334,-1674,0,0
953,-864,0,0
1261,-31,1,0
946,-226,0,0
1607,-1755,1,0
1747,-1243,0,0
637,-1029,1,0
592,-888,0,0
1307,-1930,0,0
902,-105,0,0
1233,-708,0,0
928,-376,0,0
566,-1468,0,0
1667,-1957,0,0
300,-1311,0,0
110,-6,0,0
1818,-1869,0,0
1520,-1207,0,0
1792,-98,0,0
838,-1968,0,0
1413,-585,0,0
74,-856,0,0
437,-603,0,0
1690,-1560,0,0
366,-1767,1,0
1856,-419,0,0
890,-861,0,0
853,-632,0,0
212,-1812,0,0
268,-1905,0,0
1250,-857,0,0
1799,-443,1,0
1814,-873,0,0
1119,-38,0,0
628,-285,0,0
692,-595,0,0
1336,-1481,0,0
875,-1410,0,0
201,-948,0,0
1472,-234,0,0
1996,-429,1,0
1451,-1542,1,0
61,-1008,0,0
233,-1259,0,0
238,-268,0,0
154,-621,1,0
588,-1583,1,0
481,-755,0,0
23,-1376,1,0
1203,-707,0,0
1516,-1720,1,0
520,-327,0,0
1517,-1557,0,0
1124,-1445,1,0
1122,-1061,0,0
833,-537,0,0
1475,-1888,0,0
483,-1218,0,0
566,-1126,1,0
82,-1111,0,0
477,-1480,1,0
712,-1193,0,0
377,-896,0,0
985,-669,0,0
1088,-1196,0,0
1415,-1215,0,0
1627,-1004,0,0
910,-748,0,0
649,-186,0,0
65,-732,1,0
130,-251,0,0
1756,-1244,1,0
1737,-693,0,0
649,-1116,0,0
505,-1009,0,0
262,-1320,1,0
1031,-909,0,0
46,-618,0,0
558,-110,0,0
135,-1395,0,0
883,-1644,0,0
1675,-1600,0,0
1933,-768,0,0
730,-519,0,0
603,-912,1,0
814,-538,0,0
1704,-1588,0,0
201,-638,1,0
597,-1027,1,0
907,-1320,0,0
1188,-826,0,0
1199,-570,0,0
115,-1577,0,0
773,-1250,0,0
100,-837,0,0
1779,-514,0,0
1194,-766,0,0
1697,-1402,0,0
1423,-885,0,0
1308,-1577,0,0
1967,-687,0,0
1860,-1337,1,0
502,-1611,1,0
755,-747,0,0
1747,-303,1,0
599,-413,0,0
513,-847,0,0
1832,-275,0,0
1802,-638,0,0
969,-701,1,0
492,-1424,1,0
1684,-1312,1,0
321,-516,0,0
1242,-173,0,0
379,-1473,1,0
1695,-703,0,0
227,-1482,0,0
1302,-1083,0,0
733,-565,0,0
1132,-673,0,0
1604,-1247,0,0
310,-701,0,0
1276,-1737,0,0
730,-1709,0,0
1817,-1477,0,0
308,-737,0,0
850,-223,0,0
1553,-582,0,0
1276,-1287,1,0
906,-1741,0,0
1397,-528,0,0
1835,-446,0,0
103,-1292,0,0
168,-916,0,0
1366,-163,0,0
138,-1500,0,0
1903,-1516,0,0
1345,-991,0,0
1873,-1871,1,0
765,-1475,0,0
1007,-1727,0,0
550,-805,0,0
514,-1343,1,0
581,-141,0,0
1156,-1825,0,0
1575,-445,1,0
1115,-1206,1,0
1270,-45,0,0
1128,-1143,0,0
1317,-326,0,0
871,-249,1,0
858,-607,0,0
147,-1755,0,0
861,-517,1,0
319,-250,0,0
1311,-123,0,0
997,-1935,0,0
457,-392,0,0
850,-22,1,0
342,-528,1,0
375,-1836,0,0
851,-615,1,0
1217,-74,0,0
90,-413,1,0
143,-1007,1,0
892,-1820,0,0
1640,-761,0,0
1428,-1406,0,0
1258,-840,0,0
361,-250,1,0
453,-1744,0,0
1496,-1966,0,0
784,-521,0,0
1537,-433,1,0
1053,-1061,0,0
701,-1455,0,0
274,-734,0,0
1113,-486,1,0
372,-1231,0,0
1902,-1085,0,0
1930,-768,0,0
126,-880,0,0
213,-376,0,0
734,-736,1,0
1223,-428,0,0
221,-868,0,0
864,-1995,0,0
139,-1173,0,0
1587,-54,0,0
377,-1465,0,0
125,-456,0,0
1195,-1527,1,0
1175,-1722,0,0
486,-1763,0,0
989,-1124,1,0
933,-1245,1,0
948,-1180,0,0
1110,-1286,0,0
527,-522,1,0
1519,-1660,0,0
1750,-1071,0,0
1535,-1456,0,0
1100,-129,0,0
695,-1108,0,0
1900,-1529,1,0
1720,-698,1,0
784,-444,0,0
1354,-1036,1,0
86,-1173,1,0
1776,-1206,0,0
737,-1868,0,0
740,-1373,1,0
1983,-1283,0,0
797,-256,0,0
812,-518,0,0
1157,-1993,0,0
851,-1791,0,0
1525,-629,0,0
1918,-76,1,0
1268,-1449,0,0
1041,-696,1,0
1328,-1671,0,0
210,-1330,1,0
1037,-572,0,0
1756,-1523,0,0
996,-1226,1,0
1039,-1538,1,0
1588,-1240,0,0
1349,-84,0,0
345,-2,1,0
16,-1666,1,0
732,-192,0,0
1594,-269,0,0
633,-1583,1,0
1484,-358,1,0
852,-1988,0,0
1380,-504,0,0
1587,-1083,0,0
236,-1213,0,0
923,-547,1,0
581,-591,0,0
1042,-967,0,0
187,-979,0,0
805,-1773,0,0
185,-1296,1,0
1853,-932,0,0
1926,-303,0,0
782,-1233,0,0
544,-1664,0,0
1873,-1587,0,0
477,-427,0,0
778,-330,0,0
756,-1290,1,0
1211,-356,0,0
645,-1365,0,0
873,-1704,0,0
539,-301,1,0
1594,-16,1,0
1344,-247,0,0
1192,-598,0,0
825,-1851,0,0
1719,-1544,0,0
726,-982,0,0
528,-456,0,0
691,-128,1,0
1879,-470,0,0
616,-12,0,0
444,-404,0,0
1145,-341,0,0
1248,-311,0,0
787,-1798,1,0
1015,-1036,1,0
1086,-496,0,0
833,-492,0,0
1171,-454,0,0
149,-653,0,0
447,-1454,0,0
1404,-829,0,0
849,-771,1,0
631,-304,0,0
1813,-595,0,0
1163,-303,1,0
1843,-427,1,0
345,-1391,1,0
1501,-1146,0,0
883,-1878,0,0
665,-76,0,0
1475,-209,0,0
363,-1800,0,0
1010,-1909,0,0
435,-1770,0,0
1201,-610,0,0
134,-1108,0,0
1072,-1516,0,0
1202,-1410,0,0
76,-222,0,0
1826,-723,0,0
1179,-618,0,0
220,-1762,0,0
511,-283,0,0
941,-742,0,0
994,-1367,1,0
1747,-415,0,0
1836,-1400,1,0
1448,-785,0,0
1330,-990,0,0
1503,-1706,0,0
587,-849,0,0
574,-1485,0,0
1010,-959,1,0
493,-458,1,0
1366,-118,0,0
477,-480,0,0
144,-816,0,0
1378,-1120,0,0
27,-1660,0,0
1795,-1633,0,0
850,-1776,0,0
1637,-720,1,0
766,-287,1,0
716,-236,0,0
480,-374,0,0
680,-639,0,0
189,-1275,0,0
157,-1657,0,0
1819,-1323,0,0
1643,-421,0,0
279,-1629,0,0
1447,-1236,0,0
1370,-442,1,0
735,-1901,1,0
1677,-1718,1,0
425,-742,0,0
1717,-205,0,0
1833,-839,0,0
1458,-905,0,0
1710,-805,0,0
228,-1091,0,0
742,-749,0,0
1159,-332,0,0
1419,-595,1,0
972,-1325,0,0
769,-231,0,0
334,-1639,1,0
728,-1056,1,0
482,-1835,1,0
200,-1560,1,0
1036,-977,0,0
270,-16,0,0
1160,-1931,0,0
437,-1426,0,0
478,-1048,0,0
32,-1277,1,0
1596,-1121,0,0
245,-930,0,0
1835,-1059,1,0
561,-1934,0,0
656,-849,0,0
389,-31,0,0
1557,-1423,0,0
773,-250,0,0
194,-899,0,0
1336,-1534,0,0
35,-501,1,0
380,-1076,0,0
858,-573,1,0
1692,-1634,0,0
877,-1292,0,0
1408,-384,1,0
1895,-1339,0,0
1599,-1274,0,0
1174,-1751,0,0
1925,-1267,0,0
1106,-660,0,0
966,-201,1,0
312,-1369,0,0
1100,-280,1,0
1453,-259,1,0
882,-1570,1,0
774,-917,0,0
1167,-1762,0,0
1845,-493,1,0

near cbsd peopel number
188
196
219
179
173
182
198
178
191
186
195
183
185
182
204
189
183
186
215
188
174
191
199
184
212
184
187
184
183
186
