each times' max average throughput
746.354797,747.342346,747.521301,747.465576,746.962708,747.111877,747.252441,747.080444,746.582764,747.028381,
avg. throughput in all test times
747.070312
avg. BS TX power in all test times
MBS area 1,MBS area 2,MBS area 3,MBS area 4,CBSD 1,CBSD 2,CBSD 3,CBSD 4,CBSD 5,CBSD 6,CBSD 7,CBSD 8,CBSD 9,CBSD 10,CBSD 11,CBSD 12,CBSD 13,CBSD 14,CBSD 15,CBSD 16,CBSD 17,CBSD 18,CBSD 19,CBSD 20,CBSD 21,CBSD 22,CBSD 23,CBSD 24,
10.000,10.000,10.000,10.000,0.075,0.062,0.000,0.375,0.087,0.075,0.100,0.100,0.000,0.412,0.100,0.100,0.100,0.000,0.000,0.000,0.000,0.000,0.575,0.200,0.000,0.062,0.100,0.100,
avg. mbs all power,avg. cbsd enable number,avg. mbs area all power,avg. cbsd all power
62.500,3.000,40.000,2.625
avg. max avg. throughput generation number in all test times
48.200001
avg. number of relay UE
114



the max average throughput times

BS TX power
MBS area 1,MBS area 2,MBS area 3,MBS area 4,CBSD 1,CBSD 2,CBSD 3,CBSD 4,CBSD 5,CBSD 6,CBSD 7,CBSD 8,CBSD 9,CBSD 10,CBSD 11,CBSD 12,CBSD 13,CBSD 14,CBSD 15,CBSD 16,CBSD 17,CBSD 18,CBSD 19,CBSD 20,CBSD 21,CBSD 22,CBSD 23,CBSD 24,
10.000,10.000,10.000,10.000,0.000,0.000,0.000,0.750,0.000,0.000,0.000,0.000,0.000,0.875,0.000,0.000,0.000,0.000,0.000,0.000,0.000,0.000,1.000,0.000,0.000,0.000,0.000,0.000,
max average throughput
747.028381

x,y,area,be blocked (1 : NLOS / 0 : LOS),be blocked number (>=1 : CBSD(x) / 0 : no),connect bs number (>=1 : CBSD / 0 : MBS),throughput (unit : M bps)
897,1940,1,0,0,0,668.536133
-1303,1847,2,0,0,0,652.554932
-102,-153,3,0,0,0,1374.928711
1258,-358,4,0,0,0,809.358643
1502,535,1,0,0,0,752.466736
-725,1963,2,0,0,0,674.580933
-1207,-241,3,0,0,0,826.833862
1005,-1096,4,0,0,0,772.488342
288,1674,1,0,0,0,734.313599
-376,1812,2,0,0,0,709.749207
-1492,-1650,3,0,0,0,657.114807
1072,-863,4,1,0,19,281.408783
1944,1436,1,1,0,10,233.254272
-942,1096,2,0,0,0,780.683838
-1530,-1561,3,0,0,0,662.134277
205,-1019,4,0,0,0,875.470154
163,1203,1,1,0,10,233.254272
-630,101,2,0,0,0,1016.070740
-1134,-1042,3,0,0,0,762.429993
910,-1862,4,0,0,0,677.344604
219,1373,1,0,0,0,791.797241
-1044,740,2,0,0,0,815.644226
-1543,-34,3,0,0,0,761.808960
1388,-1569,4,0,0,0,674.277405
1266,836,1,0,0,0,766.734924
-955,1877,2,0,0,0,672.759705
-1386,-1769,3,0,0,0,654.208557
1526,-394,4,0,0,0,755.796753
68,1065,1,0,0,0,867.885193
-133,1976,2,0,0,0,690.332031
-692,-290,3,0,0,0,969.353394
1192,-1061,4,1,0,19,281.408783
422,1200,1,0,0,0,817.362366
-1506,1040,2,0,0,0,712.924316
-959,-471,3,0,0,0,867.547913
393,-1680,4,0,0,0,729.831299
1791,1955,1,0,0,0,607.105957
-693,740,2,0,0,0,882.645874
-1568,-888,3,0,0,0,717.374878
703,-373,4,1,0,19,281.408783
1047,1241,1,0,0,0,747.254028
-1445,1098,2,0,0,0,715.339600
-1915,-1683,3,0,0,0,618.252686
1555,-711,4,0,0,0,732.421570
1876,1010,1,0,0,0,669.437683
-1243,1871,2,0,0,0,654.340454
-223,-435,3,0,0,0,1092.883911
1148,-9,4,0,0,0,846.864746
1562,501,1,0,0,0,744.315918
-980,586,2,0,0,0,848.422058
-960,-46,3,1,0,4,209.628403
547,-1226,4,0,0,0,801.865173
1319,1203,1,0,0,0,720.056030
-1406,1854,2,0,0,0,644.284729
-711,-586,3,0,0,0,910.183655
1925,-1809,4,0,0,0,608.153137
262,1000,1,0,0,0,877.042908
-1954,1662,2,0,0,0,616.498657
-1301,-558,3,0,0,0,786.624268
1334,-313,4,0,0,0,795.987732
426,1351,1,0,0,0,786.429993
-658,704,2,0,0,0,897.267944
-1887,-1631,3,1,0,4,148.332275
1143,-1491,4,0,0,0,705.432373
495,727,1,0,0,0,923.572510
-26,596,2,0,0,0,1035.449585
-1551,-559,3,0,0,0,742.871338
1033,-832,4,0,0,0,805.333191
579,1775,1,0,0,0,707.214844
-496,1406,2,0,0,0,771.736389
-1514,-320,3,0,0,0,761.052246
769,-1123,4,0,0,0,797.916809
1988,1985,1,0,0,0,590.669678
-1625,1568,2,0,0,0,652.833679
-1096,-1036,3,0,0,0,768.437805
1064,-514,4,0,0,0,838.562317
431,1477,1,0,0,0,762.698547
-1898,1694,2,1,0,10,233.254272
-1168,-1560,3,0,0,0,694.945251
1160,-681,4,0,0,0,801.301941
733,218,1,0,0,0,963.866821
-393,1191,2,0,0,0,821.431641
-1185,-1506,3,0,0,0,699.757019
1761,-856,4,0,0,0,693.593811
73,890,1,0,0,0,919.194580
-1087,1101,2,0,0,0,761.101929
-1416,-1905,3,0,0,0,638.607544
1254,-435,4,1,0,19,281.408783
1544,1767,1,0,0,0,641.880371
-1173,792,2,0,0,0,786.679565
-1708,-911,3,0,0,0,696.866211
1412,-116,4,0,0,0,786.392639
641,777,1,1,0,10,233.254272
-1597,82,2,0,0,0,751.627869
-1355,-27,3,0,0,0,799.142700
831,-439,4,0,0,0,904.469238
472,1969,1,0,0,0,684.001831
-227,1483,2,0,0,0,769.941284
-1920,-1158,3,0,0,0,654.859497
185,-718,4,0,0,0,972.776123
1805,1457,1,0,0,0,645.164124
-1778,506,2,0,0,0,710.058899
-900,-1335,3,0,0,0,749.672241
398,-1230,4,0,0,0,812.709900
566,1363,1,0,0,0,774.655212
-1981,153,2,0,0,0,689.404663
-1030,-236,3,0,0,0,870.725220
645,-633,4,0,0,0,915.752930
1690,798,1,1,0,10,233.254272
-256,1200,2,0,0,0,827.728394
-212,-1319,3,0,0,0,803.273743
1172,-451,4,0,0,0,821.061340
1194,1838,1,0,0,0,661.351562
-1799,647,2,0,0,0,700.430969
-1312,-1269,3,0,0,0,713.693054
1367,-849,4,0,0,0,749.823730
697,198,1,0,0,0,979.410461
-849,1311,2,0,0,0,758.384399
-1147,-1932,3,0,0,0,654.268250
687,-1262,4,0,0,0,782.341553
1790,771,1,0,0,0,694.918091
-1888,1334,2,0,0,0,646.142273
-896,-1427,3,0,0,0,736.621704
1195,-1922,4,0,0,0,652.194946
227,10,1,0,0,0,1313.873779
-1088,1042,2,0,0,0,768.754089
-1742,-1991,3,0,0,0,607.735168
420,-1754,4,0,0,0,717.121460
474,186,1,0,0,0,1081.116943
-204,752,2,0,0,0,958.473083
-628,-209,3,0,0,0,1005.504395
1570,-892,4,0,0,0,716.784973
182,1807,1,0,0,0,715.133484
-229,737,2,0,0,0,961.230774
-1476,-1627,3,0,0,0,660.703857
1252,-1612,4,1,0,19,281.408783
745,1286,1,0,0,0,772.645447
-1205,905,2,0,0,0,768.656433
-489,-1831,3,0,0,0,702.932983
393,-1584,4,0,0,0,745.780762
246,836,1,0,0,0,926.230042
-1763,650,2,0,0,0,705.386047
-161,-1839,3,0,0,0,710.456665
585,-225,4,0,0,0,1021.207153
472,50,1,0,0,0,1101.378540
-1171,1942,2,0,0,0,651.625366
-1514,-584,3,0,0,0,747.419556
1768,-1765,4,0,0,0,624.032715
103,745,1,0,0,0,968.671448
-1194,1875,2,0,0,0,657.325439
-1026,-512,3,0,0,0,847.210693
857,-638,4,0,0,0,867.551453
1337,1918,1,0,0,0,642.917908
-1997,369,2,0,0,0,683.152466
-1020,-1925,3,0,0,0,663.081604
530,-236,4,0,0,0,1043.485596
1481,752,1,0,0,0,740.735229
-1808,787,2,0,0,0,691.578674
-61,-967,3,0,0,0,895.690430
803,-80,4,0,0,0,948.372864
1642,1518,1,0,0,0,655.624756
-1540,1728,2,0,0,0,645.782959
-1769,-1921,3,0,0,0,611.419250
1076,-1052,4,0,0,0,769.072388
1319,1768,1,0,0,0,659.528992
-1387,1071,2,0,0,0,725.376831
-1683,-926,3,0,0,0,699.068542
88,-12,4,0,0,0,1584.905273
833,1087,1,0,0,0,796.146057
-576,1423,2,1,0,10,233.254272
-751,-1522,3,0,0,0,734.549133
750,-1527,4,0,0,0,733.866516
49,372,1,0,0,0,1169.177490
-1240,539,2,0,0,0,799.819519
-1674,-1696,3,0,0,0,637.483765
1848,-648,4,0,0,0,693.550842
1036,961,1,0,0,0,787.137573
-494,410,2,0,0,0,1014.298950
-265,-551,3,0,0,0,1028.362305
63,-794,4,0,0,0,952.139343
648,685,1,0,0,0,903.519104
-377,860,2,0,0,0,904.722717
-1354,-1420,3,0,0,0,693.003113
1831,-784,4,0,0,0,688.701782
8,1078,1,1,0,10,233.254272
-1106,1667,2,0,0,0,687.448547
-493,-29,3,0,0,0,1089.935791
520,-1813,4,0,0,0,704.307495
1245,867,1,0,0,0,766.731140
-1373,1696,2,0,0,0,662.615417
-1090,-818,3,0,0,0,797.550049
797,-1868,4,0,0,0,683.136353
119,1352,1,0,0,0,798.727661
-189,1669,2,0,0,0,737.526855
-986,-1511,3,0,0,0,717.015747
378,-970,4,0,0,0,875.018005
1389,1409,1,0,0,0,690.611755
-56,1829,2,0,0,0,712.978149
-486,-325,3,1,0,4,252.796906
1546,-1684,4,0,0,0,649.330933
1938,633,1,0,0,0,682.034546
-794,1918,2,0,0,0,676.878784
-847,-236,3,0,0,0,923.656250
1196,-101,4,0,0,0,834.067505
948,727,1,0,0,0,835.409912
-643,319,2,0,0,0,982.126587
-1174,-830,3,0,0,0,782.163452
1936,-578,4,1,0,19,281.408783
1523,1470,1,0,0,0,671.308472
-842,1091,2,0,0,0,794.335144
-1758,-379,3,0,0,0,717.947998
1101,-1727,4,1,0,19,281.408783
1952,311,1,0,0,0,690.888977
-69,1202,2,0,0,0,833.176880
-473,-1935,3,0,0,0,688.675171
1021,-327,4,0,0,0,866.561890
523,546,1,0,0,0,967.148376
-1497,1836,2,1,0,10,233.254272
-1039,-692,3,0,0,0,822.767395
1276,-1698,4,0,0,0,670.324707
190,1894,1,0,0,0,701.677063
-1689,1656,2,0,0,0,639.598694
-1024,-22,3,0,0,0,879.705383
578,-335,4,0,0,0,1002.817139
41,792,1,0,0,0,953.384583
-517,443,2,0,0,0,997.357971
-547,-1300,3,1,0,4,274.688660
1285,-126,4,0,0,0,813.072021
242,632,1,1,0,10,233.254272
-755,1586,2,0,0,0,724.696533
-1807,-206,3,0,0,0,714.729553
1018,-412,4,0,0,0,859.632568
506,1690,1,0,0,0,723.461121
-848,1492,2,0,0,0,731.365295
-1495,-1272,3,0,0,0,692.880920
641,-6,4,0,0,0,1014.725830
696,435,1,0,0,0,943.493896
-429,21,2,0,0,0,1130.192261
-987,-1436,3,0,0,0,726.998352
1668,-766,4,0,0,0,712.099487
1991,1772,1,0,0,0,605.610535
-121,373,2,0,0,0,1156.453369
-1037,-1655,3,0,0,0,694.322083
1900,-815,4,0,0,0,678.042480
867,831,1,0,0,0,833.904541
-843,74,2,1,0,4,195.937775
-1544,-1779,3,0,0,0,640.782837
955,-1737,4,0,0,0,690.079468
1993,601,1,0,0,0,676.081970
-1863,959,2,0,0,0,674.207581
-622,-1567,3,0,0,0,736.458984
239,-981,4,1,0,19,281.408783
276,1917,1,0,0,0,696.718140
-788,938,2,0,0,0,828.182617
-1773,-113,3,0,0,0,721.441833
796,-127,4,0,0,0,948.697021
507,1019,1,0,0,0,849.350342
-1819,480,2,0,0,0,705.042236
-1298,-1849,3,0,0,0,652.711365
620,-84,4,0,0,0,1021.719421
667,398,1,1,0,10,233.254272
-603,1351,2,0,0,0,773.952393
-320,-1222,3,0,0,0,819.366516
1724,-1814,4,0,0,0,623.538086
1254,487,1,0,0,0,801.276184
-1067,1639,2,0,0,0,693.931885
-593,-1275,3,0,0,0,788.550598
479,-1159,4,0,0,0,821.450562
1917,1079,1,0,0,0,660.307556
-1539,97,2,0,0,0,762.054810
-1641,-1477,3,0,0,0,659.270142
256,-214,4,0,0,0,1203.031006
1268,1452,1,0,0,0,698.057251
-810,1045,2,0,0,0,806.250244
-1244,-1129,3,0,0,0,737.481506
1174,-551,4,0,0,0,811.803528
1098,1555,1,0,0,0,701.665466
-1765,1364,2,0,0,0,656.333374
-409,-844,3,0,0,0,905.067993
1359,-675,4,0,0,0,766.681702
892,1114,1,0,0,0,784.299683
-1636,610,2,0,0,0,726.417480
-1036,-1052,3,0,0,0,774.531555
1320,-9,4,0,0,0,806.715149
152,812,1,0,0,0,941.622681
-1654,97,2,0,0,0,741.451233
-454,-954,3,0,0,0,870.772217
1867,-1700,4,0,0,0,620.994568
237,1123,1,0,0,0,846.939758
-1743,1008,2,0,0,0,685.602539
-1321,-1014,3,0,0,0,739.990173
1528,-837,4,0,0,0,727.041443
1469,1078,1,0,0,0,714.195312
-621,523,2,0,0,0,946.622253
-186,-971,3,0,0,0,889.885315
963,-818,4,0,0,0,819.293518
924,1312,1,0,0,0,750.622192
-1040,90,2,0,0,0,874.234680
-682,-814,3,0,0,0,869.298462
64,-1981,4,0,0,0,690.106384
1287,1659,1,0,0,0,673.616333
-154,1509,2,0,0,0,766.788147
-890,-730,3,0,0,0,846.101257
676,-1196,4,0,0,0,795.234802
1482,639,1,0,0,0,748.986694
-1655,6,2,1,0,4,160.381577
-1554,-1384,3,0,0,0,676.176880
51,-1378,4,0,0,0,794.165771
1546,1107,1,0,0,0,701.984375
-1361,692,2,0,0,0,764.904541
-115,-106,3,0,0,0,1421.635376
24,-1371,4,0,0,0,795.782043
1997,602,1,0,0,0,675.517029
-1421,531,2,0,0,0,766.762878
-1390,-1922,3,0,0,0,638.807861
193,-2000,4,0,0,0,686.198730
1297,1998,1,0,0,0,637.595947
-54,1012,2,0,0,0,882.756348
-1944,-115,3,0,0,0,695.151123
550,-1410,4,0,0,0,767.425964
627,1954,1,1,0,10,233.254272
-1850,38,2,0,0,0,709.781616
-60,-586,3,0,0,0,1039.098755
227,-196,4,0,0,0,1233.799683
137,7,1,0,0,0,1459.470581
-488,1873,2,0,0,0,696.900940
-1021,-853,3,0,0,0,804.458862
1621,-1765,4,0,0,0,635.881897
682,897,1,0,0,0,852.230896
-1468,1385,2,1,0,10,233.254272
-911,-162,3,0,0,0,908.959473
1210,-1027,4,0,0,0,753.793396
1985,529,1,0,0,0,679.865601
-1372,763,2,0,0,0,756.919373
-530,-672,3,0,0,0,931.430237
862,-1777,4,0,0,0,691.117981
801,1302,1,0,0,0,764.559021
-1443,1627,2,1,0,10,233.254272
-357,-939,3,0,0,0,885.285767
167,-1280,4,0,0,0,813.141968
1122,803,1,0,0,0,793.998962
-1595,958,2,0,0,0,708.207275
-975,-1554,3,0,0,0,712.245667
971,-274,4,0,0,0,884.043518
1846,576,1,0,0,0,697.160400
-1433,1766,2,0,0,0,650.805176
-1888,-1106,3,0,0,0,661.830688
146,-7,4,0,0,0,1441.157593
1780,708,1,0,0,0,699.858398
-362,1387,2,0,0,0,783.025146
-488,-198,3,0,0,0,1071.399414
1534,-576,4,0,0,0,744.631409
773,1951,1,0,0,0,673.769470
-201,1987,2,0,0,0,687.933838
-1922,-358,3,1,0,4,157.982864
1806,-1495,4,1,0,19,281.408783
1618,560,1,0,0,0,732.030945
-116,69,2,0,0,0,1464.153076
-940,-1591,3,1,0,4,219.880630
384,-603,4,0,0,0,983.290894
275,546,1,0,0,0,1028.395264
-1595,699,2,0,0,0,727.170349
-976,-785,3,0,0,0,821.809509
1318,-1807,4,0,0,0,655.571106
561,1573,1,0,0,0,739.174683
-61,1664,2,0,0,0,740.022217
-1670,-198,3,0,0,0,737.180481
1416,-819,4,0,0,0,745.119263
1708,1913,1,0,0,0,616.574646
-948,227,2,0,0,0,893.949219
-400,-948,3,0,0,0,878.388184
891,-818,4,0,0,0,831.849426
1389,1693,1,0,0,0,661.598389
-1579,367,2,0,0,0,747.709656
-1994,-47,3,0,0,0,688.304688
705,-218,4,0,0,0,974.145630
573,210,1,0,0,0,1028.901978
-354,1277,2,0,0,0,805.600586
-523,-1041,3,0,0,0,842.645874
1074,-1915,4,1,0,19,281.408783
1345,1545,1,0,0,0,680.681641
-692,695,2,0,0,0,892.193909
-1780,-1906,3,0,0,0,611.802979
475,-46,4,0,0,0,1099.814331
1231,967,1,0,0,0,757.742981
-1642,1306,2,0,0,0,673.838501
-256,-1911,3,0,0,0,698.006226
1338,-1712,4,1,0,19,281.408783
920,1737,1,0,0,0,692.489319
-432,531,2,0,0,0,995.797302
-1440,-1174,3,0,0,0,708.618103
1324,-1551,4,0,0,0,681.964233
739,859,1,0,0,0,850.622925
-1150,661,2,0,0,0,805.324402
-900,-1945,3,0,0,0,667.762085
1327,-1539,4,0,0,0,682.969299
409,1755,1,0,0,0,717.368835
-1530,949,2,0,0,0,717.625122
-1828,-1552,3,0,0,0,635.698120
1434,-148,4,0,0,0,781.395386
1742,1479,1,0,0,0,649.439209
-247,213,2,0,0,0,1209.596069
-45,-237,3,0,0,0,1296.606934
789,-43,4,0,0,0,954.436523
158,1895,1,1,0,10,233.254272
-1022,737,2,0,0,0,820.091919
-1181,-132,3,0,0,0,836.934509
499,-1654,4,0,0,0,729.452820
664,227,1,0,0,0,988.645447
-1255,254,2,0,0,0,815.468445
-188,-1211,3,0,0,0,828.079529
209,-1914,4,0,0,0,698.406250
1244,578,1,0,0,0,795.674744
-1384,1642,2,0,0,0,667.184875
-168,-1722,3,0,0,0,729.031250
643,-62,4,0,0,0,1012.506409
145,549,1,0,0,0,1049.686279
-860,1272,2,0,0,0,763.288086
-761,-1307,3,0,0,0,767.628479
1166,-150,4,0,0,0,840.036499
1994,1640,1,0,0,0,614.666992
-15,1459,2,0,0,0,777.937317
-1358,-158,3,0,0,0,796.631958
1022,-586,4,0,0,0,839.431519
1525,876,1,0,0,0,724.345032
-162,641,2,0,0,0,1005.814026
-852,-782,3,0,0,0,844.758057
1600,-1685,4,0,0,0,644.678589
534,1791,1,0,0,0,706.928772
-265,1368,2,0,0,0,791.162476
-1347,-230,3,0,0,0,796.771790
894,-1944,4,0,0,0,668.218628
1206,244,1,0,0,0,826.924805
-1831,1387,2,0,0,0,647.962524
-834,-1160,3,0,0,0,783.982971
1330,-243,4,0,0,0,799.833130
1536,1243,1,0,0,0,690.987000
-1280,545,2,0,0,0,791.623840
-1,-763,3,0,0,0,964.519348
1162,-622,4,0,0,0,807.157227
979,408,1,0,0,0,869.658264
-92,999,2,0,0,0,885.672180
-1579,-135,3,0,0,0,754.213623
1116,-570,4,1,0,19,281.408783
1593,601,1,1,0,10,233.254272
-270,565,2,0,0,0,1021.473267
-406,-1304,3,0,0,0,796.930054
1763,-885,4,0,0,0,691.462585
1241,1624,1,0,0,0,681.316650
-1642,547,2,0,0,0,728.942078
-397,-930,3,0,0,0,883.395630
1491,-1926,4,0,0,0,631.251709
897,1208,1,0,0,0,769.110962
-1015,1098,2,0,0,0,770.900513
-1431,-482,3,0,0,0,768.086487
980,-1990,4,0,0,0,657.926819
1307,663,1,0,0,0,776.667297
-1216,719,2,0,0,0,787.223877
-54,-1021,3,0,0,0,880.214417
1355,-1650,4,0,0,0,668.839294
1257,1516,1,0,0,0,691.944641
-177,1114,2,0,0,0,851.937439
-1556,-701,3,0,0,0,732.962585
1331,-680,4,0,0,0,771.020569
1043,650,1,0,0,0,827.269409
-1165,869,2,0,0,0,779.056213
-592,-1712,3,0,0,0,715.872131
633,-74,4,0,0,0,1016.402466
1799,154,1,0,0,0,716.804565
-1438,1627,2,0,0,0,664.018921
-1774,-15,3,0,0,0,721.850891
1976,-1454,4,0,0,0,629.198303
1025,1450,1,0,0,0,721.585815
-580,101,2,0,0,0,1039.263062
-1661,-1288,3,0,0,0,673.318054
388,-1140,4,1,0,19,281.408783
1558,253,1,0,0,0,755.366150
-869,1509,2,0,0,0,727.188477
-429,-865,3,1,0,4,328.892853
419,-1664,4,0,0,0,731.399780
274,406,1,0,0,0,1092.307007
-326,1165,2,0,0,0,831.800903
-510,-624,3,0,0,0,948.756775
810,-678,4,1,0,19,281.408783
854,1641,1,1,0,10,233.254272
-984,1009,2,0,0,0,787.893677
-401,-201,3,0,0,0,1117.681152
480,-176,4,1,0,19,281.408783
1713,1073,1,0,0,0,684.492737
-1364,864,2,0,0,0,748.857361
-1200,-1237,3,0,0,0,730.153381
854,-141,4,0,0,0,928.180664
1603,1689,1,0,0,0,644.069763
-224,213,2,0,0,0,1225.087524
-865,-1707,3,0,0,0,700.154602
1748,-1582,4,0,0,0,640.539856
775,493,1,0,0,0,911.075867
-1112,85,2,0,0,0,855.203369
-1280,-1217,3,0,0,0,723.122742
1058,-685,4,0,0,0,820.007324
825,76,1,0,0,0,940.790588
-563,1529,2,0,0,0,746.249756
-1310,-539,3,0,0,0,786.434021
1079,-1345,4,0,0,0,730.004028
1994,191,1,0,0,0,687.077698
-1555,1901,2,0,0,0,628.888062
-1485,-588,3,0,0,0,751.974182
1507,-179,4,0,0,0,766.645142
1278,701,1,0,0,0,778.222351
-992,136,2,0,0,0,886.231812
-539,-158,3,0,0,0,1052.823730
1647,-1366,4,0,0,0,668.212585
1408,955,1,1,0,10,233.254272
-398,1196,2,0,0,0,819.986328
-822,-635,3,0,0,0,875.667114
1789,-1992,4,0,0,0,604.325989
84,1561,1,0,0,0,758.134277
-270,555,2,0,0,0,1025.650635
-267,-1938,3,0,0,0,693.845215
8,-1424,4,1,0,4,193.049194
1513,676,1,0,0,0,741.398071
-692,1939,2,0,0,0,679.239685
-537,-1208,3,0,0,0,806.290649
373,-310,4,0,0,0,1095.149536
558,513,1,0,0,0,966.422119
-819,443,2,0,0,0,907.146851
-1769,-345,3,0,0,0,717.321289
502,-1431,4,0,0,0,766.852661
1976,1266,1,0,0,0,641.851807
-70,337,2,0,0,0,1194.068848
-1359,-1340,3,0,0,0,700.922607
237,-328,4,0,0,0,1147.381714
1777,1418,1,0,0,0,650.909973
-1062,1468,2,0,0,0,715.808472
-993,-477,3,0,0,0,858.739197
236,-10,4,0,0,0,1302.677124
1414,314,1,0,0,0,780.038147
-1934,198,2,0,0,0,695.635071
-365,-359,3,0,0,0,1079.549316
572,-1208,4,0,0,0,803.133606
985,1386,1,0,0,0,734.015625
-657,986,2,0,0,0,837.786316
-1265,-166,3,1,0,4,205.934937
318,-1100,4,0,0,0,847.615601
1529,1623,1,0,0,0,656.441223
-59,1339,2,0,0,0,802.335022
-1474,-655,3,0,0,0,749.148743
1462,-1061,4,0,0,0,716.670959
1472,1370,1,0,0,0,685.970825
-1712,1738,2,0,0,0,630.795288
-1925,-1133,3,0,0,0,655.944214
462,-366,4,0,0,0,1038.931030
237,13,1,0,0,0,1301.282593
-912,1672,2,0,0,0,701.519348
-333,-875,3,0,0,0,905.576965
475,-1839,4,0,0,0,702.302246
1596,769,1,0,0,0,722.248657
-591,847,2,0,0,0,877.306396
-1867,-184,3,0,0,0,705.838074
1130,-1739,4,0,0,0,677.149231
440,535,1,0,0,0,992.381104
-900,267,2,0,0,0,904.794495
-1779,-1196,3,0,0,0,667.692871
72,-435,4,0,0,0,1122.633911
968,1079,1,0,0,0,779.814148
-803,683,2,0,0,0,871.409912
-323,-308,3,1,0,4,232.716705
1794,-925,4,0,0,0,684.900513
951,718,1,1,0,10,233.254272
-1074,462,2,1,0,4,150.739059
-1627,-209,3,0,0,0,744.317688
1092,-1895,4,0,0,0,661.958679
1385,859,1,0,0,0,746.179932
-391,822,2,0,0,0,913.678406
-1667,-800,3,0,0,0,709.993225
497,-535,4,0,0,0,977.171570
1730,1299,1,0,0,0,665.073242
-289,198,2,0,0,0,1188.978271
-774,-1755,3,0,0,0,699.490784
1835,-588,4,0,0,0,698.178955
485,1780,1,0,0,0,710.634094
-1176,61,2,1,0,4,186.192657
-235,-732,3,0,0,0,962.338440
606,-537,4,0,0,0,947.403503
1330,714,1,1,0,10,233.254272
-870,613,2,1,0,10,233.254272
-1655,-1546,3,0,0,0,651.999390
92,-1795,4,0,0,0,718.112610
718,445,1,0,0,0,935.202942
-1573,591,2,0,0,0,737.408691
-666,-559,3,1,0,4,336.383942
381,-1513,4,0,0,0,758.690247
1495,1328,1,0,0,0,687.574219
-1336,1551,2,0,0,0,680.871033
-1524,-1228,3,1,0,4,205.192429
480,-81,4,0,0,0,1094.091675
963,1041,1,0,0,0,786.117310
-890,1882,2,0,0,0,676.056396
-782,-980,3,0,0,0,821.523621
423,-505,4,0,0,0,1006.863342
942,266,1,0,0,0,892.759216
-1542,224,2,0,0,0,759.067383
-1627,-1554,3,0,0,0,653.878662
263,-896,4,0,0,0,906.322937
1719,493,1,0,0,0,719.560425
-817,86,2,0,0,0,943.227905
-1963,-194,3,0,0,0,691.476868
658,-52,4,0,0,0,1006.295166
1249,1358,1,0,0,0,710.611450
-1852,755,2,1,0,4,109.385551
-1701,-474,3,0,0,0,723.187683
1012,-1397,4,0,0,0,729.884155
784,1177,1,0,0,0,786.909973
-506,1204,2,1,0,10,233.254272
-877,-1540,3,0,0,0,722.150452
1473,-1026,4,0,0,0,718.471802
22,1538,1,0,0,0,762.781006
-1137,1689,2,0,0,0,682.414917
-547,-730,3,0,0,0,913.063599
537,-1513,4,0,0,0,750.487610
391,23,1,0,0,0,1156.791382
-542,210,2,0,0,0,1042.943604
-1815,-340,3,0,0,0,710.373413
1663,-1611,4,0,0,0,645.694763
842,1744,1,0,0,0,696.739502
-108,4,2,0,0,0,1528.275635
-1836,-1975,3,0,0,0,602.300476
318,-1436,4,0,0,0,775.641052
1471,1800,1,0,0,0,644.556824
-1385,1552,2,0,0,0,676.290649
-1055,-398,3,0,0,0,852.038818
475,-1976,4,0,0,0,682.943420
556,790,1,0,0,0,896.547852
-181,1019,2,0,0,0,876.709656
-1613,-144,3,0,0,0,748.006287
371,-489,4,0,0,0,1027.234619
361,925,1,0,0,0,888.637451
-825,970,2,0,0,0,817.056763
-1207,-1402,3,0,0,0,709.844055
750,-389,4,0,0,0,935.148010
1603,450,1,0,0,0,740.048401
-555,853,2,1,0,10,233.254272
-816,-1386,3,0,0,0,749.970154
587,-572,4,1,0,19,281.408783
355,654,1,1,0,10,233.254272
-554,771,2,0,0,0,901.552368
-1744,-1152,3,0,0,0,674.919373
687,-1192,4,0,0,0,794.821045
1613,1,1,0,0,0,749.144958
-1039,1931,2,0,0,0,661.220642
-785,-261,3,0,0,0,941.222534
45,-1978,4,0,0,0,690.615295
582,754,1,0,0,0,900.615662
-68,1628,2,0,0,0,746.239197
-1138,-1089,3,1,0,4,284.768616
66,-109,4,0,0,0,1480.752441
756,1057,1,0,0,0,811.214111
-1049,255,2,0,0,0,864.565430
-233,-110,3,0,0,0,1277.602295
1310,-434,4,0,0,0,793.941406
1527,142,1,0,0,0,763.635071
-1227,480,2,0,0,0,807.256470
-559,-1761,3,0,0,0,710.214905
321,-761,4,0,0,0,941.682922
157,1315,1,1,0,10,233.254272
-161,1127,2,0,0,0,849.279358
-849,-735,3,0,0,0,853.220947
444,-25,4,0,0,0,1120.168701
989,844,1,0,0,0,811.071960
-956,1557,2,0,0,0,713.414734
-1455,-1006,3,0,0,0,722.683655
1199,-225,4,0,0,0,829.391479
1187,1868,1,0,0,0,658.569397
-652,966,2,0,0,0,842.534668
-1333,-662,3,0,0,0,772.235840
477,-199,4,0,0,0,1076.811890
1253,1634,1,0,0,0,679.192993
-610,1540,2,0,0,0,741.525818
-1868,-479,3,0,0,0,697.951904
1298,-862,4,0,0,0,759.072937
767,618,1,0,0,0,890.953369
-509,1288,2,0,0,0,792.921387
-146,-783,3,0,0,0,952.139343
1851,-565,4,1,0,19,281.408783
402,1376,1,0,0,0,783.013245
-154,25,2,0,0,0,1422.344727
-1175,-905,3,0,0,0,773.243042
305,-872,4,1,0,19,281.408783
1293,836,1,0,0,0,762.489014
-600,78,2,1,0,4,194.444473
-164,-1727,3,0,0,0,728.271240
504,-92,4,0,0,0,1079.343872
1662,1978,1,0,0,0,614.473083
-1757,168,2,0,0,0,723.316589
-727,-1026,3,0,0,0,820.677185
864,-210,4,0,0,0,920.433838
839,490,1,1,0,10,233.254272
-1586,330,2,0,0,0,747.908264
-1809,-1431,3,0,0,0,646.780273
968,-1041,4,1,0,19,281.408783
1430,121,1,0,0,0,782.694824
-1084,11,2,0,0,0,863.366333
-272,-1274,3,0,0,0,810.511597
1132,-496,4,1,0,19,281.408783
1578,621,1,0,0,0,734.786133
-112,1076,2,0,0,0,863.962219
-1547,-340,3,0,0,0,754.365356
1378,-645,4,0,0,0,765.910522
1998,58,1,0,0,0,687.690308
-641,1191,2,1,0,10,233.254272
-1077,-472,3,0,0,0,839.968018
834,-1226,4,1,0,19,281.408783
1234,1731,1,0,0,0,670.079956
-446,840,2,0,0,0,901.048706
-1948,-1801,3,1,0,4,136.327927
1749,-304,4,0,0,0,721.663574
1426,430,1,0,0,0,772.025696
-1008,1155,2,0,0,0,763.745300
-124,-1835,3,1,0,4,168.176163
550,-974,4,1,0,19,281.408783
309,999,1,0,0,0,873.735840
-1005,1399,2,0,0,0,730.295410
-1310,-324,3,1,0,4,219.342590
1755,-107,4,0,0,0,724.415771
44,1912,1,0,0,0,700.326599
-170,363,2,0,0,0,1150.123779
-298,-1674,3,0,0,0,734.022705
1443,-164,4,0,0,0,779.276733
1062,693,1,1,0,10,233.254272
-1021,1709,2,0,0,0,688.849548
-207,-908,3,0,0,0,907.096558
746,-156,4,0,0,0,964.846130
885,162,1,0,0,0,917.036194
-456,964,2,0,0,0,868.089722
-987,-1411,3,0,0,0,730.398682
990,-197,4,0,0,0,883.903198
527,1588,1,0,0,0,738.639832
-238,1082,2,0,0,0,857.113342
-1589,-1320,3,0,0,0,678.273560
1562,-203,4,0,0,0,755.961853
1090,480,1,1,0,10,233.254272
-299,999,2,0,0,0,874.538391
-1447,-1635,3,0,0,0,662.450867
1256,-155,4,0,0,0,818.837891
1654,1001,1,0,0,0,697.228271
-689,165,2,0,0,0,985.885376
-657,-641,3,0,0,0,911.271179
683,-1758,4,0,0,0,704.320068
1505,747,1,0,0,0,737.437927
-8,166,2,0,0,0,1404.113281
-866,-1967,3,0,0,0,666.955261
482,-518,4,0,0,0,986.258545
162,689,1,0,0,0,986.167419
-1190,1257,2,0,0,0,728.904846
-198,-1178,3,0,0,0,835.444763
1449,-174,4,0,0,0,777.871948
1818,1094,1,0,0,0,670.623413
-1188,1303,2,0,0,0,723.598572
-566,-163,3,0,0,0,1039.128296
1369,-1336,4,0,0,0,700.272522
1862,1624,1,0,0,0,627.184326
-1539,1693,2,0,0,0,649.090820
-23,-1305,3,0,0,0,809.962646
1494,-579,4,0,0,0,751.059753
222,44,1,0,0,0,1315.021240
-1567,590,2,1,0,4,127.299950
-1013,-176,3,0,0,0,878.600342
1920,-1050,4,0,0,0,661.797119
332,1863,1,0,0,0,703.359802
-1096,378,2,0,0,0,844.042358
-840,-829,3,0,0,0,838.918335
120,-1664,4,0,0,0,739.470947
1724,1675,1,0,0,0,635.017639
-631,210,2,0,0,0,1004.130493
-159,-1995,3,0,0,0,687.335022
1545,-489,4,0,0,0,747.807190
460,1953,1,0,0,0,686.604553
-880,1934,2,0,0,0,670.217773
-124,-733,3,0,0,0,972.013916
1657,-434,4,0,0,0,731.909546
673,626,1,0,0,0,910.882874
-1031,604,2,0,0,0,835.355042
-979,-1419,3,0,0,0,730.065002
1330,-1450,4,0,0,0,692.199524
1346,187,1,0,0,0,798.367676
-652,26,2,0,0,0,1009.604309
-793,-220,3,0,0,0,942.724304
1874,-1373,4,0,0,0,644.737183
747,479,1,0,0,0,921.008179
-825,1979,2,0,0,0,667.636597
-1521,-1537,3,0,0,0,665.210266
1387,-644,4,0,0,0,764.454651
1321,360,1,0,0,0,796.208618
-897,1224,2,0,0,0,766.664307
-319,-69,3,0,0,0,1209.401001
323,-1098,4,0,0,0,847.746521
598,1943,1,0,0,0,682.851501
-1105,893,2,0,0,0,785.588135
-1956,-974,3,1,0,4,163.617722
1027,-1183,4,0,0,0,757.522644
1461,1494,1,0,0,0,674.987427
-1903,351,2,0,0,0,696.964539
-1754,-1169,3,0,0,0,672.504639
920,-1656,4,0,0,0,703.050720
1464,1217,1,0,0,0,701.635559
-1485,516,2,0,0,0,756.516724
-1089,-198,3,0,0,0,857.376709
175,-484,4,0,0,0,1078.030762
564,714,1,0,0,0,913.795227
-1450,1478,2,0,0,0,677.616333
-1847,-1132,3,0,0,0,664.691345
1882,-570,4,1,0,19,281.408783
417,534,1,0,0,0,998.761963
-128,1515,2,0,0,0,766.115295
-1348,-484,3,0,0,0,783.266602
1253,-454,4,1,0,19,281.408783
965,1673,1,0,0,0,697.518188
-1249,1116,2,1,0,10,233.254272
-908,-1147,3,0,0,0,777.185974
1622,-1016,4,0,0,0,700.112854
568,1766,1,0,0,0,709.054077
-869,1408,2,0,0,0,741.843811
-549,-911,3,1,0,4,382.754211
1197,-496,4,0,0,0,812.064392
930,1042,1,0,0,0,790.497192
-500,44,2,0,0,0,1085.255493
-1421,-360,3,0,0,0,776.598938
11,-1733,4,0,0,0,728.557800
1334,1754,1,0,0,0,659.808411
-1385,82,2,0,0,0,792.403748
-1221,-561,3,0,0,0,801.603882
1243,-1154,4,0,0,0,734.734253
1939,1325,1,1,0,10,233.254272
-1309,748,2,0,0,0,768.534119
-274,-99,3,0,0,0,1242.165039
659,-752,4,0,0,0,886.630920
1298,1403,1,0,0,0,700.501404
-767,1340,2,0,0,0,761.695435
-1368,-1915,3,0,0,0,641.043335
331,-870,4,0,0,0,907.237915
1179,45,1,0,0,0,838.998413
-1805,1847,2,0,0,0,614.586060
-71,-1813,3,0,0,0,715.410095
1288,-226,4,0,0,0,809.417969
580,916,1,0,0,0,863.332214
-36,1761,2,0,0,0,723.909241
-1668,-457,3,1,0,4,187.056244
505,-721,4,0,0,0,923.328308
108,488,1,0,0,0,1086.478638
-1165,1310,2,0,0,0,725.259521
-105,-114,3,0,0,0,1424.253784
890,-205,4,0,0,0,912.714966
501,1493,1,0,0,0,756.019836
-1904,906,2,0,0,0,672.408997
-94,-809,3,0,0,0,945.718689
62,-826,4,0,0,0,940.849548
856,917,1,0,0,0,821.367981
-84,586,2,0,0,0,1037.670044
-1852,-889,3,0,0,0,679.860291
261,-290,4,0,0,0,1157.913574
1518,911,1,0,0,0,722.446533
-167,964,2,0,0,0,892.899841
-62,-650,3,0,0,0,1009.413391
1985,-1261,4,1,0,19,281.408783
470,265,1,0,0,0,1064.409424
-1877,337,2,0,0,0,701.149902
-720,-1283,3,0,0,0,775.557068
279,-864,4,0,0,0,914.415100
1767,698,1,0,0,0,702.225037
-417,1985,2,0,0,0,683.501404
-1501,-959,3,0,0,0,720.699951
1707,-107,4,0,0,0,732.335693
76,541,1,0,0,0,1060.823242
-921,606,2,0,0,0,858.514221
-421,-1159,3,0,0,0,826.304138
1224,-346,4,1,0,19,281.408783
332,190,1,0,0,0,1163.611938
-277,1344,2,0,0,0,795.564453
-1150,-1805,3,0,0,0,668.151611
628,-675,4,0,0,0,909.998413
1942,1736,1,0,0,0,612.141663
-240,359,2,0,0,0,1128.638062
-696,-1839,3,0,0,0,692.386780
252,-731,4,0,0,0,960.686340
304,1463,1,0,0,0,771.096191
-645,64,2,0,0,0,1011.532776
-921,-1626,3,0,0,0,706.958191
1513,-859,4,0,0,0,727.434204
965,1472,1,0,0,0,724.113159
-1890,1175,2,0,0,0,656.994934
-1658,-130,3,0,0,0,740.371887
789,-999,4,0,0,0,817.145935
149,1784,1,0,0,0,719.254089
-187,1907,2,0,0,0,699.782166
-1211,-947,3,0,0,0,762.938843
227,-470,4,0,0,0,1073.979492
1131,1958,1,0,0,0,652.451111
-374,205,2,0,0,0,1132.224121
-1244,-1325,3,0,0,0,714.925598
417,-534,4,0,0,0,998.761963
827,79,1,0,0,0,940.001709
-606,100,2,0,0,0,1027.053345
-203,-1647,3,0,0,0,740.997986
252,-1505,4,0,0,0,765.068176
1341,707,1,0,0,0,766.954834
-1072,1741,2,0,0,0,681.220459
-135,-793,3,1,0,4,246.559982
1772,-1476,4,0,0,0,646.825378
171,596,1,0,0,0,1024.320068
-1367,1324,2,0,0,0,701.742920
-767,-1741,3,0,0,0,701.833740
590,-695,4,0,0,0,913.233887
272,295,1,0,0,0,1149.818970
-310,1839,2,0,0,0,707.537537
-1949,-1677,3,0,0,0,615.838928
1293,-1775,4,0,0,0,660.799683
1386,280,1,0,0,0,786.952087
-1917,1570,2,0,0,0,626.361328
-486,-385,3,0,0,0,1024.333496
775,-1741,4,0,0,0,701.346619
1356,890,1,0,0,0,747.551147
-1157,1345,2,0,0,0,721.833740
-1909,-612,3,0,0,0,686.853027
1933,-1165,4,0,0,0,652.988647
1292,1625,1,0,0,0,676.854675
-1372,1413,2,0,0,0,691.920776
-515,-1022,3,0,0,0,847.770996
568,-1822,4,0,0,0,700.929382
976,1788,1,0,0,0,682.275940
-868,804,2,0,0,0,838.197449
-1978,-102,3,0,0,0,690.309204
1289,-488,4,0,0,0,794.303345
1684,402,1,0,0,0,728.842102
-543,1759,2,0,0,0,711.253784
-391,-960,3,0,0,0,876.259033
61,-1410,4,0,0,0,787.497437
642,566,1,0,0,0,931.423157
-604,1036,2,0,0,0,834.317627
-562,-1042,3,0,0,0,838.015747
637,-1497,4,0,0,0,746.684448
795,754,1,0,0,0,860.293579
-149,42,2,0,0,0,1424.590576
-1626,-1183,3,0,0,0,685.982178
135,-724,4,0,0,0,974.715210
356,1128,1,1,0,10,233.254272
-565,774,2,0,0,0,898.870850
-702,-723,3,0,0,0,884.381165
1298,-230,4,1,0,19,281.408783
374,1983,1,0,0,0,684.967102
-335,1739,2,0,0,0,722.350586
-1774,-1858,3,0,0,0,616.090820
150,-33,4,0,0,0,1426.871948
1570,81,1,1,0,19,281.408783
-1845,1615,2,0,0,0,629.350952
-997,-1120,3,1,0,4,312.461670
1367,-1094,4,1,0,19,281.408783
1302,1447,1,0,0,0,695.277588
-1046,876,2,0,0,0,797.220093
-495,-1461,3,0,0,0,761.957214
1970,-778,4,0,0,0,671.124939
1999,547,1,1,0,10,233.254272
-242,1985,2,0,0,0,687.567932
-1773,-1150,3,1,0,4,179.100845
345,-799,4,0,0,0,926.607300
23,1718,1,0,0,0,731.030334
-804,1618,2,0,0,0,716.619385
-910,-1686,3,0,0,0,699.818115
196,-1546,4,0,0,0,759.032593
1329,570,1,0,0,0,780.507996
-331,1256,2,0,0,0,811.358093
-1662,-886,3,0,0,0,704.715759
1362,-1043,4,0,0,0,731.475830
1411,595,1,0,0,0,764.059753
-133,129,2,1,0,0,497.788818
-795,-1215,3,0,0,0,779.337524
1260,-1173,4,0,0,0,730.474243
1106,775,1,0,0,0,800.154785
-780,1763,2,0,0,0,698.040405
-1946,-1731,3,0,0,0,612.179138
785,-1362,4,0,0,0,756.528870
1476,359,1,0,0,0,766.373230
-1627,1664,2,0,0,0,644.235657
-1609,-1187,3,0,0,0,687.601624
1823,-933,4,1,0,19,281.408783
1736,1590,1,0,0,0,640.962158
-1913,1636,2,0,0,0,621.881653
-654,-1960,3,1,0,4,173.765778
1445,-927,4,0,0,0,731.258728
8,268,1,1,0,0,346.853851
-117,1966,2,0,0,0,691.924561
-554,-383,3,1,0,4,271.468933
945,-1655,4,0,0,0,701.333008
685,1137,1,0,0,0,805.114563
-1162,63,2,0,0,0,842.964050
-642,-1882,3,0,0,0,689.175964
373,-1263,4,0,0,0,807.391541
679,1247,1,1,0,10,233.254272
-1942,1270,2,0,0,0,645.074463
-1549,-543,3,0,0,0,744.134521
370,-1011,4,0,0,0,865.358521
332,1929,1,0,0,0,693.690613
-329,1573,2,0,0,0,750.207825
-1831,-392,3,0,0,0,706.380920
757,-1897,4,0,0,0,681.515076
1514,195,1,0,0,0,764.964050
-1251,83,2,0,0,0,821.526611
-455,-292,3,0,0,0,1063.834229
1294,-212,4,0,0,0,808.633362
337,364,1,0,0,0,1088.655640
-303,1537,2,0,0,0,757.524902
-1570,-732,3,0,0,0,728.686218
406,-1822,4,0,0,0,707.270142
1637,1940,1,0,0,0,619.491577
-1542,537,2,0,0,0,745.639404
-1938,-969,3,0,0,0,664.631592
1289,-302,4,0,0,0,805.872559
523,840,1,0,0,0,889.636475
-333,1492,2,0,0,0,764.549988
-1430,-1909,3,1,0,4,159.162628
1367,-1617,4,0,0,0,671.214294
1489,1736,1,0,0,0,649.198608
-35,1830,2,0,0,0,712.903381
-1213,-1222,3,0,0,0,730.419861
244,-203,4,0,0,0,1217.443481
35,1255,1,0,0,0,821.128296
-1109,1797,2,0,0,0,671.990479
-1739,-499,3,0,0,0,716.234314
1920,-1550,4,0,0,0,627.546570
466,1857,1,0,0,0,700.016541
-1771,1733,2,0,0,0,626.362854
-521,-914,3,1,0,4,367.039429
1532,-995,4,0,0,0,713.463562
447,1665,1,0,0,0,730.063232
-295,1391,2,0,0,0,785.344116
-1170,-1330,3,0,0,0,722.284119
993,-705,4,0,0,0,829.890198
1070,1497,1,0,0,0,711.381592
-721,348,2,0,0,0,950.661560
-976,-611,3,0,0,0,846.003967
628,-1302,4,0,0,0,780.614685
271,1383,1,0,0,0,787.908569
-648,1094,2,0,0,0,817.481812
-1548,-938,3,1,0,4,213.889908
1952,-509,4,0,0,0,685.064819
1277,1524,1,1,0,10,233.254272
-527,1081,2,0,0,0,833.502319
-237,-391,3,0,0,0,1112.163086
1584,-1737,4,0,0,0,641.363403
583,1796,1,0,0,0,703.980286
-735,1693,2,1,0,10,233.254272
-1510,-1385,3,0,0,0,680.604065
1962,-856,4,0,0,0,668.099915
1332,564,1,0,0,0,780.427002
-51,18,2,0,0,0,1728.026123
-231,-747,3,0,0,0,957.467957
1363,-1397,4,0,0,0,694.510315
1102,84,1,1,0,10,233.254272
-616,357,2,0,0,0,984.468628
-1408,-1323,3,1,0,4,212.734314
520,-404,4,0,0,0,1006.975769
390,1781,1,0,0,0,714.022217
-1642,1834,2,0,0,0,628.231079
-155,-1831,3,0,0,0,711.776367
119,-1972,4,0,0,0,691.038574
247,102,1,0,0,0,1267.079590
-1036,73,2,1,0,4,191.071884
-990,-621,3,0,0,0,841.744690
653,-1950,4,1,0,19,281.408783
159,1550,1,0,0,0,759.076965
-124,248,2,0,0,0,1256.438965
-1833,-23,3,0,0,0,712.463806
1792,-848,4,0,0,0,690.036743
1012,1579,1,0,0,0,705.925842
-1131,1402,2,0,0,0,717.480896
-257,-683,3,0,0,0,977.359619
1373,-379,4,0,0,0,784.857117
421,189,1,0,0,0,1109.489502
-582,30,2,0,0,0,1042.194458
-320,-1848,3,0,0,0,705.921082
169,-388,4,0,0,0,1134.458130
495,1030,1,0,0,0,848.187256
-1927,1552,2,0,0,0,626.774048
-771,-674,3,0,0,0,879.752380
1591,-1830,4,0,0,0,632.515076
1832,1171,1,0,0,0,663.641052
-1856,1962,2,0,0,0,601.858826
-1052,-1567,3,1,0,4,217.783951
975,-994,4,0,0,0,791.383789
150,1223,1,0,0,0,826.521118
-44,916,2,0,0,0,911.534302
-674,-57,3,0,0,0,999.239990
268,-478,4,0,0,0,1059.932007
1308,671,1,0,0,0,775.781555
-1758,1061,2,0,0,0,679.993713
-1161,-206,3,0,0,0,839.175049
1559,-625,4,0,0,0,737.535889
350,1092,1,0,0,0,847.195068
-1626,508,2,0,0,0,733.485168
-569,-433,3,0,0,0,983.238770
1950,-444,4,0,0,0,687.537537
1816,1538,1,0,0,0,637.870361
-1653,1033,2,0,0,0,694.882141
-1952,-355,3,0,0,0,689.819885
925,-100,4,0,0,0,907.377075
1204,1041,1,0,0,0,752.971619
-715,1764,2,0,0,0,701.693420
-1705,-44,3,0,0,0,733.138611
1481,-1087,4,0,0,0,711.846558
876,296,1,0,0,0,909.156738
-1394,1022,2,0,0,0,729.308777
-1667,-556,3,0,0,0,724.575684
1156,-1233,4,0,0,0,735.741821
1219,1779,1,0,0,0,665.976562
-140,319,2,0,0,0,1190.590210
-1962,-943,3,0,0,0,663.302368
1700,-57,4,0,0,0,733.915161
406,349,1,0,0,0,1066.649536
-436,1968,2,0,0,0,685.285217
1657,-1018,4,0,0,0,695.543579
109,54,1,0,0,0,1494.150024
-1132,380,2,1,0,4,156.418564
98,-1376,4,0,0,0,794.052979
1090,1000,1,0,0,0,773.999084
-623,1737,2,1,0,10,233.254272
1482,-815,4,0,0,0,735.544861
1296,365,1,0,0,0,801.025757
-926,117,2,0,0,0,906.458313
1004,-17,4,1,0,19,281.408783
1749,448,1,0,0,0,716.822693
-326,777,2,0,0,0,935.920105
1455,-972,4,0,0,0,725.797546
590,1518,1,0,0,0,746.378784
-1738,1810,2,0,0,0,622.767822
1513,-1428,4,0,0,0,676.243713
873,1328,1,0,0,0,753.401917
-1701,212,2,1,0,4,144.482803
1379,-1829,4,0,0,0,648.760986
1619,1153,1,0,0,0,689.303406
-1482,1409,2,0,0,0,681.174744
1392,-1344,4,0,0,0,696.987915
140,5,1,0,0,0,1453.412842
-54,1218,2,0,0,0,829.564270
1834,-1984,4,1,0,19,281.408783
1077,398,1,0,0,0,846.826782
-1918,438,2,0,0,0,692.230164
927,-1279,4,0,0,0,755.147583
606,1167,1,0,0,0,807.821106
-994,1362,2,1,0,10,233.254272
1481,-1687,4,0,0,0,654.520508
215,1332,1,0,0,0,800.423889
-1012,154,2,0,0,0,879.870239
1696,-1453,4,0,0,0,655.992371
1077,44,1,0,0,0,865.005859
-1439,67,2,0,0,0,781.606323
900,-129,4,0,0,0,914.013123
1872,1186,1,0,0,0,658.203186
-1411,863,2,0,0,0,741.945129
1582,-1175,4,0,0,0,691.758606
311,486,1,0,0,0,1045.069946
-812,1227,2,1,0,10,233.254272
859,-1493,4,0,0,0,730.309814
1237,688,1,0,0,0,786.656616
-1054,1732,2,1,0,10,233.254272
1449,-1684,4,0,0,0,657.493469
968,930,1,0,0,0,801.893982
-1334,1374,2,0,0,0,699.945374
1299,1961,1,0,0,0,641.190613
-1307,1475,2,0,0,0,691.739258
504,1290,1,0,0,0,792.914612
-1976,209,2,0,0,0,689.387085
1585,1910,1,0,0,0,625.886047
-433,610,2,0,0,0,970.219666
1843,511,1,1,0,10,233.254272
-1017,1225,2,0,0,0,752.880127
1580,822,1,0,0,0,720.726868
-1930,1988,2,0,0,0,594.594788
1208,24,1,0,0,0,832.160950
803,1842,1,1,0,10,233.254272
1102,1197,1,0,0,0,746.661011
1653,1464,1,0,0,0,659.232544
1984,469,1,0,0,0,682.045410
1067,1366,1,0,0,0,728.508484
75,125,1,0,0,0,1441.936401
398,37,1,0,0,0,1150.930420
1977,1779,1,0,0,0,606.226135
1160,1442,1,0,0,0,709.738892
517,948,1,0,0,0,864.495422
1762,1135,1,0,0,0,674.129028
1966,1262,1,0,0,0,643.139893
725,1518,1,0,0,0,737.086975
1246,1655,1,0,0,0,677.464661
1234,1529,1,0,0,0,692.599426
1109,220,1,0,0,0,851.265381
306,526,1,0,0,0,1029.723755
783,131,1,0,0,0,953.085938
1271,1170,1,0,0,0,729.470947
1071,1140,1,0,0,0,757.966370
1864,1037,1,0,0,0,669.111084
1869,1288,1,0,0,0,651.361694
1930,1787,1,0,0,0,609.377258


each generation good chromosome number
300,284,289,289,285,280,280,274,279,280,279,281,272,280,281,279,281,280,287,285,280,287,285,284,287,285,285,286,282,283,287,287,286,292,289,291,288,290,296,290,293,294,291,293,291,291,292,292,289,295,290,294,290,293,294,293,296,296,291,297,293,293,297,293,293,298,293,295,292,294,292,296,296,296,297,291,298,290,297,295,295,296,291,297,291,296,293,298,296,294,296,296,296,297,297,289,297,293,289,295,