each times' max average throughput
604.348267,613.410706,644.807007,630.393066,646.857544,607.271790,632.641541,657.676941,649.137085,645.139160,604.191650,624.492249,625.725220,640.713806,648.580872,612.639526,630.490051,649.469116,635.395569,623.968567,647.414001,651.920654,632.434021,635.654419,644.611694,630.499573,607.572449,650.117981,646.392395,635.592346,607.137146,633.934570,615.258423,644.891052,624.407471,645.810059,637.865417,623.387329,626.549377,629.872803,624.850830,632.509827,626.779663,646.344116,617.071899,646.172913,641.834412,632.814514,652.365723,639.261658,642.302124,644.826904,649.089600,650.882385,634.023743,644.354980,641.763184,602.211426,652.318298,612.713562,644.254822,651.052856,636.347839,624.583740,646.272461,632.116211,655.960205,646.718384,655.327637,637.035706,634.897949,640.982666,625.033569,609.513672,651.325256,641.511963,644.029968,625.954468,616.279663,650.112122,658.675476,642.536255,642.133423,637.726318,636.796570,625.234863,595.897583,633.548096,649.839478,641.871765,639.343994,637.084900,654.941589,619.162048,609.441345,640.602051,641.352356,627.321533,628.306274,623.593750,
avg. throughput in all test times
634.878845
avg. BS TX power in all test times
MBS area 1,MBS area 2,MBS area 3,MBS area 4,CBSD 1,CBSD 2,CBSD 3,CBSD 4,CBSD 5,CBSD 6,CBSD 7,
7.975,7.600,7.900,7.762,0.068,0.211,0.079,0.290,0.226,0.369,0.268,
avg. mbs all power,avg. cbsd enable number,avg. mbs area all power,avg. cbsd all power
46.388,2.000,31.237,1.510
avg. max avg. throughput generation number in all test times
0.730000
avg. number of relay UE
26

the max average throughput times

BS TX power
MBS area 1,MBS area 2,MBS area 3,MBS area 4,CBSD 1,CBSD 2,CBSD 3,CBSD 4,CBSD 5,CBSD 6,CBSD 7,
10.000,5.000,7.500,7.500,0.000,0.000,0.625,0.500,0.000,0.000,0.000,
max average throughput
623.593750

x,y,area,be blocked (1 : NLOS / 0 : LOS),be blocked number (>=1 : CBSD(x) / 0 : no),connect bs number (>=1 : CBSD / 0 : MBS),throughput (unit : M bps)
131,205,1,0,0,0,1294.168823
-1326,886,2,0,0,0,653.189453
-117,-1872,3,0,0,0,664.754578
1726,-1445,4,0,0,0,612.749207
708,3,1,0,0,0,986.078796
-217,1541,2,1,0,4,323.655853
-958,-1683,3,0,0,0,655.629272
177,-1044,4,0,0,0,828.736389
197,646,1,0,0,0,999.681519
-899,1663,2,0,0,0,604.743591
-872,-541,3,1,0,4,323.655853
842,-1435,4,0,0,0,699.031860
1407,550,1,1,0,4,323.655853
-1420,668,2,1,0,4,323.655853
-1189,-1187,3,0,0,4,323.655853
1710,-924,4,0,0,0,654.581665
1314,299,1,1,0,4,323.655853
-1016,718,2,0,0,0,724.226440
-1700,-577,3,0,0,0,677.275024
382,-387,4,0,0,0,1020.691833
1726,903,1,0,0,0,695.070923
-1777,1693,2,0,0,0,530.904358
-1058,-46,3,0,0,0,828.709106
682,-229,4,0,0,0,940.019226
1474,1888,1,0,0,0,636.022034
-1788,1359,2,0,0,0,555.931091
-1719,-1585,3,0,0,0,601.948120
988,-1953,4,1,0,4,323.655853
1948,451,1,0,0,0,687.592346
-1370,1002,2,0,0,0,635.412720
-194,-291,3,1,0,4,323.655853
1076,-271,4,1,0,4,323.655853
1740,21,1,1,0,4,323.655853
-664,484,2,0,0,0,843.379761
-47,-871,3,0,0,0,884.532410
1471,-1584,4,0,0,0,624.272827
1526,1204,1,1,0,4,323.655853
-1337,921,2,0,0,0,648.090088
-679,-1816,3,0,0,0,655.300293
271,-801,4,1,0,4,323.655853
717,1357,1,0,0,0,763.412903
-799,440,2,0,0,0,813.339478
-105,-1807,3,1,0,4,323.655853
345,-499,4,0,0,0,989.150818
594,657,1,0,0,0,921.551636
-22,754,2,0,0,0,867.992615
-1761,-471,3,1,0,4,323.655853
1963,-1662,4,1,0,4,323.655853
977,1201,1,0,0,0,760.912537
-971,1074,2,0,0,0,680.797974
-451,-863,3,0,0,4,323.655853
1809,-835,4,0,0,0,647.514465
949,1243,1,0,0,0,758.024353
-1670,436,2,0,0,0,630.642395
-1420,-194,3,0,0,0,741.786621
1891,-182,4,1,0,4,323.655853
1535,263,1,0,0,0,759.218201
-1926,851,2,1,0,4,323.655853
-844,-614,3,0,0,4,323.655853
1265,-1169,4,1,0,4,323.655853
1200,1897,1,0,0,0,654.540527
-1920,355,2,1,0,4,323.655853
-473,-1558,3,0,0,0,705.219055
1957,-132,4,0,0,0,651.983826
1202,1217,1,0,0,0,732.306458
-1401,1510,2,0,0,0,580.391052
-1801,-1847,3,0,0,0,574.066162
657,-1521,4,0,0,0,700.231323
1143,1710,1,0,0,0,679.510986
-1378,689,2,0,0,0,663.045959
-557,-670,3,0,0,4,323.655853
162,-162,4,0,0,0,1269.994995
1513,1858,1,1,0,4,323.655853
-1082,854,2,0,0,0,694.860291
-1699,-67,3,0,0,0,692.815063
385,-1073,4,0,0,0,807.521118
1689,1427,1,0,0,0,658.842224
-1056,662,2,1,0,4,323.655853
-1550,-874,3,0,0,0,679.805603
264,93,1,0,0,0,1253.716187
-349,1087,2,1,0,4,323.655853
-1569,-294,3,0,0,0,710.887939
1840,917,1,0,0,0,679.648071
-1068,1551,2,0,0,0,605.843201
-1709,-1201,3,0,0,0,634.043396
158,1907,1,0,0,0,700.172729
-1744,-28,3,0,0,0,685.521118
1671,1672,1,1,0,4,323.655853
-272,-535,3,0,0,0,992.244629
431,1326,1,1,0,4,323.655853
-1312,-1415,3,1,0,4,323.655853
1109,1450,1,0,0,0,713.664124
-1736,-1015,3,1,0,4,323.655853
1394,290,1,0,0,0,784.958740
-1742,-441,3,0,0,0,677.003845
1299,231,1,0,0,0,806.856995
326,318,1,0,0,0,1113.305908
1751,447,1,0,0,0,716.554688
1363,1798,1,0,0,0,653.076355
1383,1442,1,1,0,4,323.655853


each generation good chromosome number
4,7,9,