each times' max average throughput
657.651245,646.234375,647.463440,658.018799,652.839661,639.410645,645.645996,647.152710,648.909363,646.843933,639.187378,641.109619,636.800964,657.995300,644.375488,654.764343,647.127625,658.609680,659.527344,646.405579,647.506836,659.041931,645.505859,644.275452,654.664612,646.546875,647.249756,646.600037,648.059631,642.769531,642.884277,646.311340,651.117310,658.780396,652.173584,646.392029,638.421936,654.701904,659.413330,652.567566,644.780457,650.951782,642.295227,650.289856,653.322388,650.770874,627.481812,647.705811,655.548035,645.708252,660.734924,669.360779,648.613831,650.161621,647.655579,646.322144,652.496155,656.168213,632.026672,632.026672,632.026672,632.026672,632.026672,632.026672,632.026672,632.026672,632.026672,632.026672,632.026672,632.026672,632.026672,632.026672,632.026672,632.026672,632.026672,632.026672,632.026672,632.026672,632.026672,632.026672,632.026672,632.026672,632.026672,632.026672,632.026672,632.026672,632.026672,632.026672,632.026672,632.026672,632.026672,632.026672,632.026672,632.026672,632.026672,632.026672,632.026672,632.026672,632.026672,632.026672,
avg. throughput in all test times
642.065735
avg. BS TX power in all test times
MBS area 1,MBS area 2,MBS area 3,MBS area 4,CBSD 1,CBSD 2,CBSD 3,CBSD 4,CBSD 5,CBSD 6,CBSD 7,
8.262,8.312,9.125,6.537,0.005,0.486,0.050,0.114,0.134,0.571,0.184,
avg. mbs all power,avg. cbsd enable number,avg. mbs area all power,avg. cbsd all power
47.237,2.000,32.237,1.544
avg. max avg. throughput generation number in all test times
0.260000
avg. number of relay UE
26



the max average throughput times

BS TX power
MBS area 1,MBS area 2,MBS area 3,MBS area 4,CBSD 1,CBSD 2,CBSD 3,CBSD 4,CBSD 5,CBSD 6,CBSD 7,
7.500,8.750,10.000,5.000,0.000,0.875,0.000,0.000,0.000,0.625,0.000,
max average throughput
632.026672

x,y,area,be blocked (1 : NLOS / 0 : LOS),be blocked number (>=1 : CBSD(x) / 0 : no),connect bs number (>=1 : CBSD / 0 : MBS),throughput (unit : M bps)
131,205,1,0,0,0,1252.671387
-1326,886,2,0,0,0,733.255249
-117,-1872,3,0,0,0,705.897949
1726,-1445,4,0,0,0,555.281128
708,3,1,0,0,0,944.626648
-217,1541,2,1,0,2,267.323975
-958,-1683,3,0,0,0,696.749084
177,-1044,4,0,0,0,770.470947
197,646,1,0,0,0,958.225037
-899,1663,2,0,0,0,684.541260
-872,-541,3,1,0,6,173.042679
842,-1435,4,0,0,0,641.101685
1407,550,1,1,0,6,607.774353
-1420,668,2,1,0,2,157.723343
-1189,-1187,3,0,0,0,737.455322
1710,-924,4,0,0,0,596.855286
1314,299,1,1,0,6,581.282410
-1016,718,2,0,0,0,804.553040
-1700,-577,3,0,0,0,718.448364
382,-387,4,0,0,0,962.256409
1726,903,1,0,0,0,653.955383
-1777,1693,2,0,0,0,610.071777
-1058,-46,3,0,0,0,870.097168
682,-229,4,0,0,0,881.629517
1474,1888,1,0,0,0,595.102417
-1788,1359,2,0,0,0,635.349365
-1719,-1585,3,0,0,0,642.894897
988,-1953,4,1,0,6,147.669586
1948,451,1,0,0,0,646.497620
-1370,1002,2,0,0,0,715.390442
-194,-291,3,1,0,6,253.679840
1076,-271,4,1,0,6,387.165222
1740,21,1,1,0,6,379.056122
-664,484,2,0,0,0,923.936340
-47,-871,3,0,0,0,925.957520
1471,-1584,4,0,0,0,566.726074
1526,1204,1,1,0,6,417.923828
-1337,921,2,0,0,0,728.131714
-679,-1816,3,0,0,0,696.419495
271,-801,4,1,0,6,243.243912
717,1357,1,0,0,0,722.150940
-799,440,2,0,0,0,893.854614
-105,-1807,3,1,0,6,139.639053
345,-499,4,0,0,0,930.730286
594,657,1,0,0,0,880.128662
-22,754,2,0,0,0,948.577332
-1761,-471,3,1,0,6,119.237640
1963,-1662,4,1,0,6,156.189163
977,1201,1,0,0,0,719.654846
-971,1074,2,0,0,0,760.980652
-451,-863,3,0,0,0,894.262085
1809,-835,4,0,0,0,589.826599
949,1243,1,0,0,0,716.771851
-1670,436,2,0,0,0,710.594543
-1420,-194,3,0,0,0,783.079346
1891,-182,4,1,0,6,320.396210
1535,263,1,0,0,0,717.963379
-1926,851,2,1,0,2,126.327637
-844,-614,3,0,0,0,874.283264
1265,-1169,4,1,0,6,219.985001
1200,1897,1,0,0,0,613.550659
-1920,355,2,1,0,2,123.688400
-473,-1558,3,0,0,0,746.450867
1957,-132,4,0,0,0,594.271667
1202,1217,1,0,0,0,691.102905
-1401,1510,2,0,0,0,660.015564
-1801,-1847,3,0,0,0,614.893860
657,-1521,4,0,0,0,642.296448
1143,1710,1,0,0,0,638.439758
-1378,689,2,0,0,0,743.156067
-557,-670,3,0,0,0,926.279907
162,-162,4,0,0,0,1211.509644
1513,1858,1,1,0,6,283.999268
-1082,854,2,0,0,0,775.094360
-1699,-67,3,0,0,0,734.022217
385,-1073,4,0,0,0,749.291870
1689,1427,1,0,0,0,617.837280
-1056,662,2,1,0,2,187.565735
-1550,-874,3,0,0,0,720.984924
264,93,1,0,0,0,1212.220703
-349,1087,2,1,0,2,274.894531
-1569,-294,3,0,0,0,752.130249
1840,917,1,0,0,0,638.576477
-1068,1551,2,0,0,0,685.648010
-1709,-1201,3,0,0,0,675.101440
158,1907,1,0,0,0,659.043884
-1744,-28,3,0,0,0,726.712830
1671,1672,1,1,0,6,302.436218
-272,-535,3,0,0,0,1033.711304
431,1326,1,1,0,2,413.189545
-1312,-1415,3,1,0,6,114.132561
1109,1450,1,0,0,0,672.501892
-1736,-1015,3,1,0,6,108.394073
1394,290,1,0,0,0,743.663330
-1742,-441,3,0,0,0,718.176819
1299,231,1,0,0,0,765.532227
326,318,1,0,0,0,1071.823486
1751,447,1,0,0,0,675.385681
1363,1798,1,0,0,0,612.091736
1383,1442,1,1,0,6,377.781036


each generation good chromosome number
10,10,10,