mbs coordinate
0,0

cbsd coordinate and channel
-970,900,2
740,900,1
980,-860,1
-750,-850,5
-750,1000,4
1050,600,2
760,-1135,3
-870,-1100,1
-1080,450,1
970,530,3
540,-1000,2
-1200,-300,3
-200,1170,7
820,1255,4
930,-1080,6
-1115,-505,2
-180,1230,3
500,1150,8
1200,-450,10
-500,-1100,7
-650,980,9
1180,450,9
700,-1160,7
-1050,-900,8
-1200,820,10
1200,1000,11
1340,-1120,12
-1440,-1280,10
-1160,1350,13
1420,960,14

building coordinate
-885,985
-1055,815
830,810
650,990
1060,-860
900,-860
-830,-770
-670,-930
-668,1070
-832,930
965,675
1135,525
832,-1059
688,-1211
-965,-1035
-775,-1165
-1135,365
-1025,535
907,591
1033,469
638,-906
442,-1094
-1275,-390
-1125,-210
-298,1123
-102,1217
910,1206
730,1304
1005,-1005
855,-1155
-1178,-407
-1052,-603
-120,1290
-240,1170
410,1240
590,1060
1275,-375
1125,-525
-577,-1023
-423,-1177
-600,1070
-710,890
1135,535
1225,365
743,-1077
657,-1243
-1138,-855
-962,-945
-1100,866
-1300,774
1100,1100
1300,900
1440,-1020
1240,-1220
-1540,-1180
-1340,-1380
-1060,1450
-1260,1250
1320,1060
1520,860

area numbers
315,300,291,294

x , y , block , block number
area 1
676,1005,0,0
536,410,0,0
1084,1011,0,0
873,33,1,0
797,360,0,0
86,612,0,0
690,48,0,0
1197,101,0,0
974,382,0,0
738,1201,0,0
1570,284,0,0
1720,332,0,0
208,717,0,0
161,565,0,0
739,399,0,0
1631,1570,1,0
496,628,0,0
653,1616,0,0
983,590,0,0
91,823,0,0
1567,1023,0,0
699,415,0,0
296,1358,0,0
191,1849,0,0
46,1961,0,0
669,1577,0,0
400,1303,0,0
1073,1586,1,0
1870,1184,0,0
1665,140,0,0
1451,38,0,0
416,394,0,0
983,39,1,0
1011,1633,0,0
1979,1658,0,0
1087,103,0,0
203,747,0,0
790,1981,0,0
641,1453,0,0
342,1609,0,0
207,820,0,0
1373,1289,0,0
59,828,0,0
1767,52,0,0
1927,685,1,0
1149,604,0,0
570,1954,0,0
551,1799,0,0
830,1552,0,0
1426,831,0,0
97,631,0,0
294,1751,0,0
1257,589,0,0
1549,901,0,0
1809,1641,1,0
1011,1020,0,0
1348,1483,0,0
1850,1018,0,0
106,110,0,0
739,1116,0,0
793,1844,0,0
582,841,0,0
692,859,1,0
13,1810,0,0
113,1915,0,0
692,796,0,0
1402,946,1,0
1755,9,0,0
1187,1552,0,0
1660,1899,0,0
1768,1578,0,0
280,300,0,0
9,1481,0,0
268,858,0,0
536,26,0,0
1672,956,0,0
1352,63,1,0
964,1931,0,0
639,1844,0,0
113,441,0,0
1329,2,0,0
813,1435,0,0
1784,1156,0,0
286,880,0,0
934,1858,0,0
245,1360,0,0
1340,773,0,0
1330,1591,0,0
1676,1775,0,0
777,1731,0,0
715,686,0,0
207,682,1,0
1354,1367,0,0
778,1667,0,0
1712,627,0,0
1962,1933,0,0
581,661,0,0
92,952,0,0
484,1505,1,0
540,919,0,0
443,684,0,0
1662,644,1,0
311,504,1,0
976,656,0,0
600,1861,0,0
524,992,0,0
983,338,0,0
1352,1509,0,0
344,1679,0,0
1574,101,0,0
532,358,0,0
1432,478,0,0
188,1240,0,0
887,443,0,0
1317,1696,0,0
1148,1590,0,0
34,146,0,0
310,1099,0,0
471,1368,0,0
1639,1520,1,0
9,896,0,0
727,1646,0,0
1333,1832,1,0
1638,1269,0,0
1602,1724,1,0
1677,997,0,0
944,1340,0,0
1675,1528,0,0
190,1931,1,0
238,586,0,0
46,228,0,0
1861,218,0,0
912,770,0,0
402,958,1,0
1104,612,0,0
367,1389,0,0
1171,518,0,0
743,1769,0,0
1846,611,0,0
1629,1210,0,0
1274,1228,0,0
1688,128,0,0
1605,583,0,0
357,175,1,0
199,551,0,0
1403,1947,1,0
232,576,1,0
1898,567,0,0
833,1934,0,0
1673,378,0,0
1795,1123,0,0
1127,203,0,0
864,1621,0,0
1596,1317,0,0
1591,252,0,0
1723,894,0,0
649,1798,0,0
1597,57,0,0
1304,1653,0,0
872,510,0,0
576,1203,0,0
931,1113,0,0
526,1234,0,0
1985,1810,0,0
150,1489,1,0
1652,1179,0,0
921,1611,0,0
201,875,0,0
949,90,0,0
431,1531,0,0
607,1095,0,0
960,946,1,0
1511,1672,0,0
1956,697,0,0
542,1555,0,0
1679,1431,0,0
1123,521,1,0
1923,1669,0,0
223,52,1,0
1823,1542,0,0
492,1168,1,0
39,824,0,0
1486,815,0,0
1078,1901,0,0
641,824,0,0
380,998,0,0
198,430,0,0
978,1093,0,0
579,1745,0,0
632,1535,0,0
159,1098,1,0
1149,1499,1,0
1732,1839,0,0
221,43,0,0
1916,1199,1,0
1678,262,0,0
1459,264,0,0
1968,1667,0,0
1316,341,0,0
1871,1140,1,0
1588,1197,0,0
1934,800,1,0
1677,1528,0,0
701,1413,0,0
1880,1714,0,0
1446,1187,0,0
1812,906,1,0
340,11,0,0
260,1930,0,0
1777,1794,0,0
1238,1001,0,0
1031,713,0,0
1205,1742,0,0
1614,1405,0,0
851,1057,0,0
625,1299,1,0
1110,940,0,0
886,893,1,0
1396,1851,0,0
1864,458,0,0
291,1906,1,0
732,637,0,0
170,1262,1,0
1731,438,1,0
1856,1612,1,0
1579,704,0,0
235,1608,0,0
1997,293,0,0
333,420,0,0
624,1692,0,0
1041,1788,0,0
1355,785,0,0
1181,1318,0,0
172,358,0,0
894,650,0,0
1404,1135,0,0
1094,394,0,0
1612,376,0,0
457,481,1,0
943,992,0,0
852,796,0,0
1059,636,1,0
1639,611,0,0
829,1473,0,0
304,1139,0,0
33,1615,0,0
1331,1455,0,0
1795,376,0,0
1249,554,0,0
572,319,1,0
424,1528,0,0
871,878,1,0
358,313,0,0
1940,1230,0,0
1532,1381,0,0
506,1199,0,0
533,1625,1,0
1995,895,0,0
849,1283,0,0
1088,304,0,0
2,1059,0,0
191,46,0,0
1807,730,0,0
1694,554,0,0
945,349,0,0
1939,1306,0,0
460,1349,0,0
601,926,1,0
1411,752,0,0
1401,1462,0,0
117,905,0,0
913,1259,0,0
456,1095,0,0
674,568,0,0
13,1470,0,0
1055,1898,0,0
1302,314,0,0
862,754,1,0
1615,1245,0,0
80,1789,1,0
1083,130,0,0
1121,1929,0,0
568,572,0,0
1915,797,0,0
1464,1408,0,0
509,791,0,0
1766,1711,0,0
1307,992,0,0
1685,1737,0,0
1835,452,0,0
927,177,0,0
1837,1055,0,0
997,703,0,0
1911,147,1,0
1543,443,0,0
748,1971,0,0
17,1274,1,0
244,35,0,0
771,487,0,0
814,703,0,0
1827,1194,0,0
178,770,0,0
1960,1290,0,0
1026,1219,0,0
1851,1863,1,0
1589,1883,0,0
1561,209,0,0
974,1167,0,0
791,1832,1,0
1371,1550,1,0
1891,563,1,0
497,25,0,0
484,1699,0,0
1508,41,0,0
1901,1076,1,0
area 2
-1015,233,0,0
-316,1434,1,0
-520,1235,0,0
-1449,192,0,0
-1828,1030,0,0
-1317,1187,0,0
-1743,1823,0,0
-594,602,0,0
-1662,555,0,0
-334,1478,0,0
-1128,1359,0,0
-1738,604,1,0
-1665,1412,0,0
-434,1887,0,0
-469,1039,0,0
-805,1749,0,0
-430,1526,0,0
-311,1363,0,0
-1884,1620,0,0
-794,1798,0,0
-1855,172,0,0
-1728,320,0,0
-838,1071,0,0
-579,1833,0,0
-709,1538,1,0
-1428,449,0,0
-660,1681,1,0
-1177,1461,0,0
-94,1127,0,0
-821,1415,0,0
-1140,434,0,0
-1988,1421,0,0
-7,1036,0,0
-582,1238,0,0
-831,152,0,0
-851,1179,1,0
-1923,673,0,0
-1372,1961,1,0
-316,1722,0,0
-858,594,0,0
-923,1222,0,0
-704,1110,0,0
-198,0,0,0
-14,122,0,0
-60,1918,0,0
-991,1390,0,0
-1053,162,1,0
-462,1265,0,0
-1133,1518,0,0
-1316,1585,1,0
-1129,1232,0,0
-243,883,0,0
-1380,999,0,0
-1031,98,0,0
-861,1346,0,0
-647,1177,1,0
-1616,1581,0,0
-1037,1480,0,0
-1703,1194,0,0
-11,1349,0,0
-1686,255,1,0
-985,1364,0,0
-258,1894,0,0
-204,1951,0,0
-1925,1245,0,0
-1268,818,0,0
-340,108,0,0
-465,1538,0,0
-201,1678,0,0
-759,1730,1,0
-434,1889,0,0
-1229,899,0,0
-890,1939,1,0
-200,1141,1,0
-762,1688,0,0
-1524,1513,0,0
-1162,201,1,0
-1166,1569,0,0
-1836,813,0,0
-1976,955,1,0
-1396,1084,0,0
-102,318,1,0
-483,467,0,0
-263,584,0,0
-165,1549,0,0
-1798,1748,0,0
-943,1768,0,0
-883,847,0,0
-1119,188,0,0
-1220,1339,1,0
-1611,92,0,0
-1075,908,0,0
-1710,1002,0,0
-47,1850,0,0
-992,1,0,0
-1945,1808,0,0
-319,418,0,0
-1086,869,0,0
-350,452,0,0
-1113,1214,0,0
-1960,24,0,0
-935,771,0,0
-1684,910,0,0
-1021,1505,0,0
-436,668,0,0
-1967,149,0,0
-470,1735,0,0
-465,977,0,0
-1301,1735,1,0
-1104,114,0,0
-1793,382,0,0
-151,971,0,0
-1819,1922,0,0
-1044,970,0,0
-153,1136,0,0
-690,956,0,0
-1581,659,0,0
-1719,1727,0,0
-214,301,0,0
-1205,515,0,0
-1450,1380,0,0
-1218,1191,0,0
-804,939,0,0
-1520,16,0,0
-663,1030,0,0
-84,958,0,0
-542,1002,1,0
-503,1230,0,0
-601,1487,0,0
-64,1324,0,0
-1583,1678,0,0
-638,593,0,0
-576,1364,0,0
-751,315,0,0
-1976,1840,1,0
-837,1489,0,0
-552,238,0,0
-1473,745,0,0
-1413,1680,0,0
-674,59,0,0
-1173,1532,0,0
-1984,1485,0,0
-217,688,0,0
-1065,930,0,0
-1389,1270,1,0
-1438,1536,1,0
-568,1693,1,0
-853,1771,0,0
-715,1210,0,0
-199,563,1,0
-1780,50,1,0
-1171,1929,0,0
-736,404,0,0
-173,1288,1,0
-1671,1611,0,0
-1020,306,0,0
-1943,1495,0,0
-308,516,0,0
-1819,1101,0,0
-907,699,0,0
-1894,216,0,0
-456,1257,0,0
-1944,879,0,0
-97,1715,0,0
-1289,402,0,0
-1720,1239,1,0
-927,442,0,0
-214,1345,0,0
-295,1030,0,0
-1647,1927,0,0
-1498,390,0,0
-568,1349,1,0
-311,618,1,0
-673,979,0,0
-1101,1157,0,0
-1320,1714,0,0
-1189,1772,0,0
-93,1712,0,0
-579,905,0,0
-1861,1605,0,0
-129,1984,0,0
-483,798,0,0
-433,1690,0,0
-1969,1991,0,0
-1149,228,0,0
-61,225,0,0
-1591,1224,0,0
-1170,233,0,0
-837,907,0,0
-502,94,0,0
-549,1473,1,0
-1086,1327,0,0
-879,96,0,0
-1067,1463,0,0
-617,16,1,0
-773,1887,0,0
-345,977,0,0
-307,1642,0,0
-175,622,0,0
-744,241,0,0
-1310,1099,0,0
-658,597,0,0
-1267,1601,1,0
-1094,148,1,0
-603,125,0,0
-45,1311,0,0
-669,357,0,0
-663,119,1,0
-1541,1187,0,0
-1938,1411,1,0
-1337,91,0,0
-178,807,0,0
-662,1476,0,0
-165,1331,0,0
-1835,1760,0,0
-223,1016,0,0
-4,1904,0,0
-1351,32,0,0
-1138,1833,0,0
-674,1170,0,0
-1246,1762,0,0
-1164,1828,0,0
-629,1398,0,0
-910,994,0,0
-922,593,0,0
-1518,1919,0,0
-1944,11,0,0
-849,760,0,0
-940,619,0,0
-1474,631,0,0
-1595,107,0,0
-1435,268,0,0
-397,1682,0,0
-1261,451,0,0
-1084,1431,0,0
-1362,1504,0,0
-719,713,0,0
-1454,530,1,0
-760,1761,0,0
-216,1940,0,0
-869,1551,0,0
-305,20,1,0
-1452,349,0,0
-1391,1387,0,0
-1360,1594,0,0
-1520,1461,0,0
-410,560,0,0
-1518,1833,0,0
-1785,576,0,0
-1786,1119,0,0
-380,1634,0,0
-1177,1255,0,0
-844,16,0,0
-539,1313,0,0
-591,1953,0,0
-647,860,0,0
-877,703,0,0
-1624,828,0,0
-54,930,1,0
-1802,1915,0,0
-1379,1258,1,0
-689,194,0,0
-1008,424,0,0
-582,1312,0,0
-1118,1149,0,0
-1502,20,0,0
-1650,919,1,0
-1859,1304,1,0
-1272,367,0,0
-1446,1737,1,0
-1694,310,0,0
-261,147,0,0
-1252,874,0,0
-1631,397,1,0
-1857,1210,1,0
-1244,1873,0,0
-378,1827,0,0
-521,1267,1,0
-1384,554,1,0
-247,1520,0,0
-226,1895,0,0
-1317,655,0,0
-1684,499,0,0
-1690,426,0,0
-1074,983,0,0
-108,200,0,0
-823,1665,0,0
-429,325,0,0
-367,390,1,0
-1789,1944,0,0
-1906,277,0,0
-673,976,0,0
-1816,402,0,0
-1812,173,1,0
-125,522,0,0
-853,1136,0,0
-1219,1800,1,0
-280,421,1,0
-1432,1935,0,0
-1042,225,0,0
area 3
-866,-1665,0,0
-357,-409,1,0
-843,-924,0,0
-1544,-1717,0,0
-1528,-119,0,0
-382,-1562,0,0
-334,-1767,0,0
-1744,-887,0,0
-136,-1129,0,0
-1535,-1827,0,0
-1686,-302,0,0
-433,-881,0,0
-714,-311,0,0
-110,-1196,0,0
-1868,-1,0,0
-1818,-1192,0,0
-884,-1066,0,0
-1829,-873,0,0
-1771,-1524,0,0
-868,-1993,0,0
-169,-584,1,0
-1486,-1557,1,0
-1212,-641,0,0
-1754,-932,0,0
-720,-845,0,0
-1917,-557,0,0
-1110,-1273,0,0
-901,-840,0,0
-647,-46,0,0
-1761,-137,0,0
-502,-1646,1,0
-1370,-1923,0,0
-85,-472,0,0
-731,-350,0,0
-882,-1502,0,0
-189,-1884,1,0
-1680,-1667,1,0
-1704,-1337,1,0
-1409,-1959,0,0
-1621,-11,0,0
-1684,-1685,0,0
-1613,-1474,0,0
-1110,-1405,1,0
-1844,-571,0,0
-1164,-586,0,0
-548,-1810,0,0
-1208,-783,0,0
-294,-1020,0,0
-1171,-1472,0,0
-1484,-1681,0,0
-1894,-1263,0,0
-846,-1443,0,0
-297,-331,0,0
-535,-1705,0,0
-600,-902,0,0
-203,-1242,0,0
-1297,-1589,0,0
-122,-409,0,0
-754,-1975,0,0
-832,-1783,0,0
-352,-1346,1,0
-1762,-859,0,0
-773,-1558,0,0
-618,-1549,0,0
-1209,-96,0,0
-209,-427,0,0
-1950,-1781,0,0
-1478,-934,1,0
-556,-552,0,0
-1834,-303,1,0
-268,-504,0,0
-44,-1901,0,0
-1966,-858,0,0
-138,-1604,0,0
-945,-1095,0,0
-1120,-786,0,0
-1803,-629,0,0
-108,-1589,0,0
-1820,-485,0,0
-292,-594,0,0
-794,-42,0,0
-851,-683,0,0
-1251,-1067,0,0
-1841,-1821,0,0
-1723,-1327,0,0
-1147,-1437,0,0
-502,-870,1,0
-1791,-848,1,0
-340,-111,0,0
-1456,-1154,0,0
-1776,-368,0,0
-1053,-1513,1,0
-802,-787,0,0
-981,-596,0,0
-1807,-1410,0,0
-1174,-100,0,0
-1437,-709,0,0
-974,-1281,0,0
-78,-231,0,0
-437,-721,0,0
-1766,-1541,0,0
-895,-1018,1,0
-742,-1238,0,0
-1658,-607,0,0
-332,-1284,0,0
-299,-1946,1,0
-771,-821,0,0
-1179,-442,0,0
-1358,-33,0,0
-75,-1065,0,0
-1367,-542,0,0
-1114,-856,0,0
-1278,-1525,0,0
-1462,-1234,0,0
-747,-986,0,0
-1814,-173,1,0
-1259,-744,1,0
-1213,-1324,0,0
-1214,-1185,0,0
-657,-1267,0,0
-380,-1151,0,0
-243,-77,0,0
-678,-1779,0,0
-1667,-1653,0,0
-1221,-1662,0,0
-382,-1476,0,0
-1683,-536,0,0
-539,-799,0,0
-1390,-527,0,0
-750,-610,0,0
-687,-1936,0,0
-1571,-385,0,0
-380,-999,0,0
-1340,-1575,0,0
-767,-28,0,0
-362,-1140,1,0
-1205,-1172,0,0
-1291,-36,0,0
-133,-364,0,0
-970,-1826,1,0
-287,-812,0,0
-711,-1375,0,0
-1390,-118,0,0
-887,-1574,0,0
-272,-96,0,0
-753,-883,0,0
-928,-916,0,0
-1495,-59,0,0
-911,-1198,1,0
-214,-442,1,0
-980,-168,1,0
-876,-670,0,0
-1935,-1430,0,0
-154,-363,0,0
-609,-739,0,0
-187,-1731,0,0
-1846,-402,1,0
-1019,-1517,1,0
-1313,-1308,1,0
-1331,-1394,0,0
-886,-317,0,0
-810,-617,0,0
-753,-75,0,0
-156,-460,0,0
-1577,-628,1,0
-208,-61,0,0
-885,-61,0,0
-1966,-1384,0,0
-784,-128,0,0
-211,-407,0,0
-1456,-332,0,0
-1797,-1171,0,0
-11,-1748,0,0
-888,-1254,0,0
-1247,-785,0,0
-1496,-314,1,0
-1127,-335,0,0
-1232,-1952,0,0
-1376,-455,0,0
-596,-700,0,0
-1994,-514,0,0
-1578,-709,0,0
-1178,-1524,0,0
-1389,-324,0,0
-98,-957,1,0
-415,-475,0,0
-199,-1059,0,0
-818,-1588,0,0
-46,-1081,0,0
-1379,-593,0,0
-1144,-988,0,0
-751,-275,0,0
-1396,-146,0,0
-1603,-351,1,0
-467,-1292,0,0
-286,-1150,1,0
-931,-589,0,0
-776,-1054,0,0
-1659,-41,0,0
-1667,-1269,0,0
-1537,-935,0,0
-702,-890,0,0
-699,-492,0,0
-1420,-793,0,0
-582,-850,0,0
-132,-997,1,0
-1184,-108,0,0
-18,-1613,0,0
-1067,-371,0,0
-771,-1290,0,0
-638,-259,0,0
-575,-258,0,0
-1325,-1886,0,0
-1469,-1199,0,0
-1306,-646,1,0
-1156,-1114,0,0
-1688,-397,0,0
-1325,-1967,0,0
-1929,-1809,0,0
-1294,-74,0,0
-134,-1725,0,0
-1036,-1592,1,0
-360,-1643,0,0
-1600,-1562,0,0
-1186,-1630,0,0
-966,-1293,0,0
-409,-1508,0,0
-133,-828,0,0
-1918,-1184,0,0
-1211,-1839,0,0
-9,-1265,0,0
-618,-1148,0,0
-511,-961,0,0
-1539,-621,0,0
-304,-108,0,0
-245,-1049,0,0
-439,-668,0,0
-656,-514,0,0
-1994,-210,0,0
-300,-1145,1,0
-1134,-135,0,0
-335,-1566,0,0
-1433,-182,0,0
-1625,-1783,0,0
-1285,-1212,0,0
-588,-1404,0,0
-284,-358,0,0
-1006,-1776,0,0
-1211,-366,0,0
-202,-1554,1,0
-1695,-997,0,0
-1480,-440,0,0
-794,-1574,1,0
-559,-884,0,0
-1755,-1823,0,0
-1639,-1868,0,0
-1113,-899,0,0
-955,-1415,0,0
-607,-662,0,0
-1875,-1197,0,0
-1440,-196,0,0
-1633,-663,0,0
-229,-259,0,0
-153,-975,0,0
-638,-1226,0,0
-502,-793,0,0
-1656,-1108,1,0
-1542,-1960,0,0
-825,-257,0,0
-704,-423,1,0
-402,-1585,0,0
-1364,-684,0,0
-1377,-1318,0,0
-1403,-179,0,0
-468,-418,0,0
-586,-559,0,0
-1580,-553,0,0
-1020,-926,0,0
-467,-836,0,0
-218,-852,0,0
-109,-517,0,0
-1527,-636,0,0
-472,-1225,0,0
-1392,-1260,0,0
-1912,-1998,0,0
-484,-1217,0,0
-1306,-1880,0,0
-412,-773,0,0
-1486,-664,0,0
-331,-1374,0,0
-104,-106,1,0
area 4
1888,-1721,0,0
1113,-1545,1,0
1941,-1267,0,0
616,-1744,0,0
958,-287,0,0
396,-588,1,0
824,-947,0,0
1100,-1165,0,0
1772,-1031,0,0
190,-1274,0,0
484,-1602,0,0
1871,-935,0,0
95,-703,0,0
338,-718,0,0
272,-911,0,0
1965,-980,0,0
302,-285,0,0
1815,-1875,0,0
1261,-450,0,0
1128,-1950,0,0
53,-895,0,0
1319,-56,0,0
660,-1389,0,0
607,-544,0,0
437,-1646,0,0
588,-578,0,0
1217,-121,0,0
690,-1027,0,0
1584,-96,0,0
704,-650,0,0
1570,-328,1,0
1160,-1799,0,0
700,-851,0,0
1357,-1371,0,0
639,-171,0,0
991,-1720,0,0
1166,-1013,0,0
889,-1851,1,0
912,-1046,0,0
203,-1271,0,0
612,-288,0,0
143,-1507,0,0
571,-563,0,0
189,-1747,0,0
236,-178,0,0
413,-1423,0,0
119,-1741,0,0
41,-406,0,0
1912,-1718,0,0
1256,-581,0,0
757,-822,0,0
1294,-852,0,0
623,-360,0,0
690,-23,0,0
991,-1183,0,0
508,-901,0,0
126,-1965,0,0
1393,-1178,0,0
1157,-1098,0,0
504,-1181,0,0
1338,-989,0,0
1776,-1127,0,0
1321,-1229,0,0
402,-1791,0,0
975,-1308,0,0
448,-1986,0,0
1970,-1039,0,0
1091,-974,0,0
1958,-479,1,0
1022,-1118,0,0
1190,-1010,0,0
1598,-862,0,0
564,-1280,0,0
16,-1029,1,0
705,-1536,0,0
515,-381,0,0
1280,-1748,0,0
1996,-352,0,0
740,-1902,0,0
1283,-1224,1,0
1143,-1351,0,0
1730,-1223,0,0
463,-1649,0,0
166,-1782,0,0
1249,-1898,0,0
1990,-1891,1,0
564,-1613,0,0
333,-379,0,0
1013,-872,0,0
1664,-984,0,0
1451,-766,0,0
1371,-646,0,0
247,-1282,0,0
384,-1747,1,0
853,-1323,1,0
22,-1572,1,0
1042,-1147,0,0
1212,-779,0,0
1722,-1510,1,0
425,-338,0,0
722,-1943,0,0
1998,-568,0,0
1053,-477,0,0
238,-61,0,0
1492,-790,0,0
1039,-1960,0,0
985,-1859,0,0
380,-683,0,0
1854,-32,0,0
1476,-666,0,0
1318,-1500,0,0
391,-342,0,0
1040,-1570,1,0
1691,-1301,0,0
1486,-425,1,0
541,-906,0,0
1602,-108,0,0
1135,-1359,1,0
1351,-777,1,0
908,-289,0,0
18,-1659,0,0
808,-1717,1,0
388,-146,0,0
107,-117,0,0
1487,-697,0,0
449,-1537,1,0
1223,-974,1,0
1688,-1091,0,0
1632,-1983,0,0
98,-107,0,0
1025,-1972,1,0
1166,-1140,0,0
90,-627,0,0
1618,-377,0,0
132,-119,0,0
1416,-59,0,0
889,-1737,0,0
1290,-806,0,0
1290,-89,0,0
1434,-1983,0,0
1852,-1708,0,0
833,-1535,0,0
1320,-1193,1,0
1328,-713,1,0
880,-1364,0,0
459,-1630,0,0
15,-450,0,0
1634,-1006,0,0
820,-1437,0,0
324,-1134,1,0
1169,-871,0,0
286,-1638,0,0
1197,-1763,1,0
1854,-1255,0,0
1034,-1578,1,0
239,-934,1,0
840,-644,0,0
1623,-1507,0,0
593,-655,0,0
1306,-1736,0,0
350,-906,1,0
1878,-1168,0,0
582,-1107,0,0
1895,-1945,0,0
1503,-583,0,0
1971,-830,0,0
1015,-1061,0,0
1135,-42,0,0
1194,-443,1,0
725,-1180,1,0
312,-1088,0,0
1658,-546,0,0
757,-508,0,0
894,-428,0,0
450,-1369,1,0
866,-177,0,0
1945,-263,0,0
1938,-1872,0,0
1544,-1464,0,0
1660,-1732,0,0
799,-1795,0,0
1437,-1477,1,0
417,-815,0,0
284,-1142,0,0
1478,-1566,1,0
623,-402,0,0
1769,-1866,0,0
1964,-1552,0,0
1024,-1062,0,0
146,-1720,0,0
452,-1476,0,0
1686,-1535,0,0
1715,-99,0,0
1163,-1943,0,0
945,-1767,0,0
1723,-110,1,0
1562,-617,0,0
1170,-687,1,0
1156,-1004,0,0
921,-1121,0,0
937,-203,0,0
1348,-853,0,0
505,-1193,0,0
1241,-835,0,0
99,-1249,0,0
1436,-1947,0,0
1986,-971,0,0
450,-1365,0,0
1732,-1613,0,0
1873,-1324,1,0
1995,-1909,0,0
924,-129,0,0
1087,-553,0,0
1797,-1247,0,0
1357,-754,0,0
633,-1265,1,0
757,-1099,0,0
1739,-1593,0,0
1680,-253,0,0
1095,-592,0,0
1977,-1119,0,0
172,-1552,0,0
1390,-1665,0,0
566,-1837,0,0
48,-1981,0,0
1578,-1123,0,0
1659,-1625,0,0
901,-85,1,0
1380,-104,0,0
1979,-1247,0,0
416,-1437,0,0
754,-9,0,0
655,-1632,0,0
878,-1963,0,0
1361,-1427,0,0
209,-1624,0,0
1252,-1927,0,0
1628,-1386,0,0
155,-1354,1,0
739,-820,1,0
728,-34,0,0
636,-1013,0,0
1471,-1342,1,0
1219,-775,1,0
152,-1660,0,0
1009,-777,0,0
1050,-1225,0,0
678,-1206,0,0
1164,-352,0,0
1581,-490,0,0
1803,-498,0,0
1950,-1673,0,0
706,-971,0,0
347,-1777,0,0
162,-1246,0,0
1724,-1923,0,0
205,-1613,0,0
273,-1894,0,0
437,-1886,1,0
307,-1034,0,0
1959,-817,0,0
1124,-1887,0,0
1897,-978,1,0
90,-245,0,0
1651,-849,0,0
1560,-1693,0,0
1686,-1790,0,0
1112,-165,0,0
1567,-797,1,0
492,-1847,0,0
1305,-1941,1,0
820,-806,0,0
54,-1377,0,0
1130,-80,0,0
567,-1014,0,0
425,-652,0,0
1753,-918,0,0
1941,-1176,0,0
358,-1901,0,0
404,-1105,0,0
770,-863,0,0
173,-1179,0,0
787,-586,0,0
1121,-1820,0,0
1744,-1581,0,0
994,-1151,0,0
573,-630,0,0
465,-414,1,0
1439,-337,0,0
835,-1719,0,0
1583,-1926,0,0
635,-1781,0,0
1045,-1860,0,0
1079,-80,0,0

near cbsd peopel number
59
61
68
63
65
59
63
69
56
60
63
67
64
65
63
62
66
66
53
69
63
58
64
61
52
57
66
54
65
59
