each times' max average throughput
491.213806,572.371155,513.294373,566.873291,570.718262,561.186279,529.282104,480.312683,569.322510,572.058777,572.173767,485.952118,460.328430,576.875122,452.759277,0.000000,504.329071,576.103455,561.770630,582.031128,497.251587,555.429993,497.423309,559.093140,565.718018,572.310303,559.982788,568.216003,565.434326,562.995483,569.374023,440.989349,572.189880,567.449402,593.846985,484.918091,578.201477,560.538269,467.365753,564.567871,524.004944,576.669373,561.037415,568.611389,565.585144,462.660889,569.742615,582.034668,557.706055,498.978302,572.281067,575.707397,562.642273,578.446045,519.719666,575.833740,560.195007,576.363098,570.046570,571.855774,562.696289,565.387207,571.786438,565.709778,474.572968,567.856934,563.021667,448.048187,567.670898,576.463318,552.049133,555.164551,575.640747,467.407715,562.719910,556.288147,584.917236,566.504883,571.160645,569.776184,575.736145,567.831238,568.401733,570.657837,572.603943,457.241028,425.765564,568.989807,565.322144,549.357483,575.789612,477.590546,573.457825,578.802612,556.248840,429.811279,570.606873,557.130493,575.782898,573.891113,
avg. throughput in all test times
541.482300
avg. BS TX power in all test times
MBS area 1,MBS area 2,MBS area 3,MBS area 4,MBS area 5,CBSD 1,CBSD 2,CBSD 3,CBSD 4,CBSD 5,CBSD 6,CBSD 7,
7.062,6.588,6.938,7.137,7.050,0.091,0.175,0.261,0.200,0.160,0.170,0.147,
avg. mbs all power,avg. cbsd enable number,avg. mbs area all power,avg. cbsd all power
47.075,1.000,34.775,1.205
avg. max avg. throughput generation number in all test times
0.740000
avg. number of relay UE
258

the max average throughput times

BS TX power
MBS area 1,MBS area 2,MBS area 3,MBS area 4,MBS area 5,CBSD 1,CBSD 2,CBSD 3,CBSD 4,CBSD 5,CBSD 6,CBSD 7,
5.000,6.250,8.750,6.250,7.500,0.000,0.000,0.875,0.000,0.750,0.000,0.000,
max average throughput
573.891113

x,y,area,be blocked (1 : NLOS / 0 : LOS),be blocked number (>=1 : CBSD(x) / 0 : no),connect bs number (>=1 : CBSD / 0 : MBS),throughput (unit : M bps)
174,657,1,0,0,0,898.003235
1994,522,2,1,0,3,76.893394
-535,1043,3,0,0,0,821.665771
-1883,-1058,4,1,0,5,78.760857
229,-1843,5,0,0,0,667.583191
488,1434,1,0,0,0,667.887329
1168,862,2,0,0,0,711.987000
-1029,807,3,0,0,0,790.223083
-1905,-621,4,1,0,5,78.760857
278,-1087,5,0,0,0,812.094727
1386,1829,1,0,0,0,549.840332
1472,992,2,0,0,0,654.463074
-277,1776,3,0,0,0,698.971741
-1128,-1204,4,0,0,0,675.359802
529,-1153,5,0,0,0,776.811096
427,909,1,0,0,0,785.677185
1580,1441,2,1,0,3,76.893394
-1007,1853,3,0,0,0,653.287964
-161,-1384,4,0,0,0,723.734497
441,-1970,5,0,0,0,643.767151
1439,1545,1,1,0,5,78.760857
1216,731,2,0,0,0,718.541992
-962,284,3,0,0,0,866.504517
-1523,-54,4,0,0,0,698.065796
804,-1814,5,0,0,0,648.694336
1191,1937,1,0,0,0,552.430786
1770,649,2,0,0,0,637.286194
-578,583,3,1,0,5,78.760857
-1054,-1547,4,1,0,3,76.893394
532,-457,5,0,0,0,947.353882
215,629,1,0,0,0,904.395874
1262,1003,2,0,0,0,681.989624
-27,212,3,0,0,0,1312.293701
-451,-136,4,0,0,0,1035.796997
1274,-616,5,0,0,0,745.429260
149,331,1,0,0,0,1078.771362
444,84,2,0,0,0,1047.784790
-1416,292,3,0,0,0,761.391846
-1666,-1865,4,0,0,0,557.078247
1651,-15,5,0,0,0,701.228638
945,1239,1,0,0,0,659.801880
1643,430,2,0,0,0,667.081726
-1880,1695,3,0,0,0,601.303101
-639,-1689,4,0,0,0,649.557739
1231,-1679,5,0,0,0,634.983154
578,900,1,0,0,0,767.578552
1910,613,2,0,0,0,619.606323
-1666,93,3,1,0,5,78.760857
-2000,-977,4,0,0,0,590.044189
551,-553,5,1,0,3,76.893394
335,1465,1,0,0,0,670.150024
1718,1546,2,0,0,0,579.379333
-1495,1053,3,0,0,0,694.054810
-1661,-1382,4,0,0,0,598.473267
942,-1211,5,1,0,3,76.893394
560,840,1,0,0,0,784.177002
1123,1107,2,0,0,0,688.294678
-836,1891,3,0,0,0,658.947083
-571,-1132,4,0,0,0,750.799377
1599,-552,5,0,0,0,694.286621
191,1495,1,0,0,0,669.326477
974,729,2,0,0,0,762.644104
-142,1619,3,0,0,0,727.832092
-279,-66,4,0,0,0,1179.000977
1819,-375,5,0,0,0,667.571106
1046,1119,1,1,0,5,78.760857
1292,1173,2,0,0,0,659.331848
-1971,1109,3,0,0,0,633.360291
-1539,-243,4,0,0,0,691.730469
1763,-470,5,1,0,3,76.893394
341,825,1,1,0,5,78.760857
1820,42,2,0,0,0,647.252625
-1215,107,3,0,0,0,810.245972
-716,-1587,4,0,0,0,659.988220
634,-362,5,0,0,0,935.786011
340,1706,1,0,0,0,628.410706
1104,1081,2,1,0,3,76.893394
-25,1880,3,1,0,5,78.760857
-1972,-1707,4,0,0,0,545.208008
1694,-1634,5,0,0,0,600.079285
738,1950,1,0,0,0,576.952942
552,550,2,0,0,0,890.758606
-909,1048,3,0,0,0,773.251099
-1661,-642,4,1,0,5,78.760857
387,-1645,5,0,0,0,694.572693
1530,1716,1,0,0,0,549.323853
1999,280,2,0,0,0,617.830566
-1907,396,3,1,0,5,78.760857
-1032,-516,4,1,0,5,78.760857
1754,-1489,5,0,0,0,606.531250
292,528,1,1,0,5,78.760857
1431,590,2,0,0,0,693.611877
-1092,1356,3,0,0,0,708.106628
-497,-870,4,0,0,0,818.417358
1908,-1604,5,1,0,3,76.893394
784,1815,1,0,0,0,592.017334
1197,747,2,0,0,0,720.130798
-1089,764,3,1,0,5,78.760857
-1770,-1090,4,0,0,0,609.473389
1569,-561,5,0,0,0,698.603394
1357,1565,1,1,0,5,78.760857
1384,180,2,0,0,0,723.257141
-1417,1488,3,1,0,5,78.760857
-1298,-982,4,0,0,0,679.238953
1792,-1028,5,0,0,0,637.181763
332,908,1,1,0,5,78.760857
915,808,2,0,0,0,761.680359
-1369,1746,3,0,0,0,638.814636
-293,-1758,4,1,0,3,76.893394
1154,-1973,5,0,0,0,608.401367
122,1643,1,0,0,0,643.903198
1619,855,2,0,0,0,645.625366
-997,359,3,1,0,5,78.760857
-1663,-701,4,0,0,0,649.735962
596,-585,5,1,0,3,76.893394
161,721,1,0,0,0,873.993958
1557,1517,2,0,0,0,596.759216
-578,1427,3,1,0,5,78.760857
-298,-530,4,0,0,0,962.222229
1145,-1966,5,1,0,3,76.893394
354,912,1,0,0,0,793.214233
521,71,2,0,0,0,1004.094543
-433,1859,3,0,0,0,681.783142
-1147,-1299,4,0,0,0,661.323486
1539,-1464,5,0,0,0,629.267883
116,332,1,0,0,0,1087.898682
167,68,2,0,0,0,1312.783325
-1378,118,3,1,0,5,78.760857
-102,-537,4,0,0,0,992.919128
1074,-606,5,0,0,0,784.939087
445,827,1,0,0,0,804.958496
918,114,2,0,0,0,841.385864
-1278,1156,3,1,0,5,78.760857
-585,-1735,4,0,0,0,645.614380
867,-1474,5,0,0,0,691.177795
273,1974,1,0,0,0,589.773071
567,541,2,0,0,0,889.116455
-884,819,3,0,0,0,813.713745
-118,-1101,4,0,0,0,789.679199
1331,-1820,5,0,0,0,612.276550
642,1541,1,0,0,0,640.143921
1485,1412,2,0,0,0,613.546692
-609,1865,3,1,0,5,78.760857
-65,-1910,4,1,0,3,76.893394
127,-1783,5,1,0,3,76.893394
783,1235,1,0,0,0,677.962158
1587,647,2,0,0,0,664.489136
-1757,1413,3,1,0,5,78.760857
-1120,-1381,4,0,0,0,653.978638
1050,-1796,5,1,0,3,76.893394
164,1313,1,0,0,0,706.564575
691,672,2,0,0,0,829.557983
-629,385,3,0,0,0,955.086243
-600,-1815,4,0,0,0,633.327026
1224,-1242,5,0,0,0,685.595459
784,1024,1,0,0,0,713.918518
1954,1123,2,0,0,0,586.518250
-1712,1852,3,0,0,0,602.339172
-1064,-389,4,1,0,5,78.760857
46,-934,5,0,0,0,864.498962
118,786,1,0,0,0,852.945740
1348,241,2,1,0,3,76.893394
-85,1216,3,0,0,0,810.419434
-1801,-8,4,0,0,0,650.319946
11,-1432,5,0,0,0,742.016907
324,521,1,0,0,0,927.483032
1513,749,2,1,0,3,76.893394
-1317,318,3,1,0,5,78.760857
-541,-341,4,0,0,0,947.681885
1077,-1177,5,0,0,0,711.053467
144,1756,1,0,0,0,624.776062
1812,812,2,0,0,0,622.506775
-678,616,3,0,0,0,892.624390
-557,-1056,4,0,0,0,768.053162
1680,-748,5,0,0,0,670.393738
401,1480,1,0,0,0,664.400513
1665,849,2,1,0,3,76.893394
-508,28,3,1,0,5,78.760857
-1193,-1247,4,0,0,0,662.505554
111,-144,5,0,0,0,1336.690674
154,1728,1,0,0,0,629.181824
1582,424,2,0,0,0,677.449341
-915,37,3,1,0,5,78.760857
-197,-1685,4,1,0,3,76.893394
1515,-1673,5,0,0,0,611.991821
87,1427,1,0,0,0,684.419128
1040,802,2,0,0,0,740.692627
-376,1349,3,1,0,5,78.760857
-664,-609,4,0,0,0,848.969727
552,-1611,5,0,0,0,692.373169
579,1219,1,0,0,0,700.925598
1477,1009,2,0,0,0,652.271423
-705,477,3,1,0,5,78.760857
-125,-1211,4,0,0,0,762.447388
39,-47,5,0,0,0,1651.449097
356,1164,1,0,0,0,730.487061
1732,1216,2,1,0,3,76.893394
-1170,1643,3,0,0,0,666.015259
-1236,-1158,4,0,0,0,667.860718
1448,-941,5,1,0,3,76.893394
877,1962,1,0,0,0,568.380005
801,735,2,0,0,0,794.966187
-481,1527,3,0,0,0,732.142456
-1345,-828,4,0,0,0,687.833313
1019,-1889,5,0,0,0,626.304565
1056,1845,1,0,0,0,571.458740
1551,1234,2,0,0,0,623.025146
-1386,1369,3,1,0,5,78.760857
-1534,-424,4,0,0,0,685.652771
1469,-350,5,0,0,0,726.793152
695,769,1,0,0,0,776.603455
1546,1111,2,0,0,0,634.493469
-668,14,3,0,0,0,983.536743
-686,-532,4,0,0,0,859.665405
1240,-1999,5,0,0,0,600.232971
24,303,1,1,0,5,78.760857
1791,721,2,0,0,0,630.497986
-697,1176,3,0,0,0,777.476135
-1709,-266,4,1,0,5,78.760857
109,-1721,5,1,0,3,76.893394
242,1619,1,0,0,0,645.733154
1778,1414,2,0,0,0,584.263245
-1508,1064,3,0,0,0,691.412537
-171,-1989,4,0,0,0,620.974548
1360,-1098,5,0,0,0,684.916626
641,895,1,1,0,5,78.760857
877,756,2,0,0,0,776.851440
-1858,21,3,1,0,5,78.760857
-1644,-1429,4,0,0,0,596.182678
1954,-504,5,0,0,0,643.880859
1199,1337,1,0,0,0,619.337830
1460,130,2,0,0,0,709.211548
-1720,1704,3,0,0,0,613.947144
-1290,-259,4,0,0,0,740.163269
959,-1682,5,0,0,0,655.684448
609,1332,1,0,0,0,677.508850
1948,1030,2,0,0,0,592.905457
-1356,1705,3,1,0,5,78.760857
-1855,-369,4,0,0,0,636.363525
1199,-1755,5,1,0,3,76.893394
210,991,1,0,0,0,783.196472
561,103,2,0,0,0,980.646851
-515,1157,3,1,0,5,78.760857
-1125,-618,4,0,0,0,747.265625
1066,-1998,5,0,0,0,611.040100
81,1393,1,0,0,0,691.366028
1878,1272,2,1,0,3,76.893394
-427,255,3,0,0,0,1068.648682
-1373,-1700,4,0,0,0,595.277466
746,-667,5,0,0,0,844.997131
404,1340,1,1,0,5,78.760857
1983,1672,2,1,0,3,76.893394
-97,446,3,0,0,0,1093.408936
-1595,-1327,4,1,0,3,76.893394
718,-1672,5,0,0,0,673.416748
89,758,1,0,0,0,864.621826
1946,638,2,0,0,0,613.716309
-149,882,3,0,0,0,899.479187
-1224,-1881,4,1,0,3,76.893394
1147,-1409,5,0,0,0,673.858582
1873,1993,1,0,0,0,500.546051
1957,139,2,1,0,3,76.893394
-523,106,3,1,0,5,78.760857
-945,-1219,4,0,0,0,694.623230
410,-748,5,0,0,0,890.964233
502,1528,1,0,0,0,650.768616
1126,148,2,0,0,0,782.408691
-476,589,3,1,0,5,78.760857
-1936,-1223,4,0,0,0,581.997925
1058,-588,5,1,0,3,76.893394
154,242,1,0,0,0,1146.672852
1488,946,2,0,0,0,656.368713
-615,631,3,0,0,0,903.816101
-1954,-1792,4,0,0,0,540.587036
1955,-612,5,0,0,0,639.589233
1008,1690,1,1,0,5,78.760857
1961,454,2,0,0,0,618.627686
-613,383,3,1,0,5,78.760857
-1800,-651,4,1,0,5,78.760857
853,-1626,5,0,0,0,670.834534
990,1470,1,1,0,5,78.760857
1020,399,2,1,0,3,76.893394
-1047,488,3,0,0,0,825.883789
-88,-1268,4,0,0,0,750.077759
1187,-334,5,0,0,0,784.956726
838,1431,1,1,0,5,78.760857
1808,1537,2,0,0,0,571.903259
-124,1767,3,0,0,0,703.163635
-146,-1257,4,0,0,0,751.344788
1100,-1600,5,0,0,0,654.879517
1186,1413,1,0,0,0,611.696533
1443,77,2,0,0,0,713.290405
-1494,1500,3,0,0,0,652.189148
-607,-1469,4,0,0,0,686.021606
1632,-1999,5,0,0,0,573.972168
743,1915,1,1,0,5,78.760857
1126,641,2,1,0,3,76.893394
-367,92,3,0,0,0,1147.513672
-1338,-1762,4,1,0,3,76.893394
1815,-254,5,0,0,0,671.375732
458,698,1,0,0,0,838.805359
1072,391,2,0,0,0,781.047180
-1283,1384,3,0,0,0,685.031433
-1055,-1148,4,0,0,0,691.532654
882,-90,5,0,0,0,879.846497
1142,1715,1,0,0,0,580.308167
991,248,2,1,0,3,76.893394
-26,1704,3,0,0,0,714.232056
-149,-1928,4,0,0,0,630.045288
669,-1415,5,0,0,0,716.529785
104,1325,1,0,0,0,705.296509
1338,674,2,0,0,0,702.951111
-691,1525,3,0,0,0,719.312500
-236,-281,4,1,0,3,76.893394
1301,-1212,5,0,0,0,680.024109
779,1404,1,1,0,5,78.760857
845,607,2,0,0,0,807.585754
-198,1870,3,0,0,0,686.056824
-422,-1726,4,0,0,0,654.177490
1488,-302,5,1,0,3,76.893394
959,1651,1,0,0,0,601.921143
913,416,2,0,0,0,818.028870
-1079,389,3,0,0,0,827.923157
-1920,-1551,4,1,0,3,76.893394
638,-1798,5,0,0,0,659.894714
366,839,1,0,0,0,812.327820
1733,1510,2,0,0,0,580.932922
-1413,882,3,1,0,5,78.760857
-1019,-1214,4,0,0,0,686.830688
28,-1037,5,1,0,3,76.893394
229,1329,1,0,0,0,701.123779
1352,1230,2,0,0,0,646.110718
-518,396,3,1,0,5,78.760857
-282,-1073,4,0,0,0,789.126526
904,-657,5,1,0,3,76.893394
521,794,1,0,0,0,801.748047
1497,102,2,1,0,3,76.893394
-422,1943,3,0,0,0,670.112366
-1704,-240,4,0,0,0,663.324951
1306,-552,5,0,0,0,744.870789
102,1289,1,0,0,0,713.171936
1606,1268,2,0,0,0,613.950684
-384,1476,3,1,0,5,78.760857
-551,-648,4,1,0,3,76.893394
1283,-1723,5,0,0,0,626.053406
1398,1999,1,1,0,5,78.760857
192,17,2,0,0,0,1293.539429
-1275,1528,3,0,0,0,669.856812
-317,-945,4,1,0,3,76.893394
1164,-1921,5,0,0,0,613.366760
901,1587,1,0,0,0,614.771423
1385,266,2,0,0,0,720.263000
-1950,834,3,0,0,0,651.679993
-392,-1102,4,1,0,3,76.893394
175,-881,5,1,0,3,76.893394
1605,1635,1,0,0,0,550.296387
1054,738,2,0,0,0,746.569763
-463,1741,3,0,0,0,698.328796
-592,-522,4,0,0,0,887.073486
1301,-1047,5,0,0,0,697.969238
1465,1717,1,0,0,0,554.524658
912,731,2,0,0,0,774.152161
-135,1169,3,0,0,0,820.549133
-262,-905,4,0,0,0,836.113342
1282,-94,5,0,0,0,773.015015
842,1351,1,1,0,5,78.760857
1295,211,2,0,0,0,740.963745
-541,1850,3,0,0,0,678.992310
-1830,-483,4,0,0,0,636.164246
506,-731,5,1,0,3,76.893394
1497,1645,1,1,0,5,78.760857
1763,65,2,1,0,3,76.893394
-581,1203,3,1,0,5,78.760857
-1966,-1738,4,0,0,0,543.494995
112,-1410,5,1,0,3,76.893394
956,1836,1,1,0,5,78.760857
1918,1531,2,0,0,0,562.397827
-1179,1092,3,1,0,5,78.760857
-1875,-1197,4,0,0,0,590.218628
190,-1325,5,0,0,0,761.390137
1794,1925,1,0,0,0,511.357147
1981,1240,2,0,0,0,576.224243
-375,1282,3,1,0,5,78.760857
-224,-1684,4,0,0,0,666.998413
384,-792,5,0,0,0,881.931702
1245,1901,1,0,0,0,552.611755
1560,159,2,0,0,0,689.897034
-231,488,3,0,0,0,1044.969971
-279,-769,4,0,0,0,876.763245
1938,-1501,5,0,0,0,588.539124
721,1453,1,0,0,0,648.347961
575,301,2,0,0,0,943.425293
-423,1458,3,0,0,0,747.382263
-1278,-123,4,0,0,0,747.190491
263,-426,5,0,0,0,1044.518677
382,1058,1,0,0,0,753.125916
1854,90,2,0,0,0,641.713562
-961,1336,3,0,0,0,724.237061
-1730,-1187,4,0,0,0,606.837585
669,-969,5,0,0,0,798.211426
1531,1594,1,1,0,3,76.893394
1822,890,2,1,0,3,76.893394
-883,970,3,0,0,0,789.343811
-1983,-1655,4,1,0,3,76.893394
182,-1365,5,0,0,0,753.245911
558,1754,1,1,0,5,78.760857
1921,269,2,0,0,0,629.163818
-1679,548,3,0,0,0,704.002136
-821,-1631,4,1,0,3,76.893394
1854,-1953,5,0,0,0,561.923584
40,1521,1,0,0,0,666.614258
1193,645,2,0,0,0,731.478577
-1167,1437,3,0,0,0,690.545715
-1840,-846,4,1,0,5,78.760857
1490,-958,5,1,0,3,76.893394
498,1331,1,0,0,0,686.132141
1340,283,2,1,0,3,76.893394
-571,485,3,0,0,0,950.548889
-280,-1727,4,0,0,0,658.595947
1033,-534,5,0,0,0,801.808899
27,1048,1,0,0,0,773.346497
1567,1564,2,0,0,0,591.568420
-1094,1578,3,1,0,5,78.760857
-496,-1962,4,0,0,0,617.096985
254,-779,5,0,0,0,902.548767
671,1940,1,0,0,0,581.364868
613,587,2,0,0,0,866.165222
-1132,719,3,0,0,0,782.991333
-92,-1732,4,1,0,3,76.893394
1387,-1202,5,0,0,0,670.958008
554,1021,1,1,0,5,78.760857
1622,558,2,0,0,0,664.242737
-1882,985,3,0,0,0,651.233582
-505,-1770,4,0,0,0,644.113098
213,-12,5,1,0,0,399.927307
742,785,1,1,0,5,78.760857
994,660,2,1,0,3,76.893394
-84,1119,3,1,0,5,78.760857
-955,-1778,4,0,0,0,617.868530
547,-1815,5,0,0,0,661.727356
1455,1788,1,0,0,0,548.567566
1786,698,2,0,0,0,632.442017
-233,1408,3,1,0,5,78.760857
-1533,-285,4,0,0,0,691.510071
1513,-1246,5,0,0,0,652.191406
936,1215,1,0,0,0,664.332520
1753,1575,2,1,0,3,76.893394
-226,923,3,0,0,0,882.064697
-347,-753,4,1,0,3,76.893394
1517,-665,5,0,0,0,700.313293
1025,1554,1,1,0,5,78.760857
1030,890,2,1,0,3,76.893394
-1212,1770,3,0,0,0,648.425171
-1733,-1417,4,0,0,0,588.431519
709,-1498,5,1,0,3,76.893394
512,1831,1,0,0,0,603.125488
1000,362,2,0,0,0,801.277466
-1209,320,3,0,0,0,803.047241
-492,-909,4,0,0,0,809.474243
760,-705,5,0,0,0,834.846436
715,738,1,1,0,5,78.760857
746,312,2,0,0,0,880.101624
-1361,554,3,0,0,0,756.736328
-341,-1109,4,0,0,0,776.263916
1334,-1937,5,0,0,0,600.286377
395,1684,1,0,0,0,630.027527
1839,1737,2,0,0,0,553.834717
-759,1898,3,0,0,0,662.200256
-527,-1370,4,0,0,0,708.803467
1754,-33,5,0,0,0,683.871948
219,1812,1,0,0,0,614.731445
1929,1151,2,0,0,0,587.453918
-711,356,3,0,0,0,933.391357
-1382,-1835,4,1,0,3,76.893394
1163,-1907,5,0,0,0,614.951843
59,152,1,0,0,0,1309.631348
1733,253,2,0,0,0,658.299255
-742,757,3,0,0,0,850.608765
-236,-1787,4,0,0,0,650.082825
1297,-1717,5,0,0,0,625.576660
239,1979,1,0,0,0,589.688843
1690,1652,2,0,0,0,573.064941
-1676,1503,3,0,0,0,634.668457
-27,-583,4,0,0,0,974.029419
97,-61,5,1,0,0,661.106750
1050,1134,1,0,0,0,662.155334
1372,100,2,1,0,3,76.893394
-1389,860,3,0,0,0,726.342407
-1289,-257,4,0,0,0,740.462830
1115,-1344,5,0,0,0,685.180908
227,258,1,0,0,0,1094.564087
1017,444,2,0,0,0,789.059631
-1739,1512,3,0,0,0,628.016174
-682,-1645,4,0,0,0,653.546448
1073,-611,5,0,0,0,784.567627
1067,1560,1,1,0,5,78.760857
1286,118,2,0,0,0,745.519958
-461,1265,3,0,0,0,781.848755
-494,-689,4,0,0,0,866.481506
521,-1155,5,0,0,0,777.149170
138,1938,1,0,0,0,596.967712
956,950,2,0,0,0,733.270081
-70,513,3,0,0,0,1057.053223
-801,-1528,4,0,0,0,662.595337
610,-1162,5,0,0,0,767.059509
315,586,1,0,0,0,904.149963
1691,1060,2,0,0,0,621.056091
-666,129,3,1,0,5,78.760857
-1806,-533,4,0,0,0,637.622437
1165,-809,5,0,0,0,744.773560
785,941,1,0,0,0,728.557800
743,721,2,1,0,3,76.893394
-1151,645,3,0,0,0,787.664001
-1711,-1340,4,0,0,0,596.832031
1485,-1260,5,0,0,0,654.018005
441,1169,1,0,0,0,723.003662
556,356,2,0,0,0,938.501587
-658,607,3,0,0,0,899.247742
-1230,-1416,4,0,0,0,638.743286
1889,-37,5,0,0,0,662.674133
827,989,1,1,0,5,78.760857
1809,1389,2,0,0,0,583.138245
-1963,432,3,0,0,0,667.014221
-716,-401,4,0,0,0,875.850952
1391,-545,5,0,0,0,729.878418
528,1140,1,1,0,5,78.760857
1693,827,2,1,0,3,76.893394
-1656,1784,3,1,0,5,78.760857
-1339,-1628,4,0,0,0,605.506165
1019,-935,5,0,0,3,76.893394
539,1242,1,1,0,5,78.760857
885,695,2,0,0,0,785.053406
-1405,1691,3,0,0,0,641.420776
-1229,-468,4,0,0,0,740.305664
1558,-1479,5,0,0,0,626.053650
699,1270,1,1,0,5,78.760857
1446,1024,2,0,0,0,654.978333
-1861,605,3,1,0,5,78.760857
-831,-1782,4,1,0,3,76.893394
937,-1336,5,0,0,0,704.584717
214,898,1,0,0,0,809.891174
1931,1659,2,0,0,0,552.038513
-76,1862,3,0,0,0,688.639709
-304,-274,4,1,0,3,76.893394
1924,-881,5,0,0,0,630.341614
114,1234,1,0,0,0,725.344604
1027,621,2,0,0,0,766.551575
-329,539,3,0,0,0,999.807129
-1051,-1515,4,0,0,0,643.613098
556,-1811,5,0,0,0,661.909485
262,1457,1,0,0,0,674.450867
1149,261,2,1,0,3,76.893394
-890,67,3,1,0,5,78.760857
-1970,-1105,4,0,0,0,585.886536
1130,-86,5,0,0,0,809.218445
709,1350,1,0,0,0,665.989868
1116,302,2,0,0,0,777.281128
-1906,126,3,0,0,0,681.573608
-1787,-71,4,0,0,0,652.324768
313,-1148,5,0,0,0,795.201477
747,1477,1,0,0,0,642.585022
1079,362,2,1,0,3,76.893394
-548,356,3,0,0,0,989.932861
-847,-1494,4,0,0,0,663.893982
1101,-1851,5,0,0,0,625.327759
321,750,1,1,0,5,78.760857
1120,805,2,0,0,0,726.639526
-1130,301,3,0,0,0,822.355103
-615,-142,4,0,0,0,951.455750
467,-502,5,1,0,3,76.893394
753,1353,1,0,0,0,661.608459
1504,1423,2,0,0,0,610.598267
-1293,609,3,0,0,0,764.697754
-1360,-998,4,1,0,5,78.760857
663,-214,5,1,0,3,76.893394
557,643,1,0,0,0,833.392151
888,668,2,0,0,0,788.670227
-561,976,3,0,0,0,833.298645
-1853,-2,4,0,0,0,642.203003
551,-1061,5,1,0,3,76.893394
1392,1766,1,0,0,0,555.578796
1714,345,2,0,0,0,658.787598
-1167,1265,3,0,0,0,711.408508
-940,-211,4,0,0,0,829.704224
1236,-1793,5,0,0,0,622.166748
203,472,1,0,0,0,978.596802
1335,628,2,0,0,0,707.350159
-943,588,3,0,0,0,837.012329
-577,-613,4,0,0,0,868.509888
1889,-1951,5,1,0,3,76.893394
890,1501,1,1,0,5,78.760857
-268,655,3,0,0,0,966.958496
-1441,-165,4,0,0,0,712.229309
1607,-1398,5,1,0,3,76.893394
41,1993,1,0,0,0,589.682861
-1268,173,3,1,0,5,78.760857
-448,-619,4,0,0,0,896.401672
517,-1185,5,0,0,0,771.360291
51,393,1,0,0,0,1053.458252
-1411,1133,3,0,0,0,697.048767
-905,-1962,4,0,0,0,598.484741
1307,-375,5,0,0,0,756.884094
547,1965,1,0,0,0,583.172546
-1866,1058,3,0,0,0,648.441467
-1474,-1942,4,0,0,0,564.256348
354,-27,5,0,0,0,1143.637939
1266,1798,1,0,0,0,561.888306
-1327,1467,3,0,0,0,671.576782
-1899,-735,4,0,0,0,615.337646
915,-564,5,1,0,3,76.893394
728,924,1,1,0,5,78.760857
-856,706,3,0,0,0,837.458069
-1041,-780,4,0,0,0,743.439819
769,-106,5,0,0,0,918.109131
865,1399,1,0,0,0,644.371948
-1428,1049,3,1,0,5,78.760857
-762,-592,4,1,0,5,78.760857
1489,-747,5,0,0,0,698.673279
400,1771,1,0,0,0,616.228027
-152,605,3,1,0,5,78.760857
-637,-1425,4,0,0,0,691.211487
643,-1581,5,0,0,0,691.734253
265,950,1,0,0,0,790.881531
-1385,511,3,0,0,0,755.406250
-158,-387,4,0,0,0,1070.247559
39,-851,5,0,0,0,891.337585
501,1057,1,0,0,0,741.902771
-1214,651,3,0,0,0,775.279053
-513,-1503,4,0,0,0,686.261353
1094,-759,5,0,0,0,762.905090
1496,1835,1,1,0,5,78.760857
-1284,1007,3,0,0,0,726.676575
-1321,-1637,4,1,0,3,76.893394
858,-1100,5,1,0,3,76.893394
752,1369,1,0,0,0,659.126160
-186,955,3,0,0,0,875.274902
-946,-622,4,0,0,0,783.300171
1831,-1225,5,0,0,0,618.884583
1296,1888,1,1,0,5,78.760857
-1481,1669,3,0,0,0,637.195068
-1996,-432,4,0,0,0,614.509338
365,-57,5,0,0,0,1132.173462
144,1065,1,0,0,0,766.219910
-142,1529,3,0,0,0,744.101990
-98,-1041,4,0,0,0,806.157349
796,-1899,5,0,0,0,638.127747
1297,1785,1,1,0,5,78.760857
-794,768,3,0,0,0,838.738647
-220,-635,4,1,0,3,76.893394
134,-1367,5,0,0,0,753.981934
439,935,1,0,0,0,777.601501
-940,1821,3,0,0,0,661.479004
-823,-104,4,0,0,0,872.745667
1726,-1568,5,1,0,3,76.893394
350,1979,1,0,0,0,587.374390
-203,151,3,1,0,0,352.188477
-945,-1829,4,0,0,0,612.221863
1292,-600,5,0,0,0,743.527222
426,1393,1,0,0,0,679.062134
-1693,763,3,0,0,0,689.648438
-347,-1993,4,0,0,0,617.201477
692,-782,5,0,0,0,832.752441
148,743,1,1,0,5,78.760857
-395,1624,3,0,0,0,719.809631
-890,-1695,4,0,0,0,632.902771
1775,-194,5,0,0,0,678.821045
715,1786,1,0,0,0,599.773682
-1067,1574,3,0,0,0,682.862793
-1923,-814,4,0,0,0,608.178894
200,-1123,5,0,0,0,807.346863
-1519,1841,3,0,0,0,618.018005
-1179,-1671,4,0,0,0,614.113037
947,-426,5,0,0,0,834.357788
-1457,1994,3,0,0,0,608.315186
-698,-1927,4,0,0,0,613.493713
1851,-1009,5,0,0,0,631.416138
-354,1749,3,1,0,5,78.760857
-1732,-882,4,1,0,5,78.760857
968,-114,5,0,0,0,852.575684
-1751,1288,3,0,0,0,644.659790
-388,-391,4,1,0,3,76.893394
157,-1706,5,1,0,3,76.893394
-1501,166,3,0,0,0,748.892700
-1033,-508,4,1,0,5,78.760857
1772,-1704,5,1,0,3,76.893394
-488,1870,3,0,0,0,678.230103
-958,-664,4,0,0,0,774.936951
1349,-1705,5,0,0,0,622.639343
-916,1305,3,0,0,0,733.322510
-1667,-1125,4,0,0,0,618.878113
125,-915,5,0,0,0,868.102112
-247,1153,3,0,0,0,819.965637
-232,-939,4,0,0,0,828.558533
1715,-575,5,1,0,3,76.893394
-160,583,3,0,0,0,1012.365356
-833,-1277,4,1,0,3,76.893394
257,-1820,5,0,0,0,670.539856
-1892,1852,3,0,0,0,588.554810
-698,-636,4,1,0,3,76.893394
1642,-121,5,0,0,0,702.030396
-1104,1370,3,0,0,0,705.090759
-1048,-1744,4,0,0,0,615.563843
470,-252,5,0,0,0,1026.302979
-1425,1573,3,0,0,0,651.461182
-850,-171,4,0,0,0,860.024658
1964,-302,5,0,0,0,648.278320
-329,391,3,0,0,0,1060.838745
-1184,-1440,4,1,0,3,76.893394
1970,-1156,5,0,0,0,608.597595
-761,1094,3,0,0,5,78.760857
-281,-770,4,0,0,0,876.192566
1602,-1601,5,0,0,0,611.005676
-1385,802,3,0,0,0,732.235413
-377,-506,4,0,0,0,951.536743
1791,-528,5,0,0,0,666.043335
-1311,1840,3,1,0,5,78.760857
-1052,-680,4,0,0,0,754.265015
422,-246,5,0,0,0,1051.618652
-647,103,3,0,0,0,989.199646
-138,-1913,4,0,0,0,632.379456
874,-1687,5,1,0,3,76.893394
-1531,1951,3,0,0,0,607.120667
-1769,-11,4,1,0,5,78.760857
432,-1289,5,0,0,0,756.940552
-1908,1040,3,1,0,5,78.760857
-280,-629,4,0,0,0,926.409668
1651,-1226,5,0,0,0,638.495850
-1424,1919,3,1,0,5,78.760857
-1410,-1710,4,0,0,0,591.261353
1059,-561,5,0,0,0,793.152893
-1327,1671,3,0,0,0,649.942200
-1115,-1012,4,1,0,3,76.893394
858,-1555,5,0,0,0,680.357117
-661,1929,3,1,0,5,78.760857
-1389,-188,4,0,0,0,722.025635
1380,-1295,5,0,0,0,662.205505
-432,1321,3,0,0,0,772.723938
-1130,-235,4,1,0,5,78.760857
77,-192,5,0,0,0,1299.452759
-1307,356,3,0,0,0,780.097473
-349,-1151,4,0,0,0,765.931946
1272,-1031,5,0,0,0,703.615845
-1545,706,3,1,0,5,78.760857
-1575,-1426,4,0,0,0,603.260254
1626,-1012,5,0,0,0,658.794067
-1490,917,3,0,0,0,706.706177
-161,-393,4,1,0,3,76.893394
1478,-204,5,0,0,0,730.251587
-897,860,3,0,0,0,804.885071
-858,-1300,4,0,0,0,691.813416
0,-549,5,0,0,0,1017.935669
-231,921,3,0,0,0,882.288513
-1591,-818,4,0,0,0,652.235779
10,-449,5,1,0,3,76.893394
-1517,268,3,0,0,0,743.185791
-1603,-1468,4,0,0,0,596.786682
1719,-1318,5,1,0,3,76.893394
-1263,1634,3,0,0,0,659.269653
-1940,-477,4,0,0,0,620.768799
729,-453,5,1,0,3,76.893394
-193,1809,3,0,0,0,695.521973
-444,-879,4,0,0,0,823.390808
1072,-1863,5,0,0,0,625.895081
-932,470,3,1,0,5,78.760857
-1200,-749,4,0,0,0,719.399841
827,-1089,5,0,0,0,755.265076
-254,979,3,0,0,0,864.113159
-1725,-1656,4,0,0,0,569.740479
1253,-513,5,0,0,0,758.107300
-1728,202,3,0,0,0,708.315186
-1677,-1865,4,0,0,0,556.250061
1310,-1068,5,0,0,0,694.525940
-519,1746,3,0,0,0,695.170227
-763,-700,4,1,0,3,76.893394
1842,-772,5,0,0,0,646.824341
-382,1921,3,0,0,0,674.411682
-601,-1548,4,0,0,0,673.507629
200,-571,5,0,0,0,989.930054
-1457,1880,3,0,0,0,619.005371
-1338,-1032,4,0,0,0,668.529358
1836,-1434,5,1,0,3,76.893394
-1737,92,3,0,0,0,708.369751
-9,-560,4,1,0,3,76.893394
1020,-456,5,0,0,0,813.300842
-352,1947,3,0,0,0,671.515015
-1792,-1484,4,1,0,3,76.893394
1201,-1999,5,0,0,0,602.697754
-1137,1463,3,0,0,0,690.283813
-392,-301,4,0,0,0,1021.952393
1227,-1774,5,0,0,0,624.892090
-520,1495,3,0,0,0,735.405029
-1889,-1253,4,1,0,5,78.760857
1346,-321,5,0,0,0,751.859497
-1420,1279,3,0,0,0,681.435486
-1357,-776,4,0,0,0,690.787476
1791,-182,5,0,0,0,676.484497
-1266,1776,3,0,0,0,643.697754
-1437,-1558,4,0,0,0,603.946838
325,-728,5,0,0,0,910.427734
-504,768,3,0,0,0,891.820374
-920,-1056,4,0,0,0,722.254211
1328,-1269,5,0,0,0,670.730103
-1145,1745,3,1,0,5,78.760857
-1530,-1768,4,0,0,0,576.100830
1062,-1995,5,0,0,0,611.609619
-1875,1082,3,0,0,0,645.829834
-1044,-1692,4,0,0,0,622.142212
1043,-1913,5,0,0,0,622.020691
-577,1339,3,0,0,0,758.972839
-645,-969,4,1,0,3,76.893394
1860,-1700,5,1,0,3,76.893394
-634,835,3,0,0,0,853.771729
-92,-622,4,0,0,0,952.559753
881,-1804,5,0,0,0,645.343994
-1348,1086,3,1,0,5,78.760857
-770,-162,4,0,0,0,887.955139
1017,-816,5,0,0,3,76.893394
-57,1174,3,0,0,0,820.888062
-716,-1269,4,0,0,0,710.920410
734,-1345,5,1,0,3,76.893394
-1474,631,3,0,0,0,731.709778
-1434,-1886,4,0,0,0,572.353271
95,-1837,5,0,0,0,670.322449
-313,1160,3,0,0,0,814.572144
-546,-686,4,0,0,0,856.812256
1556,-1741,5,1,0,3,76.893394
-1523,631,3,0,0,0,723.747070
-684,-921,4,1,0,3,76.893394
622,-1201,5,1,0,3,76.893394
-42,974,3,0,0,0,874.695374
-956,-258,4,0,0,0,821.809509
1661,-651,5,0,0,0,679.069702
-254,800,3,0,0,0,917.804810
-1473,-1395,4,0,0,0,616.393738
1120,-1647,5,1,0,3,76.893394
-1625,1206,3,1,0,5,78.760857
-918,-1256,4,0,0,0,692.162048
650,-978,5,0,0,0,798.994507
-975,1860,3,1,0,5,78.760857
-1732,-1381,4,1,0,3,76.893394
1553,-1547,5,0,0,0,620.304016
-1585,455,3,0,0,0,723.664795
-1505,-80,4,0,0,0,701.245239
146,-1673,5,0,0,0,696.365173
-34,1914,3,0,0,0,680.954224
-1882,-764,4,0,0,0,616.053101
355,-1134,5,0,0,0,795.596741
-36,909,3,1,0,5,78.760857
-1093,-1794,4,1,0,3,76.893394
1889,-1219,5,0,0,0,613.108948
-1223,1941,3,0,0,0,629.283630
-48,-1571,4,1,0,3,76.893394
371,-1773,5,0,0,0,674.714783
-1068,195,3,0,0,0,843.729248
-225,-183,4,0,0,0,1175.675903
343,-1179,5,0,0,0,786.174072
-420,880,3,0,0,0,874.640747
-1993,-1998,4,0,0,0,523.028137
829,-830,5,1,0,3,76.893394
-1884,679,3,0,0,0,668.061279
-164,-613,4,0,0,0,949.917419
1634,-1363,5,0,0,0,628.766479
-741,552,3,0,0,0,890.133423
-1600,-370,4,0,0,0,676.683899
201,-201,5,0,0,0,1207.766724
-869,1714,3,0,0,0,679.850281
-1632,-243,4,0,0,0,675.334961
1168,-1171,5,0,0,0,700.733765
-691,886,3,0,0,0,833.846680
-528,-95,4,0,0,0,998.307434
158,-1823,5,0,0,0,671.821045
-1291,678,3,0,0,0,758.938049
-827,-84,4,1,0,5,78.760857
1760,-476,5,1,0,3,76.893394
-351,496,3,0,0,0,1010.902527
-1371,-1834,4,1,0,3,76.893394
1932,-289,5,1,0,3,76.893394
-1185,512,3,0,0,0,793.944214
-1168,-1844,4,0,0,0,595.592163
832,-1995,5,1,0,3,76.893394
-648,660,3,1,0,5,78.760857
-397,-1283,4,0,0,0,734.279114
871,-1712,5,0,0,0,657.957397
-248,1156,3,0,0,0,819.200073
-1333,-412,4,0,0,0,723.347046
1749,-1469,5,0,0,0,608.605103
-284,1303,3,0,0,0,784.591125
-925,-1993,4,0,0,0,593.724182
1939,-1639,5,0,0,0,578.583984
-1923,1148,3,0,0,0,636.142456
-1837,-688,4,0,0,0,625.970886
248,-630,5,0,0,0,957.506714
-765,1881,3,0,0,0,664.095947
-1432,-368,4,1,0,5,78.760857
713,-1971,5,0,0,0,633.062683
-1061,1782,3,0,0,0,658.065796
-27,-1011,4,0,0,0,815.730042
107,-869,5,0,0,0,883.446472
-1666,826,3,1,0,5,78.760857
-1421,-1917,4,0,0,0,570.331604
1032,-43,5,1,0,3,76.893394
-1271,575,3,0,0,0,771.657410
-1320,-152,4,0,0,0,737.347961
1084,-334,5,0,0,0,808.959412
-336,395,3,0,0,0,1056.595825
-1742,-1332,4,0,0,0,594.280640
756,-58,5,1,0,3,76.893394
-1354,5,3,0,0,0,780.226135
-248,-1880,4,0,0,0,635.619751
1268,-26,5,0,0,0,776.878174
-1134,1503,3,1,0,5,78.760857
-587,-710,4,0,0,0,842.576111
1106,-1943,5,0,0,0,614.687988
-1131,670,3,0,0,0,788.721191
-1344,-759,4,0,0,0,694.417053
144,-1062,5,0,0,0,825.275452
-707,991,3,0,0,5,78.760857
-411,-1468,4,0,0,0,697.973267
1324,-54,5,1,0,3,76.893394
-1142,1147,3,1,0,5,78.760857
-977,-100,4,0,0,0,824.171082
824,-253,5,1,0,3,76.893394
-1733,310,3,0,0,0,704.920959
-631,-1511,4,0,0,0,677.514099
1493,-810,5,0,0,0,693.109192
-687,1432,3,0,0,0,734.425720
-1266,-992,4,0,0,0,682.642212
149,-842,5,0,0,0,890.261658
-1521,1616,3,0,0,0,638.750000
-1967,-675,4,0,0,0,609.351013
758,-1367,5,0,0,0,716.912292
-384,183,3,0,0,0,1113.727661
-374,-407,4,0,0,0,989.698425
1592,-1352,5,0,0,0,634.066956
-1675,154,3,0,0,0,717.977966
-492,-395,4,0,0,0,951.564331
1371,-91,5,0,0,0,753.884644
-1526,461,3,0,0,0,733.372314
-1494,-764,4,0,0,0,670.521484
1495,-1667,5,0,0,0,614.249756
-334,1712,3,1,0,5,78.760857
-375,-1650,4,0,0,0,668.136780
1478,-1633,5,0,0,0,618.943604
-10,1423,3,0,0,0,765.947083
-319,-1924,4,0,0,0,627.622620
1525,-1522,5,0,0,0,625.213745
-1976,399,3,0,0,0,666.175842
-1069,-1475,4,0,0,0,647.070923
421,-329,5,0,0,0,1025.757446
-1401,835,3,1,0,5,78.760857
-1694,-1158,4,1,0,5,78.760857
1059,-419,5,0,0,0,807.798828
-1405,1953,3,1,0,5,78.760857
-308,-733,4,1,0,3,76.893394
1914,-1359,5,0,0,0,600.832764
-1733,1584,3,0,0,0,622.698608
-1853,-1079,4,0,0,0,600.649109
471,-1579,5,1,0,3,76.893394
-590,1256,3,0,0,0,773.172668
-1353,-858,4,0,0,0,683.754639
-1888,1834,3,1,0,5,78.760857
-669,-1650,4,0,0,0,653.595337
-267,1943,3,0,0,0,674.025818
-370,-753,4,0,0,0,869.485840
-319,1303,3,0,0,0,782.896667
-1082,-713,4,0,0,0,744.545227
-1201,1356,3,0,0,0,696.763672
-1555,-678,4,0,0,0,667.411011
-1405,186,3,1,0,5,78.760857
-446,-1659,4,0,0,0,663.809143
-293,1773,3,0,0,0,699.039368
-536,-1373,4,0,0,0,707.625610
-1998,961,3,1,0,5,78.760857
-750,-1952,4,1,0,3,76.893394
-1095,1928,3,0,0,0,639.001953
-1209,-1134,4,1,0,3,76.893394
-1866,160,3,0,0,0,687.216187
-1941,-89,4,1,0,5,78.760857
-1786,804,3,0,0,0,674.409973
-1195,-258,4,1,0,5,78.760857
-1748,1058,3,0,0,0,662.323914
-763,-1890,4,1,0,3,76.893394
-1758,304,3,0,0,0,701.110962
-1738,-1016,4,0,0,0,618.583435
-182,808,3,0,0,0,921.643250
-440,-741,4,0,0,0,861.769409
-1064,1925,3,0,0,0,641.296509
-1550,-1715,4,0,0,0,579.324097
-1147,1651,3,0,0,0,666.964294
-1128,-936,4,0,0,0,709.212830
-1842,330,3,0,0,0,687.448547
-1378,-640,4,0,0,0,698.928772
-1015,-848,4,1,0,3,76.893394
-1547,-1949,4,0,0,0,558.484680
-1566,-1541,4,1,0,3,76.893394
-1731,-1490,4,0,0,0,582.739319
-1165,-1038,4,0,0,0,691.312744
-1908,-297,4,0,0,0,630.453918
-445,-607,4,0,0,0,900.755554
-722,-1561,4,0,0,0,663.479980


each generation good chromosome number
2,3,3,