509.233948,506.245300,514.189392,514.189392,503.399323,506.726562,514.004028,514.004028,508.634308,513.599609,

avg. max avg. throughput in test times
510.422607
avg. BS TX power in all test times
MBS area 1,MBS area 2,MBS area 3,MBS area 4,CBSD 1,CBSD 2,CBSD 3,CBSD 4,CBSD 5,CBSD 6,CBSD 7,CBSD 8,CBSD 9,CBSD 10,CBSD 11,CBSD 12,CBSD 13,CBSD 14,CBSD 15,CBSD 16,CBSD 17,CBSD 18,CBSD 19,CBSD 20,CBSD 21,
10.000,10.000,10.000,10.000,0.100,0.200,0.100,0.100,0.200,0.200,0.200,0.600,0.000,0.400,0.200,0.200,0.000,0.000,0.300,0.400,0.000,0.400,0.100,0.000,0.300,
avg. mbs all power,avg. cbsd enable number,avg. mbs area all power,avg. cbsd all power
70.000,4.000,40.000,4.000
avg. number of relay UE
535

BS TX power
MBS area 1,MBS area 2,MBS area 3,MBS area 4,CBSD 1,CBSD 2,CBSD 3,CBSD 4,CBSD 5,CBSD 6,CBSD 7,CBSD 8,CBSD 9,CBSD 10,CBSD 11,CBSD 12,CBSD 13,CBSD 14,CBSD 15,CBSD 16,CBSD 17,CBSD 18,CBSD 19,CBSD 20,CBSD 21,
10.000,10.000,10.000,10.000,1.000,0.000,0.000,0.000,0.000,0.000,0.000,1.000,0.000,1.000,0.000,0.000,0.000,0.000,1.000,0.000,0.000,0.000,0.000,0.000,0.000,
max average power
513.599609

x,y,area,be blocked (1 : NLOS / 0 : LOS),be blocked number (>=1 : CBSD(x) / 0 : no),connect bs number (>=1 : CBSD / 0 : MBS),throughput (unit : M bps)
1999,1797,1,0,0,10,73.109550
-849,1330,2,0,0,0,755.462463
-735,-1074,3,0,0,0,810.796448
417,-534,4,0,0,0,998.761963
249,1904,1,0,0,10,73.109550
-1338,263,2,0,0,0,797.380676
-1713,-955,3,0,0,8,56.810490
33,-1841,4,0,0,8,56.810490
1474,972,1,0,0,10,73.109550
-1741,563,2,0,0,1,66.980888
-1422,-448,3,0,0,0,771.740417
1595,-128,4,0,0,0,751.444092
360,1495,1,0,0,0,762.860168
-1610,1721,2,1,0,1,66.980888
-828,-1495,3,0,0,0,732.565613
1960,-320,4,0,0,15,84.156570
1526,1999,1,1,0,10,73.109550
-731,1249,2,0,0,0,780.286926
-1841,-539,3,0,0,8,56.810490
1977,-101,4,0,0,10,73.109550
1563,464,1,0,0,0,746.063232
-712,797,2,0,0,0,867.468262
-1386,-574,3,1,0,8,56.810490
1044,-503,4,0,0,0,844.165894
229,415,1,0,0,0,1101.774780
-1561,702,2,1,0,1,66.980888
-1845,-1372,3,0,0,8,56.810490
62,-869,4,0,0,0,926.307190
1287,1243,1,0,0,10,73.109550
-560,1498,2,0,0,0,751.601440
-1804,-821,3,0,0,8,56.810490
1765,-1512,4,0,0,15,84.156570
1261,679,1,0,0,0,783.280457
-1949,941,2,0,0,1,66.980888
-1380,-1524,3,0,0,8,56.810490
974,-1125,4,0,0,0,772.289795
973,524,1,0,0,0,857.825928
-1262,225,2,0,0,0,815.141846
-1253,-1365,3,0,0,8,56.810490
331,-1934,4,0,0,8,56.810490
817,1061,1,0,0,0,802.590515
-617,1515,2,0,0,0,745.113953
-1330,-1996,3,0,0,8,56.810490
321,-1859,4,0,0,8,56.810490
1266,654,1,0,0,0,784.736694
-872,1287,2,0,0,0,759.730286
-1172,-1362,3,0,0,8,56.810490
79,-558,4,0,0,0,1051.858276
1665,1566,1,0,0,10,73.109550
-847,1127,2,0,0,0,787.806824
-1553,-1479,3,1,0,8,56.810490
1859,-990,4,0,0,15,84.156570
1251,1447,1,0,0,10,73.109550
-420,1424,2,0,0,0,772.947937
-1620,-1453,3,0,0,8,56.810490
1822,-1481,4,0,0,15,84.156570
1521,1680,1,0,0,10,73.109550
-260,855,2,0,0,0,918.978760
-1326,-628,3,0,0,0,776.343872
260,-1033,4,0,0,0,868.411804
1964,930,1,0,0,10,73.109550
-1753,323,2,0,0,1,66.980888
-660,-1675,3,0,0,8,56.810490
961,-397,4,0,0,0,875.371033
835,1716,1,1,0,10,73.109550
-1939,1884,2,1,0,1,66.980888
-1407,-38,3,0,0,0,788.273193
1246,-29,4,0,0,0,823.231873
460,384,1,0,0,0,1034.173462
-295,983,2,0,0,0,879.122742
-438,-135,3,0,0,0,1111.461914
1099,-1849,4,0,0,15,84.156570
654,321,1,0,0,0,977.842407
-1624,143,2,1,0,8,56.810490
-505,-1340,3,0,0,0,783.318054
203,-152,4,0,0,0,1282.184937
1588,726,1,0,0,0,726.406860
-1457,1716,2,0,0,1,66.980888
-1702,-1017,3,0,0,8,56.810490
1564,-1484,4,0,0,15,84.156570
236,1503,1,0,0,0,765.923096
-832,1981,2,0,0,1,66.980888
-1482,-1522,3,0,0,8,56.810490
207,-106,4,0,0,0,1307.169922
1278,1931,1,0,0,10,73.109550
-817,321,2,0,0,0,924.136719
-885,-929,3,0,0,0,814.880005
366,-1709,4,0,0,0,726.133728
1465,660,1,0,0,0,750.249146
-1882,1062,2,0,0,1,66.980888
-1921,-220,3,0,0,8,56.810490
602,-1753,4,0,0,15,84.156570
201,592,1,0,0,0,1021.937195
-758,1467,2,0,0,0,742.419800
-1894,-678,3,1,0,8,56.810490
835,-884,4,0,0,0,830.316895
1133,374,1,0,0,0,835.780090
-612,495,2,0,0,0,955.548645
-1064,-450,3,0,0,0,845.063049
547,-1055,4,0,0,0,836.929504
1336,323,1,0,0,0,795.095215
-1745,145,2,0,0,0,725.599121
-8,-42,3,0,0,0,1795.842773
1819,-261,4,0,0,10,73.109550
1324,1921,1,0,0,10,73.109550
-1075,1085,2,0,0,0,764.802124
-1166,-1791,3,0,0,8,56.810490
407,-750,4,0,0,0,932.285278
159,1857,1,0,0,1,66.980888
-690,1533,2,0,0,0,737.277710
-1572,-1635,3,0,0,8,56.810490
573,-703,4,0,0,0,914.729553
1808,409,1,0,0,10,73.109550
-1502,919,2,0,0,1,66.980888
-1419,-1247,3,0,0,8,56.810490
55,-1331,4,0,0,0,804.091003
1296,1169,1,1,0,10,73.109550
-1180,955,2,0,0,0,766.561890
-402,-476,3,0,0,0,1022.930908
1764,-1718,4,0,0,15,84.156570
1335,324,1,0,0,0,795.249146
-927,346,2,0,0,0,889.648865
-334,-1838,3,0,0,8,56.810490
794,-1930,4,0,0,15,84.156570
1611,1713,1,0,0,10,73.109550
-798,1187,2,0,0,0,783.658203
-1630,-472,3,0,0,0,734.588928
285,-995,4,0,0,0,876.692444
311,1536,1,0,0,0,757.417297
-1608,1009,2,0,0,1,66.980888
-1712,-100,3,1,0,8,56.810490
649,-730,4,0,0,0,893.364441
1875,1480,1,0,0,10,73.109550
-1642,1337,2,0,0,1,66.980888
-1529,-1374,3,0,0,8,56.810490
37,-1632,4,0,0,0,745.711487
1638,1728,1,0,0,10,73.109550
-379,585,2,0,0,0,990.577942
-1412,-1600,3,0,0,8,56.810490
1779,-1770,4,0,0,15,84.156570
887,292,1,0,0,0,906.314880
-302,764,2,0,0,0,943.224854
-443,-1983,3,0,0,8,56.810490
1236,-1951,4,0,0,15,84.156570
1905,1620,1,0,0,10,73.109550
-1277,1994,2,0,0,1,66.980888
-508,-156,3,0,0,0,1068.796631
826,-887,4,0,0,0,831.256958
1360,1337,1,0,0,10,73.109550
-1382,1460,2,0,0,1,66.980888
-387,-547,3,0,0,0,1001.957764
153,-231,4,0,0,0,1256.645508
751,566,1,0,0,0,904.294189
-1387,1726,2,0,0,1,66.980888
-252,-561,3,0,0,0,1026.676025
334,-394,4,0,0,0,1076.994263
881,1997,1,0,0,10,73.109550
-851,1017,2,1,0,1,66.980888
-1530,-611,3,0,0,0,743.075195
26,-562,4,1,0,8,56.810490
1272,317,1,0,0,0,808.709167
-872,1465,2,0,0,0,733.254456
-590,-1322,3,0,0,0,780.189331
155,-414,4,0,0,0,1121.885254
1320,829,1,0,0,0,758.967041
-1942,760,2,0,0,1,66.980888
-1475,-1976,3,0,0,8,56.810490
785,-465,4,0,0,0,913.004639
1796,1093,1,0,0,10,73.109550
-297,1821,2,0,0,1,66.980888
-796,-1327,3,0,0,0,761.055237
1979,-821,4,0,0,15,84.156570
1497,1782,1,0,0,10,73.109550
-1062,578,2,0,0,0,831.955566
-1615,-13,3,0,0,0,748.780273
213,-288,4,0,0,0,1182.556274
107,1936,1,1,0,1,66.980888
-174,1476,2,0,0,0,772.643433
-1460,-1789,3,0,0,8,56.810490
641,-644,4,0,0,0,914.191467
1293,1689,1,0,0,10,73.109550
-411,926,2,0,0,0,882.849182
-578,-1814,3,0,0,8,56.810490
630,-473,4,0,0,0,955.302368
1526,774,1,0,0,0,732.215515
-813,193,2,0,0,0,938.331787
-1817,-64,3,0,0,8,56.810490
1423,-1126,4,0,0,15,84.156570
535,715,1,0,0,0,919.190735
-1619,1708,2,0,0,1,66.980888
-1761,-996,3,0,0,8,56.810490
1663,-1357,4,0,0,15,84.156570
1837,789,1,1,0,10,73.109550
-1634,1159,2,0,0,1,66.980888
-926,-76,3,0,0,0,907.772217
315,-216,4,0,0,0,1164.049194
645,291,1,0,0,0,986.241821
-1998,1117,2,0,0,1,66.980888
-1616,-1709,3,0,0,8,56.810490
1610,-1977,4,0,0,15,84.156570
739,968,1,0,0,0,829.883362
-1258,141,2,0,0,0,818.758606
-10,-936,3,0,0,0,905.629028
1889,-371,4,0,0,15,84.156570
1471,322,1,0,0,0,768.879395
-599,724,2,0,0,0,904.519043
-353,-216,3,0,0,0,1140.913086
728,-1143,4,0,0,0,799.167664
1332,890,1,0,0,0,751.113159
-314,462,2,0,0,0,1054.406738
-972,-27,3,0,0,0,894.666260
577,-1568,4,0,0,0,739.045959
1090,1444,1,0,0,10,73.109550
-1776,1434,2,0,0,1,66.980888
-1088,-1096,3,0,0,0,761.631165
408,-353,4,0,0,0,1064.435303
244,554,1,1,0,10,73.109550
-1196,863,2,0,0,0,774.849182
-728,-1758,3,0,0,8,56.810490
444,-289,4,0,0,0,1069.689209
891,1495,1,0,0,0,727.346375
-86,83,2,0,0,0,1499.230347
-262,-1192,3,0,0,0,829.267700
1252,-252,4,0,0,0,816.218506
872,1251,1,0,0,0,765.262146
-794,447,2,0,0,0,913.386414
-1559,-826,3,0,0,8,56.810490
1342,-299,4,0,0,0,795.008606
1439,644,1,1,0,10,73.109550
-500,1979,2,0,0,1,66.980888
-533,-1434,3,0,0,0,764.335632
633,-1993,4,0,0,15,84.156570
455,1403,1,0,0,0,774.832520
-882,1173,2,0,0,0,776.264404
-925,-638,3,0,0,0,853.033386
1308,-1998,4,0,0,15,84.156570
207,1981,1,0,0,1,66.980888
-1614,619,2,0,0,0,729.287842
-1234,-1289,3,0,0,8,56.810490
446,-79,4,0,0,0,1114.874023
1998,622,1,0,0,10,73.109550
-692,1567,2,0,0,0,731.892639
-872,-509,3,0,0,0,883.824829
1571,-428,4,0,0,0,746.443787
1158,234,1,0,0,0,838.621460
-1055,1453,2,0,0,1,66.980888
-1488,-364,3,0,0,0,763.956116
193,-1927,4,0,0,8,56.810490
362,1337,1,0,0,0,792.877258
-119,1855,2,0,0,1,66.980888
-708,-1731,3,0,0,8,56.810490
1704,-796,4,0,0,15,84.156570
224,1571,1,0,0,0,753.828430
-1407,732,2,0,0,0,753.984741
-271,-1201,3,0,0,0,826.747498
585,-1703,4,0,0,15,84.156570
1868,705,1,0,0,10,73.109550
-163,997,2,0,0,0,883.667725
-1836,-1357,3,0,0,8,56.810490
465,-1442,4,0,0,0,767.113464
204,1277,1,0,0,0,812.620483
-1504,862,2,0,0,0,728.479248
-985,-932,3,0,0,0,798.978882
1462,-1689,4,0,0,15,84.156570
97,1987,1,0,0,1,66.980888
-533,1703,2,0,0,1,66.980888
-1017,-970,3,0,0,0,788.702026
493,-1914,4,0,0,15,84.156570
925,347,1,0,0,0,890.092224
-844,1921,2,0,0,1,66.980888
-97,-1732,3,0,0,0,728.280334
689,-1095,4,0,0,0,812.500061
653,1395,1,0,0,0,762.386902
-1430,1349,2,0,0,1,66.980888
-947,-1678,3,0,0,8,56.810490
781,-184,4,0,0,0,950.017395
141,1053,1,0,0,0,869.174866
-931,1879,2,0,0,1,66.980888
-1863,-1180,3,1,0,8,56.810490
523,-292,4,0,0,0,1034.279053
1630,864,1,0,0,10,73.109550
-1600,437,2,0,0,0,741.146362
-747,-1904,3,0,0,8,56.810490
770,-722,4,0,0,0,871.036499
1589,1192,1,0,0,10,73.109550
-753,863,2,0,0,0,847.544067
-901,-310,3,0,0,0,900.510681
1931,-1938,4,0,0,15,84.156570
1681,1786,1,0,0,10,73.109550
-322,862,2,0,0,0,910.555481
-1401,-477,3,0,0,0,773.852722
503,-1265,4,0,0,0,797.859009
782,1686,1,0,0,10,73.109550
-464,1852,2,0,0,1,66.980888
-851,-324,3,0,0,0,913.571838
1715,-834,4,0,0,15,84.156570
573,1458,1,0,0,0,757.529968
-1676,1146,2,0,0,1,66.980888
-1905,-88,3,0,0,8,56.810490
668,-424,4,0,0,0,954.060913
368,1711,1,0,0,0,725.744446
-1750,827,2,1,0,1,66.980888
-1437,-1295,3,0,0,8,56.810490
412,-935,4,1,0,15,84.156570
450,1626,1,0,0,0,736.257202
-1077,709,2,0,0,0,813.459656
-1802,-1755,3,0,0,8,56.810490
1661,-1925,4,0,0,15,84.156570
415,291,1,0,0,0,1082.438721
-415,1381,2,0,0,0,781.317627
-1113,-648,3,0,0,0,813.800598
1820,-734,4,0,0,15,84.156570
1766,1652,1,0,0,10,73.109550
-224,1213,2,0,0,0,826.207397
-1837,-401,3,0,0,8,56.810490
647,-1310,4,0,0,0,777.546509
1105,921,1,0,0,0,782.018372
-621,1646,2,0,0,0,724.254395
-1117,-171,3,0,0,0,851.417542
846,-1946,4,0,0,15,84.156570
1702,884,1,0,0,10,73.109550
-1936,374,2,0,0,1,66.980888
-233,-1263,3,0,0,0,814.601440
379,-1382,4,0,0,0,783.112183
1898,1241,1,0,0,10,73.109550
-1494,524,2,0,0,0,754.491150
-1175,-1734,3,0,0,8,56.810490
8,-1052,4,0,0,0,871.997742
528,1504,1,0,0,0,752.547424
-1395,1268,2,0,0,1,66.980888
-848,-1591,3,0,0,8,56.810490
721,-1103,4,0,0,0,807.213318
32,1162,1,0,0,0,843.277100
-3,1198,2,0,0,0,834.607910
-1344,-1153,3,0,0,8,56.810490
1642,-362,4,0,0,0,737.226074
1738,1142,1,0,0,10,73.109550
-1197,532,2,0,0,0,808.930115
-1760,-1667,3,0,0,8,56.810490
193,-1115,4,0,0,0,851.018982
1506,372,1,0,0,0,760.345215
-942,1713,2,0,0,1,66.980888
-335,-1943,3,0,0,8,56.810490
811,-46,4,1,0,10,73.109550
1229,1819,1,0,0,10,73.109550
-874,129,2,0,0,0,922.281860
-801,-1318,3,0,0,0,762.006897
1106,-30,4,0,0,0,857.492737
208,913,1,0,0,0,905.524353
-1790,1242,2,0,0,1,66.980888
-458,-1573,3,0,0,0,744.676270
36,-414,4,0,0,0,1139.716553
505,1640,1,0,0,0,731.391724
-660,107,2,1,0,8,56.810490
-785,-828,3,0,0,0,848.641418
1592,-1669,4,0,0,15,84.156570
1773,1682,1,0,0,10,73.109550
-1514,1903,2,1,0,1,66.980888
-1226,-545,3,0,0,0,802.039368
1924,-902,4,0,0,15,84.156570
1072,1320,1,0,0,0,733.997742
-390,1060,2,0,0,0,851.556335
-1794,-216,3,0,0,8,56.810490
776,-306,4,0,0,0,938.829041
1595,1279,1,0,0,10,73.109550
-332,1127,2,0,0,0,840.213867
-1140,-1007,3,0,0,0,765.988708
757,-1443,4,1,0,15,84.156570
1678,1628,1,0,0,10,73.109550
-758,259,2,0,0,0,950.504395
-1282,-700,3,0,0,0,777.626221
1653,-1286,4,0,0,15,84.156570
1983,617,1,0,0,10,73.109550
-1739,573,2,0,0,1,66.980888
-193,-1481,3,0,0,0,771.236206
151,-173,4,0,0,0,1310.829956
603,1558,1,0,0,0,739.075928
-532,468,2,0,0,0,985.856262
-939,-956,3,0,0,0,802.394592
1988,-1868,4,0,0,15,84.156570
1126,435,1,0,0,0,832.431030
-1634,1973,2,0,0,1,66.980888
-1183,-1330,3,0,0,8,56.810490
1423,-1694,4,1,0,15,84.156570
1999,1223,1,0,0,10,73.109550
-808,1739,2,0,0,1,66.980888
-1031,-1362,3,1,0,8,56.810490
801,-1123,4,1,0,15,84.156570
1777,489,1,0,0,10,73.109550
-1010,1956,2,0,0,1,66.980888
-1561,-1700,3,0,0,8,56.810490
545,-480,4,0,0,0,978.749939
466,1602,1,0,0,0,739.457336
-276,475,2,0,0,0,1059.216919
-1098,-1377,3,0,0,8,56.810490
239,-763,4,0,0,0,951.034119
1187,663,1,0,0,0,798.223572
-1125,634,2,0,0,0,813.030640
-1027,-1022,3,0,0,0,779.954651
1038,-544,4,0,0,0,840.942139
1474,832,1,0,0,0,735.326965
-1532,891,2,0,0,1,66.980888
-1038,-1293,3,0,0,0,741.233826
1895,-421,4,0,0,15,84.156570
1889,463,1,0,0,10,73.109550
-597,865,2,0,0,0,872.275391
-1487,-901,3,0,0,0,727.627380
1053,-574,4,0,0,0,834.300415
1316,731,1,0,0,0,768.962402
-244,1925,2,0,0,1,66.980888
-1783,-1075,3,0,0,8,56.810490
1555,-1920,4,0,0,15,84.156570
1247,869,1,0,0,0,766.204529
-672,1151,2,0,0,0,803.945312
-1805,-1537,3,0,0,8,56.810490
1584,-984,4,1,0,15,84.156570
287,1049,1,0,0,0,862.439575
-245,1354,2,0,0,0,794.782471
-1460,-1428,3,0,0,8,56.810490
466,-1340,4,0,0,0,785.995422
400,1537,1,0,0,0,753.591980
-717,969,2,0,0,0,832.831482
-1836,-63,3,0,0,8,56.810490
401,-817,4,0,0,0,913.725952
270,1901,1,0,0,10,73.109550
-1662,690,2,0,0,1,66.980888
-1367,-699,3,0,0,0,763.306030
1606,-1701,4,0,0,15,84.156570
1432,167,1,0,0,0,781.377930
-1735,411,2,0,0,1,66.980888
-48,-11,3,0,0,0,1755.071045
1628,-962,4,0,0,15,84.156570
323,1939,1,0,0,10,73.109550
-431,1144,2,0,0,0,828.786682
-355,-1187,3,0,0,0,824.942017
391,-705,4,0,0,0,948.661377
36,581,1,0,0,0,1042.520386
-495,1812,2,0,0,1,66.980888
-873,-951,3,0,0,0,813.121277
309,-530,4,0,0,0,1027.380493
1059,753,1,0,0,0,811.239380
-1862,1067,2,1,0,1,66.980888
-1628,-615,3,0,0,0,727.360168
552,-1627,4,0,0,0,731.041138
197,684,1,0,0,0,984.536987
-1362,439,2,0,0,0,783.518433
-373,-532,3,0,0,0,1010.837463
1935,-297,4,0,0,10,73.109550
421,1323,1,0,0,0,792.208130
-1478,320,2,0,0,0,767.658997
-1393,-1085,3,0,0,8,56.810490
1583,-944,4,0,0,15,84.156570
352,487,1,0,0,0,1033.366089
-1077,958,2,0,0,0,781.434448
-658,-955,3,0,0,0,843.947083
1570,-38,4,0,0,0,756.815247
1600,863,1,0,0,10,73.109550
-1916,1650,2,0,0,1,66.980888
-1985,-1554,3,0,0,8,56.810490
451,-251,4,0,0,0,1077.205200
1952,460,1,0,0,10,73.109550
-193,1340,2,0,0,0,799.448425
-1800,-337,3,1,0,8,56.810490
1692,-249,4,0,0,0,732.356812
736,975,1,0,0,0,828.996338
-582,432,2,0,0,0,979.318542
-906,-46,3,0,0,0,914.657227
977,-1950,4,0,0,15,84.156570
1072,1399,1,0,0,10,73.109550
-1963,1873,2,1,0,1,66.980888
-416,-595,3,0,0,0,978.843872
714,-1995,4,1,0,15,84.156570
589,1187,1,0,0,0,805.613220
-346,403,2,0,0,0,1068.937256
-1949,-567,3,0,0,8,56.810490
1641,-578,4,0,0,0,727.438232
265,647,1,0,0,0,989.700195
-1217,1622,2,0,0,1,66.980888
-372,-1993,3,0,0,8,56.810490
409,-1519,4,0,0,0,756.333191
693,145,1,0,0,0,986.078491
-486,1829,2,0,0,1,66.980888
-1354,-322,3,0,0,0,791.506958
428,-681,4,0,0,0,949.319153
147,0,1,0,0,0,1439.519409
-391,1997,2,0,0,1,66.980888
-1837,-79,3,0,0,8,56.810490
1606,-1237,4,0,0,15,84.156570
1663,1971,1,0,0,10,73.109550
-977,1964,2,0,0,1,66.980888
-1965,-1054,3,0,0,8,56.810490
1960,-1002,4,0,0,15,84.156570
1676,1493,1,0,0,10,73.109550
-588,1449,2,0,0,0,758.042297
-522,-1885,3,0,0,8,56.810490
550,-99,4,0,0,0,1054.286133
23,1899,1,1,0,1,66.980888
-950,1878,2,0,0,1,66.980888
-660,-758,3,0,0,0,885.144104
351,-101,4,0,0,0,1176.946533
183,524,1,0,0,0,1056.255127
-1088,1269,2,0,0,0,738.914917
-1371,-462,3,0,0,0,780.374512
1593,-827,4,0,0,15,84.156570
9,1396,1,0,0,0,790.627136
-420,61,2,1,0,8,56.810490
-955,-885,3,0,0,0,810.664917
1916,-322,4,1,0,15,84.156570
1720,1277,1,0,0,10,73.109550
-1400,1362,2,0,0,1,66.980888
-8,-608,3,0,0,0,1029.951416
900,-1008,4,0,0,0,799.981323
454,1085,1,0,0,0,839.902832
-1908,1820,2,0,0,1,66.980888
-1521,-1802,3,0,0,8,56.810490
768,-1986,4,0,0,15,84.156570
1826,1884,1,0,0,10,73.109550
-1011,1789,2,0,0,1,66.980888
-1706,-249,3,0,0,0,730.043823
679,-299,4,0,0,0,972.594604
699,370,1,0,0,0,954.175842
-1575,1008,2,0,0,1,66.980888
-1358,-193,3,0,0,0,795.690674
1163,-1743,4,0,0,15,84.156570
1841,697,1,0,0,10,73.109550
-1050,1496,2,0,0,1,66.980888
-1967,-621,3,0,0,8,56.810490
75,-1827,4,0,0,8,56.810490
547,1716,1,0,0,10,73.109550
-859,1587,2,0,0,1,66.980888
-1413,-960,3,0,0,0,732.685486
1945,-893,4,0,0,15,84.156570
1309,413,1,0,0,0,795.489197
-867,190,2,0,0,0,920.946167
-1631,-311,3,0,0,0,740.838501
900,-1941,4,0,0,15,84.156570
585,1962,1,0,0,10,73.109550
-172,1285,2,0,0,0,811.894714
-393,-1893,3,0,0,8,56.810490
1158,-1127,4,0,0,0,748.631836
116,186,1,0,0,0,1324.231323
-1008,1153,2,0,0,0,764.027466
-1051,-357,3,0,0,0,856.565552
876,-1991,4,0,0,15,84.156570
1420,457,1,0,0,0,771.581543
-576,819,2,0,0,0,886.235107
-1152,-1214,3,0,0,0,738.566772
42,-1906,4,0,0,8,56.810490
536,1263,1,0,0,0,795.610107
-1258,838,2,0,0,0,767.789368
-1543,-1278,3,0,0,8,56.810490
819,-1335,4,0,0,0,757.594482
232,712,1,0,0,0,969.916382
-909,574,2,0,0,0,865.764282
-999,-577,3,0,0,0,845.458801
1507,-1962,4,0,0,15,84.156570
475,915,1,0,0,0,877.825562
-1728,376,2,0,0,1,66.980888
-1497,-275,3,0,0,0,765.803528
315,-233,4,0,0,0,1156.693848
1439,538,1,0,0,0,763.131226
-1207,940,2,0,0,0,764.335388
-847,-986,3,0,0,0,811.144409
785,-476,4,0,0,0,911.224915
1460,1064,1,0,0,10,73.109550
-813,1027,2,0,0,0,808.941467
-103,-386,3,0,0,0,1151.082031
111,-469,4,0,0,0,1096.967529
887,1945,1,0,0,10,73.109550
-929,134,2,0,0,0,904.842346
-1194,-967,3,0,0,0,763.096985
1763,-714,4,0,0,15,84.156570
76,1721,1,0,0,0,730.276550
-80,113,2,0,0,0,1456.804565
-962,-1712,3,0,0,8,56.810490
512,-111,4,0,0,0,1072.906006
1412,1020,1,0,0,0,727.098572
-1710,1789,2,0,0,1,66.980888
-807,-1980,3,0,0,8,56.810490
185,-1636,4,0,0,0,743.260376
1593,389,1,0,0,0,744.415955
-623,532,2,0,0,0,944.026855
-1004,-1277,3,0,0,0,747.120667
640,-230,4,1,0,10,73.109550
233,761,1,0,0,0,952.365356
-842,1332,2,0,0,0,755.838562
-622,-1826,3,0,0,8,56.810490
190,-421,4,0,0,0,1109.233154
179,311,1,0,0,0,1182.052490
-1971,1583,2,0,0,1,66.980888
-784,-82,3,0,0,0,955.127991
356,-1656,4,0,0,0,735.118408
970,1642,1,0,0,10,73.109550
-391,1885,2,0,0,1,66.980888
-1810,-981,3,0,0,8,56.810490
1786,-1650,4,0,0,15,84.156570
1528,1604,1,0,0,10,73.109550
-1311,1735,2,0,0,1,66.980888
-790,-723,3,0,0,0,866.880188
1297,-1762,4,0,0,15,84.156570
1699,773,1,0,0,10,73.109550
-43,412,2,0,0,0,1140.637207
-694,-1039,3,0,0,0,822.511719
1499,-1807,4,0,0,15,84.156570
1599,1229,1,0,0,10,73.109550
-1952,635,2,1,0,1,66.980888
-284,-1161,3,0,0,0,835.274475
608,-1537,4,0,0,0,742.137085
603,1794,1,0,0,10,73.109550
-50,1058,2,0,0,0,870.047852
-460,-231,3,0,0,0,1077.987183
1386,-1204,4,0,0,15,84.156570
580,112,1,0,0,0,1038.291870
-1398,52,2,0,0,0,790.023193
-1975,-349,3,0,0,8,56.810490
254,-907,4,0,0,0,903.837585
1718,516,1,0,0,10,73.109550
-1074,469,2,0,0,0,840.936340
-143,-808,3,0,0,0,943.564026
215,-1285,4,0,0,0,810.478516
1811,312,1,0,0,10,73.109550
-884,1672,2,0,0,1,66.980888
-170,-1893,3,0,0,8,56.810490
374,-296,4,0,0,0,1099.972168
848,863,1,0,0,0,831.764282
-886,1586,2,0,0,1,66.980888
-250,-799,3,0,0,0,937.779053
1313,-1014,4,0,0,0,741.083923
1570,1,1,0,0,0,756.899170
-1554,146,2,0,0,0,758.578308
-322,-1184,3,0,0,0,827.728149
1658,-119,4,0,0,0,740.513977
889,57,1,0,0,0,919.893127
-898,60,2,0,0,0,916.941040
-1427,-1460,3,0,0,8,56.810490
1355,-1308,4,0,0,15,84.156570
1707,742,1,0,0,10,73.109550
-1072,1319,2,0,0,0,734.128479
-1064,-714,3,0,0,0,815.262329
1841,-1766,4,0,0,15,84.156570
937,1680,1,0,0,10,73.109550
-1335,530,2,0,0,0,782.445251
-1586,-1168,3,0,0,8,56.810490
1275,-1770,4,1,0,15,84.156570
1705,1887,1,0,0,10,73.109550
-842,395,2,0,0,0,907.482849
-601,-1976,3,0,0,8,56.810490
1614,-246,4,0,0,0,745.672668
1213,1682,1,0,0,10,73.109550
-1507,1997,2,0,0,1,66.980888
-1376,-1584,3,0,0,8,56.810490
562,-842,4,1,0,15,84.156570
576,811,1,0,0,0,888.119995
-1246,283,2,0,0,0,816.077881
-556,-1060,3,0,0,0,834.856323
100,-151,4,0,0,0,1379.312256
505,354,1,0,0,0,1025.871704
-258,1361,2,0,0,0,792.857056
-1009,-1435,3,0,0,0,725.073914
477,-151,4,0,0,0,1086.177734
984,1838,1,0,0,10,73.109550
-653,746,2,1,0,1,66.980888
-191,-873,3,0,0,0,918.981262
97,-135,4,0,0,0,1404.040039
854,1882,1,0,0,10,73.109550
-739,745,2,0,0,0,872.730774
-1334,-1288,3,0,0,8,56.810490
224,-1793,4,0,0,8,56.810490
1879,666,1,0,0,10,73.109550
-80,1567,2,0,0,0,757.074646
-850,-73,3,0,0,0,932.348511
373,-244,4,0,0,0,1119.510986
1430,101,1,0,0,0,783.004944
-620,1257,2,0,0,0,789.485413
-1588,-1827,3,0,0,8,56.810490
1721,-162,4,0,0,0,729.291138
368,1749,1,0,0,10,73.109550
-1959,1587,2,0,0,1,66.980888
-545,-1564,3,0,0,0,741.556091
930,-1695,4,0,0,15,84.156570
1906,1780,1,1,0,10,73.109550
-1862,157,2,0,0,8,56.810490
-1360,-719,3,1,0,8,56.810490
1179,-1731,4,0,0,15,84.156570
1856,702,1,0,0,10,73.109550
-1521,730,2,0,0,0,736.258972
-1299,-475,3,0,0,0,793.296265
882,-1666,4,0,0,15,84.156570
1679,1292,1,0,0,10,73.109550
-1442,849,2,0,0,0,738.604309
-1158,-1751,3,0,0,8,56.810490
1852,-663,4,0,0,15,84.156570
1776,884,1,0,0,10,73.109550
-1020,1191,2,0,0,0,757.250122
-1235,-1437,3,0,0,8,56.810490
1059,-1246,4,0,0,0,745.216797
559,527,1,1,0,10,73.109550
-579,1653,2,0,0,0,725.524353
-1829,-196,3,0,0,8,56.810490
322,-1946,4,0,0,8,56.810490
1670,75,1,0,0,0,738.893555
-765,814,2,0,0,0,854.735474
-63,-624,3,0,0,0,1021.025574
1255,-1521,4,0,0,15,84.156570
1622,1603,1,0,0,10,73.109550
-436,577,2,0,0,0,979.957275
-913,-188,3,0,0,0,906.831177
1189,-400,4,0,0,0,821.359131
543,472,1,0,0,0,981.450684
-1554,992,2,0,0,1,66.980888
-269,-1323,3,0,0,0,800.247192
559,-1244,4,0,0,0,797.333984
320,1754,1,0,0,10,73.109550
-431,1638,2,0,0,0,735.131714
-712,-975,3,0,0,0,832.385071
980,-1700,4,0,0,15,84.156570
1358,180,1,0,0,0,796.061462
-544,1505,2,0,0,0,751.413391
-1070,-307,3,0,0,0,855.739014
1027,-513,4,0,0,0,846.874329
1556,828,1,0,0,10,73.109550
-596,464,2,0,0,0,967.434143
-909,-132,3,0,0,0,911.070557
170,-1851,4,0,0,8,56.810490
505,1616,1,0,0,0,735.247864
-1283,1368,2,0,0,1,66.980888
-1539,-898,3,1,0,8,56.810490
739,-750,4,1,0,15,84.156570
1334,1131,1,0,0,0,725.942322
-302,589,2,0,0,0,1005.484619
-1557,-1312,3,0,0,8,56.810490
464,-1766,4,0,0,15,84.156570
262,569,1,0,0,0,1021.370483
-549,1759,2,0,0,1,66.980888
-613,-1641,3,0,0,0,725.477783
476,-999,4,0,0,0,857.440918
1330,908,1,0,0,0,749.609192
-1612,1554,2,0,0,1,66.980888
-1002,-1182,3,0,0,0,760.661377
205,-1469,4,0,0,0,773.221130
395,589,1,0,0,0,985.598511
-356,712,2,0,0,0,952.303894
-751,-1677,3,0,0,8,56.810490
153,-1004,4,0,0,0,882.145874
316,1448,1,0,0,0,773.444824
-880,1271,2,0,0,0,761.337646
-434,-32,3,0,0,0,1126.413452
573,-1913,4,0,0,15,84.156570
6,1904,1,0,0,1,66.980888
-1510,687,2,0,0,0,741.088928
-1602,-50,3,0,0,0,750.968994
1645,-722,4,0,0,15,84.156570
800,1612,1,0,0,10,73.109550
-1185,804,2,0,0,0,783.316833
-341,-1065,3,0,0,0,854.426147
1766,-96,4,0,0,10,73.109550
1846,1027,1,0,0,10,73.109550
-658,1168,2,0,0,0,802.272156
-1515,-403,3,1,0,8,56.810490
1300,-831,4,0,0,0,761.895935
1525,1168,1,0,0,10,73.109550
-17,456,2,1,0,10,73.109550
-533,-392,3,0,0,0,1005.607178
605,-460,4,0,0,0,965.648804
1359,1168,1,0,0,10,73.109550
-1354,1649,2,0,0,1,66.980888
-1468,-317,3,1,0,8,56.810490
1342,-668,4,0,0,0,770.173035
667,44,1,0,0,0,1002.650513
-1384,372,2,0,0,0,783.093018
-1489,-1377,3,0,0,8,56.810490
1990,-157,4,0,0,10,73.109550
1530,517,1,0,0,0,748.791626
-884,1869,2,0,0,1,66.980888
-1669,-79,3,0,0,0,739.033325
1797,-488,4,0,0,15,84.156570
1285,1777,1,0,0,10,73.109550
-1005,1358,2,0,0,0,735.864014
-294,-1124,3,0,0,0,843.432312
1222,-23,4,0,0,0,828.852600
158,1216,1,0,0,0,827.911560
-562,453,2,0,0,0,980.501587
-518,-1636,3,0,0,0,731.382141
1289,-1167,4,0,0,0,727.606445
1857,294,1,0,0,10,73.109550
-1877,1414,2,0,0,1,66.980888
-875,-11,3,1,0,8,56.810490
73,-269,4,0,0,0,1254.927124
566,1887,1,0,0,10,73.109550
-1157,1910,2,0,0,1,66.980888
-1313,-1428,3,0,0,8,56.810490
220,-794,4,1,0,8,56.810490
759,1078,1,0,0,0,807.071411
-140,1271,2,0,0,0,815.863464
-1013,-244,3,0,0,0,874.763184
1248,-1266,4,0,0,15,84.156570
94,1011,1,0,0,0,882.211121
-1993,433,2,0,0,1,66.980888
-493,-667,3,0,0,0,940.468384
541,-442,4,0,0,0,989.932861
645,1079,1,0,0,0,820.762573
-1162,1880,2,0,0,1,66.980888
-1620,-1487,3,0,0,8,56.810490
304,-1589,4,0,0,0,748.289307
12,426,1,0,0,0,1132.447266
-956,1674,2,0,0,1,66.980888
-1299,-1232,3,0,0,8,56.810490
1731,-1870,4,0,0,15,84.156570
1549,301,1,0,0,0,755.445312
-665,1741,2,0,0,1,66.980888
-554,-1417,3,0,0,0,765.916809
918,-1413,4,0,0,0,736.614380
1186,418,1,0,0,0,820.666565
-1404,1327,2,0,0,1,66.980888
-1021,-1340,3,0,0,0,736.677612
86,-1580,4,0,0,0,754.652527
530,1404,1,0,0,0,769.858521
-715,1036,2,0,0,0,820.375854
-1304,-781,3,0,0,0,766.191650
62,-235,4,0,0,0,1294.454224
564,213,1,0,0,0,1032.414185
-130,1196,2,0,0,0,833.400208
-486,-950,3,0,0,0,867.904663
505,-933,4,0,0,0,869.580383
794,968,1,0,0,0,821.932556
-1647,1513,2,0,0,1,66.980888
-1024,-740,3,0,0,0,819.322327
1746,-1624,4,0,0,15,84.156570
426,1014,1,0,0,0,859.203064
-1886,743,2,0,0,1,66.980888
-1143,-1342,3,0,0,8,56.810490
882,-1166,4,0,0,0,777.360046
638,609,1,0,0,0,922.761047
-315,1060,2,0,0,0,857.646912
-1751,-1865,3,0,0,8,56.810490
1856,-1100,4,0,0,15,84.156570
1934,1515,1,0,0,10,73.109550
-250,1115,2,0,0,0,848.209229
-1902,-858,3,0,0,8,56.810490
442,-1108,4,0,0,0,835.834412
1708,1656,1,0,0,10,73.109550
-1099,1329,2,0,0,0,729.966553
-182,-1910,3,0,0,8,56.810490
978,-1127,4,0,0,0,771.493713
1615,409,1,1,0,10,73.109550
-264,1180,2,0,0,0,831.938843
-32,-283,3,0,0,0,1248.707764
1031,-1502,4,0,0,15,84.156570
500,1519,1,1,0,10,73.109550
-417,1631,2,0,0,0,736.879395
-991,-1672,3,0,0,8,56.810490
279,-37,4,0,0,0,1252.132446
1951,62,1,0,0,10,73.109550
-1287,54,2,0,0,0,813.747559
-1986,-356,3,1,0,8,56.810490
1331,-1374,4,0,0,15,84.156570
444,1943,1,0,0,10,73.109550
-996,1424,2,0,0,0,727.778198
-1694,-747,3,0,0,8,56.810490
479,-692,4,0,0,0,936.265503
1747,1719,1,0,0,10,73.109550
-526,1217,2,0,0,0,805.459961
-215,-1031,3,0,0,0,871.683472
936,-1932,4,0,0,15,84.156570
692,566,1,0,0,0,918.871460
-174,694,2,0,0,0,983.052185
-1686,-1853,3,0,0,8,56.810490
945,-1766,4,1,0,15,84.156570
868,1537,1,0,0,10,73.109550
-58,1496,2,0,0,0,770.544556
-409,-1254,3,0,0,0,806.936523
904,-114,4,0,0,0,913.392212
1198,1320,1,0,0,10,73.109550
-1397,1495,2,0,0,1,66.980888
-1680,-738,3,0,0,8,56.810490
823,-771,4,0,0,0,852.000122
554,495,1,0,0,0,972.202759
-1292,1837,2,0,0,1,66.980888
-1708,-684,3,0,0,8,56.810490
160,-269,4,0,0,0,1221.485596
1083,1833,1,0,0,10,73.109550
-1871,1795,2,0,0,1,66.980888
-1069,-580,3,0,0,0,830.270142
733,-873,4,0,0,0,848.906067
1326,992,1,0,0,0,741.596863
-1745,1981,2,0,0,1,66.980888
-1530,-1727,3,0,0,8,56.810490
1680,-1195,4,0,0,15,84.156570
592,1388,1,0,0,0,768.280396
-84,1853,2,0,0,1,66.980888
-1003,-336,3,0,0,0,870.427856
52,-1193,4,0,0,0,835.539001
1351,746,1,0,0,0,761.826355
-1758,395,2,0,0,1,66.980888
-1355,-1509,3,0,0,8,56.810490
1842,-1072,4,0,0,15,84.156570
547,942,1,0,0,0,861.977478
-1778,1522,2,0,0,1,66.980888
-1530,-784,3,0,0,0,730.860291
385,-1791,4,0,0,15,84.156570
472,1641,1,0,0,0,732.808655
-96,1112,2,0,0,0,854.973328
-1326,-1000,3,0,0,0,740.765930
400,-1446,4,0,0,0,769.934937
776,1692,1,0,0,10,73.109550
-490,744,2,0,0,0,919.881226
-1903,-1467,3,0,0,8,56.810490
1214,-404,4,0,0,0,815.690430
272,1821,1,0,0,10,73.109550
-1828,1827,2,0,0,1,66.980888
-1848,-171,3,1,0,8,56.810490
998,-1386,4,0,0,0,732.742920
419,1782,1,0,0,10,73.109550
-829,174,2,0,0,0,934.404053
-172,-1890,3,0,0,8,56.810490
92,-176,4,0,0,0,1352.722290
376,1883,1,0,0,10,73.109550
-1734,1673,2,0,0,1,66.980888
-1311,-1001,3,0,0,0,742.731995
1183,-250,4,0,0,0,831.949463
667,290,1,0,0,0,978.323364
-1585,462,2,0,0,0,742.471436
-572,-1926,3,0,0,8,56.810490
1220,-377,4,0,0,0,816.260681
271,633,1,0,0,0,994.101746
-1660,1690,2,0,0,1,66.980888
-969,-793,3,0,0,0,821.900452
702,-182,4,0,0,0,979.159546
1895,528,1,0,0,10,73.109550
-1205,1654,2,0,0,1,66.980888
-989,-1019,3,0,0,0,785.729919
1127,-1696,4,0,0,15,84.156570
704,501,1,0,0,0,928.677673
-1667,923,2,0,0,1,66.980888
-1557,-1170,3,0,0,8,56.810490
1869,-482,4,0,0,15,84.156570
1256,540,1,0,0,0,796.631165
-1027,288,2,0,0,0,868.033813
-715,-303,3,0,0,0,959.446045
1588,-599,4,0,0,0,734.546082
896,637,1,0,0,0,859.332520
-1119,162,2,0,0,0,851.251526
-952,-174,3,0,0,0,896.032837
1645,-1951,4,0,0,15,84.156570
686,460,1,0,0,0,941.675781
-773,524,2,0,0,0,906.302979
-287,-1140,3,0,0,0,840.045593
520,-9,4,0,0,0,1075.014282
1155,1882,1,0,0,10,73.109550
-1845,37,2,0,0,8,56.810490
-982,-399,3,0,0,0,869.835022
605,-1949,4,0,0,15,84.156570
1924,128,1,1,0,10,73.109550
-1510,628,2,1,0,1,66.980888
-107,-525,3,0,0,0,1066.429932
1212,-54,4,0,0,0,830.981812
654,1042,1,0,0,0,826.971802
-302,18,2,0,0,0,1231.282959
-1847,-1512,3,0,0,8,56.810490
972,-898,4,0,0,0,805.998535
1644,575,1,0,0,0,727.135559
-704,1020,2,0,0,0,824.846313
-408,-1839,3,0,0,8,56.810490
620,-1415,4,0,0,0,761.530823
536,892,1,0,0,0,875.127502
-104,1155,2,0,0,0,843.962952
-1206,-218,3,1,0,8,56.810490
1894,-882,4,0,0,15,84.156570
947,1103,1,0,0,0,778.986084
-1879,929,2,0,0,1,66.980888
-161,-748,3,0,0,0,963.716187
174,-964,4,0,0,0,892.541199
1091,1693,1,0,0,10,73.109550
-189,355,2,0,0,0,1149.160278
-390,-1674,3,0,0,0,730.917725
588,-1630,4,0,0,0,728.594604
1277,132,1,1,0,10,73.109550
-1443,1405,2,0,0,1,66.980888
-1206,-1093,3,0,0,0,746.559448
180,-1879,4,0,0,8,56.810490
1631,1420,1,0,0,10,73.109550
-1031,1581,2,0,0,1,66.980888
-1834,-790,3,0,0,8,56.810490
1401,-1991,4,0,0,15,84.156570
54,980,1,0,0,0,891.980469
-687,1671,2,0,0,1,66.980888
-667,-1054,3,0,0,0,823.005554
311,-323,4,0,0,0,1117.790161
1435,1822,1,0,0,10,73.109550
-321,1505,2,0,0,0,762.651367
-844,-187,3,0,0,0,928.544800
1243,-729,4,0,0,0,781.517761
1089,519,1,0,0,0,832.610657
-1862,1453,2,0,0,1,66.980888
-525,-567,3,0,0,0,960.867554
1103,-1480,4,0,0,15,84.156570
259,102,1,0,0,0,1255.308228
-533,1266,2,0,0,0,795.276428
-26,-1830,3,0,0,8,56.810490
321,-1320,4,0,0,0,798.464661
1997,1747,1,0,0,10,73.109550
-1065,494,2,0,0,0,840.431946
-1306,-1394,3,0,0,8,56.810490
1878,-508,4,0,0,15,84.156570
1047,1511,1,0,0,10,73.109550
-887,14,2,0,0,0,921.096985
-838,-779,3,0,0,0,847.839478
1266,-1505,4,0,0,15,84.156570
1289,1874,1,0,0,10,73.109550
-265,536,2,0,0,0,1034.791138
-1471,-748,3,1,0,8,56.810490
938,-1701,4,0,0,15,84.156570
1242,1496,1,0,0,10,73.109550
-372,1305,2,0,0,0,798.778931
-1973,-949,3,0,0,8,56.810490
1807,-1449,4,0,0,15,84.156570
276,1536,1,0,0,0,758.622925
-1778,1935,2,0,0,1,66.980888
-1914,-219,3,0,0,8,56.810490
1694,-741,4,0,0,15,84.156570
406,330,1,0,0,0,1073.289551
-205,1602,2,1,0,1,66.980888
-1919,-1153,3,0,0,8,56.810490
1059,-951,4,0,0,0,785.061707
745,511,1,0,0,0,915.853149
-1972,1647,2,0,0,1,66.980888
-1973,-405,3,0,0,8,56.810490
648,-189,4,0,0,0,999.839539
1422,1996,1,0,0,10,73.109550
-1681,942,2,0,0,1,66.980888
-1718,-839,3,0,0,8,56.810490
1630,-286,4,0,0,0,741.787598
9,1471,1,0,0,0,775.594604
-1413,1161,2,0,0,1,66.980888
-224,-1508,3,0,0,0,765.333008
396,-1265,4,1,0,15,84.156570
1731,800,1,0,0,10,73.109550
-1549,1596,2,0,0,1,66.980888
-273,-160,3,0,0,0,1218.328369
1398,-1020,4,0,0,0,728.969299
1490,206,1,0,0,0,769.195679
-1623,664,2,0,0,0,725.180420
-1737,-1124,3,0,0,8,56.810490
559,-1603,4,0,0,0,734.469299
74,586,1,0,0,0,1038.321411
-545,133,2,0,0,0,1053.176636
-356,-738,3,0,0,0,943.978271
351,-720,4,0,0,0,950.514221
362,1585,1,0,0,0,746.874756
-1277,325,2,0,0,0,807.221375
-1018,-231,3,0,0,0,874.236450
1882,-1877,4,0,0,15,84.156570
1309,1228,1,0,0,10,73.109550
-1105,383,2,0,0,0,841.536987
-190,-1038,3,0,0,0,871.119141
1194,-202,4,1,0,10,73.109550
1004,831,1,0,0,0,810.383057
-1676,1809,2,0,0,1,66.980888
-1247,-1166,3,0,0,0,732.862549
820,-1566,4,0,0,15,84.156570
930,1148,1,0,0,0,774.346924
-1772,4,2,0,0,8,56.810490
-521,-768,3,0,0,0,908.104126
1628,-188,4,0,0,0,744.588806
71,246,1,0,0,0,1279.421509
-1544,175,2,0,0,0,759.860596
-534,-439,3,0,0,0,992.967224
815,-1180,4,0,0,0,782.898438
1749,454,1,0,0,10,73.109550
-681,176,2,0,0,0,987.970215
-1528,-1739,3,0,0,8,56.810490
746,-1637,4,0,0,15,84.156570
1874,91,1,0,0,10,73.109550
-799,650,2,0,0,0,878.089783
-1466,-1613,3,0,0,8,56.810490
5,-1184,4,0,0,0,837.987671
858,559,1,0,0,0,879.762268
-1774,689,2,0,0,1,66.980888
-356,-1967,3,0,0,8,56.810490
325,-559,4,0,0,0,1012.225830
1715,843,1,0,0,10,73.109550
-104,1953,2,0,0,1,66.980888
-1770,-357,3,0,0,8,56.810490
1394,-682,4,0,0,0,760.229736
443,282,1,0,0,0,1072.220703
-1811,826,2,0,0,1,66.980888
-1508,-452,3,0,0,0,756.117432
1947,-1817,4,0,0,15,84.156570
463,1591,1,0,0,0,741.424072
-1261,1497,2,0,0,1,66.980888
-1085,-1607,3,0,0,8,56.810490
44,-14,4,0,0,0,1773.648804
1649,1568,1,0,0,10,73.109550
-1210,1730,2,0,0,1,66.980888
-773,-382,3,0,0,0,929.289246
822,-893,4,0,0,0,830.857300
1051,811,1,0,0,0,805.087769
-1002,546,2,0,0,0,848.607056
-674,-124,3,0,0,0,995.469482
1662,-180,4,0,0,0,738.887207
964,449,1,0,0,0,868.893738
-1544,536,2,0,0,0,745.365234
-285,-1987,3,1,0,8,56.810490
1552,-1702,4,0,0,15,84.156570
514,207,1,0,0,0,1056.733276
-299,1939,2,0,0,1,66.980888
-1119,-1358,3,0,0,0,724.190979
478,-1326,4,0,0,0,787.862854
914,390,1,0,0,0,888.411377
-402,1241,2,0,0,0,810.120422
-1754,-79,3,0,0,0,724.820374
1062,-198,4,0,0,0,864.365173
325,551,1,0,0,0,1015.320190
-281,445,2,0,0,0,1071.587646
-1448,-1907,3,0,0,8,56.810490
607,-1344,4,0,0,0,774.875427
1658,829,1,0,0,10,73.109550
-146,454,2,0,0,0,1100.010132
-247,-1843,3,0,0,8,56.810490
290,-1210,4,0,0,0,823.710083
42,262,1,0,0,0,1269.123779
-1366,1790,2,0,0,1,66.980888
-1382,-1967,3,0,0,8,56.810490
1518,-1215,4,0,0,15,84.156570
1022,278,1,0,0,0,870.060242
-1880,1182,2,0,0,1,66.980888
-31,-1125,3,0,0,0,852.587830
1126,-1432,4,0,0,15,84.156570
315,1162,1,0,0,0,833.186462
-386,148,2,0,0,0,1141.220947
-37,-1377,3,0,0,0,794.467407
1832,-1811,4,0,0,15,84.156570
130,968,1,0,0,0,893.391052
-1619,865,2,0,0,1,66.980888
-635,-1836,3,0,0,8,56.810490
326,-1608,4,0,0,0,744.257446
716,1397,1,0,0,0,756.936279
-1213,969,2,0,0,0,760.112244
-1377,-1935,3,0,0,8,56.810490
1617,-757,4,0,0,15,84.156570
1318,1686,1,0,0,10,73.109550
-1855,661,2,0,0,1,66.980888
-8,-64,3,0,0,0,1677.211914
293,-1577,4,0,0,0,750.752747
1390,864,1,0,0,0,744.970337
-1463,1993,2,0,0,1,66.980888
-768,-1288,3,0,0,0,770.072144
520,-881,4,0,0,0,880.048767
1050,255,1,0,0,0,864.306274
-1972,1225,2,0,0,1,66.980888
-1648,-1452,3,1,0,8,56.810490
719,-622,4,0,0,0,901.155457
461,296,1,0,0,0,1060.014038
-1034,1555,2,0,0,1,66.980888
-1481,-779,3,0,0,0,738.602539
267,-60,4,0,0,0,1260.223755
1703,1378,1,0,0,10,73.109550
-1923,1231,2,0,0,1,66.980888
-780,-826,3,1,0,8,56.810490
475,422,1,1,0,10,73.109550
-1032,10,2,0,0,0,877.518066
-1132,-116,3,0,0,0,849.409241
-1178,1428,2,0,0,1,66.980888
-976,-69,3,0,0,0,892.876831
-697,1006,2,0,0,0,828.465088
-1765,-327,3,0,0,8,56.810490
-1228,740,2,0,0,0,782.971130
-1137,-986,3,0,0,0,769.041565
-178,514,2,0,0,0,1062.073730
-653,-414,3,0,0,0,960.700745
-1080,6,2,0,0,0,864.440796
-1086,-1468,3,0,0,8,56.810490
-83,1008,2,0,0,0,883.332947
-172,-1957,3,0,0,8,56.810490
-1324,427,2,0,0,0,791.632690
-412,-647,3,0,0,0,962.997314
-342,1879,2,0,0,1,66.980888
-512,-1549,3,0,0,0,745.886353
-1247,1426,2,0,0,1,66.980888
-1705,741,2,0,0,1,66.980888
-352,1648,2,0,0,0,736.588440
-801,974,2,0,0,0,819.854492
-1322,554,2,0,0,0,783.040039
-949,1726,2,0,0,1,66.980888
-17,1199,2,0,0,0,834.339844
-350,323,2,0,0,0,1100.392944
-1094,339,2,0,0,0,847.546326
-630,454,2,0,0,0,959.450317
-80,242,2,0,0,0,1280.732056
-451,1495,2,0,0,0,758.448975
-1179,917,2,0,0,0,771.215515
-680,757,2,0,0,0,881.585266
-88,1306,2,0,0,0,809.135864
-496,866,2,0,0,0,887.180969
-1300,635,2,0,0,0,780.364929
-523,268,2,0,0,0,1039.782959
-1627,128,2,0,0,0,745.780273
-298,418,2,0,0,0,1078.769165
-123,1943,2,0,0,1,66.980888
-47,1363,2,0,0,0,797.336975
