each times' max average throughput
548.638916,562.289062,0.000000,557.507324,0.000000,557.809875,0.000000,0.000000,557.203857,565.017761,564.579163,0.000000,560.742432,563.437744,562.322876,556.223572,0.000000,0.000000,0.000000,0.000000,0.000000,0.000000,566.807983,556.231934,0.000000,561.960571,557.051331,560.381287,564.374512,0.000000,0.000000,565.928223,565.242676,0.000000,554.789917,563.280640,562.081421,564.809631,0.000000,567.871704,0.000000,0.000000,0.000000,0.000000,564.518921,563.075928,0.000000,561.329895,0.000000,0.000000,551.875061,0.000000,0.000000,0.000000,559.282593,0.000000,0.000000,0.000000,0.000000,0.000000,0.000000,0.000000,0.000000,0.000000,0.000000,0.000000,0.000000,0.000000,0.000000,0.000000,0.000000,0.000000,0.000000,0.000000,0.000000,0.000000,0.000000,0.000000,0.000000,0.000000,0.000000,0.000000,0.000000,0.000000,0.000000,0.000000,0.000000,0.000000,0.000000,0.000000,0.000000,0.000000,0.000000,0.000000,0.000000,0.000000,0.000000,0.000000,0.000000,0.000000,
avg. throughput in all test times
162.666656
avg. BS TX power in all test times
MBS area 1,MBS area 2,MBS area 3,MBS area 4,MBS area 5,MBS area 6,MBS area 7,MBS area 8,CBSD 1,CBSD 2,CBSD 3,CBSD 4,CBSD 5,CBSD 6,CBSD 7,CBSD 8,
7.363,5.625,6.100,6.238,6.125,5.688,5.762,5.500,0.000,0.000,0.000,0.000,0.000,0.000,0.000,0.000,
avg. mbs all power,avg. cbsd enable number,avg. mbs area all power,avg. cbsd all power
48.400,0.000,48.400,0.000
avg. max avg. throughput generation number in all test times
0.310000
avg. number of relay UE
0



the max average throughput times

BS TX power
MBS area 1,MBS area 2,MBS area 3,MBS area 4,MBS area 5,MBS area 6,MBS area 7,MBS area 8,CBSD 1,CBSD 2,CBSD 3,CBSD 4,CBSD 5,CBSD 6,CBSD 7,CBSD 8,
8.750,5.000,6.250,6.250,6.250,5.000,5.000,5.000,0.000,0.000,0.000,0.000,0.000,0.000,0.000,0.000,
max average throughput
559.282593

x,y,area,be blocked (1 : NLOS / 0 : LOS),be blocked number (>=1 : CBSD(x) / 0 : no),connect bs number (>=1 : CBSD / 0 : MBS),throughput (unit : M bps)
131,1729,1,0,0,0,709.273438
692,98,2,0,0,0,889.959167
-1856,1067,3,1,0,0,1.772662
-316,1500,4,0,0,0,696.386292
-733,-1607,5,0,0,0,655.879272
-1548,-1074,6,0,0,0,605.700928
1552,-496,7,1,0,0,3.201024
200,-1274,8,0,0,0,713.932129
999,1441,1,1,0,0,4.474780
1997,1099,2,0,0,0,551.740051
-1921,1477,3,0,0,0,565.985718
-1858,1858,4,0,0,0,543.116150
-1423,-1993,5,1,0,0,1.186773
-1803,-673,6,1,0,0,1.950946
1248,-994,7,0,0,0,653.062317
1224,-1791,8,0,0,0,565.731812
326,587,1,1,0,0,64.247589
1107,1046,2,0,0,0,666.335388
-1178,233,3,0,0,0,766.391907
-473,747,4,0,0,0,854.394531
-525,-783,5,0,0,0,835.944031
-1159,-1049,6,0,0,0,658.891418
1608,-938,7,0,0,0,609.115540
861,-1552,8,1,0,0,2.482736
195,785,1,0,0,0,928.466064
1584,430,2,0,0,0,644.977722
-1274,138,3,0,0,0,747.739136
-1007,1029,4,1,0,0,5.747916
-883,-1365,5,0,0,0,679.574768
-463,-34,6,0,0,0,1007.831116
1280,-1273,7,1,0,0,2.360344
820,-1800,8,0,0,0,591.889465
1805,1873,1,1,0,0,1.385423
1881,407,2,0,0,0,599.666626
-675,86,3,0,0,0,929.797607
-1853,1908,4,1,0,0,0.927165
-1656,-1894,5,1,0,0,1.094822
-1221,-1165,6,0,0,0,637.046570
1840,-968,7,0,0,0,577.754089
1365,-1435,8,0,0,0,591.525574
553,608,1,0,0,0,923.868042
864,338,2,0,0,0,808.457886
-1860,1039,3,0,0,0,602.475159
-606,934,4,1,0,0,12.153857
-371,-906,5,0,0,0,825.076172
-183,-176,6,0,0,0,1181.864258
1413,-1240,7,0,0,0,606.327026
1049,-1791,8,0,0,0,578.231323
1247,1389,1,0,0,0,688.166504
824,151,2,0,0,0,837.816101
-1274,719,3,0,0,0,709.776855
-399,1059,4,0,0,0,783.425537
-1157,-1537,5,0,0,0,631.514526
1494,-453,7,0,0,0,659.267883
1192,-1199,8,0,0,0,636.527039
219,1570,1,0,0,0,734.980103
-753,460,3,0,0,0,854.971619
-905,1237,4,0,0,0,696.426758
-968,-1096,5,0,0,0,709.897156
429,-354,7,0,0,0,955.747620
1001,-1656,8,0,0,0,598.121521
250,1047,1,0,0,0,846.183899
-1701,478,3,0,0,0,655.780945
-421,725,4,0,0,0,869.699219
-301,-1480,5,0,0,0,700.642944
1758,-946,7,1,0,0,1.748996
559,-830,8,1,0,0,13.335798
903,1318,1,1,0,0,5.886210
-1699,1100,3,1,0,0,2.095367
-1851,1883,4,0,0,0,541.744324
-544,-1164,5,1,0,0,8.023558
1588,-1018,7,0,0,0,605.369385
865,-878,8,1,0,0,7.290244
733,1173,1,0,0,0,774.101746
-1460,523,3,0,0,0,693.059387
-1167,-1949,5,1,0,0,1.485190
1675,-218,7,0,0,0,636.792419
1929,-2000,8,0,0,0,496.118469
1374,1548,1,0,0,0,658.633301
-1391,882,3,0,0,0,675.843445
-190,-1292,5,0,0,0,742.318237
1305,-768,7,1,0,0,3.977234
1200,1824,1,0,0,0,643.396667
-1158,801,3,0,0,0,720.726135
-410,-1952,5,1,0,0,2.188732
812,-405,7,0,0,0,814.838562
22,594,1,0,0,0,1017.246155
-1810,487,3,0,0,0,638.933350
-264,-632,5,1,0,0,46.208622
443,-311,7,0,0,0,963.589355
202,1802,1,0,0,0,696.464233
-1330,421,3,0,0,0,723.383301
-108,-679,5,0,0,0,926.816284
488,-175,7,0,0,0,976.013123
900,1924,1,0,0,0,651.245361
-191,-927,5,0,0,0,834.800232
896,-498,7,0,0,0,779.788635
1688,-1546,7,0,0,0,550.559570
1500,-723,7,0,0,0,640.867981
1064,-315,7,0,0,0,757.030762


each generation good chromosome number
2,1,0,