each times' max average throughput
660.748657,643.293884,655.176819,631.559387,629.732483,657.060730,644.638184,656.131104,659.303833,663.448608,632.135498,645.357788,640.512085,650.355530,655.132996,629.561401,636.190186,652.804871,647.387451,659.534058,647.075195,645.661255,640.517822,645.839905,653.750488,648.457947,640.085754,645.847717,666.513855,644.096375,647.496643,655.488281,649.018311,651.610413,656.723999,665.121948,638.756226,647.976379,654.952393,647.393127,646.844971,656.357971,648.819153,650.913696,655.972290,653.620911,660.109131,668.210938,639.906311,654.096497,647.708252,635.639465,659.853027,639.337769,649.898132,651.370605,653.915344,647.827393,650.040405,650.040405,650.040405,650.040405,650.040405,650.040405,650.040405,650.040405,650.040405,650.040405,650.040405,650.040405,650.040405,650.040405,650.040405,650.040405,650.040405,650.040405,650.040405,650.040405,650.040405,650.040405,650.040405,650.040405,650.040405,650.040405,650.040405,650.040405,650.040405,650.040405,650.040405,650.040405,650.040405,650.040405,650.040405,650.040405,650.040405,650.040405,650.040405,650.040405,650.040405,650.040405,
avg. throughput in all test times
649.644897
avg. BS TX power in all test times
MBS area 1,MBS area 2,MBS area 3,MBS area 4,CBSD 1,CBSD 2,CBSD 3,CBSD 4,CBSD 5,CBSD 6,CBSD 7,CBSD 8,CBSD 9,
9.100,7.800,8.850,7.162,0.009,0.079,0.006,0.142,0.404,0.215,0.538,0.096,0.104,
avg. mbs all power,avg. cbsd enable number,avg. mbs area all power,avg. cbsd all power
47.838,1.000,32.912,1.592
avg. max avg. throughput generation number in all test times
0.210000
avg. number of relay UE
26



the max average throughput times

BS TX power
MBS area 1,MBS area 2,MBS area 3,MBS area 4,CBSD 1,CBSD 2,CBSD 3,CBSD 4,CBSD 5,CBSD 6,CBSD 7,CBSD 8,CBSD 9,
10.000,7.500,8.750,6.250,0.000,0.000,0.000,0.000,0.750,0.000,0.875,0.000,0.000,
max average throughput
650.040405

x,y,area,be blocked (1 : NLOS / 0 : LOS),be blocked number (>=1 : CBSD(x) / 0 : no),connect bs number (>=1 : CBSD / 0 : MBS),throughput (unit : M bps)
131,205,1,0,0,0,1294.168823
-1326,886,2,0,0,0,711.165222
-117,-1872,3,0,0,0,686.787964
1726,-1445,4,0,0,0,586.858032
708,3,1,0,0,0,986.078796
-217,1541,2,1,0,5,496.753693
-958,-1683,3,0,0,0,677.649231
177,-1044,4,0,0,0,802.525391
197,646,1,0,0,0,999.681519
-899,1663,2,0,0,0,662.511047
-872,-541,3,1,0,5,304.007355
842,-1435,4,0,0,0,672.955017
1407,550,1,1,0,5,216.726013
-1420,668,2,1,0,5,501.096436
-1189,-1187,3,0,0,0,718.315002
1710,-924,4,0,0,0,628.586609
1314,299,1,1,0,5,219.233139
-1016,718,2,0,0,0,782.404663
-1700,-577,3,0,0,0,699.325562
382,-387,4,0,0,0,994.412659
1726,903,1,0,0,0,695.070923
-1777,1693,2,0,0,0,588.182373
-1058,-46,3,0,0,0,850.882263
682,-229,4,0,0,0,913.758301
1474,1888,1,0,0,0,636.022034
-1788,1359,2,0,0,0,613.403748
-1719,-1585,3,0,0,0,623.869446
988,-1953,4,1,0,7,269.522522
1948,451,1,0,0,0,687.592346
-1370,1002,2,0,0,0,693.319824
-194,-291,3,1,0,5,328.783875
1076,-271,4,1,0,7,257.145660
1740,21,1,1,0,7,181.900772
-664,484,2,0,0,0,901.736755
-47,-871,3,0,0,0,906.726685
1471,-1584,4,0,0,0,598.350037
1526,1204,1,1,0,5,208.351883
-1337,921,2,0,0,0,706.047119
-679,-1816,3,0,0,0,677.320007
271,-801,4,1,0,7,325.778717
717,1357,1,0,0,0,763.412903
-799,440,2,0,0,0,871.664551
-105,-1807,3,1,0,7,230.403625
345,-499,4,0,0,0,962.877563
594,657,1,0,0,0,921.551636
-22,754,2,0,0,0,926.371765
-1761,-471,3,1,0,5,267.491608
1963,-1662,4,1,0,7,203.035416
977,1201,1,0,0,0,760.912537
-971,1074,2,0,0,5,831.550232
-451,-863,3,0,0,0,875.039551
1809,-835,4,0,0,0,621.534851
949,1243,1,0,0,0,758.024353
-1670,436,2,0,0,0,688.529907
-1420,-194,3,0,0,0,763.905396
1891,-182,4,1,0,7,185.468582
1535,263,1,0,0,0,759.218201
-1926,851,2,1,0,5,374.194489
-844,-614,3,0,0,0,855.066895
1265,-1169,4,1,0,7,350.461914
1200,1897,1,0,0,0,654.540527
-1920,355,2,1,0,5,342.199982
-473,-1558,3,0,0,0,727.303040
1957,-132,4,0,0,0,625.994629
1202,1217,1,0,0,0,732.306458
-1401,1510,2,0,0,0,638.024109
-1801,-1847,3,0,0,0,595.919556
657,-1521,4,0,0,0,674.152588
1143,1710,1,0,0,0,679.510986
-1378,689,2,0,0,0,721.055908
-557,-670,3,0,0,0,907.049011
162,-162,4,0,0,0,1243.696045
1513,1858,1,1,0,5,195.414902
-1082,854,2,0,0,0,752.966614
-1699,-67,3,0,0,0,714.884888
385,-1073,4,0,0,0,781.324463
1689,1427,1,0,0,0,658.842224
-1056,662,2,1,0,5,640.582642
-1550,-874,3,0,0,0,701.859619
264,93,1,0,0,0,1253.716187
-349,1087,2,1,0,5,670.496216
-1569,-294,3,0,0,0,732.977905
1840,917,1,0,0,0,679.648071
-1068,1551,2,0,0,0,663.615967
-1709,-1201,3,0,0,0,656.028198
158,1907,1,0,0,0,700.172729
-1744,-28,3,0,0,0,707.582092
1671,1672,1,1,0,5,187.170639
-272,-535,3,0,0,0,1014.462769
431,1326,1,1,0,5,365.315582
-1312,-1415,3,1,0,5,190.064041
1109,1450,1,0,0,0,713.664124
-1736,-1015,3,1,0,5,212.584641
1394,290,1,0,0,0,784.958740
-1742,-441,3,0,0,0,699.054260
1299,231,1,0,0,0,806.856995
326,318,1,0,0,0,1113.305908
1751,447,1,0,0,0,716.554688
1363,1798,1,0,0,0,653.076355
1383,1442,1,1,0,5,219.391220


each generation good chromosome number
10,10,8,