each times' max average throughput
579.119080,612.634827,595.420715,623.464661,625.637451,604.907959,607.247925,639.530884,639.283386,613.537292,648.504883,615.965515,599.062134,638.207947,613.374390,620.455078,638.228699,616.677917,633.188416,649.719604,608.663574,594.611084,642.679565,630.198792,591.394775,638.566528,594.348816,615.645264,648.355103,605.389282,638.213623,608.587891,636.896545,612.653137,633.869568,648.512329,646.869385,610.549072,586.361938,639.981995,620.599976,651.928589,649.377808,654.871704,644.653564,644.580078,637.281799,641.743896,605.054749,649.839172,643.553955,635.338867,645.260254,649.126221,624.846802,618.498840,607.428406,588.330261,583.624390,630.865967,619.704529,610.302795,620.738770,629.954346,610.448792,642.723206,622.133606,631.401611,628.543457,634.780884,643.775391,655.575317,606.100281,596.049377,633.526855,624.061646,643.494080,641.962769,597.579163,618.417114,633.174194,626.092712,622.183350,612.433899,650.496521,610.840088,641.602966,589.083923,586.261719,616.384949,626.960144,608.459167,643.660828,636.493164,635.643616,621.050598,631.079041,641.049072,649.203064,608.784851,
avg. throughput in all test times
624.755371
avg. BS TX power in all test times
MBS area 1,MBS area 2,MBS area 3,MBS area 4,CBSD 1,CBSD 2,CBSD 3,CBSD 4,CBSD 5,CBSD 6,CBSD 7,CBSD 8,CBSD 9,
7.650,7.438,7.738,7.175,0.119,0.200,0.204,0.177,0.255,0.243,0.184,0.121,0.192,
avg. mbs all power,avg. cbsd enable number,avg. mbs area all power,avg. cbsd all power
46.575,2.000,30.000,1.695
avg. max avg. throughput generation number in all test times
0.840000
avg. number of relay UE
27

the max average throughput times

BS TX power
MBS area 1,MBS area 2,MBS area 3,MBS area 4,CBSD 1,CBSD 2,CBSD 3,CBSD 4,CBSD 5,CBSD 6,CBSD 7,CBSD 8,CBSD 9,
8.750,6.250,6.250,6.250,0.875,0.000,0.000,0.000,0.000,0.000,1.000,0.000,1.000,
max average throughput
608.784851

x,y,area,be blocked (1 : NLOS / 0 : LOS),be blocked number (>=1 : CBSD(x) / 0 : no),connect bs number (>=1 : CBSD / 0 : MBS),throughput (unit : M bps)
131,205,1,0,0,0,1274.906982
-1326,886,2,0,0,0,685.070129
-117,-1872,3,0,0,0,638.738525
1726,-1445,4,0,0,0,586.858032
708,3,1,0,0,0,966.836487
-217,1541,2,1,0,1,295.240295
-958,-1683,3,0,0,0,629.631958
177,-1044,4,0,0,0,802.525391
197,646,1,0,0,0,980.437256
-899,1663,2,0,0,0,636.499512
-872,-541,3,1,0,9,302.063141
842,-1435,4,0,0,0,672.955017
1407,550,1,1,0,9,145.862122
-1420,668,2,1,0,9,474.777130
-1189,-1187,3,0,0,0,670.168823
1710,-924,4,0,0,0,628.586609
1314,299,1,1,0,9,151.633804
-1016,718,2,0,0,0,756.228577
-1700,-577,3,0,0,0,651.235107
382,-387,4,0,0,0,994.412659
1726,903,1,0,0,0,675.973022
-1777,1693,2,0,0,0,562.367554
-1058,-46,3,0,0,0,802.497864
682,-229,4,0,0,0,913.758301
1474,1888,1,0,0,0,617.008240
-1788,1359,2,0,0,0,587.510681
-1719,-1585,3,0,0,0,576.088867
988,-1953,4,1,0,7,111.575783
1948,451,1,0,0,0,668.503235
-1370,1002,2,0,0,0,667.252380
-194,-291,3,1,0,9,277.883331
1076,-271,4,1,0,9,160.169098
1740,21,1,1,0,9,125.345078
-664,484,2,0,0,0,875.489136
-47,-871,3,0,0,0,858.291504
1471,-1584,4,0,0,0,598.350037
1526,1204,1,1,0,1,135.033691
-1337,921,2,0,0,0,679.959534
-679,-1816,3,0,0,0,629.303894
271,-801,4,1,0,9,195.113449
717,1357,1,0,0,0,744.252197
-799,440,2,0,0,0,845.429504
-105,-1807,3,1,0,9,147.774307
345,-499,4,0,0,0,962.877563
594,657,1,0,0,0,902.321838
-22,754,2,0,0,0,900.115051
-1761,-471,3,1,0,9,279.408569
1963,-1662,4,1,0,9,90.105614
977,1201,1,0,0,0,741.753601
-971,1074,2,0,0,0,712.733032
-451,-863,3,0,0,0,826.630798
1809,-835,4,0,0,0,621.534851
949,1243,1,0,0,0,738.867554
-1670,436,2,0,0,0,662.470154
-1420,-194,3,0,0,0,715.651917
1891,-182,4,1,0,9,116.341576
1535,263,1,0,0,0,740.060486
-1926,851,2,1,0,9,316.576477
-844,-614,3,0,0,0,806.677979
1265,-1169,4,1,0,7,144.009644
1200,1897,1,0,0,0,635.496582
-1920,355,2,1,0,9,335.569244
-473,-1558,3,0,0,0,679.132935
1957,-132,4,0,0,0,625.994629
1202,1217,1,0,0,0,713.170654
-1401,1510,2,0,0,0,612.066467
-1801,-1847,3,0,0,0,548.301453
657,-1521,4,0,0,0,674.152588
1143,1710,1,0,0,0,660.431946
-1378,689,2,0,0,0,694.947266
-557,-670,3,0,0,0,858.613586
162,-162,4,0,0,0,1243.696045
1513,1858,1,1,0,1,126.604889
-1082,854,2,0,0,0,726.819336
-1699,-67,3,0,0,0,666.748230
385,-1073,4,0,0,0,781.324463
1689,1427,1,0,0,0,639.791809
-1056,662,2,1,0,9,596.037964
-1550,-874,3,0,0,0,653.761292
264,93,1,0,0,0,1234.455200
-349,1087,2,1,0,1,373.829224
-1569,-294,3,0,0,0,684.793457
1840,917,1,0,0,0,660.568909
-1068,1551,2,0,0,0,637.602417
-1709,-1201,3,0,0,0,608.095703
158,1907,1,0,0,0,681.068970
-1744,-28,3,0,0,0,659.466553
1671,1672,1,1,0,1,121.773994
-272,-535,3,0,0,0,965.971008
431,1326,1,1,0,1,224.313660
-1312,-1415,3,1,0,9,191.628601
1109,1450,1,0,0,0,694.546021
-1736,-1015,3,1,0,9,218.843704
1394,290,1,0,0,0,765.783630
-1742,-441,3,0,0,0,650.964600
1299,231,1,0,0,0,787.669312
326,318,1,0,0,0,1094.050659
1751,447,1,0,0,0,697.433716
1363,1798,1,0,0,0,634.034668
1383,1442,1,1,0,1,141.183456


each generation good chromosome number
1,2,4,