mbs coordinate
0,0

cbsd coordinate and channel
-970,900,2
740,900,1
980,-860,1
-750,-850,5
-750,1000,4
1050,600,2
760,-1135,3
-870,-1100,1
-1080,450,1
970,530,3

building coordinate
-885,985
-1055,815
830,810
650,990
1060,-860
900,-860
-830,-770
-670,-930
-668,1070
-832,930
965,675
1135,525
832,-1059
688,-1211
-965,-1035
-775,-1165
-1135,365
-1025,535
907,591
1033,469

area numbers
32,22,27,19,

x , y , block , block number
area 1
131,205,0,0
708,3,0,0
197,646,0,0
1407,550,1,0
1314,299,1,0
1726,903,0,0
1474,1888,0,0
1948,451,0,0
1740,21,1,0
1526,1204,1,0
717,1357,0,0
594,657,0,0
977,1201,0,0
949,1243,0,0
1535,263,0,0
1200,1897,0,0
1202,1217,0,0
1143,1710,0,0
1513,1858,1,0
1689,1427,0,0
264,93,0,0
1840,917,0,0
158,1907,0,0
1671,1672,1,0
431,1326,1,0
1109,1450,0,0
1394,290,0,0
1299,231,0,0
326,318,0,0
1751,447,0,0
1363,1798,0,0
1383,1442,1,0
area 2
-1326,886,0,0
-217,1541,1,0
-899,1663,0,0
-1420,668,1,0
-1016,718,0,0
-1777,1693,0,0
-1788,1359,0,0
-1370,1002,0,0
-664,484,0,0
-1337,921,0,0
-799,440,0,0
-22,754,0,0
-971,1074,0,0
-1670,436,0,0
-1926,851,1,0
-1920,355,1,0
-1401,1510,0,0
-1378,689,0,0
-1082,854,0,0
-1056,662,1,0
-349,1087,1,0
-1068,1551,0,0
area 3
-117,-1872,0,0
-958,-1683,0,0
-872,-541,1,0
-1189,-1187,0,0
-1700,-577,0,0
-1058,-46,0,0
-1719,-1585,0,0
-194,-291,1,0
-47,-871,0,0
-679,-1816,0,0
-105,-1807,1,0
-1761,-471,1,0
-451,-863,0,0
-1420,-194,0,0
-844,-614,0,0
-473,-1558,0,0
-1801,-1847,0,0
-557,-670,0,0
-1699,-67,0,0
-1550,-874,0,0
-1569,-294,0,0
-1709,-1201,0,0
-1744,-28,0,0
-272,-535,0,0
-1312,-1415,1,0
-1736,-1015,1,0
-1742,-441,0,0
area 4
1726,-1445,0,0
177,-1044,0,0
842,-1435,0,0
1710,-924,0,0
382,-387,0,0
682,-229,0,0
988,-1953,1,0
1076,-271,1,0
1471,-1584,0,0
271,-801,1,0
345,-499,0,0
1963,-1662,1,0
1809,-835,0,0
1891,-182,1,0
1265,-1169,1,0
1957,-132,0,0
657,-1521,0,0
162,-162,0,0
385,-1073,0,0

near cbsd peopel number
9
4
1
4
5
5
3
3
8
5
