each times' max average throughput
726.203613,716.916382,0.000000,0.000000,0.000000,0.000000,730.006531,736.315674,741.435669,736.081726,690.267639,730.910645,733.959534,731.169189,733.625610,731.157227,732.243347,735.921326,737.983154,734.252380,0.000000,0.000000,0.000000,0.000000,0.000000,0.000000,0.000000,736.680908,725.185120,726.713928,721.232178,731.875183,733.194031,726.860718,734.018250,667.202759,685.654419,732.643250,728.344238,735.566223,729.618530,728.685425,731.165955,732.442078,729.233093,730.723389,731.711731,728.502380,736.654480,734.710754,684.218933,0.000000,0.000000,0.000000,685.535095,731.904663,706.974609,735.835510,738.178467,736.335327,730.400513,718.935608,731.981750,731.162048,740.017212,730.612732,729.506226,687.456421,697.339233,733.253174,736.367615,730.731873,736.253235,743.282654,716.702942,0.000000,0.000000,0.000000,0.000000,0.000000,0.000000,701.515869,724.929810,725.566162,736.363647,706.641663,726.899109,0.000000,0.000000,0.000000,0.000000,0.000000,736.948181,728.582703,727.748901,738.089233,743.912048,683.586731,0.000000,721.157410,
avg. throughput in all test times
536.919861
avg. BS TX power in all test times
MBS area 1,MBS area 2,MBS area 3,MBS area 4,CBSD 1,CBSD 2,CBSD 3,CBSD 4,CBSD 5,CBSD 6,CBSD 7,CBSD 8,CBSD 9,CBSD 10,CBSD 11,CBSD 12,CBSD 13,CBSD 14,CBSD 15,CBSD 16,CBSD 17,CBSD 18,CBSD 19,CBSD 20,CBSD 21,CBSD 22,CBSD 23,CBSD 24,CBSD 25,CBSD 26,
9.350,9.137,8.675,8.863,0.190,0.093,0.200,0.142,0.145,0.161,0.219,0.145,0.120,0.105,0.189,0.150,0.106,0.144,0.146,0.055,0.086,0.149,0.198,0.061,0.054,0.139,0.121,0.070,0.117,0.094,
avg. mbs all power,avg. cbsd enable number,avg. mbs area all power,avg. cbsd all power
68.950,4.000,36.025,3.399
avg. max avg. throughput generation number in all test times
58.570000
avg. number of relay UE
113

the max average throughput times

BS TX power
MBS area 1,MBS area 2,MBS area 3,MBS area 4,CBSD 1,CBSD 2,CBSD 3,CBSD 4,CBSD 5,CBSD 6,CBSD 7,CBSD 8,CBSD 9,CBSD 10,CBSD 11,CBSD 12,CBSD 13,CBSD 14,CBSD 15,CBSD 16,CBSD 17,CBSD 18,CBSD 19,CBSD 20,CBSD 21,CBSD 22,CBSD 23,CBSD 24,CBSD 25,CBSD 26,
8.750,7.500,8.750,10.000,0.000,0.000,1.000,0.000,0.000,0.000,0.000,0.000,0.000,0.000,0.000,1.000,0.500,0.000,0.000,0.000,0.000,0.000,0.000,0.000,0.000,0.000,0.625,0.750,0.000,0.000,
max average throughput
721.157410

x,y,area,be blocked (1 : NLOS / 0 : LOS),be blocked number (>=1 : CBSD(x) / 0 : no),connect bs number (>=1 : CBSD / 0 : MBS),throughput (unit : M bps)
897,1940,1,0,0,0,649.471741
-1303,1847,2,0,0,0,611.572144
-102,-153,3,0,0,0,1355.665771
1258,-358,4,0,0,0,809.358643
1502,535,1,0,0,0,733.314148
-725,1963,2,0,0,0,633.524536
-1207,-241,3,0,0,0,807.636230
1005,-1096,4,0,0,0,772.488342
288,1674,1,0,0,0,715.176025
-376,1812,2,0,0,0,668.596069
-1492,-1650,3,0,0,0,638.066895
1072,-863,4,1,0,3,378.025024
1944,1436,1,1,0,3,72.895142
-942,1096,2,0,0,0,739.394592
-1530,-1561,3,0,0,0,643.078979
205,-1019,4,0,0,0,875.470154
163,1203,1,1,0,13,161.904648
-630,101,2,0,0,0,974.609131
-1134,-1042,3,0,0,0,743.269958
910,-1862,4,0,0,0,677.344604
219,1373,1,0,0,0,772.617981
-1044,740,2,0,0,0,774.309082
-1543,-34,3,0,0,0,742.649353
1388,-1569,4,0,0,0,674.277405
1266,836,1,0,0,0,747.571838
-955,1877,2,0,0,0,631.708923
-1386,-1769,3,0,0,0,635.165100
1526,-394,4,0,0,0,755.796753
68,1065,1,0,0,0,848.671021
-133,1976,2,0,0,0,649.229675
-692,-290,3,0,0,0,950.113831
1192,-1061,4,1,0,3,268.138489
422,1200,1,0,0,0,798.169250
-1506,1040,2,0,0,0,671.763794
-959,-471,3,0,0,0,848.333862
393,-1680,4,0,0,0,729.831299
1791,1955,1,0,0,0,588.147705
-693,740,2,0,0,0,841.247925
-1568,-888,3,0,0,0,698.253113
703,-373,4,1,0,3,206.414749
1047,1241,1,0,0,0,728.105530
-1445,1098,2,0,0,0,674.173462
-1915,-1683,3,0,0,0,599.271729
1555,-711,4,0,0,0,732.421570
1876,1010,1,0,0,0,650.372070
-1243,1871,2,0,0,0,613.351318
-223,-435,3,0,0,0,1073.630005
1148,-9,4,0,0,0,846.864746
1562,501,1,0,0,0,725.169861
-980,586,2,0,0,0,807.052429
-960,-46,3,1,0,12,251.124252
547,-1226,4,0,0,0,801.865173
1319,1203,1,0,0,0,700.931641
-1406,1854,2,0,0,0,603.332642
-711,-586,3,0,0,0,890.956665
1925,-1809,4,0,0,0,608.153137
262,1000,1,0,0,0,857.825684
-1954,1662,2,0,0,0,575.663513
-1301,-558,3,0,0,0,767.448120
1334,-313,4,0,0,0,795.987732
426,1351,1,0,0,0,767.253906
-658,704,2,0,0,0,855.860107
-1887,-1631,3,1,0,12,115.520615
1143,-1491,4,0,0,0,705.432373
495,727,1,0,0,0,904.342224
-26,596,2,0,0,0,993.982483
-1551,-559,3,0,0,0,723.726440
1033,-832,4,0,0,0,805.333191
579,1775,1,0,0,0,688.103455
-496,1406,2,0,0,0,730.461121
-1514,-320,3,0,0,0,741.893188
769,-1123,4,0,0,0,797.916809
1988,1985,1,0,0,0,571.748352
-1625,1568,2,0,0,0,611.849915
-1096,-1036,3,0,0,0,749.273499
1064,-514,4,0,0,0,838.562317
431,1477,1,0,0,0,743.538330
-1898,1694,2,1,0,12,86.040688
-1168,-1560,3,0,0,0,675.847473
1160,-681,4,0,0,0,801.301941
733,218,1,0,0,0,944.628174
-393,1191,2,0,0,0,780.089905
-1185,-1506,3,0,0,0,680.653748
1761,-856,4,0,0,0,693.593811
73,890,1,0,0,0,899.965332
-1087,1101,2,0,0,0,719.844116
-1416,-1905,3,0,0,0,619.589294
1254,-435,4,1,0,3,216.103134
1544,1767,1,0,0,0,622.856628
-1173,792,2,0,0,0,745.381836
-1708,-911,3,0,0,0,677.766235
1412,-116,4,0,0,0,786.392639
641,777,1,1,0,3,105.874626
-1597,82,2,0,0,0,710.386719
-1355,-27,3,0,0,0,779.959229
831,-439,4,0,0,0,904.469238
472,1969,1,0,0,0,664.917175
-227,1483,2,0,0,0,728.668579
-1920,-1158,3,0,0,0,635.815002
185,-718,4,0,0,0,972.776123
1805,1457,1,0,0,0,626.134949
-1778,506,2,0,0,0,668.905334
-900,-1335,3,0,0,0,730.521851
398,-1230,4,0,0,0,812.709900
566,1363,1,0,0,0,755.486694
-1981,153,2,0,0,0,648.304871
-1030,-236,3,0,0,0,851.510071
645,-633,4,0,0,0,915.752930
1690,798,1,1,0,3,99.320335
-256,1200,2,0,0,0,786.379517
-212,-1319,3,0,0,0,784.087952
1172,-451,4,0,0,0,821.061340
1194,1838,1,0,0,0,642.297424
-1799,647,2,0,0,0,659.301270
-1312,-1269,3,0,0,0,694.574951
1367,-849,4,0,0,0,749.823730
697,198,1,0,0,0,960.169189
-849,1311,2,0,0,0,717.131287
-1147,-1932,3,0,0,0,635.224731
687,-1262,4,0,0,0,782.341553
1790,771,1,0,0,0,675.820312
-1888,1334,2,0,0,0,605.183167
-896,-1427,3,0,0,0,717.482117
1195,-1922,4,0,0,0,652.194946
227,10,1,0,0,0,1294.611572
-1088,1042,2,0,0,0,727.483582
-1742,-1991,3,0,0,0,588.775574
420,-1754,4,0,0,0,717.121460
474,186,1,0,0,0,1061.864014
-204,752,2,0,0,0,917.031860
-628,-209,3,0,0,0,986.259277
1570,-892,4,0,0,0,716.784973
182,1807,1,0,0,0,696.013916
-229,737,2,0,0,0,919.788635
-1476,-1627,3,0,0,0,641.650696
1252,-1612,4,1,0,3,172.970261
745,1286,1,0,0,0,753.478271
-1205,905,2,0,0,0,727.385864
-489,-1831,3,0,0,0,683.826233
393,-1584,4,0,0,0,745.780762
246,836,1,0,0,0,906.999146
-1763,650,2,0,0,0,664.243713
-161,-1839,3,0,0,0,691.341919
585,-225,4,0,0,0,1021.207153
472,50,1,0,0,0,1082.124146
-1171,1942,2,0,0,0,610.645996
-1514,-584,3,0,0,0,728.270996
1768,-1765,4,0,0,0,624.032715
103,745,1,0,0,0,949.432007
-1194,1875,2,0,0,0,616.325745
-1026,-512,3,0,0,0,828.004272
857,-638,4,0,0,0,867.551453
1337,1918,1,0,0,0,623.892456
-1997,369,2,0,0,0,642.070251
-1020,-1925,3,0,0,0,644.024963
530,-236,4,0,0,0,1043.485596
1481,752,1,0,0,0,721.592102
-1808,787,2,0,0,0,650.472839
-61,-967,3,0,0,0,876.467407
803,-80,4,0,0,0,948.372864
1642,1518,1,0,0,0,636.579102
-1540,1728,2,0,0,0,604.825195
-1769,-1921,3,0,0,0,592.452026
1076,-1052,4,0,0,0,769.072388
1319,1768,1,0,0,0,640.477539
-1387,1071,2,0,0,0,684.187988
-1683,-926,3,0,0,0,679.966064
88,-12,4,0,0,0,1584.905273
833,1087,1,0,0,0,776.964233
-576,1423,2,1,0,13,152.767487
-751,-1522,3,0,0,0,715.411316
750,-1527,4,0,0,0,733.866516
49,372,1,0,0,0,1149.919312
-1240,539,2,0,0,0,758.503662
-1674,-1696,3,0,0,0,618.467407
1848,-648,4,0,0,0,693.550842
1036,961,1,0,0,0,767.961121
-494,410,2,0,0,0,972.837646
-265,-551,3,0,0,0,1009.114380
63,-794,4,0,0,0,952.139343
648,685,1,0,0,0,884.293945
-377,860,2,0,0,0,863.309753
-1354,-1420,3,0,0,0,673.907532
1831,-784,4,0,0,0,688.701782
8,1078,1,1,0,13,209.945175
-1106,1667,2,0,0,0,646.354309
-493,-29,3,0,0,0,1070.682129
520,-1813,4,0,0,0,704.307495
1245,867,1,0,0,0,747.568054
-1373,1696,2,0,0,0,621.597595
-1090,-818,3,0,0,0,778.367432
797,-1868,4,0,0,0,683.136353
119,1352,1,0,0,0,779.544434
-189,1669,2,0,0,0,696.312378
-986,-1511,3,0,0,0,697.894348
378,-970,4,0,0,0,875.018005
1389,1409,1,0,0,0,671.519043
-56,1829,2,0,0,0,671.817566
-486,-325,3,1,0,12,183.527771
1546,-1684,4,0,0,0,649.330933
1938,633,1,0,0,0,662.952332
-794,1918,2,0,0,0,635.815247
-847,-236,3,0,0,0,904.425964
1196,-101,4,0,0,0,834.067505
948,727,1,0,0,0,816.208435
-643,319,2,0,0,0,940.676208
-1174,-830,3,0,0,0,762.990051
1936,-578,4,1,0,3,152.490463
1523,1470,1,0,0,0,652.240295
-842,1091,2,0,0,0,753.026611
-1758,-379,3,0,0,0,698.825684
1101,-1727,4,1,0,3,164.530502
1952,311,1,0,0,0,671.795959
-69,1202,2,0,0,0,791.822205
-473,-1935,3,0,0,0,669.584778
1021,-327,4,0,0,0,866.561890
523,546,1,0,0,0,947.909180
-1497,1836,2,1,0,12,84.355453
-1039,-692,3,0,0,0,803.571655
1276,-1698,4,0,0,0,670.324707
190,1894,1,0,0,0,682.571655
-1689,1656,2,0,0,0,598.664795
-1024,-22,3,0,0,0,860.487244
578,-335,4,0,0,0,1002.817139
41,792,1,0,0,0,934.147949
-517,443,2,0,0,0,955.901978
-547,-1300,3,1,0,12,135.888855
1285,-126,4,0,0,0,813.072021
242,632,1,1,0,13,117.550842
-755,1586,2,0,0,0,683.509216
-1807,-206,3,0,0,0,695.610413
1018,-412,4,0,0,0,859.632568
506,1690,1,0,0,0,704.333435
-848,1492,2,0,0,0,690.163391
-1495,-1272,3,0,0,0,673.785522
641,-6,4,0,0,0,1014.725830
696,435,1,0,0,0,924.259216
-429,21,2,0,0,0,1088.707520
-987,-1436,3,0,0,0,707.867371
1668,-766,4,0,0,0,712.099487
1991,1772,1,0,0,0,586.655518
-121,373,2,0,0,0,1114.965698
-1037,-1655,3,0,0,0,675.224976
1900,-815,4,0,0,0,678.042480
867,831,1,0,0,0,814.703674
-843,74,2,1,0,12,214.001312
-1544,-1779,3,0,0,0,621.760925
955,-1737,4,0,0,0,690.079468
1993,601,1,0,0,0,657.007446
-1863,959,2,0,0,0,633.152344
-622,-1567,3,0,0,0,717.319519
239,-981,4,1,0,3,178.870880
276,1917,1,0,0,0,677.618347
-788,938,2,0,0,0,786.833252
-1773,-113,3,0,0,0,702.316101
796,-127,4,0,0,0,948.697021
507,1019,1,0,0,0,830.143066
-1819,480,2,0,0,0,663.901001
-1298,-1849,3,0,0,0,633.670166
620,-84,4,0,0,0,1021.719421
667,398,1,1,0,3,128.452072
-603,1351,2,0,0,0,732.673401
-320,-1222,3,0,0,0,800.172424
1724,-1814,4,0,0,0,623.538086
1254,487,1,0,0,0,782.091492
-1067,1639,2,0,0,0,652.819641
-593,-1275,3,0,0,0,769.373230
479,-1159,4,0,0,0,821.450562
1917,1079,1,0,0,0,641.254944
-1539,97,2,0,0,0,720.795105
-1641,-1477,3,0,0,0,640.219055
256,-214,4,0,0,0,1203.031006
1268,1452,1,0,0,0,678.955872
-810,1045,2,0,0,0,764.926453
-1244,-1129,3,0,0,0,718.341125
1174,-551,4,0,0,0,811.803528
1098,1555,1,0,0,0,682.560120
-1765,1364,2,0,0,0,615.337158
-409,-844,3,0,0,0,885.842407
1359,-675,4,0,0,0,766.681702
892,1114,1,0,0,0,765.124939
-1636,610,2,0,0,0,685.226135
-1036,-1052,3,0,0,0,755.363159
1320,-9,4,0,0,0,806.715149
152,812,1,0,0,0,922.388367
-1654,97,2,0,0,0,700.229309
-454,-954,3,0,0,0,851.557068
1867,-1700,4,0,0,0,620.994568
237,1123,1,0,0,0,827.733459
-1743,1008,2,0,0,0,644.513245
-1321,-1014,3,0,0,0,720.847717
1528,-837,4,0,0,0,727.041443
1469,1078,1,0,0,0,695.076721
-621,523,2,0,0,0,905.186646
-186,-971,3,0,0,0,870.664062
963,-818,4,0,0,0,819.293518
924,1312,1,0,0,0,731.471069
-1040,90,2,0,0,0,832.843384
-682,-814,3,0,0,0,850.083801
64,-1981,4,0,0,0,690.106384
1287,1659,1,0,0,0,654.545044
-154,1509,2,0,0,0,725.520569
-890,-730,3,0,0,0,826.895264
676,-1196,4,0,0,0,795.234802
1482,639,1,0,0,0,729.836853
-1655,6,2,1,0,12,208.448959
-1554,-1384,3,0,0,0,657.102234
51,-1378,4,0,0,0,794.165771
1546,1107,1,0,0,0,682.878601
-1361,692,2,0,0,0,723.640320
-115,-106,3,0,0,0,1402.371948
24,-1371,4,0,0,0,795.782043
1997,602,1,0,0,0,656.443237
-1421,531,2,0,0,0,725.495422
-1390,-1922,3,0,0,0,619.789307
193,-2000,4,0,0,0,686.198730
1297,1998,1,0,0,0,618.579407
-54,1012,2,0,0,0,841.358582
-1944,-115,3,0,0,0,676.053101
550,-1410,4,0,0,0,767.425964
627,1954,1,1,0,3,63.092926
-1850,38,2,0,0,0,668.628723
-60,-586,3,0,0,0,1019.849609
227,-196,4,0,0,0,1233.799683
137,7,1,0,0,0,1440.207031
-488,1873,2,0,0,0,655.780701
-1021,-853,3,0,0,0,785.272461
1621,-1765,4,0,0,0,635.881897
682,897,1,0,0,0,833.022522
-1468,1385,2,1,0,12,104.104301
-911,-162,3,0,0,0,889.732788
1210,-1027,4,0,0,0,753.793396
1985,529,1,0,0,0,660.786133
-1372,763,2,0,0,0,715.668518
-530,-672,3,0,0,0,912.198120
862,-1777,4,0,0,0,691.117981
801,1302,1,0,0,0,745.397461
-1443,1627,2,1,0,12,93.034065
-357,-939,3,0,0,0,866.065857
167,-1280,4,0,0,0,813.141968
1122,803,1,0,0,0,774.818420
-1595,958,2,0,0,0,667.058167
-975,-1554,3,0,0,0,693.129028
971,-274,4,0,0,0,884.043518
1846,576,1,0,0,0,678.060059
-1433,1766,2,0,0,0,609.828796
-1888,-1106,3,0,0,0,642.775879
146,-7,4,0,0,0,1441.157593
1780,708,1,0,0,0,680.755005
-362,1387,2,0,0,0,741.732666
-488,-198,3,0,0,0,1052.147339
1534,-576,4,0,0,0,744.631409
773,1951,1,0,0,0,654.697998
-201,1987,2,0,0,0,646.837891
-1922,-358,3,1,0,12,182.238083
1806,-1495,4,1,0,3,148.402664
1618,560,1,0,0,0,712.895386
-116,69,2,0,0,0,1422.651367
-940,-1591,3,1,0,12,127.031578
384,-603,4,0,0,0,983.290894
275,546,1,0,0,0,1009.147278
-1595,699,2,0,0,0,685.977356
-976,-785,3,0,0,0,802.614258
1318,-1807,4,0,0,0,655.571106
561,1573,1,0,0,0,720.032898
-61,1664,2,0,0,0,698.803040
-1670,-198,3,0,0,0,718.040405
1416,-819,4,0,0,0,745.119263
1708,1913,1,0,0,0,597.596985
-948,227,2,0,0,0,852.543335
-400,-948,3,0,0,0,859.170471
891,-818,4,0,0,0,831.849426
1389,1693,1,0,0,0,642.543945
-1579,367,2,0,0,0,706.475769
-1994,-47,3,0,0,0,669.214783
705,-218,4,0,0,0,974.145630
573,210,1,0,0,0,1009.653931
-354,1277,2,0,0,0,764.277344
-523,-1041,3,0,0,0,823.441284
1074,-1915,4,1,0,3,146.885880
1345,1545,1,0,0,0,661.601196
-692,695,2,0,0,0,850.789246
-1780,-1906,3,0,0,0,592.834900
475,-46,4,0,0,0,1099.814331
1231,967,1,0,0,0,738.586426
-1642,1306,2,0,0,0,632.784363
-256,-1911,3,0,0,0,678.904907
1338,-1712,4,1,0,3,159.492035
920,1737,1,0,0,0,673.394409
-432,531,2,0,0,0,954.341858
-1440,-1174,3,0,0,0,689.505188
1324,-1551,4,0,0,0,681.964233
739,859,1,0,0,0,831.415100
-1150,661,2,0,0,0,764.001465
-900,-1945,3,0,0,0,648.698853
1327,-1539,4,0,0,0,682.969299
409,1755,1,0,0,0,698.247070
-1530,949,2,0,0,0,676.453369
-1828,-1552,3,0,0,0,616.684875
1434,-148,4,0,0,0,781.395386
1742,1479,1,0,0,0,630.403137
-247,213,2,0,0,0,1168.103271
-45,-237,3,0,0,0,1277.345093
789,-43,4,0,0,0,954.436523
158,1895,1,1,0,13,100.472214
-1022,737,2,0,0,0,778.751709
-1181,-132,3,0,0,0,817.732361
499,-1654,4,0,0,0,729.452820
664,227,1,0,0,0,969.402771
-1255,254,2,0,0,0,774.133484
-188,-1211,3,0,0,0,808.881348
209,-1914,4,0,0,0,698.406250
1244,578,1,0,0,0,776.493225
-1384,1642,2,0,0,0,626.151978
-168,-1722,3,0,0,0,709.898376
643,-62,4,0,0,0,1012.506409
145,549,1,0,0,0,1030.436035
-860,1272,2,0,0,0,722.026611
-761,-1307,3,0,0,0,748.464722
1166,-150,4,0,0,0,840.036499
1994,1640,1,0,0,0,595.693176
-15,1459,2,0,0,0,736.652222
-1358,-158,3,0,0,0,777.449890
1022,-586,4,0,0,0,839.431519
1525,876,1,0,0,0,705.216553
-162,641,2,0,0,0,964.355591
-852,-782,3,0,0,0,825.552612
1600,-1685,4,0,0,0,644.678589
534,1791,1,0,0,0,687.817749
-265,1368,2,0,0,0,749.858215
-1347,-230,3,0,0,0,777.589661
894,-1944,4,0,0,0,668.218628
1206,244,1,0,0,0,807.727173
-1831,1387,2,0,0,0,606.996582
-834,-1160,3,0,0,0,764.808472
1330,-243,4,0,0,0,799.833130
1536,1243,1,0,0,0,671.893860
-1280,545,2,0,0,0,750.318970
-1,-763,3,0,0,0,945.280640
1162,-622,4,0,0,0,807.157227
979,408,1,0,0,0,850.443481
-92,999,2,0,0,0,844.272339
-1579,-135,3,0,0,0,735.059692
1116,-570,4,1,0,3,259.393585
1593,601,1,1,0,3,110.564697
-270,565,2,0,0,0,980.009949
-406,-1304,3,0,0,0,777.747803
1763,-885,4,0,0,0,691.462585
1241,1624,1,0,0,0,662.235352
-1642,547,2,0,0,0,687.745361
-397,-930,3,0,0,0,864.176331
1491,-1926,4,0,0,0,631.251709
897,1208,1,0,0,0,749.946167
-1015,1098,2,0,0,0,729.626587
-1431,-482,3,0,0,0,748.922424
980,-1990,4,0,0,0,657.926819
1307,663,1,0,0,0,757.497437
-1216,719,2,0,0,0,745.925171
-54,-1021,3,0,0,0,860.996094
1355,-1650,4,0,0,0,668.839294
1257,1516,1,0,0,0,672.850342
-177,1114,2,0,0,0,810.564880
-1556,-701,3,0,0,0,713.826172
1331,-680,4,0,0,0,771.020569
1043,650,1,0,0,0,808.071533
-1165,869,2,0,0,0,737.769653
-592,-1712,3,0,0,0,696.751831
633,-74,4,0,0,0,1016.402466
1799,154,1,0,0,0,697.683350
-1438,1627,2,0,0,0,622.996399
-1774,-15,3,0,0,0,702.724792
1976,-1454,4,0,0,0,629.198303
1025,1450,1,0,0,0,702.459900
-580,101,2,0,0,0,997.794983
-1661,-1288,3,0,0,0,654.247192
388,-1140,4,1,0,3,191.707504
1558,253,1,0,0,0,736.211365
-869,1509,2,0,0,0,685.995483
-429,-865,3,1,0,12,156.364212
419,-1664,4,0,0,0,731.399780
274,406,1,0,0,0,1073.053223
-326,1165,2,0,0,0,790.447693
-510,-624,3,0,0,0,929.520996
810,-678,4,1,0,3,283.308136
854,1641,1,1,0,3,72.460571
-984,1009,2,0,0,0,746.593994
-401,-201,3,0,0,0,1098.425659
480,-176,4,1,0,3,167.574356
1713,1073,1,0,0,0,665.407471
-1364,864,2,0,0,0,707.621338
-1200,-1237,3,0,0,0,711.019531
854,-141,4,0,0,0,928.180664
1603,1689,1,0,0,0,625.042419
-224,213,2,0,0,0,1183.593872
-865,-1707,3,0,0,0,681.050903
1748,-1582,4,0,0,0,640.539856
775,493,1,0,0,0,891.848694
-1112,85,2,0,0,0,813.827637
-1280,-1217,3,0,0,0,703.995361
1058,-685,4,0,0,0,820.007324
825,76,1,0,0,0,921.556458
-563,1529,2,0,0,0,705.018311
-1310,-539,3,0,0,0,767.257996
1079,-1345,4,0,0,0,730.004028
1994,191,1,0,0,0,667.989258
-1555,1901,2,0,0,0,587.997986
-1485,-588,3,0,0,0,732.822021
1507,-179,4,0,0,0,766.645142
1278,701,1,0,0,0,759.051514
-992,136,2,0,0,0,844.831299
-539,-158,3,0,0,0,1033.573242
1647,-1366,4,0,0,0,668.212585
1408,955,1,1,0,3,96.476028
-398,1196,2,0,0,0,778.646240
-822,-635,3,0,0,0,856.450317
1789,-1992,4,0,0,0,604.325989
84,1561,1,0,0,0,738.977417
-270,555,2,0,0,0,984.186096
-267,-1938,3,0,0,0,674.748657
8,-1424,4,1,0,3,141.450439
1513,676,1,0,0,0,722.254456
-692,1939,2,0,0,0,638.169312
-537,-1208,3,0,0,0,787.103271
373,-310,4,0,0,0,1095.149536
558,513,1,0,0,0,947.183044
-819,443,2,0,0,0,865.732666
-1769,-345,3,0,0,0,698.199585
502,-1431,4,0,0,0,766.852661
1976,1266,1,0,0,0,622.828125
-70,337,2,0,0,0,1152.577271
-1359,-1340,3,0,0,0,681.818054
237,-328,4,0,0,0,1147.381714
1777,1418,1,0,0,0,631.871643
-1062,1468,2,0,0,0,674.640930
-993,-477,3,0,0,0,839.528320
236,-10,4,0,0,0,1302.677124
1414,314,1,0,0,0,760.866150
-1934,198,2,0,0,0,654.518005
-365,-359,3,0,0,0,1060.296387
572,-1208,4,0,0,0,803.133606
985,1386,1,0,0,0,714.878296
-657,986,2,0,0,0,796.427246
-1265,-166,3,1,0,12,332.221619
318,-1100,4,0,0,0,847.615601
1529,1623,1,0,0,0,637.394348
-59,1339,2,0,0,0,761.015930
-1474,-655,3,0,0,0,729.998779
1462,-1061,4,0,0,0,716.670959
1472,1370,1,0,0,0,666.883728
-1712,1738,2,0,0,0,589.897156
-1925,-1133,3,0,0,0,636.898071
462,-366,4,0,0,0,1038.931030
237,13,1,0,0,0,1282.020630
-912,1672,2,0,0,0,660.386841
-333,-875,3,0,0,0,886.351196
475,-1839,4,0,0,0,702.302246
1596,769,1,0,0,0,703.122131
-591,847,2,0,0,0,835.912720
-1867,-184,3,0,0,0,686.728149
1130,-1739,4,0,0,0,677.149231
440,535,1,0,0,0,973.137878
-900,267,2,0,0,0,863.381531
-1779,-1196,3,0,0,0,648.629700
72,-435,4,0,0,0,1122.633911
968,1079,1,0,0,0,760.642273
-803,683,2,0,0,0,830.020813
-323,-308,3,1,0,12,164.356949
1794,-925,4,0,0,0,684.900513
951,718,1,1,0,3,110.904839
-1074,462,2,1,0,12,176.223083
-1627,-209,3,0,0,0,725.171631
1092,-1895,4,0,0,0,661.958679
1385,859,1,0,0,0,727.032349
-391,822,2,0,0,0,872.260193
-1667,-800,3,0,0,0,690.878967
497,-535,4,0,0,0,977.171570
1730,1299,1,0,0,0,646.013794
-289,198,2,0,0,0,1147.487427
-774,-1755,3,0,0,0,680.387756
1835,-588,4,0,0,0,698.178955
485,1780,1,0,0,0,691.519104
-1176,61,2,1,0,12,247.828644
-235,-732,3,0,0,0,943.100098
606,-537,4,0,0,0,947.403503
1330,714,1,1,0,3,109.025658
-870,613,2,1,0,12,154.927048
-1655,-1546,3,0,0,0,632.959351
92,-1795,4,0,0,0,718.112610
718,445,1,0,0,0,915.970032
-1573,591,2,0,0,0,696.194702
-666,-559,3,1,0,12,200.978058
381,-1513,4,0,0,0,758.690247
1495,1328,1,0,0,0,668.485168
-1336,1551,2,0,0,0,639.795532
-1524,-1228,3,1,0,12,153.778519
480,-81,4,0,0,0,1094.091675
963,1041,1,0,0,0,766.941467
-890,1882,2,0,0,0,634.995667
-782,-980,3,0,0,0,802.328491
423,-505,4,0,0,0,1006.863342
942,266,1,0,0,0,873.537048
-1542,224,2,0,0,0,717.812866
-1627,-1554,3,0,0,0,634.835693
263,-896,4,0,0,0,906.322937
1719,493,1,0,0,0,700.436523
-817,86,2,0,0,0,901.793945
-1963,-194,3,0,0,0,672.383118
658,-52,4,0,0,0,1006.295166
1249,1358,1,0,0,0,691.496460
-1852,755,2,1,0,12,132.460571
-1701,-474,3,0,0,0,704.060303
1012,-1397,4,0,0,0,729.884155
784,1177,1,0,0,0,767.733643
-506,1204,2,1,0,13,165.649323
-877,-1540,3,0,0,0,703.024048
1473,-1026,4,0,0,0,718.471802
22,1538,1,0,0,0,743.620728
-1137,1689,2,0,0,0,641.334839
-547,-730,3,0,0,0,893.835938
537,-1513,4,0,0,0,750.487610
391,23,1,0,0,0,1137.533691
-542,210,2,0,0,0,1001.474915
-1815,-340,3,0,0,0,691.258728
1663,-1611,4,0,0,0,645.694763
842,1744,1,0,0,0,677.639648
-108,4,2,0,0,0,1486.773315
-1836,-1975,3,0,0,0,583.352600
318,-1436,4,0,0,0,775.641052
1471,1800,1,0,0,0,625.528625
-1385,1552,2,0,0,0,635.228943
-1055,-398,3,0,0,0,832.830505
475,-1976,4,0,0,0,682.943420
556,790,1,0,0,0,877.324585
-181,1019,2,0,0,0,835.316406
-1613,-144,3,0,0,0,728.857239
371,-489,4,0,0,0,1027.234619
361,925,1,0,0,0,869.416565
-825,970,2,0,0,0,775.719727
-1207,-1402,3,0,0,0,690.729919
750,-389,4,0,0,0,935.148010
1603,450,1,0,0,0,720.905884
-555,853,2,1,0,13,154.349655
-816,-1386,3,0,0,0,730.819519
587,-572,4,1,0,3,219.617050
355,654,1,1,0,3,107.654556
-554,771,2,0,0,0,860.141663
-1744,-1152,3,0,0,0,655.846436
687,-1192,4,0,0,0,794.821045
1613,1,1,0,0,0,729.994995
-1039,1931,2,0,0,0,620.207520
-785,-261,3,0,0,0,921.988342
45,-1978,4,0,0,0,690.615295
582,754,1,0,0,0,881.391296
-68,1628,2,0,0,0,705.007751
-1138,-1089,3,1,0,24,191.852661
66,-109,4,0,0,0,1480.752441
756,1057,1,0,0,0,792.024170
-1049,255,2,0,0,0,823.181885
-233,-110,3,0,0,0,1258.340698
1310,-434,4,0,0,0,793.941406
1527,142,1,0,0,0,744.474182
-1227,480,2,0,0,0,765.931152
-559,-1761,3,0,0,0,691.100403
321,-761,4,0,0,0,941.682922
157,1315,1,1,0,13,137.251328
-161,1127,2,0,0,0,807.908936
-849,-735,3,0,0,0,834.012146
444,-25,4,0,0,0,1120.168701
989,844,1,0,0,0,791.882019
-956,1557,2,0,0,0,672.252808
-1455,-1006,3,0,0,0,703.556763
1199,-225,4,0,0,0,829.391479
1187,1868,1,0,0,0,639.519348
-652,966,2,0,0,0,801.170654
-1333,-662,3,0,0,0,753.068909
477,-199,4,0,0,0,1076.811890
1253,1634,1,0,0,0,660.114380
-610,1540,2,0,0,0,700.303711
-1868,-479,3,0,0,0,678.850647
1298,-862,4,0,0,0,759.072937
767,618,1,0,0,0,871.731750
-509,1288,2,0,0,0,751.614990
-146,-783,3,0,0,0,932.902954
1851,-565,4,1,0,3,159.951004
402,1376,1,0,0,0,763.839355
-154,25,2,0,0,0,1380.843384
-1175,-905,3,0,0,0,754.075500
305,-872,4,1,0,3,188.846420
1293,836,1,0,0,0,743.328918
-600,78,2,1,0,12,184.225906
-164,-1727,3,0,0,0,709.139099
504,-92,4,0,0,0,1079.343872
1662,1978,1,0,0,0,595.499634
-1757,168,2,0,0,0,682.132019
-727,-1026,3,0,0,0,801.482422
864,-210,4,0,0,0,920.433838
839,490,1,1,0,3,124.310745
-1586,330,2,0,0,0,706.673950
-1809,-1431,3,0,0,0,627.748474
968,-1041,4,1,0,3,313.456116
1430,121,1,0,0,0,763.521118
-1084,11,2,0,0,0,821.983582
-272,-1274,3,0,0,0,791.321960
1132,-496,4,1,0,3,239.627701
1578,621,1,0,0,0,715.648132
-112,1076,2,0,0,0,822.579163
-1547,-340,3,0,0,0,735.211365
1378,-645,4,0,0,0,765.910522
1998,58,1,0,0,0,668.601135
-641,1191,2,1,0,13,149.328949
-1077,-472,3,0,0,0,820.764587
834,-1226,4,1,0,3,239.727737
1234,1731,1,0,0,0,651.013489
-446,840,2,0,0,0,859.638123
-1948,-1801,3,1,0,12,105.598381
1749,-304,4,0,0,0,721.663574
1426,430,1,0,0,0,752.858948
-1008,1155,2,0,0,0,722.482788
-124,-1835,3,1,0,3,117.010422
550,-974,4,1,0,3,228.231552
309,999,1,0,0,0,854.519653
-1005,1399,2,0,0,0,689.095825
-1310,-324,3,1,0,12,358.850830
1755,-107,4,0,0,0,724.415771
44,1912,1,0,0,0,681.222717
-170,363,2,0,0,0,1108.636597
-298,-1674,3,0,0,0,714.885376
1443,-164,4,0,0,0,779.276733
1062,693,1,1,0,3,112.202263
-1021,1709,2,0,0,0,647.751038
-207,-908,3,0,0,0,887.870422
746,-156,4,0,0,0,964.846130
885,162,1,0,0,0,897.807495
-456,964,2,0,0,0,826.703247
-987,-1411,3,0,0,0,711.264587
990,-197,4,0,0,0,883.903198
527,1588,1,0,0,0,719.498535
-238,1082,2,0,0,0,815.735901
-1589,-1320,3,0,0,0,659.196106
1562,-203,4,0,0,0,755.961853
1090,480,1,1,0,3,125.164780
-299,999,2,0,0,0,833.146545
-1447,-1635,3,0,0,0,643.395142
1256,-155,4,0,0,0,818.837891
1654,1001,1,0,0,0,678.127869
-689,165,2,0,0,0,944.433289
-657,-641,3,0,0,0,892.043945
683,-1758,4,0,0,0,704.320068
1505,747,1,0,0,0,718.297607
-8,166,2,0,0,0,1362.612549
-866,-1967,3,0,0,0,647.893127
482,-518,4,0,0,0,986.258545
162,689,1,0,0,0,966.925110
-1190,1257,2,0,0,0,687.708191
-198,-1178,3,0,0,0,816.243286
1449,-174,4,0,0,0,777.871948
1818,1094,1,0,0,0,651.556213
-1188,1303,2,0,0,0,682.413391
-566,-163,3,0,0,0,1019.879211
1369,-1336,4,0,0,0,700.272522
1862,1624,1,0,0,0,608.186340
-1539,1693,2,0,0,0,608.120667
-23,-1305,3,0,0,0,790.773315
1494,-579,4,0,0,0,751.059753
222,44,1,0,0,0,1295.759033
-1567,590,2,1,0,12,155.703690
-1013,-176,3,0,0,0,859.382568
1920,-1050,4,0,0,0,661.797119
332,1863,1,0,0,0,684.252563
-1096,378,2,0,0,0,802.676880
-840,-829,3,0,0,0,819.715332
120,-1664,4,0,0,0,739.470947
1724,1675,1,0,0,0,616.005615
-631,210,2,0,0,0,962.672302
-159,-1995,3,0,0,0,668.246216
1545,-489,4,0,0,0,747.807190
460,1953,1,0,0,0,667.516663
-880,1934,2,0,0,0,629.175049
-124,-733,3,0,0,0,952.773865
1657,-434,4,0,0,0,731.909546
673,626,1,0,0,0,891.655701
-1031,604,2,0,0,0,793.998474
-979,-1419,3,0,0,0,710.931213
1330,-1450,4,0,0,0,692.199524
1346,187,1,0,0,0,779.184631
-652,26,2,0,0,0,968.144409
-793,-220,3,0,0,0,923.489746
1874,-1373,4,0,0,0,644.737183
747,479,1,0,0,0,901.778503
-825,1979,2,0,0,0,626.602234
-1521,-1537,3,0,0,0,646.150574
1387,-644,4,0,0,0,764.454651
1321,360,1,0,0,0,777.026794
-897,1224,2,0,0,0,725.397217
-319,-69,3,0,0,0,1190.141235
323,-1098,4,0,0,0,847.746521
598,1943,1,0,0,0,663.768250
-1105,893,2,0,0,0,744.291748
-1956,-974,3,1,0,12,151.010574
1027,-1183,4,0,0,0,757.522644
1461,1494,1,0,0,0,655.914368
-1903,351,2,0,0,0,655.843933
-1754,-1169,3,0,0,0,653.434875
920,-1656,4,0,0,0,703.050720
1464,1217,1,0,0,0,682.530212
-1485,516,2,0,0,0,715.266846
-1089,-198,3,0,0,0,838.166321
175,-484,4,0,0,0,1078.030762
564,714,1,0,0,0,894.567383
-1450,1478,2,0,0,0,636.550842
-1847,-1132,3,0,0,0,645.632385
1882,-570,4,1,0,3,157.180878
417,534,1,0,0,0,979.517761
-128,1515,2,0,0,0,724.848816
-1348,-484,3,0,0,0,764.092529
1253,-454,4,1,0,3,219.225677
965,1673,1,0,0,0,678.417480
-1249,1116,2,1,0,12,120.467133
-908,-1147,3,0,0,0,758.015808
1622,-1016,4,0,0,0,700.112854
568,1766,1,0,0,0,689.940735
-869,1408,2,0,0,0,700.621094
-549,-911,3,1,0,12,162.697723
1197,-496,4,0,0,0,812.064392
930,1042,1,0,0,0,771.318665
-500,44,2,0,0,0,1043.777588
-1421,-360,3,0,0,0,757.429138
11,-1733,4,0,0,0,728.557800
1334,1754,1,0,0,0,640.756531
-1385,82,2,0,0,0,751.097778
-1221,-561,3,0,0,0,782.419067
1243,-1154,4,0,0,0,734.734253
1939,1325,1,1,0,3,76.230705
-1309,748,2,0,0,0,727.264038
-274,-99,3,0,0,0,1222.904297
659,-752,4,0,0,0,886.630920
1298,1403,1,0,0,0,681.397278
-767,1340,2,0,0,0,720.436646
-1368,-1915,3,0,0,0,622.020935
331,-870,4,0,0,0,907.237915
1179,45,1,0,0,0,819.795410
-1805,1847,2,0,0,0,573.759766
-71,-1813,3,0,0,0,696.290222
1288,-226,4,0,0,0,809.417969
580,916,1,0,0,0,844.119690
-36,1761,2,0,0,0,682.723389
-1668,-457,3,1,0,12,218.381882
505,-721,4,0,0,0,923.328308
108,488,1,0,0,0,1067.225220
-1165,1310,2,0,0,0,684.070923
-105,-114,3,0,0,0,1404.990479
890,-205,4,0,0,0,912.714966
501,1493,1,0,0,0,736.864563
-1904,906,2,0,0,0,631.359375
-94,-809,3,0,0,0,926.483582
62,-826,4,0,0,0,940.849548
856,917,1,0,0,0,802.172974
-84,586,2,0,0,0,996.202454
-1852,-889,3,0,0,0,660.780884
261,-290,4,0,0,0,1157.913574
1518,911,1,0,0,0,703.319824
-167,964,2,0,0,0,851.494873
-62,-650,3,0,0,0,990.167786
1985,-1261,4,1,0,3,144.921875
470,265,1,0,0,0,1045.157837
-1877,337,2,0,0,0,660.018616
-720,-1283,3,0,0,0,756.387939
279,-864,4,0,0,0,914.415100
1767,698,1,0,0,0,683.119019
-417,1985,2,0,0,0,642.418457
-1501,-959,3,0,0,0,701.574890
1707,-107,4,0,0,0,732.335693
76,541,1,0,0,0,1041.572021
-921,606,2,0,0,0,817.135559
-421,-1159,3,0,0,0,807.106750
1224,-346,4,1,0,3,204.958771
332,190,1,0,0,0,1144.353882
-277,1344,2,0,0,0,754.254211
-1150,-1805,3,0,0,0,649.087830
628,-675,4,0,0,0,909.998413
1942,1736,1,0,0,0,593.172974
-240,359,2,0,0,0,1087.153687
-696,-1839,3,0,0,0,673.291931
252,-731,4,0,0,0,960.686340
304,1463,1,0,0,0,751.930115
-645,64,2,0,0,0,970.072327
-921,-1626,3,0,0,0,687.847107
1513,-859,4,0,0,0,727.434204
965,1472,1,0,0,0,704.984863
-1890,1175,2,0,0,0,615.996399
-1658,-130,3,0,0,0,721.229126
789,-999,4,0,0,0,817.145935
149,1784,1,0,0,0,700.130493
-187,1907,2,0,0,0,658.654175
-1211,-947,3,0,0,0,743.778442
227,-470,4,0,0,0,1073.979492
1131,1958,1,0,0,0,633.410400
-374,205,2,0,0,0,1090.739014
-1244,-1325,3,0,0,0,695.806274
417,-534,4,0,0,0,998.761963
827,79,1,0,0,0,920.767822
-606,100,2,0,0,0,985.588623
-203,-1647,3,0,0,0,721.854675
252,-1505,4,0,0,0,765.068176
1341,707,1,0,0,0,747.791565
-1072,1741,2,0,0,0,640.144165
-135,-793,3,1,0,3,142.003860
1772,-1476,4,0,0,0,646.825378
171,596,1,0,0,0,1005.072693
-1367,1324,2,0,0,0,660.610046
-767,-1741,3,0,0,0,682.728149
590,-695,4,0,0,0,913.233887
272,295,1,0,0,0,1130.561646
-310,1839,2,0,0,0,666.390137
-1949,-1677,3,0,0,0,596.862732
1293,-1775,4,0,0,0,660.799683
1386,280,1,0,0,0,767.775757
-1917,1570,2,0,0,0,585.482056
-486,-385,3,0,0,0,1005.086060
775,-1741,4,0,0,0,701.346619
1356,890,1,0,0,0,728.402466
-1157,1345,2,0,0,0,680.652527
-1909,-612,3,0,0,0,667.764893
1933,-1165,4,0,0,0,652.988647
1292,1625,1,0,0,0,657.779114
-1372,1413,2,0,0,0,650.813721
-515,-1022,3,0,0,0,828.564331
568,-1822,4,0,0,0,700.929382
976,1788,1,0,0,0,663.193481
-868,804,2,0,0,0,796.837646
-1978,-102,3,0,0,0,671.216797
1289,-488,4,0,0,0,794.303345
1684,402,1,0,0,0,709.709412
-543,1759,2,0,0,0,670.097046
-391,-960,3,0,0,0,857.042053
61,-1410,4,0,0,0,787.497437
642,566,1,0,0,0,912.191040
-604,1036,2,0,0,0,792.962036
-562,-1042,3,0,0,0,818.813110
637,-1497,4,0,0,0,746.684448
795,754,1,0,0,0,841.082153
-149,42,2,0,0,0,1383.089233
-1626,-1183,3,0,0,0,666.895020
135,-724,4,0,0,0,974.715210
356,1128,1,1,0,13,130.286896
-565,774,2,0,0,0,857.461670
-702,-723,3,0,0,0,865.161560
1298,-230,4,1,0,3,184.681732
374,1983,1,0,0,0,665.881226
-335,1739,2,0,0,0,681.168457
-1774,-1858,3,0,0,0,597.114136
150,-33,4,0,0,0,1426.871948
1570,81,1,1,0,3,142.525940
-1845,1615,2,0,0,0,588.458923
-997,-1120,3,1,0,24,186.656143
1367,-1094,4,1,0,3,226.671112
1302,1447,1,0,0,0,676.179382
-1046,876,2,0,0,0,755.907898
-495,-1461,3,0,0,0,742.797485
1970,-778,4,0,0,0,671.124939
1999,547,1,1,0,3,102.544189
-242,1985,2,0,0,0,646.473083
-1773,-1150,3,1,0,12,149.898941
345,-799,4,0,0,0,926.607300
23,1718,1,0,0,0,711.895630
-804,1618,2,0,0,0,675.449951
-910,-1686,3,0,0,0,680.714844
196,-1546,4,0,0,0,759.032593
1329,570,1,0,0,0,761.335632
-331,1256,2,0,0,0,770.028015
-1662,-886,3,0,0,0,685.607056
1362,-1043,4,0,0,0,731.475830
1411,595,1,0,0,0,744.898499
-133,129,2,1,0,0,457.803253
-795,-1215,3,0,0,0,760.165955
1260,-1173,4,0,0,0,730.474243
1106,775,1,0,0,0,780.970703
-780,1763,2,0,0,0,656.917175
-1946,-1731,3,0,0,0,593.210327
785,-1362,4,0,0,0,756.528870
1476,359,1,0,0,0,747.210388
-1627,1664,2,0,0,0,603.283752
-1609,-1187,3,0,0,0,668.512512
1823,-933,4,1,0,3,167.696457
1736,1590,1,0,0,0,621.939941
-1913,1636,2,0,0,0,581.022034
-654,-1960,3,1,0,12,102.036972
1445,-927,4,0,0,0,731.258728
8,268,1,1,0,0,329.439331
-117,1966,2,0,0,0,650.817749
-554,-383,3,1,0,12,192.221405
945,-1655,4,0,0,0,701.333008
685,1137,1,0,0,0,785.927795
-1162,63,2,0,0,0,801.599854
-642,-1882,3,0,0,0,670.084961
373,-1263,4,0,0,0,807.391541
679,1247,1,1,0,3,85.430923
-1942,1270,2,0,0,0,604.119324
-1549,-543,3,0,0,0,724.988586
370,-1011,4,0,0,0,865.358521
332,1929,1,0,0,0,674.594238
-329,1573,2,0,0,0,708.969299
-1831,-392,3,0,0,0,687.270447
757,-1897,4,0,0,0,681.515076
1514,195,1,0,0,0,745.802185
-1251,83,2,0,0,0,780.184753
-455,-292,3,0,0,0,1044.582764
1294,-212,4,0,0,0,808.633362
337,364,1,0,0,0,1069.401978
-303,1537,2,0,0,0,716.273071
-1570,-732,3,0,0,0,709.553711
406,-1822,4,0,0,0,707.270142
1637,1940,1,0,0,0,600.508118
-1542,537,2,0,0,0,704.409119
-1938,-969,3,0,0,0,645.572754
1289,-302,4,0,0,0,805.872559
523,840,1,0,0,0,870.415222
-333,1492,2,0,0,0,723.286377
-1430,-1909,3,1,0,12,108.327896
1367,-1617,4,0,0,0,671.214294
1489,1736,1,0,0,0,630.162903
-35,1830,2,0,0,0,671.742737
-1213,-1222,3,0,0,0,711.285767
244,-203,4,0,0,0,1217.443481
35,1255,1,0,0,0,801.933350
-1109,1797,2,0,0,0,630.942139
-1739,-499,3,0,0,0,697.113647
1920,-1550,4,0,0,0,627.546570
466,1857,1,0,0,0,680.913025
-1771,1733,2,0,0,0,585.483582
-521,-914,3,1,0,12,160.371750
1532,-995,4,0,0,0,713.463562
447,1665,1,0,0,0,710.929443
-295,1391,2,0,0,0,744.048340
-1170,-1330,3,0,0,0,703.157593
993,-705,4,0,0,0,829.890198
1070,1497,1,0,0,0,692.265869
-721,348,2,0,0,0,909.224060
-976,-611,3,0,0,0,826.797974
628,-1302,4,0,0,0,780.614685
271,1383,1,0,0,0,768.731628
-648,1094,2,0,0,0,776.144592
-1548,-938,3,1,0,12,181.926193
1952,-509,4,0,0,0,685.064819
1277,1524,1,1,0,3,75.696594
-527,1081,2,0,0,0,792.147339
-237,-391,3,0,0,0,1092.907959
1584,-1737,4,0,0,0,641.363403
583,1796,1,0,0,0,684.872375
-735,1693,2,1,0,13,120.095657
-1510,-1385,3,0,0,0,661.523682
1962,-856,4,0,0,0,668.099915
1332,564,1,0,0,0,761.254700
-51,18,2,0,0,0,1686.522705
-231,-747,3,0,0,0,938.230530
1363,-1397,4,0,0,0,694.510315
1102,84,1,1,0,3,156.753555
-616,357,2,0,0,0,943.017090
-1408,-1323,3,1,0,12,148.220901
520,-404,4,0,0,0,1006.975769
390,1781,1,0,0,0,694.903748
-1642,1834,2,0,0,0,587.343811
-155,-1831,3,0,0,0,692.660278
119,-1972,4,0,0,0,691.038574
247,102,1,0,0,0,1247.818359
-1036,73,2,1,0,12,236.552841
-990,-621,3,0,0,0,822.540527
653,-1950,4,1,0,3,140.299774
159,1550,1,0,0,0,739.919434
-124,248,2,0,0,0,1214.943115
-1833,-23,3,0,0,0,693.346985
1792,-848,4,0,0,0,690.036743
1012,1579,1,0,0,0,686.815857
-1131,1402,2,0,0,0,676.309753
-257,-683,3,0,0,0,958.118713
1373,-379,4,0,0,0,784.857117
421,189,1,0,0,0,1090.234497
-582,30,2,0,0,0,1000.725952
-320,-1848,3,0,0,0,686.811096
169,-388,4,0,0,0,1134.458130
495,1030,1,0,0,0,828.980408
-1927,1552,2,0,0,0,585.893005
-771,-674,3,0,0,0,860.534241
1591,-1830,4,0,0,0,632.515076
1832,1171,1,0,0,0,644.583618
-1856,1962,2,0,0,0,561.094849
-1052,-1567,3,1,0,12,129.910004
975,-994,4,0,0,0,791.383789
150,1223,1,0,0,0,807.323669
-44,916,2,0,0,0,870.117126
-674,-57,3,0,0,0,979.995728
268,-478,4,0,0,0,1059.932007
1308,671,1,0,0,0,756.612305
-1758,1061,2,0,0,0,638.921082
-1161,-206,3,0,0,0,819.971924
1559,-625,4,0,0,0,737.535889
350,1092,1,0,0,0,827.988586
-1626,508,2,0,0,0,692.279175
-569,-433,3,0,0,0,963.996887
1950,-444,4,0,0,0,687.537537
1816,1538,1,0,0,0,618.853394
-1653,1033,2,0,0,0,653.767334
-1952,-355,3,0,0,0,670.728088
925,-100,4,0,0,0,907.377075
1204,1041,1,0,0,0,733.818665
-715,1764,2,0,0,0,660.560425
-1705,-44,3,0,0,0,714.002075
1481,-1087,4,0,0,0,711.846558
876,296,1,0,0,0,889.930054
-1394,1022,2,0,0,0,688.111206
-1667,-556,3,0,0,0,705.446960
1156,-1233,4,0,0,0,735.741821
1219,1779,1,0,0,0,646.915833
-140,319,2,0,0,0,1149.099243
-1962,-943,3,0,0,0,644.245422
1700,-57,4,0,0,0,733.915161
406,349,1,0,0,0,1047.397705
-436,1968,2,0,0,0,644.197021
1657,-1018,4,0,0,0,695.543579
109,54,1,0,0,0,1474.886230
-1132,380,2,1,0,12,187.700012
98,-1376,4,0,0,0,794.052979
1090,1000,1,0,0,0,754.830994
-623,1737,2,1,0,12,85.865669
1482,-815,4,0,0,0,735.544861
1296,365,1,0,0,0,781.841248
-926,117,2,0,0,0,865.044495
1004,-17,4,1,0,3,168.007034
1749,448,1,0,0,0,697.701477
-326,777,2,0,0,0,894.489502
1455,-972,4,0,0,0,725.797546
590,1518,1,0,0,0,727.231018
-1738,1810,2,0,0,0,581.904297
1513,-1428,4,0,0,0,676.243713
873,1328,1,0,0,0,734.248596
-1701,212,2,1,0,12,183.278015
1379,-1829,4,0,0,0,648.760986
1619,1153,1,0,0,0,670.212219
-1482,1409,2,0,0,0,640.098572
1392,-1344,4,0,0,0,696.987915
140,5,1,0,0,0,1434.149292
-54,1218,2,0,0,0,788.213684
1834,-1984,4,1,0,3,120.796913
1077,398,1,0,0,0,827.620544
-1918,438,2,0,0,0,651.122559
927,-1279,4,0,0,0,755.147583
606,1167,1,0,0,0,788.632874
-994,1362,2,1,0,12,105.719505
1481,-1687,4,0,0,0,654.520508
215,1332,1,0,0,0,781.239685
-1012,154,2,0,0,0,838.474365
1696,-1453,4,0,0,0,655.992371
1077,44,1,0,0,0,845.792664
-1439,67,2,0,0,0,740.315735
900,-129,4,0,0,0,914.013123
1872,1186,1,0,0,0,639.153687
-1411,863,2,0,0,0,700.722168
1582,-1175,4,0,0,0,691.758606
311,486,1,0,0,0,1025.820312
-812,1227,2,1,0,12,111.057762
859,-1493,4,0,0,0,730.309814
1237,688,1,0,0,0,767.480408
-1054,1732,2,1,0,12,89.043213
1449,-1684,4,0,0,0,657.493469
968,930,1,0,0,0,782.708923
-1334,1374,2,0,0,0,658.817139
1299,1961,1,0,0,0,622.167969
-1307,1475,2,0,0,0,650.632751
504,1290,1,0,0,0,773.734680
-1976,209,2,0,0,0,648.287354
1585,1910,1,0,0,0,606.890503
-433,610,2,0,0,0,928.773560
1843,511,1,1,0,3,108.616371
-1017,1225,2,0,0,0,711.636719
1580,822,1,0,0,0,701.601868
-1930,1988,2,0,0,0,553.868958
1208,24,1,0,0,0,812.960938
803,1842,1,1,0,13,71.110374
1102,1197,1,0,0,0,727.513062
1653,1464,1,0,0,0,640.181519
1984,469,1,0,0,0,662.963135
1067,1366,1,0,0,0,709.376099
75,125,1,0,0,0,1422.672974
398,37,1,0,0,0,1131.673096
1977,1779,1,0,0,0,587.269775
1160,1442,1,0,0,0,690.624878
517,948,1,0,0,0,845.282410
1762,1135,1,0,0,0,655.057068
1966,1262,1,0,0,0,624.114014
725,1518,1,0,0,0,717.947021
1246,1655,1,0,0,0,658.388306
1234,1529,1,0,0,0,673.504333
1109,220,1,0,0,0,832.057373
306,526,1,0,0,0,1010.475647
783,131,1,0,0,0,933.849365
1271,1170,1,0,0,0,710.337708
1071,1140,1,0,0,0,738.809631
1864,1037,1,0,0,0,650.045959
1869,1288,1,0,0,0,632.322632
1930,1787,1,0,0,0,590.414246


each generation good chromosome number
0,2,2,2,2,2,2,2,2,2,2,2,2,2,2,2,2,2,2,2,2,2,2,2,2,2,2,2,2,2,2,2,2,2,2,2,2,2,2,2,2,2,2,2,2,2,2,2,2,4,6,8,10,11,12,15,18,19,20,20,20,19,19,19,19,19,19,19,19,19,20,21,20,21,21,21,21,20,20,21,22,22,23,24,24,24,24,24,25,25,25,26,28,31,33,33,34,35,38,39,