each times' max average throughput
587.961548,0.000000,0.000000,0.000000,0.000000,599.563843,0.000000,0.000000,0.000000,581.481567,597.952942,597.952942,582.659424,0.000000,0.000000,0.000000,0.000000,0.000000,0.000000,0.000000,0.000000,607.424316,631.596802,0.000000,0.000000,0.000000,599.615173,0.000000,0.000000,0.000000,0.000000,593.554199,620.842712,616.385376,0.000000,0.000000,602.568726,0.000000,0.000000,585.653442,609.989136,637.161194,0.000000,0.000000,0.000000,0.000000,0.000000,0.000000,611.228027,591.081177,0.000000,624.492493,629.618225,0.000000,0.000000,617.052612,614.478027,620.695312,609.815125,0.000000,0.000000,586.644348,603.846069,0.000000,0.000000,0.000000,0.000000,0.000000,598.165283,604.284241,0.000000,0.000000,0.000000,0.000000,0.000000,0.000000,0.000000,0.000000,0.000000,0.000000,0.000000,0.000000,0.000000,0.000000,0.000000,0.000000,0.000000,0.000000,0.000000,0.000000,0.000000,0.000000,620.094055,589.602783,616.059875,0.000000,0.000000,575.277405,0.000000,0.000000,
avg. throughput in all test times
193.648010
avg. BS TX power in all test times
MBS area 1,MBS area 2,MBS area 3,MBS area 4,CBSD 1,CBSD 2,CBSD 3,CBSD 4,CBSD 5,CBSD 6,CBSD 7,CBSD 8,CBSD 9,CBSD 10,CBSD 11,CBSD 12,CBSD 13,CBSD 14,CBSD 15,CBSD 16,CBSD 17,CBSD 18,CBSD 19,CBSD 20,CBSD 21,CBSD 22,CBSD 23,CBSD 24,CBSD 25,CBSD 26,CBSD 27,CBSD 28,
7.225,7.500,8.200,8.413,0.100,0.065,0.081,0.244,0.064,0.064,0.154,0.093,0.141,0.119,0.078,0.062,0.091,0.191,0.188,0.095,0.213,0.031,0.084,0.120,0.060,0.265,0.049,0.095,0.248,0.177,0.270,0.117,
avg. mbs all power,avg. cbsd enable number,avg. mbs area all power,avg. cbsd all power
69.062,5.000,31.337,3.557
avg. max avg. throughput generation number in all test times
17.020000
avg. number of relay UE
266

the max average throughput times

BS TX power
MBS area 1,MBS area 2,MBS area 3,MBS area 4,CBSD 1,CBSD 2,CBSD 3,CBSD 4,CBSD 5,CBSD 6,CBSD 7,CBSD 8,CBSD 9,CBSD 10,CBSD 11,CBSD 12,CBSD 13,CBSD 14,CBSD 15,CBSD 16,CBSD 17,CBSD 18,CBSD 19,CBSD 20,CBSD 21,CBSD 22,CBSD 23,CBSD 24,CBSD 25,CBSD 26,CBSD 27,CBSD 28,
6.250,6.250,5.000,5.000,0.000,0.000,0.500,0.000,0.000,0.000,0.000,0.000,0.000,0.000,0.000,0.875,0.875,1.000,0.875,1.000,0.000,0.000,0.000,0.000,1.000,0.000,0.000,0.000,0.000,0.000,0.000,0.000,
max average throughput
575.277405

x,y,area,be blocked (1 : NLOS / 0 : LOS),be blocked number (>=1 : CBSD(x) / 0 : no),connect bs number (>=1 : CBSD / 0 : MBS),throughput (unit : M bps)
967,478,1,0,0,0,797.202698
-1620,1398,2,1,0,21,98.094948
-267,-1127,3,0,0,0,744.743530
1424,-1999,4,0,0,0,530.909302
796,1416,1,0,0,0,679.804321
-218,1657,2,0,0,0,671.670898
-1422,-1886,3,1,0,16,80.401260
1307,-524,4,0,0,0,688.758301
555,44,1,1,0,14,88.334244
-388,1929,2,0,0,0,625.097656
-1336,-941,3,1,0,16,146.206909
1806,-1823,4,0,0,0,518.397339
144,1821,1,0,0,0,646.282654
-1686,1043,2,0,0,0,622.949646
-1175,-1974,3,0,0,0,549.544434
634,-823,4,1,0,15,156.310516
877,315,1,0,0,0,839.277649
-636,609,2,0,0,0,855.570129
-446,-1594,3,0,0,0,642.573975
168,-171,4,0,0,0,1198.443237
1718,1555,1,0,0,0,578.641174
-1422,1335,2,0,0,0,627.593628
-483,-712,3,1,0,16,126.839668
81,-1387,4,1,0,15,104.021179
867,556,1,0,0,0,810.489624
-1688,642,2,1,0,21,96.073898
-80,-133,3,0,0,0,1323.853516
752,-1073,4,1,0,15,206.270966
432,1324,1,1,0,14,159.811783
-1751,1954,2,1,0,21,78.124115
-1615,-948,3,0,0,0,607.426819
977,-567,4,1,0,3,158.628311
1079,832,1,0,0,0,730.144836
-1661,450,2,0,0,0,663.315186
-1001,-1055,3,0,0,0,679.527771
363,-861,4,0,0,0,806.410339
1646,213,1,0,0,0,673.653748
-1962,927,2,0,0,0,597.264038
-1348,-230,3,0,0,0,697.140564
1855,-687,4,0,0,0,591.868042
978,539,1,0,0,0,787.253418
-76,782,2,0,0,0,888.384521
-740,-1088,3,1,0,16,124.241516
590,-137,4,0,0,0,931.184021
955,641,1,1,0,14,130.368347
-1685,141,2,1,0,12,123.939812
-1156,-382,3,1,0,12,247.471725
132,-799,4,0,0,0,847.557983
1001,447,1,0,0,0,792.556946
-273,1312,2,0,0,0,734.902283
-1523,-1531,3,0,0,0,567.010803
1093,-416,4,0,0,0,741.959717
1292,387,1,0,0,0,733.065063
-1910,314,2,1,0,12,101.618294
-1844,-1136,3,0,0,0,566.183960
452,-1954,4,0,0,0,587.955627
418,243,1,0,0,0,1028.281006
-1170,722,2,0,0,0,727.564697
-101,-1807,3,0,0,0,617.136963
1056,-1640,4,0,0,0,595.849731
1590,556,1,0,0,0,669.434387
-1565,1344,2,1,0,21,102.405571
-1181,-1557,3,1,0,16,98.220726
662,-1946,4,0,0,0,580.984741
272,1735,1,1,0,14,121.133186
-1319,438,2,0,0,0,724.457825
-676,-857,3,0,0,0,761.757996
879,-140,4,0,0,0,820.379395
1510,1734,1,0,0,0,580.839844
-195,812,2,1,0,13,162.040710
-1311,-1758,3,0,0,0,562.658020
1315,-1116,4,1,0,15,157.174408
846,276,1,0,0,0,852.537781
-1027,817,2,1,0,21,157.197113
-197,-1410,3,0,0,0,685.613037
823,-717,4,0,0,0,761.759033
630,1908,1,0,0,0,619.129822
-806,1450,2,0,0,0,673.786072
-977,-1403,3,0,0,0,633.348572
1584,-1678,4,0,0,0,548.282166
211,1530,1,0,0,0,694.236572
-329,435,2,0,0,0,993.551086
-1720,-735,3,1,0,16,128.540497
884,-792,4,0,0,0,737.722351
1204,1885,1,0,0,0,588.667725
-1564,78,2,0,0,0,690.287292
-986,-716,3,0,0,0,730.175781
1011,-1912,4,0,0,0,566.575562
1143,1558,1,0,0,0,630.257751
-1094,161,2,0,0,0,790.074463
-1851,-273,3,0,0,0,607.678223
1102,-806,4,0,0,0,697.597656
1469,194,1,0,0,0,706.106506
-573,298,2,0,0,0,944.831909
-654,-206,3,0,0,0,895.461487
1129,-1400,4,0,0,0,618.920593
303,1231,1,0,0,0,750.825562
-642,1836,2,0,0,0,628.391418
-1122,-1433,3,0,0,0,615.542297
1786,-497,4,0,0,0,610.298035
1390,898,1,0,0,0,674.495850
-1200,1186,2,0,0,0,668.964050
-1863,-67,3,1,0,12,119.588387
1841,-755,4,0,0,0,590.198669
1646,1334,1,1,0,14,113.013718
-330,483,2,0,0,0,973.366211
-128,-1354,3,1,0,15,92.298004
1200,-980,4,0,0,0,661.442871
1000,509,1,0,0,0,785.869019
-394,156,2,0,0,0,1066.308838
-102,-869,3,0,0,0,825.304504
68,-1898,4,1,0,15,87.220490
943,1767,1,1,0,14,141.516327
-931,1464,2,1,0,21,137.678192
-869,-1109,3,0,0,0,688.598511
1448,-116,4,1,0,15,92.217056
1642,1199,1,0,0,0,615.772705
-1985,665,2,0,0,0,607.466003
-1852,-1757,3,1,0,16,78.821037
513,-1098,4,0,0,0,731.736755
1966,640,1,0,0,0,611.002869
-1536,1428,2,1,0,21,101.901871
-218,-1110,3,0,0,0,751.509155
866,-594,4,0,0,0,772.856079
522,632,1,0,0,0,876.182434
-1340,1310,2,0,0,0,638.996948
-1728,-1981,3,1,0,16,73.200897
389,-1110,4,0,0,0,740.321228
587,1784,1,0,0,0,638.368164
-77,758,2,0,0,0,897.235596
-1044,-622,3,0,0,0,730.953247
601,-214,4,0,0,0,916.233398
1305,302,1,1,0,14,97.339867
-269,1057,2,1,0,13,225.095566
-115,-841,3,1,0,16,98.170059
1057,-1650,4,1,0,15,131.187393
504,153,1,0,0,0,1003.603821
-642,866,2,0,0,0,797.382446
-1496,-648,3,0,0,0,646.898560
1928,-668,4,0,0,0,583.071228
918,1885,1,0,0,0,607.029053
-541,269,2,0,0,0,964.050537
-1924,-1283,3,0,0,0,547.670654
952,-1638,4,0,0,0,604.125854
31,1655,1,0,0,0,674.418518
-592,1357,2,0,0,0,706.346985
-1868,-981,3,0,0,0,573.584961
632,-571,4,0,0,0,833.041443
1989,397,1,0,0,0,616.463684
-891,1328,2,0,0,0,684.274170
-1638,-592,3,0,0,0,628.059448
80,-624,4,1,0,15,99.941513
782,998,1,0,0,0,750.793579
-351,279,2,0,0,0,1050.025879
-457,-674,3,0,0,0,845.965515
1852,-1123,4,0,0,0,566.178040
1575,1698,1,0,0,0,578.791992
-1064,632,2,0,0,0,757.744263
-297,-290,3,0,0,0,1040.090210
1266,-455,4,0,0,0,701.826172
1181,72,1,0,0,0,770.638672
-122,109,2,0,0,0,1340.847534
-748,-132,3,0,0,0,866.001160
840,-346,4,1,0,3,121.002388
413,734,1,0,0,0,868.382751
-35,1551,2,1,0,13,152.679001
-796,-1129,3,0,0,0,694.242615
1385,-575,4,0,0,0,670.758728
454,206,1,0,0,0,1019.444397
-1975,936,2,0,0,0,595.230103
-697,-810,3,0,0,0,767.851685
1864,-95,4,0,0,0,608.378601
1914,894,1,0,0,0,604.889648
-221,319,2,1,0,0,162.084549
-793,-1492,3,0,0,0,636.704346
109,-1102,4,0,0,0,757.618958
1504,427,1,0,0,0,690.745239
-1272,1741,2,0,0,0,599.075928
-1514,-13,3,1,0,12,151.145477
926,-1569,4,1,0,15,142.353607
920,1273,1,1,0,14,245.746567
-348,667,2,0,0,0,900.877991
-1743,-432,3,1,0,12,133.955048
1645,-404,4,1,0,15,98.719101
1037,1543,1,0,0,0,641.267212
-145,514,2,1,0,21,124.789337
-325,-368,3,0,0,0,991.699768
1839,-1833,4,0,0,0,515.095703
1204,1999,1,0,0,0,576.648621
-1434,1243,2,0,0,0,635.401917
-474,-1546,3,0,0,0,649.232178
1937,-1751,4,0,0,0,513.521057
112,595,1,0,0,0,963.449158
-1831,1929,2,1,0,21,76.339638
-1839,-1775,3,0,0,0,519.518372
1329,-203,4,0,0,0,702.010742
1150,1294,1,0,0,0,661.612732
-1318,1288,2,0,0,0,643.770630
-843,-1911,3,1,0,16,79.675514
1806,-1085,4,0,0,0,573.996521
412,106,1,1,0,0,136.488541
-617,1075,2,0,0,0,757.295532
-207,-1433,3,0,0,0,680.796692
925,-505,4,0,0,0,771.836792
368,446,1,1,0,14,106.157600
-1087,1858,2,1,0,21,102.656731
-997,-1548,3,1,0,16,98.478287
389,-1360,4,0,0,0,687.458618
225,1913,1,1,0,14,108.861816
-1129,1617,2,0,0,0,624.446655
-87,-38,3,0,0,0,1465.673706
1677,-411,4,0,0,0,630.534485
726,1939,1,0,0,0,610.603027
-1669,624,2,0,0,0,653.375977
-477,-569,3,1,0,16,129.128983
388,-128,4,0,0,0,1044.664062
1026,1224,1,0,0,0,684.644470
-1117,940,2,0,0,0,710.363342
-221,-56,3,0,0,0,1212.920776
1209,-1499,4,1,0,15,140.528305
244,1245,1,0,0,0,750.612366
-288,435,2,0,0,0,1006.360718
-1014,-410,3,0,0,0,761.172485
1423,-598,4,0,0,0,662.509827
1057,771,1,0,0,0,741.787354
-75,1257,2,0,0,0,752.757629
-756,-753,3,0,0,0,768.275146
35,-1724,4,0,0,0,630.910156
1244,1351,1,1,0,14,153.608261
-1967,418,2,1,0,12,94.704361
-608,-893,3,0,0,0,764.717407
619,-1040,4,0,0,0,732.128906
1482,61,1,0,0,0,705.816711
-288,875,2,1,0,13,171.598297
-758,-1180,3,1,0,16,118.193451
1125,-260,4,0,0,0,745.622253
1428,1657,1,0,0,0,594.989258
-967,850,2,1,0,21,168.665436
-28,-1936,3,1,0,15,82.532227
1175,-946,4,0,0,0,669.072998
393,1066,1,0,0,0,782.294617
-1562,1175,2,0,0,0,626.990234
-404,-902,3,0,0,0,790.278137
1614,-1885,4,0,0,0,527.805725
1141,396,1,1,0,14,106.808105
-1894,1093,2,0,0,0,595.077026
-179,-1624,3,0,0,0,646.282837
597,-1287,4,0,0,0,686.613586
1114,917,1,0,0,0,713.722717
-1416,1723,2,0,0,0,589.493958
-466,-826,3,0,0,0,802.138123
336,-48,4,0,0,0,1098.140625
1247,1287,1,1,0,14,154.565063
-1931,1457,2,0,0,0,566.472168
-1665,-289,3,0,0,0,636.662720
1480,-434,4,0,0,0,662.736328
829,32,1,0,0,0,872.720398
-995,1074,2,0,0,0,709.545166
-1898,-947,3,0,0,0,572.084778
274,-955,4,0,0,0,788.773926
820,23,1,1,0,15,91.437401
-956,821,2,0,0,0,752.549438
-1589,-671,3,0,0,0,630.825806
152,-570,4,0,0,0,938.788269
186,1538,1,0,0,0,693.362549
-1826,640,2,0,0,0,629.874390
-1270,-627,3,0,0,0,687.094055
1908,-391,4,0,0,0,596.275208
180,1941,1,0,0,0,627.759460
-1008,1997,2,0,0,0,588.632812
-1097,-1314,3,0,0,0,633.004639
753,-1354,4,0,0,0,661.447388
1061,1348,1,1,0,14,186.554367
-11,897,2,0,0,0,850.224060
-1457,-551,3,0,0,0,659.901733
1060,-1522,4,0,0,0,610.162476
790,1451,1,0,0,0,674.966370
-433,1938,2,0,0,0,622.483521
-1178,-1342,3,0,0,0,620.958557
1932,-1084,4,0,0,0,559.796082
982,751,1,0,0,0,758.043762
-1920,270,2,0,0,0,629.288635
-252,-485,3,0,0,0,960.784546
831,-853,4,0,0,0,736.763550
152,425,1,0,0,0,1048.111938
-96,1957,2,0,0,0,626.298767
-391,-1953,3,0,0,0,589.920044
811,-1747,4,1,0,15,121.872803
1973,1491,1,1,0,14,91.485428
-1006,1678,2,0,0,0,626.720032
-359,-1840,3,0,0,0,607.120911
1364,-1990,4,0,0,0,535.736755
1826,1893,1,0,0,0,542.842896
-626,1694,2,1,0,21,122.354843
-1702,-1297,3,0,0,0,569.597046
275,-371,4,0,0,0,1009.349854
95,1017,1,0,0,0,812.882385
-1139,209,2,0,0,0,776.815369
-1717,-474,3,0,0,0,621.669373
1476,-1959,4,1,0,15,95.633720
1100,1443,1,0,0,0,648.199158
-1967,1556,2,0,0,0,556.257507
-878,-997,3,0,0,0,705.422058
396,-1888,4,1,0,15,99.691963
667,1321,1,0,0,0,706.476501
-1690,1503,2,1,0,21,92.151047
-1732,-515,3,1,0,12,132.291534
691,-1741,4,0,0,0,607.360657
496,995,1,1,0,14,156.478912
-386,115,2,1,0,0,151.430069
-398,-217,3,0,0,0,1014.701538
75,-1431,4,1,0,15,102.572678
862,1359,1,0,0,0,682.470642
-619,1304,2,0,0,0,713.606201
-1238,-176,3,1,0,12,226.407333
1947,-570,4,0,0,0,584.704773
1594,1465,1,1,0,14,115.134346
-469,1530,2,0,0,0,684.084534
-1789,-1671,3,1,0,16,83.341698
612,-1065,4,1,0,15,169.473480
1343,525,1,0,0,0,713.902405
-938,1628,2,0,0,0,638.246704
-1822,-1565,3,0,0,0,536.991943
35,-632,4,0,0,0,918.497498
295,809,1,0,0,0,861.997437
-1682,194,2,1,0,12,120.715546
-1705,-1632,3,0,0,0,541.922485
80,-1941,4,0,0,0,597.005676
1512,35,1,1,0,15,83.803261
-866,21,2,0,0,0,860.282227
-63,-944,3,1,0,15,97.588478
1736,-257,4,0,0,0,625.905334
1521,1620,1,0,0,0,590.522644
-702,1916,2,0,0,0,614.740967
-361,-47,3,0,0,0,1077.933472
153,-1830,4,0,0,0,612.991760
1218,1361,1,1,0,14,157.021179
-1508,544,2,1,0,12,104.320045
-1393,-864,3,1,0,16,150.861938
1356,-1202,4,0,0,0,616.785828
1368,1732,1,1,0,14,121.302803
-868,1486,2,0,0,0,663.305603
-1165,-675,3,0,0,0,701.583496
1827,-1140,4,1,0,15,104.281479
1625,1605,1,0,0,0,582.734375
-270,1351,2,0,0,0,726.965637
-1848,-319,3,0,0,0,607.024536
1969,-499,4,0,0,0,584.351868
692,1434,1,0,0,0,685.523621
-852,526,2,0,0,0,818.607788
-480,-1243,3,0,0,0,704.568115
534,-106,4,0,0,0,961.916199
1505,195,1,1,0,14,87.250916
-417,1410,2,1,0,13,168.447296
-1925,-1730,3,1,0,16,78.181076
46,-1022,4,0,0,0,780.366455
1635,1980,1,0,0,0,549.608887
-1875,1351,2,0,0,0,579.400696
-1639,-895,3,1,0,16,127.965424
451,-1260,4,0,0,0,703.319580
1793,1001,1,1,0,14,101.113930
-1846,1334,2,1,0,21,87.962914
-248,-1325,3,1,0,16,90.641983
1020,-590,4,0,0,0,739.795715
39,965,1,1,0,13,170.169067
-71,564,2,0,0,0,981.621521
-1600,-50,3,0,0,0,652.114685
823,-1650,4,0,0,0,611.835938
1237,583,1,0,0,0,729.099243
-1188,1545,2,1,0,21,116.853142
-886,-1497,3,0,0,0,628.412231
1981,-705,4,0,0,0,574.554871
1198,826,1,0,0,0,711.294556
-1328,1543,2,1,0,21,109.271843
-29,-1690,3,0,0,0,636.603149
967,-946,4,1,0,3,235.617966
1505,1941,1,0,0,0,562.167908
-1441,1065,2,0,0,0,651.777283
-1315,-938,3,0,0,0,649.544922
68,-483,4,0,0,0,993.587280
100,186,1,0,0,0,1267.199463
-1863,1730,2,1,0,21,79.922363
-1673,-1835,3,1,0,16,79.251877
457,-258,4,1,0,15,100.984734
1409,1955,1,0,0,0,567.547058
-615,1354,2,0,0,0,705.070374
-114,-1450,3,0,0,0,679.495911
761,-1215,4,1,0,15,193.960999
1883,608,1,0,0,0,623.497314
-251,617,2,0,0,0,935.940613
-546,-780,3,0,0,0,801.010620
1941,-1430,4,0,0,0,535.935547
460,929,1,0,0,0,808.629578
-549,1687,2,0,0,0,654.620544
-1407,-923,3,0,0,0,637.874084
1320,-1074,4,0,0,0,634.673950
765,1991,1,0,0,0,602.156738
-1996,107,2,0,0,0,620.614319
-652,-618,3,1,0,16,147.804398
558,-1426,4,0,0,0,664.787476
619,637,1,1,0,14,128.286911
-1303,597,2,0,0,0,715.639099
-568,-822,3,0,0,0,787.152222
524,-1420,4,0,0,0,668.106934
1982,859,1,0,0,0,598.553589
-1994,1762,2,1,0,21,74.809715
-401,-661,3,0,0,0,860.905579
1631,-745,4,1,0,15,113.330856
137,508,1,0,0,0,1003.911743
-951,223,2,0,0,0,825.729675
-114,-965,3,0,0,0,795.154785
90,-1959,4,0,0,0,594.326721
1582,1981,1,0,0,0,553.218750
-941,1119,2,0,0,0,709.937134
-1444,-1708,3,1,0,16,87.968369
1562,-1691,4,0,0,0,548.957092
44,911,1,1,0,13,162.430908
-1703,1185,2,1,0,21,97.142166
-109,-991,3,0,0,0,787.778870
640,-1498,4,1,0,15,139.861542
1615,1036,1,1,0,14,113.401619
-1782,810,2,0,0,0,626.574951
-812,-133,3,1,0,12,151.590347
1616,-493,4,0,0,0,636.724609
704,384,1,0,0,0,882.496399
-666,944,2,0,0,0,777.492798
-407,-584,3,1,0,16,122.531052
1362,-275,4,0,0,0,692.572021
1710,1685,1,0,0,0,568.622559
-1235,1797,2,0,0,0,595.893921
-1052,-390,3,0,0,0,753.862976
1303,-659,4,0,0,0,678.378784
188,127,1,1,0,0,350.937927
-978,1712,2,0,0,0,624.516174
-1333,-212,3,0,0,0,700.876038
1596,-252,4,0,0,0,649.454468
78,414,1,1,0,0,139.088348
-1500,1825,2,0,0,0,573.181335
-139,-630,3,0,0,0,913.005920
1561,-1612,4,0,0,0,556.170715
109,1913,1,0,0,0,632.657227
-1832,839,2,0,0,0,618.329163
-1412,-864,3,1,0,16,149.232101
1263,-955,4,0,0,0,655.228577
795,327,1,0,0,0,862.493408
-1581,1861,2,0,0,0,563.808838
-992,-1503,3,0,0,0,618.550171
1905,-1652,4,0,0,0,523.317749
1736,1594,1,1,0,14,102.910324
-673,898,2,0,0,0,785.840210
-138,-1676,3,1,0,15,85.485153
990,-800,4,1,0,3,258.313416
1748,25,1,1,0,15,78.493568
-460,306,2,1,0,21,123.605499
-1079,-24,3,0,0,0,765.000122
1460,-1642,4,0,0,0,562.116272
1615,442,1,0,0,0,671.138977
-1528,678,2,0,0,0,671.604675
-100,-1263,3,0,0,0,719.009155
1114,-764,4,0,0,0,700.651489
132,955,1,0,0,0,829.498596
-577,138,2,0,0,0,969.304016
-642,-1526,3,0,0,0,642.517395
1951,-1934,4,0,0,0,499.307648
745,378,1,1,0,14,109.347786
-516,269,2,0,0,0,974.878479
-156,-18,3,1,0,0,470.376251
700,-1477,4,0,0,0,646.170105
1706,1670,1,0,0,0,570.202332
-39,415,2,1,0,0,141.952408
-571,-1804,3,0,0,0,604.478027
732,-1842,4,0,0,0,591.296509
1897,785,1,1,0,14,91.579445
-78,1685,2,0,0,0,669.028564
-1487,-804,3,0,0,0,636.570862
1713,-601,4,1,0,15,102.997856
1856,400,1,0,0,0,635.270020
-941,115,2,1,0,12,142.331314
-917,-1132,3,1,0,16,127.552391
811,-750,4,0,0,0,758.330444
879,563,1,0,0,0,806.641418
-972,66,2,0,0,0,826.483765
-1888,-211,3,0,0,0,603.347351
1543,-867,4,0,0,0,623.485535
351,550,1,0,0,0,941.902832
-1643,1499,2,1,0,21,94.481400
-1147,-249,3,1,0,12,262.401764
710,-1782,4,0,0,0,600.597229
24,1211,1,0,0,0,763.912476
-1762,393,2,0,0,0,649.642944
-854,-619,3,0,0,0,771.600708
1816,-1121,4,0,0,0,570.356689
1518,87,1,0,0,0,698.717529
-635,1376,2,0,0,0,699.667297
-429,-1610,3,0,0,0,640.692688
31,-1079,4,0,0,0,764.952698
1694,1582,1,0,0,0,578.567017
-1585,230,2,0,0,0,683.846619
-147,-1991,3,0,0,0,589.256775
1998,-1869,4,0,0,0,500.452728
272,414,1,0,0,0,1021.296021
-821,458,2,1,0,21,138.854752
-332,-278,3,0,0,0,1027.904175
413,-988,4,0,0,0,767.248901
295,231,1,0,0,0,1101.805664
-1657,626,2,0,0,0,655.067871
-668,-286,3,1,0,16,145.062119
1163,-1416,4,1,0,15,153.646545
1089,1481,1,0,0,0,644.477417
-779,672,2,0,0,0,810.815125
-217,-317,3,1,0,0,143.921860
980,-1066,4,1,0,15,284.505798
173,1229,1,0,0,0,756.917358
-999,911,2,0,0,0,732.366150
-970,-1203,3,0,0,0,662.175903
354,-566,4,0,0,0,903.160889
195,872,1,0,0,0,851.358643
-147,999,2,0,0,0,816.186157
-203,-998,3,0,0,0,781.660583
816,-1497,4,0,0,0,634.134277
1076,1011,1,0,0,0,707.134094
-358,928,2,1,0,21,177.800171
-1082,-352,3,1,0,12,226.771530
700,-1485,4,1,0,15,145.426559
654,179,1,1,0,14,96.237595
-1988,312,2,1,0,12,97.866211
-1516,-1685,3,1,0,16,88.012115
1505,-1970,4,0,0,0,528.086731
664,1191,1,0,0,0,729.920227
-1075,1289,2,0,0,0,670.449707
-957,-67,3,0,0,0,798.835999
779,-464,4,0,0,0,815.054016
1383,1254,1,0,0,0,640.076538
-583,1890,2,0,0,0,623.619568
-1239,-1370,3,0,0,0,611.326843
702,-1345,4,0,0,0,667.431824
783,449,1,0,0,0,848.454407
-1186,1957,2,1,0,21,94.813751
-1093,-739,3,1,0,16,192.543625
1195,-1625,4,1,0,15,128.862259
386,473,1,0,0,0,961.049561
-1705,1107,2,0,0,0,615.817200
-405,-1026,3,0,0,0,758.744934
766,-108,4,0,0,0,860.737732
602,557,1,0,0,0,876.022888
-1684,1422,2,0,0,0,592.837158
-342,-1230,3,0,0,0,716.821716
333,-1572,4,1,0,15,113.597618
1918,87,1,0,0,0,632.082336
-736,1965,2,0,0,0,606.803589
-507,-1687,3,0,0,0,624.833557
1469,-1147,4,0,0,0,608.785400
116,994,1,0,0,0,818.763855
-859,1289,2,0,0,0,693.400513
-252,-1717,3,0,0,0,629.092224
743,-1919,4,0,0,0,580.668335
317,1456,1,0,0,0,704.496399
-1170,895,2,1,0,21,141.476379
-1518,-251,3,1,0,12,168.801132
359,-536,4,0,0,0,913.021118
241,1990,1,1,0,14,105.562630
-1947,1772,2,0,0,0,542.577026
-412,-293,3,0,0,0,983.256714
564,-303,4,0,0,0,915.208008
696,198,1,0,0,0,912.083557
-254,726,2,0,0,0,894.508728
-722,-1719,3,0,0,0,608.675781
1625,-1290,4,0,0,0,578.341797
1001,1813,1,0,0,0,610.531067
-1800,1811,2,0,0,0,551.199097
-1587,-1124,3,1,0,16,116.993057
887,-1436,4,0,0,0,637.006531
227,1366,1,1,0,13,144.876160
-705,1339,2,0,0,0,700.082703
-1753,-770,3,0,0,0,601.127441
73,-1303,4,0,0,0,710.522583
1857,992,1,0,0,0,605.851685
-482,1313,2,0,0,0,722.637573
-1828,-68,3,0,0,0,614.096802
1962,-1747,4,0,0,0,511.815460
584,1192,1,0,0,0,737.639465
-952,1705,2,0,0,0,627.256348
-820,-251,3,0,0,0,831.085205
1944,-166,4,1,0,15,78.913315
1634,1369,1,0,0,0,602.318665
-1946,1906,2,1,0,21,73.399055
-1470,-1174,3,0,0,0,606.125793
970,-1351,4,0,0,0,641.209106
1569,286,1,0,0,0,685.054016
-1734,649,2,0,0,0,642.437988
-1320,-626,3,1,0,16,191.735718
1368,-38,4,0,0,0,696.921570
1526,1637,1,0,0,0,588.508728
-858,345,2,0,0,0,841.475098
-787,-1400,3,0,0,0,651.178467
1247,-1302,4,0,0,0,618.237183
1797,199,1,0,0,0,649.218384
-1526,938,2,0,0,0,651.874573
-592,-535,3,0,0,0,851.818420
1493,-480,4,1,0,15,109.767532
1407,1769,1,0,0,0,585.689819
-1557,697,2,0,0,0,665.813965
-1113,-1769,3,0,0,0,576.270752
1167,-909,4,0,0,0,674.667542
1153,1147,1,0,0,0,679.460999
-1867,751,2,0,0,0,618.696167
-1118,-589,3,0,0,0,719.754272
1843,-802,4,0,0,0,587.342285
1226,1899,1,0,0,0,585.682312
-298,495,2,0,0,0,976.930542
-1093,-59,3,1,0,12,181.405640
393,-191,4,0,0,0,1025.297119
452,1070,1,0,0,0,775.939697
-836,574,2,0,0,0,814.955994
-781,-1860,3,0,0,0,586.303284
855,-1426,4,0,0,0,641.291748
1219,41,1,1,0,15,88.802895
-257,674,2,0,0,0,912.992493
-1791,-1962,3,0,0,0,508.690887
1624,-1906,4,0,0,0,525.273499
687,1924,1,0,0,0,614.403687
-1895,308,2,0,0,0,632.097900
-1878,-1492,3,0,0,0,537.382263
434,-1711,4,0,0,0,624.244812
936,1523,1,0,0,0,652.449097
-224,998,2,0,0,0,812.487915
-1153,-1005,3,0,0,0,665.117188
449,-1071,4,0,0,0,743.972961
1889,1986,1,0,0,0,531.230957
-355,1537,2,0,0,0,688.190125
-905,-703,3,0,0,0,747.789551
600,-1792,4,0,0,0,604.843445
60,1675,1,0,0,0,670.852112
-1805,1480,2,0,0,0,576.575500
-483,-1316,3,0,0,0,690.039490
1725,-1528,4,1,0,15,103.358856
731,876,1,0,0,0,781.083496
-1608,1442,2,0,0,0,598.588989
-407,-1110,3,0,0,0,738.843628
1013,-623,4,0,0,0,737.155518
1440,765,1,0,0,0,678.716553
-1444,1843,2,0,0,0,575.711304
-829,-28,3,0,0,0,840.662903
535,-852,4,0,0,0,785.177063
1731,1626,1,1,0,14,102.474304
-441,1406,2,0,0,0,707.698853
-1288,-523,3,0,0,0,692.438293
1692,-337,4,1,0,15,93.915833
195,1869,1,0,0,0,638.208130
-1939,1954,2,0,0,0,530.013550
-1893,-1962,3,1,0,16,71.282654
929,-1310,4,0,0,0,651.190979
1310,1076,1,0,0,0,667.601257
-928,3,2,1,0,12,153.910614
-1214,-1520,3,0,0,0,596.618103
497,-461,4,0,0,0,898.751709
532,939,1,0,0,0,797.058044
-1291,715,2,0,0,0,707.264893
-8,-1628,3,0,0,0,647.299988
1692,-769,4,0,0,0,609.579285
1866,732,1,0,0,0,619.821777
-1592,1109,2,0,0,0,629.097717
-491,-919,3,0,0,0,775.106750
1063,-1189,4,1,0,15,208.509964
1436,1191,1,1,0,14,131.309402
-1057,770,2,0,0,0,741.916382
-718,-950,3,1,0,16,133.683685
624,-85,4,0,0,0,919.959900
1759,149,1,0,0,0,656.037476
-1905,948,2,0,0,0,602.832031
-38,-238,3,0,0,0,1196.887939
980,-299,4,0,0,0,779.927917
1580,1537,1,0,0,0,592.813232
-405,1770,2,1,0,13,126.025429
-868,-759,3,0,0,0,746.023193
1046,-41,4,0,0,0,773.769775
281,183,1,1,0,0,207.619217
-1667,1623,2,1,0,21,90.142029
-1624,-434,3,0,0,0,638.168579
1098,-1932,4,0,0,0,558.919434
1447,333,1,0,0,0,705.514099
-228,830,2,0,0,0,862.118042
-753,-779,3,0,0,0,763.891296
1558,-1381,4,0,0,0,577.364685
1259,1003,1,0,0,0,682.406372
-1270,807,2,0,0,0,701.704468
-1535,-7,3,1,0,12,148.294235
1774,-1737,4,0,0,0,527.668457
539,160,1,0,0,0,984.785095
-641,1536,2,0,0,0,672.852356
-288,-1562,3,0,0,0,654.343445
1596,-217,4,0,0,0,650.354553
414,1760,1,1,0,14,128.470459
-1166,1108,2,0,0,0,682.620117
-1729,-1655,3,0,0,0,537.982788
1429,-1320,4,0,0,0,596.608887
1041,823,1,0,0,0,737.713501
-150,1073,2,0,0,0,795.941833
-1593,-1190,3,0,0,0,590.398071
385,-1926,4,0,0,0,593.887451
573,815,1,0,0,0,820.052795
-126,1010,2,0,0,0,813.896790
-432,-43,3,1,0,16,113.404053
366,-548,4,0,0,0,906.896179
55,266,1,0,0,0,1194.580444
-848,798,2,0,0,0,775.228088
-1837,-176,3,0,0,0,611.597107
394,-4,4,0,0,0,1055.118164
153,1984,1,0,0,0,621.895386
-1682,1227,2,0,0,0,609.024902
-1943,-1489,3,0,0,0,531.644531
180,-1334,4,0,0,0,701.654175
1758,1686,1,0,0,0,564.515198
-1541,967,2,1,0,21,108.584862
-1465,-1730,3,0,0,0,553.288208
1772,-662,4,0,0,0,604.566589
421,833,1,0,0,0,838.818542
-1333,1068,2,0,0,0,665.448608
-1451,-1107,3,0,0,0,614.750977
1662,-1449,4,0,0,0,561.122131
95,1705,1,1,0,13,128.353882
-884,1596,2,0,0,0,646.629395
-1216,-700,3,0,0,0,689.784180
1623,-1058,4,0,0,0,597.774597
825,136,1,0,0,0,870.468079
-1583,1244,2,0,0,0,618.564880
-178,-901,3,0,0,0,811.368652
1537,-948,4,0,0,0,617.762817
470,25,1,0,0,0,1036.038940
-1817,259,2,0,0,0,644.930115
-1199,-366,3,1,0,12,269.271515
122,-1333,4,0,0,0,703.257690
154,656,1,1,0,13,127.016502
-155,946,2,0,0,0,831.133667
-556,-1907,3,1,0,16,76.562492
1057,-1621,4,0,0,0,598.100342
1331,936,1,1,0,14,133.049622
-755,1415,2,1,0,21,151.781006
-718,-429,3,0,0,0,838.270203
466,-1231,4,0,0,0,708.073181
89,660,1,0,0,0,935.995544
-1962,433,2,0,0,0,619.145081
-258,-819,3,0,0,0,830.709473
577,-910,4,0,0,0,765.467651
394,121,1,1,0,0,145.023056
-1976,557,2,0,0,0,613.010559
-1506,-422,3,0,0,0,658.748962
1119,-1733,4,1,0,15,121.663689
946,800,1,1,0,14,148.398499
-525,512,2,0,0,0,908.243774
-4,-408,3,0,0,0,1045.051514
1492,-756,4,1,0,15,124.594078
1619,1414,1,0,0,0,599.949280
-316,1615,2,0,0,0,676.092529
-1756,-1553,3,0,0,0,543.835632
1616,-660,4,1,0,15,111.173607
1687,807,1,0,0,0,639.585938
-1396,1090,2,0,0,0,655.095398
-1369,-765,3,0,0,0,657.976746
1860,-1602,4,0,0,0,530.857422
523,363,1,0,0,0,948.978455
-1885,864,2,1,0,21,88.296173
-1875,-1988,3,1,0,16,70.768425
1156,-1725,4,0,0,0,578.103943
804,151,1,0,0,0,876.759949
-534,56,2,0,0,0,998.065918
-1653,-1347,3,0,0,0,570.595337
1709,-1993,4,1,0,15,86.622902
1074,113,1,0,0,0,796.873291
-1263,152,2,1,0,12,146.710236
-1904,-1746,3,0,0,0,516.518555
710,-44,4,0,0,0,884.872498
715,1069,1,0,0,0,746.706116
-1696,333,2,1,0,12,111.187599
-941,-1206,3,0,0,0,665.087524
1147,-1727,4,0,0,0,578.558594
1471,611,1,0,0,0,685.414062
-330,1123,2,0,0,0,773.740234
-657,-507,3,1,0,16,150.315033
1967,-1869,4,1,0,15,81.685966
622,837,1,1,0,14,149.695160
-660,1100,2,0,0,0,747.435486
-894,-29,3,0,0,0,818.964417
1874,-660,4,0,0,0,590.623352
1482,1314,1,0,0,0,623.222473
-455,1863,2,0,0,0,632.411194
-598,-506,3,1,0,16,142.671677
227,-445,4,0,0,0,986.702576
613,1526,1,0,0,0,676.284607
-586,957,2,0,0,0,785.850342
-1044,-551,3,0,0,0,739.276428
611,-287,4,0,0,0,899.960022
720,1501,1,0,0,0,672.789307
-954,1222,2,0,0,0,693.162231
-28,-1841,3,1,0,15,85.464096
1479,-1,4,0,0,0,674.715271
367,1766,1,0,0,0,649.890564
-1552,1349,2,1,0,21,103.046776
-1714,-199,3,0,0,0,630.718689
1809,-1845,4,0,0,0,516.460449
1305,1413,1,0,0,0,631.569275
-1143,179,2,0,0,0,777.084839
-1388,-160,3,0,0,0,690.989258
1733,-917,4,0,0,0,594.385864
1316,1281,1,1,0,14,145.199646
-120,1109,2,0,0,0,787.567627
-491,-607,3,0,0,0,858.090820
1284,-1954,4,0,0,0,544.570068
759,939,1,0,0,0,764.824829
-494,1123,2,0,0,0,760.235291
-305,-1266,3,0,0,0,711.142578
574,-1199,4,0,0,0,705.244934
1411,1400,1,1,0,14,132.413300
-1384,1697,2,1,0,21,99.873703
-1278,-920,3,0,0,0,656.803345
1573,-1596,4,1,0,15,109.642403
1029,974,1,0,0,0,718.933899
-1714,1157,2,0,0,0,610.946960
-1877,-28,3,0,0,0,606.740173
1608,-597,4,0,0,0,632.418945
1018,246,1,0,0,0,805.690735
-215,1611,2,0,0,0,679.648865
-510,-1981,3,0,0,0,582.356445
1800,-1168,4,0,0,0,568.820129
340,537,1,1,0,14,110.524780
-548,1763,2,0,0,0,643.250854
-143,-1424,3,0,0,0,684.116882
1939,-1415,4,0,0,0,537.162109
1065,1505,1,0,0,0,643.637146
-1731,688,2,0,0,0,640.711914
-1696,-1615,3,0,0,0,544.110474
896,-539,4,0,0,0,774.092651
1082,402,1,0,0,0,777.747314
-339,651,2,0,0,0,907.988770
-1135,-569,3,1,0,16,272.127441
522,-1418,4,0,0,0,668.592346
285,1777,1,0,0,0,650.527466
-172,484,2,0,0,0,1010.840515
-1153,-483,3,0,0,0,722.851868
541,-111,4,0,0,0,957.790161
604,1613,1,1,0,14,156.070709
-1918,1259,2,0,0,0,581.459167
-1842,-1434,3,1,0,16,91.343842
380,-1806,4,0,0,0,611.576660
462,945,1,0,0,0,804.434387
-167,693,2,0,0,0,916.405701
-1087,-1311,3,0,0,0,634.456909
1415,-400,4,0,0,0,676.372498
264,742,1,0,0,0,887.695923
-955,1315,2,0,0,0,679.664673
-465,-749,3,0,0,0,823.130615
727,-1948,4,0,0,0,577.733948
1199,1390,1,0,0,0,644.882263
-1419,445,2,0,0,0,705.067383
-1115,-1722,3,0,0,0,581.544312
313,-1226,4,0,0,0,719.377930
1801,807,1,0,0,0,624.244568
-1665,1148,2,0,0,0,617.282410
-313,-523,3,0,0,0,929.377808
254,-443,4,0,0,0,980.369629
67,662,1,0,0,0,936.251587
-693,1172,2,0,0,0,730.348328
-1524,-1454,3,0,0,0,574.065674
898,-1564,4,0,0,0,618.137207
518,1775,1,0,0,0,642.813232
-1921,136,2,0,0,0,631.217712
-236,-829,3,0,0,0,829.618835
221,-1651,4,0,0,0,640.769531
174,591,1,0,0,0,958.432556
-366,471,2,0,0,0,967.747009
-656,-1524,3,1,0,16,94.636749
685,-1567,4,0,0,0,633.262207
948,479,1,0,0,0,801.646301
-1068,343,2,0,0,0,785.961365
-338,-639,3,0,0,0,880.245789
635,-1766,4,1,0,15,115.799507
1053,1142,1,0,0,0,692.593384
-1536,997,2,1,0,21,108.929024
-1663,-1500,3,1,0,16,93.644096
199,-798,4,0,0,0,843.113098
613,369,1,0,0,0,915.335022
-1722,812,2,0,0,0,634.485962
-207,-1023,3,0,0,0,774.613586
1227,-1856,4,0,0,0,558.575500
759,1302,1,0,0,0,701.254028
-1541,1826,2,0,0,0,569.963684
-911,-1181,3,0,0,0,672.302795
1067,-828,4,1,0,3,231.575104
1516,657,1,0,0,0,674.945251
-746,1709,2,0,0,0,640.404358
-1406,-1547,3,0,0,0,576.208801
1924,-1418,4,1,0,15,94.746811
1224,449,1,0,0,0,742.788940
-698,1931,2,0,0,0,612.972290
-1562,-1563,3,0,0,0,560.513977
941,-11,4,1,0,15,93.642639
1378,1513,1,1,0,14,131.773315
-1384,1913,2,1,0,21,90.960258
-384,-146,3,0,0,0,1043.080200
880,-142,4,0,0,0,819.958557
1599,794,1,0,0,0,652.824158
-294,878,2,0,0,0,841.117004
-834,-878,3,0,0,0,731.964661
340,-1528,4,0,0,0,658.500427
345,88,1,0,0,0,1116.518677
-1138,342,2,0,0,0,769.406799
-715,-1797,3,0,0,0,598.269470
1222,-912,4,0,0,0,665.999451
1323,384,1,0,0,0,726.989563
-1730,1437,2,1,0,21,91.702629
-1384,-466,3,0,0,0,678.343872
1033,-829,4,0,0,0,706.281555
543,1599,1,0,0,0,668.710510
-527,479,2,0,0,0,916.680420
-1603,-1074,3,0,0,0,598.929749
347,-1254,4,1,0,15,128.614243
1061,209,1,1,0,14,97.105911
-1068,479,2,0,0,0,773.736450
-689,-1301,3,0,0,0,676.036011
1449,-1465,4,1,0,15,124.835709
1987,1596,1,0,0,0,551.726624
-1967,1042,2,0,0,0,590.034729
-700,-1750,3,0,0,0,605.591797
1704,-1812,4,0,0,0,527.151489
353,190,1,0,0,0,1082.310547
-1567,1814,2,0,0,0,569.046509
-217,-158,3,1,0,0,258.917389
7,-1573,4,0,0,0,657.109253
444,960,1,0,0,0,802.849792
-1230,709,2,0,0,0,718.359497
-85,-1165,3,0,0,0,742.301636
1491,-1613,4,0,0,0,562.201660
487,410,1,0,0,0,948.988831
-1065,1913,2,0,0,0,594.723938
-1671,-843,3,0,0,0,607.590576
832,-1976,4,1,0,15,104.120995
444,1492,1,1,0,14,152.210449
-401,261,2,0,0,0,1031.303955
-1476,-786,3,1,0,16,150.388245
1838,-1819,4,1,0,15,88.123680
1446,378,1,0,0,0,703.636475
-639,749,2,0,0,0,823.458252
-726,-1606,3,0,0,0,624.682495
466,-13,4,0,0,0,1006.632385
258,740,1,0,0,0,889.117737
-370,82,2,0,0,0,1098.517578
-1701,-1174,3,0,0,0,579.433594
773,-815,4,0,0,0,753.527222
843,541,1,0,0,0,818.500183
-1136,1389,2,0,0,0,651.372925
-65,-1710,3,0,0,0,633.086243
1901,-1881,4,1,0,15,83.756020
523,935,1,0,0,0,799.169983
-1651,1969,2,1,0,21,80.719872
-1318,-1140,3,0,0,0,627.908569
12,-833,4,0,0,0,839.412354
276,875,1,0,0,0,843.744873
-1571,1662,2,0,0,0,582.364380
-1280,-1264,3,0,0,0,618.856628
1446,-684,4,0,0,0,652.322266
603,350,1,0,0,0,922.788879
-954,1225,2,1,0,21,160.400253
-1255,-336,3,0,0,0,711.808105
854,-522,4,0,0,0,786.650513
1018,1396,1,0,0,0,662.175903
-414,995,2,0,0,0,797.468750
-425,-1303,3,0,0,0,696.496887
377,-669,4,0,0,0,862.852661
1769,1319,1,1,0,14,104.547508
-1944,1201,2,0,0,0,582.601379
-1168,-1861,3,0,0,0,562.122681
1067,-1910,4,0,0,0,563.327026
1537,589,1,0,0,0,676.028748
-1656,876,2,0,0,0,639.077576
-1258,-1120,3,0,0,0,637.603210
1690,-1214,4,0,0,0,577.515991
87,1037,1,1,0,13,169.879272
-537,11,2,0,0,0,997.966919
-1045,-1427,3,0,0,0,623.675842
1124,-113,4,1,0,3,98.898331
659,1351,1,0,0,0,701.999939
-892,1158,2,0,0,0,710.005066
-1354,-243,3,0,0,0,695.439514
373,-659,4,0,0,0,866.881470
115,764,1,1,0,13,139.230804
-1858,1914,2,0,0,0,538.870911
-810,-463,3,0,0,0,806.842346
1418,-1532,4,1,0,15,123.025200
1505,1227,1,0,0,0,628.863037
-601,1008,2,0,0,0,772.983704
-639,-615,3,1,0,16,146.241364
1740,-932,4,0,0,0,592.477478
1895,998,1,0,0,0,600.983704
-891,1592,2,0,0,0,646.643433
-231,-1323,3,0,0,0,702.308777
152,-172,4,0,0,0,1210.961304
1073,458,1,0,0,0,774.679932
-1869,251,2,0,0,0,637.203552
-180,-1523,3,1,0,15,86.876579
1795,-1893,4,0,0,0,513.778076
765,845,1,1,0,14,156.745728
-132,745,2,1,0,13,150.406845
-552,-977,3,0,0,0,753.814087
484,-1271,4,1,0,15,142.850342
58,923,1,0,0,0,841.457642
-1522,1444,2,1,0,21,102.216743
-432,-1138,3,0,0,0,730.483521
1392,-559,4,0,0,0,670.676392
693,251,1,0,0,0,906.783630
-1613,937,2,0,0,0,640.300476
-467,-1943,3,0,0,0,588.984619
1319,-1054,4,0,0,0,636.915894
1201,76,1,0,0,0,765.775574
-1640,348,2,1,0,12,112.825890
-1673,-52,3,0,0,0,639.389587
605,-807,4,0,0,0,784.448547
1685,347,1,1,0,14,87.635254
-946,1178,2,1,0,21,166.220169
-197,-521,3,0,0,0,955.332214
712,-1012,4,1,0,15,190.521622
1555,1693,1,0,0,0,580.909058
-1452,1539,2,0,0,0,604.438293
-1553,-620,3,0,0,0,639.665833
219,-338,4,0,0,0,1048.801880
1412,539,1,1,0,14,106.001869
-238,1055,2,0,0,0,796.451965
-1789,-619,3,0,0,0,604.350220
1774,-1221,4,0,0,0,567.788574
1326,92,1,1,0,14,86.953308
-833,1092,2,0,0,0,727.855530
-1665,-1172,3,0,0,0,583.671814
668,-1486,4,1,0,15,143.108032
418,1798,1,0,0,0,643.290161
-1797,1396,2,0,0,0,583.787598
-328,-1116,3,1,0,16,101.684212
495,-1901,4,0,0,0,593.846069
1197,1805,1,0,0,0,597.805786
-983,1440,2,1,0,21,136.760223
-627,-1751,3,0,0,0,609.377502
252,-1353,4,0,0,0,695.307251
998,1681,1,0,0,0,626.941650
-1725,1500,2,1,0,21,90.600716
-1728,-78,3,0,0,0,630.018555
1524,-1613,4,0,0,0,559.317078
1604,963,1,0,0,0,639.465210
-1491,75,2,1,0,12,144.231369
-48,-969,3,1,0,15,98.699974
1084,-1456,4,0,0,0,616.290527
1924,990,1,0,0,0,598.077148
-615,1944,2,1,0,13,105.726044
-1240,-1079,3,1,0,16,134.628815
1265,-55,4,0,0,0,719.180603
869,1114,1,0,0,0,719.746948
-1802,721,2,1,0,21,91.286797
-1014,-1882,3,0,0,0,569.871948
968,-291,4,0,0,0,783.824280
396,1669,1,0,0,0,664.236450
-1123,1051,2,1,0,21,147.578522
-1067,-1610,3,0,0,0,598.643616
868,-556,4,0,0,0,778.192871
760,1829,1,0,0,0,623.225220
-1782,93,2,0,0,0,652.961548
-418,-1410,3,0,0,0,676.333069
688,-851,4,0,0,0,761.022705
1822,478,1,1,0,14,86.969696
-1964,1059,2,1,0,21,84.712769
-1907,-482,3,1,0,12,117.209099
223,-1767,4,0,0,0,621.702881
534,676,1,0,0,0,861.875854
-1263,598,2,0,0,0,722.895630
-168,-1089,3,0,0,0,759.046753
405,-1542,4,0,0,0,653.272644
806,1484,1,0,0,0,668.698486
-71,211,2,0,0,0,1251.969971
-600,-1418,3,0,0,0,663.219299
633,-1924,4,0,0,0,585.161499
414,1074,1,0,0,0,778.553406
-1276,430,2,0,0,0,733.535339
-350,-1690,3,1,0,16,80.579811
981,-12,4,0,0,0,792.399231
1950,183,1,1,0,14,74.710030
-730,649,2,1,0,21,169.052795
-804,-978,3,1,0,16,136.959808
777,-1144,4,0,0,0,693.927368
1371,701,1,0,0,0,695.101868
-730,1441,2,0,0,0,681.400330
-646,-1705,3,1,0,16,86.005661
1983,-1313,4,0,0,0,539.768982
198,1830,1,0,0,0,644.105591
-336,1240,2,0,0,0,747.009277
-1764,-1931,3,0,0,0,513.059143
606,-1389,4,1,0,15,147.916916
1588,982,1,0,0,0,640.041260
-199,178,2,1,0,0,288.236084
-154,-657,3,1,0,16,103.148956
1423,-201,4,0,0,0,682.927612
398,1964,1,0,0,0,619.895569
-1588,1338,2,1,0,21,101.212601
-166,-61,3,0,0,0,1286.185181
1098,-1260,4,0,0,0,639.819092
550,1278,1,1,0,14,183.523056
-206,845,2,0,0,0,859.123962
-1775,-1901,3,0,0,0,514.626282
1539,-1785,4,0,0,0,542.320557
834,1882,1,0,0,0,612.248352
-50,1750,2,0,0,0,658.406128
-1956,-965,3,1,0,16,104.067039
784,-1572,4,0,0,0,625.623901
1099,632,1,0,0,0,750.820801
-283,1591,2,0,0,0,681.291565
-372,-1188,3,0,0,0,724.046204
630,-694,4,0,0,0,805.516541
1490,1671,1,0,0,0,588.398621
-1674,1042,2,1,0,21,99.886124
-360,-1519,3,1,0,16,87.148834
1534,-456,4,0,0,0,652.192932
176,91,1,0,0,0,1285.593506
-1589,350,2,0,0,0,679.331116
-1193,-1299,3,0,0,0,624.483887
609,-1433,4,0,0,0,660.024109
14,149,1,1,0,0,521.686279
-104,674,2,1,0,13,140.301651
-1621,-1024,3,0,0,0,600.728699
588,-737,4,0,0,0,803.828918
598,568,1,0,0,0,874.411194
-1851,144,2,0,0,0,641.650696
-899,-163,3,0,0,0,812.861633
278,-1092,4,0,0,0,752.621033
233,1246,1,0,0,0,750.858093
-515,1420,2,0,0,0,700.604004
-636,-218,3,1,0,16,137.819870
1411,-134,4,1,0,15,94.089195
47,1009,1,0,0,0,816.090210
-813,131,2,0,0,0,874.855713
-1876,-332,3,1,0,12,121.944427
1369,-51,4,0,0,0,696.624390
214,645,1,0,0,0,930.171570
-1199,1695,2,0,0,0,609.815063
-763,-1271,3,0,0,0,674.052429
1972,-321,4,1,0,15,82.327316
137,527,1,0,0,0,994.020691
-1147,643,2,0,0,0,740.339417
-1835,-634,3,0,0,0,597.182495
701,-1243,4,0,0,0,684.941467
1857,1200,1,0,0,0,591.949280
-122,252,2,0,0,0,1185.844482
-1260,-1747,3,0,0,0,567.737366
898,-812,4,1,0,3,230.008240
296,389,1,0,0,0,1025.131470
-1824,109,2,0,0,0,646.193665
-23,-1159,3,0,0,0,744.488037
1409,-1322,4,0,0,0,598.553284
1112,1821,1,0,0,0,602.054443
-1857,712,2,0,0,0,622.048950
-1787,-414,3,0,0,0,613.310059
1197,-1150,4,0,0,0,641.766418
578,1439,1,0,0,0,693.078491
-810,1207,2,0,0,0,711.601257
-1527,-464,3,0,0,0,652.979065
866,-1122,4,1,0,15,259.866058
1353,1763,1,0,0,0,590.495728
-1741,619,2,0,0,0,643.009583
-423,-1624,3,0,0,0,638.644836
1265,-972,4,0,0,0,653.091919
1834,452,1,0,0,0,636.735596
-979,1428,2,0,0,0,661.579834
-1053,-1006,3,0,0,0,679.134949
1119,-958,4,0,0,0,675.864502
371,796,1,0,0,0,856.336792
-108,1674,2,1,0,13,139.419861
-896,-1600,3,0,0,0,613.392517
199,-764,4,0,0,0,854.877075
1683,1291,1,0,0,0,603.730957
-1512,510,2,0,0,0,684.903015
-1890,-798,3,0,0,0,581.531128
1244,-1397,4,0,0,0,607.742676
1401,1262,1,0,0,0,637.232361
-225,1936,2,0,0,0,627.803040
-737,-447,3,0,0,0,829.611023
594,-1089,4,0,0,0,725.064331
1727,1537,1,0,0,0,579.292725
-990,1798,2,1,0,21,108.951210
-1680,-331,3,0,0,0,632.909546
1289,-1505,4,0,0,0,591.377502
1984,519,1,0,0,0,613.321594
-906,530,2,1,0,21,142.583847
-1503,-1854,3,0,0,0,538.774902
836,-964,4,0,0,0,716.968933
1700,202,1,0,0,0,664.799500
-1749,-1261,3,0,0,0,567.447632
736,-1616,4,0,0,0,622.552063
243,610,1,0,0,0,940.071106
-1811,-1708,3,0,0,0,526.923828
730,-1852,4,1,0,15,111.707008
-878,-84,3,0,0,0,822.998718
1660,-938,4,0,0,0,602.312927
-974,-1611,3,1,0,16,94.781982
-266,-115,3,0,0,0,1143.721802
-886,-691,3,1,0,16,178.137161
-1372,-310,3,0,0,0,689.071960


each generation good chromosome number
0,0,0,0,0,0,0,0,0,0,0,0,0,0,0,0,0,0,0,0,0,0,0,0,0,0,0,0,0,0,0,0,0,0,0,0,0,0,0,0,0,0,0,0,0,0,0,0,0,0,0,0,0,0,0,0,0,0,0,0,0,0,0,0,0,0,0,0,0,0,0,0,0,0,0,0,0,0,0,0,0,0,0,0,0,0,0,0,0,0,0,0,0,0,0,0,0,0,0,0,