each times' max average throughput
0.000000,0.000000,0.000000,0.000000,0.000000,0.000000,0.000000,0.000000,0.000000,0.000000,0.000000,0.000000,0.000000,0.000000,0.000000,0.000000,0.000000,0.000000,0.000000,0.000000,0.000000,0.000000,0.000000,0.000000,0.000000,0.000000,0.000000,0.000000,0.000000,0.000000,0.000000,0.000000,0.000000,0.000000,0.000000,0.000000,0.000000,0.000000,0.000000,0.000000,0.000000,0.000000,0.000000,0.000000,0.000000,0.000000,0.000000,0.000000,0.000000,0.000000,0.000000,0.000000,0.000000,0.000000,0.000000,0.000000,0.000000,0.000000,0.000000,0.000000,0.000000,0.000000,0.000000,0.000000,0.000000,0.000000,0.000000,0.000000,0.000000,0.000000,0.000000,0.000000,0.000000,0.000000,0.000000,0.000000,0.000000,0.000000,0.000000,555.739685,0.000000,0.000000,0.000000,0.000000,0.000000,0.000000,0.000000,0.000000,0.000000,0.000000,0.000000,0.000000,553.293945,0.000000,0.000000,0.000000,0.000000,0.000000,0.000000,0.000000,
avg. throughput in all test times
11.090337
avg. BS TX power in all test times
MBS area 1,MBS area 2,MBS area 3,MBS area 4,MBS area 5,MBS area 6,MBS area 7,MBS area 8,CBSD 1,CBSD 2,CBSD 3,CBSD 4,CBSD 5,
1.350,1.250,1.212,1.737,1.212,1.150,1.212,1.375,0.000,0.000,0.000,0.000,0.000,
avg. mbs all power,avg. cbsd enable number,avg. mbs area all power,avg. cbsd all power
10.500,0.000,10.500,0.000
avg. max avg. throughput generation number in all test times
0.040000
avg. number of relay UE
0

the max average throughput times

BS TX power
MBS area 1,MBS area 2,MBS area 3,MBS area 4,MBS area 5,MBS area 6,MBS area 7,MBS area 8,CBSD 1,CBSD 2,CBSD 3,CBSD 4,CBSD 5,
8.750,7.500,5.000,7.500,5.000,6.250,5.000,5.000,0.000,0.000,0.000,0.000,0.000,
max average throughput
553.293945

x,y,area,be blocked (1 : NLOS / 0 : LOS),be blocked number (>=1 : CBSD(x) / 0 : no),connect bs number (>=1 : CBSD / 0 : MBS),throughput (unit : M bps)
1113,1173,1,1,0,0,5.681596
1645,1182,2,0,0,0,642.798706
-1095,1089,3,0,0,0,662.365295
-618,1202,4,1,0,0,8.264690
-296,-695,5,0,0,0,867.578003
-1639,-1571,6,1,0,0,1.487811
1715,-1093,7,0,0,0,584.011719
250,-796,8,0,0,0,838.981262
1492,1704,1,0,0,0,632.944336
849,288,2,0,0,0,876.637573
-1914,1570,3,0,0,0,528.490723
-145,830,4,1,0,0,31.424011
-885,-1354,5,0,0,0,649.136902
-1751,-1426,6,1,0,0,1.511776
1496,-485,7,0,0,0,657.174744
1692,-1931,8,0,0,0,518.255371
1199,1925,1,0,0,0,632.568420
1805,361,2,1,0,0,3.328402
-1343,1043,3,1,0,0,2.819729
-1282,1829,4,0,0,0,614.964844
-655,-1282,5,0,0,0,682.428467
-1174,-104,6,1,0,0,10.312050
1996,-1794,7,0,0,0,505.837341
95,-1622,8,0,0,0,647.868347
384,451,1,1,0,0,86.169373
1114,632,2,0,0,0,774.056335
-665,475,3,1,0,0,23.610415
-621,1228,4,0,0,0,753.452087
-895,-1674,5,0,0,0,603.574463
-1893,-325,6,1,0,0,2.448990
1755,-1642,7,0,0,0,536.814392
537,-1124,8,0,0,0,723.859619
631,1870,1,0,0,0,672.234253
1458,175,2,1,0,0,6.484109
-1458,462,3,1,0,0,3.861143
-75,525,4,1,0,0,98.253883
-473,-1568,5,1,0,0,3.152218
-1150,-349,6,0,0,0,766.160400
1831,-175,7,0,0,0,612.533875
819,-1152,8,0,0,0,687.677246
976,1555,1,0,0,0,692.914124
429,149,2,0,0,0,1072.630981
-684,305,3,1,0,0,29.986311
-409,1582,4,0,0,0,704.201355
-494,-1852,5,0,0,0,600.816772
-874,-844,6,0,0,0,763.023315
1140,-743,7,0,0,0,698.552307
1338,-1556,8,0,0,0,581.447754
67,401,1,0,0,0,1126.777222
1760,1077,2,0,0,0,637.533325
-1797,1758,3,0,0,0,524.167480
-269,1722,4,1,0,0,3.913158
-249,-1248,5,0,0,0,717.735352
-1483,-238,6,0,0,0,702.225037
1156,-111,7,0,0,0,743.971436
145,-278,8,0,0,0,1121.004639
1473,1493,1,1,0,0,2.631591
1878,1136,2,0,0,0,619.938538
-695,680,3,0,0,0,794.971741
-966,1275,4,0,0,0,710.294128
-384,-1107,5,1,0,0,8.450884
-1722,-1436,6,0,0,0,587.973572
1053,-138,7,0,0,0,769.629761
315,-712,8,0,0,0,858.886353
387,1625,1,0,0,0,719.963928
1753,372,2,1,0,0,3.603808
-1743,695,3,0,0,0,606.854553
-1131,1637,4,0,0,0,647.901917
-746,-967,5,0,0,0,729.525330
-528,-50,6,0,0,0,1001.612671
1392,-577,7,0,0,0,669.383972
582,-1269,8,0,0,0,691.213745
277,709,1,1,0,0,46.994892
623,80,2,0,0,0,979.129456
-1442,637,3,0,0,0,656.490112
-296,823,4,0,0,0,883.759583
-423,-1514,5,1,0,0,3.559871
-1991,-196,6,1,0,0,2.169149
1285,-35,7,0,0,0,714.850098
512,-811,8,0,0,0,798.909912
51,1051,1,0,0,0,852.725525
1929,1169,2,1,0,0,1.818557
-1831,437,3,0,0,0,605.951294
-124,833,4,0,0,0,894.639709
-269,-352,5,1,0,0,108.141319
-1684,-1045,6,0,0,0,623.042419
1366,-929,7,1,0,0,3.072606
1103,-1684,8,1,0,0,1.706053
300,473,1,0,0,0,1034.377808
1897,1250,2,1,0,0,1.780069
-1012,285,3,0,0,0,772.521118
-157,1568,4,1,0,0,5.269192
-693,-1797,5,0,0,0,599.450378
-1784,-638,6,0,0,0,635.865845
1429,-1416,7,0,0,0,587.088196
959,-1377,8,1,0,0,2.933037
201,884,1,0,0,0,895.620850
1942,1104,2,1,0,0,1.871721
-1399,858,3,0,0,0,645.009033
-423,1335,4,0,0,0,748.424683
-1282,-1655,5,1,0,0,1.517988
-1082,-189,6,0,0,0,792.003967
1113,-385,7,0,0,0,739.951172
261,-827,8,0,0,0,827.865601
1598,1944,1,1,0,0,1.529288
1237,470,2,0,0,0,764.684875
-1903,359,3,0,0,0,597.895813
-1545,1920,4,0,0,0,587.023438
-196,-1768,5,0,0,0,622.052185
-1245,-246,6,1,0,0,8.317950
834,-300,7,1,0,0,18.825047
1489,-1879,8,0,0,0,537.509399
1168,1250,1,0,0,0,713.130127
1951,1627,2,1,0,0,1.275325
-596,244,3,0,0,0,913.515198
-757,879,4,0,0,0,802.507202
-1244,-1393,5,0,0,0,608.196594
-736,-193,6,0,0,0,897.620300
1467,-658,7,0,0,0,650.864380
640,-1982,8,0,0,0,577.253479
486,1400,1,0,0,0,754.300842
961,175,2,1,0,0,20.937216
-544,410,3,0,0,0,897.346863
-778,1627,4,0,0,0,675.973267
-668,-1980,5,0,0,0,576.319763
-1336,-514,6,0,0,0,715.997192
1546,-343,7,1,0,0,3.483069
324,-1743,8,0,0,0,623.009888
471,1097,1,0,0,0,816.408203
998,133,2,0,0,0,843.242737
-1309,211,3,0,0,0,705.982239
-1191,1996,4,0,0,0,603.639160
-384,-1381,5,1,0,0,4.677231
-1542,-636,6,1,0,0,3.722570
1538,-412,7,1,0,0,3.427373
350,-651,8,0,0,0,873.851868
8,956,1,0,0,0,880.322632
1719,32,2,0,0,0,689.639160
-1726,34,3,1,0,0,2.695901
-1105,1992,4,0,0,0,609.366760
-1164,-1709,5,0,0,0,579.304138
-1757,-641,6,0,0,0,639.556885
839,-246,7,0,0,0,825.516479
80,-508,8,1,0,0,77.698296
97,462,1,1,0,0,138.641754
1745,210,2,0,0,0,683.337341
-1533,1456,3,1,0,0,1.473870
-265,1606,4,0,0,0,705.307068
-508,-1133,5,0,0,0,724.785645
-1333,-826,6,0,0,0,689.880432
579,-121,7,0,0,0,938.013184
746,-1682,8,1,0,0,2.230092
40,1467,1,0,0,0,757.105652
1628,521,2,0,0,0,691.301941
-1005,683,3,0,0,0,730.982971
-296,1644,4,0,0,0,697.890320
-1114,-1991,5,0,0,0,551.488647
-1871,-1162,6,0,0,0,593.043579
146,-124,7,1,0,0,388.825104
50,-910,8,0,0,0,813.581665
969,1588,1,1,0,0,3.756371
1130,395,2,0,0,0,793.481018
-1747,748,3,0,0,0,603.251038
-91,1749,4,1,0,0,3.857309
-1436,-1607,5,0,0,0,567.586792
-1850,-310,6,0,0,0,638.717224
1987,-1178,7,1,0,0,1.131445
673,-1406,8,0,0,0,659.706787
1031,1793,1,1,0,0,2.742937
1284,787,2,0,0,0,727.577271
-639,407,3,0,0,0,866.740906
-469,609,4,0,0,0,920.946411
-77,-459,5,0,0,0,1007.107422
-1892,-668,6,0,0,0,619.534790
1842,-1484,7,0,0,0,541.297302
1316,-1808,8,0,0,0,557.143250
492,1778,1,0,0,0,691.530640
1272,875,2,0,0,0,720.453247
-1054,132,3,0,0,0,769.567688
-100,1666,4,0,0,0,698.136719
-701,-1480,5,0,0,0,645.622620
-864,-4,6,0,0,0,861.029236
1822,-1332,7,0,0,0,554.536072
1165,-1663,8,1,0,0,1.662843
1425,1829,1,1,0,0,1.952405
1717,201,2,0,0,0,688.074524
-1172,203,3,0,0,0,737.105408
-1373,1441,4,1,0,0,2.639072
-1243,-1431,5,0,0,0,603.988770
-690,-140,6,0,0,0,919.974854
791,-741,7,0,0,0,763.779846
1288,-1734,8,1,0,0,1.382561
776,1972,1,1,0,0,2.551692
1633,174,2,1,0,0,4.665327
-1851,1292,3,0,0,0,554.492920
-1048,1735,4,0,0,0,642.612305
-303,-929,5,0,0,0,793.546387
-1873,-1104,6,0,0,0,596.717346
845,-188,7,0,0,0,828.379150
261,-965,8,0,0,0,787.002808
1194,1976,1,1,0,0,1.977361
940,27,2,1,0,0,23.271120
-318,238,3,0,0,0,1052.800537
-146,968,4,0,0,0,851.320984
-861,-1060,5,0,0,0,697.530029
-1881,-988,6,0,0,0,603.253784
1949,-1574,7,0,0,0,525.142212
264,-1773,8,0,0,0,619.866028
527,881,1,0,0,0,859.826172
1979,1576,2,0,0,0,579.594849
-1300,726,3,0,0,0,672.792114
-1232,1870,4,0,0,0,614.226746
-370,-1797,5,0,0,0,613.253357
-1885,-1391,6,0,0,0,575.548096
1854,-1540,7,1,0,0,0.996560
614,-1692,8,0,0,0,618.691406
1281,1850,1,0,0,0,634.795654
131,39,2,1,0,0,585.814819
-992,785,3,0,0,0,719.445618
-1174,1644,4,1,0,0,2.525094
-965,-1205,5,0,0,0,662.466919
-1658,-398,6,0,0,0,665.946228
1024,-505,7,0,0,0,748.845764
1299,-1601,8,0,0,0,580.134216
156,1694,1,0,0,0,714.742188
1898,1499,2,1,0,0,1.476883
-1003,693,3,0,0,0,730.040100
-558,1248,4,0,0,0,755.340210
-932,-1007,5,1,0,0,5.320453
-1542,-285,6,0,0,0,689.890747
1302,-1119,7,0,0,0,632.162964
251,-1364,8,0,0,0,693.104370
1194,1942,1,0,0,0,631.086792
1522,560,2,0,0,0,706.358521
-1803,1036,3,1,0,0,1.548703
-1554,1690,4,0,0,0,607.139893
-937,-1785,5,1,0,0,1.698728
-1515,-571,6,1,0,0,4.065878
773,-772,7,0,0,0,761.506836
137,-157,8,0,0,0,1238.873657
332,890,1,0,0,0,882.173462
1116,195,2,0,0,0,809.309875
-1143,295,3,1,0,0,8.269692
-245,951,4,0,0,0,850.410583
-221,-1115,5,1,0,0,9.230987
-1997,-1941,6,0,0,0,526.755981
1963,-1927,7,0,0,0,498.938934
368,-442,8,0,0,0,946.097351
262,1277,1,1,0,0,10.656422
1254,930,2,0,0,0,717.255066
-1916,1808,3,0,0,0,511.036713
-1007,1234,4,0,0,0,711.529541
-633,-1675,5,0,0,0,620.172302
-1867,-1780,6,0,0,0,548.320801
1388,-161,7,1,0,0,5.042644
1050,-1267,8,1,0,0,3.108378
515,1820,1,0,0,0,684.387268
1731,1482,2,0,0,0,609.267883
-770,67,3,0,0,0,860.986023
-609,641,4,0,0,0,880.629395
-1129,-1622,5,1,0,0,1.802644
-1805,-219,6,0,0,0,647.604919
947,-413,7,0,0,0,777.543213
240,-975,8,0,0,0,785.732239
365,564,1,0,0,0,981.963074
576,324,2,0,0,0,964.478577
-222,173,3,0,0,0,1152.151367
-183,882,4,1,0,0,26.202257
-744,-1020,5,0,0,0,720.015503
-773,-363,6,1,0,0,25.673332
1545,-490,7,1,0,0,3.251023
493,-1407,8,1,0,0,4.164278
635,1482,1,0,0,0,730.117371
1375,453,2,0,0,0,738.897827
-1357,257,3,0,0,0,694.299683
-16,1779,4,0,0,0,679.863342
-1761,-1805,5,0,0,0,523.295044
-1982,-956,6,0,0,0,593.296387
1948,-1745,7,1,0,0,0.780560
1226,-1737,8,0,0,0,571.424927
329,1666,1,0,0,0,715.246765
1823,1214,2,0,0,0,620.538025
-1828,893,3,0,0,0,583.903687
-1057,1252,4,1,0,0,4.696693
-864,-1878,5,0,0,0,579.377075
-1586,-365,6,0,0,0,679.266357
1945,-348,7,0,0,0,592.189819
1593,-1701,8,0,0,0,545.494324
771,968,1,1,0,0,12.380930
672,387,2,0,0,0,918.406677
-1613,1181,3,0,0,0,588.871277
-670,1859,4,0,0,0,649.866760
-892,-1290,5,0,0,0,657.954895
-1912,-1609,6,0,0,0,557.285156
1041,-806,7,0,0,0,708.007019
1756,-1885,8,0,0,0,517.298157
1030,1679,1,0,0,0,672.790100
1603,299,2,0,0,0,704.792480
-1257,693,3,0,0,0,683.276306
-181,253,4,0,0,0,1181.756348
-178,-930,5,0,0,0,802.593811
-1634,-1258,6,1,0,0,1.981976
1246,-810,7,0,0,0,673.338379
1044,-1865,8,0,0,0,569.932617
1034,1704,1,0,0,0,669.411316
1209,130,2,0,0,0,788.974792
-1113,1110,3,0,0,0,657.311890
-923,1926,4,0,0,0,627.711182
-651,-1219,5,0,0,0,694.129761
-896,-431,6,0,0,0,820.629944
1962,-1911,7,0,0,0,500.150726
623,-1797,8,0,0,0,603.022217
191,469,1,0,0,0,1063.446289
1074,1009,2,0,0,0,733.808350
-509,429,3,1,0,0,41.033257
-323,1787,4,0,0,0,673.996704
-163,-1059,5,0,0,0,767.081665
-1922,-1053,6,0,0,0,594.454651
752,-437,7,0,0,0,827.022339
12,-192,8,0,0,0,1261.915283
733,1885,1,1,0,0,2.931554
1592,228,2,0,0,0,708.753906
-1470,214,3,1,0,0,4.209001
-439,1723,4,0,0,0,680.028625
-135,-1096,5,0,0,0,758.422241
-1141,-1122,6,0,0,0,684.089783
1438,-1200,7,0,0,0,607.389587
511,-663,8,0,0,0,838.039246
642,1274,1,0,0,0,765.225037
1998,190,2,0,0,0,645.431213
-1363,755,3,0,0,0,659.822693
-201,931,4,0,0,0,859.217957
-1274,-1822,5,0,0,0,558.789917
-1410,-831,6,1,0,0,3.937660
1117,-43,7,0,0,0,754.923218
793,-1508,8,1,0,0,2.803284
115,1371,1,0,0,0,775.637512
784,215,2,0,0,0,904.813232
-1223,501,3,0,0,0,706.903137
-419,949,4,1,0,0,17.682096
-244,-1269,5,0,0,0,713.345764
-1726,-1643,6,0,0,0,570.719849
1418,-138,7,0,0,0,685.411316
30,-654,8,1,0,0,42.849972
812,977,1,0,0,0,798.543640
940,202,2,0,0,0,856.508667
-1879,598,3,1,0,0,1.814600
-1123,1280,4,0,0,0,692.397827
-822,-1726,5,1,0,0,1.990016
-879,-593,6,0,0,0,802.138123
974,-82,7,1,0,0,14.263311
416,-773,8,0,0,0,824.364563
30,647,1,0,0,0,992.497070
898,431,2,1,0,0,19.823549
-1877,210,3,0,0,0,605.003906
-384,1687,4,0,0,0,687.838318
-664,-791,5,0,0,0,777.651184
-1619,-367,6,0,0,0,673.593445
507,-73,7,0,0,0,979.481079
919,-1640,8,0,0,0,606.327515
193,559,1,0,0,0,1018.718384
1765,278,2,0,0,0,678.630676
-203,170,3,0,0,0,1169.759521
-1361,1857,4,0,0,0,606.339966
-1086,-1176,5,0,0,0,652.121704
-1195,-636,6,1,0,0,6.887666
616,-102,7,1,0,0,48.404930
93,-216,8,1,0,0,308.090607
1944,1995,1,0,0,0,574.157959
1791,1615,2,1,0,0,1.489582
-740,275,3,0,0,0,854.893738
-938,1728,4,0,0,0,651.297485
-948,-1517,5,0,0,0,620.453308
-1780,-1114,6,0,0,0,606.594910
1260,-116,7,0,0,0,719.376953
555,-697,8,0,0,0,820.090698
1670,971,2,0,0,0,656.335388
-1978,1908,3,0,0,0,499.192749
-247,717,4,0,0,0,924.836365
-649,-1631,5,0,0,0,625.830811
-1896,-562,6,1,0,0,2.245400
1562,-1484,7,1,0,0,1.393071
34,-302,8,0,0,0,1130.006348
1610,330,2,0,0,0,702.548950
-736,114,3,0,0,0,871.657959
-1085,1953,4,0,0,0,614.888916
-1348,-1559,5,0,0,0,580.234741
-1574,-1133,6,0,0,0,629.218079
1367,-1272,7,1,0,0,2.134567
1579,-1628,8,0,0,0,553.164673
1979,391,2,0,0,0,643.979614
-1781,25,3,0,0,0,621.677368
-1092,1586,4,0,0,0,657.251709
-1099,-1279,5,0,0,0,637.268188
-513,-443,6,0,0,0,930.922852
1831,-581,7,0,0,0,600.192566
1273,-1931,8,0,0,0,547.633484
506,320,2,1,0,0,74.703056
-1033,658,3,1,0,0,7.426072
-227,1287,4,0,0,0,768.268555
-23,-63,5,0,0,0,1565.943237
-1662,-1082,6,0,0,0,622.858398
1321,-812,7,0,0,0,661.206055
1558,-1611,8,0,0,0,556.523987
714,570,2,0,0,0,871.198792
-937,534,3,0,0,0,765.208923
-601,1639,4,0,0,0,685.276917
-1324,-1500,5,0,0,0,588.642761
-533,-18,6,0,0,0,1000.018311
1350,-261,7,0,0,0,695.571472
22,-1891,8,0,0,0,604.640503
1938,685,2,0,0,0,638.624573
-1660,1423,3,0,0,0,563.505859
-51,289,4,1,0,0,275.693146
-980,-1428,5,0,0,0,629.661255
-1372,-377,6,0,0,0,717.726013
1928,-1731,7,0,0,0,515.684875
118,-359,8,1,0,0,148.453522
1350,294,2,0,0,0,752.296570
-1053,752,3,1,0,0,6.321764
-19,1598,4,0,0,0,710.564392
-961,-1263,5,0,0,0,654.575623
-979,-400,6,0,0,0,802.887695
1042,-603,7,0,0,0,733.642822
96,-332,8,0,0,0,1092.928711
436,177,2,0,0,0,1062.389038
-1606,469,3,0,0,0,639.513550
-1437,1990,4,0,0,0,588.156921
-201,-321,5,0,0,0,1066.525391
-1823,-1500,6,1,0,0,1.324003
1121,-490,7,0,0,0,729.032471
866,-1832,8,0,0,0,585.033264
995,980,2,0,0,0,749.211487
-972,886,3,0,0,0,708.299561
-898,1766,4,0,0,0,649.124390
-705,-1579,5,1,0,0,2.682481
-1930,-468,6,0,0,0,622.462280
711,-502,7,0,0,0,826.822510
1412,-1754,8,1,0,0,1.221123
1314,1057,2,0,0,0,695.172485
-837,762,3,0,0,0,751.331238
-432,1069,4,0,0,0,804.258911
-755,-847,5,0,0,0,750.636292
-1696,-861,6,1,0,0,2.521156
1225,-481,7,0,0,0,708.117188
604,-1267,8,1,0,0,4.976215
931,481,2,0,0,0,831.735718
-1657,1258,3,0,0,0,577.570984
-688,1752,4,1,0,0,3.115380
-831,-1510,5,1,0,0,2.708830
-1739,-925,6,0,0,0,624.797791
1179,-645,7,0,0,0,702.120422
113,-1285,8,0,0,0,713.853088
1949,221,2,1,0,0,2.756284
-1176,282,3,0,0,0,732.350281
-614,-1528,5,0,0,0,644.037231
-990,-182,6,0,0,0,817.089355
1745,-1175,7,0,0,0,574.418335
1718,1078,2,0,0,0,642.435974
-1654,1054,3,0,0,0,594.295349
-602,-1165,5,0,0,0,709.142334
1573,-787,7,0,0,0,625.261780
1488,557,2,0,0,0,712.232056
-1725,1254,3,1,0,0,1.436243
-969,-1980,5,0,0,0,561.194153
1925,-820,7,0,0,0,575.950317
1098,986,2,1,0,0,6.390801
-1238,517,3,0,0,0,702.607300
1350,-847,7,0,0,0,653.378235
1936,1394,2,0,0,0,596.242493
-1719,1631,3,0,0,0,540.797424
766,-645,7,1,0,0,13.309109
955,608,2,0,0,0,809.510864
-1217,531,3,1,0,0,5.860005
896,-229,7,0,0,0,809.376526
1011,823,2,0,0,0,768.980286
-1008,679,3,0,0,0,730.925781
1038,-123,7,0,0,0,774.193054
1287,1123,2,0,0,0,691.514099
-1611,273,3,0,0,0,646.259827
721,547,2,0,0,0,873.922424
-1940,673,3,0,0,0,581.274475
1617,193,2,1,0,0,4.782685
-1815,1811,3,1,0,0,0.828243
548,461,2,0,0,0,941.344788
-1512,1246,3,0,0,0,594.589783
1738,1403,2,0,0,0,614.956848
-1946,1768,3,0,0,0,511.586548
1406,1012,2,0,0,0,687.477966
-1264,843,3,0,0,0,667.028076
1610,493,2,0,0,0,695.610962
-1484,1208,3,0,0,0,601.297607
1125,176,2,0,0,0,807.847839
-1363,299,3,0,0,0,691.354248
968,830,2,0,0,0,775.330750
-1708,164,3,0,0,0,632.317871
1048,103,2,0,0,0,830.329529
-347,237,3,0,0,0,1036.562134
1721,1473,2,0,0,0,610.951172
-560,453,3,1,0,0,33.307125


each generation good chromosome number
0,0,0,