each times' max average throughput
577.071472,0.000000,547.237488,600.161560,0.000000,0.000000,583.992676,0.000000,0.000000,0.000000,587.982605,0.000000,0.000000,0.000000,0.000000,0.000000,0.000000,0.000000,0.000000,0.000000,0.000000,0.000000,0.000000,0.000000,557.159851,584.091125,0.000000,0.000000,0.000000,0.000000,0.000000,0.000000,0.000000,0.000000,0.000000,0.000000,0.000000,0.000000,0.000000,0.000000,0.000000,0.000000,0.000000,0.000000,0.000000,0.000000,0.000000,0.000000,0.000000,0.000000,540.945557,0.000000,0.000000,0.000000,0.000000,0.000000,0.000000,0.000000,0.000000,0.000000,0.000000,0.000000,0.000000,0.000000,578.539795,0.000000,0.000000,592.461609,602.470703,0.000000,0.000000,0.000000,0.000000,0.000000,0.000000,0.000000,0.000000,0.000000,0.000000,0.000000,0.000000,0.000000,0.000000,0.000000,0.000000,580.634399,0.000000,0.000000,0.000000,594.036438,587.595154,570.966797,564.028259,0.000000,0.000000,0.000000,0.000000,0.000000,0.000000,0.000000,
avg. throughput in all test times
92.493759
avg. BS TX power in all test times
MBS area 1,MBS area 2,MBS area 3,MBS area 4,CBSD 1,CBSD 2,CBSD 3,CBSD 4,CBSD 5,CBSD 6,CBSD 7,CBSD 8,CBSD 9,CBSD 10,CBSD 11,CBSD 12,CBSD 13,CBSD 14,CBSD 15,CBSD 16,CBSD 17,CBSD 18,CBSD 19,CBSD 20,CBSD 21,CBSD 22,CBSD 23,CBSD 24,CBSD 25,CBSD 26,CBSD 27,CBSD 28,CBSD 29,CBSD 30,
6.475,7.912,7.988,8.387,0.255,0.005,0.161,0.049,0.171,0.166,0.144,0.287,0.211,0.116,0.020,0.119,0.373,0.030,0.146,0.010,0.251,0.245,0.116,0.045,0.183,0.000,0.123,0.134,0.170,0.314,0.054,0.000,0.055,0.188,
avg. mbs all power,avg. cbsd enable number,avg. mbs area all power,avg. cbsd all power
70.812,5.000,30.763,4.140
avg. max avg. throughput generation number in all test times
7.670000
avg. number of relay UE
643

the max average throughput times

BS TX power
MBS area 1,MBS area 2,MBS area 3,MBS area 4,CBSD 1,CBSD 2,CBSD 3,CBSD 4,CBSD 5,CBSD 6,CBSD 7,CBSD 8,CBSD 9,CBSD 10,CBSD 11,CBSD 12,CBSD 13,CBSD 14,CBSD 15,CBSD 16,CBSD 17,CBSD 18,CBSD 19,CBSD 20,CBSD 21,CBSD 22,CBSD 23,CBSD 24,CBSD 25,CBSD 26,CBSD 27,CBSD 28,CBSD 29,CBSD 30,
5.000,5.000,7.500,10.000,0.000,0.000,0.000,0.000,0.875,0.000,0.000,0.000,0.625,0.500,0.000,0.875,0.000,0.000,0.000,0.000,1.000,0.000,0.000,0.000,0.000,0.000,1.000,0.000,0.000,0.000,0.000,0.000,0.000,0.000,
max average throughput
564.028259

x,y,area,be blocked (1 : NLOS / 0 : LOS),be blocked number (>=1 : CBSD(x) / 0 : no),connect bs number (>=1 : CBSD / 0 : MBS),throughput (unit : M bps)
992,1044,1,0,0,0,682.328491
-1702,1373,2,0,0,0,563.464600
-2000,-326,3,1,0,9,77.314980
785,-1672,4,0,0,0,710.290100
801,224,1,0,0,0,839.880554
-511,1069,2,0,0,0,738.215576
-659,-14,3,0,0,0,965.230896
1612,-642,4,0,0,0,728.210083
376,1323,1,0,0,0,695.489258
-1554,1736,2,1,0,5,44.844700
-1109,-1072,3,0,0,0,720.726685
483,-406,4,1,0,23,29.057549
145,1297,1,0,0,0,710.514526
-1224,95,2,0,0,0,728.034302
-1895,-561,3,0,0,0,649.831665
36,-900,4,0,0,0,916.711548
1723,1389,1,0,0,0,560.073608
-417,172,2,0,0,0,1016.125671
-1207,-864,3,0,0,0,731.724426
614,-1422,4,1,0,23,29.057549
158,268,1,0,0,0,1123.253296
-745,261,2,1,0,9,147.849655
-276,-1229,3,0,0,0,778.845581
269,-1760,4,0,0,0,720.822815
1690,625,1,1,0,23,29.057549
-358,1433,2,0,0,0,675.093933
-1130,-1392,3,0,0,0,677.646179
1525,-750,4,0,0,0,734.169312
611,926,1,1,0,5,44.844700
-618,1118,2,0,0,0,716.647522
-938,-412,3,0,0,0,838.237366
98,-743,4,0,0,0,969.689331
1656,1454,1,1,0,5,44.844700
-283,549,2,0,0,0,925.554932
-93,-603,3,0,0,0,987.503113
1101,-78,4,0,0,0,858.182312
1934,555,1,0,0,0,587.043335
-163,1252,2,0,0,0,720.003174
-422,-348,3,0,0,0,1018.997742
539,-1672,4,1,0,23,29.057549
927,1658,1,1,0,5,44.844700
-1686,503,2,1,0,9,119.049309
-1257,-1490,3,0,0,0,653.742737
80,-1659,4,0,0,0,740.744812
668,1156,1,0,0,0,703.995911
-1599,664,2,0,0,0,629.750793
-1672,-735,3,1,0,9,71.691177
1561,-567,4,0,0,0,740.769226
629,1557,1,1,0,5,44.844700
-1488,562,2,0,0,0,653.936829
-666,-1391,3,0,0,0,720.764404
766,-442,4,0,0,0,921.986328
1930,733,1,0,0,0,579.748413
-221,752,2,0,0,0,856.958618
-896,-753,3,0,0,0,799.952332
912,-1387,4,0,0,0,740.909546
220,786,1,1,0,5,44.844700
-1004,1828,2,1,0,5,44.844700
-802,-566,3,1,0,12,85.384857
1165,-1745,4,1,0,23,29.057549
552,69,1,0,0,0,955.697205
-517,864,2,0,0,0,784.942139
-1057,-1232,3,0,0,0,706.086853
1524,-1946,4,0,0,0,627.065735
1450,221,1,0,0,0,677.093994
-187,560,2,0,0,0,938.554688
-435,-258,3,1,0,0,108.761566
325,-850,4,0,0,0,913.754761
1903,1157,1,1,0,23,29.057549
-1502,1155,2,0,0,0,604.098877
-735,-1407,3,0,0,0,712.488708
1470,-1834,4,1,0,23,29.057549
221,520,1,0,0,0,951.216309
-1626,1727,2,0,0,0,540.514282
-1734,-519,3,0,0,0,674.935242
1290,-11,4,1,0,23,29.057549
667,1478,1,1,0,5,44.844700
-493,1084,2,1,0,5,44.844700
-1218,-685,3,0,0,0,749.040588
635,-767,4,1,0,23,29.057549
1808,1240,1,1,0,23,29.057549
-1935,1134,2,1,0,5,44.844700
-457,-1943,3,0,0,0,646.998291
1919,-120,4,0,0,0,698.797485
633,1376,1,0,0,0,667.914429
-265,1066,2,1,0,5,44.844700
-1402,-1623,3,0,0,0,626.519653
1773,-1532,4,0,0,0,642.286682
1021,196,1,0,0,0,775.741211
-1258,577,2,0,0,0,693.701172
-257,-871,3,0,0,0,872.934814
699,-816,4,0,0,0,865.926331
1871,116,1,1,0,23,29.057549
-342,76,2,0,0,0,1088.998779
-197,-1200,3,1,0,23,29.057549
1448,-1113,4,0,0,0,713.531250
187,931,1,1,0,5,44.844700
-781,1130,2,1,0,5,44.844700
-1065,-1368,3,0,0,0,687.255371
252,-213,4,1,0,0,267.870544
1475,414,1,0,0,0,664.654724
-187,763,2,0,0,0,856.305969
-467,-101,3,0,0,0,1057.987061
632,-1294,4,0,0,0,781.699646
985,942,1,0,0,0,698.093994
-5,1884,2,0,0,0,605.712646
-1490,-1128,3,1,0,9,59.868561
1234,-1544,4,0,0,0,690.901062
1568,176,1,0,0,0,656.233826
-400,496,2,0,0,0,916.580994
-1702,-356,3,0,0,0,686.406555
1083,-570,4,1,0,23,29.057549
98,782,1,0,0,0,855.378540
-1961,660,2,1,0,9,94.430092
-1383,-1025,3,1,0,9,64.327667
1159,-1101,4,0,0,0,751.720642
790,488,1,0,0,0,808.206909
-1133,784,2,0,0,0,694.987976
-1812,-1212,3,0,0,0,621.874695
673,-1841,4,1,0,23,29.057549
777,515,1,0,0,0,807.092834
-1173,1936,2,0,0,0,553.703796
-970,-1354,3,1,0,23,29.057549
879,-1633,4,0,0,0,709.139587
1139,1217,1,0,0,0,640.576172
-343,1107,2,0,0,0,744.563904
-1838,-1033,3,0,0,0,631.382385
627,-122,4,0,0,0,1015.748108
365,1988,1,0,0,0,585.753540
-854,35,2,1,0,9,134.881638
-1042,-1596,3,0,0,0,660.164551
1683,-1487,4,0,0,0,654.397644
1161,1374,1,0,0,0,618.869873
-497,710,2,0,0,0,828.045715
-1762,-1434,3,0,0,0,610.137939
1761,-79,4,1,0,23,29.057549
507,553,1,0,0,0,869.554565
-132,1907,2,0,0,0,601.586792
-82,-180,3,0,0,0,1312.382935
1204,-398,4,0,0,0,818.259216
130,465,1,1,0,5,44.844700
-1202,334,2,0,0,0,723.434143
-1711,-1886,3,0,0,0,577.741394
919,-498,4,0,0,0,873.856689
1033,90,1,0,0,0,776.496277
-1865,660,2,0,0,0,591.837830
-1155,-1080,3,0,0,0,713.598938
533,-1510,4,0,0,0,751.232666
934,1174,1,0,0,0,670.645508
-1450,174,2,0,0,0,678.332825
-327,-1347,3,0,0,0,751.367004
1212,-91,4,0,0,0,830.458374
18,47,1,0,0,0,1648.785767
-939,1920,2,0,0,0,569.933899
-1211,-1847,3,0,0,0,618.161255
1546,-974,4,0,0,0,713.388550
425,463,1,0,0,0,920.544617
-1865,1070,2,1,0,5,44.844700
-598,-1058,3,0,0,0,789.131775
912,-1960,4,0,0,0,665.286011
546,1447,1,0,0,0,661.948120
-867,1305,2,0,0,0,658.248352
-1042,-52,3,1,0,9,130.902435
607,-1499,4,0,0,0,748.392639
329,555,1,0,0,0,912.990479
-315,1783,2,0,0,0,617.012512
-862,-626,3,0,0,0,826.995789
1312,-462,4,1,0,23,29.057549
1108,911,1,0,0,0,683.464722
-420,78,2,0,0,0,1031.819336
-1321,-694,3,0,0,0,730.214355
1828,-1063,4,0,0,0,671.591858
628,234,1,0,0,0,902.044861
-253,1882,2,1,0,5,44.844700
-319,-307,3,0,0,0,1079.968018
225,-963,4,0,0,0,889.803345
208,589,1,1,0,5,44.844700
-1336,1320,2,0,0,0,606.603638
-292,-1542,3,1,0,23,29.057549
1639,-1134,4,1,0,23,29.057549
1712,166,1,0,0,0,631.625854
-1330,865,2,0,0,0,654.664429
-1809,-1764,3,0,0,0,579.950256
720,-720,4,0,0,0,881.397644
824,1788,1,0,0,0,593.218811
-1179,1004,2,0,0,0,661.582336
-675,-933,3,0,0,0,804.612854
541,-991,4,0,0,0,851.661987
553,834,1,0,0,0,786.712891
-1500,1374,2,1,0,5,44.844700
-1425,-1025,3,1,0,9,63.989956
1895,-1055,4,0,0,0,664.350586
1544,1572,1,1,0,5,44.844700
-1753,1657,2,0,0,0,535.783203
-1151,-1167,3,0,0,0,703.309509
700,-1198,4,1,0,23,29.057549
1590,422,1,0,0,0,644.331848
-807,1071,2,0,0,0,702.738098
-1356,-679,3,1,0,12,105.590057
85,-1055,4,1,0,23,29.057549
246,1042,1,1,0,5,44.844700
-137,1156,2,0,0,0,743.287354
-40,-1658,3,0,0,0,699.946106
899,-630,4,0,0,0,859.748047
71,1812,1,1,0,5,44.844700
-1034,168,2,0,0,0,773.562683
-1673,-443,3,1,0,12,93.940613
599,-587,4,0,0,0,937.272705
65,759,1,0,0,0,865.161072
-1648,1168,2,1,0,5,44.844700
-926,-1714,3,1,0,23,29.057549
784,-73,4,0,0,0,955.451965
17,558,1,0,0,0,954.682251
-1716,1261,2,0,0,0,570.970703
-185,-1693,3,0,0,0,692.351074
648,-159,4,0,0,0,1003.180481
1556,1337,1,1,0,5,44.844700
-1109,518,2,0,0,0,728.892456
-139,-1054,3,1,0,23,29.057549
521,-1473,4,0,0,0,758.287598
164,1331,1,1,0,5,44.844700
-1185,387,2,0,0,0,723.652161
-1491,-443,3,0,0,0,718.322266
1546,-1184,4,0,0,0,695.165710
1135,1266,1,0,0,0,634.915039
-486,660,2,0,0,0,844.096680
-535,-566,3,0,0,0,917.159912
1118,-1095,4,1,0,23,29.057549
302,255,1,0,0,0,1054.213745
-502,1674,2,0,0,0,627.087769
-735,-219,3,0,0,0,921.595154
663,-1587,4,0,0,0,730.735168
1031,887,1,0,0,0,698.700684
-861,84,2,0,0,0,828.569641
-772,-1911,3,0,0,0,637.855835
203,-587,4,1,0,23,29.057549
683,1683,1,1,0,5,44.844700
-731,789,2,0,0,0,765.981384
-1363,-1749,3,0,0,0,617.032532
633,-984,4,0,0,0,841.407654
1231,1243,1,0,0,0,626.802063
-1237,167,2,0,0,0,723.277832
-1754,-995,3,0,0,0,644.076782
352,-642,4,1,0,23,29.057549
848,1840,1,1,0,5,44.844700
-1606,447,2,1,0,9,128.149506
-1148,-338,3,0,0,0,793.559265
1081,-1405,4,0,0,0,722.065613
363,441,1,1,0,5,44.844700
-883,835,2,1,0,5,44.844700
-1741,-358,3,0,0,0,680.128052
1240,-453,4,0,0,0,806.688110
1003,1459,1,1,0,5,44.844700
-1764,173,2,0,0,0,623.073181
-581,-53,3,0,0,0,1000.409485
907,-1561,4,0,0,0,716.837585
748,287,1,0,0,0,850.651733
-145,460,2,1,0,5,44.844700
-608,-837,3,0,0,0,835.435669
61,-454,4,0,0,0,1111.621216
871,1071,1,0,0,0,694.435913
-288,1005,2,1,0,5,44.844700
-1511,-1457,3,0,0,0,632.649475
603,-1018,4,0,0,0,838.187805
863,1457,1,0,0,0,636.071411
-1653,1470,2,0,0,0,560.210632
-1787,-1321,3,0,0,0,616.407715
1138,-1501,4,1,0,23,29.057549
1397,13,1,1,0,23,29.057549
-896,1761,2,0,0,0,592.196777
-1157,-1532,3,0,0,0,658.108887
1463,-1905,4,0,0,0,635.224915
1134,1389,1,0,0,0,619.775024
-485,1574,2,1,0,5,44.844700
-1603,-1278,3,0,0,0,639.374329
885,-417,4,0,0,0,892.910461
895,133,1,0,0,0,815.653809
-211,855,2,1,0,5,44.844700
-129,-309,3,1,0,0,228.607285
1362,-1412,4,1,0,23,29.057549
860,1332,1,0,0,0,654.851685
-658,906,2,0,0,0,754.434692
-734,-1846,3,1,0,23,29.057549
997,-1545,4,0,0,0,711.587891
1613,439,1,0,0,0,639.753479
-1196,1213,2,1,0,5,44.844700
-1877,-492,3,0,0,0,655.061584
433,-348,4,1,0,23,29.057549
739,639,1,1,0,5,44.844700
-1400,510,2,0,0,0,672.597290
-1963,-1331,3,0,0,0,597.908508
216,-1439,4,0,0,0,778.717163
768,1261,1,0,0,0,675.205872
-1658,1439,2,0,0,0,562.353149
-1995,-1683,3,0,0,0,570.755188
784,-783,4,0,0,0,857.069336
526,1387,1,0,0,0,673.868164
-521,1554,2,0,0,0,645.380615
-362,-1511,3,0,0,0,718.628357
750,-1207,4,1,0,23,29.057549
1314,965,1,1,0,5,44.844700
-524,1334,2,0,0,0,683.704895
-852,-1347,3,0,0,0,711.331787
1139,-483,4,0,0,0,825.353271
434,201,1,1,0,0,91.606934
-542,25,2,0,0,0,962.893250
-1456,-1811,3,0,0,0,603.713501
1788,-1075,4,0,0,0,675.446228
1926,343,1,0,0,0,595.016907
-1827,1162,2,0,0,0,566.264465
-440,-242,3,0,0,0,1043.647461
1460,-770,4,0,0,0,742.532959
1222,1208,1,1,0,5,44.844700
-861,1074,2,0,0,0,695.255737
-1414,-1107,3,0,0,0,677.190125
464,-1216,4,1,0,23,29.057549
1253,1812,1,1,0,5,44.844700
-1332,275,2,0,0,0,698.691650
-781,-110,3,0,0,0,913.530884
1813,-1731,4,0,0,0,623.071411
1974,877,1,0,0,0,566.940735
-34,1948,2,0,0,0,596.181152
-1330,-1418,3,0,0,0,654.515442
1793,-367,4,1,0,23,29.057549
329,1546,1,1,0,5,44.844700
-1390,785,2,0,0,0,652.906128
-603,-1058,3,1,0,23,29.057549
1448,-1542,4,1,0,23,29.057549
239,1765,1,0,0,0,621.688171
-1226,170,2,1,0,9,160.310928
-1204,-58,3,0,0,0,791.484497
728,-1787,4,0,0,0,697.779419
1570,1888,1,0,0,0,530.776855
-1696,205,2,0,0,0,633.568054
-1638,-678,3,1,0,9,74.686775
422,-1524,4,0,0,0,754.832214
1824,1425,1,0,0,0,547.414490
-1377,823,2,0,0,0,651.505798
-1161,-1276,3,0,0,0,688.669128
1124,-1899,4,0,0,0,659.411560
700,56,1,0,0,0,888.589905
-1640,595,2,1,0,9,122.193886
-660,-188,3,0,0,0,953.618469
1293,-1067,4,0,0,0,738.084351
978,556,1,0,0,0,753.088074
-1643,919,2,0,0,0,605.932068
-181,-874,3,1,0,23,29.057549
248,-543,4,1,0,23,29.057549
453,299,1,0,0,0,962.784973
-755,316,2,0,0,0,844.507324
-1547,-945,3,0,0,0,674.494812
1708,-1311,4,0,0,0,666.432312
712,1446,1,0,0,0,650.158997
-10,1995,2,1,0,5,44.844700
-1023,-1642,3,0,0,0,655.917114
669,-1060,4,0,0,0,821.593323
1889,950,1,0,0,0,572.980896
-1828,1302,2,0,0,0,556.128052
-829,-1353,3,0,0,0,712.603943
1234,-1612,4,0,0,0,683.251953
1529,1226,1,0,0,0,594.506287
-1823,1580,2,0,0,0,535.757507
-1289,-1008,3,0,0,0,703.795410
366,-1692,4,0,0,0,728.872864
349,1191,1,0,0,0,724.922363
-1608,1548,2,1,0,5,44.844700
-451,-1110,3,1,0,23,29.057549
106,-1170,4,0,0,0,840.236389
1221,1224,1,0,0,0,630.163940
-1579,908,2,1,0,9,112.352089
-1077,-1725,3,0,0,0,641.677002
1230,-232,4,0,0,0,822.000000
958,1631,1,1,0,5,44.844700
-199,511,2,0,0,0,959.826477
-1540,-1053,3,0,0,0,666.291748
1402,-124,4,0,0,0,788.281555
1360,1512,1,0,0,0,584.016174
-904,665,2,1,0,9,168.406113
-1252,-1149,3,0,0,0,692.982483
1333,-166,4,0,0,0,801.692993
886,778,1,0,0,0,739.612061
-1205,1433,2,0,0,0,607.484192
-1791,-1501,3,1,0,23,29.057549
156,-993,4,0,0,0,885.112549
799,304,1,1,0,23,29.057549
-521,1279,2,1,0,5,44.844700
-376,-1051,3,0,0,0,813.573059
845,-969,4,0,0,0,814.294312
221,192,1,0,0,0,1140.791260
-1537,1145,2,0,0,0,600.837708
-1589,-414,3,0,0,0,702.797424
600,-512,4,0,0,0,954.951050
891,1833,1,0,0,0,583.399902
-349,791,2,0,0,0,828.741943
-389,-92,3,0,0,0,1109.432495
1341,-224,4,0,0,0,798.229858
915,659,1,1,0,10,86.574471
-140,1269,2,1,0,17,208.367508
-1250,-174,3,1,0,12,168.331833
524,-1086,4,1,0,23,29.057549
740,83,1,0,0,0,871.710510
-63,1694,2,0,0,0,635.774231
-263,-422,3,0,0,0,1046.482910
1111,-718,4,1,0,23,29.057549
1052,1560,1,0,0,0,606.080627
-1990,893,2,0,0,0,564.187317
-489,-781,3,0,0,0,868.739746
1024,-376,4,0,0,0,861.568420
1283,1820,1,1,0,5,44.844700
-861,1076,2,0,0,0,694.931152
-1296,-564,3,0,0,0,745.774963
853,-481,4,1,0,23,29.057549
1363,92,1,0,0,0,697.429443
-1324,1349,2,1,0,5,44.844700
-617,-1961,3,0,0,0,638.585999
422,-517,4,0,0,0,1003.119751
347,1251,1,0,0,0,712.021179
-1881,681,2,0,0,0,588.680176
-1299,-925,3,1,0,9,68.805153
1597,-268,4,1,0,23,29.057549
551,895,1,0,0,0,772.617493
-1371,1823,2,0,0,0,551.545654
-1693,-1071,3,0,0,0,645.956909
1420,-594,4,0,0,0,762.580505
1601,1600,1,0,0,0,553.726562
-1227,881,2,1,0,5,44.844700
-880,-753,3,0,0,0,802.964722
1443,-1114,4,0,0,0,714.057190
838,268,1,1,0,10,85.291321
-1525,1772,2,1,0,5,44.844700
-545,-1024,3,0,0,0,802.516296
696,-1720,4,0,0,0,708.994446
160,801,1,0,0,0,845.084045
-650,1190,2,0,0,0,699.564697
-1950,-47,3,0,0,0,653.571777
598,-1631,4,1,0,23,29.057549
312,1374,1,0,0,0,688.585693
-639,901,2,0,0,0,758.342041
-1310,-1504,3,0,0,0,647.212280
692,-844,4,0,0,0,861.417542
1234,1638,1,1,0,5,44.844700
-1316,1495,2,0,0,0,589.927551
-1660,-446,3,0,0,0,689.710022
1028,-1163,4,1,0,23,29.057549
1085,207,1,0,0,0,758.347595
-1221,1521,2,0,0,0,595.866455
-396,-1175,3,0,0,0,783.367554
1494,-1644,4,0,0,0,657.513000
113,1133,1,1,0,5,44.844700
-89,1094,2,0,0,0,760.160889
-550,-604,3,0,0,0,903.417908
1475,-1209,4,0,0,0,701.126038
378,1174,1,0,0,0,726.712830
-1370,417,2,1,0,9,165.290680
-1947,-269,3,0,0,0,651.395752
1460,-1793,4,0,0,0,646.079651
226,18,1,0,0,0,1214.531128
-239,68,2,1,0,0,287.284943
-533,-91,3,0,0,0,1022.320618
1236,-1297,4,1,0,23,29.057549
518,1511,1,0,0,0,652.731628
-969,1874,2,0,0,0,573.615051
-635,-1235,3,0,0,0,750.837158
637,-1108,4,0,0,0,816.004822
1774,193,1,0,0,0,621.151794
-1248,454,2,0,0,0,705.525452
-1803,-1987,3,0,0,0,562.951538
1359,-738,4,0,0,0,761.236572
1083,67,1,0,0,0,763.460571
-1813,355,2,0,0,0,611.286377
-1476,-1092,3,0,0,0,670.853577
1826,-399,4,1,0,23,29.057549
1406,1495,1,0,0,0,581.431580
-167,1661,2,1,0,5,44.844700
-1666,-1286,3,0,0,0,631.895630
1899,-1744,4,0,0,0,615.049316
850,490,1,0,0,0,792.384827
-1347,298,2,0,0,0,694.621460
-1037,-999,3,0,0,0,740.443176
392,-230,4,0,0,0,1113.888306
749,1300,1,1,0,5,44.844700
-1762,1554,2,1,0,5,44.844700
-1207,-608,3,0,0,0,758.630249
714,-210,4,1,0,23,29.057549
1183,1802,1,0,0,0,567.521179
-1381,346,2,0,0,0,685.615295
-1705,-1373,3,0,0,0,620.685547
1625,-1379,4,0,0,0,669.349792
782,1493,1,0,0,0,637.421875
-666,1610,2,0,0,0,627.958618
-960,-1691,3,1,0,23,29.057549
1462,-132,4,1,0,23,29.057549
1051,44,1,1,0,23,29.057549
-1531,277,2,0,0,0,660.241089
-1143,-1358,3,0,0,0,680.519409
620,-1076,4,0,0,0,824.270874
1822,1773,1,1,0,5,44.844700
-977,1314,2,0,0,0,645.658691
-881,-1892,3,0,0,0,634.280701
297,-476,4,1,0,23,29.057549
1838,1272,1,0,0,0,557.270264
-683,881,2,0,0,0,755.716553
-856,-1708,3,0,0,0,659.497375
45,-7,4,0,0,0,1777.627930
922,1607,1,0,0,0,610.474915
-168,643,2,0,0,0,904.458862
-1857,-1592,3,0,0,0,589.152588
504,-515,4,0,0,0,981.003540
803,774,1,0,0,0,755.573914
-744,1513,2,0,0,0,637.315002
-1874,-552,3,0,0,0,653.127014
1339,-709,4,0,0,0,767.112732
1837,1555,1,0,0,0,536.415283
-925,589,2,1,0,9,186.686371
-664,-547,3,0,0,0,888.512024
349,-1016,4,0,0,0,865.976135
758,588,1,1,0,10,86.047424
-208,367,2,0,0,0,1035.443726
-1855,-1137,3,1,0,9,55.481087
1498,-1438,4,0,0,0,676.789612
1625,366,1,1,0,23,29.057549
-770,287,2,0,0,0,843.354980
-344,-1494,3,0,0,0,722.465637
472,-867,4,0,0,0,890.322632
382,1660,1,0,0,0,634.396362
-1048,1768,2,1,0,5,44.844700
-1268,-441,3,0,0,0,760.544922
1826,-435,4,0,0,0,705.677124
1468,1064,1,1,0,23,29.057549
-1820,5,2,0,0,0,615.540100
-470,-6,3,1,0,0,126.406883
1227,-37,4,1,0,23,29.057549
1222,1472,1,0,0,0,601.354004
-71,1994,2,0,0,0,589.420959
-1604,-1137,3,1,0,9,58.498852
938,-329,4,0,0,0,888.325623
1741,1283,1,1,0,23,29.057549
-751,1603,2,0,0,0,623.436768
-407,-813,3,0,0,0,872.598511
1153,-1751,4,1,0,23,29.057549
1266,591,1,0,0,0,690.997070
-1085,203,2,0,0,0,758.540710
-917,-336,3,1,0,12,114.089401
1403,-1240,4,1,0,23,29.057549
1884,854,1,0,0,0,579.198364
-846,42,2,0,0,0,834.633179
-558,-733,3,1,0,23,29.057549
660,-323,4,0,0,0,975.373413
565,118,1,0,0,0,945.072876
-1446,562,2,0,0,0,661.065125
-1536,-653,3,0,0,0,698.128662
1725,-83,4,0,0,0,729.558838
983,74,1,0,0,0,791.023438
-1149,250,2,1,0,9,185.668427
-673,-260,3,1,0,9,100.644814
434,-1042,4,0,0,0,851.734497
1153,1265,1,1,0,5,44.844700
-674,247,2,0,0,0,882.265259
-1111,-1764,3,0,0,0,634.601624
1084,-1814,4,0,0,0,671.780396
21,494,1,0,0,0,989.664734
-340,456,2,1,0,5,44.844700
-741,-161,3,0,0,0,924.860168
1421,-1131,4,0,0,0,715.132263
1657,161,1,1,0,23,29.057549
-1461,356,2,0,0,0,669.972534
-1858,-1208,3,0,0,0,617.187439
1583,-589,4,0,0,0,735.933289
1588,207,1,0,0,0,651.998169
-46,1520,2,0,0,0,666.770081
-98,-1077,3,0,0,0,822.675659
973,-1765,4,1,0,23,29.057549
699,785,1,0,0,0,772.591492
-1443,1032,2,0,0,0,622.817627
-1343,-1945,3,0,0,0,598.877319
331,-366,4,1,0,0,138.687912
1603,873,1,1,0,23,29.057549
-85,1206,2,1,0,17,168.091568
-455,-576,3,0,0,0,934.226624
385,-572,4,0,0,0,993.713623
1463,1170,1,1,0,5,44.844700
-409,942,2,0,0,0,779.266907
-1072,-770,3,0,0,0,765.423279
472,-1673,4,0,0,0,727.687073
297,556,1,1,0,5,44.844700
-1250,1309,2,0,0,0,617.113708
-661,-591,3,0,0,0,879.814087
1108,-1098,4,0,0,0,758.752991
1724,578,1,0,0,0,615.804993
-648,740,2,1,0,5,44.844700
-474,-1790,3,1,0,23,29.057549
1464,-1324,4,0,0,0,691.283325
252,469,1,1,0,5,44.844700
-1060,777,2,0,0,0,708.502563
-1208,-1264,3,1,0,23,29.057549
682,-1434,4,0,0,0,753.642639
600,127,1,0,0,0,927.593384
-1422,1678,2,0,0,0,561.823792
-1743,-712,3,0,0,0,663.665649
1764,-1379,4,0,0,0,655.258667
919,75,1,0,0,0,810.231323
-1618,110,2,0,0,0,648.403625
-1302,-1137,3,0,0,0,688.099182
619,-1243,4,0,0,0,792.160461
1485,1001,1,0,0,0,620.131775
-795,1980,2,0,0,0,570.420837
-1990,-920,3,0,0,0,620.260010
1307,-1441,4,1,0,23,29.057549
437,243,1,0,0,0,986.434998
-475,1335,2,0,0,0,686.964355
-151,-1772,3,1,0,23,29.057549
911,-532,4,1,0,23,29.057549
743,1568,1,0,0,0,629.135803
-1789,701,2,0,0,0,600.123169
-1217,-1438,3,0,0,0,663.507080
9,-232,4,0,0,0,1307.650879
1400,1085,1,0,0,0,623.272705
-1117,918,2,0,0,0,681.201355
-1747,-384,3,0,0,0,678.319763
1180,-783,4,0,0,0,786.515015
1021,1272,1,1,0,5,44.844700
-1576,1066,2,0,0,0,602.912354
-1583,-1449,3,0,0,0,626.341553
1401,-606,4,0,0,0,764.975403
1651,768,1,0,0,0,615.402649
-1975,750,2,0,0,0,573.224854
-1321,-467,3,0,0,0,748.279968
370,-1590,4,0,0,0,745.700378
1072,907,1,0,0,0,689.553467
-531,1889,2,0,0,0,594.160706
-412,-1253,3,0,0,0,765.615417
355,-862,4,0,0,0,906.805115
614,1625,1,0,0,0,628.807251
-1151,1658,2,0,0,0,586.157043
-1113,-1567,3,0,0,0,657.776367
1091,-398,4,0,0,0,843.552368
680,1497,1,0,0,0,644.478149
-162,977,2,0,0,0,789.697876
-1460,-65,3,0,0,0,736.187195
1626,-1001,4,0,0,0,700.789062
1770,407,1,1,0,23,29.057549
-1588,1834,2,0,0,0,534.180725
-138,-444,3,0,0,0,1065.845337
1175,-1021,4,0,0,0,759.355835
1510,1416,1,0,0,0,578.987122
-635,560,2,1,0,5,44.844700
-1635,-1732,3,1,0,23,29.057549
164,-896,4,0,0,0,913.479004
1032,923,1,0,0,0,693.592041
-615,550,2,0,0,0,842.197327
-275,-734,3,0,0,0,915.319580
321,-874,4,0,0,0,907.162292
109,1332,1,0,0,0,703.711426
-1653,660,2,1,0,9,118.848793
-438,-713,3,0,0,0,896.489136
1286,-799,4,0,0,0,767.325806
883,1381,1,0,0,0,645.354553
-210,1268,2,0,0,0,714.895935
-1612,-812,3,0,0,0,675.732666
977,-1092,4,0,0,0,776.722290
454,1638,1,0,0,0,635.004883
-397,548,2,0,0,0,899.259338
-605,-9,3,1,0,9,113.913651
94,-1249,4,0,0,0,821.806213
359,1785,1,0,0,0,615.424866
-1103,1756,2,0,0,0,578.492371
-280,-638,3,0,0,0,949.249512
870,-894,4,1,0,23,29.057549
683,1549,1,0,0,0,636.157288
-1814,143,2,0,0,0,615.599304
-1799,-170,3,0,0,0,675.407776
1156,-197,4,0,0,0,840.757446
290,446,1,1,0,5,44.844700
-70,505,2,0,0,0,980.834717
-185,-1009,3,0,0,0,837.865417
1358,-1516,4,1,0,23,29.057549
796,1800,1,0,0,0,593.303101
-984,241,2,0,0,0,783.174500
-455,-1038,3,1,0,23,29.057549
667,-1660,4,0,0,0,719.449402
708,749,1,0,0,0,778.232971
-1655,1409,2,0,0,0,565.178894
-1488,-1275,3,1,0,23,29.057549
944,-1606,4,1,0,23,29.057549
1703,36,1,1,0,23,29.057549
-99,747,2,1,0,5,44.844700
-1500,-1769,3,0,0,0,604.248657
1438,-321,4,0,0,0,775.133240
1130,770,1,1,0,10,72.912231
-761,1656,2,1,0,5,44.844700
-423,-1882,3,1,0,23,29.057549
1846,-1050,4,0,0,0,670.361633
1771,247,1,1,0,23,29.057549
-379,1807,2,1,0,5,44.844700
-1569,-304,3,0,0,0,710.552307
1770,-1574,4,1,0,23,29.057549
313,1198,1,0,0,0,725.585327
-574,152,2,0,0,0,936.906494
-632,-1038,3,1,0,23,29.057549
616,-476,4,0,0,0,958.731506
731,1607,1,0,0,0,624.202271
-250,1159,2,1,0,5,44.844700
-421,-778,3,1,0,23,29.057549
390,-1252,4,0,0,0,808.614685
439,1451,1,0,0,0,667.662231
-18,116,2,0,0,0,1404.427002
-545,-1533,3,0,0,0,705.434387
631,-987,4,0,0,0,841.052307
295,1757,1,0,0,0,621.610596
-896,1956,2,0,0,0,568.068604
-446,-1263,3,0,0,0,761.200989
1961,-1212,4,0,0,0,646.935608
1488,5,1,1,0,23,29.057549
-1053,1322,2,1,0,5,44.844700
-659,-270,3,0,0,0,942.938660
1745,-1094,4,0,0,0,679.129211
1656,236,1,0,0,0,639.572937
-269,1282,2,1,0,17,170.373779
-835,-1095,3,0,0,0,753.252930
1883,-34,4,0,0,0,704.731567
1387,1003,1,0,0,0,633.015686
-662,904,2,0,0,0,754.244873
-789,-1578,3,1,0,23,29.057549
1591,-1874,4,0,0,0,628.620850
1876,693,1,0,0,0,588.761658
-286,1455,2,0,0,0,673.973572
-345,-251,3,0,0,0,1090.640259
271,-363,4,0,0,0,1114.836792
41,1112,1,0,0,0,756.228333
-1088,1400,2,0,0,0,622.977417
-321,-1265,3,0,0,0,768.658508
891,-1359,4,0,0,0,747.011047
920,1772,1,0,0,0,589.231812
-410,1245,2,0,0,0,709.267883
-723,-506,3,0,0,0,881.182190
1345,-1190,4,1,0,23,29.057549
1700,499,1,1,0,23,29.057549
-937,1926,2,0,0,0,569.336609
-1350,-642,3,0,0,0,729.701111
1400,-1272,4,0,0,0,703.480286
1436,681,1,0,0,0,654.169983
-186,434,2,0,0,0,1002.948059
-611,-1123,3,0,0,0,774.580017
1232,-1184,4,1,0,23,29.057549
945,40,1,0,0,0,802.908386
-832,45,2,0,0,0,839.367615
-539,-1217,3,1,0,23,29.057549
728,-937,4,0,0,0,837.366089
1349,402,1,0,0,0,688.860840
-1125,1701,2,0,0,0,583.220642
-1022,-1145,3,0,0,0,722.152954
1009,-1112,4,1,0,23,29.057549
875,465,1,0,0,0,789.540161
-1004,929,2,1,0,5,44.844700
-164,-606,3,0,0,0,979.274231
1394,-1434,4,0,0,0,687.539307
1363,1730,1,0,0,0,561.447388
-631,1802,2,0,0,0,601.925659
-1597,-926,3,0,0,0,669.300354
682,-1171,4,0,0,0,799.172974
1478,1405,1,0,0,0,583.238342
-132,1040,2,0,0,0,773.347717
-274,-639,3,0,0,0,949.858459
440,-1837,4,0,0,0,703.873413
238,1121,1,0,0,0,747.783997
-341,1327,2,0,0,0,696.590210
-1446,-766,3,0,0,0,703.790894
1698,-619,4,0,0,0,716.530518
1748,1783,1,0,0,0,526.073669
-1437,1714,2,0,0,0,557.085144
-1293,-1795,3,0,0,0,617.696838
179,-975,4,0,0,0,889.117249
787,349,1,0,0,0,829.961426
-564,1224,2,1,0,5,44.844700
-3,-325,3,0,0,0,1169.115723
71,-1802,4,1,0,23,29.057549
307,255,1,1,0,0,133.725098
-1106,1536,2,0,0,0,604.395630
-574,-440,3,1,0,9,86.985886
733,-406,4,1,0,23,29.057549
1180,85,1,0,0,0,738.651184
-919,1268,2,1,0,5,44.844700
-192,-277,3,0,0,0,1158.639160
495,-382,4,0,0,0,1021.906311
1707,717,1,0,0,0,610.665222
-1626,1482,2,0,0,0,561.752747
-502,-1645,3,0,0,0,689.540161
387,-74,4,0,0,0,1155.076660
1399,1625,1,0,0,0,569.016968
-230,575,2,0,0,0,924.788513
-1944,-1042,3,0,0,0,618.541687
1546,-290,4,1,0,23,29.057549
553,1209,1,0,0,0,705.211487
-1576,989,2,0,0,0,609.263855
-719,-1025,3,0,0,0,780.578369
7,-1530,4,1,0,23,29.057549
1702,757,1,1,0,23,29.057549
-1745,138,2,0,0,0,626.631958
-1425,-917,3,1,0,9,68.084908
127,-1347,4,0,0,0,799.629639
1993,1002,1,1,0,23,29.057549
-1798,1290,2,1,0,5,44.844700
-831,-959,3,0,0,0,776.722778
1873,-1302,4,0,0,0,649.950012
1103,78,1,0,0,0,758.039978
-668,842,2,0,0,0,766.191650
-1059,-995,3,1,0,23,29.057549
828,-853,4,1,0,23,29.057549
1794,586,1,0,0,0,605.219116
-1581,1427,2,0,0,0,570.935913
-996,-1915,3,0,0,0,624.689514
868,-422,4,1,0,23,29.057549
298,1692,1,0,0,0,631.955200
-405,555,2,0,0,0,894.881531
-942,-877,3,1,0,9,71.275230
1980,-167,4,1,0,23,29.057549
698,1087,1,0,0,0,713.442139
-308,19,2,0,0,0,1125.600952
-459,-351,3,1,0,9,87.593948
824,-97,4,0,0,0,940.374756
1817,484,1,0,0,0,606.263855
-169,1720,2,1,0,5,44.844700
-1671,-921,3,0,0,0,659.870117
1935,-1347,4,0,0,0,640.529358
1840,1253,1,0,0,0,558.423096
-1981,1055,2,1,0,5,44.844700
-664,-1090,3,0,0,0,775.059814
835,-1344,4,0,0,0,754.665833
1584,508,1,0,0,0,641.156799
-1535,1795,2,1,0,5,44.844700
-1925,-1863,3,1,0,23,29.057549
815,-1805,4,0,0,0,690.332581
103,1808,1,0,0,0,616.962280
-1806,1361,2,0,0,0,553.981506
-624,-358,3,0,0,0,940.026306
375,-471,4,1,0,23,29.057549
1723,1384,1,1,0,5,44.844700
-802,1042,2,1,0,5,44.844700
-1335,-1904,3,0,0,0,603.508850
1563,-49,4,0,0,0,758.040771
1638,1746,1,0,0,0,537.906616
-1011,1803,2,1,0,5,44.844700
-247,-1313,3,1,0,23,29.057549
501,-1582,4,0,0,0,741.002747
1893,1494,1,0,0,0,535.860352
-1917,104,2,0,0,0,600.362732
-838,-1812,3,0,0,0,646.944641
356,-1083,4,0,0,0,848.883057
1837,1049,1,0,0,0,572.849609
-1602,1332,2,0,0,0,577.165405
-219,-199,3,1,0,0,272.641388
1573,-1328,4,1,0,23,29.057549
1192,1668,1,0,0,0,581.727051
-1755,265,2,0,0,0,622.683105
-883,-464,3,0,0,0,845.922546
850,-306,4,0,0,0,915.854919
422,1788,1,0,0,0,612.877136
-1453,1329,2,0,0,0,593.162720
-81,-621,3,1,0,23,29.057549
1472,-1290,4,0,0,0,693.704895
1879,1822,1,0,0,0,512.857239
-636,205,2,0,0,0,902.886963
-1286,-964,3,0,0,0,708.940063
440,-1855,4,0,0,0,701.231689
286,522,1,0,0,0,936.213623
-961,1879,2,0,0,0,573.509338
-687,-1504,3,1,0,23,29.057549
75,-522,4,0,0,0,1071.004395
1676,1195,1,0,0,0,580.588196
-1203,577,2,1,0,9,197.049683
-547,-10,3,0,0,0,1018.939453
1233,-258,4,0,0,0,820.164429
131,1953,1,0,0,0,594.859558
-661,192,2,0,0,0,894.353394
-368,-1020,3,0,0,0,821.904236
542,-766,4,0,0,0,904.920227
182,1869,1,1,0,5,44.844700
-835,608,2,0,0,0,777.609070
-583,-1858,3,0,0,0,654.047119
1872,-1425,4,0,0,0,641.136963
1280,1177,1,0,0,0,628.519287
-1688,1248,2,0,0,0,575.021240
-853,-1938,3,0,0,0,630.166199
563,-34,4,1,0,0,105.775543
464,585,1,0,0,0,870.925720
-1250,1953,2,0,0,0,546.912109
-1853,-151,3,0,0,0,667.280518
1111,-557,4,0,0,0,824.047791
160,1027,1,1,0,5,44.844700
-1339,1148,2,0,0,0,624.475891
-171,-753,3,0,0,0,919.633789
875,-831,4,0,0,0,832.521484
523,1630,1,0,0,0,632.983887
-441,1554,2,1,0,5,44.844700
-1275,-1460,3,0,0,0,655.363953
817,-1171,4,1,0,23,29.057549
1544,668,1,1,0,23,29.057549
-677,499,2,0,0,0,836.682617
-275,-1558,3,0,0,0,713.451965
735,-974,4,1,0,23,29.057549
1667,1679,1,1,0,5,44.844700
-1665,1522,2,0,0,0,554.679932
-531,-532,3,0,0,0,927.391479
781,-446,4,0,0,0,917.141663
1302,1084,1,0,0,0,635.940186
-830,1327,2,0,0,0,658.532471
-1735,-1762,3,0,0,0,586.058899
745,-1242,4,0,0,0,780.065674
226,1902,1,0,0,0,601.020142
-718,1954,2,0,0,0,577.393555
-80,-1612,3,0,0,0,707.733521
843,-68,4,0,0,0,934.855225
1571,1562,1,1,0,5,44.844700
-1389,1046,2,1,0,5,44.844700
-589,-200,3,0,0,0,981.935486
1810,-1429,4,0,0,0,646.836914
891,1498,1,0,0,0,627.854309
-785,976,2,1,0,5,44.844700
-1607,-1005,3,0,0,0,661.765503
1641,-984,4,0,0,0,700.191345
495,984,1,0,0,0,759.149109
-76,1261,2,1,0,17,131.148636
-1496,-1559,3,0,0,0,624.406860
1873,-710,4,1,0,23,29.057549
802,569,1,1,0,10,123.974037
-331,1936,2,0,0,0,593.888977
-19,-67,3,0,0,0,1613.568481
581,-1943,4,0,0,0,683.546875
359,1526,1,0,0,0,658.083069
-418,775,2,0,0,0,823.478455
-1171,-1793,3,1,0,23,29.057549
866,-1592,4,0,0,0,715.740784
294,1601,1,0,0,0,647.343811
-360,729,2,0,0,0,846.418396
-961,-1896,3,0,0,0,629.062195
1753,-1366,4,0,0,0,657.392151
1010,225,1,1,0,23,29.057549
-1986,756,2,0,0,0,571.566101
-1145,-1407,3,1,0,23,29.057549
890,-1354,4,0,0,0,747.847046
530,913,1,0,0,0,771.343933
-164,719,2,0,0,0,874.497131
-1378,-508,3,0,0,0,734.776062
785,-1127,4,1,0,23,29.057549
715,1723,1,1,0,5,44.844700
-1939,104,2,0,0,0,597.131348
-1927,-80,3,0,0,0,656.795776
1015,-1956,4,0,0,0,659.805908
201,1800,1,0,0,0,616.922058
-1842,1055,2,0,0,0,571.871948
-1827,-1272,3,0,0,0,615.904907
588,-1376,4,1,0,23,29.057549
1361,928,1,1,0,23,29.057549
-882,1563,2,0,0,0,619.526794
-1094,-754,3,0,0,0,763.518860
1468,-1142,4,1,0,23,29.057549
653,442,1,0,0,0,855.229187
-561,1333,2,0,0,0,681.119446
-1455,-1069,3,0,0,0,675.649353
1381,-441,4,0,0,0,779.788391
630,1860,1,0,0,0,593.931580
-1818,1260,2,0,0,0,560.227478
-1738,-1732,3,0,0,0,588.265076
962,-263,4,1,0,23,29.057549
672,1280,1,1,0,5,44.844700
-1276,550,2,0,0,0,692.571533
-887,-1177,3,0,0,0,733.772583
1331,-486,4,0,0,0,786.352722
492,1406,1,0,0,0,672.674622
-1877,4,2,0,0,0,606.771179
-1805,-1376,3,0,0,0,610.402710
1127,-490,4,1,0,23,29.057549
1548,1708,1,0,0,0,548.578491
-1701,1207,2,0,0,0,576.851685
-244,-1643,3,0,0,0,699.508606
1113,-1732,4,1,0,23,29.057549
966,1219,1,1,0,5,44.844700
-1896,1343,2,0,0,0,546.342834
-1283,-1831,3,0,0,0,614.683472
1723,-673,4,0,0,0,709.877258
458,49,1,0,0,0,1010.096069
-621,649,2,0,0,0,817.753845
-1613,-1834,3,0,0,0,589.570190
1138,-1311,4,1,0,23,29.057549
616,872,1,0,0,0,768.111938
-1282,1266,2,1,0,5,44.844700
-1098,-93,3,0,0,0,817.280518
873,-1275,4,0,0,0,761.462952
1870,362,1,0,0,0,602.606201
-1500,611,2,0,0,0,648.767761
-383,-179,3,0,0,0,1093.275269
1566,-614,4,0,0,0,737.117249
1893,1216,1,1,0,23,29.057549
-189,724,2,1,0,5,44.844700
-657,-151,3,0,0,0,958.755066
941,-642,4,1,0,23,29.057549
994,703,1,0,0,0,730.427673
-692,657,2,0,0,0,800.378479
-517,-378,3,0,0,0,973.525696
1112,-1138,4,1,0,23,29.057549
764,1586,1,0,0,0,625.013916
-892,85,2,0,0,0,818.459778
-1216,-263,3,0,0,0,782.400635
685,-793,4,0,0,0,873.132751
1486,540,1,0,0,0,655.650330
-1815,690,2,0,0,0,597.139343
-456,-516,3,1,0,23,29.057549
1119,-1477,4,1,0,23,29.057549
1306,119,1,0,0,0,709.128540
-102,1911,2,0,0,0,601.266418
-593,-1419,3,0,0,0,721.563904
443,-1205,4,0,0,0,814.704712
1538,880,1,0,0,0,623.153931
-1280,1063,2,1,0,5,44.844700
-446,-584,3,0,0,0,933.913879
1002,-293,4,0,0,0,874.214478
828,307,1,0,0,0,822.649170
-647,240,2,0,0,0,893.618652
-1087,-675,3,1,0,12,106.854576
836,-1513,4,0,0,0,729.292114
1829,951,1,1,0,23,29.057549
-722,1713,2,0,0,0,609.520325
-1627,-1550,3,0,0,0,613.240356
1958,-1172,4,0,0,0,649.840210
69,1509,1,0,0,0,668.677673
-980,688,2,0,0,0,735.197449
-1590,-1182,3,0,0,0,649.121887
807,-1618,4,0,0,0,716.407227
383,1424,1,0,0,0,675.565735
-1726,1818,2,1,0,5,44.844700
-1527,-1679,3,1,0,23,29.057549
877,-1599,4,0,0,0,713.941650
1940,809,1,0,0,0,574.660828
-373,439,2,0,0,0,945.635681
-612,-927,3,0,0,0,814.976196
1564,-34,4,0,0,0,757.930603
376,918,1,0,0,0,789.211304
-943,1871,2,0,0,0,575.567261
-1212,-1439,3,0,0,0,663.880432
743,-1325,4,0,0,0,766.359619
343,115,1,0,0,0,1079.746338
-708,77,2,1,0,9,128.055786
-648,-805,3,1,0,23,29.057549
5,-560,4,0,0,0,1053.676270
1545,1184,1,0,0,0,596.442505
-744,473,2,0,0,0,823.123535
-1388,-587,3,0,0,0,727.381836
474,-180,4,0,0,0,1082.343506
440,1730,1,1,0,5,44.844700
-1535,1789,2,0,0,0,542.269531
-1700,-986,3,0,0,0,651.431335
976,-1801,4,0,0,0,680.677429
1136,856,1,0,0,0,685.872620
-824,1635,2,0,0,0,613.842224
-1657,-185,3,1,0,9,97.740776
124,-379,4,0,0,0,1151.614258
1890,787,1,1,0,23,29.057549
-1788,845,2,1,0,9,101.222832
-1029,-1063,3,0,0,0,732.673401
1189,-608,4,0,0,0,803.380249
1163,422,1,0,0,0,725.821228
-1257,713,2,0,0,0,681.337769
-1629,-764,3,0,0,0,676.637207
257,-1433,4,0,0,0,778.570801
1887,244,1,0,0,0,602.905640
-926,332,2,0,0,0,791.625610
-142,-1113,3,0,0,0,812.085632
752,-1208,4,0,0,0,785.140686
321,1100,1,0,0,0,747.810730
-766,47,2,1,0,9,129.980072
-1129,-930,3,1,0,9,69.281937
529,-163,4,0,0,0,1057.031616
278,1369,1,1,0,5,44.844700
-1847,571,2,0,0,0,598.382935
-1794,-613,3,0,0,0,661.696777
1560,-960,4,0,0,0,712.686523
1429,419,1,1,0,23,29.057549
-568,1331,2,0,0,0,680.943665
-1607,-1505,3,1,0,23,29.057549
149,-894,4,0,0,0,914.922607
1639,908,1,1,0,23,29.057549
-544,1833,2,0,0,0,601.518677
-1886,-1260,3,1,0,9,51.836365
743,-1973,4,0,0,0,672.449890
996,12,1,0,0,0,788.039551
-328,1792,2,0,0,0,615.264465
-1409,-681,3,0,0,0,716.573059
824,-1972,4,0,0,0,668.550171
324,546,1,1,0,5,44.844700
-1476,295,2,1,0,9,141.519745
-60,-474,3,0,0,0,1057.995605
653,-1141,4,0,0,0,807.890503
1512,1208,1,0,0,0,598.080872
-420,873,2,0,0,0,796.023621
-549,-1204,3,0,0,0,764.688904
402,-1155,4,0,0,0,828.677795
550,1502,1,0,0,0,652.337341
-1923,1025,2,1,0,5,44.844700
-879,-1109,3,1,0,23,29.057549
1373,-1074,4,0,0,0,726.888062
916,414,1,0,0,0,785.415283
-33,872,2,0,0,0,826.075012
-1090,-831,3,1,0,9,73.644821
1737,-1357,4,0,0,0,659.733643
624,1348,1,0,0,0,673.476746
-331,1600,2,0,0,0,646.275085
-195,-554,3,0,0,0,998.487244
1696,-1199,4,0,0,0,676.717773
9,178,1,1,0,0,418.121460
-1810,746,2,0,0,0,594.813416
-1934,-372,3,0,0,0,650.821777
1293,-153,4,0,0,0,810.664368
372,112,1,0,0,0,1059.190552
-975,1247,2,0,0,0,655.317322
-1629,-472,3,0,0,0,693.542542
979,-730,4,0,0,0,829.090820
1336,56,1,0,0,0,703.557007
-1287,1117,2,0,0,0,634.271912
-1650,-1615,3,0,0,0,605.539124
336,-663,4,1,0,23,29.057549
1915,1145,1,0,0,0,557.779419
-1405,1385,2,0,0,0,592.622314
-1099,-730,3,0,0,0,765.537231
1574,-1913,4,0,0,0,626.425354
912,966,1,0,0,0,705.421509
-1891,1335,2,0,0,0,547.401123
-590,-646,3,0,0,0,883.671021
958,-1101,4,0,0,0,777.865906
859,1012,1,1,0,5,44.844700
-1992,967,2,0,0,0,559.926636
-368,-1478,3,0,0,0,724.335205
1193,-36,4,0,0,0,835.681030
1686,681,1,1,0,23,29.057549
-294,872,2,0,0,0,810.801514
-68,-371,3,0,0,0,1126.180420
811,-1261,4,0,0,0,770.131165
286,401,1,0,0,0,990.777222
-1439,1632,2,0,0,0,564.884277
-143,-373,3,0,0,0,1109.619507
1470,-761,4,0,0,0,741.718323
766,1655,1,0,0,0,614.967590
-892,501,2,0,0,0,780.357605
-1067,-180,3,1,0,12,142.884003
1581,-663,4,1,0,23,29.057549
1460,658,1,0,0,0,651.999634
-1889,983,2,0,0,0,570.975708
-1345,-1571,3,0,0,0,636.880859
921,-1342,4,1,0,23,29.057549
1542,253,1,1,0,23,29.057549
-188,1278,2,1,0,17,156.247559
-591,-835,3,1,0,23,29.057549
65,-1469,4,0,0,0,775.709656
1479,1167,1,1,0,5,44.844700
-1525,1879,2,1,0,5,44.844700
-350,-1770,3,0,0,0,675.842163
10,-1141,4,0,0,0,848.622498
463,1069,1,1,0,5,44.844700
-630,1500,2,0,0,0,647.491150
-1178,-1891,3,0,0,0,615.684998
1848,-235,4,1,0,23,29.057549
364,1263,1,1,0,5,44.844700
-1611,785,2,0,0,0,619.940308
-371,-14,3,0,0,0,1130.739990
1385,-489,4,1,0,23,29.057549
186,408,1,1,0,0,105.409599
-1525,1066,2,0,0,0,609.260376
-430,-1442,3,0,0,0,727.814941
61,-1422,4,0,0,0,785.067261
160,287,1,1,0,0,190.126175
-1284,71,2,0,0,0,714.742188
-1816,-1485,3,0,0,0,601.018372
1441,-868,4,0,0,0,737.089233
207,939,1,0,0,0,798.176819
-876,47,2,0,0,0,824.551270
-1709,-33,3,0,0,0,691.304443
698,-924,4,0,0,0,844.376709
1091,1527,1,0,0,0,606.816833
-1458,787,2,0,0,0,642.294189
-1589,-1808,3,1,0,23,29.057549
1612,-809,4,1,0,23,29.057549
1812,691,1,1,0,23,29.057549
-952,348,2,0,0,0,783.024841
-453,-336,3,0,0,0,1010.160400
821,-929,4,0,0,0,824.746521
1271,1575,1,0,0,0,585.382935
-1348,575,2,0,0,0,677.334045
-1965,-1535,3,0,0,0,583.700439
374,-467,4,0,0,0,1034.612305
282,223,1,0,0,0,1081.543579
-1881,1023,2,0,0,0,569.421570
-785,-960,3,0,0,0,783.331726
1833,-900,4,0,0,0,681.575867
137,716,1,0,0,0,877.825562
-1371,216,2,0,0,0,692.896240
-1743,-150,3,0,0,0,684.666870
840,-435,4,0,0,0,902.599609
657,451,1,0,0,0,852.189209
-1292,1013,2,0,0,0,644.899536
-392,-1422,3,0,0,0,733.531799
1562,-1633,4,0,0,0,652.629639
82,1872,1,0,0,0,607.257507
-1841,1223,2,0,0,0,560.450378
-726,-1890,3,0,0,0,642.936951
1364,-854,4,0,0,0,749.806030
1819,243,1,0,0,0,613.181396
-726,1604,2,0,0,0,624.977112
-222,-799,3,1,0,23,29.057549
84,-1408,4,0,0,0,787.663513
459,1557,1,0,0,0,648.137695
-825,185,2,1,0,9,150.681244
-162,-483,3,0,0,0,1039.494995
1607,-329,4,0,0,0,744.324219
1054,1734,1,0,0,0,584.637024
-224,1823,2,0,0,0,612.941345
-317,-1831,3,0,0,0,667.419006
1557,-1561,4,1,0,23,29.057549
1741,1051,1,0,0,0,584.018433
-430,568,2,1,0,5,44.844700
-1799,-461,3,0,0,0,667.590210
1042,-1145,4,0,0,0,760.920837
657,762,1,0,0,0,785.153809
-138,917,2,0,0,0,808.592712
-254,-426,3,1,0,0,113.297783
1083,-924,4,0,0,0,785.006226
829,1444,1,0,0,0,640.886047
-193,1322,2,0,0,0,703.805481
-309,-420,3,0,0,0,1032.794067
947,-1550,4,0,0,0,715.092712
1061,90,1,0,0,0,768.872070
-509,1436,2,0,0,0,666.236084
-1486,-443,3,0,0,0,719.206238
5,-1384,4,0,0,0,793.112000
1339,1959,1,0,0,0,540.409363
-33,1258,2,0,0,0,720.942871
-1036,-430,3,0,0,0,812.169922
747,-1587,4,0,0,0,725.107910
1669,1010,1,1,0,23,29.057549
-717,1927,2,1,0,5,44.844700
-1496,-905,3,0,0,0,684.830688
268,-364,4,0,0,0,1115.463501
1278,237,1,0,0,0,711.677979
-695,413,2,1,0,9,147.500183
-1751,-1679,3,0,0,0,591.492676
1279,-1208,4,0,0,0,724.247375
881,1235,1,0,0,0,667.459412
-533,1417,2,0,0,0,668.044678
-598,-1703,3,0,0,0,675.736206
952,-924,4,1,0,23,29.057549
1904,1522,1,1,0,5,44.844700
-1660,707,2,0,0,0,618.008240
-711,-65,3,0,0,0,942.212341
1756,-1035,4,1,0,23,29.057549
1979,493,1,0,0,0,583.204712
-1771,1251,2,1,0,5,44.844700
-1189,-1108,3,0,0,0,705.744263
340,-1136,4,1,0,23,29.057549
1337,1026,1,0,0,0,637.438416
-659,906,2,0,0,0,754.283936
-1043,-1756,3,0,0,0,640.447205
763,-1850,4,1,0,23,29.057549
1789,158,1,0,0,0,619.324097
-205,375,2,0,0,0,1031.688110
-9,-1509,3,0,0,0,727.000610
1690,-365,4,0,0,0,729.231689
720,597,1,0,0,0,806.127563
-1071,534,2,0,0,0,735.352417
-1036,-1718,3,1,0,23,29.057549
444,-1562,4,0,0,0,747.216492
1964,867,1,0,0,0,568.674011
-618,508,2,0,0,0,851.074829
-744,-1230,3,1,0,23,29.057549
1394,-1030,4,0,0,0,728.523315
432,262,1,0,0,0,983.440002
-665,1753,2,0,0,0,607.090454
-1880,-667,3,0,0,0,647.170166
588,-1246,4,1,0,23,29.057549
15,1265,1,1,0,5,44.844700
-1837,185,2,1,0,9,101.886665
-625,-826,3,0,0,0,835.077393
1915,-1583,4,0,0,0,625.590942
1495,481,1,0,0,0,657.570984
-872,1144,2,1,0,5,44.844700
-294,-741,3,0,0,0,910.448975
666,-517,4,0,0,0,935.749817
1332,153,1,0,0,0,702.790405
-261,771,2,0,0,0,846.087585
-837,-794,3,0,0,0,804.084167
1248,-944,4,0,0,0,757.849182
364,1211,1,0,0,0,719.559448
-1219,988,2,1,0,5,44.844700
-700,-1759,3,1,0,23,29.057549
312,-1038,4,1,0,23,29.057549
290,1697,1,0,0,0,631.365601
-1696,1764,2,0,0,0,531.744385
-1737,-1144,3,0,0,0,635.263000
1530,-310,4,1,0,23,29.057549
693,544,1,0,0,0,823.323303
-1337,367,2,0,0,0,693.196655
-1926,-57,3,0,0,0,657.064636
1409,-706,4,1,0,23,29.057549
1620,94,1,1,0,23,29.057549
-945,1831,2,0,0,0,580.301453
-105,-615,3,0,0,0,981.070679
1673,-1465,4,0,0,0,657.213074
546,1584,1,0,0,0,639.107849
-1232,1404,2,0,0,0,608.153625
-16,-444,3,0,0,0,1078.954834
1209,-236,4,0,0,0,826.601990
1237,946,1,0,0,0,659.981995
-1394,275,2,0,0,0,686.181885
-540,-186,3,0,0,0,1006.540466
1414,-1711,4,0,0,0,657.740723
1572,761,1,0,0,0,627.273132
-986,939,2,1,0,5,44.844700
-1321,-1240,3,1,0,23,29.057549
681,-453,4,0,0,0,944.496094
311,1180,1,1,0,5,44.844700
-1931,1596,2,0,0,0,525.144165
-1080,-403,3,0,0,0,804.321533
246,-1908,4,0,0,0,698.641846
49,1020,1,0,0,0,780.888977
-1323,590,2,0,0,0,680.654053
-594,-875,3,1,0,23,29.057549
151,-1072,4,0,0,0,863.757690
1626,365,1,0,0,0,640.643311
-843,1033,2,0,0,0,704.383728
-150,-905,3,0,0,0,870.026123
20,-5,4,0,0,0,2006.315552
500,989,1,0,0,0,757.404175
-1597,541,2,0,0,0,637.295715
-1620,-963,3,1,0,9,64.069969
1259,-1424,4,0,0,0,702.091492
722,1297,1,0,0,0,673.670288
-527,1414,2,0,0,0,668.973328
-28,-1372,3,0,0,0,754.246643
170,-1147,4,0,0,0,843.998352
791,1919,1,0,0,0,578.226135
-1587,1461,2,0,0,0,567.326904
-546,-179,3,1,0,9,100.141525
1934,-34,4,0,0,0,697.082947
451,105,1,0,0,0,1008.568176
-295,1550,2,0,0,0,656.238098
-1140,-1321,3,0,0,0,685.412048
1725,-1459,4,1,0,23,29.057549
270,1543,1,0,0,0,658.304260
-1650,425,2,1,0,9,123.056488
-224,-274,3,0,0,0,1144.547974
403,-1103,4,0,0,0,840.352844
1842,21,1,0,0,0,612.104980
-1200,941,2,0,0,0,665.971558
-319,-548,3,0,0,0,976.402466
1764,-69,4,1,0,23,29.057549
1034,738,1,0,0,0,718.240967
-1586,65,2,1,0,9,116.289948
-1320,-1207,3,1,0,23,29.057549
211,-851,4,0,0,0,924.475037
1442,183,1,1,0,23,29.057549
-1323,733,2,0,0,0,668.316528
-198,-1013,3,1,0,23,29.057549
1265,-364,4,0,0,0,807.522339
1168,1715,1,1,0,5,44.844700
-1285,84,2,0,0,0,714.345581
-521,-1310,3,0,0,0,746.507324
1634,-1542,4,1,0,23,29.057549
1334,298,1,1,0,23,29.057549
-1941,927,2,0,0,0,568.127808
-1907,-1453,3,0,0,0,594.839600
1089,-1741,4,0,0,0,679.969604
1225,635,1,0,0,0,694.573425
-1209,746,2,0,0,0,686.229126
-20,-681,3,0,0,0,955.708618
1316,-1954,4,1,0,23,29.057549
391,7,1,0,0,0,1057.290771
-141,639,2,1,0,5,44.844700
-1727,-355,3,0,0,0,682.441040
1487,-1567,4,0,0,0,665.490295
1352,537,1,1,0,23,29.057549
-53,1664,2,0,0,0,640.920593
-103,-274,3,0,0,0,1199.303711
1606,-1067,4,0,0,0,697.995911
979,1745,1,0,0,0,588.625366
-1362,1013,2,0,0,0,635.397461
-906,-1703,3,0,0,0,656.745117
1494,-146,4,0,0,0,769.779602
760,1474,1,0,0,0,642.027161
-296,432,2,0,0,0,973.109253
-861,-1686,3,0,0,0,662.106140
1006,-1774,4,1,0,23,29.057549
550,134,1,0,0,0,950.669128
-568,829,2,1,0,5,44.844700
-1768,-1646,3,1,0,23,29.057549
1636,-478,4,0,0,0,733.335083
1491,840,1,0,0,0,633.068970
-1502,1699,2,1,0,5,44.844700
-802,-770,3,0,0,0,814.716553
1727,-1361,4,1,0,23,29.057549
1754,1277,1,0,0,0,565.690125
-554,302,2,0,0,0,919.409363
-202,-653,3,0,0,0,954.764526
39,-510,4,0,0,0,1079.816528
1616,1640,1,0,0,0,548.911011
-1633,1552,2,0,0,0,555.049988
-1078,-1483,3,1,0,23,29.057549
909,-285,4,0,0,0,900.573425
501,997,1,1,0,5,44.844700
-811,1914,2,0,0,0,577.803345
-1423,-39,3,0,0,0,743.726318
872,-989,4,0,0,0,807.043335
1307,1348,1,0,0,0,606.682007
-687,1429,2,0,0,0,654.840942
-624,-1455,3,0,0,0,713.256714
494,-934,4,0,0,0,870.751526
481,157,1,1,0,23,29.057549
-712,681,2,0,0,0,791.180115
-270,-1278,3,1,0,23,29.057549
1670,-595,4,1,0,23,29.057549
1035,1526,1,1,0,5,44.844700
-344,978,2,1,0,5,44.844700
-858,-619,3,0,0,0,828.985474
409,-1345,4,1,0,23,29.057549
94,440,1,0,0,0,1016.862061
-1707,58,2,0,0,0,633.627869
-1541,-902,3,0,0,0,678.820007
1258,-305,4,0,0,0,812.341919
1100,1178,1,0,0,0,650.168762
-1177,1794,2,1,0,5,44.844700
-825,-1608,3,0,0,0,675.364563
1742,-1671,4,1,0,23,29.057549
400,117,1,0,0,0,1038.940186
-443,1577,2,0,0,0,645.549500
-458,-1507,3,0,0,0,714.726807
1309,-1588,4,0,0,0,679.352966
1175,1554,1,0,0,0,596.193176
-1314,120,2,0,0,0,707.374023
-996,-1665,3,0,0,0,655.097656
944,-697,4,0,0,0,840.569397
1663,418,1,0,0,0,632.505310
-549,5,2,1,0,9,110.946846
-1831,-993,3,0,0,0,634.844910
1898,-606,4,0,0,0,688.614319
1528,291,1,1,0,23,29.057549
-24,1851,2,1,0,5,44.844700
-1969,-290,3,1,0,9,79.670952
901,-555,4,0,0,0,870.309570
52,727,1,0,0,0,877.877625
-828,1190,2,0,0,0,680.432495
-1121,-1024,3,1,0,12,71.160469
815,-69,4,1,0,23,29.057549
1302,1216,1,0,0,0,621.620117
-1369,1359,2,0,0,0,599.007568
-710,-1071,3,0,0,0,773.120972
1158,-832,4,0,0,0,784.544678
152,86,1,1,0,0,426.444855
-21,1829,2,0,0,0,614.119080
-376,-458,3,0,0,0,995.919861
1225,-709,4,0,0,0,786.671509
197,1544,1,0,0,0,660.119934
-1072,1861,2,1,0,5,44.844700
-1352,-481,3,0,0,0,741.422302
1340,-90,4,1,0,23,29.057549
1693,548,1,0,0,0,621.948181
-746,1091,2,1,0,5,44.844700
-554,-50,3,0,0,0,1014.152588
1205,-855,4,0,0,0,774.330750
1186,1049,1,0,0,0,655.239868
-1166,947,2,1,0,5,44.844700
-1552,-170,3,0,0,0,717.244019
1092,-225,4,0,0,0,855.282227
1418,36,1,0,0,0,686.667603
-1357,1106,2,0,0,0,626.603455
-734,-1046,3,0,0,0,774.718750
1159,-1679,4,0,0,0,681.835632
1309,1627,1,1,0,5,44.844700
-90,1609,2,1,0,5,44.844700
-206,-1388,3,0,0,0,747.853088
1168,-1312,4,0,0,0,724.689697
1247,1030,1,1,0,5,44.844700
-1623,707,2,0,0,0,623.420288
-1218,-1308,3,0,0,0,678.546814
978,-155,4,0,0,0,889.433655
1651,1681,1,0,0,0,542.401245
-693,714,2,0,0,0,788.346191
-1371,-1178,3,0,0,0,675.319397
37,-921,4,1,0,23,29.057549
1253,815,1,0,0,0,671.690491
-1569,1405,2,1,0,5,44.844700
-1860,-466,3,0,0,0,658.454468
1409,-133,4,1,0,23,29.057549
1599,1820,1,1,0,5,44.844700
-905,857,2,0,0,0,723.700256
-508,-1395,3,1,0,23,29.057549
1572,-1460,4,0,0,0,667.458923
829,788,1,0,0,0,748.342224
-1769,1538,2,0,0,0,543.849487
-1202,-54,3,0,0,0,792.005493
1119,-191,4,0,0,0,850.104004
29,1247,1,0,0,0,723.481201
-923,1376,2,1,0,5,44.844700
-1456,-320,3,0,0,0,730.494385
323,-1451,4,1,0,23,29.057549
301,351,1,0,0,0,1008.987976
-1503,281,2,0,0,0,665.206482
-1143,-1711,3,0,0,0,638.324585
423,-49,4,0,0,0,1132.677612
1629,957,1,0,0,0,604.914062
-1066,551,2,0,0,0,734.577576
-23,-1181,3,1,0,23,29.057549
1539,-1668,4,0,0,0,651.399780
364,534,1,1,0,5,44.844700
-1534,28,2,0,0,0,664.234192
-498,-1831,3,0,0,0,661.444397
182,-461,4,0,0,0,1088.901855
260,1220,1,0,0,0,723.467407
-349,317,2,0,0,0,1003.376709
-1905,-660,3,1,0,9,69.192383
405,-886,4,0,0,0,894.133118
34,1014,1,1,0,5,44.844700
-1022,676,2,0,0,0,728.581238
-1088,-1747,3,0,0,0,638.264465
1722,-1632,4,0,0,0,638.743774
1625,163,1,1,0,23,29.057549
-1135,910,2,0,0,0,679.439880
-922,-744,3,1,0,12,81.044189
1168,-420,4,0,0,0,824.415588
82,1172,1,0,0,0,740.644287
-1042,782,2,0,0,0,711.015259
-1762,-1559,3,0,0,0,600.194031
607,-651,4,0,0,0,920.132996
1123,83,1,1,0,23,29.057549
-794,1138,2,0,0,0,692.957092
-1642,-718,3,0,0,0,677.774292
436,-104,4,0,0,0,1117.889160
1172,524,1,0,0,0,715.222595
-529,885,2,0,0,0,778.124756
-485,-1554,3,0,0,0,705.270325
267,-1554,4,0,0,0,755.664124
1187,686,1,0,0,0,696.410645
-890,647,2,0,0,0,759.453674
-859,-949,3,0,0,0,774.226318
1675,-1781,4,1,0,23,29.057549
1087,564,1,1,0,10,132.940079
-970,764,2,0,0,0,726.389526
-972,-1785,3,0,0,0,641.833801
1428,-417,4,1,0,23,29.057549
202,426,1,0,0,0,1003.383057
-1732,1416,2,1,0,5,44.844700
-327,-1512,3,0,0,0,719.885376
215,-1700,4,0,0,0,731.801208
1072,1660,1,0,0,0,592.165894
-158,1742,2,0,0,0,626.843384
-227,-1721,3,0,0,0,686.888489
1608,-1177,4,0,0,0,688.565552
1882,1215,1,0,0,0,556.651978
-685,1264,2,0,0,0,682.817322
-881,-182,3,1,0,9,113.720284
1186,-120,4,1,0,23,29.057549
234,1699,1,0,0,0,632.453796
-159,641,2,0,0,0,906.266785
-651,-963,3,1,0,23,29.057549
122,-1901,4,0,0,0,701.465820
1815,1354,1,0,0,0,553.607056
-1694,1322,2,1,0,5,44.844700
-1523,-839,3,0,0,0,686.411072
28,-1065,4,0,0,0,868.371338
604,1719,1,0,0,0,615.224731
-762,644,2,1,0,5,44.844700
-575,-415,3,0,0,0,944.174194
793,-1262,4,1,0,23,29.057549
914,1551,1,0,0,0,618.641418
-1902,302,2,0,0,0,599.475281
-1963,-1662,3,1,0,23,29.057549
330,-581,4,0,0,0,1002.768005
1159,1161,1,0,0,0,645.123535
-615,1249,2,0,0,0,692.013000
-1498,-1885,3,1,0,23,29.057549
419,-597,4,0,0,0,977.513550
1566,1131,1,0,0,0,598.608398
-570,1451,2,0,0,0,659.675232
-1250,-1585,3,0,0,0,643.790222
1648,-571,4,0,0,0,726.730469
1726,1557,1,0,0,0,546.216003
-253,1708,2,0,0,0,630.533508
-1536,-1775,3,0,0,0,600.842224
1072,-886,4,1,0,23,29.057549
1795,816,1,0,0,0,592.781555
-628,876,2,0,0,0,765.377380
-1504,-1101,3,0,0,0,666.546204
1720,-95,4,1,0,23,29.057549
1266,368,1,1,0,10,73.950172
-70,1787,2,0,0,0,620.529785
-1901,-1977,3,1,0,23,29.057549
1876,-22,4,1,0,23,29.057549
426,1901,1,0,0,0,596.202881
-1465,1800,2,0,0,0,546.662903
-947,-1064,3,0,0,0,743.552429
262,-1076,4,0,0,0,857.224548
1558,149,1,0,0,0,658.548035
-33,1044,2,0,0,0,774.396606
-780,-1621,3,1,0,23,29.057549
650,-253,4,0,0,0,990.387329
763,1299,1,0,0,0,669.448181
-1760,781,2,1,0,9,105.513443
-1888,-1665,3,1,0,23,29.057549
1410,-946,4,1,0,23,29.057549
1094,466,1,1,0,10,99.455177
-965,1617,2,0,0,0,605.855652
-129,-924,3,1,0,23,29.057549
219,-628,4,0,0,0,1004.103149
1066,1433,1,0,0,0,620.905334
-774,1744,2,0,0,0,602.111084
-570,-1300,3,0,0,0,744.545715
1740,-1547,4,1,0,23,29.057549
1946,1317,1,0,0,0,543.168640
-39,1333,2,0,0,0,704.329651
-1497,-493,3,0,0,0,714.539612
1613,-1740,4,0,0,0,638.726746
1619,1500,1,0,0,0,560.851562
-859,775,2,0,0,0,745.055298
-879,-841,3,0,0,0,788.844604
1790,-1348,4,0,0,0,655.034485
396,878,1,0,0,0,797.691162
-1336,835,2,0,0,0,656.663147
-904,-1937,3,1,0,23,29.057549
1026,-1690,4,1,0,23,29.057549
171,1895,1,0,0,0,602.907104
-830,931,2,0,0,0,723.498596
-1035,-236,3,1,0,12,136.981140
559,-1833,4,1,0,23,29.057549
127,266,1,0,0,0,1138.819214
-678,1723,2,0,0,0,610.645508
-743,-594,3,1,0,9,82.830269
876,-1859,4,0,0,0,679.757629
1183,1386,1,1,0,5,44.844700
-1917,1398,2,0,0,0,540.442017
-1995,-343,3,0,0,0,642.989075
1219,-1461,4,0,0,0,701.789673
925,72,1,0,0,0,808.446533
-1027,520,2,0,0,0,746.495972
-1040,-1384,3,0,0,0,687.664917
1196,-1559,4,0,0,0,692.588318
728,442,1,0,0,0,833.064697
-356,1273,2,0,0,0,706.859375
-1195,-475,3,0,0,0,772.903015
293,-979,4,0,0,0,880.361328
413,1815,1,0,0,0,609.145020
-1955,857,2,0,0,0,570.295044
-970,-159,3,0,0,0,850.148743
1505,-1741,4,0,0,0,647.429260
1491,1708,1,0,0,0,553.254944
-1286,1321,2,0,0,0,611.877380
-911,-1140,3,0,0,0,736.610901
927,-847,4,0,0,0,821.083862
918,28,1,1,0,23,29.057549
-1082,1422,2,1,0,5,44.844700
-1030,-856,3,0,0,0,761.237305
918,-379,4,0,0,0,888.576233
295,42,1,0,0,0,1135.692871
-1167,21,2,0,0,0,742.524597
-415,-912,3,1,0,23,29.057549
1909,-666,4,1,0,23,29.057549
1342,1219,1,0,0,0,616.639404
-1021,949,2,0,0,0,691.657837
-344,-419,3,1,0,0,93.630890
1460,-1707,4,1,0,23,29.057549
1597,993,1,1,0,23,29.057549
-1298,1333,2,1,0,5,44.844700
-874,-881,3,0,0,0,783.125305
411,-381,4,0,0,0,1053.466309
120,345,1,0,0,0,1076.963135
-1474,1560,2,0,0,0,568.757019
-826,-528,3,0,0,0,850.913574
1057,-1340,4,1,0,23,29.057549
571,1282,1,1,0,5,44.844700
-1933,733,2,0,0,0,579.363892
-1005,-931,3,0,0,0,754.733643
1380,-1015,4,0,0,0,731.879272
884,864,1,0,0,0,726.074280
-679,416,2,0,0,0,852.405334
-1395,-83,3,1,0,9,117.949524
1994,-137,4,1,0,23,29.057549
1119,1199,1,0,0,0,645.199951
-766,545,2,0,0,0,804.661072
-398,-1042,3,0,0,0,813.781677
631,-1592,4,0,0,0,731.977051
1947,575,1,0,0,0,584.507507
-652,147,2,0,0,0,902.824951
-1059,-1772,3,0,0,0,637.401611
684,-1260,4,0,0,0,782.980225
384,940,1,0,0,0,782.515686
-1787,1044,2,0,0,0,579.048340
-639,-1153,3,0,0,0,765.782410
425,-1781,4,0,0,0,712.798218
1567,766,1,0,0,0,627.649902
-1124,1256,2,0,0,0,637.404846
-944,-1517,3,0,0,0,678.634155
1521,-83,4,1,0,23,29.057549
912,602,1,1,0,10,147.739532
-1497,1546,2,1,0,5,44.844700
-1903,-1422,3,0,0,0,597.440613
443,-854,4,0,0,0,897.736389
61,940,1,0,0,0,804.086426
-1390,531,2,0,0,0,672.986633
-1237,-1208,3,0,0,0,688.029297
112,-449,4,0,0,0,1108.690796
1341,1473,1,0,0,0,589.887207
-1164,1859,2,0,0,0,562.614319
-403,-1803,3,0,0,0,669.076965
878,-1127,4,0,0,0,783.992798
283,495,1,1,0,5,44.844700
-90,1882,2,0,0,0,605.690918
-1432,-1336,3,0,0,0,652.420532
451,-1959,4,0,0,0,686.063049
362,1371,1,0,0,0,686.762329
-480,389,2,0,0,0,925.467651
-327,-185,3,0,0,0,1127.310791
1006,-525,4,0,0,0,850.213501
763,1565,1,0,0,0,628.158752
-1036,1063,2,1,0,5,44.844700
-1302,-1798,3,0,0,0,616.708130
1123,-522,4,1,0,23,29.057549
974,256,1,1,0,10,85.579193
-1068,814,2,1,0,5,44.844700
-11,-675,3,1,0,23,29.057549
972,-1826,4,1,0,23,29.057549
1360,1574,1,0,0,0,577.608276
-1122,46,2,0,0,0,753.612915
-957,-253,3,1,0,12,124.733101
726,-1640,4,1,0,23,29.057549
1046,1610,1,0,0,0,600.343018
-1027,1824,2,1,0,5,44.844700
-370,-1981,3,0,0,0,644.262207
103,-1323,4,0,0,0,805.200684
1170,960,1,0,0,0,668.136780
-955,1357,2,0,0,0,641.861572
-971,-78,3,1,0,9,126.603981
827,-1588,4,0,0,0,719.217590
935,364,1,0,0,0,785.946472
-1060,1868,2,0,0,0,568.549988
-379,-78,3,0,0,0,1118.809814
1401,-525,4,0,0,0,770.734009
507,339,1,1,0,5,44.844700
-768,194,2,1,0,9,144.816544
-1783,-1714,3,0,0,0,586.012085
1771,-401,4,0,0,0,715.182556
929,813,1,0,0,0,726.444641
-1027,1437,2,0,0,0,624.070251
-1209,-1870,3,0,0,0,615.827942
590,-1476,4,0,0,0,753.347229
1345,768,1,0,0,0,661.535217
-770,975,2,0,0,0,724.620972
-1898,-963,3,0,0,0,628.702148
543,-411,4,0,0,0,997.285828
762,1271,1,0,0,0,674.151611
-948,156,2,0,0,0,798.414917
-751,-1501,3,1,0,23,29.057549
1129,-712,4,0,0,0,803.525208
397,113,1,0,0,0,1041.714844
-1360,1652,2,1,0,5,44.844700
-1648,-1364,3,0,0,0,627.243896
1909,-1222,4,0,0,0,651.765259
1525,1484,1,0,0,0,571.185974
-818,173,2,0,0,0,838.375549
-1792,-493,3,0,0,0,667.366821
246,-1864,4,0,0,0,705.210266
951,1066,1,0,0,0,684.639221
-1924,514,2,0,0,0,589.960205
-1535,-312,3,0,0,0,716.308777
1482,-816,4,0,0,0,735.463196
652,1263,1,0,0,0,686.081909
-393,962,2,0,0,0,775.869324
-828,-1136,3,0,0,0,747.336914
1680,-65,4,0,0,0,737.255554
1792,1096,1,0,0,0,574.840454
-601,1902,2,1,0,5,44.844700
-361,-43,3,0,0,0,1136.794434
1517,-406,4,1,0,23,29.057549
285,1490,1,0,0,0,667.463196
-811,1597,2,0,0,0,620.091797
-1355,-98,3,0,0,0,757.136169
415,-56,4,0,0,0,1137.504883
1215,1195,1,0,0,0,634.262695
-1238,1728,2,1,0,5,44.844700
-601,-247,3,0,0,0,969.357971
1545,-460,4,0,0,0,749.318604
1381,1807,1,0,0,0,552.377197
-1625,1701,2,0,0,0,542.846802
-884,-1196,3,0,0,0,731.170837
971,-1155,4,1,0,23,29.057549
1999,1554,1,0,0,0,522.156921
-566,1117,2,1,0,5,44.844700
-138,-968,3,0,0,0,851.662720
630,-55,4,0,0,0,1018.634094
1670,565,1,1,0,23,29.057549
-1453,1630,2,0,0,0,563.873901
-442,-752,3,1,0,23,29.057549
1050,-649,4,0,0,0,826.003784
1497,1710,1,0,0,0,552.576538
-1157,1592,2,0,0,0,593.321533
-905,-87,3,0,0,0,872.602539
1426,-1910,4,0,0,0,637.411133
660,432,1,0,0,0,855.125000
-1450,697,2,1,0,9,138.679504
-1341,-498,3,0,0,0,742.328857
103,-1756,4,0,0,0,724.291931
533,1069,1,1,0,5,44.844700
-280,1285,2,0,0,0,708.312378
-1299,-470,3,0,0,0,752.343994
1387,-596,4,1,0,23,29.057549
1357,779,1,1,0,23,29.057549
-1301,1592,2,0,0,0,580.921021
-179,-283,3,0,0,0,1160.508423
1401,-1521,4,0,0,0,677.975159
1534,1320,1,0,0,0,585.400635
-770,463,2,0,0,0,817.677856
-395,-534,3,0,0,0,963.024658
1681,-688,4,0,0,0,715.101562
1476,1394,1,1,0,5,44.844700
-1026,1230,2,0,0,0,651.943481
-1698,-1282,3,1,0,9,53.305523
523,-467,4,0,0,0,988.881653
1569,782,1,1,0,23,29.057549
-1739,391,2,0,0,0,621.479370
-1559,-1803,3,0,0,0,596.492920
1032,-557,4,0,0,0,840.744019
618,1011,1,0,0,0,738.198975
-679,1237,2,0,0,0,688.154724
-365,-805,3,1,0,23,29.057549
298,-623,4,1,0,23,29.057549
939,336,1,1,0,10,93.718025
-937,974,2,0,0,0,700.498352
-1742,-1688,3,1,0,23,29.057549
1331,-1000,4,0,0,0,740.076843
762,1167,1,0,0,0,691.695312
-1854,1087,2,0,0,0,568.370300
-1258,-261,3,0,0,0,773.160828
1330,-1572,4,0,0,0,679.188965
522,591,1,1,0,5,44.844700
-275,506,2,0,0,0,945.717712
-310,-383,3,0,0,0,1049.109375
927,-584,4,0,0,0,860.312073
726,521,1,0,0,0,819.245056
-776,1923,2,0,0,0,578.493896
-1105,-82,3,1,0,12,129.500397
1359,-849,4,0,0,0,751.037292
450,1398,1,0,0,0,676.724854
-1017,812,2,0,0,0,711.323975
-1317,-1264,3,0,0,0,672.509888
450,-1712,4,0,0,0,722.483276
301,1881,1,0,0,0,602.574219
-242,416,2,1,0,5,44.844700
-693,-588,3,0,0,0,872.707214
1253,-1125,4,1,0,23,29.057549
8,111,1,0,0,0,1419.824341
-1950,1215,2,1,0,5,44.844700
-430,-864,3,0,0,0,855.424316
296,-33,4,1,0,0,306.116333
1744,1024,1,1,0,23,29.057549
-1434,1471,2,0,0,0,581.151245
-434,-1551,3,0,0,0,708.338806
577,-60,4,0,0,0,1043.514526
957,531,1,0,0,0,760.990967
-420,180,2,0,0,0,1012.400330
-578,-531,3,0,0,0,914.930420
664,-999,4,0,0,0,834.239319
798,1858,1,0,0,0,585.628784
-288,315,2,0,0,0,1032.068237
-167,-902,3,0,0,0,870.031677
1000,-81,4,1,0,23,29.057549
995,1198,1,1,0,5,44.844700
-358,1516,2,1,0,5,44.844700
-1084,-651,3,0,0,0,777.741516
1238,-513,4,0,0,0,802.382019
1389,570,1,0,0,0,670.417847
-617,73,2,0,0,0,923.855408
-422,-574,3,1,0,23,29.057549
1514,-1206,4,0,0,0,696.887390
1175,1565,1,0,0,0,594.915955
-738,1012,2,0,0,0,722.294495
-1602,-1730,3,0,0,0,599.574829
697,-1568,4,0,0,0,731.401062
68,613,1,1,0,5,44.844700
-1452,673,2,1,0,9,140.277924
-949,-1256,3,0,0,0,714.881348
198,-764,4,0,0,0,954.776184
667,1388,1,0,0,0,663.176636
-1118,55,2,0,0,0,754.531982
-1902,-777,3,1,0,9,65.428192
1845,-485,4,0,0,0,701.049622
1429,1069,1,0,0,0,621.130310
-707,929,2,0,0,0,742.465637
-55,-1270,3,0,0,0,776.216736
1799,-1889,4,0,0,0,611.730042
1082,1275,1,0,0,0,639.658569
-408,1250,2,0,0,0,708.367249
-377,-92,3,1,0,0,180.359604
113,-632,4,0,0,0,1014.278931
1233,357,1,0,0,0,715.259338
-299,728,2,1,0,5,44.844700
-573,-550,3,0,0,0,911.515076
1264,-1033,4,0,0,0,745.711975
1129,810,1,1,0,5,44.844700
-17,1528,2,0,0,0,665.383667
-1842,-676,3,1,0,9,70.179260
1563,-1086,4,0,0,0,701.715271
132,544,1,0,0,0,953.895142
-526,592,2,0,0,0,853.992615
-267,-1003,3,0,0,0,834.489197
687,-960,4,0,0,0,838.843018
1856,1392,1,0,0,0,546.762939
-1623,526,2,0,0,0,633.941284
-1151,-685,3,0,0,0,761.206055
1884,-1231,4,0,0,0,653.800415
1499,321,1,0,0,0,664.470825
-464,34,2,0,0,0,1007.212524
-714,-1890,3,0,0,0,643.539673
240,-480,4,0,0,0,1065.965698
1170,328,1,0,0,0,730.985962
-700,969,2,0,0,0,735.676575
-800,-466,3,1,0,9,91.018875
1419,-1219,4,0,0,0,706.654846
553,546,1,0,0,0,859.419922
-723,1795,2,0,0,0,598.105591
-1776,-525,3,0,0,0,668.384277
1879,-1014,4,1,0,23,29.057549
516,1189,1,0,0,0,712.483704
-668,1682,2,1,0,5,44.844700
-1459,-635,3,1,0,12,109.547867
665,-1475,4,0,0,0,748.261108
565,1880,1,0,0,0,594.037537
-1011,1721,2,0,0,0,589.318054
-818,-428,3,0,0,0,868.193604
1768,-611,4,1,0,23,29.057549
248,1042,1,0,0,0,767.179504
-525,1031,2,0,0,0,745.046692
-500,-1766,3,0,0,0,670.950500
1738,-835,4,0,0,0,697.990356
381,1559,1,0,0,0,651.384766
-1286,460,2,0,0,0,697.493530
-716,-1601,3,0,0,0,683.953369
594,-1351,4,0,0,0,774.661011
106,1991,1,0,0,0,589.626282
-1582,203,2,0,0,0,653.152344
-1404,-1208,3,0,0,0,668.356140
1938,-785,4,1,0,23,29.057549
120,1563,1,1,0,5,44.844700
-1734,1064,2,1,0,5,44.844700
-1179,-1763,3,0,0,0,629.697998
1647,-648,4,0,0,0,722.525818
1932,849,1,0,0,0,573.532715
-1384,143,2,1,0,9,140.521255
-874,-1632,3,0,0,0,668.488647
277,-1448,4,0,0,0,774.964722
567,1642,1,1,0,5,44.844700
-815,240,2,1,0,9,155.989670
-872,-754,3,0,0,0,804.311401
1374,-1799,4,0,0,0,652.134766
1464,654,1,0,0,0,651.641418
-397,1871,2,0,0,0,601.424622
-1755,-1099,3,0,0,0,636.522766
1391,-1827,4,0,0,0,648.057800
1195,1480,1,1,0,5,44.844700
-1157,1463,2,1,0,5,44.844700
-1662,-1389,3,0,0,0,623.705139
1716,-849,4,0,0,0,700.022339
70,1231,1,0,0,0,726.797668
-1399,142,2,1,0,9,138.884430
-373,-835,3,0,0,0,870.913086
1009,-808,4,1,0,23,29.057549
810,1095,1,0,0,0,698.283813
-1152,687,2,0,0,0,702.675720
-1640,-1964,3,0,0,0,576.385437
129,-235,4,0,0,0,1266.167358
596,371,1,1,0,23,29.057549
-1902,1479,2,0,0,0,536.113098
-983,-483,3,1,0,12,115.161919
1866,-137,4,0,0,0,706.605774
1347,1457,1,0,0,0,590.990967
-483,1058,2,1,0,5,44.844700
-1097,-1268,3,0,0,0,696.823242
961,-1462,4,1,0,23,29.057549
649,673,1,0,0,0,806.239197
-1122,667,2,0,0,0,710.469238
-558,-56,3,0,0,0,1011.803223
250,-488,4,0,0,0,1059.770874
1809,401,1,0,0,0,610.443665
-972,1848,2,0,0,0,576.538208
-868,-1050,3,0,0,0,756.337463
1617,-312,4,0,0,0,743.190857
420,1103,1,0,0,0,739.330627
-1481,444,2,0,0,0,662.033142
-1759,-1847,3,0,0,0,577.284058
510,-174,4,0,0,0,1064.781006
1372,1258,1,0,0,0,609.138489
-1965,796,2,0,0,0,572.222534
-534,-545,3,0,0,0,923.073303
714,-100,4,1,0,23,29.057549
953,1799,1,1,0,5,44.844700
-704,180,2,0,0,0,878.752075
-1321,-822,3,0,0,0,718.239746
44,-707,4,0,0,0,985.931702
1367,1398,1,0,0,0,595.166504
-1921,233,2,0,0,0,598.114075
-661,-202,3,0,0,0,951.558777
251,-491,4,0,0,0,1058.131348
388,687,1,0,0,0,855.058044
-690,663,2,0,0,0,799.567078
-1999,-894,3,0,0,0,620.594055
640,-482,4,0,0,0,950.441833
882,168,1,0,0,0,817.877625
-1598,671,2,0,0,0,629.459045
-441,-993,3,1,0,23,29.057549
361,-799,4,0,0,0,924.475037
1852,613,1,1,0,23,29.057549
-276,655,2,0,0,0,885.110229
-394,-576,3,0,0,0,948.784851
43,-1144,4,0,0,0,847.674988
1709,913,1,0,0,0,597.745911
-914,342,2,0,0,0,793.921448
-1870,-854,3,0,0,0,638.585510
1599,-1557,4,0,0,0,656.180908
586,1675,1,0,0,0,622.738586
-783,903,2,1,0,5,44.844700
-1893,-1050,3,0,0,0,623.875671
599,-1347,4,1,0,23,29.057549
1027,586,1,0,0,0,738.804871
-953,1080,2,0,0,0,682.286499
-1829,-466,3,0,0,0,662.966187
468,-182,4,1,0,0,134.079437
1898,289,1,0,0,0,600.354248
-483,1153,2,0,0,0,722.851868
-535,-1205,3,1,0,23,29.057549
1706,-21,4,0,0,0,733.044128
1698,338,1,0,0,0,629.762817
-1885,33,2,0,0,0,605.519409
-468,-1065,3,0,0,0,801.701843
1352,-1097,4,0,0,0,727.232300
1173,711,1,0,0,0,696.267395
-644,675,2,0,0,0,806.860291
-1141,-1088,3,0,0,0,714.448975
31,-167,4,0,0,0,1397.827759
1150,1115,1,0,0,0,651.935242
-798,982,2,0,0,0,719.370361
-1232,-1070,3,1,0,9,63.515511
1188,-1885,4,1,0,23,29.057549
739,528,1,0,0,0,814.570862
-1240,281,2,1,0,9,179.628937
-1244,-1792,3,0,0,0,621.679626
307,-696,4,1,0,23,29.057549
1175,246,1,0,0,0,734.459717
-1456,160,2,0,0,0,677.480225
-1608,-550,3,1,0,9,81.017174
472,-1342,4,0,0,0,785.213135
305,1702,1,0,0,0,630.125122
-65,1995,2,0,0,0,589.307800
-1226,-263,3,0,0,0,780.152466
236,-455,4,0,0,0,1079.211426
418,1055,1,0,0,0,750.601257
-1592,1703,2,0,0,0,545.400696
-1862,-1619,3,0,0,0,586.678650
186,-1031,4,0,0,0,873.200500
1598,1414,1,0,0,0,570.403198
-800,708,2,0,0,0,767.932617
-621,-1012,3,0,0,0,795.820374
97,-1445,4,0,0,0,780.076294
1831,70,1,1,0,23,29.057549
-1820,559,2,0,0,0,602.726196
-1905,-1507,3,0,0,0,591.130737
1315,-1608,4,0,0,0,676.688904
14,1638,1,0,0,0,645.546204
-494,937,2,0,0,0,770.376099
-1623,-605,3,1,0,9,78.158417
1449,-145,4,1,0,23,29.057549
127,1571,1,0,0,0,656.545288
-119,1274,2,0,0,0,716.175171
-1390,-908,3,0,0,0,699.633850
1638,-371,4,0,0,0,737.557312
558,119,1,0,0,0,948.408020
-142,1366,2,0,0,0,695.912354
-1368,-74,3,0,0,0,754.725098
859,-1432,4,0,0,0,739.202637
1043,1890,1,0,0,0,567.118652
-867,897,2,0,0,0,723.439941
-1359,-192,3,0,0,0,754.202759
839,-1393,4,0,0,0,746.815002
228,973,1,0,0,0,787.093933
-1683,1252,2,0,0,0,575.241638
-1858,-77,3,0,0,0,667.210754
877,-134,4,0,0,0,921.074951
1293,87,1,0,0,0,712.531250
-466,1763,2,1,0,5,44.844700
-1439,-1993,3,0,0,0,587.740906
633,-539,4,0,0,0,939.784851
996,1622,1,0,0,0,602.803833
-408,1843,2,1,0,5,44.844700
-89,-1298,3,0,0,0,769.549805
1482,-659,4,0,0,0,747.563721
1459,300,1,1,0,23,29.057549
-1873,663,2,0,0,0,590.615356
-316,-142,3,0,0,0,1150.701416
1558,-1149,4,1,0,23,29.057549
1352,447,1,0,0,0,685.556274
-1020,1750,2,0,0,0,585.146606
-1464,-20,3,0,0,0,735.659729
1188,-147,4,0,0,0,834.834595
217,1374,1,0,0,0,692.253784
-1696,1700,2,0,0,0,537.052795
-73,-1124,3,0,0,0,810.974487
246,-1145,4,1,0,23,29.057549
668,324,1,1,0,23,29.057549
-36,1853,2,1,0,5,44.844700
-1991,-1081,3,0,0,0,610.921753
912,-172,4,0,0,0,908.093506
426,644,1,1,0,5,44.844700
-385,1080,2,1,0,5,44.844700
-276,-528,3,0,0,0,994.360229
390,-1384,4,1,0,23,29.057549
1670,700,1,1,0,23,29.057549
-855,1313,2,1,0,5,44.844700
-1605,-1211,3,0,0,0,644.921082
88,-1359,4,0,0,0,797.751221
1007,1477,1,0,0,0,620.649780
-1838,239,2,0,0,0,610.357483
-1993,-682,3,0,0,0,631.644104
106,-625,4,0,0,0,1017.937988
504,104,1,1,0,23,29.057549
-1315,16,2,1,0,9,132.149551
-793,-900,3,0,0,0,792.888367
603,-1342,4,1,0,23,29.057549
830,371,1,1,0,10,100.788162
-1190,1883,2,1,0,5,44.844700
-1660,-1226,3,0,0,0,637.495300
156,-772,4,0,0,0,955.374023
967,1510,1,0,0,0,619.779053
-1923,1526,2,0,0,0,530.843079
-1944,-577,3,0,0,0,642.489563
76,-428,4,0,0,0,1126.733643
995,598,1,0,0,0,744.080811
-263,1730,2,1,0,5,44.844700
-795,-163,3,1,0,9,112.472366
423,-530,4,0,0,0,998.515808
1044,776,1,0,0,0,711.452820
-655,942,2,0,0,0,747.445312
-199,-746,3,0,0,0,919.666199
1430,-677,4,0,0,0,754.684998
876,1429,1,1,0,5,44.844700
-514,921,2,1,0,5,44.844700
-1386,-694,3,1,0,12,94.783119
972,-612,4,0,0,0,846.718384
1359,1228,1,0,0,0,613.729309
-1222,1549,2,0,0,0,592.606323
-443,-1581,3,1,0,23,29.057549
359,-1203,4,1,0,23,29.057549
445,1309,1,1,0,5,44.844700
-1568,690,2,0,0,0,632.775391
-250,-63,3,0,0,0,1235.931519
1820,-312,4,0,0,0,710.376648
326,1636,1,1,0,5,44.844700
-1530,1445,2,0,0,0,574.313660
-761,-1022,3,0,0,0,775.536072
1385,-1894,4,1,0,23,29.057549
779,1060,1,0,0,0,708.244995
-1379,1268,2,1,0,5,44.844700
-1661,-1090,3,0,0,0,648.331970
1147,-1893,4,0,0,0,658.550293
1337,42,1,0,0,0,703.452881
-1191,1809,2,0,0,0,566.180481
-445,-1911,3,0,0,0,651.884583
312,-1267,4,1,0,23,29.057549
1588,1743,1,1,0,5,44.844700
-213,1871,2,1,0,5,44.844700
-46,-1693,3,0,0,0,693.944214
1651,-1322,4,1,0,23,29.057549
1856,477,1,0,0,0,600.881409
-445,1113,2,0,0,0,734.892700
-1433,-1656,3,0,0,0,620.576538
1748,-66,4,1,0,23,29.057549
1429,98,1,0,0,0,683.878235
-1969,1161,2,1,0,5,44.844700
-314,-402,3,0,0,0,1039.124756
202,-1793,4,0,0,0,717.001160
1175,1905,1,1,0,5,44.844700
-1300,232,2,0,0,0,707.141602
-767,-1445,3,0,0,0,703.863342
1743,-1744,4,1,0,23,29.057549
1201,433,1,1,0,23,29.057549
-1530,1336,2,0,0,0,584.357605
-902,-1860,3,0,0,0,637.009521
517,-71,4,1,0,0,124.226784
360,950,1,0,0,0,782.370361
-996,1896,2,0,0,0,569.355469
-1501,-1551,3,0,0,0,624.708984
794,-211,4,0,0,0,943.212708
1209,1940,1,0,0,0,550.941833
-1081,646,2,0,0,0,720.741760
-772,-1190,3,0,0,0,744.746338
1173,-304,4,0,0,0,831.325684
581,1291,1,0,0,0,687.221436
-1555,211,2,1,0,9,127.469955
-1067,-1543,3,0,0,0,664.702881
992,-1938,4,0,0,0,663.265747
322,1223,1,0,0,0,719.523926
-1816,1277,2,0,0,0,559.195435
-1874,-920,3,0,0,0,634.200623
543,-613,4,0,0,0,944.141785
1646,197,1,0,0,0,642.138855
-1409,1445,2,0,0,0,586.172974
-1112,-23,3,0,0,0,814.603943
891,-434,4,0,0,0,889.180176
1770,588,1,0,0,0,608.577881
-434,1518,2,0,0,0,656.057312
-1094,-1211,3,1,0,23,29.057549
801,-1280,4,0,0,0,768.091736
795,129,1,1,0,23,29.057549
-1548,930,2,1,0,9,112.991859
-189,-1136,3,1,0,23,29.057549
684,-1934,4,0,0,0,680.267700
1463,587,1,0,0,0,656.501160
-303,1119,2,0,0,0,744.470886
-1381,-1672,3,0,0,0,623.366516
1856,-1388,4,1,0,23,29.057549
1639,2,1,0,0,0,645.382324
-1721,147,2,0,0,0,630.429443
-207,-1476,3,0,0,0,730.552795
1387,-180,4,0,0,0,790.092102
1050,1063,1,0,0,0,671.803223
-142,500,2,1,0,5,44.844700
-763,-1665,3,0,0,0,671.560974
282,-1973,4,1,0,23,29.057549
1112,435,1,0,0,0,735.997253
-920,696,2,0,0,0,745.881836
-1827,-180,3,0,0,0,670.883728
571,-747,4,1,0,23,29.057549
843,1341,1,0,0,0,655.129761
-1240,630,2,0,0,0,692.288208
-1357,-1772,3,0,0,0,615.174255
513,-373,4,0,0,0,1017.781494
994,1151,1,0,0,0,666.750244
-311,177,2,1,0,0,164.056198
-1497,-355,3,0,0,0,721.453125
1880,-350,4,0,0,0,700.357056
1247,1041,1,0,0,0,647.934204
-1922,813,2,0,0,0,576.695435
-478,-1157,3,1,0,23,29.057549
706,-1606,4,0,0,0,725.057068
1438,328,1,0,0,0,675.502441
-545,810,2,0,0,0,793.806091
-124,-1902,3,0,0,0,660.164551
1233,-1233,4,0,0,0,726.794922
485,1611,1,0,0,0,637.925964
-1851,357,2,1,0,9,103.876068
-114,-538,3,0,0,0,1017.439392
991,-1078,4,0,0,0,776.911743
420,1125,1,1,0,5,44.844700
-48,948,2,1,0,5,44.844700
-268,-534,3,0,0,0,993.542480
1691,-1252,4,0,0,0,673.023315
1707,530,1,0,0,0,620.686523
-1776,248,2,1,0,9,108.152550
-1692,-58,3,0,0,0,694.050842
203,-877,4,0,0,0,916.881836
89,1320,1,0,0,0,706.609070
-1836,1032,2,0,0,0,574.090271
-478,-211,3,0,0,0,1032.199463
1027,-1792,4,0,0,0,678.318237
316,356,1,0,0,0,1000.613831
-879,1264,2,0,0,0,663.242615
-1156,-1525,3,1,0,23,29.057549
286,-1739,4,0,0,0,723.747620
950,329,1,0,0,0,785.374146
-349,1623,2,0,0,0,641.734375
-479,-775,3,1,0,23,29.057549
1877,-1803,4,0,0,0,612.375000
1108,326,1,0,0,0,745.545410
-1253,718,2,0,0,0,681.535461
-1342,-1426,3,1,0,23,29.057549
1695,-99,4,1,0,23,29.057549
494,1585,1,0,0,0,641.717346
-39,642,2,1,0,5,44.844700
-1420,-1841,3,0,0,0,603.555298
344,-1007,4,1,0,23,29.057549
997,1280,1,0,0,0,648.274292
-268,1064,2,0,0,0,760.260742
-596,-401,3,0,0,0,940.450928
1663,-645,4,0,0,0,720.297974
36,1861,1,1,0,5,44.844700
-1183,708,2,0,0,0,694.806458
-882,-1800,3,1,0,23,29.057549
947,-16,4,0,0,0,902.239624
1423,1216,1,0,0,0,607.562378
-150,1796,2,0,0,0,618.329163
-1717,-625,3,0,0,0,672.230225
1233,-1712,4,0,0,0,672.242554
1674,383,1,0,0,0,632.085632
-514,80,2,1,0,9,112.454536
-1584,-1395,3,0,0,0,631.070312
1406,-1613,4,1,0,23,29.057549
1181,1533,1,0,0,0,598.102051
-1706,147,2,0,0,0,632.905518
-929,-954,3,0,0,0,762.885376
997,-317,4,0,0,0,873.602295
221,1342,1,0,0,0,698.694885
-994,1356,2,0,0,0,638.116272
-1219,-1257,3,0,0,0,684.411621
1348,-211,4,0,0,0,797.209778
1485,1486,1,1,0,5,44.844700
-568,867,2,0,0,0,776.613342
-1766,-736,3,0,0,0,659.089050
1861,-328,4,0,0,0,703.763733
1102,1465,1,0,0,0,613.485229
-669,271,2,1,0,9,138.197601
-1617,-28,3,0,0,0,707.155945
656,-158,4,0,0,0,999.942566
1476,1762,1,0,0,0,549.386353
-639,1370,2,0,0,0,668.466370
-728,-1787,3,0,0,0,656.656860
211,-911,4,0,0,0,905.917664
742,94,1,1,0,23,29.057549
-1779,412,2,0,0,0,614.591553
-108,-1353,3,1,0,23,29.057549
27,-1598,4,0,0,0,751.785156
835,1490,1,0,0,0,633.622620
-962,1128,2,0,0,0,674.038391
-276,-1329,3,0,0,0,757.385742
1185,-1336,4,0,0,0,719.959412
1784,728,1,0,0,0,599.328613
-575,990,2,0,0,0,748.064026
-1560,-1728,3,1,0,23,29.057549
1792,-850,4,0,0,0,689.913086
1323,246,1,1,0,23,29.057549
-467,1850,2,1,0,5,44.844700
-1131,-911,3,0,0,0,737.993896
792,-180,4,0,0,0,946.514404
621,905,1,0,0,0,760.171753
-98,1058,2,0,0,0,769.488037
-472,-1904,3,1,0,23,29.057549
941,-1139,4,1,0,23,29.057549
1367,1501,1,0,0,0,584.498840
-1798,307,2,1,0,9,107.524628
-1986,-1471,3,0,0,0,586.217346
1261,-1573,4,0,0,0,685.238464
1288,1575,1,0,0,0,583.885254
-566,36,2,0,0,0,950.132324
-518,-102,3,0,0,0,1029.208618
790,-1243,4,0,0,0,775.247986
329,457,1,0,0,0,952.190491
-1064,1237,2,0,0,0,646.665466
-1058,-153,3,0,0,0,826.004028
251,-1804,4,0,0,0,714.308533
177,313,1,0,0,0,1081.493408
-637,42,2,0,0,0,916.043884
-1220,-1100,3,0,0,0,702.686768
1743,-1192,4,0,0,0,671.996277
1405,185,1,1,0,23,29.057549
-948,1391,2,1,0,5,44.844700
-1507,-1326,3,0,0,0,645.388123
1446,-1675,4,0,0,0,658.623535
1115,530,1,1,0,10,129.273346
-1449,907,2,1,0,9,121.238091
-1443,-1492,3,0,0,0,635.843323
1361,-1597,4,0,0,0,673.808411
1147,289,1,0,0,0,738.701782
-331,1153,2,0,0,0,734.675842
-694,-581,3,1,0,9,82.620735
744,-299,4,0,0,0,950.214600
239,400,1,0,0,0,1006.767883
-590,893,2,1,0,5,44.844700
-1079,-601,3,0,0,0,784.492920
823,-1941,4,1,0,23,29.057549
437,1077,1,0,0,0,743.733337
-1583,345,2,0,0,0,648.681030
-964,-1573,3,0,0,0,669.479065
690,-1596,4,0,0,0,727.610962
1340,947,1,0,0,0,645.059631
-682,100,2,0,0,0,893.946960
-1031,-1351,3,0,0,0,692.959839
1178,-559,4,1,0,23,29.057549
76,1545,1,0,0,0,661.895691
-1752,1906,2,0,0,0,515.918945
-140,-1386,3,0,0,0,749.936340
536,-1297,4,1,0,23,29.057549
1515,52,1,0,0,0,667.674011
-840,889,2,0,0,0,729.111084
-1437,-398,3,0,0,0,730.427429
1801,-369,4,1,0,23,29.057549
1278,1577,1,0,0,0,584.549622
-482,1742,2,0,0,0,617.509155
-1643,-328,3,0,0,0,697.037476
1310,-1235,4,1,0,23,29.057549
1292,618,1,0,0,0,683.910156
-837,1353,2,1,0,5,44.844700
-603,-607,3,0,0,0,890.085632
1713,-1345,4,0,0,0,663.160828
1584,815,1,0,0,0,621.646118
-173,1931,2,1,0,5,44.844700
-1811,-1679,3,0,0,0,586.433044
452,-1321,4,1,0,23,29.057549
1163,407,1,0,0,0,726.990295
-918,86,2,1,0,9,145.628418
-1404,-700,3,0,0,0,715.862793
1575,-1207,4,1,0,23,29.057549
280,1935,1,1,0,5,44.844700
-851,1326,2,0,0,0,656.642822
-769,-230,3,0,0,0,908.480835
1199,-1851,4,1,0,23,29.057549
402,1384,1,0,0,0,682.117737
-1221,1683,2,0,0,0,577.730957
-1387,-1539,3,1,0,23,29.057549
845,-882,4,1,0,23,29.057549
692,964,1,0,0,0,737.779236
-1856,1748,2,1,0,5,44.844700
-1011,-811,3,0,0,0,770.646484
1377,-1004,4,0,0,0,733.376099
1670,603,1,0,0,0,622.581055
-1408,1216,2,0,0,0,609.295593
-1312,-652,3,0,0,0,735.475830
1765,-491,4,0,0,0,712.639221
1573,1435,1,0,0,0,571.008728
-1240,981,2,0,0,0,655.640808
-812,-763,3,0,0,0,814.088745
667,-1191,4,0,0,0,797.075195
1498,546,1,0,0,0,653.254089
-381,763,2,0,0,0,832.672302
-1493,-1660,3,1,0,23,29.057549
1535,-25,4,0,0,0,763.333008
1197,1094,1,1,0,5,44.844700
-58,15,2,0,0,0,1598.512939
-545,-1458,3,0,0,0,718.117371
1028,-931,4,0,0,0,792.508484
1171,1828,1,0,0,0,565.522644
-771,1107,2,0,0,0,701.028748
-1185,-310,3,1,0,12,285.823395
620,-634,4,0,0,0,921.208557
170,1341,1,0,0,0,700.456360
-1413,448,2,1,0,9,156.952789
-671,-1189,3,0,0,0,755.717346
660,-1124,4,1,0,23,29.057549
1233,436,1,0,0,0,709.914490
-917,418,2,1,0,9,201.003952
-1331,-850,3,0,0,0,713.963806
1844,-581,4,0,0,0,697.221252
509,243,1,1,0,23,29.057549
-1885,516,2,0,0,0,595.300659
-1272,-702,3,1,0,12,108.483849
579,-568,4,0,0,0,946.907715
963,750,1,0,0,0,729.692322
-730,1970,2,0,0,0,574.798157
-342,-314,3,0,0,0,1066.259766
1195,-1746,4,0,0,0,671.432434
1449,623,1,0,0,0,656.340881
-516,815,2,0,0,0,797.260986
-1762,-40,3,0,0,0,682.547546
329,-1379,4,0,0,0,786.200867
1626,1307,1,0,0,0,576.790710
-1014,1813,2,1,0,5,44.844700
-441,-481,3,0,0,0,968.123657
1125,-704,4,0,0,0,805.175903
303,893,1,0,0,0,803.773132
-46,1933,2,0,0,0,598.339050
-478,-1151,3,0,0,0,781.894958
1007,-1303,4,0,0,0,743.200134
203,1243,1,0,0,0,720.707275
-1399,121,2,0,0,0,689.552979
-55,-1047,3,0,0,0,831.590210
1884,-711,4,1,0,23,29.057549
270,1219,1,0,0,0,723.204041
-652,1471,2,0,0,0,650.649536
-1871,-1072,3,0,0,0,624.977600
441,-335,4,0,0,0,1056.892578
1012,195,1,0,0,0,778.245850
-1785,791,2,0,0,0,595.582458
-1429,-688,3,1,0,9,77.970253
841,-1657,4,0,0,0,708.574280
103,504,1,0,0,0,978.252258
-1530,1592,2,1,0,5,44.844700
-1853,-901,3,0,0,0,637.939941
443,-1574,4,0,0,0,745.231384
1105,1245,1,1,0,5,44.844700
-309,1524,2,1,0,5,44.844700
-1796,-1534,3,0,0,0,599.078430
1818,-821,4,0,0,0,688.271545
1830,402,1,1,0,23,29.057549
-1406,643,2,1,0,9,148.806946
-140,-921,3,0,0,0,865.594604
385,-1639,4,0,0,0,736.854248
1053,1489,1,0,0,0,614.961365
-367,678,2,0,0,0,861.714294
-1562,-1010,3,0,0,0,667.134460
1032,-703,4,0,0,0,822.689087
1339,1387,1,0,0,0,599.173706
-1051,813,2,0,0,0,705.366943
-1098,-470,3,1,0,12,98.394951
873,-642,4,1,0,23,29.057549
1082,1315,1,0,0,0,634.473694
-1107,1528,2,0,0,0,605.283020
-1461,-230,3,1,0,9,103.648064
1666,-1011,4,0,0,0,694.950806
830,170,1,0,0,0,834.569275
-1334,795,2,0,0,0,660.779358
-1611,-1220,3,0,0,0,643.475525
783,-1923,4,1,0,23,29.057549
1807,321,1,1,0,23,29.057549
-775,252,2,0,0,0,845.747925
-1936,-1567,3,0,0,0,584.016724
695,-489,4,0,0,0,933.477844
811,112,1,0,0,0,844.424927
-1703,587,2,0,0,0,618.475403
-539,-1795,3,0,0,0,664.978882
1678,-1529,4,0,0,0,651.322571
-1146,363,2,0,0,0,734.067749
-671,-70,3,0,0,0,958.535828
660,-645,4,1,0,23,29.057549
-586,450,2,1,0,5,44.844700
-582,-49,3,1,0,9,109.865021
1400,-1157,4,0,0,0,715.121399
-1452,10,2,1,0,9,122.441727
-753,-1340,3,0,0,0,721.721497
599,-803,4,0,0,0,886.081116
-6,1012,2,0,0,0,783.476807
1900,-770,4,0,0,0,680.448303
-426,1669,2,0,0,0,631.215210
155,-1599,4,0,0,0,750.304626
-462,821,2,0,0,0,804.059937
1628,-388,4,0,0,0,738.565247
-905,128,2,0,0,0,812.751770
904,-579,4,0,0,0,866.175842
-206,1237,2,0,0,0,721.946045
475,-1886,4,0,0,0,695.519165
-1263,848,2,0,0,0,666.661682
380,-1795,4,1,0,23,29.057549
-816,869,2,1,0,5,44.844700
1094,-624,4,0,0,0,820.222534
-491,1647,2,0,0,0,631.857605
1566,-1208,4,0,0,0,690.720886
-501,464,2,0,0,0,896.646973
911,-98,4,0,0,0,911.785767
-840,970,2,0,0,0,715.367065
748,-1104,4,0,0,0,803.789062
-797,1737,2,1,0,5,44.844700
689,-1807,4,0,0,0,697.142029
-1132,1227,2,1,0,5,44.844700
178,-1346,4,1,0,23,29.057549
-1074,1688,2,0,0,0,588.648254
641,-301,4,1,0,23,29.057549
-94,1689,2,0,0,0,636.373108
908,-342,4,0,0,0,895.289490
-60,786,2,0,0,0,855.316589
919,-1037,4,0,0,0,792.778809
-735,507,2,0,0,0,819.468811
1418,-1108,4,0,0,0,717.762756
-129,1881,2,1,0,5,44.844700
104,-951,4,0,0,0,899.355225
-665,141,2,0,0,0,897.946838
620,-44,4,1,0,23,29.057549
-981,527,2,0,0,0,756.012573
148,-1450,4,0,0,0,778.241333
-1270,544,2,0,0,0,694.199158
609,-1434,4,0,0,0,759.109009
-350,1926,2,0,0,0,594.837097
809,-135,4,0,0,0,943.693848
-1992,1068,2,0,0,0,554.126831
214,-680,4,0,0,0,984.102051
-1217,386,2,0,0,0,716.802307
463,-703,4,0,0,0,936.209839
-1225,476,2,0,0,0,708.513184
62,-87,4,0,0,0,1531.611694
-1720,1399,2,1,0,5,44.844700
527,-72,4,0,0,0,1068.535034
-101,1797,2,0,0,0,618.711121
908,-1463,4,0,0,0,730.411011
-1806,1498,2,0,0,0,543.571716
575,-1914,4,0,0,0,687.738586
-185,1483,2,0,0,0,671.736450
940,-1726,4,0,0,0,692.522217
-98,855,2,0,0,0,830.066528
1114,-1671,4,0,0,0,686.340942
-919,409,2,0,0,0,785.217712
930,-1818,4,0,0,0,681.571106
-702,1421,2,1,0,5,44.844700
129,-1049,4,0,0,0,870.667786
-698,1612,2,0,0,0,625.628174
1526,-468,4,1,0,23,29.057549
-621,518,2,0,0,0,847.966614
1291,-848,4,0,0,0,761.581482
-1430,1877,2,0,0,0,541.983887
1313,-52,4,0,0,0,808.025085
-465,1249,2,0,0,0,704.505432
1535,-1983,4,0,0,0,622.953918
-1212,393,2,0,0,0,717.391785
1123,-392,4,0,0,0,836.668945
-278,1053,2,1,0,5,44.844700
1740,-583,4,1,0,23,29.057549
873,-771,4,0,0,0,842.713867
1121,-1387,4,0,0,0,720.351318
1465,-1179,4,0,0,0,705.159424
1275,-1131,4,0,0,0,733.344666
1721,-649,4,0,0,0,711.502869
612,-1461,4,0,0,0,754.350769
535,-1175,4,0,0,0,813.093506
231,-1398,4,0,0,0,786.352234
562,-175,4,1,0,23,29.057549


each generation good chromosome number
0,0,0,0,0,0,0,0,0,0,0,0,0,0,0,0,0,0,0,0,0,0,0,0,0,0,0,0,0,0,0,0,0,0,0,0,0,0,0,0,0,0,0,0,0,0,0,0,0,0,0,0,0,0,0,0,0,0,0,0,0,0,0,0,0,0,0,0,0,0,0,0,0,0,0,0,0,0,0,0,0,0,0,0,0,0,0,0,0,0,0,0,0,0,0,0,0,0,0,0,