609.729004,609.729004,609.729004,609.729004,609.729004,609.729004,609.729004,609.729004,609.729004,609.729004,609.729004,609.729004,609.729004,609.729004,609.729004,609.729004,609.729004,609.729004,609.729004,609.729004,609.729004,609.729004,609.729004,609.729004,609.729004,609.729004,609.729004,609.729004,609.729004,609.729004,609.729004,609.729004,609.729004,609.729004,609.729004,609.729004,609.729004,609.729004,609.729004,609.729004,609.729004,609.729004,609.729004,609.729004,609.729004,609.729004,609.729004,609.729004,609.729004,609.729004,609.729004,609.729004,609.729004,609.729004,609.729004,609.729004,609.729004,609.729004,609.729004,609.729004,609.729004,609.729004,609.729004,609.729004,609.729004,609.729004,609.729004,609.729004,609.729004,609.729004,609.729004,609.729004,609.729004,609.729004,609.729004,609.729004,609.729004,609.729004,609.729004,609.729004,609.729004,609.729004,609.729004,609.729004,609.729004,609.729004,609.729004,609.729004,609.729004,609.729004,609.729004,609.729004,609.729004,609.729004,609.729004,609.729004,609.729004,609.729004,609.729004,609.729004,

avg. max avg. throughput in test times
609.729492
avg. BS TX power in all test times
MBS area 1,MBS area 2,MBS area 3,CBSD 1,CBSD 2,CBSD 3,CBSD 4,CBSD 5,
10.000,10.000,10.000,1.000,1.000,0.000,0.000,0.000,
avg. mbs all power,avg. cbsd enable number,avg. mbs area all power,avg. cbsd all power
45.000,2.000,30.000,2.000
avg. number of relay UE
45

BS TX power
MBS area 1,MBS area 2,MBS area 3,CBSD 1,CBSD 2,CBSD 3,CBSD 4,CBSD 5,
10.000,10.000,10.000,1.000,1.000,0.000,0.000,0.000,
max average power
664.788513

x,y,area,be blocked (1 : NLOS / 0 : LOS),be blocked number (>=1 : CBSD(x) / 0 : no),connect bs number (>=1 : CBSD / 0 : MBS),throughput (unit : M bps)
1783,223,1,0,0,2,308.522125
752,-635,2,1,0,2,264.484314
-685,-745,3,1,0,1,247.311432
393,1320,1,0,0,0,794.516418
1556,-1500,2,1,0,2,166.876587
-1545,208,3,0,0,0,758.928772
586,234,1,0,0,0,1019.274536
856,-457,2,0,0,0,895.265442
-584,-498,3,0,0,0,962.824158
510,645,1,0,0,0,942.963684
1670,-95,2,0,0,0,738.719177
-1878,-1881,3,0,0,1,141.967590
102,1468,1,0,0,0,775.494751
1987,-163,2,0,0,2,251.112000
-1719,-1329,3,1,0,1,180.575607
1863,1037,1,0,0,2,328.620972
1295,-1381,2,0,0,2,180.884918
-107,-1044,3,0,0,0,872.699402
852,739,1,0,0,0,851.971313
616,-563,2,0,0,0,938.701965
-1858,1925,3,1,0,1,290.241211
1485,592,1,0,0,0,751.709045
827,-1248,2,0,0,0,770.541077
-837,670,3,0,0,0,866.549500
363,1551,1,0,0,0,752.741211
156,-1256,2,0,0,0,818.810120
-1147,-1392,3,0,0,1,184.782425
554,1901,1,0,0,2,351.231812
1253,-874,2,0,0,0,764.738342
-1713,1267,3,1,0,1,395.829712
25,1958,1,1,0,2,302.903351
1141,-392,2,0,0,0,832.584900
-1326,-1062,3,1,0,1,211.933350
1258,396,1,0,0,0,806.971130
633,-331,2,0,0,0,983.520752
-463,1754,3,0,0,1,356.583893
1696,1735,1,0,0,2,304.168884
645,-1376,2,0,0,0,766.252502
-508,1822,3,0,0,1,348.471771
1107,1189,1,0,0,0,747.097534
774,-1139,2,0,0,0,794.550720
-1965,1006,3,0,0,1,354.968018
876,1501,1,1,0,2,460.693268
1482,-196,2,0,0,0,770.970581
-191,1114,3,1,0,1,401.378387
44,1071,1,0,0,0,866.610962
491,-1709,2,0,0,2,160.931885
-1068,-1935,3,0,0,1,147.178452
1471,671,1,0,0,0,748.467773
14,-483,2,0,0,0,1096.222534
-117,-144,3,0,0,0,1372.341064
748,1345,1,1,0,2,532.432617
531,-634,2,0,0,0,941.312866
-554,766,3,0,0,0,902.785278
343,364,1,1,0,2,443.287933
1648,-1203,2,0,0,2,185.447433
-17,-85,3,1,0,0,822.392761
1965,113,1,1,0,2,275.416077
990,-128,2,1,0,2,342.980591
-1312,921,3,0,0,0,750.930969
1243,565,1,0,0,0,797.005554
838,-1785,2,0,0,2,156.558151
-756,1115,3,1,0,1,617.307556
1450,441,1,0,0,0,767.026428
1219,-1127,2,0,0,0,740.879578
-191,1204,3,0,0,0,829.597351
965,728,1,1,0,2,632.537537
171,-1700,2,0,0,0,732.632874
-1367,1438,3,0,0,1,442.759491
495,385,1,0,0,0,1021.060242
1116,-1679,2,0,0,2,161.921356
-157,-572,3,1,0,1,245.848175
905,521,1,0,0,0,874.133545
1609,-1336,2,1,0,2,176.893066
-258,1419,3,0,0,0,781.266418
497,362,1,0,0,0,1026.741577
1220,-357,2,0,0,0,817.560913
-1591,-951,3,0,0,1,216.058868
1774,659,1,1,0,2,342.220428
1031,-1736,2,0,0,2,158.845154
-567,-24,3,1,0,1,353.373596
998,-593,2,0,0,0,843.662476
-310,799,3,0,0,0,931.034180
-1147,-1793,3,0,0,1,155.777542
-1707,-1902,3,1,0,1,143.594711
-664,1559,3,1,0,1,424.542328
-32,253,3,0,0,0,1280.579102
-1853,297,3,0,0,1,340.702362
-1251,-1575,3,0,0,1,170.035049
-296,-867,3,0,0,0,911.823486
-600,-515,3,0,0,0,954.239319
-929,1276,3,0,0,0,755.375244
-1178,513,3,0,0,0,814.479919
-777,-800,3,0,0,0,855.208191
-202,628,3,0,0,0,1006.454163
-227,-1759,3,0,0,1,151.828873
-41,968,3,0,0,0,895.706604
-272,173,3,0,0,0,1212.977783
-924,-1422,3,0,0,0,734.779358
-151,952,3,0,0,0,897.186768
