each times' max average throughput
692.854675,677.264465,697.375854,700.999817,673.594666,680.804504,697.689453,686.595093,677.811340,698.807556,690.865784,684.847961,691.825806,683.346436,683.776611,700.677002,709.545471,668.773804,680.017944,684.714233,679.820496,680.352356,689.096191,682.041870,694.459534,702.851318,692.012024,703.741272,668.771545,681.582520,694.067261,676.508301,682.670166,693.438416,684.375000,694.905151,696.007629,689.333740,683.723267,692.521729,682.519287,707.760254,703.329346,707.194092,692.269592,672.528198,694.410217,705.176697,665.338135,685.705688,702.944519,671.468994,700.093262,676.935181,682.083679,698.102356,683.019897,677.392273,704.065063,704.433105,690.968750,682.519287,689.912170,703.999207,684.275146,679.009827,696.262451,690.996887,684.613098,702.767273,705.892273,681.291504,692.949585,672.426697,703.999207,690.869629,698.953064,687.106079,691.379517,683.789795,701.646729,691.695007,683.879272,701.304871,692.924561,675.348022,695.567993,697.627258,693.609680,691.194153,701.151489,682.814819,691.438293,689.019348,690.765808,705.648804,700.333191,683.589294,693.959900,704.727722,
avg. throughput in all test times
690.234619
avg. BS TX power in all test times
MBS area 1,MBS area 2,MBS area 3,CBSD 1,CBSD 2,CBSD 3,CBSD 4,CBSD 5,CBSD 6,
8.350,8.900,8.863,0.211,0.252,0.252,0.330,0.285,0.271,
avg. mbs all power,avg. cbsd enable number,avg. mbs area all power,avg. cbsd all power
42.013,2.000,26.112,1.602
avg. max avg. throughput generation number in all test times
0.870000
avg. number of relay UE
23

the max average throughput times

BS TX power
MBS area 1,MBS area 2,MBS area 3,CBSD 1,CBSD 2,CBSD 3,CBSD 4,CBSD 5,CBSD 6,
7.500,10.000,10.000,0.000,0.000,0.000,0.000,0.750,0.625,
max average throughput
704.727722

x,y,area,be blocked (1 : NLOS / 0 : LOS),be blocked number (>=1 : CBSD(x) / 0 : no),connect bs number (>=1 : CBSD / 0 : MBS),throughput (unit : M bps)
1783,223,1,0,0,0,677.013855
752,-635,2,1,0,6,333.590698
-685,-745,3,1,0,6,198.685501
393,1320,1,0,0,0,753.207581
1556,-1500,2,1,0,6,202.314957
-1545,208,3,0,0,0,758.928772
586,234,1,0,0,0,977.812012
856,-457,2,0,0,0,895.265442
-584,-498,3,0,0,0,962.824158
510,645,1,0,0,0,901.529846
1670,-95,2,0,0,0,738.719177
-1878,-1881,3,0,0,0,606.393433
102,1468,1,0,0,0,734.213379
1987,-163,2,0,0,0,688.430908
-1719,-1329,3,1,0,6,113.959862
1863,1037,1,0,0,0,628.188538
1295,-1381,2,0,0,0,703.232300
-107,-1044,3,0,0,0,872.699402
852,739,1,0,0,0,810.598755
616,-563,2,0,0,0,938.701965
-1858,1925,3,1,0,5,178.798157
1485,592,1,0,0,0,710.467773
827,-1248,2,0,0,0,770.541077
-837,670,3,0,0,0,866.549500
363,1551,1,0,0,0,711.497864
156,-1256,2,0,0,0,818.810120
-1147,-1392,3,0,0,0,717.105835
554,1901,1,0,0,0,649.285828
1253,-874,2,0,0,0,764.738342
-1713,1267,3,1,0,5,233.706818
25,1958,1,1,0,6,258.823364
1141,-392,2,0,0,0,832.584900
-1326,-1062,3,1,0,6,140.999466
1258,396,1,0,0,0,765.646179
633,-331,2,0,0,0,983.520752
-463,1754,3,0,0,0,715.458923
1696,1735,1,0,0,0,591.453796
645,-1376,2,0,0,0,766.252502
-508,1822,3,0,0,0,703.489563
1107,1189,1,0,0,0,705.864502
774,-1139,2,0,0,0,794.550720
-1965,1006,3,0,0,0,659.303772
876,1501,1,1,0,6,421.330505
1482,-196,2,0,0,0,770.970581
-191,1114,3,1,0,5,320.635376
44,1071,1,0,0,0,825.225464
491,-1709,2,0,0,0,721.193848
-1068,-1935,3,0,0,0,658.964661
1471,671,1,0,0,0,707.232422
14,-483,2,0,0,0,1096.222534
-117,-144,3,0,0,0,1372.341064
748,1345,1,1,0,6,457.854553
531,-634,2,0,0,0,941.312866
-554,766,3,0,0,0,902.785278
343,364,1,1,0,6,478.863953
1648,-1203,2,0,0,0,681.808472
-17,-85,3,1,0,0,822.392761
1965,113,1,1,0,6,388.077972
990,-128,2,1,0,6,484.483490
-1312,921,3,0,0,0,750.930969
1243,565,1,0,0,6,857.093323
838,-1785,2,0,0,0,691.570129
-756,1115,3,1,0,5,573.760132
1450,441,1,0,0,0,725.758789
1219,-1127,2,0,0,0,740.879578
-191,1204,3,0,0,0,829.597351
965,728,1,1,0,6,926.770020
171,-1700,2,0,0,0,732.632874
-1367,1438,3,0,0,0,689.812561
495,385,1,0,0,0,979.597290
1116,-1679,2,0,0,0,685.236694
-157,-572,3,1,0,6,261.601685
905,521,1,0,0,6,906.218933
1609,-1336,2,1,0,6,218.231400
-258,1419,3,0,0,0,781.266418
497,362,1,0,0,0,985.276733
1220,-357,2,0,0,0,817.560913
-1591,-951,3,0,0,0,709.291565
1774,659,1,1,0,6,486.041046
1031,-1736,2,0,0,0,684.809570
-567,-24,3,1,0,6,254.264847
998,-593,2,0,0,0,843.662476
-310,799,3,0,0,0,931.034180
-1147,-1793,3,0,0,0,669.721802
-1707,-1902,3,1,0,6,98.307846
-664,1559,3,1,0,5,321.996307
-32,253,3,0,0,0,1280.579102
-1853,297,3,0,0,0,705.745544
-1251,-1575,3,0,0,0,685.902283
-296,-867,3,0,0,0,911.823486
-600,-515,3,0,0,0,954.239319
-929,1276,3,0,0,0,755.375244
-1178,513,3,0,0,0,814.479919
-777,-800,3,0,0,0,855.208191
-202,628,3,0,0,0,1006.454163
-227,-1759,3,0,0,0,721.927917
-41,968,3,0,0,0,895.706604
-272,173,3,0,0,0,1212.977783
-924,-1422,3,0,0,0,734.779358
-151,952,3,0,0,0,897.186768


each generation good chromosome number
8,9,10,