585.713318,585.713318,585.713318,585.713318,585.713318,585.713318,585.713318,585.713318,585.713318,585.713318,585.713318,585.713318,585.713318,585.713318,585.713318,585.713318,585.713318,585.713318,585.713318,585.713318,585.713318,585.713318,585.713318,585.713318,585.713318,585.713318,585.713318,585.713318,585.713318,585.713318,585.713318,585.713318,585.713318,585.713318,585.713318,585.713318,585.713318,585.713318,585.713318,585.713318,585.713318,585.713318,585.713318,585.713318,585.713318,585.713318,585.713318,585.713318,585.713318,585.713318,585.713318,585.713318,585.713318,585.713318,585.713318,585.713318,585.713318,585.713318,585.713318,585.713318,585.713318,585.713318,585.713318,585.713318,585.713318,585.713318,585.713318,585.713318,585.713318,585.713318,585.713318,585.713318,585.713318,585.713318,585.713318,585.713318,585.713318,585.713318,585.713318,585.713318,585.713318,585.713318,585.713318,585.713318,585.713318,585.713318,585.713318,585.713318,585.713318,585.713318,585.713318,585.713318,585.713318,585.713318,585.713318,585.713318,585.713318,585.713318,585.713318,585.713318,

avg. max avg. throughput in test times
585.713806
avg. BS TX power in all test times
MBS area 1,MBS area 2,MBS area 3,CBSD 1,CBSD 2,CBSD 3,CBSD 4,CBSD 5,CBSD 6,
10.000,10.000,10.000,0.000,0.000,0.000,1.000,0.000,1.000,
avg. mbs all power,avg. cbsd enable number,avg. mbs area all power,avg. cbsd all power
45.000,2.000,30.000,2.000
avg. number of relay UE
48

BS TX power
MBS area 1,MBS area 2,MBS area 3,CBSD 1,CBSD 2,CBSD 3,CBSD 4,CBSD 5,CBSD 6,
10.000,10.000,10.000,0.000,0.000,0.000,1.000,0.000,1.000,
max average power
670.233765

x,y,area,be blocked (1 : NLOS / 0 : LOS),be blocked number (>=1 : CBSD(x) / 0 : no),connect bs number (>=1 : CBSD / 0 : MBS),throughput (unit : M bps)
1783,223,1,0,0,6,271.044403
752,-635,2,1,0,6,271.044403
-685,-745,3,1,0,4,583.419739
393,1320,1,0,0,0,794.516418
1556,-1500,2,1,0,6,271.044403
-1545,208,3,0,0,0,758.928772
586,234,1,0,0,0,1019.274536
856,-457,2,0,0,0,895.265442
-584,-498,3,0,0,0,962.824158
510,645,1,0,0,0,942.963684
1670,-95,2,0,0,0,738.719177
-1878,-1881,3,0,0,4,189.576935
102,1468,1,0,0,0,775.494751
1987,-163,2,0,0,6,271.044403
-1719,-1329,3,1,0,4,241.695160
1863,1037,1,0,0,6,271.044403
1295,-1381,2,0,0,6,271.044403
-107,-1044,3,0,0,0,872.699402
852,739,1,0,0,6,271.044403
616,-563,2,0,0,0,938.701965
-1858,1925,3,1,0,6,271.044403
1485,592,1,0,0,0,751.709045
827,-1248,2,0,0,0,770.541077
-837,670,3,0,0,0,866.549500
363,1551,1,0,0,0,752.741211
156,-1256,2,0,0,0,818.810120
-1147,-1392,3,0,0,4,315.503235
554,1901,1,0,0,6,271.044403
1253,-874,2,0,0,0,764.738342
-1713,1267,3,1,0,6,271.044403
25,1958,1,1,0,6,271.044403
1141,-392,2,0,0,0,832.584900
-1326,-1062,3,1,0,4,329.684723
1258,396,1,0,0,0,806.971130
633,-331,2,0,0,0,983.520752
-463,1754,3,0,0,6,271.044403
1696,1735,1,0,0,6,271.044403
645,-1376,2,0,0,0,766.252502
-508,1822,3,0,0,6,271.044403
1107,1189,1,0,0,0,747.097534
774,-1139,2,0,0,0,794.550720
-1965,1006,3,0,0,6,271.044403
876,1501,1,1,0,6,271.044403
1482,-196,2,0,0,0,770.970581
-191,1114,3,1,0,6,271.044403
44,1071,1,0,0,0,866.610962
491,-1709,2,0,0,6,271.044403
-1068,-1935,3,0,0,4,234.821609
1471,671,1,0,0,0,748.467773
14,-483,2,0,0,0,1096.222534
-117,-144,3,0,0,0,1372.341064
748,1345,1,1,0,6,271.044403
531,-634,2,0,0,0,941.312866
-554,766,3,0,0,0,902.785278
343,364,1,1,0,6,271.044403
1648,-1203,2,0,0,6,271.044403
-17,-85,3,1,0,0,822.392761
1965,113,1,1,0,6,271.044403
990,-128,2,1,0,6,271.044403
-1312,921,3,0,0,0,750.930969
1243,565,1,0,0,6,271.044403
838,-1785,2,0,0,6,271.044403
-756,1115,3,1,0,6,271.044403
1450,441,1,0,0,0,767.026428
1219,-1127,2,0,0,0,740.879578
-191,1204,3,0,0,0,829.597351
965,728,1,1,0,6,271.044403
171,-1700,2,0,0,0,732.632874
-1367,1438,3,0,0,6,271.044403
495,385,1,0,0,0,1021.060242
1116,-1679,2,0,0,6,271.044403
-157,-572,3,1,0,4,319.499969
905,521,1,0,0,6,271.044403
1609,-1336,2,1,0,6,271.044403
-258,1419,3,0,0,0,781.266418
497,362,1,0,0,0,1026.741577
1220,-357,2,0,0,0,817.560913
-1591,-951,3,0,0,4,279.331055
1774,659,1,1,0,6,271.044403
1031,-1736,2,0,0,6,271.044403
-567,-24,3,1,0,6,271.044403
998,-593,2,0,0,0,843.662476
-310,799,3,0,0,0,931.034180
-1147,-1793,3,0,0,4,250.122620
-1707,-1902,3,1,0,4,200.221008
-664,1559,3,1,0,6,271.044403
-32,253,3,0,0,0,1280.579102
-1853,297,3,0,0,4,183.638245
-1251,-1575,3,0,0,4,273.182312
-296,-867,3,0,0,0,911.823486
-600,-515,3,0,0,0,954.239319
-929,1276,3,0,0,0,755.375244
-1178,513,3,0,0,0,814.479919
-777,-800,3,0,0,0,855.208191
-202,628,3,0,0,0,1006.454163
-227,-1759,3,0,0,4,246.332596
-41,968,3,0,0,0,895.706604
-272,173,3,0,0,0,1212.977783
-924,-1422,3,0,0,0,734.779358
-151,952,3,0,0,0,897.186768
