Algorithm result
CBSD number,Modified GA,,,DP,,,HA,,,BARSPAA,,ES
5,10.975033,0.04,0.0,10.975033,0.0,0.0,190.83223,0.42,0.0,395.312469,457.0,662.646973
6,10.916089,0.0,0.0,27.18211,0.02,0.0,191.295197,0.29,0.0,393.429718,459.0,670.798889
7,0.0,0.0,0.0,0.0,0.0,0.0,191.044205,0.44,0.0,533.168213,230.0,670.798889
8,0.0,0.0,0.0,0.0,0.0,0.0,196.663879,0.38,0.0,395.312469,457.0,672.201233
9,0.0,0.0,0.0,0.0,0.0,0.0,201.79808,0.37,0.0,406.877197,438.0,672.201233
10,0.0,0.0,0.0,0.0,0.0,0.0,218.301056,0.42,0.0,384.248749,473.0,672.201233
""
BS power
CBSD number,Modified GA,,,,DP,,,,HA,,,,BARSPAA,,,
5,10.5,0.0,10.5,0,13.5,0.0,13.5,0,48.425,0.0,48.425,0,47.5,1.0,40.0,1.0
6,34.862,0.0,34.862,0,42.525,0.0,42.525,0,49.213,0.0,49.213,0,47.5,1.0,40.0,1.0
7,0.0,0.0,0.0,0,0.0,0.0,0.0,0,48.312,0.0,48.312,0,47.5,1.0,40.0,1.0
8,0.0,0.0,0.0,0,0.0,0.0,0.0,0,48.737,0.0,48.737,0,47.5,1.0,40.0,1.0
9,0.0,0.0,0.0,0,0.0,0.0,0.0,0,48.35,0.0,48.35,0,47.5,1.0,40.0,1.0
10,0.0,0.0,0.0,0,0.0,0.0,0.0,0,48.7,0.0,48.7,0,47.5,1.0,40.0,1.0
