each times' max average throughput
587.286255,591.581543,580.145935,590.400085,594.906860,594.092957,588.369263,588.061584,590.422180,594.268555,590.424683,588.763367,598.172180,599.147827,587.942017,595.828308,594.347412,589.140259,591.456970,586.547119,596.632751,597.623413,597.683655,592.622803,595.182251,585.676636,588.255920,589.950562,590.314575,588.138428,602.771851,593.566528,598.586548,596.219849,601.019958,592.574463,596.789612,587.463440,598.171570,595.007263,598.365112,583.098999,592.896179,592.664062,584.117004,587.687683,591.480774,590.599670,593.304016,593.642395,601.582642,598.896851,593.257324,601.315308,588.564697,597.610718,601.300049,596.282776,599.760681,601.592102,595.737427,582.963928,599.569397,596.666687,591.407227,585.493713,586.137695,596.875427,600.850525,592.490784,594.358032,591.477051,585.439758,594.510498,594.827026,591.359314,586.565857,592.103149,596.771973,589.004883,581.970215,597.330811,578.422668,593.663147,595.875854,584.446655,579.076294,579.170715,594.037354,596.339966,582.078796,602.351562,591.608887,592.848633,597.069336,578.139404,590.718079,597.357666,590.150513,562.616760,
avg. throughput in all test times
592.034790
avg. BS TX power in all test times
MBS area 1,MBS area 2,MBS area 3,MBS area 4,CBSD 1,CBSD 2,CBSD 3,CBSD 4,CBSD 5,
8.087,8.288,8.250,8.038,0.244,0.343,0.351,0.389,0.192,
avg. mbs all power,avg. cbsd enable number,avg. mbs area all power,avg. cbsd all power
48.112,2.000,32.662,1.519
avg. max avg. throughput generation number in all test times
0.850000
avg. number of relay UE
237

the max average throughput times

BS TX power
MBS area 1,MBS area 2,MBS area 3,MBS area 4,CBSD 1,CBSD 2,CBSD 3,CBSD 4,CBSD 5,
7.500,5.000,5.000,5.000,0.000,0.625,0.000,0.750,1.000,
max average throughput
562.616760

x,y,area,be blocked (1 : NLOS / 0 : LOS),be blocked number (>=1 : CBSD(x) / 0 : no),connect bs number (>=1 : CBSD / 0 : MBS),throughput (unit : M bps)
174,657,1,0,0,0,956.404175
-535,1043,2,0,0,0,741.293518
-1883,-1058,3,1,0,4,126.099686
229,-1843,4,0,0,0,609.790588
488,1434,1,0,0,0,725.913391
-1029,807,2,0,0,0,709.939148
-1905,-621,3,1,0,4,126.099686
278,-1087,4,0,0,0,753.857422
1994,522,1,1,0,2,96.148895
-277,1776,2,0,0,0,619.085083
-1128,-1204,3,0,0,0,643.500854
529,-1153,4,0,0,0,718.645447
1168,862,1,0,0,0,738.117310
-1007,1853,2,0,0,0,573.716248
-161,-1384,3,0,0,0,691.780518
441,-1970,4,0,0,0,586.100769
1386,1829,1,0,0,0,607.268738
-962,284,2,0,0,0,786.035278
-1523,-54,3,0,0,0,666.158264
804,-1814,4,0,0,0,590.999878
1472,992,1,0,0,0,680.508850
-578,583,2,1,0,5,158.856644
-1054,-1547,3,1,0,4,126.099686
532,-457,4,0,0,0,888.959167
1580,1441,1,1,0,2,96.148895
-27,212,2,0,0,0,1231.570312
-451,-136,3,0,0,0,1003.631714
1274,-616,4,0,0,0,687.343567
1216,731,1,0,0,0,744.680298
-1416,292,2,0,0,0,681.207642
-1666,-1865,3,0,0,0,525.642212
1651,-15,4,0,0,0,643.290161
1770,649,1,0,0,0,663.299316
-1880,1695,2,0,0,0,522.233337
-639,-1689,3,0,0,0,617.764038
1231,-1679,4,0,0,0,577.368652
1262,1003,1,0,0,0,708.080200
-1666,93,2,1,0,5,158.856644
-2000,-977,3,0,0,0,558.453918
551,-553,4,1,0,2,96.148895
427,909,1,0,0,0,843.966003
-1495,1053,2,0,0,0,614.197510
-1661,-1382,3,0,0,0,566.848816
942,-1211,4,1,0,2,96.148895
444,84,1,0,0,0,1074.071167
-836,1891,2,0,0,0,579.330811
-571,-1132,3,0,0,0,718.804504
1599,-552,4,0,0,0,636.375549
1643,430,1,0,0,0,693.148865
-142,1619,2,0,0,0,647.791870
-279,-66,3,0,0,0,1146.818237
1819,-375,4,0,0,0,609.778564
1439,1545,1,1,0,2,96.148895
-1971,1109,2,0,0,0,553.960205
-1539,-243,3,0,0,0,659.835754
1763,-470,4,1,0,2,96.148895
1910,613,1,0,0,0,645.581543
-1215,107,2,0,0,0,729.903564
-716,-1587,3,0,0,0,628.166748
634,-362,4,0,0,0,877.399719
1718,1546,1,0,0,0,605.248596
-25,1880,2,1,0,2,96.148895
-1972,-1707,3,0,0,0,513.836731
1694,-1634,4,0,0,0,542.705200
1191,1937,1,0,0,0,609.878235
-909,1048,2,0,0,0,693.023438
-1661,-642,3,1,0,4,126.099686
387,-1645,4,0,0,0,636.660217
215,629,1,0,0,0,962.800903
-1907,396,2,1,0,5,158.856644
-1032,-516,3,1,0,4,126.099686
1754,-1489,4,0,0,0,549.108276
1123,1107,1,0,0,0,714.394104
-1092,1356,2,0,0,0,628.168030
-497,-870,3,0,0,0,786.348450
1908,-1604,4,1,0,2,96.148895
149,331,1,0,0,0,1137.240356
-1089,764,2,1,0,5,158.856644
-1770,-1090,3,0,0,0,577.807312
1569,-561,4,0,0,0,640.675110
974,729,1,0,0,0,788.825928
-1417,1488,2,1,0,5,158.856644
-1298,-982,3,0,0,0,647.371155
1792,-1028,4,0,0,0,579.553772
1292,1173,1,0,0,0,685.385925
-1369,1746,2,0,0,0,559.365173
-293,-1758,3,1,0,4,126.099686
1154,-1973,4,0,0,0,550.964600
945,1239,1,0,0,0,717.800781
-997,359,2,1,0,5,158.856644
-1663,-701,3,0,0,0,617.941772
596,-585,4,1,0,2,96.148895
578,900,1,0,0,0,825.839294
-578,1427,2,1,0,5,158.856644
-298,-530,3,0,0,0,930.075195
1145,-1966,4,1,0,4,126.099686
335,1465,1,0,0,0,728.183594
-433,1859,2,0,0,0,602.003540
-1147,-1299,3,0,0,0,629.498596
1539,-1464,4,0,0,0,571.688965
1820,42,1,0,0,0,673.285156
-1378,118,2,1,0,5,158.856644
-102,-537,3,0,0,0,960.763245
1074,-606,4,0,0,0,726.755127
1104,1081,1,1,0,2,96.148895
-1278,1156,2,1,0,5,158.856644
-585,-1735,3,0,0,0,613.831726
867,-1474,4,0,0,0,633.279236
560,840,1,0,0,0,842.463440
-884,819,2,0,0,0,733.362000
-118,-1101,3,0,0,0,757.637634
1331,-1820,4,0,0,0,554.811890
552,550,1,0,0,0,917.012146
-609,1865,2,1,0,5,158.856644
-65,-1910,3,1,0,4,126.099686
127,-1783,4,1,0,4,126.099686
1999,280,1,0,0,0,643.801697
-1757,1413,2,1,0,5,158.856644
-1120,-1381,3,0,0,0,622.172974
1050,-1796,4,1,0,4,126.099686
191,1495,1,0,0,0,727.357178
-629,385,2,0,0,0,874.494873
-600,-1815,3,0,0,0,601.580811
1224,-1242,4,0,0,0,627.720459
1046,1119,1,1,0,2,96.148895
-1712,1852,2,0,0,0,523.257568
-1064,-389,3,1,0,4,126.099686
46,-934,4,0,0,0,806.182861
341,825,1,1,0,2,96.148895
-85,1216,2,0,0,0,730.076599
-1801,-8,3,0,0,0,618.524170
11,-1432,4,0,0,0,683.941040
340,1706,1,0,0,0,686.288452
-1317,318,2,1,0,5,158.856644
-541,-341,3,0,0,0,915.539673
1077,-1177,4,0,0,0,653.078125
738,1950,1,0,0,0,634.565063
-678,616,2,0,0,0,812.111145
-557,-1056,3,0,0,0,736.036011
1680,-748,4,0,0,0,612.587585
1530,1716,1,0,0,0,606.748413
-508,28,2,1,0,5,158.856644
-1193,-1247,3,0,0,0,630.677673
111,-144,4,0,0,0,1278.201050
1431,590,1,0,0,0,719.718750
-915,37,2,1,0,5,158.856644
-197,-1685,3,1,0,4,126.099686
1515,-1673,4,0,0,0,554.529114
292,528,1,1,0,2,96.148895
-376,1349,2,1,0,5,158.856644
-664,-609,3,0,0,0,816.877197
552,-1611,4,0,0,0,634.469971
784,1815,1,0,0,0,649.717407
-705,477,2,1,0,5,158.856644
-125,-1211,3,0,0,0,730.437195
39,-47,4,0,0,0,1592.953491
1197,747,1,0,0,0,746.270935
-1170,1643,2,0,0,0,586.345642
-1236,-1158,3,0,0,0,636.019531
1448,-941,4,1,0,2,96.148895
1384,180,1,0,0,0,749.400513
-481,1527,2,0,0,0,652.081848
-1345,-828,3,0,0,0,655.946716
1019,-1889,4,0,0,0,568.744568
1357,1565,1,1,0,2,96.148895
-1386,1369,2,1,0,5,158.856644
-1534,-424,3,0,0,0,653.770813
1469,-350,4,0,0,0,668.764282
332,908,1,1,0,2,96.148895
-668,14,2,0,0,0,902.919556
-686,-532,3,0,0,0,827.565735
1240,-1999,4,0,0,0,542.857727
122,1643,1,0,0,0,701.844238
-697,1176,2,0,0,0,697.233826
-1709,-266,3,1,0,4,126.099686
109,-1721,4,1,0,4,126.099686
915,808,1,0,0,0,787.861389
-1508,1064,2,0,0,0,611.571411
-171,-1989,3,0,0,0,589.268188
1360,-1098,4,0,0,0,627.044739
161,721,1,0,0,0,932.377869
-1858,21,2,1,0,5,158.856644
-1644,-1429,3,0,0,0,564.567322
1954,-504,4,0,0,0,586.213867
1619,855,1,0,0,0,671.654846
-1720,1704,2,0,0,0,534.738403
-1290,-259,3,0,0,0,708.183594
959,-1682,4,0,0,0,597.952148
354,912,1,0,0,0,851.513611
-1356,1705,2,1,0,5,158.856644
-1855,-369,3,0,0,0,604.608032
1199,-1755,4,1,0,2,96.148895
116,332,1,0,0,0,1146.369629
-515,1157,2,1,0,5,158.856644
-1125,-618,3,0,0,0,715.275696
1066,-1998,4,0,0,0,553.584229
1557,1517,1,0,0,0,622.677856
-427,255,2,0,0,0,987.978821
-1373,-1700,3,0,0,0,563.665771
746,-667,4,0,0,0,786.707092
445,827,1,0,0,0,863.273315
-97,446,2,0,0,0,1012.728699
-1595,-1327,3,1,0,4,126.099686
718,-1672,4,0,0,0,615.596558
521,71,1,0,0,0,1030.375000
-149,882,2,0,0,0,818.955566
-1224,-1881,3,1,0,4,126.099686
1147,-1409,4,0,0,0,616.036133
273,1974,1,0,0,0,647.460327
-523,106,2,1,0,5,158.856644
-945,-1219,3,0,0,0,662.722534
410,-748,4,0,0,0,832.617981
167,68,1,0,0,0,1339.083984
-476,589,2,1,0,5,158.856644
-1936,-1223,3,0,0,0,550.442139
1058,-588,4,1,0,2,96.148895
642,1541,1,0,0,0,698.070312
-615,631,2,0,0,0,823.286194
-1954,-1792,3,0,0,0,509.242432
1955,-612,4,0,0,0,581.946899
783,1235,1,0,0,0,736.019958
-613,383,2,1,0,5,158.856644
-1800,-651,3,1,0,4,126.099686
853,-1626,4,0,0,0,613.026489
918,114,1,0,0,0,867.618713
-1047,488,2,0,0,0,745.501038
-88,-1268,3,0,0,0,718.083923
1187,-334,4,0,0,0,726.772766
164,1313,1,0,0,0,764.701538
-124,1767,2,0,0,0,623.252747
-146,-1257,3,0,0,0,719.349243
1100,-1600,4,0,0,0,597.151550
567,541,1,0,0,0,915.369141
-1494,1500,2,0,0,0,572.626343
-607,-1469,3,0,0,0,654.138916
1632,-1999,4,0,0,0,516.819641
1485,1412,1,0,0,0,639.507568
-367,92,2,0,0,0,1066.816162
-1338,-1762,3,1,0,4,126.099686
1815,-254,4,0,0,0,613.564880
1587,647,1,0,0,0,690.551941
-1283,1384,2,0,0,0,605.230591
-1055,-1148,3,0,0,0,659.638367
882,-90,4,0,0,0,821.512207
691,672,1,0,0,0,855.784729
-26,1704,2,0,0,0,634.260437
-149,-1928,3,0,0,0,598.309387
669,-1415,4,0,0,0,658.535034
1954,1123,1,0,0,0,612.408447
-691,1525,2,0,0,0,639.314453
-236,-281,3,1,0,4,126.099686
1301,-1212,4,0,0,0,622.173462
1348,241,1,1,0,2,96.148895
-198,1870,2,0,0,0,606.249390
-422,-1726,3,0,0,0,622.371277
1488,-302,4,1,0,2,96.148895
784,1024,1,0,0,0,772.073120
-1079,389,2,0,0,0,747.535522
-1920,-1551,3,1,0,4,126.099686
638,-1798,4,0,0,0,602.140747
1513,749,1,1,0,2,96.148895
-1413,882,2,1,0,5,158.856644
-1019,-1214,3,0,0,0,654.946228
28,-1037,4,1,0,4,126.099686
1812,812,1,0,0,0,648.488342
-518,396,2,1,0,5,158.856644
-282,-1073,3,0,0,0,757.085510
904,-657,4,1,0,2,96.148895
118,786,1,0,0,0,911.311646
-422,1943,2,0,0,0,590.413025
-1704,-240,3,0,0,0,631.494995
1306,-552,4,0,0,0,686.786987
324,521,1,0,0,0,985.901550
-384,1476,2,1,0,5,158.856644
-551,-648,3,1,0,4,126.099686
1283,-1723,4,0,0,0,568.495056
144,1756,1,0,0,0,682.637939
-1275,1528,2,0,0,0,590.159302
-317,-945,3,1,0,4,126.099686
1164,-1921,4,0,0,0,555.894348
401,1480,1,0,0,0,722.415283
-1950,834,2,0,0,0,572.121338
-392,-1102,3,1,0,4,126.099686
175,-881,4,1,0,4,126.099686
1665,849,1,1,0,2,96.148895
-463,1741,2,0,0,0,618.445923
-592,-522,3,0,0,0,854.957703
1301,-1047,4,0,0,0,640.043518
154,1728,1,0,0,0,687.062866
-135,1169,2,0,0,0,740.179688
-262,-905,3,0,0,0,804.030151
1282,-94,4,0,0,0,714.857910
87,1427,1,0,0,0,742.496155
-541,1850,2,0,0,0,599.231323
-1830,-483,3,0,0,0,604.409363
506,-731,4,1,0,2,96.148895
1582,424,1,0,0,0,703.532837
-581,1203,2,1,0,5,158.856644
-1966,-1738,3,0,0,0,512.133484
112,-1410,4,1,0,4,126.099686
579,1219,1,0,0,0,759.048218
-1179,1092,2,1,0,5,158.856644
-1875,-1197,3,0,0,0,558.627625
190,-1325,4,0,0,0,703.261719
1040,802,1,0,0,0,766.854187
-375,1282,2,1,0,5,158.856644
-224,-1684,3,0,0,0,635.159363
384,-792,4,0,0,0,823.595154
356,1164,1,0,0,0,788.679016
-231,488,2,0,0,0,964.311768
-279,-769,3,0,0,0,844.653137
1938,-1501,4,0,0,0,531.258118
1477,1009,1,0,0,0,678.313232
-423,1458,2,0,0,0,667.254150
-1278,-123,3,0,0,0,715.200684
263,-426,4,0,0,0,986.073975
1732,1216,1,1,0,2,96.148895
-961,1336,2,0,0,0,644.214355
-1730,-1187,3,0,0,0,575.181213
669,-969,4,0,0,0,740.000061
801,735,1,0,0,0,821.172241
-883,970,2,0,0,0,709.062622
-1983,-1655,3,1,0,4,126.099686
182,-1365,4,0,0,0,695.138550
877,1962,1,0,0,0,625.937561
-1679,548,2,0,0,0,624.086487
-821,-1631,3,1,0,4,126.099686
1854,-1953,4,0,0,0,504.887543
1551,1234,1,0,0,0,649.008118
-1167,1437,2,0,0,0,610.709900
-1840,-846,3,1,0,4,126.099686
1490,-958,4,1,0,2,96.148895
1056,1845,1,0,0,0,629.036194
-571,485,2,0,0,0,869.962158
-280,-1727,3,0,0,0,626.778076
1033,-534,4,0,0,0,743.590454
695,769,1,0,0,0,834.878784
-1094,1578,2,1,0,5,158.856644
-496,-1962,3,0,0,0,585.403870
254,-779,4,0,0,0,844.190674
1546,1111,1,0,0,0,660.500732
-1132,719,2,0,0,0,702.730530
-92,-1732,3,1,0,4,126.099686
1387,-1202,4,0,0,0,613.149414
24,303,1,1,0,2,96.148895
-1882,985,2,0,0,0,571.678528
-505,-1770,3,0,0,0,612.334778
213,-12,4,1,0,0,345.872528
1791,721,1,0,0,0,656.496887
-84,1119,2,1,0,2,96.148895
-955,-1778,3,0,0,0,586.172729
547,-1815,4,0,0,0,603.964111
1778,1414,1,0,0,0,610.146973
-233,1408,2,1,0,5,158.856644
-1533,-285,3,0,0,0,659.615784
1513,-1246,4,0,0,0,594.477844
242,1619,1,0,0,0,703.681213
-226,923,2,0,0,0,801.568298
-347,-753,3,1,0,4,126.099686
1517,-665,4,0,0,0,642.378357
877,756,1,0,0,0,803.044495
-1212,1770,2,0,0,0,568.893188
-1733,-1417,3,0,0,0,556.847961
709,-1498,4,1,0,4,126.099686
641,895,1,1,0,2,96.148895
-1209,320,2,0,0,0,722.724976
-492,-909,3,0,0,0,777.413269
760,-705,4,0,0,0,776.571411
1460,130,1,0,0,0,735.338806
-1361,554,2,0,0,0,676.570129
-341,-1109,3,0,0,0,744.237061
1334,-1937,4,0,0,0,542.910706
1948,1030,1,0,0,0,618.813599
-759,1898,2,0,0,0,582.559082
-527,-1370,3,0,0,0,676.875488
1754,-33,4,0,0,0,626.004395
561,103,1,0,0,0,1006.923340
-711,356,2,0,0,0,852.823364
-1382,-1835,3,1,0,4,126.099686
1163,-1907,4,0,0,0,557.468262
1878,1272,1,1,0,2,96.148895
-742,757,2,0,0,0,770.170532
-236,-1787,3,0,0,0,618.287720
1297,-1717,4,0,0,0,568.021423
1199,1337,1,0,0,0,677.175598
-1676,1503,2,0,0,0,555.256348
-27,-583,3,0,0,0,941.878784
97,-61,4,1,0,0,603.346619
609,1332,1,0,0,0,735.565491
-1389,860,2,0,0,0,646.309448
-1289,-257,3,0,0,0,708.482727
1115,-1344,4,0,0,0,627.307922
1983,1672,1,1,0,2,96.148895
-1739,1512,2,0,0,0,548.666199
-682,-1645,3,0,0,0,621.741882
1073,-611,4,0,0,0,726.384460
210,991,1,0,0,0,841.481384
-461,1265,2,0,0,0,701.591797
-494,-689,3,0,0,0,834.377502
521,-1155,4,0,0,0,718.982727
81,1393,1,0,0,0,749.463013
-70,513,2,0,0,0,976.388794
-801,-1528,3,0,0,0,630.767212
610,-1162,4,0,0,0,708.916687
404,1340,1,1,0,2,96.148895
-666,129,2,1,0,5,158.856644
-1806,-533,3,0,0,0,605.863159
1165,-809,4,0,0,0,686.689758
89,758,1,0,0,0,922.997864
-1151,645,2,0,0,0,707.388123
-1711,-1340,3,0,0,0,565.214172
1485,-1260,4,0,0,0,596.294617
1873,1993,1,0,0,0,557.537231
-658,607,2,0,0,0,818.724487
-1230,-1416,3,0,0,0,606.980591
1889,-37,4,0,0,0,604.906067
502,1528,1,0,0,0,708.735291
-1963,432,2,0,0,0,587.337280
-716,-401,3,0,0,0,843.741333
1391,-545,4,0,0,0,671.839417
1946,638,1,0,0,0,639.677856
-1656,1784,2,1,0,5,158.856644
-1339,-1628,3,0,0,0,573.854797
1019,-935,4,0,0,0,693.918335
154,242,1,0,0,0,1205.152222
-1405,1691,2,0,0,0,561.948425
-1229,-468,3,0,0,0,708.325745
1558,-1479,4,0,0,0,568.495300
1008,1690,1,1,0,2,96.148895
-1861,605,2,1,0,5,158.856644
-831,-1782,3,1,0,4,126.099686
937,-1336,4,0,0,0,646.633423
990,1470,1,1,0,2,96.148895
-76,1862,2,0,0,0,608.815857
-304,-274,3,1,0,4,126.099686
1924,-881,4,0,0,0,572.755859
838,1431,1,1,0,2,96.148895
-329,539,2,0,0,0,919.177368
-1051,-1515,3,0,0,0,611.836182
556,-1811,4,0,0,0,604.145020
1186,1413,1,0,0,0,669.498169
-890,67,2,1,0,5,158.856644
-1970,-1105,3,0,0,0,554.313843
1130,-86,4,0,0,0,750.986389
1957,139,1,1,0,2,96.148895
-1906,126,2,0,0,0,601.795410
-1787,-71,3,0,0,0,620.523560
313,-1148,4,0,0,0,736.996033
1126,148,1,0,0,0,808.605835
-548,356,2,0,0,0,909.310547
-847,-1494,3,0,0,0,632.062561
1101,-1851,4,0,0,0,567.774170
743,1915,1,1,0,2,96.148895
-1130,301,2,0,0,0,741.981140
-615,-142,3,0,0,0,919.312195
467,-502,4,1,0,2,96.148895
458,698,1,0,0,0,897.157898
-1293,609,2,0,0,0,684.501038
-1360,-998,3,1,0,4,126.099686
663,-214,4,1,0,2,96.148895
1142,1715,1,0,0,0,637.940491
-561,976,2,0,0,0,752.898254
-1853,-2,3,0,0,0,610.430176
551,-1061,4,1,0,4,126.099686
104,1325,1,0,0,0,763.430054
-1167,1265,2,0,0,0,631.451965
-940,-211,3,0,0,0,797.626038
1236,-1793,4,0,0,0,564.633911
779,1404,1,1,0,2,96.148895
-943,588,2,0,0,0,756.603455
-577,-613,3,0,0,0,836.404663
1889,-1951,4,1,0,2,96.148895
959,1651,1,0,0,0,659.673950
-268,655,2,0,0,0,886.355774
-1441,-165,3,0,0,0,680.295105
1607,-1398,4,1,0,2,96.148895
366,839,1,0,0,0,870.651672
-1268,173,2,1,0,5,158.856644
-448,-619,3,0,0,0,864.281006
517,-1185,4,0,0,0,713.207153
1488,946,1,0,0,0,682.417908
-1411,1133,2,0,0,0,617.173462
-905,-1962,3,0,0,0,566.860291
1307,-375,4,0,0,0,698.767090
1961,454,1,0,0,0,644.600403
-1866,1058,2,0,0,0,568.909363
-1474,-1942,3,0,0,0,532.783752
354,-27,4,0,0,0,1085.167603
229,1329,1,0,0,0,759.246948
-1327,1467,2,0,0,0,591.867004
-1899,-735,3,0,0,0,583.650635
915,-564,4,1,0,2,96.148895
521,794,1,0,0,0,860.058777
-856,706,2,0,0,0,757.048218
-1041,-780,3,0,0,0,711.455322
769,-106,4,0,0,0,859.736938
1020,399,1,1,0,2,96.148895
-1428,1049,2,1,0,5,158.856644
-762,-592,3,1,0,4,126.099686
1489,-747,4,0,0,0,640.744507
1808,1537,1,0,0,0,597.749390
-152,605,2,1,0,2,96.148895
-637,-1425,3,0,0,0,659.317810
643,-1581,4,0,0,0,633.833374
1443,77,1,0,0,0,739.422302
-1385,511,2,0,0,0,675.245300
-158,-387,3,0,0,0,1038.076294
39,-851,4,0,0,0,832.990662
102,1289,1,0,0,0,771.325012
-1214,651,2,0,0,0,695.044312
-513,-1503,3,0,0,0,654.378052
1094,-759,4,0,0,0,704.772583
1398,1999,1,1,0,2,96.148895
-1284,1007,2,0,0,0,646.641907
-1321,-1637,3,1,0,4,126.099686
858,-1100,4,1,0,2,96.148895
901,1587,1,0,0,0,672.587708
-186,955,2,0,0,0,794.790039
-946,-622,3,0,0,0,751.265381
1831,-1225,4,0,0,0,561.373901
1126,641,1,1,0,2,96.148895
-1481,1669,2,0,0,0,557.760071
-1996,-432,3,0,0,0,582.825256
365,-57,4,0,0,0,1073.705200
1072,391,1,0,0,0,807.243347
-142,1529,2,0,0,0,663.987793
-98,-1041,3,0,0,0,774.099426
796,-1899,4,0,0,0,580.494141
991,248,1,1,0,2,96.148895
-794,768,2,0,0,0,758.325928
-220,-635,3,1,0,4,126.099686
134,-1367,4,0,0,0,695.872681
1338,674,1,0,0,0,729.070496
-940,1821,2,0,0,0,581.843323
-823,-104,3,0,0,0,840.637878
1726,-1568,4,1,0,2,96.148895
845,607,1,0,0,0,833.799927
-203,151,2,1,0,0,280.578003
-945,-1829,3,0,0,0,580.545898
1292,-600,4,0,0,0,685.446960
1605,1635,1,0,0,0,607.728149
-1693,763,2,0,0,0,609.818298
-347,-1993,3,0,0,0,585.507996
692,-782,4,0,0,0,774.480347
913,416,1,0,0,0,844.249573
-395,1624,2,0,0,0,639.809082
-890,-1695,3,0,0,0,601.157898
1775,-194,4,0,0,0,620.975830
1465,1717,1,0,0,0,611.987305
-1067,1574,2,0,0,0,603.076111
-1923,-814,3,0,0,0,576.517517
200,-1123,4,0,0,0,749.118225
1733,1510,1,0,0,0,606.806885
-1519,1841,2,0,0,0,538.766968
-1179,-1671,3,0,0,0,582.430359
947,-426,4,0,0,0,776.083252
1352,1230,1,0,0,0,672.140869
-1457,1994,2,0,0,0,529.166870
-698,-1927,3,0,0,0,581.813171
1851,-1009,4,0,0,0,573.823669
842,1351,1,1,0,2,96.148895
-354,1749,2,1,0,5,158.856644
-1732,-882,3,1,0,4,126.099686
968,-114,4,0,0,0,794.275085
1497,1645,1,1,0,2,96.148895
-1751,1288,2,0,0,0,565.159485
-388,-391,3,1,0,4,126.099686
157,-1706,4,1,0,4,126.099686
1497,102,1,1,0,2,96.148895
-1501,166,2,0,0,0,668.758240
-1033,-508,3,1,0,4,126.099686
1772,-1704,4,1,0,2,96.148895
956,1836,1,1,0,2,96.148895
-488,1870,2,0,0,0,598.474243
-958,-664,3,0,0,0,742.911682
1349,-1705,4,0,0,0,565.103333
1606,1268,1,0,0,0,639.912781
-916,1305,2,0,0,0,653.256348
-1667,-1125,3,0,0,0,587.178833
125,-915,4,0,0,0,809.781555
1794,1925,1,0,0,0,568.457520
-247,1153,2,0,0,0,739.597656
-232,-939,3,0,0,0,796.481262
1715,-575,4,1,0,2,96.148895
1245,1901,1,0,0,0,610.060547
-160,583,2,0,0,0,931.726807
-833,-1277,3,1,0,4,126.099686
257,-1820,4,0,0,0,612.732971
721,1453,1,0,0,0,706.305725
-1892,1852,2,0,0,0,509.638031
-698,-636,3,1,0,4,126.099686
1642,-121,4,0,0,0,644.088562
192,17,1,0,0,0,1319.839844
-1104,1370,2,0,0,0,625.168945
-1048,-1744,3,0,0,0,583.876038
470,-252,4,0,0,0,967.865234
1385,266,1,0,0,0,746.402954
-1425,1573,2,0,0,0,571.904297
-850,-171,3,0,0,0,827.924683
1964,-302,4,0,0,0,590.586487
1054,738,1,0,0,0,772.737061
-329,391,2,0,0,0,980.172424
-1184,-1440,3,1,0,4,126.099686
1970,-1156,4,0,0,0,551.159485
912,731,1,0,0,0,800.343140
-761,1094,2,0,0,0,704.527100
-281,-770,3,0,0,0,844.082764
1602,-1601,4,0,0,0,553.550049
1295,211,1,0,0,0,767.125549
-1385,802,2,0,0,0,652.174377
-377,-506,3,0,0,0,919.393188
1791,-528,4,0,0,0,608.258545
382,1058,1,0,0,0,811.361877
-1311,1840,2,1,0,5,158.856644
-1052,-680,3,0,0,0,722.265503
422,-246,4,0,0,0,993.171509
1531,1594,1,1,0,2,96.148895
-647,103,2,0,0,0,908.577942
-138,-1913,3,0,0,0,600.636169
874,-1687,4,1,0,4,126.099686
1763,65,1,1,0,2,96.148895
-1531,1951,2,0,0,0,527.985474
-1769,-11,3,1,0,5,158.856644
432,-1289,4,0,0,0,698.823425
1918,1531,1,0,0,0,588.212769
-1908,1040,2,1,0,5,158.856644
-280,-629,3,0,0,0,894.275513
1651,-1226,4,0,0,0,580.860229
558,1754,1,1,0,2,96.148895
-1424,1919,2,1,0,5,158.856644
-1410,-1710,3,0,0,0,559.666016
1059,-561,4,0,0,0,734.951904
40,1521,1,0,0,0,724.636353
-1327,1671,2,0,0,0,570.397705
-1115,-1012,3,1,0,4,126.099686
858,-1555,4,0,0,0,622.505005
1981,1240,1,0,0,0,602.083862
-661,1929,2,1,0,5,158.856644
-1389,-188,3,0,0,0,690.074463
1380,-1295,4,0,0,0,604.439575
1560,159,1,0,0,0,715.998718
-432,1321,2,0,0,0,692.498108
-1130,-235,3,1,0,4,126.099686
77,-192,4,0,0,0,1240.965210
498,1331,1,0,0,0,744.214111
-1307,356,2,0,0,0,699.846313
-349,-1151,3,0,0,0,733.917419
1272,-1031,4,0,0,0,645.668213
27,1048,1,0,0,0,831.616516
-1545,706,2,1,0,5,158.856644
-1575,-1426,3,0,0,0,571.617371
1626,-1012,4,0,0,0,601.045837
575,301,1,0,0,0,969.694153
-1490,917,2,0,0,0,626.775330
-161,-393,3,1,0,4,126.099686
1478,-204,4,0,0,0,672.211670
671,1940,1,0,0,0,639.003723
-897,860,2,0,0,0,724.557556
-858,-1300,3,0,0,0,659.918518
0,-549,4,0,0,0,959.501465
1854,90,1,0,0,0,667.735229
-231,921,2,0,0,0,801.791748
-1591,-818,3,0,0,0,620.434814
10,-449,4,1,0,4,126.099686
1822,890,1,1,0,2,96.148895
-1517,268,2,0,0,0,663.075562
-1603,-1468,3,0,0,0,565.168945
1719,-1318,4,1,0,2,96.148895
554,1021,1,1,0,2,96.148895
-1263,1634,2,0,0,0,579.650818
-1940,-477,3,0,0,0,589.063110
729,-453,4,1,0,2,96.148895
742,785,1,1,0,2,96.148895
-193,1809,2,0,0,0,615.655762
-444,-879,3,0,0,0,791.317688
1072,-1863,4,0,0,0,568.337769
1921,269,1,0,0,0,655.159851
-932,470,2,1,0,5,158.856644
-1200,-749,3,0,0,0,687.453125
827,-1089,4,0,0,0,697.152344
1455,1788,1,0,0,0,605.986450
-254,979,2,0,0,0,783.648376
-1725,-1656,3,0,0,0,538.241028
1253,-513,4,0,0,0,699.987366
936,1215,1,0,0,0,722.346863
-1728,202,2,0,0,0,628.375427
-1677,-1865,3,0,0,0,524.818420
1310,-1068,4,0,0,0,636.613953
1025,1554,1,1,0,2,96.148895
-519,1746,2,0,0,0,615.306152
-763,-700,3,1,0,4,126.099686
1842,-772,4,0,0,0,589.140625
1193,645,1,0,0,0,757.630798
-382,1921,2,0,0,0,594.682068
-601,-1548,3,0,0,0,641.652954
200,-571,4,0,0,0,931.509399
512,1831,1,0,0,0,660.884460
-1457,1880,2,0,0,0,539.744263
-1338,-1032,3,0,0,0,636.686523
1836,-1434,4,1,0,2,96.148895
1340,283,1,1,0,2,96.148895
-1737,92,2,0,0,0,628.429688
-9,-560,3,1,0,4,126.099686
1020,-456,4,0,0,0,755.061401
1567,1564,1,0,0,0,617.472900
-352,1947,2,0,0,0,591.805725
-1792,-1484,3,1,0,4,126.099686
1201,-1999,4,0,0,0,545.303589
613,587,1,0,0,0,892.409424
-1137,1463,2,0,0,0,610.449646
-392,-301,3,0,0,0,989.789795
1227,-1774,4,0,0,0,567.341309
715,738,1,1,0,2,96.148895
-520,1495,2,0,0,0,655.329346
-1889,-1253,3,1,0,4,126.099686
1346,-321,4,0,0,0,693.756226
395,1684,1,0,0,0,687.912231
-1420,1279,2,0,0,0,601.658142
-1357,-776,3,0,0,0,658.894653
1791,-182,4,0,0,0,618.649902
219,1812,1,0,0,0,672.547546
-1266,1776,2,0,0,0,564.205688
-1437,-1558,3,0,0,0,572.301331
325,-728,4,0,0,0,852.062561
1622,558,1,0,0,0,690.305176
-504,768,2,0,0,0,811.308350
-920,-1056,3,0,0,0,690.302673
1328,-1269,4,0,0,0,612.922607
59,152,1,0,0,0,1368.121948
-1145,1745,2,1,0,5,158.856644
-1530,-1768,3,0,0,0,544.571533
1062,-1995,4,0,0,0,554.149658
239,1979,1,0,0,0,647.375671
-1875,1082,2,0,0,0,566.319641
-1044,-1692,3,0,0,0,590.431946
1043,-1913,4,0,0,0,564.488831
994,660,1,1,0,2,96.148895
-577,1339,2,0,0,0,678.797913
-645,-969,3,1,0,4,126.099686
1860,-1700,4,1,0,2,96.148895
1786,698,1,0,0,0,658.445007
-634,835,2,0,0,0,773.327026
-92,-622,3,0,0,0,920.415833
881,-1804,4,0,0,0,587.668396
1050,1134,1,0,0,0,720.162292
-1348,1086,2,1,0,5,158.856644
-770,-162,3,0,0,0,855.838806
1017,-816,4,0,0,0,710.774475
227,258,1,0,0,0,1153.035889
-57,1174,2,0,0,0,740.517761
-716,-1269,3,0,0,0,678.988525
734,-1345,4,1,0,4,126.099686
1067,1560,1,1,0,2,96.148895
-1474,631,2,0,0,0,651.651184
-1434,-1886,3,0,0,0,540.841431
95,-1837,4,0,0,0,612.516663
138,1938,1,0,0,0,654.694519
-313,1160,2,0,0,0,734.218140
-546,-686,3,0,0,0,824.714417
1556,-1741,4,1,0,2,96.148895
315,586,1,0,0,0,962.554871
-1523,631,2,0,0,0,643.726807
-684,-921,3,1,0,4,126.099686
622,-1201,4,1,0,4,126.099686
785,941,1,0,0,2,96.148895
-42,974,2,0,0,0,794.211487
-956,-258,3,0,0,0,789.737793
1661,-651,4,0,0,0,621.223328
1753,1575,1,1,0,2,96.148895
-254,800,2,0,0,0,837.255920
-1473,-1395,3,0,0,0,584.703003
1120,-1647,4,1,0,2,96.148895
441,1169,1,0,0,0,781.179382
-1625,1206,2,1,0,5,158.856644
-918,-1256,3,0,0,0,660.266418
650,-978,4,0,0,0,740.781799
827,989,1,1,0,2,96.148895
-975,1860,2,1,0,5,158.856644
-1732,-1381,3,1,0,4,126.099686
1553,-1547,4,0,0,0,562.783691
528,1140,1,1,0,2,96.148895
-1585,455,2,0,0,0,643.644897
-1505,-80,3,0,0,0,669.331482
146,-1673,4,0,0,0,638.445801
1030,890,1,1,0,2,96.148895
-34,1914,2,0,0,0,601.180115
-1882,-764,3,0,0,0,584.363586
355,-1134,4,0,0,0,737.390808
539,1242,1,1,0,2,96.148895
-36,909,2,1,0,2,96.148895
-1093,-1794,3,1,0,4,126.099686
1889,-1219,4,0,0,0,555.638367
1000,362,1,0,0,0,827.487915
-1223,1941,2,0,0,0,549.921631
-48,-1571,3,1,0,4,126.099686
371,-1773,4,0,0,0,616.888550
746,312,1,0,0,0,906.351318
-1068,195,2,0,0,0,763.305481
-225,-183,3,0,0,0,1143.493530
343,-1179,4,0,0,0,727.987732
1839,1737,1,0,0,0,579.619751
-420,880,2,0,0,0,794.156982
-1993,-1998,3,0,0,0,491.792938
829,-830,4,1,0,2,96.148895
699,1270,1,1,0,2,96.148895
-1884,679,2,0,0,0,588.376709
-164,-613,3,0,0,0,917.774414
1634,-1363,4,0,0,0,571.190735
214,898,1,0,0,0,868.211853
-741,552,2,0,0,0,809.624023
-1600,-370,3,0,0,0,644.821899
201,-201,4,0,0,0,1149.286987
114,1234,1,0,0,0,783.525513
-869,1714,2,0,0,0,600.083496
-1632,-243,3,0,0,0,643.476074
1168,-1171,4,0,0,0,642.797180
1929,1151,1,0,0,0,613.346802
-691,886,2,0,0,0,753.445007
-528,-95,3,0,0,0,966.150269
158,-1823,4,0,0,0,614.008118
262,1457,1,0,0,0,732.498108
-1291,678,2,0,0,0,678.763245
-827,-84,3,1,0,4,126.099686
1760,-476,4,1,0,2,96.148895
1733,253,1,0,0,0,684.351807
-351,496,2,0,0,0,930.264954
-1371,-1834,3,1,0,4,126.099686
1932,-289,4,1,0,2,96.148895
709,1350,1,0,0,0,724.009949
-1185,512,2,0,0,0,713.648743
-1168,-1844,3,0,0,0,563.979187
832,-1995,4,1,0,4,126.099686
747,1477,1,0,0,0,700.520996
-648,660,2,1,0,5,158.856644
-397,-1283,3,0,0,0,702.308289
871,-1712,4,0,0,0,600.213257
321,750,1,1,0,2,96.148895
-248,1156,2,0,0,0,738.834045
-1333,-412,3,0,0,0,691.393677
1749,-1469,4,0,0,0,551.166870
1690,1652,1,0,0,0,598.914795
-284,1303,2,0,0,0,704.325134
-925,-1993,3,0,0,0,562.118713
1939,-1639,4,0,0,0,521.389404
1372,100,1,1,0,2,96.148895
-1923,1148,2,0,0,0,556.716980
-1837,-688,3,0,0,0,594.247986
248,-630,4,0,0,0,899.105103
1017,444,1,0,0,0,815.261597
-765,1881,2,0,0,0,584.440552
-1432,-368,3,1,0,4,126.099686
713,-1971,4,0,0,0,575.460022
753,1353,1,0,0,0,719.613525
-1061,1782,2,0,0,0,578.456299
-27,-1011,3,0,0,0,783.663513
107,-869,4,0,0,0,825.108276
1286,118,1,0,0,0,771.686218
-1666,826,2,1,0,5,158.856644
-1421,-1917,3,0,0,0,538.829285
1032,-43,4,1,0,2,96.148895
956,950,1,0,0,0,759.424438
-1271,575,2,0,0,0,691.435425
-1320,-152,3,0,0,0,705.372498
1084,-334,4,0,0,0,750.727783
1691,1060,1,0,0,0,647.034363
-336,395,2,0,0,0,975.931580
-1742,-1332,3,0,0,0,562.672974
756,-58,4,1,0,2,96.148895
557,643,1,0,0,0,891.739197
-1354,5,2,0,0,0,699.974548
-248,-1880,3,0,0,0,603.866516
1268,-26,4,0,0,0,718.712158
1392,1766,1,0,0,0,613.049011
-1134,1503,2,1,0,5,158.856644
-587,-710,3,0,0,0,810.488159
1106,-1943,4,0,0,0,557.206238
743,721,1,1,0,2,96.148895
-1131,670,2,0,0,0,708.441956
-1344,-759,3,0,0,0,662.516846
144,-1062,4,0,0,0,767.015381
203,472,1,0,0,0,1037.038452
-707,991,2,0,0,0,730.458130
-411,-1468,3,0,0,0,666.065918
1324,-54,4,1,0,2,96.148895
890,1501,1,1,0,2,96.148895
-1142,1147,2,1,0,5,158.856644
-977,-100,3,0,0,0,792.097351
824,-253,4,1,0,2,96.148895
41,1993,1,0,0,0,647.369629
-1733,310,2,0,0,0,625.000122
-631,-1511,3,0,0,0,645.650208
1493,-810,4,0,0,0,635.202942
556,356,1,0,0,0,964.769165
-687,1432,2,0,0,0,654.354492
-1266,-992,3,0,0,0,650.766846
149,-842,4,0,0,0,831.915894
1809,1389,1,0,0,0,609.018616
-1521,1616,2,0,0,0,559.301147
-1967,-675,3,0,0,0,577.685425
758,-1367,4,0,0,0,658.916504
1693,827,1,1,0,2,96.148895
-384,183,2,0,0,0,1033.040161
-374,-407,3,0,0,0,957.543396
1592,-1352,4,0,0,0,576.457825
885,695,1,0,0,0,811.252747
-1675,154,2,0,0,0,637.986816
-492,-395,3,0,0,0,919.420776
1371,-91,4,0,0,0,695.775879
1446,1024,1,0,0,0,681.024780
-1526,461,2,0,0,0,653.306030
-1494,-764,3,0,0,0,638.673889
1495,-1667,4,0,0,0,556.771057
1931,1659,1,0,0,0,577.817078
-334,1712,2,1,0,5,158.856644
-375,-1650,3,0,0,0,636.294922
1478,-1633,4,0,0,0,561.432495
51,393,1,0,0,0,1111.922241
-10,1423,2,0,0,0,685.745728
-319,-1924,3,0,0,0,595.894409
1525,-1522,4,0,0,0,567.660828
1027,621,1,0,0,0,792.736450
-1976,399,2,0,0,0,586.505005
-1069,-1475,3,0,0,0,615.284180
421,-329,4,0,0,0,967.319946
547,1965,1,0,0,0,640.821899
-1401,835,2,1,0,5,158.856644
-1694,-1158,3,1,0,4,126.099686
1059,-419,4,0,0,0,749.569397
1266,1798,1,0,0,0,619.402588
-1405,1953,2,1,0,5,158.856644
-308,-733,3,1,0,4,126.099686
1914,-1359,4,0,0,0,543.452881
1149,261,1,1,0,2,96.148895
-1733,1584,2,0,0,0,543.400391
-1853,-1079,3,0,0,0,569.016235
471,-1579,4,1,0,4,126.099686
728,924,1,1,0,2,96.148895
-590,1256,2,0,0,0,692.945312
-1353,-858,3,0,0,0,651.876831
865,1399,1,0,0,0,702.314575
-1888,1834,2,1,0,5,158.856644
-669,-1650,3,0,0,0,621.790649
400,1771,1,0,0,0,674.051392
-267,1943,2,0,0,0,594.298828
-370,-753,3,0,0,0,837.380005
1116,302,1,0,0,0,803.474670
-319,1303,2,0,0,0,702.636230
-1082,-713,3,0,0,0,712.559204
265,950,1,0,0,0,849.177734
-1201,1356,2,0,0,0,616.890076
-1555,-678,3,0,0,0,635.570923
1079,362,1,1,0,2,96.148895
-1405,186,2,1,0,5,158.856644
-446,-1659,3,0,0,0,631.977966
501,1057,1,0,0,0,800.117920
-293,1773,2,0,0,0,619.152344
-536,-1373,3,0,0,0,675.699829
1496,1835,1,1,0,2,96.148895
-1998,961,2,1,0,5,158.856644
-750,-1952,3,1,0,4,126.099686
752,1369,1,0,0,0,717.122681
-1095,1928,2,0,0,0,559.550842
-1209,-1134,3,1,0,4,126.099686
1120,805,1,0,0,0,752.786621
-1866,160,2,0,0,0,607.401367
-1941,-89,3,1,0,4,126.099686
1504,1423,1,0,0,0,636.552307
-1786,804,2,0,0,0,594.680298
-1195,-258,3,1,0,4,126.099686
888,668,1,0,0,0,814.872131
-1748,1058,2,0,0,0,582.681824
-763,-1890,3,1,0,4,126.099686
1296,1888,1,1,0,2,96.148895
-1758,304,2,0,0,0,621.211853
-1738,-1016,3,0,0,0,586.885193
1714,345,1,0,0,0,684.840698
-182,808,2,0,0,0,841.089478
-440,-741,3,0,0,0,829.668396
144,1065,1,0,0,0,824.478760
-1064,1925,2,0,0,0,561.825256
-1550,-1715,3,0,0,0,547.780151
1297,1785,1,1,0,2,96.148895
-1147,1651,2,0,0,0,587.287720
-1128,-936,3,0,0,0,677.284058
439,935,1,0,0,0,835.878357
-1842,330,2,0,0,0,607.632263
-1378,-640,3,0,0,0,667.019531
350,1979,1,0,0,0,645.048401
-1015,-848,3,1,0,4,126.099686
1335,628,1,0,0,0,733.474854
-1547,-1949,3,0,0,0,527.041321
426,1393,1,0,0,0,737.123291
-1566,-1541,3,1,0,4,126.099686
148,743,1,1,0,2,96.148895
-1731,-1490,3,0,0,0,551.180298
715,1786,1,0,0,0,657.515564
-1165,-1038,3,0,0,0,659.418884
-1908,-297,3,0,0,0,598.716675
-445,-607,3,0,0,0,868.632812
-722,-1561,3,0,0,0,631.649658


each generation good chromosome number
8,9,10,