each times' max average throughput
582.580322,591.529419,595.882629,587.286255,601.257874,580.145935,590.400085,592.269470,597.388062,584.465271,588.061584,590.422180,598.447083,590.424683,603.387634,598.172180,594.501953,599.147827,593.703247,595.828308,596.764404,577.989563,586.693481,586.547119,600.471985,597.623413,590.675476,592.622803,590.049744,580.641174,588.255920,589.950562,596.780151,588.138428,593.479736,597.112427,598.586548,584.467041,601.019958,602.214539,598.207092,596.789612,587.891785,598.171570,599.888184,597.532593,582.418030,595.883423,584.721191,585.587097,587.687683,587.005432,590.599670,593.304016,593.236511,601.582642,598.896851,590.555664,602.023010,588.564697,580.469055,601.300049,595.764771,599.760681,593.991455,588.359619,584.357788,592.250671,599.569397,593.647522,591.407227,588.036987,579.952637,596.875427,600.850525,592.490784,596.203125,590.291138,591.338501,584.158264,598.552002,599.405640,592.321716,596.380066,596.739624,589.004883,588.211792,597.330811,589.505432,595.373291,593.981201,586.826355,587.941467,586.638672,600.843750,594.037354,596.339966,588.130981,602.351562,582.840454,
avg. throughput in all test times
592.597839
avg. BS TX power in all test times
MBS area 1,MBS area 2,MBS area 3,MBS area 4,CBSD 1,CBSD 2,CBSD 3,CBSD 4,CBSD 5,
8.188,8.300,8.175,8.363,0.206,0.279,0.384,0.364,0.248,
avg. mbs all power,avg. cbsd enable number,avg. mbs area all power,avg. cbsd all power
47.875,1.000,33.025,1.480
avg. max avg. throughput generation number in all test times
0.670000
avg. number of relay UE
228

the max average throughput times

BS TX power
MBS area 1,MBS area 2,MBS area 3,MBS area 4,CBSD 1,CBSD 2,CBSD 3,CBSD 4,CBSD 5,
7.500,7.500,5.000,7.500,0.750,0.000,0.000,0.625,1.000,
max average throughput
582.840454

x,y,area,be blocked (1 : NLOS / 0 : LOS),be blocked number (>=1 : CBSD(x) / 0 : no),connect bs number (>=1 : CBSD / 0 : MBS),throughput (unit : M bps)
174,657,1,0,0,0,956.404175
-535,1043,2,0,0,0,799.507507
-1883,-1058,3,1,0,4,88.269783
229,-1843,4,0,0,0,667.583191
488,1434,1,0,0,0,725.913391
-1029,807,2,0,0,0,768.084412
-1905,-621,3,1,0,4,88.269783
278,-1087,4,0,0,0,812.094727
1994,522,1,1,0,5,85.890205
-277,1776,2,0,0,0,676.921448
-1128,-1204,3,0,0,0,643.500854
529,-1153,4,0,0,0,776.811096
1168,862,1,0,0,0,738.117310
-1007,1853,2,0,0,0,631.308044
-161,-1384,3,0,0,0,691.780518
441,-1970,4,0,0,0,643.767151
1386,1829,1,0,0,0,607.268738
-962,284,2,0,0,0,844.324341
-1523,-54,3,0,0,0,666.158264
804,-1814,4,0,0,0,648.694336
1472,992,1,0,0,0,680.508850
-578,583,2,1,0,1,122.351761
-1054,-1547,3,1,0,4,88.269783
532,-457,4,0,0,0,947.353882
1580,1441,1,1,0,5,102.296913
-27,212,2,0,0,0,1290.057251
-451,-136,3,0,0,0,1003.631714
1274,-616,4,0,0,0,745.429260
1216,731,1,0,0,0,744.680298
-1416,292,2,0,0,0,739.275208
-1666,-1865,3,0,0,0,525.642212
1651,-15,4,0,0,0,701.228638
1770,649,1,0,0,0,663.299316
-1880,1695,2,0,0,0,579.435547
-639,-1689,3,0,0,0,617.764038
1231,-1679,4,0,0,0,634.983154
1262,1003,1,0,0,0,708.080200
-1666,93,2,1,0,1,122.351761
-2000,-977,3,0,0,0,558.453918
551,-553,4,1,0,4,88.269783
427,909,1,0,0,0,843.966003
-1495,1053,2,0,0,0,672.011353
-1661,-1382,3,0,0,0,566.848816
942,-1211,4,1,0,4,88.269783
444,84,1,0,0,0,1074.071167
-836,1891,2,0,0,0,636.957458
-571,-1132,3,0,0,0,718.804504
1599,-552,4,0,0,0,694.286621
1643,430,1,0,0,0,693.148865
-142,1619,2,0,0,0,705.747803
-279,-66,3,0,0,0,1146.818237
1819,-375,4,0,0,0,667.571106
1439,1545,1,1,0,5,107.609215
-1971,1109,2,0,0,0,611.418762
-1539,-243,3,0,0,0,659.835754
1763,-470,4,1,0,4,88.269783
1910,613,1,0,0,0,645.581543
-1215,107,2,0,0,0,788.094055
-716,-1587,3,0,0,0,628.166748
634,-362,4,0,0,0,935.786011
1718,1546,1,0,0,0,605.248596
-25,1880,2,1,0,1,122.351761
-1972,-1707,3,0,0,0,513.836731
1694,-1634,4,0,0,0,600.079285
1191,1937,1,0,0,0,609.878235
-909,1048,2,0,0,0,751.125000
-1661,-642,3,1,0,4,88.269783
387,-1645,4,0,0,0,694.572693
215,629,1,0,0,0,962.800903
-1907,396,2,1,0,1,122.351761
-1032,-516,3,1,0,4,88.269783
1754,-1489,4,0,0,0,606.531250
1123,1107,1,0,0,0,714.394104
-1092,1356,2,0,0,0,686.044739
-497,-870,3,0,0,0,786.348450
1908,-1604,4,1,0,4,88.269783
149,331,1,0,0,0,1137.240356
-1089,764,2,1,0,1,122.351761
-1770,-1090,3,0,0,0,577.807312
1569,-561,4,0,0,0,698.603394
974,729,1,0,0,0,788.825928
-1417,1488,2,1,0,1,122.351761
-1298,-982,3,0,0,0,647.371155
1792,-1028,4,0,0,0,637.181763
1292,1173,1,0,0,0,685.385925
-1369,1746,2,0,0,0,616.862061
-293,-1758,3,1,0,4,88.269783
1154,-1973,4,0,0,0,608.401367
945,1239,1,0,0,0,717.800781
-997,359,2,1,0,1,122.351761
-1663,-701,3,0,0,0,617.941772
596,-585,4,1,0,4,88.269783
578,900,1,0,0,0,825.839294
-578,1427,2,1,0,5,299.987762
-298,-530,3,0,0,0,930.075195
1145,-1966,4,1,0,4,88.269783
335,1465,1,0,0,0,728.183594
-433,1859,2,0,0,0,659.756714
-1147,-1299,3,0,0,0,629.498596
1539,-1464,4,0,0,0,629.267883
1820,42,1,0,0,0,673.285156
-1378,118,2,1,0,1,122.351761
-102,-537,3,0,0,0,960.763245
1074,-606,4,0,0,0,784.939087
1104,1081,1,1,0,5,129.183975
-1278,1156,2,1,0,1,122.351761
-585,-1735,3,0,0,0,613.831726
867,-1474,4,0,0,0,691.177795
560,840,1,0,0,0,842.463440
-884,819,2,0,0,0,791.559753
-118,-1101,3,0,0,0,757.637634
1331,-1820,4,0,0,0,612.276550
552,550,1,0,0,0,917.012146
-609,1865,2,1,0,1,122.351761
-65,-1910,3,1,0,4,88.269783
127,-1783,4,1,0,4,88.269783
1999,280,1,0,0,0,643.801697
-1757,1413,2,1,0,1,122.351761
-1120,-1381,3,0,0,0,622.172974
1050,-1796,4,1,0,4,88.269783
191,1495,1,0,0,0,727.357178
-629,385,2,0,0,0,932.878906
-600,-1815,3,0,0,0,601.580811
1224,-1242,4,0,0,0,685.595459
1046,1119,1,1,0,5,132.660812
-1712,1852,2,0,0,0,580.468994
-1064,-389,3,1,0,4,88.269783
46,-934,4,0,0,0,864.498962
341,825,1,1,0,1,122.351761
-85,1216,2,0,0,0,788.267700
-1801,-8,3,0,0,0,618.524170
11,-1432,4,0,0,0,742.016907
340,1706,1,0,0,0,686.288452
-1317,318,2,1,0,1,122.351761
-541,-341,3,0,0,0,915.539673
1077,-1177,4,0,0,0,711.053467
738,1950,1,0,0,0,634.565063
-678,616,2,0,0,0,870.434692
-557,-1056,3,0,0,0,736.036011
1680,-748,4,0,0,0,670.393738
1530,1716,1,0,0,0,606.748413
-508,28,2,1,0,1,122.351761
-1193,-1247,3,0,0,0,630.677673
111,-144,4,0,0,0,1336.690674
1431,590,1,0,0,0,719.718750
-915,37,2,1,0,1,122.351761
-197,-1685,3,1,0,4,88.269783
1515,-1673,4,0,0,0,611.991821
292,528,1,1,0,1,122.351761
-376,1349,2,1,0,5,286.681152
-664,-609,3,0,0,0,816.877197
552,-1611,4,0,0,0,692.373169
784,1815,1,0,0,0,649.717407
-705,477,2,1,0,1,122.351761
-125,-1211,3,0,0,0,730.437195
39,-47,4,0,0,0,1651.449097
1197,747,1,0,0,0,746.270935
-1170,1643,2,0,0,0,644.013672
-1236,-1158,3,0,0,0,636.019531
1448,-941,4,1,0,4,88.269783
1384,180,1,0,0,0,749.400513
-481,1527,2,0,0,0,710.053650
-1345,-828,3,0,0,0,655.946716
1019,-1889,4,0,0,0,626.304565
1357,1565,1,1,0,5,111.226883
-1386,1369,2,1,0,1,122.351761
-1534,-424,3,0,0,0,653.770813
1469,-350,4,0,0,0,726.793152
332,908,1,1,0,1,122.351761
-668,14,2,0,0,0,961.323669
-686,-532,3,0,0,0,827.565735
1240,-1999,4,0,0,0,600.232971
122,1643,1,0,0,0,701.844238
-697,1176,2,0,0,0,755.346741
-1709,-266,3,1,0,4,88.269783
109,-1721,4,1,0,4,88.269783
915,808,1,0,0,0,787.861389
-1508,1064,2,0,0,0,669.372681
-171,-1989,3,0,0,0,589.268188
1360,-1098,4,0,0,0,684.916626
161,721,1,0,0,0,932.377869
-1858,21,2,1,0,1,122.351761
-1644,-1429,3,0,0,0,564.567322
1954,-504,4,0,0,0,643.880859
1619,855,1,0,0,0,671.654846
-1720,1704,2,0,0,0,592.048462
-1290,-259,3,0,0,0,708.183594
959,-1682,4,0,0,0,655.684448
354,912,1,0,0,0,851.513611
-1356,1705,2,1,0,1,122.351761
-1855,-369,3,0,0,0,604.608032
1199,-1755,4,1,0,4,88.269783
116,332,1,0,0,0,1146.369629
-515,1157,2,1,0,5,361.715240
-1125,-618,3,0,0,0,715.275696
1066,-1998,4,0,0,0,611.040100
1557,1517,1,0,0,0,622.677856
-427,255,2,0,0,0,1046.424194
-1373,-1700,3,0,0,0,563.665771
746,-667,4,0,0,0,844.997131
445,827,1,0,0,0,863.273315
-97,446,2,0,0,0,1071.182129
-1595,-1327,3,1,0,4,88.269783
718,-1672,4,0,0,0,673.416748
521,71,1,0,0,0,1030.375000
-149,882,2,0,0,0,877.286926
-1224,-1881,3,1,0,4,88.269783
1147,-1409,4,0,0,0,673.858582
273,1974,1,0,0,0,647.460327
-523,106,2,1,0,1,122.351761
-945,-1219,3,0,0,0,662.722534
410,-748,4,0,0,0,890.964233
167,68,1,0,0,0,1339.083984
-476,589,2,1,0,1,122.351761
-1936,-1223,3,0,0,0,550.442139
1058,-588,4,1,0,4,88.269783
642,1541,1,0,0,0,698.070312
-615,631,2,0,0,0,881.622681
-1954,-1792,3,0,0,0,509.242432
1955,-612,4,0,0,0,639.589233
783,1235,1,0,0,0,736.019958
-613,383,2,1,0,1,122.351761
-1800,-651,3,1,0,4,88.269783
853,-1626,4,0,0,0,670.834534
918,114,1,0,0,0,867.618713
-1047,488,2,0,0,0,803.723145
-88,-1268,3,0,0,0,718.083923
1187,-334,4,0,0,0,784.956726
164,1313,1,0,0,0,764.701538
-124,1767,2,0,0,0,681.108154
-146,-1257,3,0,0,0,719.349243
1100,-1600,4,0,0,0,654.879517
567,541,1,0,0,0,915.369141
-1494,1500,2,0,0,0,630.211243
-607,-1469,3,0,0,0,654.138916
1632,-1999,4,0,0,0,573.972168
1485,1412,1,0,0,0,639.507568
-367,92,2,0,0,0,1125.283081
-1338,-1762,3,1,0,4,88.269783
1815,-254,4,0,0,0,671.375732
1587,647,1,0,0,0,690.551941
-1283,1384,2,0,0,0,663.000305
-1055,-1148,3,0,0,0,659.638367
882,-90,4,0,0,0,879.846497
691,672,1,0,0,0,855.784729
-26,1704,2,0,0,0,692.163086
-149,-1928,3,0,0,0,598.309387
669,-1415,4,0,0,0,716.529785
1954,1123,1,0,0,0,612.408447
-691,1525,2,0,0,0,697.237610
-236,-281,3,1,0,4,88.269783
1301,-1212,4,0,0,0,680.024109
1348,241,1,1,0,1,122.351761
-198,1870,2,0,0,0,664.024414
-422,-1726,3,0,0,0,622.371277
1488,-302,4,1,0,4,88.269783
784,1024,1,0,0,0,772.073120
-1079,389,2,0,0,0,805.761169
-1920,-1551,3,1,0,4,88.269783
638,-1798,4,0,0,0,659.894714
1513,749,1,1,0,5,106.614197
-1413,882,2,1,0,1,122.351761
-1019,-1214,3,0,0,0,654.946228
28,-1037,4,1,0,4,88.269783
1812,812,1,0,0,0,648.488342
-518,396,2,1,0,1,122.351761
-282,-1073,3,0,0,0,757.085510
904,-657,4,1,0,4,88.269783
118,786,1,0,0,0,911.311646
-422,1943,2,0,0,0,648.103882
-1704,-240,3,0,0,0,631.494995
1306,-552,4,0,0,0,744.870789
324,521,1,0,0,0,985.901550
-384,1476,2,1,0,5,266.507568
-551,-648,3,1,0,4,88.269783
1283,-1723,4,0,0,0,626.053406
144,1756,1,0,0,0,682.637939
-1275,1528,2,0,0,0,647.848755
-317,-945,3,1,0,4,88.269783
1164,-1921,4,0,0,0,613.366760
401,1480,1,0,0,0,722.415283
-1950,834,2,0,0,0,629.703003
-392,-1102,3,1,0,4,88.269783
175,-881,4,1,0,4,88.269783
1665,849,1,1,0,5,100.177910
-463,1741,2,0,0,0,676.279602
-592,-522,3,0,0,0,854.957703
1301,-1047,4,0,0,0,697.969238
154,1728,1,0,0,0,687.062866
-135,1169,2,0,0,0,798.391174
-262,-905,3,0,0,0,804.030151
1282,-94,4,0,0,0,773.015015
87,1427,1,0,0,0,742.496155
-541,1850,2,0,0,0,656.970337
-1830,-483,3,0,0,0,604.409363
506,-731,4,1,0,4,88.269783
1582,424,1,0,0,0,703.532837
-581,1203,2,1,0,5,370.285339
-1966,-1738,3,0,0,0,512.133484
112,-1410,4,1,0,4,88.269783
579,1219,1,0,0,0,759.048218
-1179,1092,2,1,0,1,122.351761
-1875,-1197,3,0,0,0,558.627625
190,-1325,4,0,0,0,761.390137
1040,802,1,0,0,0,766.854187
-375,1282,2,1,0,5,297.581024
-224,-1684,3,0,0,0,635.159363
384,-792,4,0,0,0,881.931702
356,1164,1,0,0,0,788.679016
-231,488,2,0,0,0,1022.748047
-279,-769,3,0,0,0,844.653137
1938,-1501,4,0,0,0,588.539124
1477,1009,1,0,0,0,678.313232
-423,1458,2,0,0,0,725.278381
-1278,-123,3,0,0,0,715.200684
263,-426,4,0,0,0,1044.518677
1732,1216,1,1,0,5,97.142921
-961,1336,2,0,0,0,702.156616
-1730,-1187,3,0,0,0,575.181213
669,-969,4,0,0,0,798.211426
801,735,1,0,0,0,821.172241
-883,970,2,0,0,0,767.205750
-1983,-1655,3,1,0,4,88.269783
182,-1365,4,0,0,0,753.245911
877,1962,1,0,0,0,625.937561
-1679,548,2,0,0,0,681.945679
-821,-1631,3,1,0,4,88.269783
1854,-1953,4,0,0,0,561.923584
1551,1234,1,0,0,0,649.008118
-1167,1437,2,0,0,0,668.506775
-1840,-846,3,1,0,4,88.269783
1490,-958,4,1,0,4,88.269783
1056,1845,1,0,0,0,629.036194
-571,485,2,0,0,0,928.342896
-280,-1727,3,0,0,0,626.778076
1033,-534,4,0,0,0,801.808899
695,769,1,0,0,0,834.878784
-1094,1578,2,1,0,1,122.351761
-496,-1962,3,0,0,0,585.403870
254,-779,4,0,0,0,902.548767
1546,1111,1,0,0,0,660.500732
-1132,719,2,0,0,0,760.857605
-92,-1732,3,1,0,4,88.269783
1387,-1202,4,0,0,0,670.958008
24,303,1,1,0,0,262.852478
-1882,985,2,0,0,0,629.257385
-505,-1770,3,0,0,0,612.334778
213,-12,4,1,0,0,399.927307
1791,721,1,0,0,0,656.496887
-84,1119,2,1,0,5,251.527908
-955,-1778,3,0,0,0,586.172729
547,-1815,4,0,0,0,661.727356
1778,1414,1,0,0,0,610.146973
-233,1408,2,1,0,5,254.899155
-1533,-285,3,0,0,0,659.615784
1513,-1246,4,0,0,0,652.191406
242,1619,1,0,0,0,703.681213
-226,923,2,0,0,0,859.878784
-347,-753,3,1,0,4,88.269783
1517,-665,4,0,0,0,700.313293
877,756,1,0,0,0,803.044495
-1212,1770,2,0,0,0,626.454102
-1733,-1417,3,0,0,0,556.847961
709,-1498,4,1,0,4,88.269783
641,895,1,1,0,1,122.351761
-1209,320,2,0,0,0,780.899841
-492,-909,3,0,0,0,777.413269
760,-705,4,0,0,0,834.846436
1460,130,1,0,0,0,735.338806
-1361,554,2,0,0,0,734.623901
-341,-1109,3,0,0,0,744.237061
1334,-1937,4,0,0,0,600.286377
1948,1030,1,0,0,0,618.813599
-759,1898,2,0,0,0,640.204773
-527,-1370,3,0,0,0,676.875488
1754,-33,4,0,0,0,683.871948
561,103,1,0,0,0,1006.923340
-711,356,2,0,0,0,911.189209
-1382,-1835,3,1,0,4,88.269783
1163,-1907,4,0,0,0,614.951843
1878,1272,1,1,0,5,91.148232
-742,757,2,0,0,0,828.435730
-236,-1787,3,0,0,0,618.287720
1297,-1717,4,0,0,0,625.576660
1199,1337,1,0,0,0,677.175598
-1676,1503,2,0,0,0,612.724243
-27,-583,3,0,0,0,941.878784
97,-61,4,1,0,0,661.106750
609,1332,1,0,0,0,735.565491
-1389,860,2,0,0,0,704.259705
-1289,-257,3,0,0,0,708.482727
1115,-1344,4,0,0,0,685.180908
1983,1672,1,1,0,5,84.871826
-1739,1512,2,0,0,0,606.085876
-682,-1645,3,0,0,0,621.741882
1073,-611,4,0,0,0,784.567627
210,991,1,0,0,0,841.481384
-461,1265,2,0,0,0,759.715881
-494,-689,3,0,0,0,834.377502
521,-1155,4,0,0,0,777.149170
81,1393,1,0,0,0,749.463013
-70,513,2,0,0,0,1034.829590
-801,-1528,3,0,0,0,630.767212
610,-1162,4,0,0,0,767.059509
404,1340,1,1,0,5,180.301788
-666,129,2,1,0,1,122.351761
-1806,-533,3,0,0,0,605.863159
1165,-809,4,0,0,0,744.773560
89,758,1,0,0,0,922.997864
-1151,645,2,0,0,0,765.527161
-1711,-1340,3,0,0,0,565.214172
1485,-1260,4,0,0,0,654.018005
1873,1993,1,0,0,0,557.537231
-658,607,2,0,0,0,877.055786
-1230,-1416,3,0,0,0,606.980591
1889,-37,4,0,0,0,662.674133
502,1528,1,0,0,0,708.735291
-1963,432,2,0,0,0,645.010803
-716,-401,3,0,0,0,843.741333
1391,-545,4,0,0,0,729.878418
1946,638,1,0,0,0,639.677856
-1656,1784,2,1,0,1,122.351761
-1339,-1628,3,0,0,0,573.854797
1019,-935,4,0,0,0,752.022339
154,242,1,0,0,0,1205.152222
-1405,1691,2,0,0,0,619.463074
-1229,-468,3,0,0,0,708.325745
1558,-1479,4,0,0,0,626.053650
1008,1690,1,1,0,5,127.201271
-1861,605,2,1,0,1,122.351761
-831,-1782,3,1,0,4,88.269783
937,-1336,4,0,0,0,704.584717
990,1470,1,1,0,5,132.507248
-76,1862,2,0,0,0,666.603455
-304,-274,3,1,0,4,88.269783
1924,-881,4,0,0,0,630.341614
838,1431,1,1,0,5,143.006577
-329,539,2,0,0,0,977.591248
-1051,-1515,3,0,0,0,611.836182
556,-1811,4,0,0,0,661.909485
1186,1413,1,0,0,0,669.498169
-890,67,2,1,0,1,122.351761
-1970,-1105,3,0,0,0,554.313843
1130,-86,4,0,0,0,809.218445
1957,139,1,1,0,5,83.967003
-1906,126,2,0,0,0,659.547546
-1787,-71,3,0,0,0,620.523560
313,-1148,4,0,0,0,795.201477
1126,148,1,0,0,0,808.605835
-548,356,2,0,0,0,967.718689
-847,-1494,3,0,0,0,632.062561
1101,-1851,4,0,0,0,625.327759
743,1915,1,1,0,5,135.813461
-1130,301,2,0,0,0,800.196167
-615,-142,3,0,0,0,919.312195
467,-502,4,1,0,4,88.269783
458,698,1,0,0,0,897.157898
-1293,609,2,0,0,0,742.578308
-1360,-998,3,1,0,4,88.269783
663,-214,4,1,0,4,88.269783
1142,1715,1,0,0,0,637.940491
-561,976,2,0,0,0,811.134094
-1853,-2,3,0,0,0,610.430176
551,-1061,4,1,0,4,88.269783
104,1325,1,0,0,0,763.430054
-1167,1265,2,0,0,0,689.342590
-940,-211,3,0,0,0,797.626038
1236,-1793,4,0,0,0,622.166748
779,1404,1,1,0,5,147.635330
-943,588,2,0,0,0,814.845886
-577,-613,3,0,0,0,836.404663
1889,-1951,4,1,0,4,88.269783
959,1651,1,0,0,0,659.673950
-268,655,2,0,0,0,944.748657
-1441,-165,3,0,0,0,680.295105
1607,-1398,4,1,0,4,88.269783
366,839,1,0,0,0,870.651672
-1268,173,2,1,0,1,122.351761
-448,-619,3,0,0,0,864.281006
517,-1185,4,0,0,0,771.360291
1488,946,1,0,0,0,682.417908
-1411,1133,2,0,0,0,675.001038
-905,-1962,3,0,0,0,566.860291
1307,-375,4,0,0,0,756.884094
1961,454,1,0,0,0,644.600403
-1866,1058,2,0,0,0,626.470398
-1474,-1942,3,0,0,0,532.783752
354,-27,4,0,0,0,1143.637939
229,1329,1,0,0,0,759.246948
-1327,1467,2,0,0,0,649.566040
-1899,-735,3,0,0,0,583.650635
915,-564,4,1,0,4,88.269783
521,794,1,0,0,0,860.058777
-856,706,2,0,0,0,815.291382
-1041,-780,3,0,0,0,711.455322
769,-106,4,0,0,0,918.109131
1020,399,1,1,0,1,122.351761
-1428,1049,2,1,0,1,122.351761
-762,-592,3,1,0,4,88.269783
1489,-747,4,0,0,0,698.673279
1808,1537,1,0,0,0,597.749390
-152,605,2,1,0,1,122.351761
-637,-1425,3,0,0,0,659.317810
643,-1581,4,0,0,0,691.734253
1443,77,1,0,0,0,739.422302
-1385,511,2,0,0,0,733.295044
-158,-387,3,0,0,0,1038.076294
39,-851,4,0,0,0,891.337585
102,1289,1,0,0,0,771.325012
-1214,651,2,0,0,0,753.151123
-513,-1503,3,0,0,0,654.378052
1094,-759,4,0,0,0,762.905090
1398,1999,1,1,0,5,102.404572
-1284,1007,2,0,0,0,704.593262
-1321,-1637,3,1,0,4,88.269783
858,-1100,4,1,0,4,88.269783
901,1587,1,0,0,0,672.587708
-186,955,2,0,0,0,853.091309
-946,-622,3,0,0,0,751.265381
1831,-1225,4,0,0,0,618.884583
1126,641,1,1,0,5,125.925652
-1481,1669,2,0,0,0,615.245728
-1996,-432,3,0,0,0,582.825256
365,-57,4,0,0,0,1132.173462
1072,391,1,0,0,0,807.243347
-142,1529,2,0,0,0,722.000916
-98,-1041,3,0,0,0,774.099426
796,-1899,4,0,0,0,638.127747
991,248,1,1,0,1,122.351761
-794,768,2,0,0,0,816.571350
-220,-635,3,1,0,4,88.269783
134,-1367,4,0,0,0,753.981934
1338,674,1,0,0,0,729.070496
-940,1821,2,0,0,0,639.485046
-823,-104,3,0,0,0,840.637878
1726,-1568,4,1,0,4,88.269783
845,607,1,0,0,0,833.799927
-203,151,2,1,0,0,332.027618
-945,-1829,3,0,0,0,580.545898
1292,-600,4,0,0,0,743.527222
1605,1635,1,0,0,0,607.728149
-1693,763,2,0,0,0,667.610779
-347,-1993,3,0,0,0,585.507996
692,-782,4,0,0,0,832.752441
913,416,1,0,0,0,844.249573
-395,1624,2,0,0,0,697.733887
-890,-1695,3,0,0,0,601.157898
1775,-194,4,0,0,0,678.821045
1465,1717,1,0,0,0,611.987305
-1067,1574,2,0,0,0,660.834839
-1923,-814,3,0,0,0,576.517517
200,-1123,4,0,0,0,807.346863
1733,1510,1,0,0,0,606.806885
-1519,1841,2,0,0,0,596.109863
-1179,-1671,3,0,0,0,582.430359
947,-426,4,0,0,0,834.357788
1352,1230,1,0,0,0,672.140869
-1457,1994,2,0,0,0,586.430054
-698,-1927,3,0,0,0,581.813171
1851,-1009,4,0,0,0,631.416138
842,1351,1,1,0,5,144.087967
-354,1749,2,1,0,1,122.351761
-1732,-882,3,1,0,4,88.269783
968,-114,4,0,0,0,852.575684
1497,1645,1,1,0,5,103.806023
-1751,1288,2,0,0,0,622.695801
-388,-391,3,1,0,4,88.269783
157,-1706,4,1,0,4,88.269783
1497,102,1,1,0,1,122.351761
-1501,166,2,0,0,0,726.787109
-1033,-508,3,1,0,4,88.269783
1772,-1704,4,1,0,4,88.269783
956,1836,1,1,0,5,126.530190
-488,1870,2,0,0,0,656.208984
-958,-664,3,0,0,0,742.911682
1349,-1705,4,0,0,0,622.639343
1606,1268,1,0,0,0,639.912781
-916,1305,2,0,0,0,711.232117
-1667,-1125,3,0,0,0,587.178833
125,-915,4,0,0,0,868.102112
1794,1925,1,0,0,0,568.457520
-247,1153,2,0,0,0,797.808044
-232,-939,3,0,0,0,796.481262
1715,-575,4,1,0,4,88.269783
1245,1901,1,0,0,0,610.060547
-160,583,2,0,0,0,990.147827
-833,-1277,3,1,0,4,88.269783
257,-1820,4,0,0,0,670.539856
721,1453,1,0,0,0,706.305725
-1892,1852,2,0,0,0,566.721619
-698,-636,3,1,0,4,88.269783
1642,-121,4,0,0,0,702.030396
192,17,1,0,0,0,1319.839844
-1104,1370,2,0,0,0,683.032837
-1048,-1744,3,0,0,0,583.876038
470,-252,4,0,0,0,1026.302979
1385,266,1,0,0,0,746.402954
-1425,1573,2,0,0,0,629.484558
-850,-171,3,0,0,0,827.924683
1964,-302,4,0,0,0,648.278320
1054,738,1,0,0,0,772.737061
-329,391,2,0,0,0,1038.614746
-1184,-1440,3,1,0,4,88.269783
1970,-1156,4,0,0,0,608.597595
912,731,1,0,0,0,800.343140
-761,1094,2,0,0,0,762.658936
-281,-770,3,0,0,0,844.082764
1602,-1601,4,0,0,0,611.005676
1295,211,1,0,0,0,767.125549
-1385,802,2,0,0,0,710.146240
-377,-506,3,0,0,0,919.393188
1791,-528,4,0,0,0,666.043335
382,1058,1,0,0,0,811.361877
-1311,1840,2,1,0,1,122.351761
-1052,-680,3,0,0,0,722.265503
422,-246,4,0,0,0,1051.618652
1531,1594,1,1,0,5,102.934776
-647,103,2,0,0,0,966.985596
-138,-1913,3,0,0,0,600.636169
874,-1687,4,1,0,4,88.269783
1763,65,1,1,0,5,89.666267
-1531,1951,2,0,0,0,585.238464
-1769,-11,3,1,0,1,122.351761
432,-1289,4,0,0,0,756.940552
1918,1531,1,0,0,0,588.212769
-1908,1040,2,1,0,1,122.351761
-280,-629,3,0,0,0,894.275513
1651,-1226,4,0,0,0,638.495850
558,1754,1,1,0,5,153.091446
-1424,1919,2,1,0,1,122.351761
-1410,-1710,3,0,0,0,559.666016
1059,-561,4,0,0,0,793.152893
40,1521,1,0,0,0,724.636353
-1327,1671,2,0,0,0,627.968384
-1115,-1012,3,1,0,4,88.269783
858,-1555,4,0,0,0,680.357117
1981,1240,1,0,0,0,602.083862
-661,1929,2,1,0,1,122.351761
-1389,-188,3,0,0,0,690.074463
1380,-1295,4,0,0,0,662.205505
1560,159,1,0,0,0,715.998718
-432,1321,2,0,0,0,750.598206
-1130,-235,3,1,0,4,88.269783
77,-192,4,0,0,0,1299.452759
498,1331,1,0,0,0,744.214111
-1307,356,2,0,0,0,757.966125
-349,-1151,3,0,0,0,733.917419
1272,-1031,4,0,0,0,703.615845
27,1048,1,0,0,0,831.616516
-1545,706,2,1,0,1,122.351761
-1575,-1426,3,0,0,0,571.617371
1626,-1012,4,0,0,0,658.794067
575,301,1,0,0,0,969.694153
-1490,917,2,0,0,0,684.646240
-161,-393,3,1,0,4,88.269783
1478,-204,4,0,0,0,730.251587
671,1940,1,0,0,0,639.003723
-897,860,2,0,0,0,782.736694
-858,-1300,3,0,0,0,659.918518
0,-549,4,0,0,0,1017.935669
1854,90,1,0,0,0,667.735229
-231,921,2,0,0,0,860.102234
-1591,-818,3,0,0,0,620.434814
10,-449,4,1,0,4,88.269783
1822,890,1,1,0,5,93.779373
-1517,268,2,0,0,0,721.085632
-1603,-1468,3,0,0,0,565.168945
1719,-1318,4,1,0,4,88.269783
554,1021,1,1,0,5,170.545853
-1263,1634,2,0,0,0,637.279419
-1940,-477,3,0,0,0,589.063110
729,-453,4,1,0,4,88.269783
742,785,1,1,0,1,122.351761
-193,1809,2,0,0,0,673.476501
-444,-879,3,0,0,0,791.317688
1072,-1863,4,0,0,0,625.895081
1921,269,1,0,0,0,655.159851
-932,470,2,1,0,1,122.351761
-1200,-749,3,0,0,0,687.453125
827,-1089,4,0,0,0,755.265076
1455,1788,1,0,0,0,605.986450
-254,979,2,0,0,0,841.934265
-1725,-1656,3,0,0,0,538.241028
1253,-513,4,0,0,0,758.107300
936,1215,1,0,0,0,722.346863
-1728,202,2,0,0,0,686.253296
-1677,-1865,3,0,0,0,524.818420
1310,-1068,4,0,0,0,694.525940
1025,1554,1,1,0,5,128.959412
-519,1746,2,0,0,0,673.125000
-763,-700,3,1,0,4,88.269783
1842,-772,4,0,0,0,646.824341
1193,645,1,0,0,0,757.630798
-382,1921,2,0,0,0,652.396484
-601,-1548,3,0,0,0,641.652954
200,-571,4,0,0,0,989.930054
512,1831,1,0,0,0,660.884460
-1457,1880,2,0,0,0,597.094910
-1338,-1032,3,0,0,0,636.686523
1836,-1434,4,1,0,4,88.269783
1340,283,1,1,0,1,122.351761
-1737,92,2,0,0,0,686.307556
-9,-560,3,1,0,4,88.269783
1020,-456,4,0,0,0,813.300842
1567,1564,1,0,0,0,617.472900
-352,1947,2,0,0,0,649.504333
-1792,-1484,3,1,0,4,88.269783
1201,-1999,4,0,0,0,602.697754
613,587,1,0,0,0,892.409424
-1137,1463,2,0,0,0,668.245239
-392,-301,3,0,0,0,989.789795
1227,-1774,4,0,0,0,624.892090
715,738,1,1,0,1,122.351761
-520,1495,2,0,0,0,713.312561
-1889,-1253,3,1,0,4,88.269783
1346,-321,4,0,0,0,751.859497
395,1684,1,0,0,0,687.912231
-1420,1279,2,0,0,0,659.409607
-1357,-776,3,0,0,0,658.894653
1791,-182,4,0,0,0,676.484497
219,1812,1,0,0,0,672.547546
-1266,1776,2,0,0,0,621.735657
-1437,-1558,3,0,0,0,572.301331
325,-728,4,0,0,0,910.427734
1622,558,1,0,0,0,690.305176
-504,768,2,0,0,0,869.630676
-920,-1056,3,0,0,0,690.302673
1328,-1269,4,0,0,0,670.730103
59,152,1,0,0,0,1368.121948
-1145,1745,2,1,0,1,122.351761
-1530,-1768,3,0,0,0,544.571533
1062,-1995,4,0,0,0,611.609619
239,1979,1,0,0,0,647.375671
-1875,1082,2,0,0,0,623.863647
-1044,-1692,3,0,0,0,590.431946
1043,-1913,4,0,0,0,622.020691
994,660,1,1,0,1,122.351761
-577,1339,2,0,0,0,736.858276
-645,-969,3,1,0,4,88.269783
1860,-1700,4,1,0,4,88.269783
1786,698,1,0,0,0,658.445007
-634,835,2,0,0,0,831.597290
-92,-622,3,0,0,0,920.415833
881,-1804,4,0,0,0,645.343994
1050,1134,1,0,0,0,720.162292
-1348,1086,2,1,0,1,122.351761
-770,-162,3,0,0,0,855.838806
1017,-816,4,0,0,0,768.921814
227,258,1,0,0,0,1153.035889
-57,1174,2,0,0,0,798.729980
-716,-1269,3,0,0,0,678.988525
734,-1345,4,1,0,4,88.269783
1067,1560,1,1,0,5,126.440315
-1474,631,2,0,0,0,709.621399
-1434,-1886,3,0,0,0,540.841431
95,-1837,4,0,0,0,670.322449
138,1938,1,0,0,0,654.694519
-313,1160,2,0,0,0,792.417908
-546,-686,3,0,0,0,824.714417
1556,-1741,4,1,0,4,88.269783
315,586,1,0,0,0,962.554871
-1523,631,2,0,0,0,701.667236
-684,-921,3,1,0,4,88.269783
622,-1201,4,1,0,4,88.269783
785,941,1,0,0,0,786.745422
-42,974,2,0,0,0,852.511963
-956,-258,3,0,0,0,789.737793
1661,-651,4,0,0,0,679.069702
1753,1575,1,1,0,5,94.023506
-254,800,2,0,0,0,895.606934
-1473,-1395,3,0,0,0,584.703003
1120,-1647,4,1,0,4,88.269783
441,1169,1,0,0,0,781.179382
-1625,1206,2,1,0,1,122.351761
-918,-1256,3,0,0,0,660.266418
650,-978,4,0,0,0,798.994507
827,989,1,1,0,5,147.964340
-975,1860,2,1,0,1,122.351761
-1732,-1381,3,1,0,4,88.269783
1553,-1547,4,0,0,0,620.304016
528,1140,1,1,0,5,172.268875
-1585,455,2,0,0,0,701.584778
-1505,-80,3,0,0,0,669.331482
146,-1673,4,0,0,0,696.365173
1030,890,1,1,0,5,133.716446
-34,1914,2,0,0,0,658.929016
-1882,-764,3,0,0,0,584.363586
355,-1134,4,0,0,0,795.596741
539,1242,1,1,0,5,169.869629
-36,909,2,1,0,1,122.351761
-1093,-1794,3,1,0,4,88.269783
1889,-1219,4,0,0,0,613.108948
1000,362,1,0,0,0,827.487915
-1223,1941,2,0,0,0,607.350647
-48,-1571,3,1,0,4,88.269783
371,-1773,4,0,0,0,674.714783
746,312,1,0,0,0,906.351318
-1068,195,2,0,0,0,821.559204
-225,-183,3,0,0,0,1143.493530
343,-1179,4,0,0,0,786.174072
1839,1737,1,0,0,0,579.619751
-420,880,2,0,0,0,852.457397
-1993,-1998,3,0,0,0,491.792938
829,-830,4,1,0,4,88.269783
699,1270,1,1,0,5,155.930389
-1884,679,2,0,0,0,646.056091
-164,-613,3,0,0,0,917.774414
1634,-1363,4,0,0,0,628.766479
214,898,1,0,0,0,868.211853
-741,552,2,0,0,0,867.944336
-1600,-370,3,0,0,0,644.821899
201,-201,4,0,0,0,1207.766724
114,1234,1,0,0,0,783.525513
-869,1714,2,0,0,0,657.827026
-1632,-243,3,0,0,0,643.476074
1168,-1171,4,0,0,0,700.733765
1929,1151,1,0,0,0,613.346802
-691,886,2,0,0,0,811.681580
-528,-95,3,0,0,0,966.150269
158,-1823,4,0,0,0,671.821045
262,1457,1,0,0,0,732.498108
-1291,678,2,0,0,0,736.823486
-827,-84,3,1,0,4,88.269783
1760,-476,4,1,0,4,88.269783
1733,253,1,0,0,0,684.351807
-351,496,2,0,0,0,988.684937
-1371,-1834,3,1,0,4,88.269783
1932,-289,4,1,0,4,88.269783
709,1350,1,0,0,0,724.009949
-1185,512,2,0,0,0,771.802734
-1168,-1844,3,0,0,0,563.979187
832,-1995,4,1,0,4,88.269783
747,1477,1,0,0,0,700.520996
-648,660,2,1,0,1,122.351761
-397,-1283,3,0,0,0,702.308289
871,-1712,4,0,0,0,657.957397
321,750,1,1,0,1,122.351761
-248,1156,2,0,0,0,797.043152
-1333,-412,3,0,0,0,691.393677
1749,-1469,4,0,0,0,608.605103
1690,1652,1,0,0,0,598.914795
-284,1303,2,0,0,0,762.456238
-925,-1993,3,0,0,0,562.118713
1939,-1639,4,0,0,0,578.583984
1372,100,1,1,0,1,122.351761
-1923,1148,2,0,0,0,614.195251
-1837,-688,3,0,0,0,594.247986
248,-630,4,0,0,0,957.506714
1017,444,1,0,0,0,815.261597
-765,1881,2,0,0,0,642.097290
-1432,-368,3,1,0,4,88.269783
713,-1971,4,0,0,0,633.062683
753,1353,1,0,0,0,719.613525
-1061,1782,2,0,0,0,636.077637
-27,-1011,3,0,0,0,783.663513
107,-869,4,0,0,0,883.446472
1286,118,1,0,0,0,771.686218
-1666,826,2,1,0,1,122.351761
-1421,-1917,3,0,0,0,538.829285
1032,-43,4,1,0,4,88.269783
956,950,1,0,0,0,759.424438
-1271,575,2,0,0,0,749.532593
-1320,-152,3,0,0,0,705.372498
1084,-334,4,0,0,0,808.959412
1691,1060,1,0,0,0,647.034363
-336,395,2,0,0,0,1034.372314
-1742,-1332,3,0,0,0,562.672974
756,-58,4,1,0,4,88.269783
557,643,1,0,0,0,891.739197
-1354,5,2,0,0,0,758.094727
-248,-1880,3,0,0,0,603.866516
1268,-26,4,0,0,0,776.878174
1392,1766,1,0,0,0,613.049011
-1134,1503,2,1,0,1,122.351761
-587,-710,3,0,0,0,810.488159
1106,-1943,4,0,0,0,614.687988
743,721,1,1,0,1,122.351761
-1131,670,2,0,0,0,766.583374
-1344,-759,3,0,0,0,662.516846
144,-1062,4,0,0,0,825.275452
203,472,1,0,0,0,1037.038452
-707,991,2,0,0,0,788.649780
-411,-1468,3,0,0,0,666.065918
1324,-54,4,1,0,4,88.269783
890,1501,1,1,0,5,138.222687
-1142,1147,2,1,0,1,122.351761
-977,-100,3,0,0,0,792.097351
824,-253,4,1,0,4,88.269783
41,1993,1,0,0,0,647.369629
-1733,310,2,0,0,0,682.863037
-631,-1511,3,0,0,0,645.650208
1493,-810,4,0,0,0,693.109192
556,356,1,0,0,0,964.769165
-687,1432,2,0,0,0,712.334229
-1266,-992,3,0,0,0,650.766846
149,-842,4,0,0,0,890.261658
1809,1389,1,0,0,0,609.018616
-1521,1616,2,0,0,0,616.797607
-1967,-675,3,0,0,0,577.685425
758,-1367,4,0,0,0,716.912292
1693,827,1,1,0,5,98.917770
-384,183,2,0,0,0,1091.499023
-374,-407,3,0,0,0,957.543396
1592,-1352,4,0,0,0,634.066956
885,695,1,0,0,0,811.252747
-1675,154,2,0,0,0,695.904602
-492,-395,3,0,0,0,919.420776
1371,-91,4,0,0,0,753.884644
1446,1024,1,0,0,0,681.024780
-1526,461,2,0,0,0,711.281921
-1494,-764,3,0,0,0,638.673889
1495,-1667,4,0,0,0,614.249756
1931,1659,1,0,0,0,577.817078
-334,1712,2,1,0,1,122.351761
-375,-1650,3,0,0,0,636.294922
1478,-1633,4,0,0,0,618.943604
51,393,1,0,0,0,1111.922241
-10,1423,2,0,0,0,743.826599
-319,-1924,3,0,0,0,595.894409
1525,-1522,4,0,0,0,625.213745
1027,621,1,0,0,0,792.736450
-1976,399,2,0,0,0,644.174011
-1069,-1475,3,0,0,0,615.284180
421,-329,4,0,0,0,1025.757446
547,1965,1,0,0,0,640.821899
-1401,835,2,1,0,1,122.351761
-1694,-1158,3,1,0,4,88.269783
1059,-419,4,0,0,0,807.798828
1266,1798,1,0,0,0,619.402588
-1405,1953,2,1,0,1,122.351761
-308,-733,3,1,0,4,88.269783
1914,-1359,4,0,0,0,600.832764
1149,261,1,1,0,1,122.351761
-1733,1584,2,0,0,0,600.779846
-1853,-1079,3,0,0,0,569.016235
471,-1579,4,1,0,4,88.269783
728,924,1,1,0,1,122.351761
-590,1256,2,0,0,0,751.046387
-1353,-858,3,0,0,0,651.876831
865,1399,1,0,0,0,702.314575
-1888,1834,2,1,0,1,122.351761
-669,-1650,3,0,0,0,621.790649
400,1771,1,0,0,0,674.051392
-267,1943,2,0,0,0,652.011414
-370,-753,3,0,0,0,837.380005
1116,302,1,0,0,0,803.474670
-319,1303,2,0,0,0,760.763245
-1082,-713,3,0,0,0,712.559204
265,950,1,0,0,0,849.177734
-1201,1356,2,0,0,0,674.716248
-1555,-678,3,0,0,0,635.570923
1079,362,1,1,0,1,122.351761
-1405,186,2,1,0,1,122.351761
-446,-1659,3,0,0,0,631.977966
501,1057,1,0,0,0,800.117920
-293,1773,2,0,0,0,676.989258
-536,-1373,3,0,0,0,675.699829
1496,1835,1,1,0,5,101.201508
-1998,961,2,1,0,1,122.351761
-750,-1952,3,1,0,4,88.269783
752,1369,1,0,0,0,717.122681
-1095,1928,2,0,0,0,617.049011
-1209,-1134,3,1,0,4,88.269783
1120,805,1,0,0,0,752.786621
-1866,160,2,0,0,0,665.182129
-1941,-89,3,1,0,1,122.351761
1504,1423,1,0,0,0,636.552307
-1786,804,2,0,0,0,652.394958
-1195,-258,3,1,0,4,88.269783
888,668,1,0,0,0,814.872131
-1748,1058,2,0,0,0,640.328491
-763,-1890,3,1,0,4,88.269783
1296,1888,1,1,0,5,108.827896
-1758,304,2,0,0,0,679.058105
-1738,-1016,3,0,0,0,586.885193
1714,345,1,0,0,0,684.840698
-182,808,2,0,0,0,899.444519
-440,-741,3,0,0,0,829.668396
144,1065,1,0,0,0,824.478760
-1064,1925,2,0,0,0,619.339050
-1550,-1715,3,0,0,0,547.780151
1297,1785,1,1,0,5,110.685646
-1147,1651,2,0,0,0,644.961182
-1128,-936,3,0,0,0,677.284058
439,935,1,0,0,0,835.878357
-1842,330,2,0,0,0,665.414001
-1378,-640,3,0,0,0,667.019531
350,1979,1,0,0,0,645.048401
-1015,-848,3,1,0,4,88.269783
1335,628,1,0,0,0,733.474854
-1547,-1949,3,0,0,0,527.041321
426,1393,1,0,0,0,737.123291
-1566,-1541,3,1,0,4,88.269783
148,743,1,1,0,1,122.351761
-1731,-1490,3,0,0,0,551.180298
715,1786,1,0,0,0,657.515564
-1165,-1038,3,0,0,0,659.418884
-1908,-297,3,0,0,0,598.716675
-445,-607,3,0,0,0,868.632812
-722,-1561,3,0,0,0,631.649658


each generation good chromosome number
7,8,9,