each times' max average throughput
0.000000,0.000000,604.971375,622.312561,607.427795,0.000000,597.210083,594.861938,0.000000,0.000000,0.000000,0.000000,598.778198,591.034607,0.000000,0.000000,0.000000,0.000000,0.000000,0.000000,0.000000,0.000000,0.000000,0.000000,0.000000,0.000000,0.000000,0.000000,0.000000,0.000000,0.000000,0.000000,0.000000,0.000000,590.687012,589.050781,0.000000,604.445129,0.000000,603.134766,0.000000,0.000000,0.000000,0.000000,0.000000,0.000000,0.000000,0.000000,0.000000,0.000000,0.000000,611.134399,634.900574,0.000000,0.000000,0.000000,0.000000,0.000000,0.000000,0.000000,0.000000,0.000000,0.000000,0.000000,0.000000,0.000000,613.680054,629.071350,597.309814,0.000000,0.000000,0.000000,587.781677,581.633789,0.000000,0.000000,0.000000,0.000000,0.000000,0.000000,0.000000,0.000000,0.000000,0.000000,0.000000,0.000000,0.000000,0.000000,0.000000,0.000000,0.000000,584.113464,599.013611,606.656555,595.312683,604.946228,589.493774,0.000000,0.000000,0.000000,
avg. throughput in all test times
144.389603
avg. BS TX power in all test times
MBS area 1,MBS area 2,MBS area 3,MBS area 4,CBSD 1,CBSD 2,CBSD 3,CBSD 4,CBSD 5,CBSD 6,CBSD 7,CBSD 8,CBSD 9,CBSD 10,CBSD 11,CBSD 12,CBSD 13,CBSD 14,CBSD 15,CBSD 16,CBSD 17,CBSD 18,CBSD 19,CBSD 20,CBSD 21,CBSD 22,CBSD 23,CBSD 24,CBSD 25,CBSD 26,CBSD 27,CBSD 28,CBSD 29,
6.238,7.213,7.463,8.375,0.060,0.026,0.015,0.114,0.248,0.151,0.070,0.044,0.047,0.207,0.154,0.055,0.040,0.175,0.315,0.170,0.209,0.089,0.108,0.010,0.179,0.184,0.411,0.047,0.046,0.084,0.224,0.020,0.189,
avg. mbs all power,avg. cbsd enable number,avg. mbs area all power,avg. cbsd all power
67.088,5.000,29.288,3.690
avg. max avg. throughput generation number in all test times
7.100000
avg. number of relay UE
261

the max average throughput times

BS TX power
MBS area 1,MBS area 2,MBS area 3,MBS area 4,CBSD 1,CBSD 2,CBSD 3,CBSD 4,CBSD 5,CBSD 6,CBSD 7,CBSD 8,CBSD 9,CBSD 10,CBSD 11,CBSD 12,CBSD 13,CBSD 14,CBSD 15,CBSD 16,CBSD 17,CBSD 18,CBSD 19,CBSD 20,CBSD 21,CBSD 22,CBSD 23,CBSD 24,CBSD 25,CBSD 26,CBSD 27,CBSD 28,CBSD 29,
7.500,10.000,5.000,5.000,0.000,0.000,0.000,0.000,0.875,0.000,0.875,0.625,0.000,0.000,0.000,0.000,0.000,0.000,1.000,0.000,0.000,0.750,0.000,0.000,0.000,0.000,0.000,0.000,0.000,0.000,0.000,0.000,0.000,
max average throughput
589.493774

x,y,area,be blocked (1 : NLOS / 0 : LOS),be blocked number (>=1 : CBSD(x) / 0 : no),connect bs number (>=1 : CBSD / 0 : MBS),throughput (unit : M bps)
967,478,1,1,0,15,102.535591
-218,1657,2,0,0,0,738.962830
-483,-712,3,1,0,8,122.959694
1301,-1175,4,0,0,0,626.207275
1929,475,1,1,0,15,102.535591
-1686,1043,2,1,0,5,101.728638
-823,-1080,3,1,0,8,122.959694
1056,-1640,4,0,0,0,595.849731
1734,1307,1,0,0,0,622.995422
-1962,927,2,1,0,5,85.922424
-1523,-1531,3,0,0,0,567.010803
817,-879,4,1,0,15,102.535591
978,539,1,1,0,18,109.071220
-329,435,2,0,0,0,1061.302979
-857,-1822,3,1,0,8,122.959694
1102,-806,4,0,0,0,697.597656
1001,447,1,0,0,0,818.761597
-68,1011,2,1,0,18,126.706406
-290,-197,3,0,0,0,1088.800171
1057,-269,4,0,0,0,761.976868
556,186,1,0,0,0,998.993103
-1200,1186,2,1,0,5,142.623703
-678,-1319,3,0,0,0,673.933167
425,-468,4,0,0,0,918.857300
141,1803,1,1,0,18,111.568588
-330,483,2,0,0,0,1041.109741
-1044,-622,3,0,0,0,730.953247
223,-1789,4,0,0,0,618.235718
78,1354,1,1,0,18,140.609482
-1536,1428,2,1,0,5,104.559006
-1069,-748,3,0,0,0,710.596069
1932,-1084,4,0,0,0,559.796082
1199,684,1,1,0,18,104.139778
-455,1065,2,0,0,0,844.347595
-75,-1839,3,1,0,15,102.535591
523,-1848,4,0,0,0,600.249939
1464,1903,1,0,0,0,594.424255
-1064,632,2,0,0,0,825.267883
-608,-893,3,0,0,0,764.717407
1732,-83,4,0,0,0,629.323181
782,998,1,0,0,0,776.964966
-368,1029,2,0,0,0,861.047668
-1769,-1669,3,0,0,0,533.474243
209,-441,4,0,0,0,993.436340
849,632,1,0,0,0,828.869812
-1180,806,2,0,0,0,783.920898
-260,-140,3,0,0,0,1138.297363
1969,-499,4,0,0,0,584.351868
279,1586,1,0,0,0,708.378540
-295,1247,2,1,0,5,138.760635
-853,-1602,3,0,0,0,616.333008
1351,-943,4,0,0,0,643.896912
920,1273,1,0,0,0,715.530640
-1129,1617,2,1,0,5,117.719139
-1393,-864,3,1,0,8,122.959694
967,-946,4,0,0,0,700.235291
412,106,1,1,0,0,153.140503
-1117,940,2,1,0,5,159.642746
-1315,-938,3,0,0,0,649.544922
457,-258,4,0,0,0,972.494080
334,1428,1,0,0,0,735.189148
-598,1861,2,0,0,0,694.077454
-1092,-114,3,0,0,0,760.077209
1594,-800,4,0,0,0,621.307861
1348,311,1,0,0,0,751.929565
-1297,431,2,0,0,0,796.721069
-780,-842,3,0,0,0,747.339172
1631,-745,4,0,0,0,619.779053
647,667,1,0,0,0,866.316650
-1967,418,2,1,0,5,79.619438
-618,-980,3,1,0,8,122.959694
1185,-589,4,0,0,0,706.541687
116,862,1,0,0,0,885.357849
-1637,1100,2,1,0,5,104.721878
-604,-1508,3,0,0,0,647.923950
744,-429,4,0,0,0,830.660217
555,1512,1,0,0,0,708.327271
-895,600,2,0,0,0,865.109741
-374,-100,3,0,0,0,1060.199097
732,-1500,4,0,0,0,640.196289
1218,1361,1,0,0,0,672.353271
-868,1486,2,0,0,0,730.566650
-970,-1203,3,0,0,0,662.175903
354,-566,4,0,0,0,903.160889
1980,1026,1,1,0,15,102.535591
-630,50,2,0,0,0,1018.823486
-1093,-739,3,0,0,0,707.392639
700,-1485,4,0,0,0,644.910583
39,965,1,0,0,0,855.216003
-549,1687,2,0,0,0,721.847656
-507,-1687,3,0,0,0,624.833557
1866,-583,4,1,0,15,102.535591
1694,714,1,0,0,0,670.498169
-1676,202,2,0,0,0,736.085693
-1518,-251,3,1,0,8,122.959694
1195,-1625,4,0,0,0,586.335144
1409,1955,1,0,0,0,593.379150
-1959,1431,2,0,0,0,632.387451
-404,-358,3,0,0,0,964.373535
1024,-1705,4,0,0,0,590.331482
765,1991,1,0,0,0,628.089478
-278,229,2,1,0,0,236.568649
-251,-1975,3,0,0,0,590.043945
73,-1303,4,1,0,15,102.535591
137,508,1,0,0,0,1030.192261
-1528,678,2,0,0,0,738.896301
-1572,-178,3,0,0,0,655.475037
1206,-1541,4,0,0,0,594.942871
704,384,1,1,0,15,102.535591
-39,415,2,1,0,0,187.968842
-1769,-1903,3,0,0,0,514.909485
497,-461,4,0,0,0,898.751709
898,253,1,1,0,15,102.535591
-972,66,2,0,0,0,894.114929
-1791,-1962,3,0,0,0,508.690887
1068,-1709,4,0,0,0,586.591248
269,1968,1,0,0,0,648.391113
-219,1857,2,0,0,0,706.782410
-646,-1878,3,0,0,0,590.740967
946,-651,4,1,0,15,102.535591
812,1816,1,0,0,0,647.964539
-1526,938,2,0,0,0,719.090454
-708,-705,3,0,0,0,787.154724
609,-1875,4,0,0,0,592.831665
381,31,1,1,0,0,185.043320
-224,998,2,0,0,0,880.101135
-168,-836,3,0,0,0,832.713745
1156,-1725,4,0,0,0,578.103943
602,557,1,0,0,0,902.270996
-1291,715,2,1,0,5,128.298782
-1288,-523,3,0,0,0,692.438293
363,-1670,4,0,0,0,633.459412
241,1990,1,0,0,0,645.782959
-1682,1227,2,0,0,0,676.035767
-919,-914,3,0,0,0,712.485474
793,-28,4,0,0,0,853.421875
227,1366,1,0,0,0,751.655334
-213,227,2,1,0,0,289.427277
-950,-1291,3,0,0,0,651.742920
1965,-1115,4,1,0,15,102.535591
1634,1369,1,0,0,0,628.251831
-494,1123,2,0,0,0,827.763794
-836,-405,3,0,0,0,808.094299
860,-1731,4,0,0,0,598.439331
1406,175,1,1,0,15,102.535591
-1563,1735,2,0,0,0,643.260132
-868,-759,3,0,0,0,746.023193
380,-1806,4,0,0,0,611.576660
1109,254,1,1,0,15,102.535591
-693,1172,2,0,0,0,797.812561
-135,-432,3,0,0,0,1015.154053
1415,-400,4,0,0,0,676.372498
125,600,1,0,0,0,986.205383
-843,1560,2,0,0,0,721.989868
-1730,-872,3,0,0,0,597.782532
742,-1816,4,0,0,0,594.229248
1759,149,1,0,0,0,682.085815
-1730,1437,2,0,0,0,653.996460
-1521,-718,3,0,0,0,638.005554
898,-1564,4,0,0,0,618.137207
1537,381,1,0,0,0,713.192261
-954,1225,2,0,0,0,760.087769
-1653,-1347,3,0,0,0,570.595337
445,-1745,4,0,0,0,618.551147
1244,1249,1,0,0,0,682.487732
-891,1592,2,0,0,0,713.837463
-1206,-402,3,1,0,8,122.959694
347,-1254,4,1,0,15,102.535591
64,1429,1,0,0,0,742.339417
-172,1926,2,0,0,0,697.176758
-598,-1696,3,1,0,8,122.959694
770,-1651,4,1,0,15,102.535591
833,1986,1,0,0,0,625.337280
-613,1392,2,0,0,0,766.002075
-143,-1424,3,1,0,8,122.959694
935,-1574,4,1,0,15,102.535591
1090,648,1,1,0,18,109.158997
-1211,1555,2,0,0,0,691.714417
-72,-236,3,0,0,0,1190.116943
12,-833,4,0,0,0,839.412354
936,1108,1,1,0,18,144.879425
-1491,75,2,0,0,0,771.358765
-1415,-1275,3,0,0,0,602.609924
1539,-1050,4,1,0,15,102.535591
1675,622,1,0,0,0,678.630676
-694,747,2,0,0,0,881.003113
-337,-911,3,0,0,0,795.266052
668,-1486,4,0,0,0,647.086487
95,1809,1,0,0,0,674.700195
-599,1411,2,0,0,0,763.767700
-1242,-1722,3,0,0,0,571.813538
633,-1924,4,1,0,15,102.535591
613,1526,1,0,0,0,702.366394
-1708,190,2,0,0,0,730.966858
-1855,-698,3,1,0,8,122.959694
606,-1389,4,0,0,0,667.759338
1435,1018,1,1,0,18,96.947319
-1505,595,2,0,0,0,748.195312
-1269,-1258,3,0,0,0,620.767822
647,-71,4,1,0,15,102.535591
546,635,1,0,0,0,896.257446
-110,730,2,0,0,0,974.026428
-522,-1730,3,0,0,0,617.574829
1171,-730,4,0,0,0,694.551575
997,1318,1,0,0,0,700.960571
-990,1798,2,1,0,5,108.978699
-78,-818,3,1,0,8,122.959694
588,-737,4,0,0,0,803.828918
759,1302,1,0,0,0,727.371277
-1693,1152,2,0,0,0,680.773560
-1067,-1610,3,0,0,0,598.643616
278,-1092,4,0,0,0,752.621033
400,1224,1,1,0,18,224.603333
-535,1656,2,0,0,0,727.362488
-1410,-51,3,0,0,0,688.191162
1671,-305,4,0,0,0,635.197144
1599,794,1,0,0,0,678.866760
-1904,1282,2,0,0,0,648.168030
-291,-1538,3,0,0,0,658.515442
898,-812,4,0,0,0,732.032166
543,1599,1,0,0,0,694.780334
-1270,1685,2,0,0,0,672.213928
-1621,-1024,3,0,0,0,600.728699
594,-1089,4,0,0,0,725.064331
353,190,1,0,0,0,1108.600586
-1265,1970,2,1,0,5,92.001686
-1747,-1425,3,0,0,0,554.848572
1262,-650,4,0,0,0,686.445496
1319,16,1,0,0,0,765.593750
-130,1068,2,0,0,0,865.544312
-1006,-818,3,1,0,8,122.959694
1391,-1514,4,0,0,0,580.920471
87,1037,1,0,0,0,833.738281
-221,1045,2,0,0,0,867.630554
-1150,-939,3,0,0,0,673.623108
1410,-873,4,0,0,0,642.029663
923,1194,1,0,0,0,726.975464
-1453,702,2,0,0,0,749.021484
-737,-447,3,0,0,0,829.611023
381,-1535,4,0,0,0,655.559570
92,801,1,0,0,0,907.189636
-74,1451,2,1,0,18,120.265457
-360,-1875,3,0,0,0,601.931152
1436,-1749,4,0,0,0,553.784607
1604,963,1,0,0,0,665.482727
-917,1062,2,0,0,0,789.172424
-516,-896,3,0,0,0,777.315674
1190,-455,4,0,0,0,717.415405
990,779,1,1,0,18,123.587807
-283,1131,2,1,0,5,142.870026
-742,-1903,3,0,0,0,582.780151
1685,-747,4,0,0,0,611.944580
1051,607,1,0,0,0,789.513367
-1626,593,2,0,0,0,728.934814
-266,-1848,3,0,0,0,608.283264
1912,-179,4,0,0,0,600.282593
676,1296,1,0,0,0,736.135803
-725,1604,2,0,0,0,724.093018
-1439,-1617,3,0,0,0,566.347961
1900,-766,4,0,0,0,581.940674
1868,866,1,0,0,0,638.142273
-1281,611,2,0,0,0,785.886658
-1124,-1828,3,0,0,0,568.797485
1755,-958,4,0,0,0,588.826660
1363,1683,1,1,0,18,92.574806
-51,1755,2,0,0,0,724.826416
-915,-821,3,0,0,0,727.648254
260,-1655,4,0,0,0,639.135681
1892,796,1,1,0,15,102.535591
-193,1742,2,0,0,0,725.330017
-364,-1128,3,0,0,0,738.113770
1058,-1017,4,0,0,0,676.940308
514,1977,1,1,0,18,105.101547
-1896,855,2,0,0,0,676.326538
-228,-147,3,0,0,0,1162.764893
1400,-1931,4,1,0,15,102.535591
125,1417,1,0,0,0,743.933899
-1266,1696,2,0,0,0,671.348633
-635,-612,3,0,0,0,823.030334
649,-1857,4,0,0,0,593.448425
1307,1291,1,0,0,0,670.688416
-1199,476,2,0,0,0,813.324280
-925,-1157,3,0,0,0,674.269592
1874,-347,4,0,0,0,602.436218
1861,1249,1,0,0,0,613.982910
-1667,1166,2,0,0,0,682.658325
-476,-1517,3,0,0,0,654.056641
1716,-422,4,0,0,0,623.931702
921,544,1,0,0,0,825.827698
-1051,238,2,0,0,0,865.082458
-436,-440,3,1,0,8,122.959694
619,-1001,4,1,0,15,102.535591
108,944,1,0,0,0,859.911621
-1368,1467,2,0,0,0,686.686218
-1030,-1461,3,0,0,0,620.656555
1801,-1496,4,0,0,0,544.188232
1073,627,1,0,0,0,782.713501
-1102,1038,2,0,0,0,767.347778
-499,-53,3,0,0,0,985.405579
1524,-1284,4,0,0,0,589.772034
1923,209,1,0,0,0,655.958252
-1469,1079,2,0,0,0,714.102234
-1595,-271,3,0,0,0,649.086304
1975,-1593,4,1,0,15,102.535591
1613,1890,1,1,0,18,76.020630
-951,891,2,1,0,5,190.440277
-693,-1622,3,0,0,0,624.461670
869,-1845,4,1,0,15,102.535591
606,1302,1,1,0,18,199.323334
-1649,548,2,1,0,5,97.346519
-1192,-7,3,0,0,0,736.486450
1616,-429,4,0,0,0,639.702148
1637,1,1,0,0,0,703.678711
-1963,1438,2,0,0,0,631.524536
-530,-1360,3,0,0,0,678.485535
34,-337,4,0,0,0,1098.736450
1321,1797,1,0,0,0,615.379150
-466,1037,2,0,0,0,849.671082
-451,-1306,3,0,0,0,694.184326
1168,-216,4,0,0,0,737.502686
456,1114,1,0,0,0,791.885315
-1622,1368,2,0,0,0,670.612366
-1014,-289,3,0,0,0,771.698792
362,-601,4,0,0,0,888.850403
948,86,1,0,0,0,859.386353
-1663,1363,2,0,0,0,666.822510
-1228,-1258,3,0,0,0,625.406799
1540,-25,4,0,0,0,663.128967
1597,423,1,0,0,0,701.054626
-759,893,2,1,0,5,238.388763
-1229,-764,3,0,0,0,680.946899
181,-1141,4,0,0,0,745.469788
1450,188,1,1,0,15,102.535591
-1573,500,2,0,0,0,742.541992
-432,-1303,3,0,0,0,696.040588
117,-944,4,0,0,0,801.278992
874,1055,1,0,0,0,754.724609
-952,219,2,0,0,0,893.339661
-1070,-590,3,0,0,0,729.391357
1289,-437,4,1,0,15,102.535591
1818,142,1,0,0,0,672.806152
-1693,1528,2,0,0,0,650.013184
-1466,-1173,3,1,0,8,122.959694
1190,-1137,4,0,0,0,644.190552
1339,1083,1,1,0,18,104.023941
-125,1891,2,1,0,18,95.340706
-1986,-247,3,0,0,0,588.563782
1347,-965,4,0,0,0,642.268127
370,1693,1,0,0,0,687.374451
-1534,16,2,0,0,0,763.542542
-1993,-954,3,0,0,0,560.532776
1128,-396,4,0,0,0,735.652649
703,146,1,0,0,0,940.588074
-77,567,2,0,0,0,1047.471191
-1775,-579,3,0,0,0,608.283020
64,-551,4,0,0,0,956.522827
1145,1632,1,1,0,18,106.762924
-421,1113,2,0,0,0,836.545410
-85,-419,3,0,0,0,1031.580933
1203,-619,4,0,0,0,700.206909
1814,228,1,1,0,15,102.535591
-436,1127,2,0,0,0,832.123047
-138,-1440,3,0,0,0,681.048889
1090,-54,4,0,0,0,761.807434
1973,1432,1,1,0,18,69.298531
-345,221,2,0,0,0,1143.804199
-257,-525,3,0,0,0,941.432861
1706,-1015,4,0,0,0,590.868286
1909,1318,1,1,0,18,72.511513
-1334,1495,2,0,0,0,687.004089
-1038,-1509,3,1,0,8,122.959694
1034,-1291,4,0,0,0,642.777893
1928,144,1,0,0,0,656.099182
-148,684,2,1,0,5,121.654900
-336,-501,3,1,0,8,122.959694
1515,-567,4,0,0,0,649.127380
741,472,1,0,0,0,882.463257
-291,1517,2,0,0,0,761.570129
-219,-1511,3,1,0,8,122.959694
1276,-1726,4,0,0,0,568.727173
576,950,1,1,0,18,190.210617
-1597,1987,2,0,0,0,618.277710
-1935,-1651,3,0,0,0,520.868042
1221,-1614,4,1,0,15,102.535591
1800,712,1,0,0,0,655.755127
-206,1246,2,1,0,5,129.798767
-1930,-922,3,0,0,0,569.721619
34,-1558,4,0,0,0,659.779785
1395,640,1,0,0,0,722.145935
-1048,514,2,0,0,0,842.086365
-599,-1853,3,0,0,0,596.310364
1149,-333,4,0,0,0,735.463196
110,821,1,1,0,18,135.267670
-914,1337,2,0,0,0,747.981079
-603,-481,3,1,0,8,122.959694
1398,-678,4,0,0,0,660.630859
1347,1151,1,1,0,18,103.634216
-709,1373,2,0,0,0,761.459717
-847,-408,3,0,0,0,804.645935
903,-1766,4,0,0,0,591.102356
1139,1594,1,1,0,18,108.883560
-1395,1243,2,0,0,0,707.000977
-819,-1454,3,0,0,0,640.244629
1464,-554,4,0,0,0,658.510193
47,470,1,1,0,0,125.174660
-1183,148,2,1,0,8,122.959694
-833,-1817,3,0,0,0,588.912415
1229,-453,4,0,0,0,709.474243
898,224,1,0,0,0,867.474060
-778,51,2,1,0,8,122.959694
-610,-1452,3,0,0,0,656.761963
1616,-1617,4,0,0,0,550.918518
1070,1090,1,0,0,0,723.528564
-1369,1023,2,0,0,0,732.561584
-1672,-739,3,0,0,0,614.288208
300,-26,4,0,0,0,1132.660156
337,689,1,0,0,0,921.569885
-201,1715,2,1,0,5,104.113152
-1319,-1198,3,1,0,8,122.959694
180,-915,4,1,0,15,102.535591
489,1095,1,0,0,0,792.958557
-657,1093,2,0,0,0,816.634216
-1469,-1466,3,1,0,8,122.959694
789,-897,4,0,0,0,735.860474
1785,1228,1,0,0,0,623.625061
-1116,1994,2,0,0,0,649.453247
-1444,-617,3,0,0,0,657.603577
980,-1474,4,1,0,15,102.535591
1689,59,1,1,0,15,102.535591
-405,408,2,0,0,0,1046.125366
-1546,-1740,3,0,0,0,545.841003
1842,-1448,4,0,0,0,543.981262
645,876,1,0,0,0,820.980774
-1309,61,2,1,0,8,122.959694
-1626,-1654,3,1,0,8,122.959694
1980,-786,4,1,0,15,102.535591
1536,1234,1,1,0,18,91.089050
-254,1157,2,1,0,5,138.453125
-1480,-1557,3,0,0,0,568.500305
1576,-915,4,0,0,0,615.172241
22,1069,1,0,0,0,825.944885
-1234,881,2,0,0,0,766.905640
-1562,-481,3,0,0,0,646.187378
672,-932,4,0,0,0,747.029724
1798,517,1,0,0,0,665.486267
-1573,603,2,0,0,0,736.682922
-344,-1202,3,0,0,0,722.811340
1967,-83,4,1,0,15,102.535591
580,246,1,0,0,0,978.260132
-992,337,2,0,0,0,873.190674
-590,-1162,3,0,0,0,710.926147
143,-1217,4,0,0,0,728.573914
1718,542,1,1,0,15,102.535591
-970,82,2,0,0,0,894.345093
-1139,-16,3,0,0,0,749.510437
340,-389,4,1,0,15,102.535591
1934,974,1,0,0,0,623.782166
-1376,691,2,0,0,0,762.482422
-1763,-1545,3,0,0,0,543.839111
1372,-1460,4,0,0,0,588.253357
784,5,1,0,0,0,915.249207
-346,1433,2,0,0,0,774.979858
-1861,-50,3,0,0,0,609.102783
997,-862,4,0,0,0,707.698853
1663,726,1,0,0,0,674.216125
-351,1090,2,0,0,0,847.596375
-753,-1140,3,0,0,0,697.400513
594,-1563,4,0,0,0,639.686340
1114,1669,1,0,0,0,645.486328
-224,552,2,1,0,5,120.648705
-633,-471,3,0,0,0,855.054260
1351,-1066,4,0,0,0,631.478699
979,206,1,0,0,0,845.073425
-85,1767,2,0,0,0,722.663025
-439,-126,3,1,0,8,122.959694
9,-1049,4,0,0,0,773.157288
868,719,1,0,0,0,810.784119
-59,742,2,1,0,5,116.567833
-51,-247,3,1,0,0,281.741241
1607,-1207,4,0,0,0,587.361694
584,196,1,0,0,0,984.737000
-1536,202,2,0,0,0,760.722656
-1459,-1855,3,0,0,0,541.941345
1382,-1155,4,0,0,0,618.511902
110,1308,1,1,0,18,147.410553
-541,1355,2,0,0,0,777.950928
-903,-461,3,0,0,0,782.951965
66,-362,4,0,0,0,1074.844238
989,1041,1,0,0,0,741.245422
-1266,588,2,0,0,0,790.656433
-1220,-652,3,1,0,8,122.959694
844,-1431,4,0,0,0,641.518921
1783,777,1,0,0,0,654.395142
-1154,1587,2,0,0,0,692.981995
-466,-1117,3,1,0,8,122.959694
937,-782,4,1,0,15,102.535591
1784,1364,1,0,0,0,613.422729
-443,906,2,0,0,0,884.161133
-141,-1430,3,1,0,8,122.959694
1785,-1663,4,1,0,15,102.535591
3,1774,1,0,0,0,680.679688
-22,560,2,1,0,18,108.118546
-1801,-867,3,0,0,0,588.915344
1244,-297,4,0,0,0,716.305786
1595,1593,1,0,0,0,612.340515
-109,1834,2,0,0,0,711.825195
-431,-1392,3,0,0,0,678.961182
1563,-1858,4,0,0,0,533.945862
1618,1940,1,1,0,18,74.612007
-1377,588,2,0,0,0,770.513062
-1760,-1003,3,0,0,0,585.122192
1395,-1164,4,1,0,15,102.535591
1629,627,1,0,0,0,685.312073
-764,342,2,0,0,0,937.828674
-251,-180,3,1,0,0,210.210983
489,-1988,4,0,0,0,582.126099
853,221,1,1,0,15,102.535591
-1043,952,2,0,0,0,787.329407
-815,-740,3,0,0,0,759.321289
1342,-1458,4,1,0,15,102.535591
1524,1336,1,0,0,0,642.648865
-529,1792,2,1,0,5,109.807182
-607,-1254,3,1,0,8,122.959694
1004,-811,4,0,0,0,713.702881
506,576,1,0,0,0,921.686707
-1122,1944,2,1,0,5,96.835869
-1612,-603,3,0,0,0,631.449951
715,-1038,4,0,0,0,720.489746
1330,265,1,0,0,0,757.642395
-905,757,2,0,0,0,838.997437
-164,-264,3,0,0,0,1123.545410
667,-1869,4,0,0,0,590.962524
1621,881,1,0,0,0,669.471558
-1678,1646,2,0,0,0,641.394958
-1855,-785,3,1,0,8,122.959694
182,-1570,4,0,0,0,655.751587
1361,1823,1,0,0,0,609.735352
-1051,1955,2,0,0,0,657.748779
-770,-1849,3,0,0,0,588.334106
984,-809,4,0,0,0,717.449646
1136,12,1,0,0,0,808.510437
-531,985,2,0,0,0,854.233032
-1312,-1058,3,0,0,0,637.415161
1435,-148,4,0,0,0,681.837891
91,1074,1,0,0,0,823.635071
-1267,1630,2,1,0,5,110.359116
-1290,-1785,3,0,0,0,561.457275
1779,-726,4,0,0,0,600.123474
1217,1047,1,0,0,0,709.261597
-1504,750,2,1,0,5,111.950783
-792,-529,3,0,0,0,800.917419
210,-1828,4,0,0,0,612.428711
1759,559,1,1,0,15,102.535591
-1503,1609,2,0,0,0,660.049194
-470,-1959,3,1,0,8,122.959694
1251,-1164,4,0,0,0,633.496948
1824,1177,1,0,0,0,623.077454
-1499,1567,2,0,0,0,664.397766
-1715,-127,3,0,0,0,631.680908
1539,-232,4,0,0,0,660.143494
133,324,1,1,0,0,213.365952
-167,1193,2,0,0,0,833.020996
-920,-1458,3,1,0,8,122.959694
1180,-243,4,0,0,0,733.437805
229,1524,1,0,0,0,720.970825
-694,1418,2,0,0,0,755.309448
-855,-1647,3,0,0,0,610.015808
1270,-979,4,0,0,0,651.623108
200,325,1,1,0,0,185.576324
-1101,537,2,0,0,0,828.203613
-1433,-916,3,0,0,0,634.837952
658,-786,4,1,0,15,102.535591
111,591,1,1,0,18,117.174026
-1140,1972,2,1,0,5,94.896751
-1096,-1553,3,0,0,0,603.191650
830,-652,4,0,0,0,771.403687
687,1801,1,1,0,18,117.514297
-66,1794,2,0,0,0,718.454407
-486,-449,3,1,0,8,122.959694
21,-55,4,1,0,0,889.658691
831,1846,1,0,0,0,642.968506
-575,180,2,0,0,0,1032.588623
-454,-311,3,0,0,0,958.816528
66,-1574,4,1,0,15,102.535591
1575,1278,1,1,0,18,88.619278
-517,889,2,1,0,5,182.764923
-1740,-113,3,0,0,0,627.737732
953,-1095,4,0,0,0,680.055481
766,1511,1,1,0,18,143.400284
-681,1682,2,0,0,0,715.372070
-371,-1574,3,0,0,0,649.214600
398,-1385,4,0,0,0,682.147339
170,1537,1,0,0,0,719.993652
-382,873,2,1,0,5,156.747849
-1258,-960,3,0,0,0,655.401062
34,-744,4,0,0,0,871.657959
821,871,1,0,0,0,793.505737
-894,89,2,0,0,0,917.448059
-1467,-1314,3,0,0,0,593.117615
931,-603,4,0,0,0,757.141724
62,1802,1,1,0,18,108.300697
-1191,610,2,0,0,0,802.801331
-499,-1573,3,0,0,0,643.431213
1231,-1572,4,0,0,0,589.226074
993,1112,1,0,0,0,730.477783
-1261,395,2,0,0,0,806.413147
-529,-1141,3,0,0,0,721.117859
1704,-969,4,1,0,15,102.535591
1560,646,1,0,0,0,694.817017
-1852,1273,2,1,0,5,89.984116
-1334,-1262,3,0,0,0,612.996277
1445,-711,4,1,0,15,102.535591
887,804,1,0,0,0,793.455261
-603,1691,2,0,0,0,718.441345
-1358,-1426,3,0,0,0,593.155762
1333,-1601,4,0,0,0,577.182800
1683,323,1,1,0,15,102.535591
-746,840,2,0,0,0,853.096619
-222,-1339,3,1,0,8,122.959694
528,-563,4,1,0,15,102.535591
1293,1070,1,0,0,0,696.542664
-1693,1633,2,0,0,0,641.190063
-190,-805,3,0,0,0,841.480652
126,-1058,4,0,0,0,768.692505
1033,1398,1,0,0,0,686.503540
-689,58,2,0,0,0,992.904663
-748,-1809,3,0,0,0,594.836670
1676,-1285,4,0,0,0,573.317627
1792,1422,1,0,0,0,608.159119
-1199,187,2,0,0,0,830.912354
-556,-509,3,0,0,0,868.190857
833,-846,4,0,0,0,737.632385
332,113,1,0,0,0,1147.172729
-998,1503,2,0,0,0,717.029114
-673,-1882,3,0,0,0,588.930786
1277,-1301,4,0,0,0,615.072571
1219,1008,1,0,0,0,713.507324
-1181,1657,2,1,0,5,112.628502
-985,-341,3,0,0,0,774.992737
585,-1275,4,0,0,0,689.842712
1974,498,1,0,0,0,641.362915
-1603,1245,2,0,0,0,683.309692
-564,-649,3,1,0,8,122.959694
1197,-1277,4,0,0,0,626.656738
355,1128,1,1,0,18,214.160645
-308,1521,2,0,0,0,760.233032
-247,-656,3,0,0,0,889.113708
257,-130,4,0,0,0,1145.504883
546,1192,1,0,0,0,767.339905
-1452,816,2,0,0,0,739.942322
-369,-1053,3,0,0,0,755.448853
1370,-869,4,0,0,0,648.293091
427,506,1,0,0,0,963.947021
-1288,1701,2,0,0,0,669.033081
-119,-1342,3,0,0,0,701.404175
41,-1767,4,0,0,0,623.875427
1142,596,1,1,0,15,102.535591
-257,1820,2,0,0,0,711.697388
-633,-551,3,0,0,0,837.302185
1262,-1739,4,0,0,0,568.435425
208,1798,1,0,0,0,674.937256
-1268,1802,2,0,0,0,659.838989
-319,-205,3,0,0,0,1066.179932
1367,-227,4,0,0,0,693.348450
1848,123,1,0,0,0,668.366211
-557,1560,2,0,0,0,741.518005
-341,-1934,3,0,0,0,593.926575
312,-502,4,0,0,0,938.233093
973,1939,1,0,0,0,623.253967
-1630,1113,2,1,0,5,105.096458
-365,-933,3,1,0,8,122.959694
1046,-1779,4,1,0,15,102.535591
1257,1330,1,0,0,0,671.792908
-291,1757,2,1,0,5,105.231819
-188,-200,3,0,0,0,1159.373413
1057,-1252,4,0,0,0,645.465759
1065,1985,1,0,0,0,612.542847
-1256,352,2,0,0,0,810.141174
-888,-475,3,0,0,0,784.887878
379,-582,4,0,0,0,891.769287
209,1371,1,0,0,0,751.219299
-417,728,2,0,0,0,937.169678
-1569,-361,3,0,0,0,650.476868
1138,-1684,4,0,0,0,584.182312
37,1819,1,0,0,0,673.458923
-967,1168,2,1,0,5,178.874832
-1806,-373,3,0,0,0,611.796692
1616,-744,4,0,0,0,622.018433
349,1019,1,1,0,18,194.516296
-1710,926,2,0,0,0,695.558655
-1270,-1074,3,0,0,0,641.195068
1387,-1729,4,0,0,0,559.637207
17,864,1,0,0,0,887.218689
-734,598,2,0,0,0,902.352966
-540,-480,3,0,0,0,880.401245
506,-583,4,0,0,0,861.338867
1445,934,1,0,0,0,689.426575
-778,133,2,0,0,0,954.759216
-618,-715,3,1,0,8,122.959694
925,-1203,4,0,0,0,667.369568
48,575,1,0,0,0,1003.595703
-1623,1545,2,0,0,0,655.036011
-284,-696,3,1,0,8,122.959694
672,-1443,4,0,0,0,653.720154
490,1274,1,1,0,18,224.603333
-1241,1610,2,1,0,5,112.842285
-264,-889,3,0,0,0,808.578613
10,-1163,4,0,0,0,743.545349
328,1574,1,0,0,0,708.830872
-1021,596,2,0,0,0,838.421814
-1389,-1293,3,1,0,8,122.959694
198,-761,4,0,0,0,856.029419
1496,1667,1,0,0,0,614.164795
-1034,480,2,0,0,0,848.890625
-1423,-1134,3,0,0,0,615.606079
1746,-531,4,0,0,0,614.766968
723,1809,1,0,0,0,653.928284
-1248,1042,2,0,0,0,746.875000
-487,-1247,3,0,0,0,703.225525
1882,-429,4,0,0,0,598.819702
1212,1798,1,0,0,0,623.396484
-1502,403,2,0,0,0,759.631653
-130,-1392,3,0,0,0,690.812073
890,-1262,4,1,0,15,102.535591
1329,1708,1,0,0,0,623.949707
-1702,1336,2,0,0,0,665.030579
-1563,-1263,3,0,0,0,587.402588
1440,-377,4,0,0,0,672.878967
22,270,1,1,0,0,305.701721
-171,1186,2,0,0,0,834.545532
-269,-184,3,0,0,0,1109.847656
905,-729,4,1,0,15,102.535591
582,95,1,0,0,0,997.318481
-287,691,2,1,0,5,134.199890
-778,-555,3,1,0,8,122.959694
1492,-308,4,0,0,0,666.251343
1647,1213,1,0,0,0,640.017456
-268,170,2,0,0,0,1217.473633
-229,-838,3,0,0,0,827.362610
1589,-1031,4,0,0,0,604.183716
924,33,1,0,0,0,867.762817
-880,24,2,0,0,0,923.308105
-438,-707,3,0,0,0,839.898010
1408,-1038,4,1,0,15,102.535591
1214,776,1,0,0,0,740.263306
-1581,1451,2,1,0,5,101.171844
-912,-1571,3,1,0,8,122.959694
898,-1730,4,0,0,0,596.052490
1396,309,1,0,0,0,742.468445
-1380,1269,2,1,0,5,121.184914
-1095,-426,3,1,0,8,122.959694
300,-606,4,1,0,15,102.535591
1696,1507,1,1,0,18,80.073952
-1030,491,2,0,0,0,848.622498
-1916,-892,3,0,0,0,573.110718
71,-79,4,1,0,0,635.724121
1548,1255,1,1,0,18,90.285194
-254,1185,2,0,0,0,831.286804
-1583,-757,3,1,0,8,122.959694
1667,-683,4,0,0,0,618.449158
156,740,1,0,0,0,925.630371
-552,958,2,0,0,0,857.689148
-1981,-644,3,0,0,0,577.215149
1099,-1797,4,0,0,0,574.055481
226,1865,1,1,0,18,109.880928
-1756,647,2,0,0,0,706.547668
-31,-1319,3,0,0,0,707.396667
689,-1509,4,1,0,15,102.535591
673,1243,1,0,0,0,745.755798
-1505,1591,2,1,0,5,100.311615
-609,-57,3,0,0,0,928.360840
449,-456,4,0,0,0,915.337524
424,63,1,1,0,0,151.002625
-1928,1372,2,1,0,5,84.883293
-1041,-1198,3,0,0,0,654.564636
1545,-1139,4,0,0,0,600.415100
724,747,1,0,0,0,833.838318
-112,1091,2,1,0,5,125.005775
-1759,-709,3,1,0,8,122.959694
990,-1783,4,0,0,0,583.215149
650,118,1,0,0,0,964.586426
-1081,414,2,1,0,5,122.290749
-886,-1175,3,1,0,8,122.959694
1390,-675,4,0,0,0,662.198975
529,883,1,0,0,0,836.881470
-832,601,2,0,0,0,879.107544
-331,-385,3,0,0,0,982.025574
338,-817,4,0,0,0,822.299316
583,306,1,1,0,15,102.535591
-1229,236,2,1,0,5,104.093765
-998,-1129,3,0,0,0,669.380676
1059,-1158,4,0,0,0,657.799438
1753,840,1,0,0,0,654.554077
-46,1035,2,0,0,0,876.411804
-1865,-1086,3,0,0,0,567.189209
1747,-895,4,0,0,0,594.059204
475,1045,1,0,0,0,805.533447
-1671,225,2,1,0,8,122.959694
-942,-1022,3,0,0,0,692.484558
573,-183,4,1,0,15,102.535591
1248,567,1,0,0,0,754.564758
-1584,462,2,0,0,0,742.638245
-1453,-1336,3,1,0,8,122.959694
913,-797,4,1,0,15,102.535591
89,558,1,1,0,18,113.647369
-604,400,2,0,0,0,979.464600
-783,-118,3,1,0,8,122.959694
518,-1879,4,0,0,0,596.065186
1480,1873,1,0,0,0,596.062988
-1097,457,2,0,0,0,836.926941
-1264,-1187,3,1,0,8,122.959694
346,-1593,4,1,0,15,102.535591
1104,1221,1,0,0,0,702.090759
-857,134,2,1,0,8,122.959694
-272,-276,3,1,0,0,141.563919
202,-426,4,0,0,0,1003.383057
1194,1180,1,0,0,0,696.477295
-1556,33,2,0,0,0,759.405762
-1529,-381,3,0,0,0,656.612488
1306,-744,4,0,0,0,670.104309
682,985,1,0,0,0,793.238220
-1608,1,2,0,0,0,750.035889
-1287,-1347,3,0,0,0,608.899536
890,-374,4,0,0,0,797.030273
473,1516,1,0,0,0,712.368958
-1665,1608,2,0,0,0,645.774475
-750,-1578,3,0,0,0,627.166809
1476,-1195,4,0,0,0,603.444458
1579,959,1,0,0,0,669.088989
-1815,231,2,1,0,8,122.959694
-32,-1598,3,0,0,0,652.553650
117,-1463,4,0,0,0,676.913391
344,1102,1,0,0,0,803.896851
-907,945,2,0,0,0,808.943481
-32,-638,3,0,0,0,915.854919
87,-564,4,0,0,0,948.346008
1249,564,1,1,0,15,102.535591
-1159,376,2,0,0,0,829.736816
-924,-860,3,0,0,0,720.065857
1219,-1371,4,1,0,15,102.535591
968,681,1,0,0,0,796.740784
-1755,1486,2,0,0,0,647.641785
-1378,-1373,3,0,0,0,596.624817
666,-132,4,1,0,15,102.535591
102,224,1,0,0,0,1249.313354
-1980,239,2,1,0,8,122.959694
-905,-215,3,0,0,0,807.706665
1553,-1999,4,0,0,0,522.224976
1077,1596,1,0,0,0,657.279297
-1264,1330,2,1,0,5,128.366806
-462,-448,3,0,0,0,913.724915
1785,-810,4,1,0,15,102.535591
1220,1971,1,0,0,0,604.410400
-1044,1548,2,0,0,0,707.199463
-818,-627,3,0,0,0,778.234497
1619,-37,4,0,0,0,648.810608
727,475,1,0,0,0,885.804932
-1895,1289,2,0,0,0,648.607117
-734,-752,3,0,0,0,772.665161
55,-1208,4,0,0,0,732.370911
1834,326,1,0,0,0,666.726379
-1631,1340,2,1,0,5,101.247765
-898,-1201,3,0,0,0,670.761475
1251,-665,4,1,0,15,102.535591
1188,1253,1,0,0,0,688.416321
-1174,240,2,0,0,0,834.541504
-1228,-1898,3,0,0,0,554.079773
971,-1023,4,0,0,0,688.286865
780,561,1,1,0,18,119.877846
-393,933,2,0,0,0,883.054016
-1913,-224,3,0,0,0,599.439392
1372,-945,4,0,0,0,640.730225
759,1593,1,0,0,0,682.202881
-84,820,2,0,0,0,942.255615
-127,-1743,3,1,0,8,122.959694
791,-445,4,0,0,0,814.779968
539,301,1,0,0,0,984.111633
-363,1713,2,1,0,5,110.643303
-1675,-528,3,0,0,0,625.689941
1365,-575,4,0,0,0,674.297241
459,1182,1,0,0,0,776.940247
-39,533,2,0,0,0,1067.166992
-1850,-1130,3,0,0,0,565.926086
137,-686,4,0,0,0,889.695129
1053,308,1,0,0,0,818.538818
-1822,110,2,0,0,0,713.689758
-1652,-849,3,0,0,0,609.757080
783,-709,4,0,0,0,771.176208
765,521,1,0,0,0,867.459900
-1593,41,2,0,0,0,752.630310
-310,-620,3,0,0,0,892.326965
197,-1359,4,1,0,15,102.535591
1763,735,1,0,0,0,659.560059
-907,672,2,0,0,0,851.721863
-406,-1404,3,0,0,0,678.113525
630,-1127,4,0,0,0,713.591858
1764,387,1,0,0,0,675.575989
-1428,249,2,0,0,0,779.819702
-1691,-875,3,0,0,0,602.717468
1083,-1729,4,0,0,0,583.108093
578,1733,1,0,0,0,672.287476
-1631,1541,2,1,0,5,95.688477
-618,-1621,3,0,0,0,629.188049
534,-196,4,0,0,0,949.274841
875,681,1,0,0,0,815.500000
-1090,1665,2,1,0,5,115.788116
-1335,-405,3,1,0,8,122.959694
641,-1171,4,0,0,0,704.031067
1569,1765,1,0,0,0,599.123779
-1896,105,2,0,0,0,702.369873
-61,-1402,3,0,0,0,689.735657
1752,-36,4,1,0,15,102.535591
1036,437,1,0,0,0,811.478027
-1235,117,2,0,0,0,824.575256
-952,-1218,3,0,0,0,662.073303
198,-104,4,0,0,0,1218.456543
1480,1561,1,0,0,0,625.674194
-1355,290,2,0,0,0,792.764160
-33,-1233,3,0,0,0,726.692444
105,-316,4,1,0,0,185.931412
1724,606,1,0,0,0,672.200623
-160,702,2,0,0,0,981.235962
-1547,-1158,3,0,0,0,598.507446
812,-1150,4,1,0,15,102.535591
230,1551,1,0,0,0,716.020874
-894,466,2,0,0,0,884.259277
-1158,-1465,3,0,0,0,608.229065
432,-454,4,0,0,0,921.368958
818,1212,1,0,0,0,736.036560
-479,591,2,0,0,0,965.375427
-995,-253,3,0,0,0,779.349915
456,-1980,4,1,0,15,102.535591
1162,1450,1,0,0,0,667.432068
-885,1508,2,0,0,0,726.009277
-1004,-322,3,0,0,0,771.701050
322,-752,4,0,0,0,844.656189
1981,705,1,0,0,0,632.151917
-797,807,2,0,0,0,850.348206
-278,-153,3,0,0,0,1117.549194
1060,-1353,4,0,0,0,631.832581
1547,1083,1,0,0,0,662.818115
-48,534,2,0,0,0,1066.236206
-93,-1416,3,0,0,0,686.547729
1207,-143,4,0,0,0,730.906921
1993,1349,1,0,0,0,593.757568
-1301,884,2,0,0,0,756.367249
-312,-1550,3,0,0,0,655.647583
1493,-571,4,1,0,15,102.535591
1262,1498,1,0,0,0,652.378418
-1402,1258,2,0,0,0,704.678284
-142,-1731,3,0,0,0,628.859070
1371,-928,4,1,0,15,102.535591
1097,716,1,0,0,0,767.583557
-1428,1112,2,0,0,0,716.120300
-1507,-1287,3,0,0,0,591.345825
436,-101,4,0,0,0,1018.393250
918,1741,1,0,0,0,651.003235
-1867,536,2,0,0,0,695.884216
-543,-601,3,0,0,0,847.508667
410,-1703,4,0,0,0,626.435120
639,981,1,0,0,0,799.862427
-743,1698,2,0,0,0,709.309387
-853,-1024,3,1,0,8,122.959694
1121,-950,4,0,0,0,676.576660
311,39,1,0,0,0,1179.578857
-1675,1826,2,0,0,0,626.358826
-1174,-526,3,0,0,0,714.633423
935,-1718,4,1,0,15,102.535591
917,1943,1,0,0,0,626.012634
-556,485,2,1,0,5,134.917191
-445,-1960,3,0,0,0,587.350220
890,-968,4,0,0,0,708.353882
1518,646,1,0,0,0,701.458984
-1685,1757,2,1,0,5,86.479523
-822,-224,3,0,0,0,832.963135
1597,-905,4,0,0,0,613.112976
1666,1012,1,0,0,0,653.759766
-81,775,2,1,0,5,119.315834
-1668,-763,3,1,0,8,122.959694
1069,-470,4,1,0,15,102.535591
1220,1230,1,0,0,0,687.462891
-688,1063,2,0,0,0,818.680786
-54,-1460,3,0,0,0,678.216309
410,-948,4,0,0,0,777.620422
101,731,1,0,0,0,932.694702
-1557,1379,2,0,0,0,676.325073
-1958,-526,3,0,0,0,584.886353
1809,-881,4,0,0,0,587.034119
1833,434,1,0,0,0,663.534668
-1460,1476,2,0,0,0,676.845093
-624,-1068,3,1,0,8,122.959694
272,-368,4,1,0,15,102.535591
1204,782,1,0,0,0,741.291748
-311,1468,2,0,0,0,769.882263
-1484,-895,3,1,0,8,122.959694
1596,-772,4,0,0,0,623.001892
190,1520,1,0,0,0,722.701782
-885,1952,2,0,0,0,667.746582
-1602,-419,3,0,0,0,642.458740
1030,-1680,4,0,0,0,592.948853
507,63,1,0,0,0,1038.672485
-625,813,2,0,0,0,879.358154
-640,-1061,3,0,0,0,725.384888
1910,-48,4,0,0,0,601.729553
1919,997,1,1,0,15,102.535591
-187,1903,2,0,0,0,700.377380
-15,-1311,3,0,0,0,709.199463
1975,-634,4,1,0,15,102.535591
209,695,1,1,0,18,131.692505
-935,1854,2,0,0,0,676.799927
-492,-471,3,1,0,8,122.959694
1529,-571,4,0,0,0,646.579041
372,1656,1,0,0,0,693.328857
-1245,326,2,0,0,0,814.006165
-1556,-722,3,0,0,0,632.402222
1255,-949,4,0,0,0,657.037292
1544,1623,1,0,0,0,614.131836
-1486,258,2,0,0,0,768.422180
-1945,-1408,3,1,0,8,122.959694
1450,-1734,4,1,0,15,102.535591
868,300,1,0,0,0,869.702026
-1760,224,2,1,0,8,122.959694
-14,-1835,3,1,0,15,102.535591
1102,-719,4,1,0,15,102.535591
1693,1346,1,0,0,0,624.118286
-446,512,2,0,0,0,998.130493
-1250,-1601,3,0,0,0,584.360840
271,-1780,4,0,0,0,618.604370
274,1089,1,1,0,18,184.510208
-523,1708,2,0,0,0,719.884399
-1161,-895,3,0,0,0,677.253174
1213,-751,4,0,0,0,685.017090
1465,1637,1,0,0,0,619.684021
-1633,1303,2,0,0,0,675.054993
-1722,-1372,3,1,0,8,122.959694
654,-297,4,0,0,0,882.086487
569,314,1,0,0,0,969.307861
-1076,586,2,0,0,0,828.145996
-1571,-1449,3,1,0,8,122.959694
683,-1140,4,0,0,0,705.324951
1200,799,1,0,0,0,740.095520
-945,336,2,0,0,0,885.750061
-962,-76,3,0,0,0,797.146912
63,-416,4,0,0,0,1036.197632
1270,1619,1,1,0,18,99.786415
-898,1585,2,0,0,0,714.256470
-1332,-1856,3,1,0,8,122.959694
523,-927,4,0,0,0,768.994141
162,318,1,0,0,0,1142.132080
-1879,812,2,0,0,0,680.888367
-323,-1418,3,1,0,8,122.959694
971,-1549,4,1,0,15,102.535591
1890,32,1,0,0,0,662.536682
-105,348,2,0,0,0,1178.329468
-367,-1869,3,1,0,8,122.959694
1365,-471,4,0,0,0,681.567627
494,1817,1,0,0,0,663.644104
-325,1914,2,0,0,0,696.034546
-383,-257,3,0,0,0,1009.707153
402,-699,4,0,0,0,848.796082
1931,674,1,0,0,0,640.049500
-894,1122,2,0,0,0,782.794006
-151,-215,3,0,0,0,1172.004883
504,-615,4,1,0,15,102.535591
1223,1220,1,0,0,0,688.283630
-985,786,2,0,0,0,820.058594
-433,-1206,3,1,0,8,122.959694
1211,-847,4,0,0,0,674.945007
325,1988,1,0,0,0,644.384949
-789,970,2,0,0,0,822.303345
-1605,-1346,3,0,0,0,575.636414
77,-1296,4,0,0,0,712.009644
1838,701,1,1,0,15,102.535591
-104,930,2,0,0,0,905.708008
-1567,-1903,3,0,0,0,529.674683
441,-1321,4,0,0,0,691.917236
1766,1802,1,0,0,0,580.355469
-460,803,2,0,0,0,908.918457
-1114,-1646,3,0,0,0,590.521423
39,-825,4,0,0,0,841.897339
1856,514,1,0,0,0,657.210571
-1113,1847,2,0,0,0,665.995667
-1008,-1349,3,0,0,0,637.658508
1959,-398,4,0,0,0,588.887207
1705,642,1,0,0,0,673.068237
-147,1437,2,0,0,0,780.821594
-648,-1721,3,1,0,8,122.959694
1012,-1359,4,0,0,0,635.902161
1010,1836,1,0,0,0,633.134521
-1118,1331,2,0,0,0,727.697876
-1708,-795,3,0,0,0,605.720337
1396,-1960,4,0,0,0,536.468201
843,1465,1,0,0,0,694.518372
-793,746,2,0,0,0,862.124084
-117,-1383,3,0,0,0,692.890259
639,-1272,4,0,0,0,685.655518
711,1208,1,0,0,0,748.158997
-1246,1879,2,0,0,0,653.284485
-349,-569,3,0,0,0,903.196594
125,-315,4,0,0,0,1098.579468
1683,572,1,0,0,0,680.109009
-201,881,2,1,0,5,133.625702
-295,-1023,3,1,0,8,122.959694
134,-22,4,0,0,0,1362.403564
1558,656,1,1,0,15,102.535591
-1366,1132,2,0,0,0,721.847351
-1953,-1651,3,0,0,0,519.358154
1215,-128,4,0,0,0,729.428894
1033,1804,1,0,0,0,635.407715
-1536,624,2,0,0,0,741.266052
-1511,-1289,3,1,0,8,122.959694
1841,-60,4,1,0,15,102.535591
1057,92,1,0,0,0,828.166992
-1916,872,2,0,0,0,672.879456
-1784,-1424,3,0,0,0,551.343384
1374,-1956,4,0,0,0,538.343445
1668,730,1,0,0,0,673.243530
-248,1906,2,0,0,0,698.899109
-600,-543,3,0,0,0,847.772278
1314,-903,4,0,0,0,653.260620
862,715,1,1,0,18,128.760147
-890,622,2,0,0,0,862.900940
-972,-1225,3,0,0,0,658.790344
404,-694,4,0,0,0,849.985474
1175,653,1,0,0,0,760.169250
-1528,1180,2,1,0,5,111.624077
-1861,-128,3,0,0,0,608.534424
623,-395,4,0,0,0,874.418518
1496,796,1,0,0,0,693.781311
-249,701,2,1,0,5,131.245209
-438,-680,3,1,0,8,122.959694
63,-1200,4,0,0,0,734.178589
1187,253,1,1,0,15,102.535591
-557,656,2,0,0,0,929.845947
-789,-1659,3,0,0,0,612.886597
378,-1986,4,1,0,15,102.535591
1036,1704,1,0,0,0,647.255859
-61,1656,2,0,0,0,741.402649
-1600,-1616,3,0,0,0,552.403015
1978,-116,4,0,0,0,591.399414
314,573,1,0,0,0,967.757629
-630,299,2,0,0,0,990.448853
-1589,-1700,3,1,0,8,122.959694
134,-1726,4,0,0,0,629.782593
1719,389,1,0,0,0,682.545532
-1722,719,2,0,0,0,707.363708
-743,-1507,3,0,0,0,638.301575
126,-1413,4,0,0,0,686.637207
1433,1189,1,0,0,0,666.834839
-1988,454,2,1,0,5,79.441193
-913,-1127,3,0,0,0,680.295593
1379,-1683,4,0,0,0,564.884766
1363,1601,1,1,0,18,95.066589
-1840,1790,2,0,0,0,616.296753
-721,-197,3,0,0,0,870.634460
339,-1660,4,0,0,0,635.927185
475,1177,1,0,0,0,776.659241
-516,1306,2,0,0,0,788.942017
-236,-1614,3,0,0,0,646.749939
1741,-1338,4,1,0,15,102.535591
1984,1382,1,1,0,18,69.211044
-1281,960,2,0,0,0,751.323669
-674,-136,3,1,0,8,122.959694
640,-817,4,0,0,0,776.242737
222,809,1,1,0,18,144.600479
1819,-538,4,0,0,0,603.775635
886,427,1,0,0,0,849.978394
1603,-1414,4,0,0,0,569.906555
468,1162,1,0,0,0,780.424438
268,-1867,4,0,0,0,605.391602
318,1708,1,1,0,18,126.474136
1739,-1310,4,1,0,15,102.535591
1948,1652,1,0,0,0,576.885498
926,-1101,4,0,0,0,682.626892
747,808,1,1,0,18,147.249023
507,-750,4,0,0,0,815.507324
1597,670,1,0,0,0,687.557373
908,-1408,4,0,0,0,639.120422
304,586,1,0,0,0,964.788940
954,-1100,4,0,0,0,679.183960
1181,213,1,0,0,0,792.760620
116,-1233,4,0,0,0,725.531921
894,1530,1,0,0,0,680.995667
1995,-286,4,0,0,0,586.573303
1229,113,1,0,0,0,784.703430
917,-1653,4,0,0,0,604.762573
375,888,1,0,0,0,855.768555
551,-1503,4,0,0,0,652.108459
288,1448,1,0,0,0,733.274902
524,-239,4,0,0,0,945.702026
987,276,1,0,0,0,838.133728
1682,1171,1,0,0,0,639.460449
831,193,1,0,0,0,890.923767
233,1326,1,0,0,0,759.730530
1909,1576,1,1,0,18,70.379066
1785,405,1,0,0,0,671.737183
1998,254,1,0,0,0,644.428528
1891,1760,1,1,0,18,68.567978
1333,225,1,1,0,15,102.535591
1516,1255,1,0,0,0,651.022766


each generation good chromosome number
0,0,0,0,0,0,0,0,0,0,0,0,0,0,0,0,0,0,0,0,0,0,0,0,0,0,0,0,0,0,0,0,0,0,0,0,0,0,0,0,0,0,0,0,0,0,0,0,0,0,0,0,0,0,0,0,0,0,0,0,0,0,0,0,0,0,0,0,0,0,0,0,0,0,0,0,0,0,0,0,0,0,0,0,0,0,0,0,0,0,0,0,0,0,0,0,0,0,0,0,