mbs coordinate
0,0

cbsd coordinate and channel
-970,900,2
740,900,1
980,-860,1
-750,-850,5
-750,1000,4
1050,600,2
760,-1135,3
-870,-1100,1
-1080,450,1
970,530,3
540,-1000,2
-1200,-300,3
-200,1170,7
820,1255,4
930,-1080,6
-1115,-505,2
-180,1230,3
500,1150,8
1200,-450,10
-500,-1100,7
-650,980,9
1180,450,9
700,-1160,7
-1050,-900,8
-1200,820,10
1200,1000,11
1340,-1120,12
-1440,-1280,10
-1160,1350,13
1420,960,14

building coordinate
-885,985
-1055,815
830,810
650,990
1060,-860
900,-860
-830,-770
-670,-930
-668,1070
-832,930
965,675
1135,525
832,-1059
688,-1211
-965,-1035
-775,-1165
-1135,365
-1025,535
907,591
1033,469
638,-906
442,-1094
-1275,-390
-1125,-210
-298,1123
-102,1217
910,1206
730,1304
1005,-1005
855,-1155
-1178,-407
-1052,-603
-120,1290
-240,1170
410,1240
590,1060
1275,-375
1125,-525
-577,-1023
-423,-1177
-600,1070
-710,890
1135,535
1225,365
743,-1077
657,-1243
-1138,-855
-962,-945
-1100,866
-1300,774
1100,1100
1300,900
1440,-1020
1240,-1220
-1540,-1180
-1340,-1380
-1060,1450
-1260,1250
1320,1060
1520,860

area numbers
294,278,300,328

x , y , block , block number
area 1
1291,1912,0,0
1656,498,0,0
1525,1781,0,0
168,635,0,0
457,1175,0,0
768,223,0,0
1534,1953,0,0
1735,1934,1,0
1414,1361,0,0
747,754,0,0
539,42,0,0
726,436,0,0
794,1420,0,0
389,87,0,0
1368,1394,0,0
674,503,0,0
1204,962,0,0
241,1160,0,0
137,902,0,0
1128,1654,1,0
844,1961,1,0
1078,723,0,0
1385,621,0,0
227,92,0,0
1960,1262,0,0
293,1376,0,0
1782,997,0,0
859,1973,0,0
305,1039,0,0
1229,1492,0,0
1450,1631,1,0
545,288,0,0
1408,1144,0,0
566,1057,1,0
1145,450,0,0
203,1008,0,0
1208,588,0,0
1552,136,0,0
1828,614,0,0
961,354,0,0
993,976,0,0
1991,214,1,0
1459,1090,0,0
1981,616,1,0
1576,180,1,0
1952,1172,0,0
742,1720,0,0
624,1777,0,0
1461,408,0,0
1725,928,0,0
1944,1973,0,0
951,46,0,0
128,1952,1,0
1453,1906,0,0
363,743,1,0
1060,128,0,0
602,325,1,0
370,1424,0,0
118,1388,0,0
752,215,0,0
1544,1572,0,0
1539,953,0,0
1195,1040,0,0
1588,1988,0,0
472,1724,1,0
1636,154,0,0
1895,197,0,0
477,12,0,0
456,1821,0,0
510,1940,0,0
212,1318,1,0
678,1296,0,0
611,405,0,0
218,1384,0,0
472,1092,0,0
1747,1990,0,0
1168,1957,0,0
1140,1639,1,0
1065,264,1,0
856,774,0,0
1021,1054,0,0
604,37,0,0
421,93,0,0
1872,1995,1,0
1093,212,0,0
63,991,0,0
1318,908,0,0
347,727,0,0
600,870,0,0
1614,413,0,0
966,1815,0,0
1270,1441,0,0
1760,731,0,0
786,1594,0,0
1749,620,0,0
404,1457,0,0
1491,400,1,0
987,592,0,0
1343,458,1,0
1845,82,0,0
1531,1030,1,0
1514,1469,0,0
1218,237,0,0
1428,383,0,0
456,1418,0,0
61,378,0,0
1624,828,0,0
1153,943,0,0
410,1747,0,0
957,1104,0,0
125,803,0,0
1167,1875,0,0
668,369,0,0
276,592,0,0
334,1495,0,0
871,1826,0,0
1144,1709,1,0
1432,1907,1,0
478,98,0,0
951,1779,0,0
1225,1032,1,0
1722,1058,1,0
251,1613,0,0
490,972,0,0
151,1043,0,0
369,477,0,0
1892,1919,0,0
12,546,0,0
631,1057,0,0
1344,722,0,0
682,1805,0,0
1448,1377,0,0
1853,696,1,0
128,583,0,0
927,1337,0,0
946,1431,1,0
157,843,0,0
1392,1308,0,0
1791,881,0,0
1451,1734,1,0
1883,1981,0,0
106,269,0,0
504,568,0,0
137,186,0,0
1995,189,0,0
931,1621,0,0
1932,1437,0,0
804,362,1,0
424,375,0,0
1193,645,0,0
1460,1559,0,0
1422,1534,0,0
836,1846,0,0
1125,1531,1,0
1134,342,0,0
1603,1797,1,0
328,1331,1,0
1520,786,0,0
1154,223,0,0
1695,227,1,0
213,170,0,0
124,1198,0,0
62,1957,0,0
1160,345,0,0
732,1553,0,0
1277,253,0,0
1721,1127,1,0
1011,737,0,0
172,1164,0,0
981,525,0,0
835,722,0,0
947,560,0,0
1930,204,1,0
490,1320,0,0
926,395,0,0
1710,252,0,0
1505,466,0,0
284,1389,0,0
116,1461,0,0
987,1123,0,0
1146,1165,0,0
1954,1373,0,0
1647,1924,0,0
604,1305,0,0
173,219,1,0
147,1612,0,0
74,1682,0,0
993,996,0,0
1973,118,0,0
1312,702,0,0
491,1045,0,0
116,1362,1,0
737,583,0,0
1304,1561,0,0
1531,709,1,0
1101,1382,0,0
1604,915,1,0
1316,527,0,0
1776,1583,1,0
569,345,0,0
927,587,0,0
677,1902,0,0
1113,1512,1,0
875,549,0,0
1941,1199,0,0
1901,265,0,0
1754,131,0,0
1357,326,0,0
1737,263,0,0
821,1016,0,0
319,966,0,0
1227,1277,0,0
1215,1859,0,0
215,268,0,0
1239,795,0,0
88,158,0,0
149,368,0,0
1938,322,0,0
1152,95,0,0
440,1086,0,0
8,498,0,0
465,704,1,0
843,490,0,0
923,1929,0,0
1777,1733,0,0
320,979,0,0
1253,1922,1,0
751,1256,0,0
360,1267,0,0
1389,1498,0,0
1162,1699,1,0
1396,130,1,0
897,1879,0,0
1517,1479,0,0
1152,1881,0,0
283,409,0,0
1301,70,0,0
1066,151,0,0
298,971,0,0
973,384,0,0
41,1850,0,0
1382,353,0,0
1992,1377,0,0
84,284,0,0
659,1129,0,0
803,1303,0,0
1583,267,0,0
512,1162,1,0
239,274,0,0
380,1941,0,0
1454,1144,0,0
875,460,0,0
1161,1789,0,0
107,893,0,0
100,527,0,0
1553,357,0,0
360,498,1,0
630,984,1,0
1512,797,0,0
839,1100,0,0
1615,718,0,0
563,1699,0,0
1083,194,0,0
1898,1003,0,0
1224,1897,0,0
1834,542,1,0
878,1716,1,0
557,1640,0,0
82,910,0,0
1148,1661,0,0
278,834,0,0
1447,784,0,0
1552,1740,0,0
522,1285,0,0
1772,734,0,0
1416,91,0,0
453,1764,1,0
337,446,0,0
1071,859,0,0
1221,554,0,0
190,1446,0,0
885,1201,0,0
1095,778,0,0
1836,514,1,0
1279,185,0,0
1531,924,0,0
595,436,0,0
1171,1519,0,0
223,1351,1,0
1526,870,1,0
200,529,0,0
1982,114,0,0
1346,785,0,0
592,1521,0,0
area 2
-1737,857,1,0
-584,1576,0,0
-1751,135,0,0
-610,636,0,0
-1137,419,0,0
-219,568,0,0
-1743,1475,0,0
-57,1331,1,0
-662,1153,1,0
-780,978,0,0
-954,1870,1,0
-1054,208,0,0
-1445,898,0,0
-561,1428,0,0
-893,897,0,0
-1820,780,0,0
-541,1303,0,0
-1706,869,0,0
-1254,558,0,0
-186,1148,0,0
-1599,964,0,0
-425,941,1,0
-1508,1872,0,0
-1007,1281,1,0
-1936,1184,0,0
-206,452,0,0
-405,1105,1,0
-41,940,0,0
-23,600,0,0
-1767,1845,0,0
-1276,141,0,0
-864,457,0,0
-955,1191,0,0
-354,14,0,0
-1317,768,0,0
-417,507,0,0
-410,69,0,0
-1936,1144,0,0
-673,732,0,0
-691,132,0,0
-1586,24,0,0
-523,71,0,0
-728,1480,1,0
-119,949,0,0
-200,1813,0,0
-1364,1806,1,0
-1865,116,0,0
-610,1175,1,0
-1518,1204,0,0
-862,1137,0,0
-371,799,0,0
-245,646,0,0
-1187,1753,0,0
-1390,1236,0,0
-455,1640,1,0
-223,819,0,0
-1299,800,0,0
-669,1647,0,0
-1666,273,0,0
-526,52,0,0
-114,190,0,0
-1500,229,1,0
-862,1980,0,0
-1299,493,0,0
-1359,1872,1,0
-708,159,1,0
-1669,252,0,0
-1610,1053,0,0
-1364,1642,0,0
-1626,875,0,0
-20,84,0,0
-515,1494,0,0
-455,1665,0,0
-250,425,0,0
-385,1389,0,0
-254,1005,0,0
-1990,1949,0,0
-167,551,0,0
-1150,882,0,0
-1655,362,0,0
-671,407,0,0
-336,69,0,0
-936,114,0,0
-1128,111,0,0
-1163,27,1,0
-995,1209,0,0
-809,1311,0,0
-811,1130,0,0
-1466,602,0,0
-1321,1831,1,0
-1137,211,0,0
-1422,1520,0,0
-44,1626,0,0
-1668,627,0,0
-947,1287,0,0
-580,223,0,0
-1784,1852,0,0
-702,304,1,0
-1286,904,0,0
-1148,1295,0,0
-1649,456,0,0
-1655,437,0,0
-435,1784,0,0
-778,21,0,0
-1174,56,0,0
-1060,263,0,0
-132,804,1,0
-1101,919,0,0
-606,374,0,0
-1818,912,0,0
-693,1868,0,0
-1007,1451,0,0
-1076,331,0,0
-288,429,0,0
-645,301,0,0
-349,1016,0,0
-1275,574,0,0
-1849,1324,1,0
-1507,101,0,0
-1944,1476,1,0
-31,1346,0,0
-1353,1164,0,0
-896,1321,0,0
-781,402,0,0
-1242,140,0,0
-1843,1435,0,0
-938,17,1,0
-383,1144,0,0
-179,1090,0,0
-1554,805,0,0
-136,1781,0,0
-1968,895,1,0
-780,901,0,0
-1615,1622,0,0
-1539,956,0,0
-1850,710,1,0
-896,665,1,0
-400,1760,0,0
-510,1925,0,0
-1092,1962,1,0
-1896,354,0,0
-1760,683,0,0
-915,539,0,0
-365,159,0,0
-1658,727,0,0
-33,1635,0,0
-1864,985,1,0
-248,1440,1,0
-1774,811,0,0
-1446,420,0,0
-372,1332,0,0
-1977,1130,0,0
-988,700,1,0
-1117,810,1,0
-1106,471,0,0
-1288,1222,1,0
-1327,91,0,0
-1107,1021,0,0
-895,190,1,0
-1248,547,0,0
-1924,602,0,0
-713,1433,1,0
-282,1063,1,0
-470,1793,0,0
-400,1996,1,0
-1596,1141,0,0
-1211,1547,0,0
-1324,1283,1,0
-581,916,0,0
-521,577,0,0
-819,1375,0,0
-833,759,0,0
-286,1210,0,0
-1607,1547,0,0
-1102,1176,0,0
-1123,956,0,0
-53,670,0,0
-1186,916,1,0
-6,615,0,0
-1142,348,0,0
-1188,1283,1,0
-252,1246,0,0
-831,1690,0,0
-1408,1869,0,0
-1430,157,0,0
-900,1193,0,0
-1008,1021,0,0
-1590,150,0,0
-940,847,0,0
-1462,1971,0,0
-1945,1455,0,0
-1991,600,0,0
-268,920,0,0
-852,280,1,0
-987,1271,0,0
-1282,70,0,0
-844,421,0,0
-1534,1368,0,0
-18,162,0,0
-189,45,0,0
-1582,91,0,0
-289,1038,0,0
-759,1554,0,0
-1023,1457,0,0
-1467,839,0,0
-451,1995,0,0
-613,1915,0,0
-588,1577,0,0
-1169,1492,0,0
-361,1716,1,0
-1969,1948,0,0
-1376,1204,0,0
-1635,1437,0,0
-1805,1280,1,0
-998,329,0,0
-1175,778,0,0
-788,1986,0,0
-1345,1319,0,0
-873,933,0,0
-916,261,1,0
-873,1970,0,0
-1046,1709,0,0
-808,546,0,0
-1004,925,0,0
-195,785,0,0
-422,1452,0,0
-1157,189,0,0
-1405,1754,0,0
-145,9,0,0
-1833,1271,0,0
-293,1044,0,0
-263,1075,0,0
-720,1693,1,0
-1790,1286,0,0
-654,908,0,0
-895,1518,0,0
-1166,423,0,0
-1372,1036,0,0
-716,1511,0,0
-1468,1746,0,0
-1308,733,0,0
-1827,374,1,0
-1200,1920,0,0
-1923,94,1,0
-255,1449,1,0
-1681,215,0,0
-372,1316,0,0
-560,1825,1,0
-1538,949,1,0
-31,826,0,0
-1207,1125,0,0
-657,664,1,0
-875,489,0,0
-1827,543,0,0
-1894,687,0,0
-1183,1215,0,0
-354,1159,0,0
-318,499,0,0
-866,113,0,0
-1235,1205,0,0
-956,410,1,0
-189,1328,1,0
-1052,1182,1,0
-1913,468,0,0
-1582,157,1,0
-402,883,0,0
-445,687,0,0
-625,391,0,0
-54,983,1,0
-1272,452,0,0
-886,796,0,0
-901,1613,1,0
-912,1101,0,0
-1264,1218,0,0
-1812,992,0,0
-549,21,0,0
-364,542,0,0
-1298,101,1,0
area 3
-871,-1923,0,0
-1692,-230,1,0
-517,-1004,1,0
-1578,-1938,1,0
-1274,-1972,0,0
-1233,-155,0,0
-332,-1710,0,0
-1251,-1745,1,0
-49,-1264,0,0
-936,-1850,0,0
-1857,-747,1,0
-1466,-1065,0,0
-304,-1325,0,0
-1853,-987,0,0
-1407,-288,0,0
-616,-755,1,0
-1523,-1428,0,0
-442,-1550,0,0
-1203,-1233,0,0
-1409,-203,1,0
-1856,-675,0,0
-1329,-111,1,0
-1561,-1095,0,0
-762,-1851,0,0
-1257,-569,0,0
-1168,-1645,0,0
-1689,-549,0,0
-725,-1115,1,0
-801,-861,1,0
-1756,-474,0,0
-1266,-1163,0,0
-1257,-1538,0,0
-654,-990,0,0
-1536,-1456,1,0
-266,-812,0,0
-559,-601,1,0
-180,-627,0,0
-361,-181,0,0
-124,-1042,1,0
-1135,-854,0,0
-299,-256,0,0
-367,-473,0,0
-403,-630,0,0
-1813,-328,0,0
-106,-77,1,0
-728,-692,0,0
-371,-877,0,0
-667,-692,0,0
-1518,-798,0,0
-792,-701,0,0
-1418,-885,1,0
-94,-1919,0,0
-836,-706,0,0
-265,-557,0,0
-723,-1204,0,0
-1103,-1595,0,0
-350,-1441,0,0
-1285,-828,0,0
-600,-1362,0,0
-1652,-1734,1,0
-1592,-995,0,0
-95,-167,1,0
-1065,-300,0,0
-859,-1384,0,0
-1628,-483,0,0
-1437,-1474,0,0
-1961,-346,0,0
-377,-60,0,0
-1404,-1916,0,0
-951,-1500,0,0
-927,-538,0,0
-1469,-961,0,0
-310,-951,0,0
-1951,-1575,0,0
-1777,-878,0,0
-380,-1760,0,0
-1489,-1636,1,0
-497,-1282,1,0
-1930,-1831,1,0
-1137,-1511,0,0
-1585,-783,1,0
-238,-864,0,0
-25,-1732,0,0
-553,-1496,0,0
-366,-1188,0,0
-215,-386,1,0
-1680,-1750,0,0
-1926,-1781,1,0
-1064,-1983,0,0
-214,-513,0,0
-1176,-49,0,0
-68,-1413,0,0
-483,-1605,0,0
-1850,-535,0,0
-1851,-1468,0,0
-530,-1884,0,0
-706,-410,1,0
-1418,-742,0,0
-1926,-953,0,0
-1222,-1041,0,0
-449,-1482,1,0
-548,-470,0,0
-1682,-1123,0,0
-568,-608,0,0
-215,-1487,0,0
-1119,-1200,0,0
-1174,-1561,0,0
-750,-1414,0,0
-1657,-402,0,0
-1013,-1834,0,0
-270,-1871,0,0
-1679,-1659,0,0
-87,-1051,0,0
-618,-990,0,0
-1086,-1512,0,0
-378,-1411,0,0
-1350,-553,0,0
-549,-1602,0,0
-1153,-1691,0,0
-301,-1936,0,0
-514,-98,0,0
-1307,-697,0,0
-1348,-1090,0,0
-1162,-473,0,0
-1442,-1434,0,0
-615,-1020,0,0
-1945,-895,0,0
-1670,-1945,1,0
-365,-1579,0,0
-1556,-337,0,0
-1777,-173,0,0
-1725,-854,0,0
-731,-1359,0,0
-74,-1834,0,0
-1161,-442,0,0
-1890,-8,0,0
-445,-496,0,0
-1498,-744,1,0
-517,-756,0,0
-252,-759,1,0
-1368,-66,0,0
-1158,-931,0,0
-115,-1222,0,0
-1623,-1891,0,0
-1948,-517,0,0
-1350,-1740,1,0
-1377,-1314,0,0
-46,-939,0,0
-499,-1377,0,0
-509,-1534,0,0
-234,-1496,1,0
-1972,-188,0,0
-1961,-207,1,0
-659,-595,0,0
-137,-1418,0,0
-153,-1547,1,0
-1440,-191,0,0
-1093,-1667,0,0
-1371,-1469,0,0
-559,-61,0,0
-60,-674,0,0
-608,-1716,1,0
-1081,-1981,1,0
-242,-1629,0,0
-143,-263,0,0
-1147,-580,0,0
-636,-892,0,0
-1587,-1766,0,0
-1374,-1775,0,0
-1854,-1864,0,0
-515,-1826,1,0
-1391,-1550,0,0
-864,-925,0,0
-209,-1924,1,0
-1515,-569,0,0
-1564,-1763,0,0
-1243,-689,0,0
-1471,-1218,0,0
-236,-902,0,0
-316,-588,0,0
-459,-1972,1,0
-986,-510,0,0
-1161,-1676,0,0
-1546,-1377,0,0
-396,-948,0,0
-1988,-1449,0,0
-17,-743,1,0
-1,-1883,0,0
-270,-902,0,0
-226,-1667,0,0
-43,-380,1,0
-724,-1262,1,0
-161,-366,0,0
-1360,-1482,0,0
-1451,-1794,0,0
-1224,-1447,1,0
-1706,-514,1,0
-338,-1429,0,0
-702,-832,0,0
-1714,-1358,0,0
-1268,-190,0,0
-1903,-254,0,0
-1521,-563,1,0
-1884,-380,1,0
-228,-422,0,0
-286,-404,1,0
-1338,-781,0,0
-704,-1897,0,0
-1185,-705,0,0
-380,-1365,1,0
-378,-345,1,0
-1598,-1853,1,0
-1192,-1420,0,0
-1984,-1150,0,0
-1866,-172,0,0
-1167,-661,1,0
-1768,-1958,0,0
-385,-1933,0,0
-1989,-1861,0,0
-1062,-1057,0,0
-973,-1247,1,0
-681,-145,0,0
-74,-305,0,0
-982,-1505,1,0
-728,-1963,0,0
-1935,-571,0,0
-853,-484,0,0
-849,-401,0,0
-456,-1290,0,0
-1275,-781,0,0
-1415,-131,0,0
-1440,-1926,1,0
-1645,-203,0,0
-1713,-1947,0,0
-1072,-1275,1,0
-1804,-1310,0,0
-689,-68,0,0
-501,-1831,0,0
-801,-1865,0,0
-415,-1937,0,0
-488,-1459,0,0
-1624,-579,0,0
-687,-241,0,0
-1858,-1003,1,0
-1489,-729,0,0
-1940,-1187,0,0
-1050,-949,0,0
-422,-1246,0,0
-1798,-1909,0,0
-1769,-320,1,0
-257,-731,0,0
-1947,-201,0,0
-842,-79,0,0
-1388,-353,0,0
-1039,-730,1,0
-1001,-1831,0,0
-621,-1445,0,0
-1021,-524,0,0
-12,-48,0,0
-1762,-745,0,0
-263,-863,1,0
-1823,-1752,1,0
-487,-539,1,0
-1442,-1571,0,0
-495,-1361,1,0
-1786,-1676,0,0
-1777,-973,1,0
-455,-1554,0,0
-1199,-559,0,0
-183,-1712,0,0
-1536,-224,0,0
-1221,-686,0,0
-1569,-275,0,0
-1263,-123,0,0
-574,-1284,0,0
-679,-1668,0,0
-1149,-170,1,0
-1530,-156,0,0
-583,-1484,0,0
-1290,-368,0,0
-850,-1950,1,0
-1367,-126,0,0
-841,-1724,0,0
-960,-573,0,0
-714,-540,0,0
-222,-11,0,0
-31,-1699,0,0
-1918,-1730,1,0
-1094,-466,0,0
-1650,-1608,0,0
-1988,-1732,0,0
-1418,-1940,0,0
-334,-743,0,0
-1769,-311,0,0
-1319,-235,0,0
-1840,-1672,0,0
-1244,-1682,0,0
-1725,-975,0,0
-1134,-712,0,0
-1066,-1575,0,0
area 4
1400,-823,0,0
1497,-28,0,0
1296,-721,1,0
1913,-1384,1,0
556,-700,0,0
1325,-1833,0,0
954,-1040,1,0
1086,-1365,0,0
1633,-1662,0,0
1305,-1794,0,0
104,-1534,1,0
611,-16,1,0
1514,-1911,1,0
1697,-155,0,0
770,-1189,0,0
820,-757,0,0
299,-1409,0,0
673,-314,1,0
1879,-1149,0,0
1374,-86,1,0
1026,-1166,0,0
1343,-502,0,0
1482,-1733,1,0
679,-51,0,0
1368,-353,0,0
917,-1654,0,0
1311,-1515,0,0
1493,-987,1,0
594,-1310,0,0
1299,-286,1,0
308,-1013,0,0
638,-204,1,0
689,-317,0,0
1169,-1338,0,0
1597,-1663,0,0
162,-692,1,0
1623,-1237,1,0
1475,-100,0,0
206,-1675,1,0
1597,-1413,0,0
955,-229,0,0
572,-1295,0,0
923,-905,0,0
1157,-1469,0,0
505,-1371,0,0
1709,-472,0,0
1356,-1024,1,0
1687,-1772,1,0
797,-176,0,0
651,-161,0,0
1498,-1204,0,0
778,-1587,1,0
1877,-176,1,0
1476,-1862,0,0
475,-263,0,0
1474,-495,0,0
1905,-1180,1,0
1650,-176,0,0
1389,-73,0,0
1387,-21,1,0
1201,-1680,0,0
975,-494,0,0
1382,-149,0,0
365,-1584,0,0
1502,-1267,0,0
1585,-1835,0,0
1833,-1030,0,0
691,-1081,0,0
1968,-327,0,0
803,-1666,0,0
938,-56,0,0
1076,-1235,1,0
618,-63,0,0
390,-804,1,0
669,-1353,0,0
557,-644,1,0
1227,-1731,0,0
819,-1346,1,0
268,-648,0,0
409,-672,0,0
1874,-1267,0,0
1283,-1656,0,0
1839,-789,0,0
500,-338,0,0
636,-362,0,0
1572,-902,0,0
719,-1474,0,0
1844,-984,0,0
1035,-1724,0,0
401,-925,0,0
1870,-786,1,0
692,-371,0,0
1367,-296,1,0
1446,-827,0,0
1883,-1986,0,0
1457,-1319,0,0
918,-1502,0,0
852,-1143,0,0
293,-61,0,0
1198,-368,0,0
341,-543,0,0
1033,-580,0,0
1143,-1553,0,0
894,-840,0,0
1067,-284,1,0
974,-1082,0,0
826,-801,0,0
663,-65,0,0
1188,-1289,0,0
1016,-1844,1,0
1174,-1652,0,0
459,-1907,0,0
150,-972,0,0
1325,-1053,0,0
96,-686,0,0
16,-1067,0,0
1683,-1544,0,0
655,-1715,0,0
1213,-1782,0,0
288,-1898,0,0
507,-1091,1,0
873,-58,0,0
1611,-1200,0,0
1914,-1192,0,0
587,-1115,0,0
641,-1054,0,0
1897,-695,0,0
353,-1273,1,0
266,-1651,0,0
42,-1056,0,0
443,-203,0,0
1660,-767,1,0
633,-231,0,0
870,-1931,1,0
851,-1323,0,0
303,-178,0,0
1206,-1278,0,0
1572,-1334,1,0
1745,-1746,0,0
1526,-1584,1,0
326,-6,0,0
1279,-599,1,0
244,-1753,0,0
268,-657,0,0
1664,-1,0,0
1013,-58,0,0
1214,-1850,1,0
276,-1975,1,0
8,-1265,0,0
1673,-82,1,0
1811,-1019,0,0
423,-398,0,0
1475,-383,1,0
609,-540,0,0
1314,-1077,0,0
1962,-943,0,0
1853,-510,0,0
578,-1480,0,0
300,-284,0,0
452,-1580,0,0
1107,-1126,0,0
1634,-981,0,0
711,-528,0,0
564,-1984,0,0
625,-778,0,0
1808,-346,0,0
1521,-105,0,0
1985,-1325,0,0
641,-1566,0,0
1658,-593,0,0
1565,-805,0,0
501,-1690,1,0
1837,-662,0,0
1485,-1641,0,0
1270,-1028,0,0
677,-1680,1,0
901,-1360,1,0
1803,-40,0,0
1839,-1143,1,0
902,-1555,0,0
1047,-1273,0,0
835,-1235,0,0
519,-295,0,0
1661,-1460,0,0
1075,-1306,0,0
951,-1552,0,0
809,-809,0,0
135,-204,0,0
1354,-1254,0,0
82,-292,0,0
1007,-814,1,0
292,-267,0,0
1840,-957,0,0
1829,-310,0,0
1174,-661,0,0
1831,-1478,0,0
216,-1330,0,0
190,-1399,1,0
402,-821,0,0
778,-1101,1,0
579,-163,0,0
156,-308,1,0
697,-830,0,0
1609,-1513,0,0
322,-1426,0,0
1857,-115,0,0
200,-641,1,0
850,-1501,0,0
1169,-20,0,0
1961,-1023,0,0
710,-311,0,0
798,-1742,1,0
489,-647,1,0
71,-471,0,0
498,-466,0,0
217,-686,0,0
513,-1746,0,0
633,-1232,0,0
1964,-1531,0,0
1485,-1975,0,0
1525,-1494,0,0
464,-1386,0,0
336,-106,0,0
1189,-211,0,0
27,-935,0,0
1719,-718,0,0
965,-1984,0,0
810,-1254,0,0
858,-422,0,0
49,-1263,0,0
1150,-573,0,0
1771,-85,0,0
365,-627,0,0
1294,-1830,1,0
350,-1863,0,0
6,-316,0,0
1113,-1858,0,0
627,-212,0,0
1786,-1058,0,0
292,-687,0,0
650,-310,0,0
1634,-1146,0,0
1615,-207,0,0
506,-219,0,0
463,-1743,0,0
744,-1163,1,0
1391,-322,1,0
1656,-1355,0,0
668,-801,1,0
325,-793,0,0
1902,-57,1,0
1770,-160,0,0
1996,-91,0,0
1972,-1659,0,0
1829,-1737,1,0
1305,-1225,0,0
686,-1388,0,0
467,-81,0,0
1815,-1705,0,0
1629,-720,0,0
174,-1854,0,0
1784,-675,0,0
967,-679,0,0
1382,-1068,1,0
1093,-361,0,0
1783,-1156,1,0
1729,-731,0,0
1102,-165,1,0
1525,-695,0,0
688,-1306,0,0
1640,-1681,0,0
1019,-1362,0,0
468,-876,0,0
285,-74,0,0
1208,-92,1,0
1314,-883,0,0
2,-7,1,0
1726,-283,1,0
584,-1328,0,0
1347,-848,0,0
827,-1991,0,0
1727,-1525,1,0
916,-220,0,0
844,-116,0,0
1004,-935,0,0
1607,-590,0,0
862,-1310,0,0
214,-1735,1,0
478,-1042,1,0
634,-847,1,0
464,-1341,0,0
1263,-1718,0,0
1093,-1400,0,0
1135,-1221,0,0
1545,-1163,0,0
855,-1320,1,0
760,-9,0,0
116,-1611,0,0
553,-1918,0,0
742,-1023,0,0
774,-1888,0,0
495,-1951,0,0
1598,-1154,0,0
1810,-92,0,0
407,-678,1,0
1527,-1610,1,0
317,-1514,0,0
1882,-111,1,0
597,-1354,1,0
440,-561,0,0
378,-621,0,0
1177,-750,0,0
1065,-286,1,0
888,-634,0,0
1727,-931,0,0
279,-595,0,0
1624,-1829,0,0
64,-1445,0,0
360,-175,0,0
1144,-195,0,0
1348,-633,0,0
416,-1006,0,0
1116,-1173,0,0
1507,-1329,0,0
118,-436,0,0
17,-1801,0,0
676,-877,0,0
1816,-1245,0,0

near cbsd peopel number
63
57
61
51
64
65
71
50
64
61
70
60
59
55
71
58
59
61
51
63
64
67
71
57
70
54
66
50
57
52
