mbs coordinate
0,0

cbsd coordinate and channel
-970,900,2
740,900,1
980,-860,1
-750,-850,5
-750,1000,4
1050,600,2
760,-1135,3
-870,-1100,1
-1080,450,1
970,530,3
540,-1000,2
-1200,-300,3
-200,1170,7
820,1255,4
930,-1080,6
-1115,-505,2
-180,1230,3
500,1150,8
1200,-450,10
-500,-1100,7
-650,980,9
1180,450,9
700,-1160,7
-1050,-900,8
-1200,820,10
1200,1000,11
1340,-1120,12
-1440,-1280,10
-1160,1350,13
1420,960,14

building coordinate
-885,985
-1055,815
830,810
650,990
1060,-860
900,-860
-830,-770
-670,-930
-668,1070
-832,930
965,675
1135,525
832,-1059
688,-1211
-965,-1035
-775,-1165
-1135,365
-1025,535
907,591
1033,469
638,-906
442,-1094
-1275,-390
-1125,-210
-298,1123
-102,1217
910,1206
730,1304
1005,-1005
855,-1155
-1178,-407
-1052,-603
-120,1290
-240,1170
410,1240
590,1060
1275,-375
1125,-525
-577,-1023
-423,-1177
-600,1070
-710,890
1135,535
1225,365
743,-1077
657,-1243
-1138,-855
-962,-945
-1100,866
-1300,774
1100,1100
1300,900
1440,-1020
1240,-1220
-1540,-1180
-1340,-1380
-1060,1450
-1260,1250
1320,1060
1520,860

area numbers
322,282,256,340

x , y , block , block number
area 1
1466,196,0,0
1342,690,1,0
1973,607,1,0
1042,1957,0,0
10,1416,0,0
855,761,0,0
1980,1150,0,0
894,458,1,0
113,1000,0,0
1666,200,0,0
465,1816,0,0
985,1706,1,0
1035,81,1,0
1566,767,1,0
1625,1836,0,0
1010,1084,0,0
75,84,0,0
980,1994,0,0
400,670,0,0
1631,1466,0,0
1464,1388,1,0
792,1092,0,0
250,1777,0,0
1781,212,1,0
765,1891,1,0
1532,802,1,0
1443,242,0,0
28,1357,1,0
1780,1646,0,0
448,1692,0,0
1967,1943,1,0
1990,675,1,0
1427,926,0,0
858,717,0,0
1219,639,1,0
949,734,0,0
39,1064,0,0
1413,995,0,0
533,461,0,0
134,1569,0,0
415,627,1,0
268,1131,0,0
1029,801,0,0
1245,722,0,0
1596,1910,0,0
1403,1444,1,0
310,1424,0,0
1104,1183,0,0
628,384,1,0
1889,372,0,0
1139,930,0,0
540,1389,0,0
444,440,0,0
370,1911,1,0
522,574,1,0
638,853,1,0
734,649,0,0
1005,449,1,0
338,1031,1,0
1584,156,0,0
1860,362,1,0
1018,974,1,0
166,252,0,0
1082,941,1,0
1236,1573,0,0
1610,812,0,0
1425,58,1,0
19,766,0,0
832,1974,0,0
635,1426,0,0
1981,692,0,0
1219,985,1,0
1723,1581,0,0
1809,1402,1,0
1801,1460,0,0
1902,1135,0,0
1277,1192,0,0
1922,1219,1,0
838,479,0,0
1514,1740,0,0
1315,646,1,0
1565,434,0,0
1180,1238,1,0
928,1996,0,0
994,1221,0,0
1581,1245,1,0
1283,1488,0,0
390,387,0,0
136,1752,0,0
1065,163,0,0
1980,1674,1,0
634,165,0,0
1889,551,0,0
1580,992,0,0
741,1346,1,0
458,1619,1,0
990,768,0,0
1759,832,0,0
718,834,0,0
1678,524,0,0
442,122,0,0
451,1901,1,0
627,1147,1,0
392,711,0,0
660,1925,0,0
1607,4,0,0
1533,1888,0,0
307,1424,1,0
169,1349,0,0
25,879,0,0
1326,1302,0,0
945,553,0,0
1289,1682,1,0
541,292,0,0
1420,574,0,0
569,1629,0,0
1780,1861,0,0
142,424,0,0
1243,1173,0,0
1430,636,1,0
1664,1718,0,0
1080,197,1,0
1163,1498,0,0
1369,671,0,0
974,1403,0,0
569,1998,0,0
1893,488,0,0
783,1437,1,0
35,1547,1,0
1143,1986,1,0
401,473,1,0
938,952,0,0
1681,1857,1,0
1533,112,0,0
1167,579,0,0
353,734,0,0
110,642,0,0
401,938,0,0
813,349,0,0
1187,284,0,0
440,1606,0,0
1355,1901,0,0
1586,206,0,0
453,736,0,0
1833,1250,0,0
1140,1810,1,0
1059,33,0,0
445,660,1,0
417,26,0,0
1045,164,1,0
1395,755,1,0
1054,827,0,0
1415,378,1,0
1772,6,1,0
601,1197,0,0
1739,1755,0,0
1398,1783,0,0
771,678,0,0
292,1385,0,0
455,813,1,0
799,677,0,0
1213,1916,0,0
1002,1896,1,0
646,1224,0,0
334,1563,1,0
552,1635,1,0
930,1880,1,0
1296,492,0,0
358,1164,1,0
773,412,0,0
1310,1780,0,0
1450,392,0,0
1773,456,1,0
122,1418,0,0
1513,338,0,0
888,931,0,0
1790,1720,0,0
417,1885,0,0
1662,842,1,0
972,706,0,0
427,204,0,0
293,1454,0,0
590,1468,0,0
863,923,0,0
1146,1308,0,0
477,1517,0,0
1261,433,0,0
1202,204,0,0
1204,1988,0,0
108,1024,0,0
246,1288,0,0
1356,385,0,0
573,1417,0,0
817,1211,0,0
1079,39,0,0
833,638,0,0
85,770,1,0
718,1636,1,0
1896,739,1,0
318,1928,0,0
1817,764,1,0
216,474,0,0
824,48,0,0
278,1156,0,0
1742,1612,1,0
1187,550,1,0
1413,193,1,0
1810,1674,1,0
1210,1994,1,0
338,1642,0,0
900,1378,0,0
409,1918,0,0
1277,1513,0,0
1576,1437,1,0
560,1689,0,0
1574,487,1,0
1968,45,0,0
189,177,1,0
1136,154,0,0
677,552,0,0
451,435,0,0
1583,56,0,0
376,975,0,0
1510,1446,0,0
1908,514,1,0
610,787,1,0
767,1988,0,0
1356,661,0,0
117,1123,0,0
1842,353,0,0
1631,354,1,0
388,570,0,0
1647,284,1,0
1138,722,1,0
1134,618,0,0
327,1491,0,0
361,1107,1,0
1230,1174,0,0
1466,929,0,0
1645,1315,0,0
782,1033,0,0
17,751,0,0
1472,1656,0,0
1411,551,1,0
1883,1077,0,0
1828,1918,0,0
1536,569,0,0
246,155,0,0
774,378,1,0
1236,1662,0,0
328,241,0,0
763,702,0,0
151,597,0,0
1719,365,1,0
1711,680,1,0
749,687,1,0
1639,1480,1,0
801,1349,0,0
1121,9,0,0
1824,1067,0,0
395,458,0,0
375,1081,0,0
399,1267,0,0
1091,1364,1,0
1864,1227,0,0
1827,1926,1,0
1622,1419,1,0
1541,844,0,0
1510,1637,1,0
1108,1567,0,0
606,285,0,0
1762,1743,0,0
325,52,0,0
613,38,0,0
1930,243,1,0
1408,1795,0,0
897,1726,0,0
362,904,0,0
621,472,1,0
1359,1710,1,0
1765,1768,1,0
28,1582,1,0
1648,246,0,0
1189,640,0,0
1007,1705,0,0
928,1031,0,0
1198,228,0,0
230,1917,1,0
1652,639,1,0
947,1804,0,0
765,71,0,0
1737,152,1,0
1145,1534,0,0
505,1232,0,0
1786,727,0,0
799,271,1,0
147,207,0,0
1350,1532,0,0
573,785,0,0
1799,1248,0,0
1103,35,0,0
1388,1277,1,0
1728,591,0,0
780,378,0,0
662,1414,0,0
1394,530,0,0
6,12,0,0
532,740,0,0
1794,1484,0,0
868,791,0,0
752,471,0,0
407,1477,1,0
1237,1238,0,0
1882,1860,1,0
1516,247,0,0
1898,1041,0,0
1,1906,1,0
1197,1622,1,0
1697,1476,0,0
1576,1704,1,0
1530,1394,0,0
1216,95,1,0
area 2
-871,1979,0,0
-70,1183,0,0
-581,711,1,0
-517,1880,0,0
-918,1855,1,0
-1813,7,0,0
-1719,1501,0,0
-432,1202,0,0
-309,290,1,0
-180,877,0,0
-965,1795,1,0
-1112,45,1,0
-1853,802,0,0
-1584,1663,0,0
-1218,1178,1,0
-1216,1439,0,0
-667,491,0,0
-1151,1446,1,0
-138,14,0,0
-1933,1425,0,0
-281,1712,0,0
-1671,315,0,0
-1782,145,0,0
-1541,358,0,0
-1285,1373,0,0
-1112,1339,0,0
-3,1340,0,0
-1367,1019,1,0
-285,1259,0,0
-1083,1547,1,0
-389,589,0,0
-506,815,0,0
-447,1645,1,0
-879,87,0,0
-1409,129,0,0
-971,142,0,0
-140,519,0,0
-361,706,0,0
-1277,1952,1,0
-1213,1578,0,0
-705,16,0,0
-1391,433,0,0
-1725,1197,0,0
-264,290,0,0
-1501,50,1,0
-1106,851,0,0
-802,707,0,0
-1044,583,0,0
-555,725,0,0
-241,692,0,0
-1392,1887,0,0
-1153,703,0,0
-503,88,0,0
-1862,464,0,0
-1874,551,0,0
-1939,1123,0,0
-1067,423,0,0
-1958,894,0,0
-1155,1355,1,0
-1129,1401,1,0
-43,1272,1,0
-202,176,0,0
-997,164,1,0
-1581,1635,0,0
-407,1929,0,0
-1174,1148,0,0
-1594,1624,1,0
-847,537,0,0
-1493,959,0,0
-1350,961,1,0
-1459,1562,0,0
-810,1001,0,0
-1626,469,0,0
-1077,339,0,0
-1816,783,0,0
-817,1542,0,0
-1346,1010,0,0
-558,1551,0,0
-297,154,1,0
-527,792,1,0
-1117,1435,1,0
-1071,1861,1,0
-307,127,0,0
-705,594,1,0
-151,1934,0,0
-1013,1432,0,0
-692,1550,1,0
-1336,856,0,0
-1741,1523,0,0
-1794,1920,0,0
-915,1600,0,0
-657,1101,0,0
-646,1998,0,0
-1599,1329,0,0
-1653,803,0,0
-277,1348,0,0
-168,134,0,0
-1422,395,0,0
-919,1974,1,0
-1097,759,0,0
-361,13,1,0
-1654,892,1,0
-983,318,0,0
-1556,523,1,0
-828,1297,0,0
-844,1266,0,0
-1495,38,0,0
-1590,1895,0,0
-633,261,0,0
-1474,1493,1,0
-1674,548,1,0
-1049,1134,1,0
-69,1605,0,0
-1564,1655,0,0
-1117,47,1,0
-640,361,0,0
-1380,91,0,0
-1307,231,0,0
-1086,695,0,0
-1567,1749,0,0
-264,217,0,0
-1185,97,0,0
-1239,1774,0,0
-67,385,0,0
-938,24,0,0
-716,1233,1,0
-1779,1346,0,0
-536,1458,1,0
-696,1091,0,0
-1551,385,0,0
-1949,260,0,0
-1587,1730,0,0
-1874,810,0,0
-1186,591,0,0
-1234,729,0,0
-890,997,1,0
-278,372,0,0
-1650,462,1,0
-1007,1836,1,0
-1247,1171,0,0
-118,1887,0,0
-529,1650,0,0
-474,224,1,0
-1348,1868,1,0
-1323,696,1,0
-920,116,0,0
-1616,100,1,0
-795,606,0,0
-95,1051,0,0
-1134,1192,0,0
-30,1684,1,0
-1339,727,1,0
-609,212,0,0
-145,159,0,0
-1701,283,1,0
-419,693,0,0
-1235,343,0,0
-1289,511,0,0
-847,584,0,0
-954,1753,1,0
-895,796,0,0
-732,75,1,0
-157,715,1,0
-456,178,0,0
-228,993,0,0
-251,1167,1,0
-103,664,1,0
-550,544,1,0
-712,195,0,0
-1836,587,0,0
-276,942,0,0
-1190,241,0,0
-60,1918,1,0
-355,1873,0,0
-130,1417,1,0
-474,776,0,0
-1308,1325,0,0
-904,1680,1,0
-191,782,1,0
-1670,118,0,0
-1143,1964,0,0
-170,768,0,0
-960,76,0,0
-219,1018,0,0
-843,333,1,0
-50,1478,0,0
-659,695,0,0
-690,1752,1,0
-1477,579,0,0
-1233,1471,1,0
-1774,1171,0,0
-1159,714,1,0
-107,1513,0,0
-1693,1863,0,0
-1756,1590,0,0
-565,1050,1,0
-1005,1532,0,0
-99,698,0,0
-860,370,0,0
-187,162,0,0
-919,1990,0,0
-484,116,0,0
-1497,1280,1,0
-257,884,0,0
-95,404,0,0
-699,56,1,0
-407,138,0,0
-1992,1824,0,0
-1447,1823,1,0
-1167,1840,0,0
-1608,336,1,0
-981,329,0,0
-727,1065,0,0
-1186,679,1,0
-1069,4,0,0
-506,1668,1,0
-546,1231,0,0
-884,327,0,0
-1142,475,0,0
-778,1096,0,0
-1398,437,1,0
-1108,1604,1,0
-1435,1940,1,0
-598,239,0,0
-49,91,1,0
-887,1457,1,0
-305,954,0,0
-952,1949,0,0
-1733,1689,0,0
-264,731,1,0
-1900,0,0,0
-1579,881,0,0
-783,1793,0,0
-1378,33,0,0
-380,1462,0,0
-342,24,1,0
-764,1827,1,0
-1203,1750,1,0
-1366,1966,1,0
-551,179,0,0
-390,1392,0,0
-1402,723,0,0
-394,1965,0,0
-135,1671,0,0
-697,277,0,0
-1257,396,0,0
-120,178,0,0
-1728,931,0,0
-608,1818,0,0
-794,533,0,0
-439,1396,1,0
-1430,1559,0,0
-629,452,1,0
-1057,1092,1,0
-579,785,0,0
-929,984,0,0
-1209,647,0,0
-1402,1456,0,0
-1909,1572,1,0
-37,1038,1,0
-498,936,0,0
-1039,1287,0,0
-1428,1364,1,0
-941,33,1,0
-1583,80,0,0
-1453,562,1,0
-24,214,1,0
-1985,1200,0,0
-1785,215,0,0
-1411,1869,0,0
-808,363,0,0
-321,1241,0,0
-1499,332,0,0
-478,1062,1,0
-207,139,0,0
-1313,1700,0,0
-553,1451,0,0
-1425,1288,1,0
-811,733,0,0
-1089,711,0,0
-514,105,0,0
-306,569,1,0
area 3
-431,-1192,0,0
-1419,-1451,0,0
-1153,-582,0,0
-582,-1407,0,0
-43,-380,1,0
-329,-1389,0,0
-799,-146,1,0
-415,-1256,0,0
-202,-1596,0,0
-1730,-454,1,0
-1239,-519,0,0
-1689,-292,0,0
-1549,-1219,0,0
-1120,-1233,0,0
-153,-1929,1,0
-94,-132,1,0
-1961,-309,1,0
-1047,-60,1,0
-1910,-298,0,0
-1940,-123,0,0
-212,-553,0,0
-1289,-72,0,0
-894,-1660,0,0
-1347,-255,1,0
-1206,-363,0,0
-1230,-399,1,0
-26,-1454,1,0
-163,-1183,0,0
-999,-694,0,0
-1621,-1605,0,0
-322,-536,0,0
-975,-1109,0,0
-1422,-1281,0,0
-901,-1732,0,0
-86,-218,0,0
-1318,-1510,1,0
-78,-1701,0,0
-1800,-963,0,0
-333,-263,0,0
-582,-698,0,0
-677,-1202,0,0
-1336,-436,0,0
-910,-1489,1,0
-1699,-145,0,0
-1265,-1843,0,0
-1534,-1969,1,0
-1634,-752,1,0
-551,-1645,0,0
-609,-1219,0,0
-810,-1650,0,0
-1742,-226,0,0
-1277,-1499,1,0
-1323,-1101,1,0
-871,-225,0,0
-1476,-475,1,0
-66,-1293,0,0
-6,-1570,0,0
-1737,-777,0,0
-998,-462,1,0
-963,-1235,0,0
-1512,-1572,1,0
-813,-1854,1,0
-1529,-68,0,0
-723,-473,0,0
-1599,-134,0,0
-846,-397,1,0
-644,-333,1,0
-287,-1738,1,0
-1655,-715,1,0
-664,-999,1,0
-756,-130,1,0
-279,-558,0,0
-374,-172,0,0
-277,-1575,0,0
-1736,-1923,1,0
-1785,-397,1,0
-44,-1106,1,0
-188,-833,0,0
-1136,-1237,0,0
-1535,-1583,1,0
-454,-171,1,0
-16,-1186,1,0
-974,-1712,0,0
-730,-1755,0,0
-400,-77,0,0
-391,-964,0,0
-1219,-572,1,0
-551,-565,0,0
-1039,-393,0,0
-1810,-1546,1,0
-1231,-521,0,0
-152,-1306,0,0
-1750,-1965,0,0
-129,-1147,1,0
-1235,-1489,0,0
-1908,-1177,1,0
-790,-140,1,0
-1027,-1814,0,0
-1655,-1463,0,0
-1811,-361,0,0
-1797,-1476,0,0
-728,-311,0,0
-24,-157,0,0
-662,-1555,0,0
-337,-1182,0,0
-1841,-1450,0,0
-250,-1637,1,0
-802,-731,0,0
-750,-1292,0,0
-499,-985,0,0
-1915,-747,1,0
-1590,-106,0,0
-59,-1690,0,0
-1386,-1046,0,0
-351,-1405,0,0
-1931,-783,1,0
-1957,-873,0,0
-1503,-1318,0,0
-1538,-1890,0,0
-1564,-67,1,0
-32,-1777,0,0
-1245,-1469,1,0
-1603,-709,0,0
-1059,-873,0,0
-362,-602,1,0
-1608,-1477,1,0
-1014,-505,1,0
-295,-1077,0,0
-1734,-439,0,0
-816,-896,0,0
-1952,-67,0,0
-30,-293,1,0
-1915,-1317,1,0
-253,-921,0,0
-617,-718,0,0
-1240,-662,1,0
-1247,-682,0,0
-1782,-153,1,0
-1099,-1896,0,0
-1242,-803,0,0
-448,-1462,0,0
-1495,-118,0,0
-872,-1993,0,0
-1419,-973,0,0
-861,-426,0,0
-1611,-517,1,0
-1793,-729,1,0
-1055,-201,1,0
-84,-1120,1,0
-129,-145,1,0
-1865,-378,0,0
-1620,-742,0,0
-818,-306,0,0
-975,-1247,0,0
-1936,-963,0,0
-1624,-129,0,0
-1344,-1411,0,0
-208,-1346,0,0
-1112,-234,0,0
-1192,-1960,1,0
-1109,-603,1,0
-1575,-1280,0,0
-1437,-1178,0,0
-398,-581,0,0
-1840,-581,1,0
-303,-540,1,0
-1544,-56,0,0
-1806,-1879,0,0
-886,-1200,0,0
-1240,-784,0,0
-376,-172,1,0
-1406,-997,1,0
-781,-571,0,0
-31,-1489,0,0
-510,-280,0,0
-1155,-1367,1,0
-193,-1409,0,0
-1422,-362,1,0
-1168,-1472,0,0
-870,-1576,0,0
-1948,-1828,1,0
-1260,-1677,0,0
-676,-298,0,0
-280,-1813,0,0
-1839,-222,0,0
-83,-87,0,0
-863,-1603,0,0
-1917,-1426,0,0
-1437,-1269,1,0
-122,-1308,0,0
-582,-334,0,0
-1739,-39,0,0
-430,-1100,0,0
-1732,-584,1,0
-1382,-1892,0,0
-925,-175,1,0
-1928,-970,0,0
-593,-1891,1,0
-1447,-534,1,0
-128,-109,1,0
-654,-1575,0,0
-1693,-1025,0,0
-1194,-82,0,0
-1524,-202,0,0
-522,-989,1,0
-1347,-1089,0,0
-1655,-1354,0,0
-1619,-909,0,0
-776,-291,1,0
-1990,-1292,0,0
-1449,-279,0,0
-1752,-419,0,0
-568,-1549,1,0
-150,-1019,0,0
-986,-59,0,0
-1987,-1288,0,0
-1565,-1390,0,0
-139,-1252,0,0
-1337,-1511,0,0
-1077,-1094,0,0
-385,-1228,0,0
-952,-238,0,0
-1323,-1265,0,0
-1660,-523,0,0
-82,-1245,0,0
-1108,-1993,0,0
-1723,-1400,0,0
-885,-148,1,0
-1231,-718,1,0
-1636,-1576,0,0
-183,-507,1,0
-1372,-1683,1,0
-174,-536,0,0
-503,-13,0,0
-1748,-1430,0,0
-858,-27,0,0
-1344,-1011,1,0
-29,-1993,0,0
-1006,-460,1,0
-1260,-367,1,0
-132,-1791,0,0
-700,-76,0,0
-113,-1544,1,0
-252,-1422,1,0
-957,-609,0,0
-669,-1923,1,0
-1573,-864,0,0
-801,-492,0,0
-893,-126,1,0
-31,-1099,1,0
-469,-1802,0,0
-695,-1266,0,0
-1869,-97,0,0
-24,-888,1,0
-215,-379,0,0
-1857,-1783,1,0
area 4
723,-8,0,0
1648,-468,1,0
1947,-1670,0,0
1814,-656,0,0
1603,-1310,0,0
401,-50,0,0
1178,-1863,0,0
1121,-1009,0,0
1995,-633,0,0
156,-799,1,0
87,-1379,0,0
1313,-1052,1,0
263,-1197,0,0
833,-447,0,0
733,-1274,0,0
1147,-493,0,0
1173,-1958,0,0
102,-67,0,0
66,-1968,0,0
219,-1699,0,0
1039,-442,0,0
167,-97,0,0
1555,-876,0,0
237,-1657,0,0
1067,-1822,1,0
1539,-1661,1,0
1198,-1382,0,0
538,-416,0,0
1413,-792,1,0
1605,-819,0,0
1155,-577,1,0
180,-1374,0,0
497,-368,0,0
889,-1668,0,0
1527,-177,0,0
287,-1003,0,0
986,-892,0,0
1006,-1470,0,0
472,-1230,1,0
1179,-728,0,0
264,-1732,1,0
1942,-1497,0,0
1503,-1556,0,0
324,-640,0,0
1053,-1653,0,0
455,-761,1,0
1411,-1762,1,0
1777,-476,0,0
1264,-1649,0,0
1789,-1413,0,0
465,-147,0,0
364,-1830,0,0
1963,-1555,0,0
185,-206,0,0
1570,-1016,0,0
1488,-737,0,0
168,-598,1,0
870,-1750,0,0
1843,-1185,0,0
186,-6,1,0
1797,-586,1,0
240,-1438,0,0
1292,-1787,0,0
1125,-919,0,0
195,-1397,0,0
1789,-950,0,0
1864,-934,1,0
1232,-1362,1,0
591,-802,0,0
806,-4,0,0
1122,-1187,0,0
1065,-1576,0,0
82,-1666,1,0
391,-1123,1,0
865,-217,0,0
831,-1677,0,0
1468,-764,1,0
723,-1992,0,0
1221,-507,0,0
1814,-537,1,0
1524,-48,0,0
1857,-239,1,0
697,-976,0,0
250,-249,0,0
336,-1791,1,0
482,-296,0,0
819,-617,0,0
1327,-602,0,0
1458,-1411,0,0
1757,-1113,1,0
899,-210,0,0
773,-1886,0,0
1293,-1533,1,0
776,-1596,1,0
1662,-791,0,0
1601,-987,1,0
1422,-1857,0,0
190,-1447,0,0
673,-1625,0,0
977,-1812,1,0
920,-437,0,0
387,-203,1,0
295,-1893,0,0
1082,-1434,0,0
1868,-1995,0,0
404,-1249,1,0
736,-517,1,0
300,-647,1,0
497,-494,0,0
1651,-819,0,0
411,-283,0,0
1762,-1185,0,0
1802,-1616,0,0
1180,-1148,0,0
775,-1135,0,0
119,-997,1,0
1767,-1364,1,0
1274,-553,0,0
452,-714,0,0
1170,-394,0,0
1966,-86,0,0
654,-559,0,0
1691,-1703,1,0
291,-1541,0,0
177,-1715,0,0
627,-440,0,0
1682,-1778,1,0
973,-1445,0,0
432,-808,0,0
1647,-1630,0,0
1130,-34,1,0
45,-1691,1,0
1621,-1379,0,0
685,-1944,0,0
1889,-1275,1,0
64,-497,1,0
1210,-1459,1,0
544,-840,0,0
924,-326,0,0
325,-273,0,0
594,-217,1,0
1700,-136,0,0
1363,-428,0,0
119,-823,1,0
470,-798,0,0
987,-1092,0,0
1991,-855,0,0
524,-270,0,0
845,-1249,1,0
1902,-1892,0,0
1029,-1719,0,0
1794,-1921,0,0
386,-1585,0,0
1378,-1526,1,0
738,-1557,1,0
1403,-845,0,0
709,-713,0,0
131,-1846,0,0
1685,-1238,1,0
1151,-412,1,0
333,-735,0,0
1917,-1288,0,0
350,-627,1,0
176,-1188,0,0
1843,-1681,1,0
518,-330,0,0
285,-1050,0,0
822,-211,1,0
295,-1644,0,0
1094,-1212,0,0
1732,-491,0,0
1450,-1960,0,0
379,-220,0,0
72,-1925,0,0
1206,-1979,1,0
37,-1185,1,0
877,-1822,0,0
1892,-1592,0,0
812,-93,0,0
1797,-1536,0,0
1044,-534,0,0
1851,-157,0,0
1790,-1752,0,0
1365,-1908,1,0
1079,-1328,0,0
1322,-1171,1,0
597,-1294,0,0
1652,-676,0,0
1344,-49,0,0
1900,-1361,0,0
1074,-1943,0,0
1735,-1720,0,0
153,-947,0,0
1518,-1649,0,0
1823,-1923,0,0
1421,-1885,1,0
1601,-47,0,0
333,-943,0,0
122,-1212,0,0
1419,-147,0,0
1777,-224,0,0
73,-4,1,0
1024,-667,0,0
1048,-1308,0,0
1227,-208,0,0
1671,-1952,0,0
307,-1939,0,0
253,-1247,0,0
803,-982,1,0
301,-11,1,0
556,-1094,0,0
1708,-995,0,0
1656,-110,0,0
1653,-838,1,0
1424,-1635,0,0
635,-572,0,0
1222,-767,1,0
604,-746,1,0
918,-1752,0,0
744,-1963,0,0
127,-925,1,0
1168,-732,0,0
1056,-1172,0,0
670,-1440,1,0
1628,-1259,0,0
1614,-1490,0,0
282,-978,0,0
783,-1189,0,0
602,-1312,0,0
986,-1357,0,0
1714,-1102,0,0
672,-842,1,0
1240,-1721,0,0
1593,-1527,0,0
1839,-1813,0,0
383,-368,0,0
1249,-1377,0,0
1329,-636,0,0
1617,-938,0,0
683,-90,1,0
485,-47,1,0
149,-343,1,0
227,-103,0,0
448,-415,0,0
38,-1899,0,0
229,-1759,0,0
663,-362,0,0
1376,-1527,0,0
15,-154,1,0
211,-516,0,0
1005,-1050,1,0
1209,-711,1,0
131,-686,0,0
384,-1953,0,0
351,-114,1,0
1693,-1955,1,0
1606,-1976,1,0
1056,-133,0,0
1416,-1711,0,0
1701,-814,0,0
442,-34,0,0
1536,-72,1,0
320,-378,1,0
407,-1791,0,0
253,-554,0,0
1999,-1201,0,0
669,-628,1,0
1052,-1504,1,0
452,-586,0,0
222,-1481,0,0
35,-951,1,0
1931,-529,0,0
1415,-1534,0,0
459,-441,0,0
666,-890,0,0
651,-946,0,0
448,-1686,0,0
1210,-804,1,0
423,-1887,0,0
1355,-1952,0,0
961,-615,0,0
1994,-553,0,0
1837,-792,0,0
1823,-595,0,0
979,-1275,1,0
1975,-457,0,0
1128,-1337,0,0
173,-907,0,0
803,-717,0,0
416,-301,1,0
1240,-1887,0,0
443,-182,0,0
1489,-1407,0,0
257,-290,0,0
863,-307,1,0
1234,-1294,1,0
952,-359,0,0
29,-1165,0,0
29,-571,0,0
1951,-153,1,0
1701,-948,0,0
1587,-1837,0,0
1521,-682,0,0
474,-1081,0,0
479,-1850,0,0
581,-1512,0,0
211,-1796,0,0
654,-35,0,0
837,-1161,1,0
71,-648,0,0
744,-372,1,0
835,-56,0,0
1517,-588,1,0
281,-1917,0,0
652,-128,0,0
825,-614,0,0
1208,-600,0,0
1548,-1097,0,0
989,-707,0,0
355,-580,0,0
1781,-1913,0,0
1317,-836,0,0
1509,-1019,0,0
1125,-485,0,0
228,-1900,0,0
969,-764,0,0
68,-60,1,0
40,-1352,1,0
1698,-1142,0,0
1912,-333,0,0
294,-197,1,0
275,-278,1,0
1082,-1032,0,0
821,-661,0,0
102,-466,0,0
1432,-300,0,0
479,-1114,1,0
1334,-973,0,0
1386,-519,0,0
1803,-612,0,0

near cbsd peopel number
55
65
67
38
49
69
57
36
66
73
58
69
57
56
62
51
53
61
56
46
55
76
57
40
51
62
71
50
49
64
