mbs coordinate
0,0

cbsd coordinate and channel
-970,900,2
740,900,1
980,-860,1
-750,-850,5
-750,1000,4
1050,600,2
760,-1135,3
-870,-1100,1
-1080,450,1
970,530,3

building coordinate
-885,985
-1055,815
830,810
650,990
1060,-860
900,-860
-830,-770
-670,-930
-668,1070
-832,930
965,675
1135,525
832,-1059
688,-1211
-965,-1035
-775,-1165
-1135,365
-1025,535
907,591
1033,469

area numbers
118,121,261,

x , y , block , block number
area 1
1962,690,0,0
1748,1058,0,0
1387,1268,0,0
669,1163,0,0
713,324,0,0
1513,279,0,0
1734,75,0,0
1228,861,1,0
1716,519,0,0
236,1620,1,0
1316,534,0,0
1390,441,1,0
1953,782,1,0
526,913,0,0
1454,1485,1,0
1832,1796,0,0
679,653,1,0
271,770,1,0
1844,915,0,0
13,549,1,0
720,1577,1,0
1323,523,1,0
391,245,0,0
807,916,0,0
1900,1095,1,0
215,323,0,0
1007,728,0,0
910,1472,1,0
1153,333,0,0
385,206,1,0
1423,321,0,0
1114,931,0,0
1390,1492,1,0
119,719,0,0
1249,1885,1,0
887,1461,1,0
1740,1427,0,0
1231,1763,0,0
587,1827,0,0
1861,491,0,0
302,792,0,0
1496,1010,0,0
364,644,0,0
725,45,0,0
1378,1103,0,0
1387,1441,0,0
195,1926,0,0
1443,1353,0,0
979,199,0,0
1010,57,0,0
1165,1095,0,0
763,1679,0,0
1654,79,0,0
644,853,0,0
273,741,0,0
1601,386,1,0
713,577,0,0
465,1337,0,0
165,1158,1,0
655,1951,1,0
1283,1765,0,0
428,900,0,0
1504,755,0,0
1913,488,0,0
1588,409,0,0
254,1283,0,0
1419,252,0,0
1918,1047,0,0
1187,31,0,0
1901,1593,1,0
1958,1990,0,0
1973,1265,1,0
1540,310,0,0
1995,1282,0,0
1932,1397,0,0
328,1624,0,0
489,948,1,0
174,1873,0,0
1901,1222,0,0
1663,1441,1,0
1723,69,0,0
589,557,0,0
995,1339,0,0
1851,1489,1,0
1311,1983,0,0
482,1063,0,0
78,329,1,0
1355,1468,0,0
350,1365,0,0
611,1499,0,0
59,271,1,0
976,1921,0,0
1766,1499,1,0
167,770,0,0
768,1046,1,0
38,1415,0,0
550,1771,0,0
1022,424,0,0
1680,490,0,0
1712,1646,0,0
120,499,0,0
608,1628,0,0
259,1343,0,0
640,799,0,0
1105,1401,0,0
579,1837,0,0
85,683,0,0
857,317,0,0
1224,14,0,0
479,1896,0,0
427,1541,1,0
167,1368,0,0
284,953,0,0
1688,979,0,0
1121,1347,0,0
190,1445,0,0
840,905,0,0
727,200,1,0
area 2
1444,-1040,1,0
1376,-1931,1,0
1561,-1948,0,0
1709,-884,0,0
1196,-939,0,0
848,-457,0,0
1620,-1937,0,0
919,-270,0,0
1601,-962,0,0
522,-1580,1,0
887,-1777,0,0
970,-1395,0,0
1938,-236,1,0
873,-421,0,0
257,-327,1,0
1577,-164,0,0
1202,-710,0,0
806,-1248,0,0
1678,-979,0,0
190,-271,0,0
280,-1532,0,0
1398,-1806,0,0
1218,-215,1,0
1754,-1440,0,0
716,-1769,1,0
343,-744,0,0
677,-680,0,0
1871,-107,0,0
1830,-1692,0,0
1220,-324,0,0
1402,-924,0,0
1087,-719,0,0
805,-1755,0,0
1812,-1070,0,0
1651,-1128,0,0
1878,-1702,0,0
250,-47,0,0
839,-1633,1,0
1692,-1534,1,0
1431,-1065,0,0
419,-337,0,0
507,-112,0,0
1441,-1631,0,0
1584,-1946,0,0
292,-189,0,0
169,-1347,0,0
1275,-1726,0,0
896,-1734,0,0
1385,-549,0,0
100,-582,1,0
811,-1833,0,0
1706,-897,0,0
1729,-1810,0,0
1495,-1087,0,0
743,-1826,0,0
1880,-979,1,0
346,-915,0,0
1735,-1277,1,0
648,-1029,0,0
1628,-1875,0,0
162,-1646,0,0
324,-77,0,0
272,-1687,0,0
1344,-768,1,0
192,-1879,1,0
1573,-1889,0,0
1203,-1048,0,0
1817,-921,1,0
1612,-354,0,0
1758,-854,0,0
1199,-994,1,0
1763,-329,0,0
719,-5,0,0
1793,-1951,0,0
1214,-1993,1,0
1583,-1140,0,0
980,-1736,0,0
1278,-1563,0,0
1139,-924,0,0
1096,-72,0,0
1746,-303,0,0
1931,-128,0,0
1994,-1309,0,0
1070,-401,0,0
1986,-1661,0,0
1361,-1883,1,0
1861,-1951,0,0
881,-1955,1,0
1329,-160,0,0
928,-612,0,0
983,-1320,0,0
1016,-1491,1,0
1578,-1838,0,0
1633,-864,0,0
934,-812,0,0
601,-649,1,0
994,-613,0,0
1197,-1195,0,0
1510,-1517,0,0
419,-1603,0,0
1372,-242,0,0
1214,-874,0,0
1578,-1326,0,0
1111,-394,0,0
611,-514,0,0
853,-1653,1,0
1626,-38,0,0
1501,-673,1,0
820,-1957,1,0
1193,-1073,0,0
1861,-1859,1,0
1194,-1193,0,0
96,-1313,1,0
858,-361,1,0
1454,-973,0,0
597,-625,0,0
611,-1517,1,0
39,-532,0,0
539,-1016,0,0
1353,-138,0,0
1503,-379,0,0
area 3
-1910,454,0,0
-183,-1373,0,0
-198,-380,1,0
-1109,1844,1,0
-388,-42,0,0
-999,-1702,0,0
-186,-1576,0,0
-506,1710,0,0
-157,1450,0,0
-357,-616,1,0
-58,-595,0,0
-1865,-1600,1,0
-263,1267,0,0
-244,-1228,1,0
-1060,1706,1,0
-1154,490,1,0
-438,-1597,0,0
-1207,940,1,0
-54,-1502,0,0
-468,-1311,0,0
-199,-1392,0,0
-1831,95,0,0
-883,-550,0,0
-473,608,1,0
-44,-1142,0,0
-1009,-1272,0,0
-915,-377,0,0
-558,-875,0,0
-892,-1298,0,0
-796,1438,0,0
-1489,182,0,0
-1489,875,1,0
-205,1233,0,0
-1970,-141,0,0
-197,839,1,0
-276,-1151,1,0
-953,-1890,0,0
-541,-576,0,0
-662,981,1,0
-141,207,1,0
-393,822,0,0
-332,312,1,0
-1590,-784,0,0
-359,879,0,0
-1205,-1278,0,0
-1341,-1329,0,0
-1618,-732,0,0
-854,1677,0,0
-642,1705,0,0
-669,-708,0,0
-325,815,0,0
-219,319,1,0
-472,-822,0,0
-1010,-1442,0,0
-1388,-427,1,0
-931,575,0,0
-1636,-696,0,0
-1338,1693,0,0
-1798,1430,0,0
-1752,-712,0,0
-1246,-873,0,0
-131,-1449,1,0
-152,-1680,0,0
-1992,1187,0,0
-337,-520,0,0
-1417,-171,0,0
-513,1501,0,0
-1114,-1826,0,0
-1956,-256,1,0
-698,-193,0,0
-926,1050,0,0
-1213,421,0,0
-803,206,1,0
-653,419,0,0
-215,-285,0,0
-1800,-91,1,0
-193,-1478,0,0
-1891,1184,0,0
-264,-938,0,0
-1303,-888,0,0
-574,-72,0,0
-283,-1311,0,0
-433,-316,1,0
-545,-1535,0,0
-1800,517,1,0
-98,-165,0,0
-19,-2000,0,0
-914,-1501,1,0
-244,1465,0,0
-806,1413,0,0
-1135,-1552,0,0
-532,-1217,0,0
-242,666,0,0
-66,1160,0,0
-567,-839,0,0
-1610,66,1,0
-625,-222,1,0
-915,-1125,0,0
-94,1076,1,0
-864,557,1,0
-776,1667,0,0
-1896,-1132,0,0
-654,-11,0,0
-613,615,0,0
-238,-869,1,0
-319,-1820,0,0
-1949,-335,0,0
-461,317,0,0
-1478,502,1,0
-1808,737,0,0
-837,-510,0,0
-1164,-997,0,0
-1426,1400,1,0
-1119,-807,0,0
-793,-112,1,0
-1808,958,0,0
-1953,-762,1,0
-1835,1586,0,0
-1067,926,0,0
-1239,-497,0,0
-656,-843,1,0
-1539,1466,1,0
-1930,-1652,0,0
-801,757,0,0
-82,-890,0,0
-213,1883,0,0
-687,1650,1,0
-486,1752,0,0
-832,-1914,0,0
-1852,1126,0,0
-368,1203,0,0
-324,133,0,0
-954,1722,0,0
-1144,-1830,0,0
-1153,1948,0,0
-1483,-1091,0,0
-1980,-402,0,0
-361,-1016,0,0
-745,-389,1,0
-132,-1672,0,0
-87,-1779,0,0
-734,-532,0,0
-1891,-1847,0,0
-1706,1110,1,0
-998,716,1,0
-859,-906,0,0
-8,-1843,0,0
-1914,-787,1,0
-1583,1319,0,0
-1569,1901,0,0
-1344,-1381,0,0
-416,-33,0,0
-255,-1755,1,0
-1126,849,1,0
-1874,160,0,0
-1253,648,1,0
-1894,1152,0,0
-1165,-146,0,0
-341,1884,0,0
-932,1631,0,0
-1998,729,1,0
-1933,-1898,0,0
-953,-311,0,0
-861,-1692,1,0
-988,480,0,0
-1672,1459,1,0
-1231,146,0,0
-723,289,1,0
-1025,1250,0,0
-1275,1043,1,0
-1905,-969,1,0
-1502,-201,0,0
-384,235,0,0
-1672,-1678,0,0
-661,146,0,0
-1131,663,0,0
-1212,-1765,1,0
-1090,-1663,1,0
-772,-1709,0,0
-1193,1221,0,0
-766,-1620,1,0
-1319,76,0,0
-1599,914,0,0
-1507,168,1,0
-1659,1346,0,0
-1257,1434,0,0
-305,-1186,0,0
-924,-511,0,0
-384,-1889,0,0
-1613,-723,0,0
-1699,963,1,0
-1438,-1279,1,0
-763,-1986,0,0
-913,714,0,0
-677,-704,1,0
-1311,-337,0,0
-1672,1296,0,0
-784,1452,0,0
-933,12,0,0
-397,-1449,0,0
-683,-765,0,0
-1381,185,0,0
-1317,-903,0,0
-754,-920,0,0
-1793,1236,0,0
-528,-810,0,0
-1404,1026,0,0
-234,-984,0,0
-378,-1534,0,0
-1745,1200,0,0
-1561,-393,0,0
-630,524,1,0
-1446,1033,0,0
-1612,-100,0,0
-532,1610,0,0
-1819,1157,0,0
-1678,796,1,0
-1904,397,0,0
-1231,743,0,0
-1902,959,0,0
-1410,114,1,0
-472,-1772,1,0
-1128,-648,0,0
-979,-1917,1,0
-1618,1794,1,0
-1270,113,0,0
-855,-1052,1,0
-1879,-82,1,0
-66,-1807,0,0
-641,-1605,0,0
-190,578,0,0
-1559,1260,1,0
-1044,228,0,0
-1737,-552,0,0
-418,-1439,0,0
-524,-1013,0,0
-117,1310,1,0
-248,-1419,0,0
-895,88,0,0
-1195,1947,0,0
-1809,-136,0,0
-1724,1087,1,0
-1065,1822,1,0
-1396,-163,1,0
-913,1294,0,0
-1309,-1112,0,0
-1934,-732,0,0
-898,-1940,0,0
-1983,1297,0,0
-723,1955,0,0
-1411,1090,0,0
-1965,-631,0,0
-1716,1462,0,0
-83,217,1,0
-1154,-476,0,0
-1726,92,1,0
-1274,1822,0,0
-179,-1986,0,0
-1017,822,0,0
-1315,491,1,0
-1313,-1516,1,0

near cbsd peopel number
24
22
29
29
24
20
17
26
30
21
