each times' max average throughput
0.000000,0.000000,0.000000,0.000000,0.000000,0.000000,0.000000,0.000000,0.000000,0.000000,0.000000,0.000000,0.000000,0.000000,0.000000,0.000000,0.000000,0.000000,0.000000,0.000000,0.000000,602.468933,0.000000,0.000000,593.320618,0.000000,0.000000,0.000000,0.000000,0.000000,0.000000,0.000000,0.000000,0.000000,0.000000,0.000000,0.000000,0.000000,0.000000,0.000000,0.000000,590.392029,0.000000,0.000000,0.000000,0.000000,0.000000,0.000000,0.000000,0.000000,0.000000,0.000000,0.000000,0.000000,587.002808,0.000000,0.000000,0.000000,0.000000,0.000000,0.000000,0.000000,0.000000,0.000000,0.000000,0.000000,0.000000,0.000000,0.000000,0.000000,0.000000,0.000000,0.000000,0.000000,0.000000,0.000000,0.000000,0.000000,0.000000,588.266846,0.000000,0.000000,0.000000,616.639648,605.298950,595.021606,0.000000,0.000000,602.559021,0.000000,0.000000,0.000000,0.000000,0.000000,0.000000,0.000000,612.163635,0.000000,0.000000,0.000000,
avg. throughput in all test times
59.931343
avg. BS TX power in all test times
MBS area 1,MBS area 2,MBS area 3,MBS area 4,CBSD 1,CBSD 2,CBSD 3,CBSD 4,CBSD 5,CBSD 6,CBSD 7,CBSD 8,CBSD 9,CBSD 10,CBSD 11,CBSD 12,CBSD 13,CBSD 14,CBSD 15,CBSD 16,CBSD 17,CBSD 18,CBSD 19,CBSD 20,CBSD 21,CBSD 22,CBSD 23,CBSD 24,CBSD 25,CBSD 26,CBSD 27,CBSD 28,CBSD 29,CBSD 30,
5.512,6.825,5.050,5.550,0.000,0.074,0.138,0.040,0.030,0.385,0.188,0.000,0.244,0.355,0.100,0.394,0.035,0.281,0.000,0.124,0.363,0.144,0.010,0.000,0.186,0.035,0.000,0.155,0.000,0.065,0.038,0.000,0.220,0.026,
avg. mbs all power,avg. cbsd enable number,avg. mbs area all power,avg. cbsd all power
57.588,4.000,22.938,3.628
avg. max avg. throughput generation number in all test times
5.280000
avg. number of relay UE
208

the max average throughput times

BS TX power
MBS area 1,MBS area 2,MBS area 3,MBS area 4,CBSD 1,CBSD 2,CBSD 3,CBSD 4,CBSD 5,CBSD 6,CBSD 7,CBSD 8,CBSD 9,CBSD 10,CBSD 11,CBSD 12,CBSD 13,CBSD 14,CBSD 15,CBSD 16,CBSD 17,CBSD 18,CBSD 19,CBSD 20,CBSD 21,CBSD 22,CBSD 23,CBSD 24,CBSD 25,CBSD 26,CBSD 27,CBSD 28,CBSD 29,CBSD 30,
8.750,10.000,10.000,5.000,0.000,0.000,0.000,0.750,0.750,0.000,0.000,0.000,0.000,0.000,1.000,0.000,0.875,0.000,0.000,0.000,0.000,0.000,0.000,0.000,0.000,0.000,0.000,0.000,0.000,0.000,0.000,0.000,0.875,0.000,
max average throughput
612.163635

x,y,area,be blocked (1 : NLOS / 0 : LOS),be blocked number (>=1 : CBSD(x) / 0 : no),connect bs number (>=1 : CBSD / 0 : MBS),throughput (unit : M bps)
967,478,1,1,0,13,93.636559
-218,1657,2,0,0,0,738.962830
-483,-712,3,1,0,4,121.370949
1301,-1175,4,0,0,0,626.207275
1929,475,1,1,0,13,93.636559
-1686,1043,2,1,0,29,128.549866
-823,-1080,3,1,0,4,121.370949
1056,-1640,4,0,0,0,595.849731
1734,1307,1,0,0,0,644.959961
-1962,927,2,1,0,29,103.754051
-1523,-1531,3,0,0,0,665.587158
817,-879,4,1,0,11,176.598465
978,539,1,1,0,13,93.636559
-329,435,2,0,0,0,1061.302979
-857,-1822,3,1,0,4,121.370949
1102,-806,4,0,0,0,697.597656
1001,447,1,0,0,0,840.929993
-68,1011,2,1,0,13,93.636559
-290,-197,3,0,0,0,1188.762207
1057,-269,4,0,0,0,761.976868
556,186,1,0,0,0,1021.211975
-1200,1186,2,1,0,29,209.683380
-678,-1319,3,0,0,0,773.256409
425,-468,4,0,0,0,918.857300
141,1803,1,1,0,13,93.636559
-330,483,2,0,0,0,1041.109741
-1044,-622,3,0,0,0,830.497803
223,-1789,4,0,0,0,618.235718
78,1354,1,1,0,13,93.636559
-1536,1428,2,1,0,29,157.613052
-1069,-748,3,0,0,0,810.071472
1932,-1084,4,0,0,0,559.796082
1199,684,1,1,0,13,93.636559
-455,1065,2,0,0,0,844.347595
-75,-1839,3,1,0,4,121.370949
523,-1848,4,0,0,0,600.249939
1464,1903,1,0,0,0,616.328491
-1064,632,2,0,0,0,825.267883
-608,-893,3,0,0,0,864.357117
1732,-83,4,0,0,0,629.323181
782,998,1,0,0,0,799.109619
-368,1029,2,0,0,0,861.047668
-1769,-1669,3,0,0,0,631.675659
209,-441,4,0,0,0,993.436340
849,632,1,0,0,0,851.043213
-1180,806,2,0,0,0,783.920898
-260,-140,3,0,0,0,1238.270264
1969,-499,4,0,0,0,584.351868
279,1586,1,0,0,0,730.465942
-295,1247,2,1,0,13,93.636559
-853,-1602,3,0,0,0,715.322998
1351,-943,4,0,0,0,643.896912
920,1273,1,0,0,0,737.625366
-1129,1617,2,1,0,29,180.190018
-1393,-864,3,1,0,4,121.370949
967,-946,4,0,0,0,700.235291
412,106,1,1,0,0,168.067642
-1117,940,2,1,0,5,155.213882
-1315,-938,3,0,0,0,748.743225
457,-258,4,0,0,0,972.494080
334,1428,1,0,0,0,757.302307
-598,1861,2,0,0,0,694.077454
-1092,-114,3,0,0,0,859.705078
1594,-800,4,0,0,0,621.307861
1348,311,1,0,0,0,774.056335
-1297,431,2,0,0,0,796.721069
-780,-842,3,0,0,0,846.932678
1631,-745,4,0,0,0,619.779053
647,667,1,0,0,0,888.504944
-1967,418,2,1,0,4,121.370949
-618,-980,3,1,0,4,121.370949
1185,-589,4,0,0,0,706.541687
116,862,1,0,0,0,907.552429
-1637,1100,2,1,0,29,136.278748
-604,-1508,3,0,0,0,747.113159
744,-429,4,0,0,0,830.660217
555,1512,1,0,0,0,730.414551
-895,600,2,0,0,0,865.109741
-374,-100,3,0,0,0,1160.152710
732,-1500,4,0,0,0,640.196289
1218,1361,1,0,0,0,694.397217
-868,1486,2,0,0,0,730.566650
-970,-1203,3,0,0,0,761.441528
354,-566,4,0,0,0,903.160889
1980,1026,1,1,0,13,93.636559
-630,50,2,0,0,0,1018.823486
-1093,-739,3,0,0,0,806.856262
700,-1485,4,0,0,0,644.910583
39,965,1,0,0,0,877.400208
-549,1687,2,0,0,0,721.847656
-507,-1687,3,0,0,0,723.881531
1866,-583,4,1,0,11,81.451149
1694,714,1,0,0,0,692.539856
-1676,202,2,0,0,0,736.085693
-1518,-251,3,1,0,4,121.370949
1195,-1625,4,0,0,0,586.335144
1409,1955,1,0,0,0,615.280945
-1959,1431,2,0,0,0,632.387451
-404,-358,3,0,0,0,1064.283325
1024,-1705,4,0,0,0,590.331482
765,1991,1,0,0,0,650.063538
-278,229,2,1,0,0,236.568649
-251,-1975,3,0,0,0,688.831177
73,-1303,4,1,0,4,121.370949
137,508,1,0,0,0,1052.415283
-1528,678,2,0,0,0,738.896301
-1572,-178,3,0,0,0,754.705688
1206,-1541,4,0,0,0,594.942871
704,384,1,1,0,13,93.636559
-39,415,2,1,0,0,187.968842
-1769,-1903,3,0,0,0,612.862122
497,-461,4,0,0,0,898.751709
898,253,1,1,0,13,93.636559
-972,66,2,0,0,0,894.114929
-1791,-1962,3,0,0,0,606.552734
1068,-1709,4,0,0,0,586.591248
269,1968,1,0,0,0,670.399780
-219,1857,2,0,0,0,706.782410
-646,-1878,3,0,0,0,689.534119
946,-651,4,1,0,11,140.470108
812,1816,1,0,0,0,669.972534
-1526,938,2,0,0,0,719.090454
-708,-705,3,0,0,0,886.846375
609,-1875,4,0,0,0,592.831665
381,31,1,1,0,0,201.450851
-224,998,2,0,0,0,880.101135
-168,-836,3,0,0,0,932.488953
1156,-1725,4,0,0,0,578.103943
602,557,1,0,0,0,924.470459
-1291,715,2,1,0,13,93.636559
-1288,-523,3,0,0,0,791.843201
363,-1670,4,0,0,0,633.459412
241,1990,1,0,0,0,667.787720
-1682,1227,2,0,0,0,676.035767
-919,-914,3,0,0,0,811.967651
793,-28,4,0,0,0,853.421875
227,1366,1,0,0,0,773.781860
-213,227,2,1,0,0,289.427277
-950,-1291,3,0,0,0,750.953369
1965,-1115,4,1,0,11,79.776764
1634,1369,1,0,0,0,650.226196
-494,1123,2,0,0,0,827.763794
-836,-405,3,0,0,0,907.827637
860,-1731,4,0,0,0,598.439331
1406,175,1,1,0,13,93.636559
-1563,1735,2,0,0,0,643.260132
-868,-759,3,0,0,0,845.612976
380,-1806,4,0,0,0,611.576660
1109,254,1,1,0,13,93.636559
-693,1172,2,0,0,0,797.812561
-135,-432,3,0,0,0,1115.090576
1415,-400,4,0,0,0,676.372498
125,600,1,0,0,0,1008.422363
-843,1560,2,0,0,0,721.989868
-1730,-872,3,0,0,0,696.633423
742,-1816,4,0,0,0,594.229248
1759,149,1,0,0,0,704.142761
-1730,1437,2,0,0,0,653.996460
-1521,-718,3,0,0,0,737.136841
898,-1564,4,0,0,0,618.137207
1537,381,1,0,0,0,735.284607
-954,1225,2,0,0,0,760.087769
-1653,-1347,3,0,0,0,669.206726
445,-1745,4,0,0,0,618.551147
1244,1249,1,0,0,0,704.545227
-891,1592,2,0,0,0,713.837463
-1206,-402,3,1,0,4,121.370949
347,-1254,4,1,0,11,173.186523
64,1429,1,0,0,0,764.458435
-172,1926,2,0,0,0,697.176758
-598,-1696,3,1,0,4,121.370949
770,-1651,4,1,0,11,124.491005
833,1986,1,0,0,0,647.306213
-613,1392,2,0,0,0,766.002075
-143,-1424,3,1,0,4,121.370949
935,-1574,4,1,0,11,123.918259
1090,648,1,1,0,13,93.636559
-1211,1555,2,0,0,0,691.714417
-72,-236,3,0,0,0,1290.098022
12,-833,4,0,0,0,839.412354
936,1108,1,1,0,13,93.636559
-1491,75,2,0,0,0,771.358765
-1415,-1275,3,0,0,0,701.498718
1539,-1050,4,1,0,11,101.442795
1675,622,1,0,0,0,700.682922
-694,747,2,0,0,0,881.003113
-337,-911,3,0,0,0,894.974609
668,-1486,4,0,0,0,647.086487
95,1809,1,0,0,0,696.747559
-599,1411,2,0,0,0,763.767700
-1242,-1722,3,0,0,0,670.436646
633,-1924,4,1,0,11,106.026772
613,1526,1,0,0,0,724.447266
-1708,190,2,0,0,0,730.966858
-1855,-698,3,1,0,4,121.370949
606,-1389,4,0,0,0,667.759338
1435,1018,1,1,0,13,93.636559
-1505,595,2,0,0,0,748.195312
-1269,-1258,3,0,0,0,719.788452
647,-71,4,1,0,13,93.636559
546,635,1,0,0,0,918.455261
-110,730,2,0,0,0,974.026428
-522,-1730,3,0,0,0,716.573547
1171,-730,4,0,0,0,694.551575
997,1318,1,0,0,0,723.039917
-990,1798,2,1,0,13,93.636559
-78,-818,3,1,0,4,121.370949
588,-737,4,0,0,0,803.828918
759,1302,1,0,0,0,749.477173
-1693,1152,2,0,0,0,680.773560
-1067,-1610,3,0,0,0,697.501343
278,-1092,4,0,0,0,752.621033
400,1224,1,1,0,13,93.636559
-535,1656,2,0,0,0,727.362488
-1410,-51,3,0,0,0,787.578186
1671,-305,4,0,0,0,635.197144
1599,794,1,0,0,0,700.919556
-1904,1282,2,0,0,0,648.168030
-291,-1538,3,0,0,0,757.762146
898,-812,4,0,0,0,732.032166
543,1599,1,0,0,0,716.852661
-1270,1685,2,0,0,0,672.213928
-1621,-1024,3,0,0,0,699.602905
594,-1089,4,0,0,0,725.064331
353,190,1,0,0,0,1130.830444
-1265,1970,2,1,0,29,126.544212
-1747,-1425,3,0,0,0,653.299011
1262,-650,4,0,0,0,686.445496
1319,16,1,0,0,0,787.730652
-130,1068,2,0,0,0,865.544312
-1006,-818,3,1,0,4,121.370949
1391,-1514,4,0,0,0,580.920471
87,1037,1,0,0,0,855.913940
-221,1045,2,0,0,0,867.630554
-1150,-939,3,0,0,0,772.944885
1410,-873,4,0,0,0,642.029663
923,1194,1,0,0,0,749.080933
-1453,702,2,0,0,0,749.021484
-737,-447,3,0,0,0,929.381348
381,-1535,4,0,0,0,655.559570
92,801,1,0,0,0,929.390442
-74,1451,2,1,0,13,93.636559
-360,-1875,3,0,0,0,700.814697
1436,-1749,4,0,0,0,553.784607
1604,963,1,0,0,0,687.517151
-917,1062,2,0,0,0,789.172424
-516,-896,3,0,0,0,876.985535
1190,-455,4,0,0,0,717.415405
990,779,1,1,0,13,93.636559
-283,1131,2,1,0,13,93.636559
-742,-1903,3,0,0,0,681.504578
1685,-747,4,0,0,0,611.944580
1051,607,1,0,0,0,811.665894
-1626,593,2,0,0,0,728.934814
-266,-1848,3,0,0,0,707.215088
1912,-179,4,0,0,0,600.282593
676,1296,1,0,0,0,758.249512
-725,1604,2,0,0,0,724.093018
-1439,-1617,3,0,0,0,664.917664
1900,-766,4,0,0,0,581.940674
1868,866,1,0,0,0,660.134216
-1281,611,2,0,0,0,785.886658
-1124,-1828,3,0,0,0,667.391418
1755,-958,4,0,0,0,588.826660
1363,1683,1,1,0,13,93.636559
-51,1755,2,0,0,0,724.826416
-915,-821,3,0,0,0,827.182251
260,-1655,4,0,0,0,639.135681
1892,796,1,1,0,13,93.636559
-193,1742,2,0,0,0,725.330017
-364,-1128,3,0,0,0,837.680420
1058,-1017,4,0,0,0,676.940308
514,1977,1,1,0,13,93.636559
-1896,855,2,0,0,0,676.326538
-228,-147,3,0,0,0,1262.742065
1400,-1931,4,1,0,11,86.995483
125,1417,1,0,0,0,766.054504
-1266,1696,2,0,0,0,671.348633
-635,-612,3,0,0,0,922.789917
649,-1857,4,0,0,0,593.448425
1307,1291,1,0,0,0,692.730347
-1199,476,2,0,0,0,813.324280
-925,-1157,3,0,0,0,773.594421
1874,-347,4,0,0,0,602.436218
1861,1249,1,0,0,0,635.929688
-1667,1166,2,0,0,0,682.658325
-476,-1517,3,0,0,0,753.279663
1716,-422,4,0,0,0,623.931702
921,544,1,0,0,0,847.999451
-1051,238,2,0,0,0,865.082458
-436,-440,3,1,0,4,121.370949
619,-1001,4,1,0,11,261.714355
108,944,1,0,0,0,882.097595
-1368,1467,2,0,0,0,686.686218
-1030,-1461,3,0,0,0,719.676453
1801,-1496,4,0,0,0,544.188232
1073,627,1,0,0,0,804.861816
-1102,1038,2,0,0,0,767.347778
-499,-53,3,0,0,0,1085.327637
1524,-1284,4,0,0,0,589.772034
1923,209,1,0,0,0,677.978943
-1469,1079,2,0,0,0,714.102234
-1595,-271,3,0,0,0,748.282043
1975,-1593,4,1,0,11,74.894653
1613,1890,1,1,0,13,93.636559
-951,891,2,1,0,5,185.998947
-693,-1622,3,0,0,0,723.507141
869,-1845,4,1,0,11,107.502815
606,1302,1,1,0,13,93.636559
-1649,548,2,1,0,13,93.636559
-1192,-7,3,0,0,0,836.048157
1616,-429,4,0,0,0,639.702148
1637,1,1,0,0,0,725.760803
-1963,1438,2,0,0,0,631.524536
-530,-1360,3,0,0,0,777.829834
34,-337,4,0,0,0,1098.736450
1321,1797,1,0,0,0,637.328735
-466,1037,2,0,0,0,849.671082
-451,-1306,3,0,0,0,793.596375
1168,-216,4,0,0,0,737.502686
456,1114,1,0,0,0,814.039246
-1622,1368,2,0,0,0,670.612366
-1014,-289,3,0,0,0,871.355530
362,-601,4,0,0,0,888.850403
948,86,1,0,0,0,881.572327
-1663,1363,2,0,0,0,666.822510
-1228,-1258,3,0,0,0,724.458618
1540,-25,4,0,0,0,663.128967
1597,423,1,0,0,0,723.134033
-759,893,2,1,0,5,233.942123
-1229,-764,3,0,0,0,780.302368
181,-1141,4,0,0,0,745.469788
1450,188,1,1,0,13,93.636559
-1573,500,2,0,0,0,742.541992
-432,-1303,3,0,0,0,795.460205
117,-944,4,0,0,0,801.278992
874,1055,1,0,0,0,776.853699
-952,219,2,0,0,0,893.339661
-1070,-590,3,0,0,0,828.930908
1289,-437,4,1,0,11,105.474289
1818,142,1,0,0,0,694.850708
-1693,1528,2,0,0,0,650.013184
-1466,-1173,3,1,0,4,121.370949
1190,-1137,4,0,0,0,644.190552
1339,1083,1,1,0,13,93.636559
-125,1891,2,1,0,13,93.636559
-1986,-247,3,0,0,0,687.338501
1347,-965,4,0,0,0,642.268127
370,1693,1,0,0,0,709.437988
-1534,16,2,0,0,0,763.542542
-1993,-954,3,0,0,0,659.043396
1128,-396,4,0,0,0,735.652649
703,146,1,0,0,0,962.797058
-77,567,2,0,0,0,1047.471191
-1775,-579,3,0,0,0,707.214844
64,-551,4,0,0,0,956.522827
1145,1632,1,1,0,13,93.636559
-421,1113,2,0,0,0,836.545410
-85,-419,3,0,0,0,1131.524414
1203,-619,4,0,0,0,700.206909
1814,228,1,1,0,13,93.636559
-436,1127,2,0,0,0,832.123047
-138,-1440,3,0,0,0,780.404785
1090,-54,4,0,0,0,761.807434
1973,1432,1,1,0,13,93.636559
-345,221,2,0,0,0,1143.804199
-257,-525,3,0,0,0,1041.327148
1706,-1015,4,0,0,0,590.868286
1909,1318,1,1,0,13,93.636559
-1334,1495,2,0,0,0,687.004089
-1038,-1509,3,1,0,4,121.370949
1034,-1291,4,0,0,0,642.777893
1928,144,1,0,0,0,678.120117
-148,684,2,1,0,13,93.636559
-336,-501,3,1,0,4,121.370949
1515,-567,4,0,0,0,649.127380
741,472,1,0,0,0,904.656921
-291,1517,2,0,0,0,761.570129
-219,-1511,3,1,0,4,121.370949
1276,-1726,4,0,0,0,568.727173
576,950,1,1,0,13,93.636559
-1597,1987,2,0,0,0,618.277710
-1935,-1651,3,0,0,0,618.904114
1221,-1614,4,1,0,11,106.814194
1800,712,1,0,0,0,677.775269
-206,1246,2,1,0,13,93.636559
-1930,-922,3,0,0,0,668.324524
34,-1558,4,0,0,0,659.779785
1395,640,1,0,0,0,744.246887
-1048,514,2,0,0,0,842.086365
-599,-1853,3,0,0,0,695.149353
1149,-333,4,0,0,0,735.463196
110,821,1,1,0,13,93.636559
-914,1337,2,0,0,0,747.981079
-603,-481,3,1,0,4,121.370949
1398,-678,4,0,0,0,660.630859
1347,1151,1,1,0,13,93.636559
-709,1373,2,0,0,0,761.459717
-847,-408,3,0,0,0,904.372864
903,-1766,4,0,0,0,591.102356
1139,1594,1,1,0,13,93.636559
-1395,1243,2,0,0,0,707.000977
-819,-1454,3,0,0,0,739.389343
1464,-554,4,0,0,0,658.510193
47,470,1,1,0,13,93.636559
-1183,148,2,1,0,4,121.370949
-833,-1817,3,0,0,0,687.690063
1229,-453,4,0,0,0,709.474243
898,224,1,0,0,0,889.663025
-778,51,2,1,0,4,121.370949
-610,-1452,3,0,0,0,755.999451
1616,-1617,4,0,0,0,550.918518
1070,1090,1,0,0,0,745.631104
-1369,1023,2,0,0,0,732.561584
-1672,-739,3,0,0,0,713.263733
300,-26,4,0,0,0,1132.660156
337,689,1,0,0,0,943.774292
-201,1715,2,1,0,13,93.636559
-1319,-1198,3,1,0,4,121.370949
180,-915,4,1,0,11,163.817993
489,1095,1,0,0,0,815.113342
-657,1093,2,0,0,0,816.634216
-1469,-1466,3,1,0,4,121.370949
789,-897,4,0,0,0,735.860474
1785,1228,1,0,0,0,645.590820
-1116,1994,2,0,0,0,649.453247
-1444,-617,3,0,0,0,756.845520
980,-1474,4,1,0,11,128.589096
1689,59,1,1,0,13,93.636559
-405,408,2,0,0,0,1046.125366
-1546,-1740,3,0,0,0,644.191040
1842,-1448,4,0,0,0,543.981262
645,876,1,0,0,0,843.150513
-1309,61,2,1,0,4,121.370949
-1626,-1654,3,1,0,4,121.370949
1980,-786,4,1,0,11,78.698692
1536,1234,1,1,0,13,93.636559
-254,1157,2,1,0,13,93.636559
-1480,-1557,3,0,0,0,667.091309
1576,-915,4,0,0,0,615.172241
22,1069,1,0,0,0,848.116760
-1234,881,2,0,0,0,766.905640
-1562,-481,3,0,0,0,745.366760
672,-932,4,0,0,0,747.029724
1798,517,1,0,0,0,687.520935
-1573,603,2,0,0,0,736.682922
-344,-1202,3,0,0,0,822.329346
1967,-83,4,1,0,11,69.740578
580,246,1,0,0,0,1000.475830
-992,337,2,0,0,0,873.190674
-590,-1162,3,0,0,0,810.402771
143,-1217,4,0,0,0,728.573914
1718,542,1,1,0,13,93.636559
-970,82,2,0,0,0,894.345093
-1139,-16,3,0,0,0,849.109985
340,-389,4,1,0,11,128.962967
1934,974,1,0,0,0,645.748169
-1376,691,2,0,0,0,762.482422
-1763,-1545,3,0,0,0,642.165955
1372,-1460,4,0,0,0,588.253357
784,5,1,0,0,0,937.452393
-346,1433,2,0,0,0,774.979858
-1861,-50,3,0,0,0,708.040710
997,-862,4,0,0,0,707.698853
1663,726,1,0,0,0,696.262573
-351,1090,2,0,0,0,847.596375
-753,-1140,3,0,0,0,796.825562
594,-1563,4,0,0,0,639.686340
1114,1669,1,0,0,0,667.490295
-224,552,2,1,0,13,93.636559
-633,-471,3,0,0,0,954.861694
1351,-1066,4,0,0,0,631.478699
979,206,1,0,0,0,867.253601
-85,1767,2,0,0,0,722.663025
-439,-126,3,1,0,4,121.370949
9,-1049,4,0,0,0,773.157288
868,719,1,0,0,0,832.948486
-59,742,2,1,0,13,93.636559
-51,-247,3,1,0,0,371.126770
1607,-1207,4,0,0,0,587.361694
584,196,1,0,0,0,1006.953735
-1536,202,2,0,0,0,760.722656
-1459,-1855,3,0,0,0,640.245850
1382,-1155,4,0,0,0,618.511902
110,1308,1,1,0,13,93.636559
-541,1355,2,0,0,0,777.950928
-903,-461,3,0,0,0,882.634460
66,-362,4,0,0,0,1074.844238
989,1041,1,0,0,0,763.363770
-1266,588,2,0,0,0,790.656433
-1220,-652,3,1,0,4,121.370949
844,-1431,4,0,0,0,641.518921
1783,777,1,0,0,0,676.413208
-1154,1587,2,0,0,0,692.981995
-466,-1117,3,1,0,4,121.370949
937,-782,4,1,0,11,151.020340
1784,1364,1,0,0,0,635.368408
-443,906,2,0,0,0,884.161133
-141,-1430,3,1,0,4,121.370949
1785,-1663,4,1,0,11,80.577621
3,1774,1,0,0,0,702.734558
-22,560,2,1,0,13,93.636559
-1801,-867,3,0,0,0,687.693054
1244,-297,4,0,0,0,716.305786
1595,1593,1,0,0,0,634.283997
-109,1834,2,0,0,0,711.825195
-431,-1392,3,0,0,0,778.307678
1563,-1858,4,0,0,0,533.945862
1618,1940,1,1,0,13,93.636559
-1377,588,2,0,0,0,770.513062
-1760,-1003,3,0,0,0,683.867188
1395,-1164,4,1,0,11,110.029434
1629,627,1,0,0,0,707.372803
-764,342,2,0,0,0,937.828674
-251,-180,3,1,0,0,292.347931
489,-1988,4,0,0,0,582.126099
853,221,1,1,0,13,93.636559
-1043,952,2,0,0,0,787.329407
-815,-740,3,0,0,0,858.947266
1342,-1458,4,1,0,11,106.367905
1524,1336,1,0,0,0,664.648193
-529,1792,2,1,0,13,93.636559
-607,-1254,3,1,0,4,121.370949
1004,-811,4,0,0,0,713.702881
506,576,1,0,0,0,943.891235
-1122,1944,2,1,0,29,129.990601
-1612,-603,3,0,0,0,730.540710
715,-1038,4,0,0,0,720.489746
1330,265,1,0,0,0,779.773743
-905,757,2,0,0,0,838.997437
-164,-264,3,0,0,0,1223.515503
667,-1869,4,0,0,0,590.962524
1621,881,1,0,0,0,691.511597
-1678,1646,2,0,0,0,641.394958
-1855,-785,3,1,0,4,121.370949
182,-1570,4,0,0,0,655.751587
1361,1823,1,0,0,0,631.673401
-1051,1955,2,0,0,0,657.748779
-770,-1849,3,0,0,0,687.106873
984,-809,4,0,0,0,717.449646
1136,12,1,0,0,0,830.673645
-531,985,2,0,0,0,854.233032
-1312,-1058,3,0,0,0,736.542847
1435,-148,4,0,0,0,681.837891
91,1074,1,0,0,0,845.806030
-1267,1630,2,1,0,29,173.286087
-1290,-1785,3,0,0,0,659.977478
1779,-726,4,0,0,0,600.123474
1217,1047,1,0,0,0,731.349915
-1504,750,2,1,0,29,120.586166
-792,-529,3,0,0,0,900.637207
210,-1828,4,0,0,0,612.428711
1759,559,1,1,0,13,93.636559
-1503,1609,2,0,0,0,660.049194
-470,-1959,3,1,0,4,121.370949
1251,-1164,4,0,0,0,633.496948
1824,1177,1,0,0,0,645.042114
-1499,1567,2,0,0,0,664.397766
-1715,-127,3,0,0,0,730.773193
1539,-232,4,0,0,0,660.143494
133,324,1,1,0,0,230.830368
-167,1193,2,0,0,0,833.020996
-920,-1458,3,1,0,4,121.370949
1180,-243,4,0,0,0,733.437805
229,1524,1,0,0,0,743.070923
-694,1418,2,0,0,0,755.309448
-855,-1647,3,0,0,0,708.960449
1270,-979,4,0,0,0,651.623108
200,325,1,1,0,0,202.005814
-1101,537,2,0,0,0,828.203613
-1433,-916,3,0,0,0,733.949890
658,-786,4,1,0,11,190.071869
111,591,1,1,0,13,93.636559
-1140,1972,2,1,0,13,93.636559
-1096,-1553,3,0,0,0,702.084961
830,-652,4,0,0,0,771.403687
687,1801,1,1,0,13,93.636559
-66,1794,2,0,0,0,718.454407
-486,-449,3,1,0,4,121.370949
21,-55,4,1,0,0,889.658691
831,1846,1,0,0,0,664.968384
-575,180,2,0,0,0,1032.588623
-454,-311,3,0,0,0,1058.722778
66,-1574,4,1,0,4,121.370949
1575,1278,1,1,0,13,93.636559
-517,889,2,1,0,13,93.636559
-1740,-113,3,0,0,0,726.804749
953,-1095,4,0,0,0,680.055481
766,1511,1,1,0,13,93.636559
-681,1682,2,0,0,0,715.372070
-371,-1574,3,0,0,0,748.411011
398,-1385,4,0,0,0,682.147339
170,1537,1,0,0,0,742.092773
-382,873,2,1,0,13,93.636559
-1258,-960,3,0,0,0,754.631287
34,-744,4,0,0,0,871.657959
821,871,1,0,0,0,815.660645
-894,89,2,0,0,0,917.448059
-1467,-1314,3,0,0,0,691.930542
931,-603,4,0,0,0,757.141724
62,1802,1,1,0,13,93.636559
-1191,610,2,0,0,0,802.801331
-499,-1573,3,0,0,0,742.594666
1231,-1572,4,0,0,0,589.226074
993,1112,1,0,0,0,752.586487
-1261,395,2,0,0,0,806.413147
-529,-1141,3,0,0,0,820.630188
1704,-969,4,1,0,11,92.134712
1560,646,1,0,0,0,716.889404
-1852,1273,2,1,0,29,120.167152
-1334,-1262,3,0,0,0,711.962585
1445,-711,4,1,0,11,104.621071
887,804,1,0,0,0,815.610107
-603,1691,2,0,0,0,718.441345
-1358,-1426,3,0,0,0,691.968994
1333,-1601,4,0,0,0,577.182800
1683,323,1,1,0,13,93.636559
-746,840,2,0,0,0,853.096619
-222,-1339,3,1,0,4,121.370949
528,-563,4,1,0,11,153.255783
1293,1070,1,0,0,0,718.617004
-1693,1633,2,0,0,0,641.190063
-190,-805,3,0,0,0,941.269104
126,-1058,4,0,0,0,768.692505
1033,1398,1,0,0,0,708.565735
-689,58,2,0,0,0,992.904663
-748,-1809,3,0,0,0,693.663696
1676,-1285,4,0,0,0,573.317627
1792,1422,1,0,0,0,630.093872
-1199,187,2,0,0,0,830.912354
-556,-509,3,0,0,0,968.015076
833,-846,4,0,0,0,737.632385
332,113,1,0,0,0,1169.404541
-998,1503,2,0,0,0,717.029114
-673,-1882,3,0,0,0,687.708679
1277,-1301,4,0,0,0,615.072571
1219,1008,1,0,0,0,735.599731
-1181,1657,2,1,0,29,171.624680
-985,-341,3,0,0,0,874.657227
585,-1275,4,0,0,0,689.842712
1974,498,1,0,0,0,663.360291
-1603,1245,2,0,0,0,683.309692
-564,-649,3,1,0,4,121.370949
1197,-1277,4,0,0,0,626.656738
355,1128,1,1,0,13,93.636559
-308,1521,2,0,0,0,760.233032
-247,-656,3,0,0,0,988.961670
257,-130,4,0,0,0,1145.504883
546,1192,1,0,0,0,789.478088
-1452,816,2,0,0,0,739.942322
-369,-1053,3,0,0,0,855.064636
1370,-869,4,0,0,0,648.293091
427,506,1,0,0,0,986.160583
-1288,1701,2,0,0,0,669.033081
-119,-1342,3,0,0,0,800.844971
41,-1767,4,0,0,0,623.875427
1142,596,1,1,0,13,93.636559
-257,1820,2,0,0,0,711.697388
-633,-551,3,0,0,0,937.084412
1262,-1739,4,0,0,0,568.435425
208,1798,1,0,0,0,696.984924
-1268,1802,2,0,0,0,659.838989
-319,-205,3,0,0,0,1166.135376
1367,-227,4,0,0,0,693.348450
1848,123,1,0,0,0,690.404968
-557,1560,2,0,0,0,741.518005
-341,-1934,3,0,0,0,692.746216
312,-502,4,0,0,0,938.233093
973,1939,1,0,0,0,645.218994
-1630,1113,2,1,0,29,137.717133
-365,-933,3,1,0,4,121.370949
1046,-1779,4,1,0,11,106.010567
1257,1330,1,0,0,0,693.836121
-291,1757,2,1,0,13,93.636559
-188,-200,3,0,0,0,1259.350098
1057,-1252,4,0,0,0,645.465759
1065,1985,1,0,0,0,634.486694
-1256,352,2,0,0,0,810.141174
-888,-475,3,0,0,0,884.574646
379,-582,4,0,0,0,891.769287
209,1371,1,0,0,0,773.345459
-417,728,2,0,0,0,937.169678
-1569,-361,3,0,0,0,749.680298
1138,-1684,4,0,0,0,584.182312
37,1819,1,0,0,0,695.504578
-967,1168,2,1,0,29,181.023865
-1806,-373,3,0,0,0,710.754333
1616,-744,4,0,0,0,622.018433
349,1019,1,1,0,13,93.636559
-1710,926,2,0,0,0,695.558655
-1270,-1074,3,0,0,0,740.345459
1387,-1729,4,0,0,0,559.637207
17,864,1,0,0,0,909.413818
-734,598,2,0,0,0,902.352966
-540,-480,3,0,0,0,980.239807
506,-583,4,0,0,0,861.338867
1445,934,1,0,0,0,711.492310
-778,133,2,0,0,0,954.759216
-618,-715,3,1,0,4,121.370949
925,-1203,4,0,0,0,667.369568
48,575,1,0,0,0,1025.815186
-1623,1545,2,0,0,0,655.036011
-284,-696,3,1,0,4,121.370949
672,-1443,4,0,0,0,653.720154
490,1274,1,1,0,13,93.636559
-1241,1610,2,1,0,29,179.363037
-264,-889,3,0,0,0,908.312866
10,-1163,4,0,0,0,743.545349
328,1574,1,0,0,0,730.918762
-1021,596,2,0,0,0,838.421814
-1389,-1293,3,1,0,4,121.370949
198,-761,4,0,0,0,856.029419
1496,1667,1,0,0,0,636.111938
-1034,480,2,0,0,0,848.890625
-1423,-1134,3,0,0,0,714.590942
1746,-531,4,0,0,0,614.766968
723,1809,1,0,0,0,675.945862
-1248,1042,2,0,0,0,746.875000
-487,-1247,3,0,0,0,802.673340
1882,-429,4,0,0,0,598.819702
1212,1798,1,0,0,0,645.361816
-1502,403,2,0,0,0,759.631653
-130,-1392,3,0,0,0,790.210205
890,-1262,4,1,0,11,153.250641
1329,1708,1,0,0,0,645.916016
-1702,1336,2,0,0,0,665.030579
-1563,-1263,3,0,0,0,686.167358
1440,-377,4,0,0,0,672.878967
22,270,1,1,0,0,325.442932
-171,1186,2,0,0,0,834.545532
-269,-184,3,0,0,0,1209.814819
905,-729,4,1,0,11,150.785294
582,95,1,0,0,0,1019.537354
-287,691,2,1,0,13,93.636559
-778,-555,3,1,0,4,121.370949
1492,-308,4,0,0,0,666.251343
1647,1213,1,0,0,0,662.012573
-268,170,2,0,0,0,1217.473633
-229,-838,3,0,0,0,927.129333
1589,-1031,4,0,0,0,604.183716
924,33,1,0,0,0,889.951599
-880,24,2,0,0,0,923.308105
-438,-707,3,0,0,0,939.684143
1408,-1038,4,1,0,11,110.154701
1214,776,1,0,0,0,762.380554
-1581,1451,2,1,0,29,150.035355
-912,-1571,3,1,0,4,121.370949
898,-1730,4,0,0,0,596.052490
1396,309,1,0,0,0,764.587524
-1380,1269,2,1,0,29,188.856445
-1095,-426,3,1,0,4,121.370949
300,-606,4,1,0,11,149.856720
1696,1507,1,1,0,13,93.636559
-1030,491,2,0,0,0,848.622498
-1916,-892,3,0,0,0,671.746216
71,-79,4,1,0,0,635.724121
1548,1255,1,1,0,13,93.636559
-254,1185,2,0,0,0,831.286804
-1583,-757,3,1,0,4,121.370949
1667,-683,4,0,0,0,618.449158
156,740,1,0,0,0,947.835754
-552,958,2,0,0,0,857.689148
-1981,-644,3,0,0,0,675.889160
1099,-1797,4,0,0,0,574.055481
226,1865,1,1,0,13,93.636559
-1756,647,2,0,0,0,706.547668
-31,-1319,3,0,0,0,806.860291
689,-1509,4,1,0,11,141.064087
673,1243,1,0,0,0,767.877625
-1505,1591,2,1,0,29,151.826035
-609,-57,3,0,0,0,1028.244995
449,-456,4,0,0,0,915.337524
424,63,1,1,0,0,165.817734
-1928,1372,2,1,0,29,114.025200
-1041,-1198,3,0,0,0,753.790344
1545,-1139,4,0,0,0,600.415100
724,747,1,0,0,0,856.013977
-112,1091,2,1,0,13,93.636559
-1759,-709,3,1,0,4,121.370949
990,-1783,4,0,0,0,583.215149
650,118,1,0,0,0,986.800049
-1081,414,2,1,0,13,93.636559
-886,-1175,3,1,0,4,121.370949
1390,-675,4,0,0,0,662.198975
529,883,1,0,0,0,859.058228
-832,601,2,0,0,0,879.107544
-331,-385,3,0,0,0,1081.945801
338,-817,4,0,0,0,822.299316
583,306,1,1,0,13,93.636559
-1229,236,2,1,0,4,121.370949
-998,-1129,3,0,0,0,768.682190
1059,-1158,4,0,0,0,657.799438
1753,840,1,0,0,0,676.572388
-46,1035,2,0,0,0,876.411804
-1865,-1086,3,0,0,0,665.767273
1747,-895,4,0,0,0,594.059204
475,1045,1,0,0,0,827.695068
-1671,225,2,1,0,4,121.370949
-942,-1022,3,0,0,0,791.889587
573,-183,4,1,0,11,113.928162
1248,567,1,0,0,0,776.693787
-1584,462,2,0,0,0,742.638245
-1453,-1336,3,1,0,4,121.370949
913,-797,4,1,0,11,155.088852
89,558,1,1,0,13,93.636559
-604,400,2,0,0,0,979.464600
-783,-118,3,1,0,4,121.370949
518,-1879,4,0,0,0,596.065186
1480,1873,1,0,0,0,617.971008
-1097,457,2,0,0,0,836.926941
-1264,-1187,3,1,0,4,121.370949
346,-1593,4,1,0,11,130.843475
1104,1221,1,0,0,0,724.171326
-857,134,2,1,0,4,121.370949
-272,-276,3,1,0,0,211.621765
202,-426,4,0,0,0,1003.383057
1194,1180,1,0,0,0,718.551575
-1556,33,2,0,0,0,759.405762
-1529,-381,3,0,0,0,755.849182
1306,-744,4,0,0,0,670.104309
682,985,1,0,0,0,815.393188
-1608,1,2,0,0,0,750.035889
-1287,-1347,3,0,0,0,707.835938
890,-374,4,0,0,0,797.030273
473,1516,1,0,0,0,734.460449
-1665,1608,2,0,0,0,645.774475
-750,-1578,3,0,0,0,726.230103
1476,-1195,4,0,0,0,603.444458
1579,959,1,0,0,0,691.128784
-1815,231,2,1,0,4,121.370949
-32,-1598,3,0,0,0,751.768555
117,-1463,4,0,0,0,676.913391
344,1102,1,0,0,0,826.057556
-907,945,2,0,0,0,808.943481
-32,-638,3,0,0,0,1015.728577
87,-564,4,0,0,0,948.346008
1249,564,1,1,0,13,93.636559
-1159,376,2,0,0,0,829.736816
-924,-860,3,0,0,0,819.574646
1219,-1371,4,1,0,11,117.369164
968,681,1,0,0,0,818.897766
-1755,1486,2,0,0,0,647.641785
-1378,-1373,3,0,0,0,695.466370
666,-132,4,1,0,11,109.566986
102,224,1,0,0,0,1271.548950
-1980,239,2,1,0,4,121.370949
-905,-215,3,0,0,0,907.439331
1553,-1999,4,0,0,0,522.224976
1077,1596,1,0,0,0,679.302002
-1264,1330,2,1,0,29,239.264893
-462,-448,3,0,0,0,1013.596741
1785,-810,4,1,0,11,87.378242
1220,1971,1,0,0,0,626.337036
-1044,1548,2,0,0,0,707.199463
-818,-627,3,0,0,0,877.906433
1619,-37,4,0,0,0,648.810608
727,475,1,0,0,0,907.999634
-1895,1289,2,0,0,0,648.607117
-734,-752,3,0,0,0,872.324158
55,-1208,4,0,0,0,732.370911
1834,326,1,0,0,0,688.762817
-1631,1340,2,1,0,29,144.705765
-898,-1201,3,0,0,0,770.069641
1251,-665,4,1,0,11,116.391563
1188,1253,1,0,0,0,710.481079
-1174,240,2,0,0,0,834.541504
-1228,-1898,3,0,0,0,652.521851
971,-1023,4,0,0,0,688.286865
780,561,1,1,0,13,93.636559
-393,933,2,0,0,0,883.054016
-1913,-224,3,0,0,0,698.303406
1372,-945,4,0,0,0,640.730225
759,1593,1,0,0,0,704.259949
-84,820,2,0,0,0,942.255615
-127,-1743,3,1,0,4,121.370949
791,-445,4,0,0,0,814.779968
539,301,1,0,0,0,1006.328308
-363,1713,2,1,0,13,93.636559
-1675,-528,3,0,0,0,724.743591
1365,-575,4,0,0,0,674.297241
459,1182,1,0,0,0,799.084900
-39,533,2,0,0,0,1067.166992
-1850,-1130,3,0,0,0,664.491638
137,-686,4,0,0,0,889.695129
1053,308,1,0,0,0,840.707153
-1822,110,2,0,0,0,713.689758
-1652,-849,3,0,0,0,708.699829
783,-709,4,0,0,0,771.176208
765,521,1,0,0,0,889.648560
-1593,41,2,0,0,0,752.630310
-310,-620,3,0,0,0,992.178284
197,-1359,4,1,0,11,145.220337
1763,735,1,0,0,0,681.586182
-907,672,2,0,0,0,851.721863
-406,-1404,3,0,0,0,777.456177
630,-1127,4,0,0,0,713.591858
1764,387,1,0,0,0,697.624268
-1428,249,2,0,0,0,779.819702
-1691,-875,3,0,0,0,701.607117
1083,-1729,4,0,0,0,583.108093
578,1733,1,0,0,0,694.331604
-1631,1541,2,1,0,29,139.922699
-618,-1621,3,0,0,0,728.264465
534,-196,4,0,0,0,949.274841
875,681,1,0,0,0,837.666809
-1090,1665,2,1,0,29,168.618271
-1335,-405,3,1,0,4,121.370949
641,-1171,4,0,0,0,704.031067
1569,1765,1,0,0,0,621.038818
-1896,105,2,0,0,0,702.369873
-61,-1402,3,0,0,0,789.129272
1752,-36,4,1,0,11,75.049011
1036,437,1,0,0,0,833.643005
-1235,117,2,0,0,0,824.575256
-952,-1218,3,0,0,0,761.338440
198,-104,4,0,0,0,1218.456543
1480,1561,1,0,0,0,647.643799
-1355,290,2,0,0,0,792.764160
-33,-1233,3,0,0,0,826.223267
105,-316,4,1,0,0,185.931412
1724,606,1,0,0,0,694.244385
-160,702,2,0,0,0,981.235962
-1547,-1158,3,0,0,0,697.364075
812,-1150,4,1,0,11,174.873840
230,1551,1,0,0,0,738.116089
-894,466,2,0,0,0,884.259277
-1158,-1465,3,0,0,0,707.160461
432,-454,4,0,0,0,921.368958
818,1212,1,0,0,0,758.150452
-479,591,2,0,0,0,965.375427
-995,-253,3,0,0,0,879.024353
456,-1980,4,1,0,11,102.477654
1162,1450,1,0,0,0,689.469238
-885,1508,2,0,0,0,726.009277
-1004,-322,3,0,0,0,871.357849
322,-752,4,0,0,0,844.656189
1981,705,1,0,0,0,654.133362
-797,807,2,0,0,0,850.348206
-278,-153,3,0,0,0,1217.518066
1060,-1353,4,0,0,0,631.832581
1547,1083,1,0,0,0,684.848755
-48,534,2,0,0,0,1066.236206
-93,-1416,3,0,0,0,785.927795
1207,-143,4,0,0,0,730.906921
1993,1349,1,0,0,0,615.660278
-1301,884,2,0,0,0,756.367249
-312,-1550,3,0,0,0,754.879150
1493,-571,4,1,0,11,98.744789
1262,1498,1,0,0,0,674.393616
-1402,1258,2,0,0,0,704.678284
-142,-1731,3,0,0,0,727.933289
1371,-928,4,1,0,11,112.688896
1097,716,1,0,0,0,789.721863
-1428,1112,2,0,0,0,716.120300
-1507,-1287,3,0,0,0,690.144043
436,-101,4,0,0,0,1018.393250
918,1741,1,0,0,0,673.016296
-1867,536,2,0,0,0,695.884216
-543,-601,3,0,0,0,947.305786
410,-1703,4,0,0,0,626.435120
639,981,1,0,0,0,822.021179
-743,1698,2,0,0,0,709.309387
-853,-1024,3,1,0,4,121.370949
1121,-950,4,0,0,0,676.576660
311,39,1,0,0,0,1201.812500
-1675,1826,2,0,0,0,626.358826
-1174,-526,3,0,0,0,814.123352
935,-1718,4,1,0,11,113.790176
917,1943,1,0,0,0,647.982849
-556,485,2,1,0,13,93.636559
-445,-1960,3,0,0,0,686.114563
890,-968,4,0,0,0,708.353882
1518,646,1,0,0,0,723.538879
-1685,1757,2,1,0,29,123.108315
-822,-224,3,0,0,0,932.738708
1597,-905,4,0,0,0,613.112976
1666,1012,1,0,0,0,675.776917
-81,775,2,1,0,13,93.636559
-1668,-763,3,1,0,4,121.370949
1069,-470,4,1,0,11,119.412849
1220,1230,1,0,0,0,709.526306
-688,1063,2,0,0,0,818.680786
-54,-1460,3,0,0,0,777.559387
410,-948,4,0,0,0,777.620422
101,731,1,0,0,0,954.901978
-1557,1379,2,0,0,0,676.325073
-1958,-526,3,0,0,0,683.629272
1809,-881,4,0,0,0,587.034119
1833,434,1,0,0,0,685.566589
-1460,1476,2,0,0,0,676.845093
-624,-1068,3,1,0,4,121.370949
272,-368,4,1,0,4,121.370949
1204,782,1,0,0,0,763.409912
-311,1468,2,0,0,0,769.882263
-1484,-895,3,1,0,4,121.370949
1596,-772,4,0,0,0,623.001892
190,1520,1,0,0,0,744.803528
-885,1952,2,0,0,0,667.746582
-1602,-419,3,0,0,0,741.616577
1030,-1680,4,0,0,0,592.948853
507,63,1,0,0,0,1060.896240
-625,813,2,0,0,0,879.358154
-640,-1061,3,0,0,0,824.911438
1910,-48,4,0,0,0,601.729553
1919,997,1,1,0,13,93.636559
-187,1903,2,0,0,0,700.377380
-15,-1311,3,0,0,0,808.669739
1975,-634,4,1,0,11,77.684769
209,695,1,1,0,13,93.636559
-935,1854,2,0,0,0,676.799927
-492,-471,3,1,0,4,121.370949
1529,-571,4,0,0,0,646.579041
372,1656,1,0,0,0,715.399536
-1245,326,2,0,0,0,814.006165
-1556,-722,3,0,0,0,731.498962
1255,-949,4,0,0,0,657.037292
1544,1623,1,0,0,0,636.078918
-1486,258,2,0,0,0,768.422180
-1945,-1408,3,1,0,4,121.370949
1450,-1734,4,1,0,11,91.888847
868,300,1,0,0,0,891.891418
-1760,224,2,1,0,4,121.370949
-14,-1835,3,1,0,4,121.370949
1102,-719,4,1,0,11,130.401428
1693,1346,1,0,0,0,646.084900
-446,512,2,0,0,0,998.130493
-1250,-1601,3,0,0,0,683.099182
271,-1780,4,0,0,0,618.604370
274,1089,1,1,0,13,93.636559
-523,1708,2,0,0,0,719.884399
-1161,-895,3,0,0,0,776.591858
1213,-751,4,0,0,0,685.017090
1465,1637,1,0,0,0,641.642151
-1633,1303,2,0,0,0,675.054993
-1722,-1372,3,1,0,4,121.370949
654,-297,4,0,0,0,882.086487
569,314,1,0,0,0,991.522034
-1076,586,2,0,0,0,828.145996
-1571,-1449,3,1,0,4,121.370949
683,-1140,4,0,0,0,705.324951
1200,799,1,0,0,0,762.212646
-945,336,2,0,0,0,885.750061
-962,-76,3,0,0,0,896.859192
63,-416,4,0,0,0,1036.197632
1270,1619,1,1,0,13,93.636559
-898,1585,2,0,0,0,714.256470
-1332,-1856,3,1,0,4,121.370949
523,-927,4,0,0,0,768.994141
162,318,1,0,0,0,1164.363647
-1879,812,2,0,0,0,680.888367
-323,-1418,3,1,0,4,121.370949
971,-1549,4,1,0,11,123.811371
1890,32,1,0,0,0,684.567139
-105,348,2,0,0,0,1178.329468
-367,-1869,3,1,0,4,121.370949
1365,-471,4,0,0,0,681.567627
494,1817,1,0,0,0,685.676147
-325,1914,2,0,0,0,696.034546
-383,-257,3,0,0,0,1109.641235
402,-699,4,0,0,0,848.796082
1931,674,1,0,0,0,662.044678
-894,1122,2,0,0,0,782.794006
-151,-215,3,0,0,0,1271.983521
504,-615,4,1,0,11,161.011749
1223,1220,1,0,0,0,710.347961
-985,786,2,0,0,0,820.058594
-433,-1206,3,1,0,4,121.370949
1211,-847,4,0,0,0,674.945007
325,1988,1,0,0,0,666.387146
-789,970,2,0,0,0,822.303345
-1605,-1346,3,0,0,0,674.295715
77,-1296,4,0,0,0,712.009644
1838,701,1,1,0,13,93.636559
-104,930,2,0,0,0,905.708008
-1567,-1903,3,0,0,0,627.827759
441,-1321,4,0,0,0,691.917236
1766,1802,1,0,0,0,602.225342
-460,803,2,0,0,0,908.918457
-1114,-1646,3,0,0,0,689.312683
39,-825,4,0,0,0,841.897339
1856,514,1,0,0,0,679.233154
-1113,1847,2,0,0,0,665.995667
-1008,-1349,3,0,0,0,736.787720
1959,-398,4,0,0,0,588.887207
1705,642,1,0,0,0,695.113403
-147,1437,2,0,0,0,780.821594
-648,-1721,3,1,0,4,121.370949
1012,-1359,4,0,0,0,635.902161
1010,1836,1,0,0,0,655.117737
-1118,1331,2,0,0,0,727.697876
-1708,-795,3,0,0,0,704.632996
1396,-1960,4,0,0,0,536.468201
843,1465,1,0,0,0,716.590393
-793,746,2,0,0,0,862.124084
-117,-1383,3,0,0,0,792.296997
639,-1272,4,0,0,0,685.655518
711,1208,1,0,0,0,770.283020
-1246,1879,2,0,0,0,653.284485
-349,-569,3,0,0,0,1003.058655
125,-315,4,0,0,0,1098.579468
1683,572,1,0,0,0,702.163147
-201,881,2,1,0,13,93.636559
-295,-1023,3,1,0,4,121.370949
134,-22,4,0,0,0,1362.403564
1558,656,1,1,0,13,93.636559
-1366,1132,2,0,0,0,721.847351
-1953,-1651,3,0,0,0,617.373413
1215,-128,4,0,0,0,729.428894
1033,1804,1,0,0,0,657.394897
-1536,624,2,0,0,0,741.266052
-1511,-1289,3,1,0,4,121.370949
1841,-60,4,1,0,11,72.951958
1057,92,1,0,0,0,850.340088
-1916,872,2,0,0,0,672.879456
-1784,-1424,3,0,0,0,649.755493
1374,-1956,4,0,0,0,538.343445
1668,730,1,0,0,0,695.288879
-248,1906,2,0,0,0,698.899109
-600,-543,3,0,0,0,947.569763
1314,-903,4,0,0,0,653.260620
862,715,1,1,0,13,93.636559
-890,622,2,0,0,0,862.900940
-972,-1225,3,0,0,0,758.038513
404,-694,4,0,0,0,849.985474
1175,653,1,0,0,0,782.302185
-1528,1180,2,1,0,29,154.191757
-1861,-128,3,0,0,0,707.468140
623,-395,4,0,0,0,874.418518
1496,796,1,0,0,0,715.852234
-249,701,2,1,0,13,93.636559
-438,-680,3,1,0,4,121.370949
63,-1200,4,0,0,0,734.178589
1187,253,1,1,0,13,93.636559
-557,656,2,0,0,0,929.845947
-789,-1659,3,0,0,0,711.852112
378,-1986,4,1,0,11,101.506294
1036,1704,1,0,0,0,669.262695
-61,1656,2,0,0,0,741.402649
-1600,-1616,3,0,0,0,650.826782
1978,-116,4,0,0,0,591.399414
314,573,1,0,0,0,989.971619
-630,299,2,0,0,0,990.448853
-1589,-1700,3,1,0,4,121.370949
134,-1726,4,0,0,0,629.782593
1719,389,1,0,0,0,704.603027
-1722,719,2,0,0,0,707.363708
-743,-1507,3,0,0,0,737.434631
126,-1413,4,0,0,0,686.637207
1433,1189,1,0,0,0,688.871155
-1988,454,2,1,0,13,93.636559
-913,-1127,3,0,0,0,779.648132
1379,-1683,4,0,0,0,564.884766
1363,1601,1,1,0,13,93.636559
-1840,1790,2,0,0,0,616.296753
-721,-197,3,0,0,0,970.461670
339,-1660,4,0,0,0,635.927185
475,1177,1,0,0,0,798.803650
-516,1306,2,0,0,0,788.942017
-236,-1614,3,0,0,0,745.932495
1741,-1338,4,1,0,11,87.945145
1984,1382,1,1,0,13,93.636559
-1281,960,2,0,0,0,751.323669
-674,-136,3,1,0,4,121.370949
640,-817,4,0,0,0,776.242737
222,809,1,1,0,13,93.636559
1819,-538,4,0,0,0,603.775635
886,427,1,0,0,0,872.160828
1603,-1414,4,0,0,0,569.906555
468,1162,1,0,0,0,802.571350
268,-1867,4,0,0,0,605.391602
318,1708,1,1,0,13,93.636559
1739,-1310,4,1,0,11,88.394257
1948,1652,1,0,0,0,598.746399
926,-1101,4,0,0,0,682.626892
747,808,1,1,0,13,93.636559
507,-750,4,0,0,0,815.507324
1597,670,1,0,0,0,709.621155
908,-1408,4,0,0,0,639.120422
304,586,1,0,0,0,987.002380
954,-1100,4,0,0,0,679.183960
1181,213,1,0,0,0,814.915100
116,-1233,4,0,0,0,725.531921
894,1530,1,0,0,0,703.050964
1995,-286,4,0,0,0,586.573303
1229,113,1,0,0,0,806.852966
917,-1653,4,0,0,0,604.762573
375,888,1,0,0,0,877.953247
551,-1503,4,0,0,0,652.108459
288,1448,1,0,0,0,755.386353
524,-239,4,0,0,0,945.702026
987,276,1,0,0,0,860.311035
1682,1171,1,0,0,0,661.454407
831,193,1,0,0,0,913.119995
233,1326,1,0,0,0,781.863159
1909,1576,1,1,0,13,93.636559
1785,405,1,0,0,0,693.780579
1998,254,1,0,0,0,666.431030
1891,1760,1,1,0,13,93.636559
1333,225,1,1,0,13,93.636559
1516,1255,1,0,0,0,673.035583


each generation good chromosome number
0,0,0,0,0,0,0,0,0,0,0,0,0,0,0,0,0,0,0,0,0,0,0,0,0,0,0,0,0,0,0,0,0,0,0,0,0,0,0,0,0,0,0,0,0,0,0,0,0,0,0,0,0,0,0,0,0,0,0,0,0,0,0,0,0,0,0,0,0,0,0,0,0,0,0,0,0,0,0,0,0,0,0,0,0,0,0,0,0,0,0,0,0,0,0,0,0,0,0,0,