mbs coordinate
0,0

cbsd coordinate and channel
-970,900,2
740,900,1
980,-860,1
-750,-850,5
-750,1000,4
1050,600,2
760,-1135,3
-870,-1100,1
-1080,450,1
970,530,3

building coordinate
-885,985
-1055,815
830,810
650,990
1060,-860
900,-860
-830,-770
-670,-930
-668,1070
-832,930
965,675
1135,525
832,-1059
688,-1211
-965,-1035
-775,-1165
-1135,365
-1025,535
907,591
1033,469

area numbers
27,28,45,

x , y , block , block number
area 1
1783,223,0,0
393,1320,0,0
586,234,0,0
510,645,0,0
102,1468,0,0
1863,1037,0,0
852,739,0,0
1485,592,0,0
363,1551,0,0
554,1901,0,0
25,1958,1,0
1258,396,0,0
1696,1735,0,0
1107,1189,0,0
876,1501,1,0
44,1071,0,0
1471,671,0,0
748,1345,1,0
343,364,1,0
1965,113,1,0
1243,565,0,0
1450,441,0,0
965,728,1,0
495,385,0,0
905,521,0,0
497,362,0,0
1774,659,1,0
area 2
752,-635,1,0
1556,-1500,1,0
856,-457,0,0
1670,-95,0,0
1987,-163,0,0
1295,-1381,0,0
616,-563,0,0
827,-1248,0,0
156,-1256,0,0
1253,-874,0,0
1141,-392,0,0
633,-331,0,0
645,-1376,0,0
774,-1139,0,0
1482,-196,0,0
491,-1709,0,0
14,-483,0,0
531,-634,0,0
1648,-1203,0,0
990,-128,1,0
838,-1785,0,0
1219,-1127,0,0
171,-1700,0,0
1116,-1679,0,0
1609,-1336,1,0
1220,-357,0,0
1031,-1736,0,0
998,-593,0,0
area 3
-685,-745,1,0
-1545,208,0,0
-584,-498,0,0
-1878,-1881,0,0
-1719,-1329,1,0
-107,-1044,0,0
-1858,1925,1,0
-837,670,0,0
-1147,-1392,0,0
-1713,1267,1,0
-1326,-1062,1,0
-463,1754,0,0
-508,1822,0,0
-1965,1006,0,0
-191,1114,1,0
-1068,-1935,0,0
-117,-144,0,0
-554,766,0,0
-17,-85,1,0
-1312,921,0,0
-756,1115,1,0
-191,1204,0,0
-1367,1438,0,0
-157,-572,1,0
-258,1419,0,0
-1591,-951,0,0
-567,-24,1,0
-310,799,0,0
-1147,-1793,0,0
-1707,-1902,1,0
-664,1559,1,0
-32,253,0,0
-1853,297,0,0
-1251,-1575,0,0
-296,-867,0,0
-600,-515,0,0
-929,1276,0,0
-1178,513,0,0
-777,-800,0,0
-202,628,0,0
-227,-1759,0,0
-41,968,0,0
-272,173,0,0
-924,-1422,0,0
-151,952,0,0

near cbsd peopel number
6
6
9
5
5
8
4
5
2
9
