time
CBSD number,good allocation,good and high allocation
5,19995.0,2235.0
6,39700.0,4380.0
7,77395.0,8295.0
8,146655.0,15050.0
9,268480.0,26110.0
10,473840.0,43400.0
11,806650.0,69370.0
12,1327190.0,107060.0
13,2115985.0,160165.0
14,3278160.0,233100.0
15,4948285.0,331065.0
16,7295725.0,460110.0
17,10530510.0,627200.0
18,14909740.0,840280.0
19,20744540.0,1108340.0
20,28407580.0,1441480.0
21,38341175.0,1850975.0
22,51065980.0,2349340.0
23,67190295.0,2950395.0
24,87419995.0,3669330.0
25,112569100.0,4522770.0
26,143571000.0,5528840.0
27,181490350.0,6707230.0
28,227535650.0,8079260.0
29,283072525.0,9667945.0
30,349637720.0,11498060.0
