each times' max average throughput
579.096252,582.849060,577.539551,577.963318,594.176270,561.679810,578.582642,591.690186,586.605347,579.783752,581.059631,508.583527,576.749268,582.015625,585.286926,580.980225,565.994324,563.313354,553.984070,585.111694,566.151733,581.609985,489.286102,554.249634,504.392456,582.215881,576.924011,590.950134,566.502747,584.791992,581.696106,559.997681,585.546875,557.024170,582.345459,579.584717,574.550842,565.878357,578.463196,576.617310,498.272919,580.064636,575.857483,582.500793,503.471558,573.408203,579.538635,587.360046,582.811951,577.680359,569.755249,581.709900,582.229736,545.577820,576.711670,559.047302,578.071899,571.336853,576.681519,487.060059,579.553711,568.508240,570.326416,580.947876,507.805206,0.000000,557.284485,568.298584,584.042114,563.553711,569.628174,582.563477,584.762329,0.000000,570.214233,575.040222,563.133972,573.243713,576.433411,588.278015,524.283203,573.028503,573.602356,565.739441,571.166870,574.451111,565.630371,568.992676,585.803650,580.220703,578.041260,571.119324,576.226135,569.296814,575.224243,586.144287,580.019104,590.299561,582.246643,574.714905,
avg. throughput in all test times
558.308350
avg. BS TX power in all test times
MBS area 1,MBS area 2,MBS area 3,MBS area 4,MBS area 5,CBSD 1,CBSD 2,CBSD 3,CBSD 4,CBSD 5,CBSD 6,
6.938,6.550,7.350,6.738,7.363,0.205,0.229,0.166,0.264,0.157,0.180,
avg. mbs all power,avg. cbsd enable number,avg. mbs area all power,avg. cbsd all power
47.088,1.000,34.938,1.201
avg. max avg. throughput generation number in all test times
0.710000
avg. number of relay UE
113

the max average throughput times

BS TX power
MBS area 1,MBS area 2,MBS area 3,MBS area 4,MBS area 5,CBSD 1,CBSD 2,CBSD 3,CBSD 4,CBSD 5,CBSD 6,
5.000,7.500,5.000,7.500,7.500,0.500,0.000,0.000,0.625,0.000,0.000,
max average throughput
574.714905

x,y,area,be blocked (1 : NLOS / 0 : LOS),be blocked number (>=1 : CBSD(x) / 0 : no),connect bs number (>=1 : CBSD / 0 : MBS),throughput (unit : M bps)
24,1130,1,0,0,0,751.750366
1394,524,2,0,0,0,730.786499
-639,1858,3,0,0,0,593.784973
-1103,-297,4,1,0,4,176.539566
1102,-110,5,0,0,0,815.837402
170,360,1,0,0,0,1052.133057
1589,1139,2,0,0,0,652.915405
-711,1002,3,1,0,1,125.703857
-1548,-1430,4,0,0,0,631.514771
647,-1338,5,0,0,0,731.366760
826,859,1,0,0,0,736.562744
1454,344,2,1,0,1,125.703857
-1621,874,3,0,0,0,612.183899
-1089,-1397,4,1,0,4,176.539566
516,-614,5,0,0,0,908.706482
208,1235,1,0,0,0,722.321655
744,182,2,0,0,0,921.969116
-163,1741,3,0,0,0,626.930664
-1172,-1785,4,0,0,0,627.760986
169,-54,5,0,0,0,1343.755493
446,577,1,0,0,0,877.711975
1907,96,2,0,0,0,659.658875
-1651,122,3,0,0,0,642.525391
-1263,-1522,4,0,0,0,649.616150
1272,-834,5,0,0,0,724.729004
706,1904,1,0,0,0,584.431335
1913,422,2,1,0,1,125.703857
-169,896,3,0,0,0,813.447266
-99,-509,4,1,0,4,176.539566
358,-1158,5,0,0,0,789.896484
985,1346,1,1,0,1,125.703857
1587,347,2,0,0,0,705.875061
-1374,1320,3,1,0,1,125.703857
-438,-820,4,1,0,4,176.539566
1128,-1171,5,1,0,4,176.539566
4,1389,1,1,0,1,125.703857
1353,384,2,0,0,0,747.192810
-26,539,3,0,0,0,964.464172
-406,-850,4,0,0,0,862.397583
463,-34,5,0,0,0,1066.283081
493,1919,1,0,0,0,591.411377
1693,1378,2,0,0,0,621.490601
-1843,1071,3,0,0,0,570.692810
-390,-1209,4,1,0,4,176.539566
307,-1107,5,1,0,4,176.539566
1089,1685,1,0,0,0,587.859497
601,101,2,0,0,0,987.834778
-808,1261,3,1,0,1,125.703857
-1787,-1661,4,1,0,4,176.539566
416,-220,5,0,0,0,1062.368774
427,1302,1,0,0,0,696.565552
931,679,2,0,0,0,804.430054
-8,1796,3,0,0,0,619.315308
-86,-1999,4,0,0,0,646.308655
2,-60,5,1,0,0,939.616821
768,819,1,1,0,1,125.703857
1665,104,2,0,0,0,698.265930
-1349,1104,3,0,0,0,627.819763
-1442,-1523,4,0,0,0,632.878479
1403,-922,5,0,0,0,696.454163
61,1770,1,1,0,1,125.703857
1348,133,2,0,0,0,757.981262
-1420,524,3,1,0,1,125.703857
-1862,-115,4,0,0,0,666.297791
1767,-345,5,0,0,0,676.461914
93,1290,1,1,0,1,125.703857
1719,1625,2,0,0,0,598.651367
-904,685,3,0,0,0,750.746948
-1564,-1096,4,0,0,0,659.602234
428,-1826,5,0,0,0,664.779175
294,1916,1,1,0,1,125.703857
486,337,2,1,0,1,125.703857
-508,86,3,0,0,0,977.798096
-648,-298,4,1,0,4,176.539566
836,-878,5,0,0,0,789.832886
293,868,1,0,0,0,812.088379
1051,286,2,0,0,0,820.617554
-1936,1690,3,0,0,0,517.988220
-290,-738,4,1,0,4,176.539566
372,-482,5,0,0,0,988.104187
682,1968,1,0,0,0,577.246277
1679,827,2,0,0,0,665.368835
-407,1874,3,0,0,0,600.678101
-1071,-787,4,0,0,0,763.432617
1088,-230,5,0,0,0,814.653931
632,1914,1,0,0,0,586.538391
1097,214,2,0,0,0,813.200806
-1649,1459,3,1,0,1,125.703857
-515,-743,4,0,0,0,874.234924
7,-1633,5,0,0,0,704.376953
980,1535,1,0,0,0,615.359680
1703,364,2,0,0,0,685.973877
-1879,691,3,0,0,0,588.460632
-1444,-1310,4,0,0,0,653.701660
769,-1112,5,0,0,0,758.520813
1645,1666,1,0,0,0,544.188721
1214,835,2,1,0,1,125.703857
-629,789,3,1,0,1,125.703857
-282,-830,4,1,0,4,176.539566
1500,-992,5,0,0,0,676.781860
1283,1306,1,0,0,0,613.862488
1813,76,2,0,0,0,674.211609
-1483,1515,3,0,0,0,572.232727
-1986,-703,4,0,0,0,631.604614
936,-1582,5,1,0,4,176.539566
590,1468,1,1,0,1,125.703857
213,151,2,0,0,0,1232.286621
-1059,1583,3,0,0,0,602.628601
-1210,-137,4,0,0,0,788.558899
813,-1802,5,1,0,4,176.539566
1198,1745,1,0,0,0,572.683228
1521,161,2,1,0,1,125.703857
-283,288,3,0,0,0,1048.067871
-917,-1103,4,1,0,4,176.539566
394,-1785,5,0,0,0,672.112732
450,1274,1,1,0,1,125.703857
1369,1230,2,0,0,0,670.175842
-191,647,3,0,0,0,900.149780
-45,-696,4,0,0,0,948.953918
1270,-620,5,0,0,0,745.804199
745,1837,1,1,0,1,125.703857
1950,1886,2,0,0,0,559.834778
-473,425,3,0,0,0,917.171814
-475,-623,4,1,0,4,176.539566
137,-750,5,0,0,0,923.299011
1342,1368,1,0,0,0,600.876648
436,369,2,1,0,1,125.703857
-911,1757,3,1,0,1,125.703857
-51,-1295,4,0,0,0,770.665161
630,-1413,5,0,0,0,719.861694
540,1144,1,0,0,0,719.441345
1738,473,2,0,0,0,676.326843
-1871,1574,3,1,0,1,125.703857
-734,-1623,4,0,0,0,679.512207
1024,-879,5,0,0,0,759.046753
1081,1719,1,0,0,0,584.435791
981,590,2,0,0,0,806.319702
-562,107,3,0,0,0,947.627747
-1467,-940,4,0,0,0,685.833191
1420,-937,5,0,0,0,692.652710
1066,1629,1,0,0,0,596.400635
1474,647,2,1,0,1,125.703857
-1581,1181,3,0,0,0,592.546753
-995,-1670,4,1,0,4,176.539566
1129,-714,5,0,0,0,761.975098
298,774,1,1,0,1,125.703857
1432,698,2,0,0,0,711.472168
-134,533,3,0,0,0,959.193970
-1837,-1196,4,0,0,0,620.305054
909,-1799,5,0,0,0,644.212097
862,1768,1,0,0,0,593.477356
474,40,2,0,0,0,1059.264526
-480,1509,3,0,0,0,655.212280
-658,-1470,4,0,0,0,708.344360
361,-1597,5,0,0,0,703.627380
45,886,1,0,0,0,821.329834
1981,638,2,1,0,1,125.703857
-836,1390,3,0,0,0,648.351013
-71,-338,4,1,0,4,176.539566
1750,-1454,5,0,0,0,609.708923
625,1862,1,0,0,0,593.888672
1027,686,2,1,0,1,125.703857
-1167,1580,3,1,0,1,125.703857
-357,-1675,4,1,0,4,176.539566
1214,-1447,5,0,0,0,662.757446
567,1019,1,0,0,0,742.785950
1869,380,2,0,0,0,659.984497
-1590,1681,3,0,0,0,547.513062
-1333,-556,4,0,0,0,739.570496
1832,-1328,5,0,0,0,611.277405
10,63,1,1,0,0,855.030457
1216,1100,2,0,0,0,703.204895
-208,1260,3,1,0,1,125.703857
-859,-149,4,0,0,0,884.677551
1946,-608,5,0,0,0,640.954163
344,510,1,1,0,1,125.703857
503,142,2,0,0,0,1032.110840
-1529,208,3,1,0,1,125.703857
-1786,-1540,4,0,0,0,599.521423
29,-1883,5,0,0,0,663.603943
432,1447,1,0,0,0,668.765991
819,135,2,1,0,1,125.703857
-1792,1459,3,0,0,0,547.879761
-846,-1306,4,0,0,0,718.202454
766,-1203,5,0,0,0,743.195129
104,1149,1,0,0,0,745.860168
1358,455,2,0,0,0,741.985657
-998,1779,3,0,0,0,583.158630
-764,-955,4,1,0,4,176.539566
711,-1344,5,0,0,0,724.833740
1074,1309,1,1,0,1,125.703857
1019,690,2,0,0,0,785.530579
-270,124,3,0,0,0,1136.528687
-1773,-1643,4,0,0,0,592.510132
695,-174,5,0,0,0,941.211182
102,254,1,1,0,1,125.703857
556,498,2,1,0,1,125.703857
-1284,417,3,0,0,0,700.820007
-1735,-1062,4,0,0,0,641.590332
1475,-926,5,0,0,0,685.955261
1846,1870,1,0,0,0,511.750946
1793,636,2,0,0,0,660.701355
-1330,342,3,1,0,1,125.703857
-1572,-1891,4,1,0,4,176.539566
1921,-1497,5,0,0,0,590.383118
967,1468,1,0,0,0,625.426819
1489,1227,2,0,0,0,656.683472
-464,1136,3,0,0,0,728.168274
-1973,-335,4,0,0,0,646.253540
1799,-150,5,0,0,0,675.688477
438,821,1,1,0,1,125.703857
1931,1326,2,0,0,0,601.433105
-1514,1489,3,0,0,0,571.767517
-1817,-840,4,1,0,4,176.539566
964,-33,5,1,0,1,125.703857
1604,1797,1,1,0,1,125.703857
1910,26,2,0,0,0,659.545044
-1258,1860,3,0,0,0,555.977722
-1384,-81,4,1,0,1,125.703857
1065,-961,5,0,0,0,741.528076
0,1987,1,0,0,0,590.598389
1862,1280,2,0,0,0,611.677063
-675,989,3,0,0,0,735.197205
-1610,-1520,4,0,0,0,617.446411
355,-1819,5,0,0,0,668.176941
674,998,1,0,0,0,733.553162
1227,243,2,1,0,1,125.703857
-1151,1277,3,0,0,0,631.768738
-1237,-329,4,0,0,0,774.232422
363,-1638,5,1,0,4,176.539566
870,1796,1,0,0,0,589.369629
1618,532,2,1,0,1,125.703857
-1820,1873,3,0,0,0,513.468323
-1006,-227,4,0,0,0,836.334656
1697,-649,5,1,0,4,176.539566
287,1222,1,0,0,0,721.668640
396,382,2,1,0,1,125.703857
-357,1656,3,1,0,1,125.703857
-1895,-1826,4,1,0,4,176.539566
1717,-209,5,0,0,0,687.917725
316,1659,1,0,0,0,636.843018
1895,1609,2,0,0,0,584.559082
-501,1078,3,1,0,1,125.703857
-1337,-1139,4,1,0,4,176.539566
754,-471,5,0,0,0,879.055481
24,720,1,0,0,0,881.237793
1936,365,2,1,0,1,125.703857
-330,264,3,0,0,0,1034.923828
-189,-845,4,1,0,4,176.539566
297,-1171,5,0,0,0,790.845947
440,1820,1,0,0,0,607.464478
1353,577,2,0,0,0,734.338806
-917,850,3,0,0,1,125.703857
-326,-1238,4,0,0,0,774.187500
747,-1952,5,1,0,4,176.539566
81,462,1,1,0,1,125.703857
1590,708,2,1,0,1,125.703857
-109,641,3,0,0,0,910.760437
-1979,-432,4,0,0,0,642.801697
683,-1187,5,0,0,0,754.835022
1869,1879,1,0,0,0,509.353638
159,138,2,0,0,0,1294.378418
-1077,633,3,0,0,0,723.042664
-884,-898,4,1,0,4,176.539566
34,-293,5,1,0,0,273.814362
1083,1832,1,0,0,0,571.147461
1739,1188,2,0,0,0,631.698914
-860,1181,3,1,0,1,125.703857
-3,-1721,4,0,0,0,689.355164
1820,-1759,5,0,0,0,579.456482
651,916,1,0,0,0,753.401917
1944,1385,2,0,0,0,596.091919
-1303,1007,3,0,0,0,644.033203
-878,-320,4,0,0,0,864.694641
144,-1394,5,0,0,0,748.218506
356,939,1,0,0,0,785.699158
541,102,2,1,0,1,125.703857
-1753,226,3,0,0,0,623.870178
-712,-708,4,0,0,0,844.023132
1323,-695,5,0,0,0,729.785217
390,681,1,1,0,1,125.703857
312,153,2,0,0,0,1149.823364
-976,752,3,0,0,1,125.703857
-35,-1885,4,1,0,4,176.539566
43,-1181,5,0,0,0,797.169861
96,1354,1,0,0,0,699.258911
1164,661,2,0,0,0,761.382568
-1987,837,3,0,0,0,567.459106
-1210,-271,4,0,0,0,783.357971
24,-618,5,0,0,0,983.591675
1629,1953,1,0,0,0,520.915405
1570,178,2,0,0,0,713.818848
-289,1669,3,0,0,0,635.998779
-1835,-238,4,0,0,0,668.631714
1233,-792,5,0,0,0,735.401794
1166,1978,1,0,0,0,549.685181
901,38,2,0,0,0,874.945984
-823,136,3,1,0,1,125.703857
-469,-965,4,0,0,0,824.949646
185,-1575,5,0,0,0,712.774597
1399,1603,1,0,0,0,571.219299
1833,566,2,0,0,0,658.319092
-1558,1680,3,0,0,0,550.282471
-1957,-912,4,0,0,0,624.617432
525,-913,5,0,0,0,830.293152
1067,421,2,0,0,0,805.742981
-1983,898,3,0,0,0,564.748657
-1620,-470,4,0,0,0,695.099609
526,-1642,5,0,0,0,688.825439
1651,1202,2,0,0,0,640.473755
-28,811,3,0,0,0,846.971375
-1369,-1239,4,0,0,0,669.241638
1478,-32,5,0,0,0,732.890015
1299,586,2,0,0,0,743.418884
-594,516,3,0,0,0,855.850952
-512,-446,4,0,0,0,956.674500
183,-704,5,0,0,0,936.842773
1564,1199,2,0,0,0,650.639282
-530,495,3,0,0,0,879.322998
-60,-1310,4,1,0,4,176.539566
1237,-172,5,0,0,0,781.297974
1974,1514,2,1,0,1,125.703857
-439,309,3,0,0,0,965.953613
-1213,-1593,4,0,0,0,646.108704
213,-80,5,1,0,0,373.966064
1904,1629,2,0,0,0,582.307617
-1911,1007,3,0,0,0,566.935791
-488,-1537,4,0,0,0,707.977539
1738,-207,5,0,0,0,684.529175
1370,662,2,0,0,0,724.629761
-1336,1146,3,0,0,0,625.054138
-1865,-1289,4,1,0,4,176.539566
302,-23,5,0,0,0,1189.466064
974,645,2,0,0,0,800.491028
-1429,1536,3,0,0,0,575.198364
-555,-1473,4,0,0,0,714.903503
806,-803,5,0,0,0,808.087219
1046,274,2,0,0,0,822.717590
-1559,256,3,0,0,0,655.866211
-1934,-579,4,0,0,0,643.759644
843,-128,5,0,0,0,891.077576
1990,748,2,0,0,0,629.022156
-1836,1311,3,1,0,1,125.703857
-1400,-852,4,0,0,0,703.351257
1184,-509,5,1,0,4,176.539566
1778,740,2,1,0,1,125.703857
-1423,911,3,0,0,0,636.707336
-1089,-1379,4,0,0,0,683.409668
346,-526,5,1,0,4,176.539566
1846,1676,2,0,0,0,583.717896
-109,927,3,1,0,1,125.703857
-1803,-1877,4,1,0,4,176.539566
1704,-1650,5,0,0,0,597.878601
-787,572,3,0,0,0,794.800354
-1314,-825,4,0,0,0,719.041138
1631,-1071,5,0,0,0,653.477966
-1555,1294,3,0,0,0,585.507751
-1378,-805,4,0,0,0,710.960388
295,-428,5,0,0,0,1033.683472
-36,1497,3,0,0,0,671.175171
-718,-1154,4,0,0,0,757.010620
1431,-1851,5,1,0,4,176.539566
-1807,750,3,0,0,0,594.993713
-330,-1937,4,0,0,0,651.480469
1345,-771,5,1,0,4,176.539566
-1245,1085,3,0,0,0,643.226013
-1937,-1893,4,1,0,4,176.539566
1193,-720,5,0,0,0,749.858215
-1963,1711,3,0,0,0,514.285400
-1500,-815,4,0,0,0,691.674438
318,-1216,5,0,0,0,779.465698
-634,864,3,0,0,0,767.031250
-1244,-366,4,1,0,4,176.539566
825,-474,5,0,0,0,859.513245
-501,901,3,0,0,0,778.160339
-1454,-295,4,0,0,0,731.867981
1123,-1002,5,0,0,0,727.760071
-583,1321,3,0,0,0,681.576904
-1368,-1610,4,0,0,0,630.800781
390,-335,5,0,0,0,1036.857178
-666,797,3,0,0,0,776.019470
-1553,-1237,4,0,0,0,648.514404
1889,-656,5,0,0,0,646.478088
-869,896,3,0,0,1,125.703857
-662,-426,4,0,0,0,914.073792
1436,-1024,5,0,0,0,682.343567
-1898,247,3,0,0,0,601.224243
-648,-780,4,0,0,0,841.184265
178,-808,5,0,0,0,899.747070
-1867,204,3,0,0,0,606.603394
-1613,-217,4,0,0,0,705.339783
1854,-1118,5,0,0,0,623.836182
-729,1817,3,0,0,0,594.801758
-298,-1674,4,0,0,0,692.815552
382,-1453,5,0,0,0,728.267212
-44,1331,3,0,0,0,704.725525
-846,-1988,4,1,0,4,176.539566
708,-1382,5,0,0,0,718.805054
-1252,439,3,0,0,0,705.801086
-110,-1217,4,0,0,0,787.562561
208,-75,5,0,0,0,1280.241699
-740,426,3,0,0,0,832.327454
-841,-666,4,0,0,0,824.993042
659,-746,5,0,0,0,846.529114
-1281,999,3,0,0,0,647.919678
-1290,-1140,4,0,0,0,689.266235
1450,-889,5,0,0,0,692.729126
-530,267,3,1,0,1,125.703857
-439,-734,4,0,0,0,890.199951
1916,-1815,5,0,0,0,567.617615
-1342,1010,3,0,0,0,638.404236
-1284,-1112,4,0,0,0,693.106689
643,-742,5,0,0,0,850.471802
-821,321,3,1,0,1,125.703857
-695,-1830,4,0,0,0,652.554382
1690,-1403,5,0,0,0,619.728027
-491,316,3,0,0,0,941.743896
-1627,-1774,4,0,0,0,593.699707
404,-1424,5,0,0,0,732.530884
-726,1551,3,0,0,0,632.874756
-1225,-766,4,1,0,4,176.539566
878,-896,5,0,0,0,780.019287
-1229,990,3,1,0,1,125.703857
-882,-454,4,1,0,4,176.539566
1304,-1831,5,0,0,0,613.145935
-1923,1921,3,0,0,0,502.276031
-980,-1372,4,0,0,0,695.225830
1268,-634,5,0,0,0,744.911133
-1289,1408,3,1,0,1,125.703857
-1509,-1600,4,1,0,4,176.539566
246,-1215,5,1,0,4,176.539566
-861,1055,3,0,0,1,125.703857
-1859,-115,4,0,0,0,666.756531
1050,-117,5,0,0,0,829.389221
-900,874,3,1,0,1,125.703857
-1206,-1121,4,1,0,4,176.539566
482,-1921,5,1,0,4,176.539566
-817,1124,3,1,0,1,125.703857
-1475,-1939,4,0,0,0,590.284912
903,-881,5,0,0,0,778.397461
-514,67,3,0,0,0,976.058167
-1778,-337,4,0,0,0,674.990479
340,-15,5,1,0,0,223.045670
-800,232,3,0,0,0,839.455566
-933,-280,4,1,0,4,176.539566
1152,-1066,5,0,0,0,715.732483
-1787,117,3,0,0,0,620.139282
-1961,-996,4,1,0,4,176.539566
863,-540,5,0,0,0,840.060242
-1271,537,3,1,0,1,125.703857
1390,-1156,5,0,0,0,675.270691
-1297,1728,3,0,0,0,566.868225
1431,-1448,5,1,0,4,176.539566
-1700,404,3,1,0,1,125.703857
228,-454,5,0,0,0,1040.293335
-1426,1032,3,1,0,1,125.703857
838,-1297,5,0,0,0,720.402954
-1989,1282,3,0,0,0,541.185913
1147,-935,5,0,0,0,732.606445
-1012,1400,3,0,0,0,630.396423
1973,-402,5,0,0,0,644.505676
-299,1095,3,1,0,1,125.703857
1549,-1670,5,0,0,0,609.388245
-1496,1171,3,0,0,0,603.339905
592,-178,5,0,0,0,983.724304
-1739,1640,3,0,0,0,538.345459
1222,-423,5,1,0,4,176.539566
-665,1620,3,0,0,0,626.513428
392,-1291,5,0,0,0,759.115845
-1078,1024,3,0,0,1,125.703857
435,-1479,5,1,0,4,176.539566
-1257,1319,3,0,0,0,615.223206
536,-356,5,1,0,4,176.539566
-910,311,3,0,0,0,798.137695
419,-1767,5,0,0,0,673.990173
-1671,979,3,0,0,0,597.881104
1043,-1968,5,0,0,0,615.762451
-1414,796,3,0,0,0,648.241699
1459,-996,5,0,0,0,681.883362
-1706,124,3,0,0,0,633.208618
905,-785,5,0,0,0,793.248291
-832,84,3,0,0,0,838.328796
1601,-491,5,0,0,0,697.177734
-1556,1843,3,0,0,0,535.804504
658,-1353,5,0,0,0,727.858765
-853,1622,3,0,0,0,613.575378
1855,-169,5,1,0,4,176.539566
-941,250,3,1,0,1,125.703857
856,-1992,5,1,0,4,176.539566
-986,1652,3,0,0,0,599.762939
70,-998,5,0,0,0,845.069397
-1171,1346,3,0,0,0,621.212830
841,-945,5,0,0,0,777.611816
-241,1286,3,0,0,0,709.789429
1621,-1539,5,1,0,4,176.539566
-1780,334,3,1,0,1,125.703857
561,-1178,5,0,0,0,768.731140
7,-890,5,1,0,4,176.539566
988,-191,5,0,0,0,843.394409
80,-457,5,0,0,0,1066.467896


each generation good chromosome number
1,1,2,