each times' max average throughput
632.219482,621.013550,629.855347,630.055176,623.761414,610.597961,629.932800,620.426147,632.373779,629.719116,616.033142,624.725342,623.176636,632.142029,604.279663,625.564697,626.371765,627.727295,632.232422,623.517456,625.884155,620.260376,624.726013,625.355042,623.532898,629.856384,629.391602,620.039307,623.348877,630.021057,621.828857,622.004639,630.090332,626.829285,631.157166,629.189514,629.557617,630.817993,629.728455,631.338318,620.154358,618.209473,625.167908,621.676880,624.950195,628.582214,627.773926,625.206482,629.878235,631.719177,624.831909,631.664062,623.550720,626.330872,626.344543,630.401001,628.192383,628.627014,616.730774,628.326965,619.400330,616.730774,616.730774,621.496643,616.730774,616.730774,632.112061,620.741821,616.730774,621.013733,616.730774,616.730774,616.730774,616.730774,616.730774,616.730774,617.403931,616.730774,616.730774,629.959717,621.497070,616.730774,616.730774,616.730774,616.730774,616.730774,626.925415,616.730774,616.730774,632.241699,616.730774,616.730774,616.730774,616.730774,616.730774,616.730774,618.503662,618.721741,616.730774,628.319092,
avg. throughput in all test times
623.090637
avg. BS TX power in all test times
MBS area 1,MBS area 2,MBS area 3,CBSD 1,CBSD 2,CBSD 3,CBSD 4,CBSD 5,CBSD 6,CBSD 7,
8.300,9.262,9.125,0.194,0.195,0.369,0.289,0.248,0.507,0.401,
avg. mbs all power,avg. cbsd enable number,avg. mbs area all power,avg. cbsd all power
48.737,2.000,26.688,2.203
avg. max avg. throughput generation number in all test times
0.440000
avg. number of relay UE
225



the max average throughput times

BS TX power
MBS area 1,MBS area 2,MBS area 3,CBSD 1,CBSD 2,CBSD 3,CBSD 4,CBSD 5,CBSD 6,CBSD 7,
8.750,10.000,8.750,0.000,0.000,0.000,0.625,0.875,0.000,1.000,
max average throughput
628.319092

x,y,area,be blocked (1 : NLOS / 0 : LOS),be blocked number (>=1 : CBSD(x) / 0 : no),connect bs number (>=1 : CBSD / 0 : MBS),throughput (unit : M bps)
909,367,1,1,0,7,104.217125
526,-1983,2,0,0,0,680.242126
-578,-1092,3,1,0,4,328.421112
1689,235,1,0,0,0,714.052124
1126,-893,2,0,0,0,782.292114
-193,-240,3,0,0,0,1206.881836
1667,1114,1,1,0,7,104.217125
1800,-1835,2,0,0,0,615.918884
-1427,-289,3,0,0,0,759.378540
94,1388,1,1,0,5,93.725418
1532,-777,2,0,0,0,731.093506
-567,-129,3,0,0,0,1023.580688
1147,1372,1,0,0,0,700.437256
873,-1300,2,1,0,7,104.217125
-761,699,3,0,0,0,857.950012
1607,884,1,0,0,0,693.198669
1449,-1048,2,1,0,7,104.217125
-1799,67,3,0,0,0,698.530212
592,1075,1,0,0,0,808.477600
1780,-1348,2,1,0,7,104.217125
-1472,-903,3,0,0,0,710.440857
205,694,1,1,0,5,93.725418
1373,-340,2,0,0,0,786.856445
-457,1674,3,0,0,0,709.058044
165,923,1,0,0,0,885.918274
184,-1473,2,0,0,0,772.986267
-735,-620,3,0,0,0,878.658997
726,1522,1,0,0,0,717.259644
656,-1574,2,0,0,0,733.195251
-1158,1155,3,0,0,0,726.016846
1852,1732,1,0,0,0,600.809570
223,-1745,2,0,0,0,724.263733
-102,1546,3,0,0,0,741.538940
1231,1507,1,0,0,0,676.277588
1347,-1653,2,0,0,0,669.206726
-991,-325,3,0,0,0,855.281738
59,543,1,0,0,0,1041.633545
1546,-804,2,0,0,0,726.985779
-1461,341,3,0,0,0,750.776917
1953,689,1,0,0,0,658.475037
1376,-166,2,0,0,0,792.703857
-47,-1721,3,0,0,0,711.314941
1758,1469,1,0,0,0,629.681519
1675,-738,2,1,0,7,104.217125
-1091,-1929,3,0,0,0,639.143677
9,1950,1,0,0,0,675.668396
1002,-1544,2,0,0,0,711.295532
-1589,1424,3,0,0,0,649.957031
1862,717,1,0,0,0,669.111084
1472,-1463,2,0,0,0,676.945557
-1654,-1464,3,0,0,0,640.084839
1842,9,1,1,0,7,104.217125
1748,-1012,2,0,0,0,684.704529
-280,142,3,0,0,0,1201.340332
780,387,1,0,0,0,907.235168
61,-1128,2,0,0,0,851.510559
-771,-827,3,0,0,0,832.047485
296,1677,1,0,0,0,714.446716
1311,-58,2,0,0,0,808.407410
-1973,1898,3,0,0,0,579.060547
1899,1561,1,0,0,0,609.625732
1781,-1685,2,0,0,0,629.375977
-322,36,3,0,0,0,1192.244507
1472,1789,1,0,0,0,626.494629
1988,-1945,2,1,0,7,104.217125
-1377,605,3,0,0,0,750.055054
316,212,1,1,0,0,202.933304
324,-229,2,0,0,0,1153.072876
-933,240,3,1,0,5,93.725418
788,627,1,0,0,0,865.368347
1371,-205,2,0,0,0,792.648804
-1235,1923,3,0,0,0,630.371582
4,1932,1,0,0,0,678.322266
21,-773,2,0,0,0,960.661011
-150,1224,3,1,0,5,93.725418
10,456,1,0,0,0,1093.609131
686,-1161,2,0,0,0,800.576660
-1823,-100,3,0,0,0,694.505310
1416,1486,1,0,0,0,661.016907
796,-1092,2,0,0,0,799.980103
-962,728,3,0,0,0,813.396057
976,1351,1,0,0,0,720.613403
1654,-1460,2,0,0,0,659.478333
-53,904,3,1,0,5,93.725418
919,1444,1,0,0,0,712.984680
1329,-1349,2,0,0,0,703.158081
-585,1291,3,1,0,5,93.725418
1489,1208,1,0,0,0,680.493286
252,-1841,2,1,0,7,104.217125
-540,-922,3,0,0,0,848.313354
1454,448,1,0,0,0,746.753540
1868,-341,2,0,0,0,702.375183
-247,-1228,3,0,0,0,802.596558
547,653,1,1,0,5,93.725418
1299,-503,2,1,0,7,104.217125
-1094,1870,3,0,0,0,645.604858
21,475,1,0,0,0,1081.624268
164,-660,2,0,0,0,997.682312
-568,-1179,3,0,0,0,790.006775
1745,1972,1,1,0,5,93.725418
200,-935,2,0,0,0,899.511292
-18,-719,3,1,0,7,104.217125
462,1560,1,0,0,0,727.522095
511,-1512,2,1,0,7,104.217125
-95,776,3,1,0,5,93.725418
664,40,1,0,0,0,984.808899
698,-1126,2,0,0,0,805.679626
-543,-1126,3,0,0,0,803.171997
396,1423,1,0,0,0,755.248169
834,-368,2,0,0,0,913.259155
-944,-347,3,0,0,0,865.727600
148,217,1,0,0,0,1252.791016
1521,-889,2,0,0,0,723.847290
-30,387,3,0,0,0,1140.133789
1396,452,1,0,0,0,757.143494
1579,-1618,2,0,0,0,652.500244
-1859,-102,3,0,0,0,688.909363
433,1697,1,0,0,0,706.411377
1551,-620,2,0,0,0,739.125793
-674,1558,3,0,0,0,715.353943
1097,901,1,1,0,5,93.725418
733,-1676,2,0,0,0,713.068481
-1952,-1419,3,1,0,4,142.924194
1243,932,1,0,0,0,740.755127
1230,-940,2,0,0,0,760.938293
-869,-557,3,0,0,0,858.261963
1505,1903,1,0,0,0,613.356018
447,-1884,2,0,0,0,696.786804
-301,-410,3,0,0,0,1062.181885
1137,1727,1,0,0,0,658.929504
1064,-1639,2,0,0,0,694.171204
-169,1701,3,1,0,5,93.725418
809,1286,1,0,0,0,747.159485
1122,-1749,2,0,0,0,676.589722
-1977,1041,3,1,0,5,93.725418
768,1925,1,0,0,0,658.258362
1479,-1836,2,0,0,0,640.537354
-1331,-437,3,0,0,0,770.447754
708,891,1,0,0,0,830.172363
989,-1052,2,0,0,0,780.942444
-152,-721,3,1,0,7,104.217125
1560,1813,1,0,0,0,617.421631
371,-407,2,0,0,0,1058.507202
-398,-1715,3,0,0,0,704.909912
1536,1447,1,0,0,0,653.113220
1359,-110,2,0,0,0,797.414001
-930,667,3,1,0,5,93.725418
87,1703,1,0,0,0,714.060425
1571,-1055,2,0,0,0,703.356812
-865,-1904,3,0,0,0,655.689697
305,122,1,0,0,0,1188.275391
1820,-1032,2,0,0,0,674.632141
-838,690,3,0,0,0,843.766663
939,1072,1,0,0,0,765.531189
304,-989,2,1,0,7,104.217125
-1209,915,3,0,0,0,747.742920
690,148,1,0,0,0,967.779419
128,-1355,2,0,0,0,797.922913
-1777,-1195,3,0,0,0,648.924927
375,599,1,0,0,0,967.368286
582,-1034,2,0,0,0,837.373657
-586,465,3,0,0,0,950.971802
1506,1314,1,0,0,0,668.627441
755,-664,2,0,0,0,885.036438
-794,573,3,0,0,0,873.440247
519,1426,1,1,0,5,93.725418
1058,-1870,2,0,0,0,667.041077
-155,-1396,3,0,0,0,769.695374
377,1269,1,1,0,5,93.725418
299,-1058,2,0,0,0,859.311035
-840,1504,3,0,0,0,711.142578
233,541,1,0,0,0,1019.860474
1831,-1640,2,0,0,0,628.644409
-1904,-1526,3,0,0,0,611.735779
673,848,1,0,0,0,844.539185
1748,-1659,2,1,0,7,104.217125
-483,1693,3,1,0,5,93.725418
1242,360,1,0,0,0,793.445190
961,-499,2,0,0,0,863.691711
-419,1434,3,0,0,0,751.985779
1711,531,1,1,0,7,104.217125
816,-822,2,0,0,0,844.316528
-586,-1802,3,0,0,0,683.869446
1372,1949,1,0,0,0,618.409973
1829,-927,2,0,0,0,680.391541
-725,-607,3,0,0,0,883.495544
33,980,1,1,0,5,93.725418
922,-354,2,1,0,7,104.217125
-1418,-67,3,0,0,0,766.644653
577,1265,1,0,0,0,772.613159
216,-1530,2,0,0,0,761.474854
-652,994,3,1,0,5,93.725418
1034,224,1,1,0,7,104.217125
1618,-1470,2,0,0,0,662.098145
-628,1385,3,0,0,0,746.890381
1214,284,1,0,0,0,803.934692
1731,-1885,2,0,0,0,617.165466
-711,-1872,3,0,0,0,668.082336
1231,1276,1,0,0,0,702.895996
1280,-623,2,0,0,0,785.015808
-1137,1586,3,0,0,0,675.458740
1699,135,1,1,0,7,104.217125
1549,-781,2,0,0,0,728.274231
-1706,-485,3,0,0,0,702.799438
16,1743,1,0,0,0,707.771240
468,-802,2,0,0,0,907.943237
-1382,1402,3,0,0,0,672.952515
59,1538,1,0,0,0,743.439270
1297,-452,2,1,0,7,104.217125
-896,-1945,3,1,0,4,164.828979
954,160,1,0,0,0,876.942810
1125,-1547,2,0,0,0,700.281372
-1640,951,3,0,0,0,683.734009
850,753,1,0,0,0,830.799683
2,-477,2,0,0,0,1099.946045
-216,-583,3,1,0,4,240.437897
404,721,1,0,0,0,922.259827
35,-971,2,1,0,7,104.217125
-1494,-559,3,0,0,0,733.185181
1460,898,1,0,0,0,712.579041
103,-314,2,1,0,0,267.314728
-1327,-1755,3,1,0,4,168.285568
1562,852,1,0,0,0,701.888062
1729,-1192,2,0,0,0,673.562866
-939,1606,3,0,0,0,689.129272
190,1701,1,0,0,0,712.994263
634,-134,2,0,0,0,1011.604736
-133,1239,3,0,0,0,804.086731
564,854,1,0,0,0,860.713501
1018,-1625,2,0,0,0,699.574463
-431,-768,3,0,0,0,903.964539
1307,303,1,0,0,0,782.857544
738,-301,2,0,0,0,951.948547
-1213,-1023,3,0,0,0,734.692932
447,1559,1,0,0,0,728.432129
1098,-1878,2,0,0,0,663.489502
-1427,-1379,3,0,0,0,670.668579
353,459,1,0,0,0,1024.796387
1344,-350,2,0,0,0,792.113770
-91,1709,3,1,0,5,93.725418
1096,1485,1,0,0,0,691.400696
349,-1737,2,1,0,7,104.217125
-1743,9,3,0,0,0,707.779602
1997,966,1,0,0,0,638.858215
35,-1990,2,0,0,0,688.914368
-1410,1940,3,0,0,0,616.649902
683,818,1,0,0,0,849.080444
362,-890,2,0,0,0,898.113525
-1228,1161,3,0,0,0,716.638977
1897,1920,1,0,0,0,583.090149
814,-111,2,0,0,0,943.221069
-1394,1325,3,0,0,0,679.621704
846,1437,1,0,0,0,720.463318
12,-1039,2,0,0,0,875.566223
-206,1810,3,0,0,0,695.141602
1118,732,1,0,0,0,784.004150
624,-712,2,0,0,0,902.359253
-84,-1209,3,0,0,0,812.087646
1832,1614,1,0,0,0,611.560913
647,-1494,2,1,0,7,104.217125
-1240,1026,3,0,0,0,730.629883
844,26,1,0,0,0,916.078308
1979,-317,2,0,0,0,686.920410
-1536,939,3,0,0,0,698.524414
600,778,1,0,0,0,872.464783
395,-1736,2,0,0,0,720.833618
-1679,463,3,1,0,5,93.725418
1267,1082,1,0,0,0,720.704224
556,-1988,2,0,0,0,678.476196
-1540,503,3,0,0,0,728.742126
78,1599,1,1,0,5,93.725418
1028,-543,2,0,0,0,843.238220
-1119,1312,3,0,0,0,710.858765
945,1833,1,1,0,5,93.725418
167,-1288,2,0,0,0,811.380554
-860,313,3,0,0,0,892.894287
748,1129,1,0,0,0,780.163330
416,-1018,2,0,0,0,859.237976
-1490,-1015,3,0,0,0,698.114075
1607,1981,1,0,0,0,599.117065
1438,-244,2,1,0,7,104.217125
-1077,-1038,3,0,0,0,751.635437
24,167,1,0,0,0,1380.502808
1507,-1093,2,0,0,0,708.045715
-1337,1308,3,0,0,0,687.588806
556,235,1,0,0,0,1012.810791
991,-1236,2,0,0,0,754.310181
-899,637,3,1,0,5,93.725418
1800,254,1,1,0,7,104.217125
1002,-750,2,0,0,0,822.020203
-1766,-658,3,0,0,0,685.426636
1946,1173,1,0,0,0,632.026306
1612,-569,2,0,0,0,732.482483
-1338,1410,3,0,0,0,676.582458
1499,1485,1,1,0,5,93.725418
267,-289,2,0,0,0,1155.481323
-643,1664,3,1,0,5,93.725418
910,959,1,0,0,0,787.091187
396,-529,2,0,0,0,1005.968506
-306,166,3,1,0,5,93.725418
1187,1597,1,0,0,0,669.893982
677,-1691,2,0,0,0,714.291687
-1916,-972,3,0,0,0,647.992126
1982,1173,1,0,0,0,628.177246
1441,-1253,2,0,0,0,700.765198
-386,-704,3,0,0,0,930.603760
1574,118,1,0,0,0,736.209839
538,-450,2,1,0,7,104.217125
-946,-542,3,0,0,0,842.510132
519,973,1,0,0,0,839.230896
1872,-1892,2,0,0,0,606.011475
-1507,-1389,3,0,0,0,661.454163
1124,108,1,0,0,0,832.422424
632,-217,2,0,0,0,1002.751282
-1392,1066,3,0,0,0,706.097961
1535,533,1,1,0,7,104.217125
1847,-927,2,0,0,0,678.159241
-1868,-352,3,1,0,5,93.725418
61,1435,1,0,0,0,763.284058
624,-972,2,0,0,0,845.110046
-1171,1009,3,0,0,0,742.209412
29,1283,1,0,0,0,795.630066
896,-322,2,0,0,0,900.733032
-1720,1424,3,0,0,0,636.987732
1764,1795,1,1,0,5,93.725418
1128,-422,2,1,0,7,104.217125
-1422,-921,3,1,0,4,224.994980
403,157,1,0,0,0,1108.936523
207,-1160,2,1,0,7,104.217125
-61,-802,3,0,0,0,930.087830
927,602,1,0,0,0,838.565063
156,-1818,2,0,0,0,713.789673
-777,-769,3,0,0,0,841.736633
39,1192,1,1,0,5,93.725418
754,-933,2,0,0,0,834.228455
-1527,-562,3,1,0,4,199.754578
387,1163,1,0,0,0,808.836182
613,-1911,2,0,0,0,686.537720
-938,146,3,1,0,5,93.725418
815,642,1,0,0,0,856.786743
1596,-513,2,0,0,0,738.081787
-911,-648,3,1,0,4,346.044495
1822,536,1,0,0,0,683.218506
1675,-235,2,0,0,0,735.529724
-760,-1052,3,0,0,0,792.406006
799,1962,1,0,0,0,652.004395
3,-239,2,1,0,0,392.728760
-1832,584,3,0,0,0,679.682983
106,1537,1,1,0,5,93.725418
340,-1723,2,1,0,7,104.217125
-1614,972,3,0,0,0,685.504761
66,1119,1,0,0,0,834.527344
1592,-1133,2,0,0,0,694.181274
-1628,-989,3,1,0,4,191.141815
1354,1681,1,0,0,0,646.662231
882,-1040,2,0,0,0,797.372070
-334,438,3,0,0,0,1039.204102
1679,450,1,0,0,0,708.563477
1620,-1525,2,0,0,0,657.072632
-947,-318,3,0,0,0,867.677368
705,633,1,0,0,0,882.910583
1117,-732,2,0,0,0,803.369934
-1085,1147,3,0,0,0,736.127502
1154,241,1,0,0,0,820.029785
1135,-1428,2,0,0,0,713.877991
-117,1006,3,0,0,0,863.724304
152,422,1,0,0,0,1098.435547
282,-1978,2,0,0,0,687.810669
-809,1674,3,0,0,0,689.302917
1061,1549,1,0,0,0,686.501526
350,-1603,2,1,0,7,104.217125
-986,1097,3,1,0,5,93.725418
917,1637,1,0,0,0,686.682922
446,-1273,2,0,0,0,800.503174
-1254,468,3,0,0,0,783.538879
1904,387,1,0,0,0,676.709534
89,-558,2,0,0,0,1051.097778
-301,-698,3,1,0,4,269.369110
1234,509,1,0,0,0,784.319092
1132,-498,2,0,0,0,825.464417
-73,368,3,0,0,0,1149.952026
1328,1398,1,0,0,0,678.884338
931,-1719,2,0,0,0,694.047546
-215,-1020,3,1,0,7,104.217125
1849,114,1,1,0,7,104.217125
683,-1328,2,1,0,7,104.217125
-1303,-1903,3,0,0,0,627.776001
980,182,1,0,0,0,868.314697
487,-697,2,0,0,0,933.311890
-637,625,3,1,0,5,93.725418
1391,1141,1,0,0,0,698.712524
1089,-1631,2,0,0,0,693.138306
-1895,-643,3,0,0,0,668.275818
1087,978,1,1,0,5,93.725418
924,-1648,2,0,0,0,703.812805
-1703,-385,3,1,0,4,169.738358
1080,730,1,1,0,7,104.217125
1125,-1520,2,0,0,0,703.558472
-1880,1681,3,0,0,0,602.354614
667,108,1,1,0,7,104.217125
94,-26,2,0,0,0,1557.896851
-1165,-1873,3,0,0,0,640.484009
1437,1838,1,0,0,0,624.495178
211,-1561,2,0,0,0,755.951050
-948,-614,3,0,0,0,832.348145
1944,872,1,0,0,0,650.370544
801,-1827,2,0,0,0,688.258484
-201,1234,3,0,0,0,803.132080
1487,1660,1,0,0,0,637.543579
962,-1889,2,0,0,0,670.883728
-16,-1820,3,0,0,0,695.395508
1697,1757,1,0,0,0,611.426514
501,-1561,2,1,0,7,104.217125
-1528,47,3,1,0,5,93.725418
581,1798,1,0,0,0,684.677673
1152,-487,2,0,0,0,822.225037
-465,-1150,3,1,0,4,286.482941
1266,365,1,0,0,0,788.064270
121,-566,2,0,0,0,1044.172241
-605,1254,3,0,0,0,772.213623
683,376,1,0,0,0,939.058838
364,-1976,2,1,0,7,104.217125
-1504,1054,3,0,0,0,692.815063
1544,644,1,0,0,0,719.539551
1487,-1459,2,0,0,0,675.864502
-1880,957,3,1,0,5,93.725418
1102,1878,1,0,0,0,644.167236
1813,-1560,2,0,0,0,636.436157
-1547,-1161,3,0,0,0,677.997314
600,614,1,1,0,5,93.725418
831,-551,2,0,0,0,887.442749
-1973,324,3,0,0,0,668.517517
1297,1262,1,0,0,0,697.037964
1674,-764,2,1,0,7,104.217125
-1117,-456,3,0,0,0,813.376587
1673,825,1,0,0,0,688.362793
165,-283,2,0,0,0,1208.332764
-687,509,3,0,0,0,912.480469
252,1121,1,1,0,5,93.725418
612,-1279,2,1,0,7,104.217125
-1589,-827,3,1,0,4,198.183746
885,1315,1,0,0,0,735.003540
1442,-1349,2,0,0,0,691.177002
-1586,325,3,0,0,0,728.938293
604,731,1,0,0,0,882.676453
713,-235,2,0,0,0,969.192139
-596,1622,3,0,0,0,710.253418
1250,1633,1,0,0,0,660.477905
1586,-176,2,1,0,7,104.217125
-1299,-484,3,1,0,4,227.962814
921,725,1,0,0,0,821.687500
337,-1171,2,0,0,0,829.721924
-1463,26,3,0,0,0,757.950745
332,1398,1,1,0,5,93.725418
1938,-303,2,0,0,0,693.080017
-228,-479,3,0,0,0,1050.043335
1396,810,1,0,0,0,729.821716
389,-1843,2,0,0,0,704.686279
-771,677,3,0,0,0,859.979370
251,920,1,0,0,0,881.048889
246,-496,2,0,0,0,1056.974365
-1239,1804,3,1,0,5,93.725418
677,727,1,0,0,0,869.283569
1439,-203,2,0,0,0,779.087280
-869,-1805,3,1,0,4,181.462357
240,1313,1,1,0,5,93.725418
1259,-128,2,1,0,7,104.217125
-1624,227,3,0,0,0,725.273071
1720,1392,1,1,0,5,93.725418
1265,-187,2,0,0,0,815.850037
-779,489,3,1,0,5,93.725418
1957,1427,1,0,0,0,613.846252
1984,-1348,2,0,0,0,635.622009
-99,495,3,0,0,0,1064.357788
1608,504,1,0,0,0,717.455200
1980,-113,2,0,0,0,689.934692
-1646,-403,3,0,0,0,715.847717
1765,546,1,0,0,0,691.111206
407,-176,2,1,0,7,104.217125
-1578,-484,3,0,0,0,723.396912
1245,1073,1,0,0,0,724.611145
1126,-1991,2,0,0,0,649.167480
-1964,1786,3,0,0,0,587.797424
1553,1509,1,0,0,0,645.752136
1518,-1072,2,0,0,0,708.550415
-1912,-1319,3,1,0,4,149.877884
381,895,1,0,0,0,875.341187
477,-812,2,1,0,7,104.217125
-307,1142,3,0,0,0,819.141235
981,776,1,0,0,0,803.005310
1899,-851,2,0,0,0,676.175903
-158,-1019,3,1,0,7,104.217125
1856,477,1,0,0,0,680.653503
1674,-981,2,0,0,0,696.201233
-1790,1358,3,1,0,5,93.725418
1689,1769,1,0,0,0,611.064331
980,-1618,2,0,0,0,703.466431
-1644,6,3,0,0,0,724.535889
1578,457,1,0,0,0,724.739563
366,-1535,2,1,0,7,104.217125
-1417,-859,3,0,0,0,722.274048
1676,1033,1,0,0,0,672.932922
733,-432,2,0,0,0,933.125610
-175,-2000,3,1,0,7,104.217125
1377,622,1,0,0,0,748.738159
1086,-740,2,0,0,0,807.998108
-41,-1282,3,1,0,7,104.217125
1164,1898,1,0,0,0,637.815491
1141,-295,2,1,0,7,104.217125
-1906,983,3,0,0,0,648.509644
1173,519,1,0,0,0,795.773193
564,-1523,2,1,0,7,104.217125
-868,1490,3,0,0,0,710.857727
1997,1909,1,0,0,0,576.492188
982,-1520,2,0,0,0,716.164307
-992,-614,3,0,0,0,823.034119
1778,140,1,0,0,0,701.205261
278,-351,2,0,0,0,1118.195923
-1009,-1964,3,0,0,0,640.190979
1864,1181,1,0,0,0,640.369812
462,-893,2,0,0,0,885.040222
-1140,611,3,1,0,5,93.725418
1205,1515,1,0,0,0,677.763733
1668,-86,2,0,0,0,739.145447
-613,-42,3,1,0,5,93.725418
1447,1901,1,0,0,0,617.744568
241,-1800,2,0,0,0,715.146057
-1146,641,3,0,0,0,789.042725
6,1693,1,0,0,0,716.119263
489,-87,2,0,0,0,1088.289795
-915,355,3,1,0,5,93.725418
1093,366,1,0,0,0,826.504456
1145,-1000,2,0,0,0,766.151611
-245,22,3,1,0,0,363.340546
933,718,1,0,0,0,820.421814
912,-254,2,0,0,0,902.368896
-703,1609,3,0,0,0,705.675842
51,1760,1,0,0,0,704.883484
1715,-586,2,0,0,0,715.731934
-1801,1588,3,1,0,5,93.725418
1077,1478,1,0,0,0,694.030212
1254,-1250,2,1,0,7,104.217125
-483,554,3,0,0,0,956.059143
1133,176,1,0,0,0,828.021179
224,-1646,2,0,0,0,740.702698
-290,1431,3,0,0,0,758.567688
55,1545,1,1,0,5,93.725418
1278,-245,2,0,0,0,810.829529
-1976,-1904,3,1,0,4,120.668816
819,1526,1,1,0,5,93.725418
1571,-757,2,0,0,0,726.770752
-94,-1879,3,0,0,0,685.920349
495,215,1,0,0,0,1045.096069
387,-1037,2,0,0,0,857.375183
-132,-489,3,0,0,0,1063.388428
434,1809,1,1,0,5,93.725418
581,-1116,2,0,0,0,820.512512
-1437,-631,3,0,0,0,737.846252
1926,1231,1,0,0,0,630.326050
763,-669,2,0,0,0,882.382568
-517,1857,3,0,0,0,678.970947
1907,42,1,1,0,7,104.217125
444,-203,2,0,0,0,1093.251953
-1042,857,3,0,0,0,781.258362
681,1238,1,0,0,0,767.990845
1041,-1756,2,0,0,0,681.667603
-319,1032,3,0,0,0,845.184631
861,729,1,0,0,0,832.679626
617,-1631,2,0,0,0,726.782043
-62,-810,3,1,0,7,104.217125
1605,712,1,1,0,7,104.217125
425,-1343,2,0,0,0,788.042786
-1768,-499,3,0,0,0,692.734863
627,1848,1,1,0,5,93.725418
1831,-838,2,0,0,0,685.578125
-880,102,3,0,0,0,902.263184
145,773,1,0,0,0,936.547668
341,-1963,2,0,0,0,688.614075
-61,1460,3,0,0,0,758.334961
221,1873,1,1,0,5,93.725418
55,-1418,2,0,0,0,785.924744
-426,651,3,0,0,0,939.673523
455,1322,1,1,0,5,93.725418
396,-1900,2,1,0,7,104.217125
-260,-671,3,0,0,0,962.151123
1239,908,1,1,0,7,104.217125
1738,-623,2,0,0,0,710.417664
-1123,-357,3,0,0,0,820.156067
910,871,1,0,0,0,800.980042
1525,-227,2,0,0,0,762.101685
-137,623,3,0,0,0,996.896179
1387,413,1,1,0,7,104.217125
1896,-593,2,0,0,0,689.451904
-723,426,3,0,0,0,917.868286
93,1791,1,1,0,5,93.725418
1458,-186,2,0,0,0,775.830994
-510,813,3,0,0,0,879.213806
1821,397,1,0,0,0,688.605530
1927,-660,2,0,0,0,682.296326
-1919,-1395,3,0,0,0,619.728271
19,168,1,1,0,0,517.552246
1260,-898,2,1,0,7,104.217125
-258,1687,3,1,0,5,93.725418
1459,183,1,0,0,0,756.541687
64,-1615,2,0,0,0,748.564514
-768,1525,3,0,0,0,713.682983
1839,1436,1,0,0,0,624.474182
826,-1812,2,0,0,0,688.759338
-1808,-287,3,0,0,0,693.738586
1739,1845,1,1,0,5,93.725418
493,-150,2,0,0,0,1077.667725
-1563,-289,3,1,0,5,93.725418
74,612,1,0,0,0,1006.745850
311,-861,2,0,0,0,912.040527
-1025,1781,3,0,0,0,660.700867
477,1506,1,0,0,0,735.970276
55,-657,2,1,0,7,104.217125
-1709,-529,3,0,0,0,700.324341
574,258,1,0,0,0,1000.794373
913,-1769,2,0,0,0,688.856323
-325,1073,3,0,0,0,834.477295
641,721,1,0,0,0,877.713013
1473,-1244,2,1,0,7,104.217125
-812,-142,3,0,0,0,923.010010
1489,116,1,1,0,7,104.217125
24,-1181,2,0,0,0,838.660828
-782,-1263,3,1,0,4,286.347656
1673,1130,1,0,0,0,665.752747
780,-69,2,0,0,0,957.046509
-1880,1487,3,0,0,0,616.801331
1092,863,1,0,0,0,772.310486
1182,-862,2,0,0,0,777.179688
-249,-1216,3,0,0,0,805.216064
767,1877,1,0,0,0,664.510925
1947,-1884,2,0,0,0,600.963989
-821,1521,3,1,0,5,93.725418
128,518,1,0,0,0,1048.371338
1474,-1465,2,1,0,7,104.217125
-1487,981,3,0,0,0,701.536682
615,752,1,1,0,5,93.725418
838,-654,2,0,0,0,869.013062
-1253,139,3,0,0,0,800.745789
1173,1030,1,0,0,0,739.385803
1347,-1117,2,1,0,7,104.217125
-153,32,3,0,0,0,1402.537231
1979,765,1,0,0,0,651.565491
1170,-1236,2,0,0,0,733.749390
-150,525,3,0,0,0,1041.732544
1601,1569,1,0,0,0,635.883118
1814,-1532,2,1,0,7,104.217125
-1614,-1715,3,0,0,0,621.826416
588,64,1,0,0,0,1018.673096
1468,-630,2,0,0,0,751.920532
-587,-97,3,0,0,0,1016.978027
15,1935,1,1,0,5,93.725418
491,-61,2,1,0,7,104.217125
-1285,1812,3,0,0,0,638.470581
486,409,1,0,0,0,998.113037
604,-312,2,0,0,0,997.787170
-1585,1617,3,1,0,5,93.725418
223,1886,1,1,0,5,93.725418
1895,-1895,2,1,0,7,104.217125
-1912,1633,3,0,0,0,603.199646
389,1050,1,0,0,0,834.836060
528,-677,2,0,0,0,930.522827
-1668,998,3,0,0,0,676.586731
395,1642,1,0,0,0,716.825500
571,-1764,2,0,0,0,709.205750
-1982,986,3,0,0,0,639.457703
362,416,1,0,0,0,1038.871826
648,-1943,2,1,0,7,104.217125
-1943,-1827,3,0,0,0,586.473633
1255,1657,1,0,0,0,657.422241
134,-177,2,0,0,0,1320.576294
-1213,1815,3,0,0,0,643.438232
1515,461,1,0,0,0,735.272278
1867,-435,2,0,0,0,699.653687
-956,716,3,1,0,5,93.725418
779,1194,1,1,0,5,93.725418
311,-897,2,1,0,7,104.217125
-838,1543,3,1,0,5,93.725418
1697,1329,1,1,0,5,93.725418
1004,-1972,2,0,0,0,658.616028
-1358,-48,3,0,0,0,779.201538
904,815,1,0,0,0,810.849487
1935,-1800,2,1,0,7,104.217125
-323,-717,3,0,0,0,936.579285
1223,385,1,1,0,7,104.217125
182,-1231,2,1,0,7,104.217125
-689,855,3,0,0,0,840.459717
1576,1053,1,0,0,0,683.790283
849,-1078,2,0,0,0,795.578064
-1125,480,3,0,0,0,809.441467
1940,1704,1,0,0,0,595.659241
1061,-513,2,0,0,0,839.326904
-1454,-923,3,0,0,0,711.218567
1011,459,1,1,0,7,104.217125
1854,-1194,2,0,0,0,659.606262
-1747,1639,3,1,0,5,93.725418
1465,265,1,1,0,7,104.217125
1890,-917,2,0,0,0,673.475708
-1528,642,3,0,0,0,722.212402
1252,449,1,0,0,0,785.349182
618,-1279,2,0,0,0,785.638611
-1445,-1190,3,1,0,4,208.211014
1257,1334,1,0,0,0,693.381653
1090,-877,2,1,0,7,104.217125
-580,-407,3,1,0,4,269.244965
1343,1987,1,0,0,0,616.646912
980,-361,2,0,0,0,874.099670
-1189,140,3,0,0,0,815.596497
1594,929,1,0,0,0,691.508545
85,-432,2,0,0,0,1123.049927
-1195,-1548,3,0,0,0,674.853394
321,1837,1,0,0,0,688.442688
1052,-788,2,1,0,7,104.217125
-1440,-1280,3,1,0,4,202.099045
940,748,1,0,0,0,814.618591
35,-477,2,0,0,0,1099.174438
-753,-621,3,0,0,0,874.361084
208,1956,1,0,0,0,673.186218
263,-435,2,0,0,0,1081.606079
-679,947,3,0,0,0,823.373596
898,348,1,1,0,7,104.217125
957,-1693,2,0,0,0,695.539062
-1031,-1808,3,0,0,0,657.054321
850,207,1,0,0,0,905.877747
692,-877,2,1,0,7,104.217125
-1010,74,3,0,0,0,863.745300
435,648,1,0,0,0,938.759460
21,-1601,2,0,0,0,751.263123
-1186,1592,3,0,0,0,670.556641
170,702,1,0,0,0,961.080200
921,-1174,2,1,0,7,104.217125
-1790,-756,3,1,0,4,171.586060
1314,1724,1,0,0,0,645.452026
672,-1212,2,0,0,0,792.733887
-524,-1084,3,0,0,0,813.969788
1761,744,1,0,0,0,681.340759
927,-100,2,0,0,0,906.762085
-201,-1454,3,0,0,0,757.050476
1961,780,1,0,0,0,653.087158
138,-1758,2,1,0,7,104.217125
-399,-1348,3,1,0,4,237.903137
1317,202,1,0,0,0,784.847473
690,-102,2,0,0,0,990.388855
-222,-85,3,0,0,0,1281.583496
1512,1325,1,1,0,5,93.725418
58,-1030,2,0,0,0,877.634094
-1343,174,3,0,0,0,780.180481
1103,1679,1,0,0,0,667.168091
1943,-1836,2,0,0,0,604.771301
-1374,768,3,0,0,0,737.000610
1519,1809,1,0,0,0,620.966309
1516,-1698,2,0,0,0,650.551025
-1710,92,3,0,0,0,712.844543
729,486,1,0,0,0,905.447937
986,-911,2,0,0,0,801.878601
-937,-1059,3,0,0,0,767.771973
5,1561,1,1,0,5,93.725418
987,-990,2,0,0,0,790.231934
-199,-1781,3,0,0,0,699.831238
1356,968,1,0,0,0,720.717346
1806,-1819,2,0,0,0,616.714111
-1080,1870,3,0,0,0,646.532959
822,358,1,0,0,0,898.810913
111,-858,2,1,0,7,104.217125
-371,40,3,1,0,5,93.725418
1790,869,1,0,0,0,669.898254
1338,-1587,2,0,0,0,676.890320
-1426,1578,3,0,0,0,650.873108
1671,1074,1,0,0,0,670.387695
1528,-938,2,0,0,0,718.817871
-913,1958,3,0,0,0,646.409668
107,462,1,0,0,0,1082.374634
1101,-1840,2,1,0,7,104.217125
-878,-1547,3,0,0,0,701.962952
1096,1224,1,0,0,0,724.715393
188,-1071,2,0,0,0,862.486328
-1963,16,3,1,0,5,93.725418
1316,990,1,1,0,5,93.725418
-1760,1151,3,1,0,5,93.725418
925,1664,1,0,0,0,682.524902
-1462,235,3,0,0,0,754.531494
664,296,1,0,0,0,959.212158
-292,-27,3,0,0,0,1221.020142
1238,978,1,0,0,0,736.340820
-616,-533,3,0,0,0,926.434265
-757,1969,3,1,0,5,93.725418
-575,-1446,3,0,0,0,740.288513
-1290,1765,3,1,0,5,93.725418
-968,1106,3,0,0,0,756.668518
-929,-1137,3,0,0,0,756.964478
-549,-282,3,1,0,4,239.295013
-1153,906,3,1,0,5,93.725418
-1402,1889,3,0,0,0,622.141968
-812,707,3,1,0,5,93.725418
-1275,866,3,0,0,0,743.036621
-583,-1675,3,0,0,0,702.806030
-669,1796,3,0,0,0,680.618103
-821,860,3,0,0,0,817.584106
-1416,920,3,1,0,5,93.725418
-84,1354,3,1,0,5,93.725418
-1486,1459,3,0,0,0,656.888062
-1735,425,3,1,0,5,93.725418
-963,-1714,3,0,0,0,673.335388
-692,628,3,0,0,0,886.888611
-8,1553,3,0,0,0,740.862183
-354,545,3,0,0,0,991.527405
-626,-1305,3,0,0,0,761.077698
-1950,328,3,0,0,0,671.683960
-1350,-601,3,0,0,0,755.119629
-732,-559,3,0,0,0,891.060608
-1235,-201,3,0,0,0,802.905334
-575,861,3,0,0,0,857.381775
-1640,-1799,3,1,0,4,145.478470
-977,531,3,0,0,0,836.838013
-631,1332,3,0,0,0,755.865295
-1825,1308,3,1,0,5,93.725418
-1833,-235,3,0,0,0,691.037048
-1641,-868,3,0,0,0,689.736145
-360,-1608,3,0,0,0,723.875000
-1661,758,3,0,0,0,694.498535
-1975,-858,3,0,0,0,647.346313
-5,504,3,0,0,0,1064.802612
-492,-1150,3,0,0,0,803.002808
-552,705,3,0,0,0,899.191040
-923,-793,3,0,0,0,810.913879
-1921,-1615,3,0,0,0,603.739197
-452,513,3,0,0,0,976.895874
-481,-654,3,0,0,0,927.407410
-1464,487,3,1,0,5,93.725418
-1825,-1894,3,0,0,0,590.422729
-610,-1135,3,0,0,0,794.466187
-917,-337,3,0,0,0,874.088318
-1824,-93,3,1,0,5,93.725418
-1792,-590,3,0,0,0,685.119080
-1863,922,3,0,0,0,657.416443
-1929,128,3,0,0,0,678.138916
-398,-1641,3,0,0,0,716.871033
-1604,1129,3,0,0,0,673.991638
-798,1286,3,0,0,0,748.262329
-1745,16,3,0,0,0,707.442749
-338,1353,3,0,0,0,771.747009
-92,-645,3,1,0,7,104.217125
-1582,1140,3,0,0,0,675.678223
-26,1151,3,0,0,0,826.843445
-893,1629,3,0,0,0,689.537598
-279,1345,3,0,0,0,776.093384
-1979,1783,3,0,0,0,586.825867
-449,1568,3,0,0,0,726.809998
-776,-294,3,0,0,0,921.093140
-1208,-1504,3,1,0,4,204.330902
-592,-1921,3,1,0,7,104.217125
-976,-312,3,1,0,4,243.295410
-301,-624,3,0,0,0,973.092041
-1103,1884,3,1,0,5,93.725418
-583,1142,3,0,0,0,795.881226
-1123,-852,3,0,0,0,768.666321
-1920,-268,3,0,0,0,677.345581
-1716,1411,3,0,0,0,638.441528
-1581,74,3,0,0,0,735.427185
-64,-836,3,0,0,0,918.116760
-1238,-880,3,0,0,0,747.236145
-1539,-1089,3,0,0,0,685.316833
-836,764,3,0,0,0,831.573303
-1763,1360,3,0,0,0,637.802002
-1127,418,3,1,0,5,93.725418
-313,57,3,0,0,0,1197.507935
-1339,-1015,3,0,0,0,718.291809
-514,-732,3,0,0,0,899.498169
-1452,-699,3,1,0,4,217.450668
-1959,-576,3,0,0,0,662.509094
-1031,-1083,3,1,0,4,302.303070
-1419,-1013,3,0,0,0,707.704102
-670,1387,3,0,0,0,743.212769
-1400,1137,3,1,0,5,93.725418
-1446,506,3,0,0,0,744.775818
-1217,-155,3,0,0,0,808.570740
-233,-669,3,0,0,0,966.670715
-1232,-777,3,0,0,0,759.263306
-331,1093,3,1,0,5,93.725418
-1703,809,3,1,0,5,93.725418
-330,850,3,0,0,0,893.958557
-257,-1636,3,0,0,0,722.442505
-314,-381,3,0,0,0,1070.760620
-1671,-1611,3,0,0,0,625.957825
-1963,-275,3,1,0,5,93.725418
-966,-230,3,0,0,0,869.400635
-838,-278,3,1,0,4,244.331131
-272,-1279,3,0,0,0,790.245300
-1856,1939,3,1,0,5,93.725418
-698,865,3,0,0,0,836.961548
-597,230,3,0,0,0,996.044678
-655,-28,3,0,0,0,989.001404
-531,1493,3,0,0,0,735.085632
-1835,-1760,3,1,0,4,135.663025
-670,87,3,0,0,0,980.328674
-230,411,3,0,0,0,1084.357666
-610,-964,3,1,0,4,391.441559
-1443,1090,3,0,0,0,697.235107
-1979,-412,3,1,0,5,93.725418
-502,-1250,3,0,0,0,781.709473
-1423,1877,3,0,0,0,621.779419
-219,1403,3,1,0,5,93.725418
-1086,493,3,0,0,0,816.691589
-1918,-1177,3,0,0,0,634.779114
-1879,-109,3,0,0,0,685.797485
-512,-1466,3,1,0,4,227.856735
-1258,-1142,3,0,0,0,715.101013
-1399,-104,3,0,0,0,770.046936
-1234,-511,3,0,0,0,784.154846
-497,-219,3,0,0,0,1043.266235
-562,-1696,3,0,0,0,700.694275
-1919,-769,3,0,0,0,658.975403
-1079,1546,3,0,0,0,685.320374
-1484,276,3,0,0,0,749.026489
-1316,595,3,0,0,0,761.696960
-779,-1305,3,0,0,0,747.060730
-380,-1211,3,1,0,4,258.482788
-926,309,3,0,0,0,874.314880
-1756,433,3,1,0,5,93.725418
-1785,-1922,3,1,0,4,129.843948
-350,-1477,3,1,0,7,104.217125
-1401,870,3,0,0,0,723.641113
-114,834,3,0,0,0,916.982056
-1607,655,3,0,0,0,709.041504
-791,-1883,3,0,0,0,662.443604
-7,-1014,3,0,0,0,863.371155
-174,-982,3,0,0,0,868.158997
-508,341,3,0,0,0,1008.914307
-1551,1215,3,0,0,0,672.720520
-1135,1366,3,0,0,0,702.412170
-448,1215,3,0,0,0,793.036560
-1049,228,3,1,0,5,93.725418
-572,877,3,0,0,0,854.147583
-807,639,3,1,0,5,93.725418
-365,783,3,0,0,0,909.504578
-704,1363,3,0,0,0,744.383240
-1222,233,3,1,0,5,93.725418
-1406,-440,3,1,0,4,208.230545
-724,-1431,3,1,0,4,243.716141
-611,-1423,3,0,0,0,741.674500
-61,-829,3,0,0,0,920.602600
-376,-980,3,0,0,0,853.432495
-1197,-838,3,1,0,4,276.712097
-925,-744,3,0,0,0,818.040527
-1437,243,3,1,0,5,93.725418
-1434,1223,3,0,0,0,685.411804
-13,1143,3,0,0,0,828.904175
-194,-591,3,1,0,7,104.217125
-671,1034,3,0,0,0,807.213074
-674,598,3,0,0,0,897.379272
-1666,-402,3,0,0,0,712.620056
-967,1573,3,0,0,0,691.275818
-1060,1574,3,1,0,5,93.725418
-1813,826,3,0,0,0,669.538330
-1964,1589,3,0,0,0,601.863037
-1375,1105,3,0,0,0,704.355774
-1404,-1685,3,0,0,0,642.102539
-298,-1888,3,0,0,0,681.392029
-986,1730,3,0,0,0,669.687622
-1340,715,3,0,0,0,747.249695
-60,-1185,3,0,0,0,818.176880
-50,936,3,0,0,0,886.009521
-367,-1298,3,0,0,0,781.315125
-142,1300,3,0,0,0,790.216797
-1482,1800,3,0,0,0,624.675232
-1239,-1032,3,0,0,0,730.084656
-1743,-800,3,0,0,0,680.428467
-528,-1099,3,0,0,0,810.351257
-370,353,3,0,0,0,1060.625122
-163,1150,3,0,0,0,824.306458
-1318,966,3,0,0,0,726.269409
-71,-1755,3,0,0,0,705.584290
-1311,677,3,0,0,0,755.557495
-564,-804,3,0,0,0,872.580078
-970,1010,3,0,0,0,770.559692
-1985,-1745,3,0,0,0,589.047668
-271,-110,3,1,0,0,296.126556
-1907,765,3,0,0,0,660.724976
-521,-1416,3,0,0,0,749.148254
-507,153,3,0,0,0,1050.539551
-1941,-681,3,0,0,0,660.408630
-1253,597,3,0,0,0,773.114380
-1296,696,3,0,0,0,756.418213
-1905,1202,3,0,0,0,634.504272
-75,-408,3,1,0,7,104.217125
-809,1254,3,0,0,0,752.302368
-1542,-1449,3,0,0,0,652.337830
-187,-1239,3,0,0,0,802.496094
-178,194,3,0,0,0,1252.108887
-787,-114,3,0,0,0,933.366760
-1563,1493,3,1,0,5,93.725418
-1261,663,3,0,0,0,765.616943
-1716,496,3,0,0,0,700.765442
-139,-1569,3,1,0,7,104.217125
-1239,-376,3,0,0,0,793.073364
-1536,952,3,0,0,0,697.442993
-1128,-1587,3,1,0,4,199.810150


each generation good chromosome number
10,10,10,