mbs coordinate
0,0

cbsd coordinate and channel
-970,900,2
740,900,1
980,-860,1
-750,-850,5
-750,1000,4
1050,600,2
760,-1135,3
-870,-1100,1
-1080,450,1
970,530,3

building coordinate
-885,985
-1055,815
830,810
650,990
1060,-860
900,-860
-830,-770
-670,-930
-668,1070
-832,930
965,675
1135,525
832,-1059
688,-1211
-965,-1035
-775,-1165
-1135,365
-1025,535
907,591
1033,469

area numbers
264,260,476,

x , y , block , block number
area 1
909,367,1,0
1689,235,0,0
1667,1114,1,0
94,1388,1,0
1147,1372,0,0
1607,884,0,0
592,1075,0,0
205,694,1,0
165,923,0,0
726,1522,0,0
1852,1732,0,0
1231,1507,0,0
59,543,0,0
1953,689,0,0
1758,1469,0,0
9,1950,0,0
1862,717,0,0
1842,9,1,0
780,387,0,0
296,1677,0,0
1899,1561,0,0
1472,1789,0,0
316,212,1,0
788,627,0,0
4,1932,0,0
10,456,0,0
1416,1486,0,0
976,1351,0,0
919,1444,0,0
1489,1208,0,0
1454,448,0,0
547,653,1,0
21,475,0,0
1745,1972,1,0
462,1560,0,0
664,40,0,0
396,1423,0,0
148,217,0,0
1396,452,0,0
433,1697,0,0
1097,901,1,0
1243,932,0,0
1505,1903,0,0
1137,1727,0,0
809,1286,0,0
768,1925,0,0
708,891,0,0
1560,1813,0,0
1536,1447,0,0
87,1703,0,0
305,122,0,0
939,1072,0,0
690,148,0,0
375,599,0,0
1506,1314,0,0
519,1426,1,0
377,1269,1,0
233,541,0,0
673,848,0,0
1242,360,0,0
1711,531,1,0
1372,1949,0,0
33,980,1,0
577,1265,0,0
1034,224,1,0
1214,284,0,0
1231,1276,0,0
1699,135,1,0
16,1743,0,0
59,1538,0,0
954,160,0,0
850,753,0,0
404,721,0,0
1460,898,0,0
1562,852,0,0
190,1701,0,0
564,854,0,0
1307,303,0,0
447,1559,0,0
353,459,0,0
1096,1485,0,0
1997,966,0,0
683,818,0,0
1897,1920,0,0
846,1437,0,0
1118,732,0,0
1832,1614,0,0
844,26,0,0
600,778,0,0
1267,1082,0,0
78,1599,1,0
945,1833,1,0
748,1129,0,0
1607,1981,0,0
24,167,0,0
556,235,0,0
1800,254,1,0
1946,1173,0,0
1499,1485,1,0
910,959,0,0
1187,1597,0,0
1982,1173,0,0
1574,118,0,0
519,973,0,0
1124,108,0,0
1535,533,1,0
61,1435,0,0
29,1283,0,0
1764,1795,1,0
403,157,0,0
927,602,0,0
39,1192,1,0
387,1163,0,0
815,642,0,0
1822,536,0,0
799,1962,0,0
106,1537,1,0
66,1119,0,0
1354,1681,0,0
1679,450,0,0
705,633,0,0
1154,241,0,0
152,422,0,0
1061,1549,0,0
917,1637,0,0
1904,387,0,0
1234,509,0,0
1328,1398,0,0
1849,114,1,0
980,182,0,0
1391,1141,0,0
1087,978,1,0
1080,730,1,0
667,108,1,0
1437,1838,0,0
1944,872,0,0
1487,1660,0,0
1697,1757,0,0
581,1798,0,0
1266,365,0,0
683,376,0,0
1544,644,0,0
1102,1878,0,0
600,614,1,0
1297,1262,0,0
1673,825,0,0
252,1121,1,0
885,1315,0,0
604,731,0,0
1250,1633,0,0
921,725,0,0
332,1398,1,0
1396,810,0,0
251,920,0,0
677,727,0,0
240,1313,1,0
1720,1392,1,0
1957,1427,0,0
1608,504,0,0
1765,546,0,0
1245,1073,0,0
1553,1509,0,0
381,895,0,0
981,776,0,0
1856,477,0,0
1689,1769,0,0
1578,457,0,0
1676,1033,0,0
1377,622,0,0
1164,1898,0,0
1173,519,0,0
1997,1909,0,0
1778,140,0,0
1864,1181,0,0
1205,1515,0,0
1447,1901,0,0
6,1693,0,0
1093,366,0,0
933,718,0,0
51,1760,0,0
1077,1478,0,0
1133,176,0,0
55,1545,1,0
819,1526,1,0
495,215,0,0
434,1809,1,0
1926,1231,0,0
1907,42,1,0
681,1238,0,0
861,729,0,0
1605,712,1,0
627,1848,1,0
145,773,0,0
221,1873,1,0
455,1322,1,0
1239,908,1,0
910,871,0,0
1387,413,1,0
93,1791,1,0
1821,397,0,0
19,168,1,0
1459,183,0,0
1839,1436,0,0
1739,1845,1,0
74,612,0,0
477,1506,0,0
574,258,0,0
641,721,0,0
1489,116,1,0
1673,1130,0,0
1092,863,0,0
767,1877,0,0
128,518,0,0
615,752,1,0
1173,1030,0,0
1979,765,0,0
1601,1569,0,0
588,64,0,0
15,1935,1,0
486,409,0,0
223,1886,1,0
389,1050,0,0
395,1642,0,0
362,416,0,0
1255,1657,0,0
1515,461,0,0
779,1194,1,0
1697,1329,1,0
904,815,0,0
1223,385,1,0
1576,1053,0,0
1940,1704,0,0
1011,459,1,0
1465,265,1,0
1252,449,0,0
1257,1334,0,0
1343,1987,0,0
1594,929,0,0
321,1837,0,0
940,748,0,0
208,1956,0,0
898,348,1,0
850,207,0,0
435,648,0,0
170,702,0,0
1314,1724,0,0
1761,744,0,0
1961,780,0,0
1317,202,0,0
1512,1325,1,0
1103,1679,0,0
1519,1809,0,0
729,486,0,0
5,1561,1,0
1356,968,0,0
822,358,0,0
1790,869,0,0
1671,1074,0,0
107,462,0,0
1096,1224,0,0
1316,990,1,0
925,1664,0,0
664,296,0,0
1238,978,0,0
area 2
526,-1983,0,0
1126,-893,0,0
1800,-1835,0,0
1532,-777,0,0
873,-1300,1,0
1449,-1048,1,0
1780,-1348,1,0
1373,-340,0,0
184,-1473,0,0
656,-1574,0,0
223,-1745,0,0
1347,-1653,0,0
1546,-804,0,0
1376,-166,0,0
1675,-738,1,0
1002,-1544,0,0
1472,-1463,0,0
1748,-1012,0,0
61,-1128,0,0
1311,-58,0,0
1781,-1685,0,0
1988,-1945,1,0
324,-229,0,0
1371,-205,0,0
21,-773,0,0
686,-1161,0,0
796,-1092,0,0
1654,-1460,0,0
1329,-1349,0,0
252,-1841,1,0
1868,-341,0,0
1299,-503,1,0
164,-660,0,0
200,-935,0,0
511,-1512,1,0
698,-1126,0,0
834,-368,0,0
1521,-889,0,0
1579,-1618,0,0
1551,-620,0,0
733,-1676,0,0
1230,-940,0,0
447,-1884,0,0
1064,-1639,0,0
1122,-1749,0,0
1479,-1836,0,0
989,-1052,0,0
371,-407,0,0
1359,-110,0,0
1571,-1055,0,0
1820,-1032,0,0
304,-989,1,0
128,-1355,0,0
582,-1034,0,0
755,-664,0,0
1058,-1870,0,0
299,-1058,0,0
1831,-1640,0,0
1748,-1659,1,0
961,-499,0,0
816,-822,0,0
1829,-927,0,0
922,-354,1,0
216,-1530,0,0
1618,-1470,0,0
1731,-1885,0,0
1280,-623,0,0
1549,-781,0,0
468,-802,0,0
1297,-452,1,0
1125,-1547,0,0
2,-477,0,0
35,-971,1,0
103,-314,1,0
1729,-1192,0,0
634,-134,0,0
1018,-1625,0,0
738,-301,0,0
1098,-1878,0,0
1344,-350,0,0
349,-1737,1,0
35,-1990,0,0
362,-890,0,0
814,-111,0,0
12,-1039,0,0
624,-712,0,0
647,-1494,1,0
1979,-317,0,0
395,-1736,0,0
556,-1988,0,0
1028,-543,0,0
167,-1288,0,0
416,-1018,0,0
1438,-244,1,0
1507,-1093,0,0
991,-1236,0,0
1002,-750,0,0
1612,-569,0,0
267,-289,0,0
396,-529,0,0
677,-1691,0,0
1441,-1253,0,0
538,-450,1,0
1872,-1892,0,0
632,-217,0,0
1847,-927,0,0
624,-972,0,0
896,-322,0,0
1128,-422,1,0
207,-1160,1,0
156,-1818,0,0
754,-933,0,0
613,-1911,0,0
1596,-513,0,0
1675,-235,0,0
3,-239,1,0
340,-1723,1,0
1592,-1133,0,0
882,-1040,0,0
1620,-1525,0,0
1117,-732,0,0
1135,-1428,0,0
282,-1978,0,0
350,-1603,1,0
446,-1273,0,0
89,-558,0,0
1132,-498,0,0
931,-1719,0,0
683,-1328,1,0
487,-697,0,0
1089,-1631,0,0
924,-1648,0,0
1125,-1520,0,0
94,-26,0,0
211,-1561,0,0
801,-1827,0,0
962,-1889,0,0
501,-1561,1,0
1152,-487,0,0
121,-566,0,0
364,-1976,1,0
1487,-1459,0,0
1813,-1560,0,0
831,-551,0,0
1674,-764,1,0
165,-283,0,0
612,-1279,1,0
1442,-1349,0,0
713,-235,0,0
1586,-176,1,0
337,-1171,0,0
1938,-303,0,0
389,-1843,0,0
246,-496,0,0
1439,-203,0,0
1259,-128,1,0
1265,-187,0,0
1984,-1348,0,0
1980,-113,0,0
407,-176,1,0
1126,-1991,0,0
1518,-1072,0,0
477,-812,1,0
1899,-851,0,0
1674,-981,0,0
980,-1618,0,0
366,-1535,1,0
733,-432,0,0
1086,-740,0,0
1141,-295,1,0
564,-1523,1,0
982,-1520,0,0
278,-351,0,0
462,-893,0,0
1668,-86,0,0
241,-1800,0,0
489,-87,0,0
1145,-1000,0,0
912,-254,0,0
1715,-586,0,0
1254,-1250,1,0
224,-1646,0,0
1278,-245,0,0
1571,-757,0,0
387,-1037,0,0
581,-1116,0,0
763,-669,0,0
444,-203,0,0
1041,-1756,0,0
617,-1631,0,0
425,-1343,0,0
1831,-838,0,0
341,-1963,0,0
55,-1418,0,0
396,-1900,1,0
1738,-623,0,0
1525,-227,0,0
1896,-593,0,0
1458,-186,0,0
1927,-660,0,0
1260,-898,1,0
64,-1615,0,0
826,-1812,0,0
493,-150,0,0
311,-861,0,0
55,-657,1,0
913,-1769,0,0
1473,-1244,1,0
24,-1181,0,0
780,-69,0,0
1182,-862,0,0
1947,-1884,0,0
1474,-1465,1,0
838,-654,0,0
1347,-1117,1,0
1170,-1236,0,0
1814,-1532,1,0
1468,-630,0,0
491,-61,1,0
604,-312,0,0
1895,-1895,1,0
528,-677,0,0
571,-1764,0,0
648,-1943,1,0
134,-177,0,0
1867,-435,0,0
311,-897,1,0
1004,-1972,0,0
1935,-1800,1,0
182,-1231,1,0
849,-1078,0,0
1061,-513,0,0
1854,-1194,0,0
1890,-917,0,0
618,-1279,0,0
1090,-877,1,0
980,-361,0,0
85,-432,0,0
1052,-788,1,0
35,-477,0,0
263,-435,0,0
957,-1693,0,0
692,-877,1,0
21,-1601,0,0
921,-1174,1,0
672,-1212,0,0
927,-100,0,0
138,-1758,1,0
690,-102,0,0
58,-1030,0,0
1943,-1836,0,0
1516,-1698,0,0
986,-911,0,0
987,-990,0,0
1806,-1819,0,0
111,-858,1,0
1338,-1587,0,0
1528,-938,0,0
1101,-1840,1,0
188,-1071,0,0
area 3
-578,-1092,1,0
-193,-240,0,0
-1427,-289,0,0
-567,-129,0,0
-761,699,0,0
-1799,67,0,0
-1472,-903,0,0
-457,1674,0,0
-735,-620,0,0
-1158,1155,0,0
-102,1546,0,0
-991,-325,0,0
-1461,341,0,0
-47,-1721,0,0
-1091,-1929,0,0
-1589,1424,0,0
-1654,-1464,0,0
-280,142,0,0
-771,-827,0,0
-1973,1898,0,0
-322,36,0,0
-1377,605,0,0
-933,240,1,0
-1235,1923,0,0
-150,1224,1,0
-1823,-100,0,0
-962,728,0,0
-53,904,1,0
-585,1291,1,0
-540,-922,0,0
-247,-1228,0,0
-1094,1870,0,0
-568,-1179,0,0
-18,-719,1,0
-95,776,1,0
-543,-1126,0,0
-944,-347,0,0
-30,387,0,0
-1859,-102,0,0
-674,1558,0,0
-1952,-1419,1,0
-869,-557,0,0
-301,-410,0,0
-169,1701,1,0
-1977,1041,1,0
-1331,-437,0,0
-152,-721,1,0
-398,-1715,0,0
-930,667,1,0
-865,-1904,0,0
-838,690,0,0
-1209,915,0,0
-1777,-1195,0,0
-586,465,0,0
-794,573,0,0
-155,-1396,0,0
-840,1504,0,0
-1904,-1526,0,0
-483,1693,1,0
-419,1434,0,0
-586,-1802,0,0
-725,-607,0,0
-1418,-67,0,0
-652,994,1,0
-628,1385,0,0
-711,-1872,0,0
-1137,1586,0,0
-1706,-485,0,0
-1382,1402,0,0
-896,-1945,1,0
-1640,951,0,0
-216,-583,1,0
-1494,-559,0,0
-1327,-1755,1,0
-939,1606,0,0
-133,1239,0,0
-431,-768,0,0
-1213,-1023,0,0
-1427,-1379,0,0
-91,1709,1,0
-1743,9,0,0
-1410,1940,0,0
-1228,1161,0,0
-1394,1325,0,0
-206,1810,0,0
-84,-1209,0,0
-1240,1026,0,0
-1536,939,0,0
-1679,463,1,0
-1540,503,0,0
-1119,1312,0,0
-860,313,0,0
-1490,-1015,0,0
-1077,-1038,0,0
-1337,1308,0,0
-899,637,1,0
-1766,-658,0,0
-1338,1410,0,0
-643,1664,1,0
-306,166,1,0
-1916,-972,0,0
-386,-704,0,0
-946,-542,0,0
-1507,-1389,0,0
-1392,1066,0,0
-1868,-352,1,0
-1171,1009,0,0
-1720,1424,0,0
-1422,-921,1,0
-61,-802,0,0
-777,-769,0,0
-1527,-562,1,0
-938,146,1,0
-911,-648,1,0
-760,-1052,0,0
-1832,584,0,0
-1614,972,0,0
-1628,-989,1,0
-334,438,0,0
-947,-318,0,0
-1085,1147,0,0
-117,1006,0,0
-809,1674,0,0
-986,1097,1,0
-1254,468,0,0
-301,-698,1,0
-73,368,0,0
-215,-1020,1,0
-1303,-1903,0,0
-637,625,1,0
-1895,-643,0,0
-1703,-385,1,0
-1880,1681,0,0
-1165,-1873,0,0
-948,-614,0,0
-201,1234,0,0
-16,-1820,0,0
-1528,47,1,0
-465,-1150,1,0
-605,1254,0,0
-1504,1054,0,0
-1880,957,1,0
-1547,-1161,0,0
-1973,324,0,0
-1117,-456,0,0
-687,509,0,0
-1589,-827,1,0
-1586,325,0,0
-596,1622,0,0
-1299,-484,1,0
-1463,26,0,0
-228,-479,0,0
-771,677,0,0
-1239,1804,1,0
-869,-1805,1,0
-1624,227,0,0
-779,489,1,0
-99,495,0,0
-1646,-403,0,0
-1578,-484,0,0
-1964,1786,0,0
-1912,-1319,1,0
-307,1142,0,0
-158,-1019,1,0
-1790,1358,1,0
-1644,6,0,0
-1417,-859,0,0
-175,-2000,1,0
-41,-1282,1,0
-1906,983,0,0
-868,1490,0,0
-992,-614,0,0
-1009,-1964,0,0
-1140,611,1,0
-613,-42,1,0
-1146,641,0,0
-915,355,1,0
-245,22,1,0
-703,1609,0,0
-1801,1588,1,0
-483,554,0,0
-290,1431,0,0
-1976,-1904,1,0
-94,-1879,0,0
-132,-489,0,0
-1437,-631,0,0
-517,1857,0,0
-1042,857,0,0
-319,1032,0,0
-62,-810,1,0
-1768,-499,0,0
-880,102,0,0
-61,1460,0,0
-426,651,0,0
-260,-671,0,0
-1123,-357,0,0
-137,623,0,0
-723,426,0,0
-510,813,0,0
-1919,-1395,0,0
-258,1687,1,0
-768,1525,0,0
-1808,-287,0,0
-1563,-289,1,0
-1025,1781,0,0
-1709,-529,0,0
-325,1073,0,0
-812,-142,0,0
-782,-1263,1,0
-1880,1487,0,0
-249,-1216,0,0
-821,1521,1,0
-1487,981,0,0
-1253,139,0,0
-153,32,0,0
-150,525,0,0
-1614,-1715,0,0
-587,-97,0,0
-1285,1812,0,0
-1585,1617,1,0
-1912,1633,0,0
-1668,998,0,0
-1982,986,0,0
-1943,-1827,0,0
-1213,1815,0,0
-956,716,1,0
-838,1543,1,0
-1358,-48,0,0
-323,-717,0,0
-689,855,0,0
-1125,480,0,0
-1454,-923,0,0
-1747,1639,1,0
-1528,642,0,0
-1445,-1190,1,0
-580,-407,1,0
-1189,140,0,0
-1195,-1548,0,0
-1440,-1280,1,0
-753,-621,0,0
-679,947,0,0
-1031,-1808,0,0
-1010,74,0,0
-1186,1592,0,0
-1790,-756,1,0
-524,-1084,0,0
-201,-1454,0,0
-399,-1348,1,0
-222,-85,0,0
-1343,174,0,0
-1374,768,0,0
-1710,92,0,0
-937,-1059,0,0
-199,-1781,0,0
-1080,1870,0,0
-371,40,1,0
-1426,1578,0,0
-913,1958,0,0
-878,-1547,0,0
-1963,16,1,0
-1760,1151,1,0
-1462,235,0,0
-292,-27,0,0
-616,-533,0,0
-757,1969,1,0
-575,-1446,0,0
-1290,1765,1,0
-968,1106,0,0
-929,-1137,0,0
-549,-282,1,0
-1153,906,1,0
-1402,1889,0,0
-812,707,1,0
-1275,866,0,0
-583,-1675,0,0
-669,1796,0,0
-821,860,0,0
-1416,920,1,0
-84,1354,1,0
-1486,1459,0,0
-1735,425,1,0
-963,-1714,0,0
-692,628,0,0
-8,1553,0,0
-354,545,0,0
-626,-1305,0,0
-1950,328,0,0
-1350,-601,0,0
-732,-559,0,0
-1235,-201,0,0
-575,861,0,0
-1640,-1799,1,0
-977,531,0,0
-631,1332,0,0
-1825,1308,1,0
-1833,-235,0,0
-1641,-868,0,0
-360,-1608,0,0
-1661,758,0,0
-1975,-858,0,0
-5,504,0,0
-492,-1150,0,0
-552,705,0,0
-923,-793,0,0
-1921,-1615,0,0
-452,513,0,0
-481,-654,0,0
-1464,487,1,0
-1825,-1894,0,0
-610,-1135,0,0
-917,-337,0,0
-1824,-93,1,0
-1792,-590,0,0
-1863,922,0,0
-1929,128,0,0
-398,-1641,0,0
-1604,1129,0,0
-798,1286,0,0
-1745,16,0,0
-338,1353,0,0
-92,-645,1,0
-1582,1140,0,0
-26,1151,0,0
-893,1629,0,0
-279,1345,0,0
-1979,1783,0,0
-449,1568,0,0
-776,-294,0,0
-1208,-1504,1,0
-592,-1921,1,0
-976,-312,1,0
-301,-624,0,0
-1103,1884,1,0
-583,1142,0,0
-1123,-852,0,0
-1920,-268,0,0
-1716,1411,0,0
-1581,74,0,0
-64,-836,0,0
-1238,-880,0,0
-1539,-1089,0,0
-836,764,0,0
-1763,1360,0,0
-1127,418,1,0
-313,57,0,0
-1339,-1015,0,0
-514,-732,0,0
-1452,-699,1,0
-1959,-576,0,0
-1031,-1083,1,0
-1419,-1013,0,0
-670,1387,0,0
-1400,1137,1,0
-1446,506,0,0
-1217,-155,0,0
-233,-669,0,0
-1232,-777,0,0
-331,1093,1,0
-1703,809,1,0
-330,850,0,0
-257,-1636,0,0
-314,-381,0,0
-1671,-1611,0,0
-1963,-275,1,0
-966,-230,0,0
-838,-278,1,0
-272,-1279,0,0
-1856,1939,1,0
-698,865,0,0
-597,230,0,0
-655,-28,0,0
-531,1493,0,0
-1835,-1760,1,0
-670,87,0,0
-230,411,0,0
-610,-964,1,0
-1443,1090,0,0
-1979,-412,1,0
-502,-1250,0,0
-1423,1877,0,0
-219,1403,1,0
-1086,493,0,0
-1918,-1177,0,0
-1879,-109,0,0
-512,-1466,1,0
-1258,-1142,0,0
-1399,-104,0,0
-1234,-511,0,0
-497,-219,0,0
-562,-1696,0,0
-1919,-769,0,0
-1079,1546,0,0
-1484,276,0,0
-1316,595,0,0
-779,-1305,0,0
-380,-1211,1,0
-926,309,0,0
-1756,433,1,0
-1785,-1922,1,0
-350,-1477,1,0
-1401,870,0,0
-114,834,0,0
-1607,655,0,0
-791,-1883,0,0
-7,-1014,0,0
-174,-982,0,0
-508,341,0,0
-1551,1215,0,0
-1135,1366,0,0
-448,1215,0,0
-1049,228,1,0
-572,877,0,0
-807,639,1,0
-365,783,0,0
-704,1363,0,0
-1222,233,1,0
-1406,-440,1,0
-724,-1431,1,0
-611,-1423,0,0
-61,-829,0,0
-376,-980,0,0
-1197,-838,1,0
-925,-744,0,0
-1437,243,1,0
-1434,1223,0,0
-13,1143,0,0
-194,-591,1,0
-671,1034,0,0
-674,598,0,0
-1666,-402,0,0
-967,1573,0,0
-1060,1574,1,0
-1813,826,0,0
-1964,1589,0,0
-1375,1105,0,0
-1404,-1685,0,0
-298,-1888,0,0
-986,1730,0,0
-1340,715,0,0
-60,-1185,0,0
-50,936,0,0
-367,-1298,0,0
-142,1300,0,0
-1482,1800,0,0
-1239,-1032,0,0
-1743,-800,0,0
-528,-1099,0,0
-370,353,0,0
-163,1150,0,0
-1318,966,0,0
-71,-1755,0,0
-1311,677,0,0
-564,-804,0,0
-970,1010,0,0
-1985,-1745,0,0
-271,-110,1,0
-1907,765,0,0
-521,-1416,0,0
-507,153,0,0
-1941,-681,0,0
-1253,597,0,0
-1296,696,0,0
-1905,1202,0,0
-75,-408,1,0
-809,1254,0,0
-1542,-1449,0,0
-187,-1239,0,0
-178,194,0,0
-787,-114,0,0
-1563,1493,1,0
-1261,663,0,0
-1716,496,0,0
-139,-1569,1,0
-1239,-376,0,0
-1536,952,0,0
-1128,-1587,1,0

near cbsd peopel number
61
49
47
47
53
67
50
41
58
62
