each times' max average throughput
590.403809,0.000000,595.051941,0.000000,629.642212,587.716858,590.608887,0.000000,642.685059,602.817322,0.000000,581.430176,576.120300,584.960022,603.376099,0.000000,0.000000,577.288391,573.923889,618.066040,0.000000,597.712952,560.830383,582.514587,607.854736,610.841797,605.398376,571.968933,560.156738,563.233704,571.384094,584.604980,0.000000,0.000000,560.772522,605.317383,595.546997,550.901184,586.617615,601.401306,575.624390,584.640869,581.720947,0.000000,580.183716,607.988953,559.028015,626.083496,0.000000,540.532166,572.416504,610.842651,604.103943,650.236267,0.000000,0.000000,0.000000,567.175720,597.697449,0.000000,0.000000,575.924866,558.777954,561.858398,553.135498,566.245667,605.701660,0.000000,585.874817,552.561035,0.000000,579.009521,621.169434,0.000000,591.057190,0.000000,0.000000,551.176392,575.382019,621.949402,0.000000,559.362122,612.460449,613.053894,567.103760,617.918335,538.685730,540.338013,591.443176,0.000000,0.000000,583.462585,583.508728,568.704224,550.478516,0.000000,571.586548,574.976379,549.692627,587.641052,
avg. throughput in all test times
438.396606
avg. BS TX power in all test times
MBS area 1,MBS area 2,MBS area 3,MBS area 4,MBS area 5,MBS area 6,CBSD 1,CBSD 2,CBSD 3,CBSD 4,CBSD 5,CBSD 6,
6.988,6.213,6.838,6.750,6.850,6.875,0.216,0.101,0.087,0.121,0.130,0.096,
avg. mbs all power,avg. cbsd enable number,avg. mbs area all power,avg. cbsd all power
48.162,1.000,40.513,0.752
avg. max avg. throughput generation number in all test times
0.580000
avg. number of relay UE
29

the max average throughput times

BS TX power
MBS area 1,MBS area 2,MBS area 3,MBS area 4,MBS area 5,MBS area 6,CBSD 1,CBSD 2,CBSD 3,CBSD 4,CBSD 5,CBSD 6,
6.250,8.750,10.000,5.000,10.000,8.750,0.000,0.000,0.000,0.000,0.000,0.000,
max average throughput
587.641052

x,y,area,be blocked (1 : NLOS / 0 : LOS),be blocked number (>=1 : CBSD(x) / 0 : no),connect bs number (>=1 : CBSD / 0 : MBS),throughput (unit : M bps)
618,1069,1,0,0,0,758.386169
824,280,2,0,0,0,907.385681
-1240,122,3,0,0,0,823.312744
-1023,1133,4,1,0,0,3.883210
-1537,-1972,5,0,0,0,623.802185
172,-864,6,0,0,0,903.872742
1122,1272,1,0,0,0,667.452637
969,247,2,0,0,0,867.384094
-711,698,3,1,0,0,25.848984
-1264,1970,4,0,0,0,544.265503
-64,-1251,5,1,0,0,13.585940
1602,-567,6,0,0,0,715.043396
358,1408,1,0,0,0,711.758789
440,280,2,0,0,0,1054.954346
-540,58,3,1,0,0,114.506660
-106,1782,4,0,0,0,621.042847
-1406,-1939,5,0,0,0,636.038574
1603,-572,6,1,0,0,4.885751
826,1095,1,0,0,0,728.240051
1683,363,2,0,0,0,711.304871
-1685,1648,3,0,0,0,640.619568
-575,1397,4,0,0,0,668.653320
-841,-1558,5,0,0,0,722.428162
1192,-1112,6,0,0,0,726.962097
1303,1965,1,1,0,0,1.329081
280,52,2,0,0,0,1229.463135
-1742,210,3,0,0,0,725.010742
-162,628,4,0,0,0,911.489258
-767,-1912,5,0,0,0,679.055847
1784,-1026,6,0,0,0,660.270691
779,1772,1,0,0,0,629.762085
476,168,2,0,0,0,1064.372437
-1029,928,3,1,0,0,10.158607
-520,899,4,0,0,0,776.041138
-688,-1100,5,0,0,0,811.678040
1877,-1348,6,0,0,0,627.214600
959,1030,1,0,0,0,720.869629
1206,537,2,0,0,0,787.500732
-1916,98,3,0,0,0,699.429932
-952,1040,4,1,0,0,4.910654
-761,-1044,5,1,0,0,12.434206
1329,-338,6,1,0,0,9.201428
270,1960,1,0,0,0,623.528320
1702,483,2,0,0,0,703.509705
-1381,20,3,0,0,0,793.707397
-333,390,4,0,0,0,979.145874
-1337,-814,5,0,0,0,757.759644
457,-1995,6,1,0,0,2.829882
857,969,1,0,0,0,745.031311
336,24,2,0,0,0,1181.025391
-1597,1441,3,1,0,0,2.786382
-1262,1863,4,1,0,0,1.223595
-376,-35,5,0,0,0,1167.328979
1538,-1099,6,0,0,0,684.562317
1361,1790,1,0,0,0,587.156921
1073,873,2,0,0,0,774.083801
-1547,1289,3,0,0,0,685.580872
-1246,1842,4,0,0,0,558.711975
-547,-25,5,0,0,0,1060.159668
1373,-696,6,0,0,0,743.401733
45,1797,1,1,0,0,2.981984
-1691,931,3,0,0,0,697.668274
-147,1658,4,1,0,0,3.004405
-941,-96,5,0,0,0,902.620300
672,-1198,6,0,0,0,776.099426
220,946,1,1,0,0,17.938614
-1440,806,3,1,0,0,6.100047
-411,450,4,1,0,0,51.471912
-239,-512,5,0,0,0,1051.106567
1605,-883,6,0,0,0,693.547546
-945,1354,4,0,0,0,643.273621
-1678,-1644,5,1,0,0,2.143989
955,-661,6,0,0,0,824.319580
-1475,-996,5,0,0,0,720.927795
664,-606,6,0,0,0,898.045471
-102,-1227,5,0,0,0,826.738892
1720,-368,6,0,0,0,705.178284
-623,-401,5,0,0,0,972.991028
203,-610,6,0,0,0,994.643066
-1398,-1585,5,1,0,0,2.936138
80,-678,6,0,0,0,977.324707
-1889,-1154,5,0,0,0,658.521729
646,-876,6,0,0,0,842.993591
-433,-1507,5,1,0,0,7.086779
893,-1332,6,0,0,0,731.663208
-1079,-77,5,0,0,0,863.980652
888,-1847,6,1,0,0,2.818818
-1168,-890,5,0,0,0,776.099670
1163,-1467,6,0,0,0,687.334534
-531,-1408,5,0,0,0,769.075928
1136,-636,6,1,0,0,10.696271
-208,-766,5,1,0,0,47.313358
-567,-1485,5,0,0,0,753.344971
-1457,-1033,5,1,0,0,4.832888
-1598,-1467,5,0,0,0,664.300415
-60,-449,5,0,0,0,1114.843140
-561,-781,5,1,0,0,28.484444
-251,-514,5,0,0,0,1047.568726
-180,-62,5,0,0,0,1364.913208
-310,-1367,5,1,0,0,9.824899


each generation good chromosome number
1,1,2,