each times' max average throughput
708.643982,0.000000,0.000000,0.000000,0.000000,0.000000,742.804932,782.037903,787.172546,0.000000,0.000000,0.000000,0.000000,0.000000,737.480530,0.000000,0.000000,0.000000,0.000000,742.029541,782.067383,782.830261,787.172546,782.067383,771.417725,782.707703,782.767273,787.526428,0.000000,0.000000,0.000000,0.000000,0.000000,777.621216,0.000000,0.000000,0.000000,0.000000,0.000000,0.000000,0.000000,0.000000,0.000000,782.067383,791.961853,787.172546,0.000000,0.000000,777.621216,787.596558,791.961853,781.647766,791.964233,782.909546,791.961853,0.000000,0.000000,0.000000,743.287659,782.707703,791.961853,0.000000,0.000000,775.020081,791.961853,734.712524,728.786926,782.421326,777.591614,787.335510,787.544861,787.172546,787.172546,0.000000,0.000000,0.000000,782.742737,787.172546,761.809753,787.526428,787.172546,782.780701,782.421326,782.707703,772.044617,787.143005,782.737183,787.526428,786.856689,782.737183,791.961853,787.166748,787.172546,782.067383,782.737183,787.172546,778.510193,792.786987,787.143005,767.672058,
avg. throughput in all test times
482.586609
avg. BS TX power in all test times
MBS area 1,MBS area 2,MBS area 3,MBS area 4,CBSD 1,CBSD 2,CBSD 3,CBSD 4,CBSD 5,CBSD 6,CBSD 7,CBSD 8,CBSD 9,CBSD 10,CBSD 11,CBSD 12,CBSD 13,CBSD 14,CBSD 15,CBSD 16,CBSD 17,CBSD 18,CBSD 19,CBSD 20,CBSD 21,CBSD 22,CBSD 23,CBSD 24,CBSD 25,CBSD 26,
9.150,8.812,9.312,8.788,0.102,0.123,0.069,0.065,0.149,0.157,0.052,0.114,0.149,0.109,0.119,0.046,0.151,0.095,0.125,0.130,0.151,0.120,0.142,0.149,0.105,0.109,0.068,0.090,0.165,0.115,
avg. mbs all power,avg. cbsd enable number,avg. mbs area all power,avg. cbsd all power
65.988,3.000,36.062,2.969
avg. max avg. throughput generation number in all test times
46.250000
avg. number of relay UE
0

the max average throughput times

BS TX power
MBS area 1,MBS area 2,MBS area 3,MBS area 4,CBSD 1,CBSD 2,CBSD 3,CBSD 4,CBSD 5,CBSD 6,CBSD 7,CBSD 8,CBSD 9,CBSD 10,CBSD 11,CBSD 12,CBSD 13,CBSD 14,CBSD 15,CBSD 16,CBSD 17,CBSD 18,CBSD 19,CBSD 20,CBSD 21,CBSD 22,CBSD 23,CBSD 24,CBSD 25,CBSD 26,
10.000,8.750,7.500,7.500,0.000,0.000,0.000,0.000,0.000,0.000,0.000,0.000,0.000,0.000,0.000,0.000,1.000,0.000,0.000,1.000,0.000,0.000,0.000,0.000,0.000,0.000,0.000,0.000,0.000,0.000,
max average throughput
767.672058

x,y,area,be blocked (1 : NLOS / 0 : LOS),be blocked number (>=1 : CBSD(x) / 0 : no),connect bs number (>=1 : CBSD / 0 : MBS),throughput (unit : M bps)
1049,827,1,0,0,0,803.304016
-1148,862,2,0,0,0,763.423279
-484,-637,3,0,0,0,909.431030
688,-471,4,0,0,0,897.526733
1355,1082,1,0,0,0,728.398682
-75,318,2,0,0,0,1189.834473
-1628,-1719,3,0,0,0,598.403870
1274,-1511,4,0,0,0,649.815125
1155,457,1,0,0,0,824.205688
-1211,1586,2,0,0,0,669.083008
-642,-1958,3,0,0,0,637.922424
329,-1312,4,0,0,0,758.389221
678,1983,1,0,0,0,674.158142
-1393,267,2,0,0,0,766.892273
-1711,-1203,3,0,0,0,633.663452
348,-885,4,0,0,0,859.667969
115,774,1,0,0,0,957.248779
-1177,1634,2,0,0,0,666.474670
-1226,-645,3,0,0,0,751.534363
377,-664,4,0,0,0,922.864258
1605,780,1,0,0,0,720.170593
-1390,1153,2,0,0,0,697.622498
-1721,-1144,3,0,0,0,637.097168
138,-1936,4,0,0,0,654.987854
613,1280,1,0,0,0,785.894714
-1911,1494,2,0,0,0,613.416016
-1941,-1652,3,0,0,0,577.477661
462,-1066,4,0,0,0,802.068909
1891,61,1,0,0,0,703.415405
-1190,15,2,0,0,0,817.311340
-1683,-1104,3,0,0,0,644.612427
1917,-1867,4,0,0,0,563.707520
1570,1378,1,0,0,0,675.078369
-1318,1827,2,0,0,0,634.469727
-1647,-1193,3,0,0,0,641.666992
1729,-714,4,0,0,0,665.521423
1513,264,1,0,0,0,763.210205
-139,136,2,0,0,0,1339.521362
-1290,-664,3,0,0,0,738.272034
1205,-1943,4,0,0,0,608.324463
1001,1219,1,0,0,0,755.562805
-293,835,2,0,0,0,902.580872
-402,-934,3,0,0,0,840.395325
119,-865,4,0,0,0,884.242065
1979,565,1,0,0,0,679.338135
-765,1346,2,0,0,0,741.752869
-1313,-1845,3,0,0,0,611.050598
348,-1392,4,0,0,0,741.456543
696,109,1,0,0,0,987.516541
-1258,1551,2,0,0,0,668.858887
-35,-336,3,0,0,0,1157.970215
618,-207,4,0,0,0,968.485657
1326,173,1,0,0,0,802.992188
-838,533,2,0,0,0,869.360168
-1226,-1406,3,0,0,0,666.312317
1956,-636,4,0,0,0,638.443298
1128,532,1,0,0,0,823.042175
-1032,1742,2,0,0,0,664.922668
-1627,-1343,3,0,0,0,631.208191
1589,-478,4,0,0,0,699.798279
1775,1212,1,0,0,0,666.938965
-255,1672,2,0,0,0,716.403137
-1487,-317,3,0,0,0,724.845825
1142,-1774,4,0,0,0,631.193420
1597,1010,1,0,0,0,703.779602
-1834,322,2,0,0,0,688.869873
-1633,-1578,3,0,0,0,610.254822
1719,-2000,4,0,0,0,567.827332
471,1464,1,0,0,0,762.829163
-615,1476,2,0,0,0,732.494568
-1965,-1425,3,0,0,0,591.328674
1690,-874,4,0,0,0,660.676819
429,721,1,0,0,0,937.167908
-1562,647,2,0,0,0,716.511108
-1670,-1655,3,0,0,0,600.378662
1771,-607,4,0,0,0,665.290527
1299,917,1,0,0,0,753.255432
-1153,333,2,0,0,0,814.898438
-954,-1903,3,0,0,0,628.647156
1918,-101,4,0,0,0,657.983032
42,320,1,0,0,0,1212.629883
-359,54,2,0,0,0,1159.433716
-48,-1576,3,0,0,0,714.422791
624,-862,4,0,0,0,827.313110
1565,324,1,0,0,0,751.792480
-1970,1114,2,0,0,0,633.160583
-703,-856,3,0,0,0,815.785889
445,-1702,4,0,0,0,683.073547
1083,1508,1,0,0,0,708.822388
-1976,1832,2,0,0,0,583.561768
-1053,-1171,3,0,0,0,714.770569
384,-1032,4,0,0,0,817.490662
1856,1239,1,0,0,0,656.215027
-1175,1484,2,0,0,0,684.177185
-1980,-200,3,0,0,0,647.849304
312,-1561,4,0,0,0,711.684509
685,1608,1,0,0,0,726.121826
-1440,873,2,0,0,0,717.654785
-237,-1197,3,0,0,0,787.968384
1529,-1827,4,0,0,0,596.631042
598,1771,1,0,0,0,706.879211
-134,1995,2,0,0,0,668.507751
-1908,-604,3,0,0,0,646.242004
1272,-947,4,0,0,0,712.778076
230,603,1,0,0,0,1012.777344
-428,38,2,0,0,0,1110.822021
-323,-735,3,0,0,0,908.415527
960,-881,4,0,0,0,769.123047
1718,112,1,0,0,0,730.448059
-52,1976,2,0,0,0,671.786682
-1814,-1553,3,0,0,0,595.966736
1351,-1870,4,0,0,0,605.769287
1298,520,1,0,0,0,790.163025
-111,430,2,0,0,0,1101.307373
-1378,-1941,3,0,0,0,596.866516
1044,-969,4,0,0,0,743.552917
952,913,1,0,0,0,806.930237
-278,392,2,0,0,0,1078.543701
-44,-764,3,0,0,0,922.221619
249,-274,4,0,0,0,1131.537598
873,1212,1,0,0,0,771.206177
-1103,785,2,0,0,0,780.266052
-145,-280,3,0,0,0,1177.852417
254,-1275,4,0,0,0,769.768738
132,691,1,0,0,0,987.921387
-1327,1521,2,0,0,0,665.803955
-1230,-1314,3,0,0,0,676.542236
1162,-1084,4,0,0,0,712.180725
359,283,1,0,0,0,1112.218384
-362,1939,2,0,0,0,672.391907
-1678,-1077,3,0,0,0,647.302490
712,-1142,4,0,0,0,759.846008
61,1130,1,0,0,0,851.002319
-1511,604,2,0,0,0,727.473755
-145,-1389,3,0,0,0,749.217041
1768,-1904,4,0,0,0,572.038025
446,1273,1,0,0,0,800.503174
-44,839,2,0,0,0,917.531006
-1674,-352,3,0,0,0,691.088806
1512,-37,4,0,0,0,726.350952
1748,1849,1,0,0,0,618.810120
-226,1349,2,0,0,0,777.315430
-1393,-1731,3,0,0,0,616.454224
259,-789,4,0,0,0,898.687744
308,1148,1,0,0,0,836.875183
-39,678,2,0,0,0,978.841125
-750,-1961,3,0,0,0,632.583191
499,-1908,4,0,0,0,650.427734
1686,377,1,0,0,0,729.452515
-840,1182,2,0,0,0,760.542664
-1457,-303,3,0,0,0,730.990540
1873,-469,4,0,0,0,656.475342
680,1279,1,0,0,0,780.020996
-376,707,2,0,0,0,931.362671
-1557,-973,3,0,0,0,670.856079
1375,-1048,4,0,0,0,688.053406
944,443,1,0,0,0,874.540649
-3,617,2,0,0,0,1006.488831
-775,-323,3,0,0,0,895.517395
719,-1263,4,0,0,0,737.786804
553,1302,1,0,0,0,786.835999
-1354,1232,2,0,0,0,693.742615
-331,-872,3,0,0,0,865.246216
1985,-763,4,0,0,0,628.934387
1116,1495,1,0,0,0,707.436157
-1421,820,2,0,0,0,725.127319
-589,-609,3,0,0,0,892.917297
1406,-1809,4,0,0,0,607.726196
1314,76,1,0,0,0,807.551392
-1367,330,2,0,0,0,769.350281
-1030,-1652,3,0,0,0,654.124329
1252,-770,4,0,0,0,734.546326
1659,1966,1,0,0,0,615.698975
-939,901,2,0,0,0,791.621826
-1036,-559,3,0,0,16,873.435730
777,-936,4,0,0,0,788.854187
891,635,1,0,0,0,860.705872
-547,249,2,0,0,0,1014.062927
-1873,-1741,3,0,0,0,576.551636
1476,-561,4,0,0,0,714.007629
1939,1959,1,0,0,0,596.074951
-328,1453,2,0,0,0,752.831970
-488,-938,3,0,0,0,829.157288
64,-1091,4,0,0,0,819.653687
1726,1026,1,0,0,0,686.393738
-802,197,2,0,0,0,922.480225
-1363,-303,3,0,0,0,749.273987
426,-1507,4,0,0,0,716.369690
669,1606,1,0,0,0,727.446045
-798,42,2,0,0,0,931.960571
-1766,-634,3,0,0,0,664.647156
914,-1983,4,0,0,0,621.414124
358,1757,1,0,0,0,718.791931
-933,1291,2,0,0,0,733.599548
-1082,-1257,3,0,0,0,699.935059
937,-884,4,0,0,0,772.402527
708,874,1,0,0,0,852.752075
-335,829,2,0,0,0,899.598083
-32,-1497,3,0,0,0,729.229187
1360,-208,4,0,0,0,753.509521
1659,159,1,0,0,0,739.766724
-1353,1769,2,0,0,0,637.738892
-1696,-376,3,0,0,0,686.678955
183,-1429,4,0,0,0,740.293518
1583,788,1,0,0,0,722.785889
-1694,20,2,0,0,0,715.931763
-108,-270,3,0,0,0,1201.203003
774,-1641,4,0,0,0,674.245728
1927,1373,1,0,0,0,639.512085
-568,1718,2,0,0,0,697.068909
-923,-1478,3,0,0,0,685.799011
1820,-1455,4,0,0,0,602.932861
420,276,1,0,0,0,1084.889648
-524,717,2,0,0,0,901.556641
-210,-7,3,0,0,0,1294.952637
119,-931,4,0,0,0,863.441711
1935,1943,1,0,0,0,597.538879
-408,685,2,0,0,0,932.611694
-775,-687,3,0,0,0,835.118835
1673,-523,4,0,0,0,684.111145
96,1982,1,0,0,0,689.775879
-652,1874,2,0,0,0,670.704468
-1879,-616,3,0,0,0,649.672791
1,-1000,4,0,0,0,845.199280
779,1707,1,0,0,0,705.791565
-1016,895,2,0,0,0,780.230957
-1687,-365,3,0,0,0,688.520325
1398,-1032,4,0,0,0,686.601501
286,976,1,0,0,0,881.734985
-372,1282,2,0,0,0,784.313293
-228,-1880,3,0,0,0,662.007812
1672,-1304,4,0,0,0,629.768066
34,1765,1,0,0,0,723.265747
-1029,1092,2,0,0,0,750.744934
-304,-448,3,0,0,0,1021.951416
1063,-281,4,0,0,0,817.912476
1940,1378,1,0,0,0,637.890869
-859,785,2,0,0,0,823.770691
-402,-1805,3,0,0,0,668.808960
1907,-131,4,0,0,0,659.348389
1836,1205,1,0,0,0,660.786682
-1926,648,2,0,0,0,663.888428
-1399,-689,3,0,0,0,717.578247
1928,-1107,4,0,0,0,616.286255
1609,1801,1,0,0,0,633.675415
-1886,895,2,0,0,0,656.193726
-358,-26,3,0,0,0,1140.474609
212,-1939,4,0,0,0,653.573242
1201,1723,1,0,0,0,673.535950
-606,851,2,0,0,0,854.789124
-110,-944,3,0,0,0,859.841858
1952,-360,4,0,0,0,648.589600
160,1622,1,0,0,0,746.159546
-61,655,2,0,0,0,988.019836
-1081,-1808,3,0,0,0,631.636108
231,-1316,4,0,0,0,761.912598
1334,1963,1,0,0,0,638.637085
-640,1393,2,0,0,0,744.586853
-724,-385,3,0,0,0,902.324646
1817,-1264,4,0,0,0,617.542358
1918,1405,1,0,0,0,638.136292
-117,577,2,0,0,0,1020.006836
-1587,-689,3,0,0,0,687.844849
214,-1318,4,0,0,0,762.097168
1591,225,1,0,0,0,750.244629
-797,1129,2,0,0,0,774.354736
-936,-1391,3,0,0,0,696.836304
912,-573,4,0,0,0,823.843689
1409,1589,1,0,0,0,670.362122
-1014,218,2,0,0,0,856.876221
-1021,-956,3,0,0,0,748.774475
426,-131,4,0,0,0,1078.047974
52,1052,1,0,0,0,871.654663
-551,116,2,0,0,0,1032.856812
-604,-356,3,0,0,0,947.448059
1178,-176,4,0,0,0,794.918762
522,318,1,0,0,0,1028.446411
-420,356,2,0,0,0,1039.329712
-1142,-261,3,0,0,0,799.694824
1346,-949,4,0,0,0,701.950378
1044,1200,1,0,0,0,753.162231
-911,743,2,0,0,0,820.841858
-740,-36,3,0,0,0,931.552917
1282,-1080,4,0,0,0,696.890137
1856,128,1,0,0,0,708.234924
-1046,1090,2,0,0,0,748.788330
-1305,-1760,3,0,0,0,620.434021
369,-767,4,0,0,0,891.589966
1364,678,1,0,0,0,765.583923
-944,1285,2,0,0,0,733.306580
-1642,-615,3,0,0,0,684.021179
1674,-1341,4,0,0,0,626.494141
1835,1260,1,0,0,0,656.934204
-1361,39,2,0,0,0,778.629089
-522,-1448,3,0,0,0,721.322754
605,-1102,4,0,0,0,779.406677
395,1558,1,0,0,0,750.162170
-68,1141,2,0,0,0,828.916504
-589,-1524,3,0,0,0,704.228516
1384,-1860,4,0,0,0,604.362427
345,196,1,0,0,0,1153.050781
-632,1591,2,0,0,0,712.935364
-1697,-311,3,0,0,0,688.648010
584,-1038,4,0,0,0,794.934875
37,1445,1,0,0,0,780.627808
-1615,1821,2,0,0,0,612.445190
-927,-992,3,0,0,0,757.310120
248,-1426,4,0,0,0,738.956238
1199,26,1,0,0,0,834.301208
-319,104,2,0,0,0,1182.167358
-1860,-121,3,0,0,0,666.545227
1092,-1652,4,0,0,0,649.254700
266,1089,1,0,0,0,853.717896
-645,358,2,0,0,0,955.000671
-1919,-248,3,0,0,0,655.864929
1732,-123,4,0,0,0,686.813599
1252,694,1,0,0,0,783.422058
-464,268,2,0,0,0,1047.155151
-1504,-1868,3,0,0,0,594.751343
1706,-1547,4,0,0,0,606.263062
702,593,1,0,0,0,910.943054
-239,1093,2,0,0,13,896.349976
-1191,-180,3,0,0,0,791.692017
1284,-8,4,0,0,0,773.331848
578,940,1,0,0,0,858.253357
-564,1697,2,0,0,0,700.441284
-36,-593,3,0,0,0,995.181091
1327,-1454,4,0,0,0,650.957581
1780,1752,1,0,0,0,624.104248
-544,992,2,0,0,0,831.864075
-591,-480,3,0,0,0,923.692688
1069,-776,4,0,0,0,765.188232
162,1951,1,0,0,0,693.639038
-985,1124,2,0,0,0,751.877686
-1173,-260,3,0,0,0,792.421936
610,-364,4,0,0,0,943.675110
700,619,1,0,0,0,906.128662
-1149,882,2,0,0,0,760.857056
-162,-337,3,0,0,0,1128.687500
1693,-1553,4,0,0,0,606.950195
1274,862,1,0,0,0,762.769409
-424,1266,2,0,0,0,784.263062
-1142,-480,3,0,0,16,1085.759033
390,-949,4,0,0,0,837.811340
1147,491,1,0,0,0,822.923706
-276,1723,2,0,0,0,707.460571
-1813,-1092,3,0,0,0,630.293823
842,-883,4,0,0,0,787.999634
1277,1586,1,0,0,0,682.393066
-296,783,2,0,0,0,918.586060
-129,-466,3,0,0,0,1054.550537
1956,-1818,4,0,0,0,564.291626
1016,1800,1,0,0,0,678.108276
-1733,894,2,0,0,0,675.670410
-329,-699,3,0,0,0,919.491089
1244,-1813,4,0,0,0,619.433533
1575,264,1,0,0,0,752.010742
-848,1940,2,0,0,0,652.167847
-1498,-216,3,0,0,0,726.153564
1744,-267,4,0,0,0,682.244568
861,680,1,0,0,0,859.912903
-478,694,2,0,0,0,916.663757
-1133,-1007,3,0,0,0,725.711426
555,-1885,4,0,0,0,651.466431
831,1600,1,0,0,0,717.225159
-590,1327,2,0,0,0,760.112976
-1502,-1860,3,0,0,0,595.638550
1957,-1071,4,0,0,0,615.303650
796,928,1,0,0,0,828.757629
-694,383,2,0,0,0,934.289917
-1025,-1301,3,0,0,0,700.328369
1813,-1083,4,0,0,0,630.917664
18,761,1,0,0,0,965.195435
-1876,621,2,0,0,0,671.869507
-1278,-1752,3,0,0,0,623.364990
1724,-932,4,0,0,0,652.223999
1140,61,1,0,0,0,848.474365
-1870,174,2,0,0,0,686.418335
-1831,-889,3,0,0,0,641.424988
1720,-1427,4,0,0,0,614.794922
1157,791,1,0,0,0,789.494202
-1575,1685,2,0,0,0,627.758972
-1198,-26,3,0,0,0,793.185181
1851,-470,4,0,0,0,659.610779
144,1054,1,0,0,0,868.797607
-1128,600,2,0,0,0,796.904846
-860,-465,3,0,0,0,851.699097
1185,-1821,4,0,0,0,622.836853
1750,1401,1,0,0,0,654.918152
-644,1964,2,0,0,0,659.038635
-230,-1154,3,0,0,0,798.408813
1975,-1210,4,0,0,0,604.636047
903,275,1,0,0,0,903.210999
-358,651,2,0,0,0,952.956360
-352,-1064,3,0,0,0,812.420959
1520,-192,4,0,0,0,722.655457
1013,553,1,0,0,0,845.345581
-1890,1965,2,0,0,0,580.233765
-985,-999,3,0,0,0,747.908020
556,-1480,4,0,0,0,713.649780
237,1959,1,0,0,0,691.372314
-486,1481,2,0,0,0,739.814331
-1097,-158,3,0,0,0,815.618713
945,-690,4,0,0,0,800.026001
1868,1478,1,0,0,0,637.603455
-1711,85,2,0,0,0,712.738098
-39,-1745,3,0,0,0,685.322632
594,-1964,4,0,0,0,639.129395
261,484,1,0,0,0,1058.942139
-169,446,2,0,0,0,1080.727173
-655,-915,3,0,0,0,811.252747
1788,-797,4,0,0,0,652.545898
57,1135,1,0,0,0,849.788086
-752,99,2,0,0,0,946.989685
-1645,-1224,3,0,0,0,639.330261
1309,-7,4,0,0,0,767.795898
1162,1325,1,0,0,0,723.749878
-1823,567,2,0,0,0,681.726318
-1481,-1994,3,0,0,0,584.800171
1878,-962,4,0,0,0,631.158386
1972,1133,1,0,0,0,650.798706
-1383,337,2,0,0,0,765.860046
-457,-1044,3,0,0,0,807.605957
904,-73,4,0,0,0,873.309509
910,1068,1,0,0,0,789.173157
-742,224,2,0,0,0,940.757141
-330,-1895,3,0,0,0,657.557678
1232,-1093,4,0,0,0,701.942383
425,889,1,0,0,0,890.844604
-1092,412,2,0,0,0,822.912842
-910,-1792,3,0,0,0,645.033325
943,-190,4,0,0,0,856.361572
845,1991,1,0,0,0,665.140503
-1583,635,2,0,0,0,713.994507
-1520,-349,3,0,0,0,717.561646
200,-1427,4,0,0,0,740.238586
1256,890,1,0,0,0,762.556335
-372,579,2,0,0,0,975.011902
-23,-726,3,0,0,0,937.251709
186,-237,4,0,0,0,1190.996460
774,281,1,0,0,0,942.556763
-1018,1047,2,0,0,0,758.522339
-1546,-299,3,0,0,0,714.801819
1108,-1720,4,0,0,0,639.946350
1525,67,1,0,0,0,764.970581
-325,30,2,0,0,0,1190.137207
-318,-1228,3,0,0,0,776.823730
569,-415,4,0,0,0,946.154236
1059,1193,1,0,0,0,752.325562
-369,1253,2,0,0,0,790.552734
-153,-1007,3,0,0,0,839.909668
1716,-469,4,0,0,0,679.885437
931,826,1,0,0,0,823.632507
-1179,367,2,0,0,0,806.709534
-926,-906,3,0,0,0,770.777161
623,-643,4,0,0,0,877.026001
1387,1396,1,0,0,0,692.155762
-1514,884,2,0,0,0,706.115051
-254,-1213,3,0,0,0,783.512878
1079,-697,4,0,0,0,773.215820
1157,1154,1,0,0,0,745.411865
-104,1631,2,0,0,0,726.231873
-1553,-951,3,0,0,0,673.196777
568,-257,4,0,0,0,981.284302
1432,1288,1,0,0,0,698.310181
-497,1229,2,0,0,0,786.298767
-250,-1417,3,0,0,0,740.649292
1639,-1868,4,0,0,0,584.654724
1639,386,1,0,0,0,736.815430
-1697,880,2,0,0,0,681.358337
-1459,-755,3,0,0,0,702.670654
146,-1565,4,0,0,0,715.321228
1885,1552,1,0,0,0,630.548035
-412,864,2,0,0,0,879.970398
-1396,-783,3,0,0,0,710.119568
1403,-841,4,0,0,0,703.897034
957,1962,1,0,0,0,662.503052
-69,1337,2,0,0,0,783.475769
-654,-1896,3,0,0,0,645.628662
1931,-1168,4,0,0,0,612.024292
1210,1906,1,0,0,0,652.898376
-1500,775,2,0,0,0,716.903992
-1547,-417,3,0,0,0,709.829712
110,-1244,4,0,0,0,781.308594
326,875,1,0,0,0,906.336609
-1869,1301,2,0,0,0,631.395142
-777,-1000,3,0,0,0,777.304565
651,-1897,4,0,0,0,645.633179
1507,31,1,0,0,0,768.595703
-665,1017,2,0,0,0,811.328247
-1241,-1905,3,0,0,0,609.915161
1395,-146,4,0,0,0,747.972534
856,93,1,0,0,0,929.690552
-1430,1367,2,0,0,0,671.555969
-1885,-89,3,0,0,0,663.016357
461,-157,4,0,0,0,1052.485352
1084,1465,1,0,0,0,714.141968
-1010,1123,2,0,0,0,748.850342
-1224,-582,3,0,0,16,799.554688
1531,-582,4,0,0,0,703.523315
1607,205,1,0,0,0,747.898438
-290,1469,2,0,0,0,751.335205
-178,-1214,3,0,0,0,786.385071
44,-466,4,0,0,0,1063.916382
1704,123,1,0,0,0,732.657288
-555,175,2,0,0,0,1023.359131
-1472,-1753,3,0,0,0,607.984375
121,-370,4,0,0,0,1117.071411
1009,1504,1,0,0,0,715.929504
-97,1105,2,0,0,0,837.544250
-1118,-409,3,0,0,16,872.613953
648,-1854,4,0,0,0,651.615356
1013,983,1,0,0,0,787.451538
-272,209,2,0,0,0,1175.791992
-1343,-1868,3,0,0,0,606.546692
158,-1283,4,0,0,0,771.399658
1967,1050,1,0,0,0,656.452271
-535,1616,2,0,0,0,714.558716
-228,-1766,3,0,0,0,679.608643
1283,-879,4,0,0,0,718.357483
652,759,1,0,0,0,886.429382
-210,702,2,0,0,0,956.942261
-94,-334,3,0,0,0,1150.255493
150,-1002,4,0,0,0,841.436401
133,1292,1,0,0,0,811.370178
-1245,354,2,0,0,0,793.172546
-431,-1093,3,0,0,0,798.846069
338,-1322,4,0,0,0,755.874146
445,439,1,0,0,0,1021.981018
-339,174,2,0,0,0,1145.468872
-1725,-1984,3,0,0,0,568.706543
1090,-571,4,0,0,0,785.560852
1692,1013,1,0,0,0,691.549255
-855,406,2,0,0,0,883.208252
-1906,-1114,3,0,0,0,618.280701
1726,-915,4,0,0,0,653.137512
366,594,1,0,0,0,990.303528
-322,1768,2,0,0,0,699.033569
-1610,-364,3,0,0,0,701.303589
1836,-1126,4,0,0,0,625.316284
386,427,1,0,0,0,1045.761230
-1365,33,2,0,0,0,777.820251
-1973,-1516,3,0,0,0,584.305054
640,-1984,4,0,0,0,634.607117
1003,1029,1,0,0,0,782.325195
-1069,1897,2,0,0,0,644.164734
-355,-1757,3,0,0,0,677.712524
334,-97,4,0,0,0,1149.570435
67,1676,1,0,0,0,737.924866
-1820,807,2,0,0,0,669.739868
-922,-610,3,0,0,0,816.344543
1051,-1056,4,0,0,0,730.662109
481,692,1,0,0,0,935.875549
-1446,965,2,0,0,0,708.535034
-1844,-1937,3,0,0,0,563.870911
971,-1908,4,0,0,0,627.028992
1290,295,1,0,0,0,806.003845
-1499,127,2,0,0,0,749.993347
-544,-188,3,0,0,0,1004.311279
1497,-753,4,0,0,0,696.987183
397,1799,1,0,0,0,711.039185
-1282,1950,2,0,0,0,624.421631
-124,-1678,3,0,0,0,695.817627
1112,-1778,4,0,0,0,632.913025
1643,1645,1,0,0,0,644.513733
-1882,597,2,0,0,0,672.114258
-7,-550,3,0,0,0,1017.387756
643,-1350,4,0,0,0,729.619019
1204,899,1,0,0,0,769.495605
-997,1179,2,0,0,0,742.526367
-1020,-1324,3,0,0,0,697.735413
1241,-149,4,0,0,0,781.065369
1329,1615,1,0,0,0,674.728821
-890,1746,2,0,0,0,674.246033
-1123,-270,3,0,0,0,803.757935
1969,-1844,4,0,0,0,561.422058
1054,1559,1,0,0,0,704.951660
-1844,1350,2,0,0,0,630.380615
-937,-997,3,0,0,0,755.101685
1294,-712,4,0,0,0,733.161011
843,634,1,0,0,0,871.240479
-1161,1695,2,0,0,0,660.756287
-1941,-571,3,0,0,0,643.133850
1865,-23,4,0,0,0,666.360046
1805,323,1,0,0,0,712.381287
-940,770,2,0,0,0,811.329773
-1416,-1465,3,0,0,0,641.135986
1193,-1004,4,0,0,0,717.617004
674,1009,1,0,0,0,830.933105
-1619,1021,2,0,0,0,680.991333
-1940,-1174,3,0,0,0,610.665955
1011,-243,4,0,0,0,833.973267
1556,1120,1,0,0,0,699.629272
-717,380,2,0,0,0,927.535950
-1750,-1382,3,0,0,0,615.431641
1909,-141,4,0,0,0,658.944580
1338,1301,1,0,0,0,707.339111
-1504,22,2,0,0,0,750.033142
-803,-1838,3,0,0,0,645.610107
836,-1590,4,0,0,0,677.094727
1162,1962,1,0,0,0,650.050232
-807,117,2,0,0,0,926.132141
-372,-865,3,0,0,0,862.515442
1625,-1716,4,0,0,0,598.912781
121,1906,1,0,0,0,700.726440
-842,1040,2,0,0,0,783.617310
-1256,-499,3,0,0,16,787.138489
137,-1862,4,0,0,0,666.070435
714,762,1,0,0,0,874.136841
-700,690,2,0,0,0,872.343140
-1948,-1432,3,0,0,0,592.453308
762,-99,4,0,0,0,921.043091
1510,302,1,0,0,0,762.455200
-1751,736,2,0,0,0,683.190125
-796,-904,3,0,0,0,791.697021
1664,-490,4,0,0,0,687.096558
64,821,1,0,0,0,942.535461
-695,393,2,0,0,0,932.207581
-997,-1889,3,0,0,0,627.682190
918,-1782,4,0,0,0,645.781006
1507,118,1,0,0,0,767.779053
-1674,773,2,0,0,0,691.679688
-1642,-319,3,0,0,0,697.502625
774,-836,4,0,0,0,807.695801
1765,233,1,0,0,0,720.842957
-723,1065,2,0,0,0,794.758240
-619,-1611,3,0,0,0,688.554504
1929,-297,4,0,0,0,653.401306
1054,1250,1,0,0,0,745.248047
-293,23,2,0,0,0,1220.375732
-628,-1334,3,0,0,0,733.650635
762,-93,4,0,0,0,921.324402
1829,1123,1,0,0,0,667.347778
-1776,831,2,0,0,0,674.092590
-170,-1028,3,0,0,0,833.373962
1366,-1515,4,0,0,0,640.796326
1571,788,1,0,0,0,724.531128
-1595,1973,2,0,0,0,600.654358
-1824,-488,3,0,0,0,662.857300
1727,-718,4,0,0,0,665.569580
1103,1393,1,0,0,0,721.407349
-1385,1086,2,0,0,0,705.002747
-1780,-857,3,0,0,0,649.937439
1755,-987,4,0,0,0,644.510742
1139,217,1,0,0,0,844.008972
-266,1216,2,0,0,13,911.981140
-1548,-956,3,0,0,0,673.454407
216,-1368,4,0,0,0,751.610474
1997,1113,1,0,0,0,649.308838
-1928,825,2,0,0,0,654.896606
-1068,-249,3,0,0,0,818.664124
731,-1003,4,0,0,0,783.093994
1736,597,1,0,0,0,712.051636
-944,1474,2,0,0,0,706.574097
-610,-754,3,0,0,0,854.006775
1152,-1503,4,0,0,0,662.018860
404,150,1,0,0,0,1129.230835
-1387,1844,2,0,0,0,627.645386
-1721,-1610,3,0,0,0,599.712036
15,-1611,4,0,0,0,708.251282
31,418,1,0,0,0,1137.238525
-490,545,2,0,0,0,956.883057
-1827,-1623,3,0,0,0,589.410217
862,-1474,4,0,0,0,691.601074
573,1468,1,0,0,0,755.829041
-1450,1013,2,0,0,0,703.574829
-1928,-241,3,0,0,0,654.680481
1700,-46,4,0,0,0,692.764282
672,551,1,0,0,0,927.033936
-1027,1546,2,0,0,0,689.796753
-1891,-1034,3,0,0,0,625.124207
680,-41,4,0,0,0,955.733398
1702,692,1,0,0,0,711.815369
-1214,734,2,0,0,0,766.834290
-1486,-156,3,0,0,0,729.838074
1332,-739,4,0,0,0,724.308044
707,1805,1,0,0,0,696.458435
-472,8,2,0,0,0,1083.691772
-151,-1917,3,0,0,0,657.643921
503,-403,4,0,0,0,971.694458
892,559,1,0,0,0,871.818726
-600,1985,2,0,0,0,658.099609
-1056,-1497,3,0,0,0,671.486145
118,-854,4,0,0,0,887.903503
1878,396,1,0,0,0,699.311707
-808,1076,2,0,0,0,782.015808
-1520,-1391,3,0,0,0,637.943970
98,-1216,4,0,0,0,788.037537
851,421,1,0,0,0,901.538696
-358,1147,2,0,0,0,814.551941
-200,-1090,3,0,0,0,815.650513
1435,-408,4,0,0,0,730.278320
1729,1368,1,0,0,0,659.667419
-349,876,2,0,0,0,884.286316
-1306,-958,3,0,0,0,706.722778
912,-1773,4,0,0,0,647.314514
165,963,1,0,0,0,893.290100
-1372,1652,2,0,0,0,648.126709
-1242,-1215,3,0,0,0,686.631714
1608,-532,4,0,0,0,693.928162
286,1709,1,0,0,0,728.602417
-632,1702,2,0,0,0,696.106995
-1803,-1723,3,0,0,0,583.652649
344,-688,4,0,0,0,920.742004
1294,1895,1,0,0,0,648.256775
-140,1267,2,0,0,13,834.438721
-33,-1447,3,0,0,0,738.961792
91,-832,4,0,0,0,896.428955
1284,976,1,0,0,0,749.174683
-1168,762,2,0,0,0,771.745728
-424,-1610,3,0,0,0,698.841248
1834,-1267,4,0,0,0,615.534058
9,997,1,0,0,0,887.453369
-623,1805,2,0,0,0,681.673828
-1769,-45,3,0,0,0,681.394531
1511,-1451,4,0,0,0,633.214905
813,1629,1,0,0,0,714.429871
-1234,677,2,0,0,0,769.096802
-390,-1630,3,0,0,0,696.936890
702,-1534,4,0,0,0,695.066406
1068,1876,1,0,0,0,665.694031
-1489,1054,2,0,0,0,694.732544
-357,-1669,3,0,0,0,691.734253
657,-1822,4,0,0,0,655.588135
1702,3,1,0,0,0,733.738586
-763,24,2,0,0,0,945.138367
-1199,-874,3,0,0,0,731.846313
528,-4,4,0,0,0,1029.171631
1967,1559,1,0,0,0,622.703857
-390,846,2,0,0,0,887.786926
-1848,-1888,3,0,0,0,567.326416
785,-1342,4,0,0,0,718.449158
1150,1287,1,0,0,0,729.734070
-1356,669,2,0,0,0,748.532043
-1879,-233,3,0,0,0,662.066040
787,-862,4,0,0,0,800.731873
1435,1440,1,0,0,0,682.852478
-709,1629,2,0,0,0,702.315063
-1432,-447,3,0,0,0,728.693298
1321,-986,4,0,0,0,701.690857
1286,1823,1,0,0,0,656.293274
-1538,1545,2,0,0,0,643.831543
-737,-531,3,0,0,0,872.857910
1209,-1475,4,0,0,0,659.994507
1125,1372,1,0,0,0,721.818665
-928,26,2,0,0,0,888.778320
-1831,-1588,3,0,0,0,591.751343
969,-1366,4,0,0,0,697.145081
923,1214,1,0,0,0,765.241211
-1841,287,2,0,0,0,688.687988
-789,-1831,3,0,0,0,647.321533
1571,-1737,4,0,0,0,601.480530
240,1876,1,0,0,0,703.520508
-72,494,2,0,0,0,1067.564941
-1399,-1268,3,0,0,0,662.860779
1126,-665,4,0,0,0,768.083435
1725,24,1,0,0,0,729.862549
-704,1168,2,0,0,0,778.165100
-967,-936,3,0,0,0,759.839966
1621,-1998,4,0,0,0,574.820801
324,1367,1,0,0,0,788.813049
-631,1735,2,0,0,0,691.319031
-1629,-420,3,0,0,0,695.868896
310,-86,4,0,0,0,1172.064941
119,903,1,0,0,0,913.503540
-817,1161,2,0,0,0,766.630493
-610,-1329,3,0,0,0,736.018372
942,-1469,4,0,0,0,685.379883
1066,1027,1,0,0,0,773.803284
-902,769,2,0,0,0,818.469116
-614,-548,3,0,0,0,901.279419
868,-1433,4,0,0,0,697.043518
1263,1598,1,0,0,0,682.301880
-1846,1711,2,0,0,0,602.912109
-297,-982,3,0,0,0,837.834595
751,-606,4,0,0,0,855.449097
836,930,1,0,0,0,822.268982
-1860,1833,2,0,0,0,592.454529
-678,-1902,3,0,0,0,643.700500
1047,-554,4,0,0,0,796.500916
139,1765,1,0,0,0,722.432678
-1349,403,2,0,0,0,769.015320
-493,-1850,3,0,0,0,658.890381
1424,-595,4,0,0,0,720.562012
897,445,1,0,0,0,886.221252
-422,776,2,0,0,0,903.099426
-1915,-1500,3,0,0,0,590.718567
376,-1377,4,0,0,0,742.945679
728,1379,1,0,0,0,758.849792
-544,734,2,0,0,0,893.389771
-941,-1031,3,0,0,0,749.357178
481,-1402,4,0,0,0,732.140442
1357,294,1,0,0,0,792.184692
-581,835,2,0,0,0,862.458801
-348,-1987,3,0,0,0,643.981079
492,-231,4,0,0,0,1020.822510
1768,673,1,0,0,0,703.449341
-1239,1381,2,0,0,0,689.903259
-1866,-771,3,0,0,0,643.731567
1010,-1436,4,0,0,0,683.658936
1015,595,1,0,0,0,839.808289
-1460,1217,2,0,0,0,682.992432
-1584,-634,3,0,0,0,691.832275
157,-1716,4,0,0,0,688.995789
729,1369,1,0,0,0,760.394165
-1320,1080,2,0,0,0,714.009888
-837,-56,3,0,0,0,895.772827
1683,-611,4,0,0,0,678.036438
1738,385,1,0,0,0,720.872131
-1150,740,2,0,0,0,777.375183
-1821,-1896,3,0,0,0,568.727417
608,-1376,4,0,0,0,727.892517
1213,1939,1,0,0,0,649.191040
-468,96,2,0,0,0,1080.244385
-441,-1379,3,0,0,0,738.877625
1275,-1430,4,0,0,0,658.696777
438,1588,1,0,0,0,743.108704
-1848,694,2,0,0,0,672.172485
-926,-488,3,0,0,0,832.063660
942,-1023,4,0,0,0,750.432861
1309,674,1,0,0,0,775.340332
-243,451,2,0,0,0,1060.107422
-1184,-479,3,0,0,16,931.336792
559,-1412,4,0,0,0,725.183228
266,314,1,0,0,0,1142.533081
-445,362,2,0,0,0,1027.496216
-1596,-1917,3,0,0,0,583.594360
936,-920,4,0,0,0,767.046387
620,1691,1,0,0,0,717.519897
-992,1339,2,0,0,0,720.654175
-1796,-984,3,0,0,0,639.680847
1035,-726,4,0,0,0,777.791504
1087,813,1,0,0,0,798.690857
-1514,1491,2,0,0,0,651.134827
-1518,-420,3,0,0,0,714.731873
536,-1476,4,0,0,0,715.592041
1965,717,1,0,0,0,674.701233
-320,1822,2,0,0,0,690.745239
-20,-919,3,0,0,0,869.439575
1626,-482,4,0,0,0,693.553589
1321,1841,1,0,0,0,651.855530
-40,1980,2,0,0,0,671.249207
-1183,-651,3,0,0,0,758.883850
326,-1449,4,0,0,0,731.560181
768,1265,1,0,0,0,773.871155
-159,1144,2,0,0,13,1024.182129
-209,-331,3,0,0,0,1115.461792
734,-983,4,0,0,0,786.426453
1090,160,1,0,0,0,858.724792
-35,887,2,0,0,0,901.679077
-1066,-827,3,0,0,0,759.120361
1578,-707,4,0,0,0,688.005676
638,1764,1,0,0,0,705.870789
-558,1591,2,0,0,0,717.305664
-266,-844,3,0,0,0,880.384583
1810,-1116,4,0,0,0,628.960876
1517,1009,1,0,0,0,714.224243
-1798,667,2,0,0,0,680.442322
-1016,-1177,3,0,0,0,718.425476
1251,-330,4,0,0,0,771.154968
1477,1603,1,0,0,0,662.928040
-1108,1158,2,0,0,0,731.832947
-1875,-1059,3,0,0,0,625.367310
651,-996,4,0,0,0,795.207031
1404,1458,1,0,0,0,684.098328
-1448,1051,2,0,0,0,700.289124
-421,-173,3,0,0,0,1071.983521
758,-431,4,0,0,0,884.631531
585,247,1,0,0,0,1017.446472
-1122,338,2,0,0,0,821.764832
-1069,-424,3,0,0,16,879.415955
514,-770,4,0,0,0,867.387634
935,514,1,0,0,0,867.939270
-225,1908,2,0,0,0,679.922607
-1066,-962,3,0,0,0,741.245422
515,-1669,4,0,0,0,685.123596
1822,1077,1,0,0,0,671.334534
-78,1163,2,0,0,0,823.288696
-1901,-477,3,0,0,0,652.204468
1265,-930,4,0,0,0,715.635315
1758,1976,1,0,0,0,607.806580
-1277,201,2,0,0,0,793.534241
-705,-619,3,0,0,0,863.562012
84,-1336,4,0,0,0,761.371948
237,8,1,0,0,0,1301.551758
-471,540,2,0,0,0,963.380554
-883,-756,3,0,0,0,801.916931
1108,-1131,4,0,0,0,713.232544
238,963,1,0,0,0,888.919922
-1745,1312,2,0,0,0,643.415161
-1754,-1164,3,0,0,0,631.829346
1914,-1012,4,0,0,0,623.827148
301,1147,1,0,0,0,837.544250
-553,954,2,0,0,0,839.250366
-1339,-362,3,0,0,0,751.171387
714,-890,4,0,0,0,807.262024
157,1024,1,0,0,0,876.427490
-1633,1526,2,0,0,0,636.725342
-1088,-1194,3,0,0,0,707.490051
1658,-874,4,0,0,0,664.966858
41,1113,1,0,0,0,855.587830
-1189,44,2,0,0,0,817.379272
-963,-893,3,0,0,0,766.853210
197,-565,4,0,0,0,993.117615
996,1168,1,0,0,0,763.370056
-1461,1209,2,0,0,0,683.646606
-1744,-1250,3,0,0,0,626.386353
1073,-1851,4,0,0,0,627.208618
813,196,1,0,0,0,938.091125
-1338,78,2,0,0,0,783.155579
-1654,-301,3,0,0,0,696.057434
13,-804,4,0,0,0,907.962219
1802,1910,1,0,0,0,609.849731
-1931,480,2,0,0,0,669.901733
-1118,-415,3,0,0,16,886.935486
591,-1366,4,0,0,0,730.952759
329,808,1,0,0,0,925.909180
-643,1557,2,0,0,0,717.555359
-592,-1833,3,0,0,0,657.155884
853,-445,4,0,0,0,856.317078
69,1226,1,0,0,0,827.508911
-1272,1859,2,0,0,0,634.503235
-1447,-475,3,0,0,0,724.364441
810,-1243,4,0,0,0,731.867432
1487,91,1,0,0,0,771.956360
-1320,1356,2,0,0,0,684.246765
-473,-642,3,0,0,0,910.363464
328,-2,4,0,0,0,1166.472046
293,1778,1,0,0,0,717.376404
-821,473,2,0,0,0,882.901794
-522,-774,3,0,0,0,864.979248
1062,-1989,4,0,0,0,612.276550
464,1256,1,0,0,0,802.620850
-1169,1105,2,0,0,0,730.778687
-1690,-95,3,0,0,0,694.105591
1139,-1745,4,0,0,0,634.722290
1900,524,1,0,0,0,691.713379
-467,959,2,0,0,0,848.807495
-1,-237,3,0,0,0,1260.215698
1875,-538,4,0,0,0,653.558228
1388,513,1,0,0,0,773.893127
-1868,712,2,0,0,0,668.565491
-1319,-1364,3,0,0,0,661.456421
1476,-930,4,0,0,0,685.466858
1237,1625,1,0,0,0,681.544739
-294,547,2,0,0,0,1004.628052
-1165,-1012,3,0,0,0,720.588196
1923,-1075,4,0,0,0,618.874084
258,741,1,0,0,0,956.463867
-1879,1338,2,0,0,0,627.731445
-1587,-1770,3,0,0,0,597.240112
1511,-55,4,0,0,0,726.436584
1337,208,1,0,0,0,799.606689
-455,1629,2,0,0,0,716.400391
-1079,-1197,3,0,0,0,708.168274
1772,-1056,4,0,0,0,637.613953
961,706,1,0,0,0,835.942505
-195,1690,2,0,0,0,714.734619
-297,-1061,3,0,0,0,817.318909
1898,-1225,4,0,0,0,611.744507
569,1066,1,0,0,0,832.133667
-1505,14,2,0,0,0,749.860718
-1947,-381,3,0,0,0,648.731934
87,-847,4,0,0,0,891.485229
347,198,1,0,0,0,1151.074829
-1639,114,2,0,0,0,724.719177
-980,-975,3,0,0,0,752.139282
1228,-738,4,0,0,0,741.884888
1047,973,1,0,0,0,783.857544
-979,1666,2,0,0,0,678.270264
-1793,-561,3,0,0,0,664.288391
450,-83,4,0,0,0,1070.447632
215,1491,1,0,0,0,768.766663
-93,1291,2,0,0,0,793.173584
-395,-81,3,0,0,0,1106.926636
938,-1587,4,0,0,0,669.697937
1260,994,1,0,0,0,750.593445
-796,1820,2,0,0,0,670.376953
-832,-1730,3,0,0,0,658.129944
1028,-9,4,0,0,0,837.243835
1369,402,1,0,0,0,784.362732
-1094,850,2,0,0,0,773.643372
-535,-1312,3,0,0,0,745.068909
61,-1381,4,0,0,0,752.150391
1157,1767,1,0,0,0,671.931519
-1542,1944,2,0,0,0,606.969421
-1783,-1155,3,0,0,0,629.226868
519,-337,4,0,0,0,983.429626
1351,75,1,0,0,0,799.607178
-444,1458,2,0,0,0,746.253540
-23,-1684,3,0,0,0,695.548584
1035,-1174,4,0,0,0,716.546387
703,1056,1,0,0,0,818.140808
-896,1051,2,0,0,0,774.537903
-1279,-855,3,0,0,0,721.463745
1056,-1327,4,0,0,0,693.560608
1008,1012,1,0,0,0,784.049561
-1535,967,2,0,0,0,696.320435
-1621,-1403,3,0,0,0,626.633728
1370,-862,4,0,0,0,706.911438
561,103,1,0,0,0,1048.393555
-1272,1990,2,0,0,0,621.010803
-654,-131,3,0,0,0,961.822327
1004,-1396,4,0,0,0,689.597961
731,1108,1,0,0,0,805.112061
-994,500,2,0,0,0,836.658325
-1526,-1447,3,0,0,0,632.116638
826,-1263,4,0,0,0,726.982971
1931,703,1,0,0,0,679.767395
-373,534,2,0,0,0,990.865540
-1535,-1199,3,0,0,0,653.980408
1426,-1270,4,0,0,0,659.639343
1416,295,1,0,0,0,780.443420
-648,303,2,0,0,0,963.866272
-24,-1507,3,0,0,0,727.349609
1281,-1479,4,0,0,0,652.685791
116,60,1,0,0,0,1473.653320
-1410,1859,2,0,0,0,624.474670
-504,-297,3,0,0,0,999.626099
435,-1339,4,0,0,0,746.896912
614,1355,1,0,0,0,772.372803
-618,971,2,0,0,0,826.920776
-7,-1165,3,0,0,0,801.275146
1666,-1643,4,0,0,0,601.744995
1749,1633,1,0,0,0,636.308960
-1096,591,2,0,0,0,804.300781
-1807,-1691,3,0,0,0,585.830261
438,-61,4,0,0,0,1080.295288
1105,480,1,0,0,0,832.992432
-966,1039,2,0,0,0,766.825439
-1209,-39,3,0,0,0,790.476990
1013,-356,4,0,0,0,824.734863
857,839,1,0,0,0,834.291870
-506,697,2,0,0,0,910.369568
-1704,-1631,3,0,0,0,599.460571
341,-1998,4,0,0,0,642.620361
97,1794,1,0,0,0,718.229919
-1260,987,2,0,0,0,732.216309
-1278,-413,3,0,0,0,760.421875
1011,-1335,4,0,0,0,697.174255
798,427,1,0,0,0,915.327148
-372,54,2,0,0,0,1149.392578
-592,-1638,3,0,0,0,685.935669
1777,-167,4,0,0,0,678.939575
8,92,1,0,0,0,1573.650879
-1340,423,2,0,0,0,769.572754
-1230,-336,3,0,0,0,775.342346
963,-386,4,0,0,0,834.614014
1963,1251,1,0,0,0,644.174011
-744,375,2,0,0,0,919.937378
-1116,-1186,3,0,0,0,705.167236
1138,-739,4,0,0,0,757.483582
425,980,1,0,0,0,867.610596
-550,537,2,0,0,0,943.144165
-1991,-982,3,0,0,0,616.696594
997,-1234,4,0,0,0,712.665894
487,105,1,0,0,0,1087.413330
-797,1168,2,0,0,0,767.773193
-1683,-1072,3,0,0,0,647.084961
251,-1450,4,0,0,0,734.208313
1380,1493,1,0,0,0,682.830872
-1869,818,2,0,0,0,662.754944
-942,-1102,3,0,0,0,738.492188
706,-173,4,0,0,0,937.044189
848,1709,1,0,0,0,701.028442
-475,662,2,0,0,0,926.363892
-507,-390,3,0,0,0,973.885681
1985,-1621,4,0,0,0,575.932678
688,136,1,0,0,0,988.816589
-1717,282,2,0,0,0,708.276184
-1154,-1731,3,0,0,0,635.191406
1465,-968,4,0,0,0,683.609680
902,645,1,0,0,0,856.848694
-884,1580,2,0,0,0,696.906982
-1692,-1108,3,0,0,0,643.238037
3,-385,4,0,0,0,1120.253296
1791,1229,1,0,0,0,663.923584
-892,856,2,0,0,0,806.363892
-501,-532,3,0,0,0,935.509155
754,-683,4,0,0,0,840.249756
554,920,1,0,0,0,866.068665
-589,1835,2,0,0,0,679.032227
-1523,-1178,3,0,0,0,657.276794
267,-527,4,0,0,0,996.793396
535,1155,1,0,0,0,817.169922
-101,94,2,0,0,0,1438.537720
-592,-1198,3,0,0,0,761.876282
1622,-564,4,0,0,0,689.978455
1513,102,1,0,0,0,766.864563
-1345,200,2,0,0,0,779.002747
-1156,-1659,3,0,0,0,643.304688
1523,-1214,4,0,0,0,653.998962
1751,740,1,0,0,0,702.062073
-595,706,2,0,0,0,890.356995
-207,-184,3,0,0,0,1215.271973
706,-1139,4,0,0,0,761.067383
1770,1577,1,0,0,0,638.968628
-1708,557,2,0,0,0,699.122131
-470,-490,3,0,0,0,956.693176
1734,-981,4,0,0,0,647.535522
356,1448,1,0,0,0,771.698303
-332,1453,2,0,0,0,752.661316
-1763,-414,3,0,0,0,674.785095
1524,-62,4,0,0,0,723.933411
74,3,1,0,0,0,1637.321411
-766,1311,2,0,0,0,747.333679
-236,-297,3,0,0,0,1124.527100
599,-335,4,0,0,0,953.593140
1599,1198,1,0,0,0,687.810669
-632,1417,2,0,0,0,741.133545
-99,-895,3,0,0,0,875.374817
359,-1909,4,0,0,0,654.759705
1688,936,1,0,0,0,697.699219
-1187,791,2,0,0,0,765.266663
-1169,-1727,3,0,0,0,634.500977
1072,417,1,0,0,0,846.310486
-1444,1667,2,0,0,0,640.523132
-1781,-1238,3,0,0,0,623.309998
950,386,1,0,0,0,879.371582
-1344,90,2,0,0,0,781.715027
-730,-970,3,0,0,0,789.440186
1458,213,1,0,0,0,775.116821
-1097,651,2,0,0,0,797.360962
-1139,-89,3,0,0,0,806.893372
442,1602,1,0,0,0,740.584534
-811,1132,2,0,0,0,772.169006
-1067,-1850,3,0,0,0,627.724182
512,1659,1,0,0,0,728.033264
-275,1438,2,0,0,0,757.788391
-125,-320,3,0,0,0,1153.119019
512,436,1,0,0,0,1000.914368
-403,1599,2,0,0,0,723.667053
-110,-398,3,0,0,0,1100.069214
1725,825,1,0,0,0,700.382446
-166,1973,2,0,0,0,671.311707
-1671,-196,3,0,0,0,695.837708
1401,1688,1,0,0,0,661.105713
-242,4,2,0,0,0,1276.391479
-1825,-1826,3,0,0,0,573.855774
540,1602,1,0,0,0,735.672546
-1518,852,2,0,0,0,708.152405
-1392,-1799,3,0,0,0,609.778809
354,1048,1,0,0,0,857.553406
-1160,1506,2,0,0,0,682.955017
-1568,-875,3,0,0,0,677.216248
879,961,1,0,0,0,810.587646
-1968,261,2,0,0,0,670.553406
-1213,-209,3,0,0,0,785.474548
352,1985,1,0,0,0,685.249756
-1649,1430,2,0,0,0,643.482788
-213,-396,3,0,0,0,1075.495239
600,1495,1,0,0,0,749.517456
-1190,456,2,0,0,0,797.641663
-1827,-794,3,0,0,0,647.562622
1314,1189,1,0,0,0,722.169067
-803,1898,2,0,0,0,659.870605
-72,-413,3,0,0,0,1095.697388
992,1336,1,0,0,0,740.211426
-204,1935,2,0,0,0,676.299194
-1122,-72,3,0,0,0,811.500732
576,505,1,0,0,0,963.377747
-1916,1697,2,0,0,0,598.158691
-1452,-1222,3,0,0,0,661.403748
161,1094,1,0,0,0,857.655029
-318,739,2,0,0,0,930.016724
-246,-996,3,0,0,0,837.834595
1473,1628,1,0,0,0,660.869446
-491,470,2,0,0,0,978.598816
-1064,-872,3,0,0,0,753.538818
1824,1920,1,0,0,0,607.436523
-1754,1889,2,0,0,0,596.136536
-1260,-1729,3,0,0,0,627.223877
1352,920,1,0,0,0,745.200439
-836,1999,2,0,0,0,645.569763
-1385,-704,3,0,0,0,718.647461
1187,821,1,0,0,0,781.067322
-255,844,2,0,0,0,903.635193
-1299,-175,3,0,0,0,767.419617
1504,1122,1,0,0,0,705.783020
-1674,-1490,3,0,0,0,614.009888
1688,263,1,0,0,0,732.668640
-1489,-1560,3,0,0,0,624.950134
-443,-1258,3,0,0,0,762.428467
-277,-1275,3,0,0,0,768.735168
-1063,-911,3,0,0,0,748.516907
-1082,-1708,3,0,0,0,643.326721
-1863,-415,3,0,0,0,659.771790
-307,-1540,3,0,0,0,715.593506
-374,-1451,3,0,0,0,729.022156
-1202,-109,3,0,0,0,791.118530
-771,-1545,3,0,0,0,688.411255
-693,-1824,3,0,0,0,653.476990
-358,-398,3,0,0,0,1025.209961
-226,-1775,3,0,0,0,678.219788
-1371,-733,3,0,0,0,718.464233
-1071,-1151,3,0,0,0,715.245728
-762,-1554,3,0,0,0,687.736328
-1638,-1746,3,0,0,0,595.242554
-919,-948,3,0,0,0,765.325928
-740,-567,3,0,0,0,865.387817


each generation good chromosome number
0,1,1,1,1,1,1,1,1,1,1,1,1,1,1,1,1,1,1,1,1,1,1,1,1,1,1,1,1,1,1,1,1,1,1,1,1,1,1,1,1,1,1,1,1,1,1,1,1,1,1,1,1,1,1,1,1,1,1,1,1,1,3,5,7,9,11,13,17,21,21,21,21,21,20,20,22,23,25,22,23,26,28,29,28,30,29,28,29,29,29,30,31,32,33,32,32,31,30,30,