each times' max average throughput
637.380554,643.477905,639.765930,642.701538,638.213440,639.243103,639.778381,638.900757,637.893616,638.017029,
avg. throughput in all test times
639.537231
avg. BS TX power in all test times
MBS area 1,MBS area 2,MBS area 3,MBS area 4,CBSD 1,CBSD 2,CBSD 3,CBSD 4,CBSD 5,CBSD 6,CBSD 7,CBSD 8,CBSD 9,CBSD 10,CBSD 11,CBSD 12,CBSD 13,CBSD 14,CBSD 15,CBSD 16,CBSD 17,CBSD 18,CBSD 19,CBSD 20,CBSD 21,CBSD 22,
9.750,9.875,10.000,9.875,0.125,0.062,0.062,0.375,0.000,0.213,0.150,0.075,0.000,0.100,0.087,0.225,0.350,0.138,0.138,0.087,0.000,0.050,0.112,0.175,0.312,0.087,
avg. mbs all power,avg. cbsd enable number,avg. mbs area all power,avg. cbsd all power
69.500,4.000,39.500,2.925
avg. max avg. throughput generation number in all test times
55.400002
avg. number of relay UE
267

the max average throughput times

BS TX power
MBS area 1,MBS area 2,MBS area 3,MBS area 4,CBSD 1,CBSD 2,CBSD 3,CBSD 4,CBSD 5,CBSD 6,CBSD 7,CBSD 8,CBSD 9,CBSD 10,CBSD 11,CBSD 12,CBSD 13,CBSD 14,CBSD 15,CBSD 16,CBSD 17,CBSD 18,CBSD 19,CBSD 20,CBSD 21,CBSD 22,
10.000,10.000,10.000,8.750,0.000,0.000,0.625,0.000,0.000,0.500,0.000,0.000,0.000,0.000,0.000,0.000,0.000,0.000,0.000,0.000,0.000,0.000,0.000,0.500,0.875,0.000,
max average throughput
638.017029

x,y,area,be blocked (1 : NLOS / 0 : LOS),be blocked number (>=1 : CBSD(x) / 0 : no),connect bs number (>=1 : CBSD / 0 : MBS),throughput (unit : M bps)
967,478,1,0,0,0,864.794250
-1620,1398,2,1,0,21,108.898239
-267,-1127,3,0,0,0,844.329651
1424,-1999,4,0,0,0,610.076782
796,1416,1,0,0,0,747.124451
-218,1657,2,0,0,0,738.962830
-1422,-1886,3,1,0,20,121.660309
1307,-524,4,0,0,0,768.970703
555,44,1,1,0,6,150.348434
-388,1929,2,0,0,0,692.192688
-1336,-941,3,1,0,20,121.660309
1806,-1823,4,0,0,0,597.421875
144,1821,1,0,0,0,713.475098
-1686,1043,2,0,0,0,690.033997
-1175,-1974,3,0,0,0,647.936462
634,-823,4,1,0,3,170.874207
877,315,1,0,0,0,906.923767
-636,609,2,0,0,0,923.233459
-446,-1594,3,0,0,0,741.732422
168,-171,4,0,0,0,1279.163452
1718,1555,1,0,0,0,645.464783
-1422,1335,2,0,0,0,694.700928
-483,-712,3,1,0,20,121.660309
81,-1387,4,1,0,20,121.660309
867,556,1,0,0,0,878.100159
-1688,642,2,1,0,21,108.898239
-80,-133,3,0,0,0,1423.846069
752,-1073,4,1,0,3,170.874207
432,1324,1,1,0,21,108.898239
-1751,1954,2,1,0,21,108.898239
-1615,-948,3,0,0,0,706.352234
977,-567,4,1,0,3,170.874207
1079,832,1,0,0,0,797.608643
-1661,450,2,0,0,0,730.576233
-1001,-1055,3,0,0,0,778.876831
363,-861,4,0,0,0,886.914673
1646,213,1,0,0,0,740.952637
-1962,927,2,0,0,0,664.207092
-1348,-230,3,0,0,0,796.564514
1855,-687,4,0,0,0,671.577820
978,539,1,0,0,0,854.829529
-76,782,2,0,0,0,956.077148
-740,-1088,3,1,0,20,121.660309
590,-137,4,0,0,0,1011.822205
955,641,1,1,0,6,336.899384
-1685,141,2,1,0,21,108.898239
-1156,-382,3,1,0,20,121.660309
132,-799,4,0,0,0,928.119690
1001,447,1,0,0,0,860.141418
-273,1312,2,0,0,0,802.377197
-1523,-1531,3,0,0,0,665.587158
1093,-416,4,0,0,0,822.333679
1292,387,1,0,0,0,800.535706
-1910,314,2,1,0,21,108.898239
-1844,-1136,3,0,0,0,664.752075
452,-1954,4,0,0,0,667.637146
418,243,1,0,0,0,1096.044678
-1170,722,2,0,0,0,795.022217
-101,-1807,3,0,0,0,716.132629
1056,-1640,4,0,0,0,675.587585
1590,556,1,0,0,0,736.718201
-1565,1344,2,1,0,21,108.898239
-1181,-1557,3,1,0,20,121.660309
662,-1946,4,0,0,0,660.613831
272,1735,1,1,0,21,108.898239
-1319,438,2,0,0,0,791.907776
-676,-857,3,0,0,0,861.390198
879,-140,4,0,0,0,900.905029
1510,1734,1,0,0,0,647.678345
-195,812,2,1,0,21,108.898239
-1311,-1758,3,0,0,0,661.190491
1315,-1116,4,1,0,3,170.874207
846,276,1,0,0,0,920.197998
-1027,817,2,1,0,21,108.898239
-197,-1410,3,0,0,0,784.989075
823,-717,4,0,0,0,842.179382
630,1908,1,0,0,0,686.194702
-806,1450,2,0,0,0,741.085449
-977,-1403,3,0,0,0,732.451294
1584,-1678,4,0,0,0,627.628418
211,1530,1,0,0,0,761.603149
-329,435,2,0,0,0,1061.302979
-1720,-735,3,1,0,20,121.660309
884,-792,4,0,0,0,818.085449
1204,1885,1,0,0,0,655.557556
-1564,78,2,0,0,0,757.641663
-986,-716,3,0,0,0,829.717896
1011,-1912,4,0,0,0,646.087952
1143,1558,1,0,0,0,697.377869
-1094,161,2,0,0,0,857.655029
-1851,-273,3,0,0,0,706.605530
1102,-806,4,0,0,0,777.841187
1469,194,1,0,0,0,773.507935
-573,298,2,0,0,0,1012.561584
-654,-206,3,0,0,0,995.316040
1129,-1400,4,0,0,0,698.806274
303,1231,1,0,0,0,818.335266
-642,1836,2,0,0,0,695.502563
-1122,-1433,3,0,0,0,714.526733
1786,-497,4,0,0,0,690.131226
1390,898,1,0,0,0,741.797729
-1200,1186,2,0,0,0,736.246155
-1863,-67,3,1,0,21,108.898239
1841,-755,4,0,0,0,669.896484
1646,1334,1,1,0,6,128.499817
-330,483,2,0,0,0,1041.109741
-128,-1354,3,1,0,20,121.660309
1200,-980,4,0,0,0,741.546021
1000,509,1,0,0,0,853.442871
-394,156,2,0,0,0,1134.082642
-102,-869,3,0,0,0,925.067871
68,-1898,4,1,0,20,121.660309
943,1767,1,1,0,6,109.381409
-931,1464,2,1,0,21,108.898239
-869,-1109,3,0,0,0,787.987305
1448,-116,4,1,0,3,170.874207
1642,1199,1,0,0,0,682.820129
-1985,665,2,0,0,0,674.468201
-1852,-1757,3,1,0,20,121.660309
513,-1098,4,0,0,0,812.084106
1966,640,1,0,0,0,678.024658
-1536,1428,2,1,0,21,108.898239
-218,-1110,3,0,0,0,851.114258
866,-594,4,0,0,0,853.299805
522,632,1,0,0,0,943.864868
-1340,1310,2,0,0,0,706.157532
-1728,-1981,3,1,0,20,121.660309
389,-1110,4,0,0,0,820.691040
587,1784,1,0,0,0,705.525940
-77,758,2,0,0,0,964.934998
-1044,-622,3,0,0,0,830.497803
601,-214,4,0,0,0,996.860962
1305,302,1,1,0,6,210.338562
-269,1057,2,1,0,21,108.898239
-115,-841,3,1,0,20,121.660309
1057,-1650,4,1,0,3,170.874207
504,153,1,0,0,0,1071.359497
-642,866,2,0,0,0,864.974243
-1496,-648,3,0,0,0,746.081909
1928,-668,4,0,0,0,662.716309
918,1885,1,0,0,0,674.028809
-541,269,2,0,0,0,1031.789917
-1924,-1283,3,0,0,0,646.041565
952,-1638,4,0,0,0,683.919434
31,1655,1,0,0,0,741.720093
-592,1357,2,0,0,0,773.749084
-1868,-981,3,0,0,0,672.224976
632,-571,4,0,0,0,913.584778
1989,397,1,0,0,0,683.514709
-891,1328,2,0,0,0,751.609192
-1638,-592,3,0,0,0,727.128540
80,-624,4,1,0,20,121.660309
782,998,1,0,0,0,818.303223
-351,279,2,0,0,0,1117.795654
-457,-674,3,0,0,0,945.760498
1852,-1123,4,0,0,0,645.687012
1575,1698,1,0,0,0,645.616638
-1064,632,2,0,0,0,825.267883
-297,-290,3,0,0,0,1140.036865
1266,-455,4,0,0,0,782.083923
1181,72,1,0,0,0,838.186584
-122,109,2,0,0,0,1408.649658
-748,-132,3,0,0,0,965.822693
840,-346,4,1,0,3,170.874207
413,734,1,0,0,0,936.058289
-35,1551,2,1,0,21,108.898239
-796,-1129,3,0,0,0,793.654907
1385,-575,4,0,0,0,750.901428
454,206,1,0,0,0,1087.205444
-1975,936,2,0,0,0,662.160828
-697,-810,3,0,0,0,867.499084
1864,-95,4,0,0,0,688.199707
1914,894,1,0,0,0,671.877258
-221,319,2,1,0,0,211.132614
-793,-1492,3,0,0,0,735.827698
109,-1102,4,0,0,0,838.030151
1504,427,1,0,0,0,758.101013
-1272,1741,2,0,0,0,666.029785
-1514,-13,3,1,0,21,108.898239
926,-1569,4,1,0,3,170.874207
920,1273,1,1,0,6,157.984650
-348,667,2,0,0,0,968.580078
-1743,-432,3,1,0,20,121.660309
1645,-404,4,1,0,3,170.874207
1037,1543,1,0,0,0,708.437927
-145,514,2,1,0,21,108.898239
-325,-368,3,0,0,0,1091.625122
1839,-1833,4,0,0,0,594.080444
1204,1999,1,0,0,0,643.458496
-1434,1243,2,0,0,0,702.546204
-474,-1546,3,0,0,0,748.428711
1937,-1751,4,0,0,0,592.486450
112,595,1,0,0,0,1031.188232
-1831,1929,2,1,0,21,108.898239
-1839,-1775,3,0,0,0,617.535889
1329,-203,4,0,0,0,782.269165
1150,1294,1,0,0,0,728.867310
-1318,1288,2,0,0,0,710.952332
-843,-1911,3,1,0,20,121.660309
1806,-1085,4,0,0,0,653.570496
412,106,1,1,0,0,181.594147
-617,1075,2,0,0,0,824.818237
-207,-1433,3,0,0,0,780.151489
925,-505,4,0,0,0,852.278442
368,446,1,1,0,6,156.146347
-1087,1858,2,1,0,21,108.898239
-997,-1548,3,1,0,20,121.660309
389,-1360,4,0,0,0,767.666260
225,1913,1,1,0,21,108.898239
-1129,1617,2,0,0,0,691.538452
-87,-38,3,0,0,0,1565.670898
1677,-411,4,0,0,0,710.486145
726,1939,1,0,0,0,677.622559
-1669,624,2,0,0,0,720.598022
-477,-569,3,1,0,20,121.660309
388,-128,4,0,0,0,1125.355225
1026,1224,1,0,0,0,751.980774
-1117,940,2,0,0,0,777.776611
-221,-56,3,0,0,0,1312.904663
1209,-1499,4,1,0,3,170.874207
244,1245,1,0,0,0,818.121582
-288,435,2,0,0,0,1074.117310
-1014,-410,3,0,0,0,860.803223
1423,-598,4,0,0,0,742.617615
1057,771,1,0,0,0,809.277832
-75,1257,2,0,0,0,820.271240
-756,-753,3,0,0,0,867.923584
35,-1724,4,0,0,0,710.863770
1244,1351,1,1,0,6,146.561798
-1967,418,2,1,0,21,108.898239
-608,-893,3,0,0,0,864.357117
619,-1040,4,0,0,0,812.477295
1482,61,1,0,0,0,773.217346
-288,875,2,1,0,21,108.898239
-758,-1180,3,1,0,20,121.660309
1125,-260,4,0,0,0,826.005249
1428,1657,1,0,0,0,661.918518
-967,850,2,1,0,21,108.898239
-28,-1936,3,1,0,20,121.660309
1175,-946,4,0,0,0,749.208740
393,1066,1,0,0,0,849.862671
-1562,1175,2,0,0,0,694.094543
-404,-902,3,0,0,0,889.976379
1614,-1885,4,0,0,0,606.938904
1141,396,1,1,0,6,263.701691
-1894,1093,2,0,0,0,662.006836
-179,-1624,3,0,0,0,745.462769
597,-1287,4,0,0,0,766.818115
1114,917,1,0,0,0,781.145081
-1416,1723,2,0,0,0,656.389038
-466,-826,3,0,0,0,901.860168
336,-48,4,0,0,0,1178.845581
1247,1287,1,1,0,6,154.114304
-1931,1457,2,0,0,0,633.208862
-1665,-289,3,0,0,0,735.785889
1480,-434,4,0,0,0,742.845154
829,32,1,0,0,0,940.399841
-995,1074,2,0,0,0,776.956177
-1898,-947,3,0,0,0,670.710510
274,-955,4,0,0,0,869.248169
820,23,1,1,0,6,167.142746
-956,821,2,0,0,0,820.062622
-1589,-671,3,0,0,0,729.912659
152,-570,4,0,0,0,1019.431519
186,1538,1,0,0,0,760.726440
-1826,640,2,0,0,0,696.992737
-1270,-627,3,0,0,0,786.476440
1908,-391,4,0,0,0,676.015930
180,1941,1,0,0,0,694.867554
-1008,1997,2,0,0,0,655.522461
-1097,-1314,3,0,0,0,732.105225
753,-1354,4,0,0,0,741.550537
1061,1348,1,1,0,6,149.895920
-11,897,2,0,0,0,917.881958
-1457,-551,3,0,0,0,759.155640
1060,-1522,4,0,0,0,689.994812
790,1451,1,0,0,0,742.269897
-433,1938,2,0,0,0,689.565552
-1178,-1342,3,0,0,0,719.980530
1932,-1084,4,0,0,0,639.249390
982,751,1,0,0,0,825.567993
-1920,270,2,0,0,0,696.404114
-252,-485,3,0,0,0,1060.692017
831,-853,4,0,0,0,817.124207
152,425,1,0,0,0,1115.881226
-96,1957,2,0,0,0,693.399780
-391,-1953,3,0,0,0,688.706299
811,-1747,4,1,0,3,170.874207
1973,1491,1,1,0,6,101.519714
-1006,1678,2,0,0,0,693.823059
-359,-1840,3,0,0,0,706.044067
1364,-1990,4,0,0,0,614.956116
1826,1893,1,0,0,0,609.388245
-626,1694,2,1,0,21,108.898239
-1702,-1297,3,0,0,0,668.198792
275,-371,4,0,0,0,1090.028809
95,1017,1,0,0,0,880.496094
-1139,209,2,0,0,0,844.374146
-1717,-474,3,0,0,0,720.696167
1476,-1959,4,1,0,3,170.874207
1100,1443,1,0,0,0,715.399780
-1967,1556,2,0,0,0,622.915405
-878,-997,3,0,0,0,804.878235
396,-1888,4,1,0,20,121.660309
667,1321,1,0,0,0,773.878967
-1690,1503,2,1,0,21,108.898239
-1732,-515,3,1,0,20,121.660309
691,-1741,4,0,0,0,687.175171
496,995,1,1,0,6,158.669678
-386,115,2,1,0,0,198.934402
-398,-217,3,0,0,0,1114.637939
75,-1431,4,1,0,20,121.660309
862,1359,1,0,0,0,749.799744
-619,1304,2,0,0,0,781.028259
-1238,-176,3,1,0,20,121.660309
1947,-570,4,0,0,0,664.362122
1594,1465,1,1,0,6,121.518539
-469,1530,2,0,0,0,751.418884
-1789,-1671,3,1,0,20,121.660309
612,-1065,4,1,0,3,170.874207
1343,525,1,0,0,0,781.325195
-938,1628,2,0,0,0,705.403931
-1822,-1565,3,0,0,0,635.237000
35,-632,4,0,0,0,999.126770
295,809,1,0,0,0,929.666992
-1682,194,2,1,0,21,108.898239
-1705,-1632,3,0,0,0,640.226807
80,-1941,4,0,0,0,676.751465
1512,35,1,1,0,6,152.174454
-866,21,2,0,0,0,927.950134
-63,-944,3,1,0,20,121.660309
1736,-257,4,0,0,0,705.831299
1521,1620,1,0,0,0,657.424255
-702,1916,2,0,0,0,681.782898
-361,-47,3,0,0,0,1177.892456
153,-1830,4,0,0,0,692.841736
1218,1361,1,1,0,6,146.127579
-1508,544,2,1,0,21,108.898239
-1393,-864,3,1,0,20,121.660309
1356,-1202,4,0,0,0,696.658813
1368,1732,1,1,0,6,109.088722
-868,1486,2,0,0,0,730.566650
-1165,-675,3,0,0,0,801.025024
1827,-1140,4,1,0,3,170.874207
1625,1605,1,0,0,0,649.585571
-270,1351,2,0,0,0,794.421753
-1848,-319,3,0,0,0,705.946960
1969,-499,4,0,0,0,664.006592
692,1434,1,0,0,0,752.862732
-852,526,2,0,0,0,886.229065
-480,-1243,3,0,0,0,804.021057
534,-106,4,0,0,0,1042.573120
1505,195,1,1,0,6,168.963989
-417,1410,2,1,0,21,108.898239
-1925,-1730,3,1,0,20,121.660309
46,-1022,4,0,0,0,860.824951
1635,1980,1,0,0,0,616.212280
-1875,1351,2,0,0,0,646.229492
-1639,-895,3,1,0,20,121.660309
451,-1260,4,0,0,0,783.582275
1793,1001,1,1,0,6,138.785904
-1846,1334,2,1,0,21,108.898239
-248,-1325,3,1,0,20,121.660309
1020,-590,4,0,0,0,820.164185
39,965,1,1,0,21,108.898239
-71,564,2,0,0,0,1049.368652
-1600,-50,3,0,0,0,751.327148
823,-1650,4,0,0,0,691.678711
1237,583,1,0,0,0,796.560486
-1188,1545,2,1,0,21,108.898239
-886,-1497,3,0,0,0,727.483582
1981,-705,4,0,0,0,654.133362
1198,826,1,0,0,0,778.710327
-1328,1543,2,1,0,21,108.898239
-29,-1690,3,0,0,0,735.725952
967,-946,4,1,0,3,170.874207
1505,1941,1,0,0,0,628.872070
-1441,1065,2,0,0,0,718.992798
-1315,-938,3,0,0,0,748.743225
68,-483,4,0,0,0,1074.259644
100,186,1,0,0,0,1334.998291
-1863,1730,2,1,0,21,108.898239
-1673,-1835,3,1,0,20,121.660309
457,-258,4,1,0,3,170.874207
1409,1955,1,0,0,0,634.291748
-615,1354,2,0,0,0,772.468872
-114,-1450,3,0,0,0,778.844788
761,-1215,4,1,0,3,170.874207
1883,608,1,0,0,0,690.584412
-251,617,2,0,0,0,1003.665344
-546,-780,3,0,0,0,900.730530
1941,-1430,4,0,0,0,615.156982
460,929,1,0,0,0,876.237549
-549,1687,2,0,0,0,721.847656
-1407,-923,3,0,0,0,737.004639
1320,-1074,4,0,0,0,714.647827
765,1991,1,0,0,0,669.128662
-1996,107,2,0,0,0,687.686829
-652,-618,3,1,0,20,121.660309
558,-1426,4,0,0,0,744.905090
619,637,1,1,0,6,201.089661
-1303,597,2,0,0,0,783.066528
-568,-822,3,0,0,0,886.843872
524,-1420,4,0,0,0,748.238647
1982,859,1,0,0,0,665.504333
-1994,1762,2,1,0,21,108.898239
-401,-661,3,0,0,0,960.720764
1631,-745,4,1,0,3,170.874207
137,508,1,0,0,0,1071.667480
-951,223,2,0,0,0,893.359924
-114,-965,3,0,0,0,894.863037
90,-1959,4,0,0,0,674.053955
1582,1981,1,0,0,0,619.852051
-941,1119,2,0,0,0,777.349243
-1444,-1708,3,1,0,20,121.660309
1562,-1691,4,0,0,0,628.309875
44,911,1,1,0,21,108.898239
-1703,1185,2,1,0,21,108.898239
-109,-991,3,0,0,0,887.471802
640,-1498,4,1,0,3,170.874207
1615,1036,1,1,0,6,154.246460
-1782,810,2,0,0,0,693.677246
-812,-133,3,1,0,20,121.660309
1616,-493,4,0,0,0,716.709229
704,384,1,0,0,0,950.184204
-666,944,2,0,0,0,845.052673
-407,-584,3,1,0,20,121.660309
1362,-275,4,0,0,0,772.798096
1710,1685,1,0,0,0,635.375183
-1235,1797,2,0,0,0,662.828674
-1052,-390,3,0,0,0,853.474487
1303,-659,4,0,0,0,758.552063
188,127,1,1,0,0,413.914185
-978,1712,2,0,0,0,691.608337
-1333,-212,3,0,0,0,800.314819
1596,-252,4,0,0,0,729.502686
78,414,1,1,0,0,184.632339
-1500,1825,2,0,0,0,639.966858
-139,-630,3,0,0,0,1012.877136
1561,-1612,4,0,0,0,635.591187
109,1913,1,0,0,0,699.788696
-1832,839,2,0,0,0,685.389954
-1412,-864,3,1,0,20,121.660309
1263,-955,4,0,0,0,735.303772
795,327,1,0,0,0,930.163452
-1581,1861,2,0,0,0,630.525513
-992,-1503,3,0,0,0,717.555603
1905,-1652,4,0,0,0,602.400024
1736,1594,1,1,0,6,106.749031
-673,898,2,0,0,0,853.414062
-138,-1676,3,1,0,20,121.660309
990,-800,4,1,0,3,170.874207
1748,25,1,1,0,6,132.530212
-460,306,2,1,0,21,108.898239
-1079,-24,3,0,0,0,864.640503
1460,-1642,4,0,0,0,641.590088
1615,442,1,0,0,0,738.428955
-1528,678,2,0,0,0,738.896301
-100,-1263,3,0,0,0,818.514343
1114,-764,4,0,0,0,780.905334
132,955,1,0,0,0,897.133423
-577,138,2,0,0,0,1037.045776
-642,-1526,3,0,0,0,741.675476
1951,-1934,4,0,0,0,578.088501
745,378,1,1,0,6,214.016953
-516,269,2,0,0,0,1042.622803
-156,-18,3,1,0,0,567.581360
700,-1477,4,0,0,0,726.202454
1706,1670,1,0,0,0,636.966431
-39,415,2,1,0,0,187.968842
-571,-1804,3,0,0,0,703.381165
732,-1842,4,0,0,0,671.002197
1897,785,1,1,0,6,136.368698
-78,1685,2,0,0,0,736.310852
-1487,-804,3,0,0,0,735.693481
1713,-601,4,1,0,3,170.874207
1856,400,1,0,0,0,702.413635
-941,115,2,1,0,21,108.898239
-917,-1132,3,1,0,20,121.660309
811,-750,4,0,0,0,838.743225
879,563,1,0,0,0,874.246582
-972,66,2,0,0,0,894.114929
-1888,-211,3,0,0,0,702.241882
1543,-867,4,0,0,0,703.397766
351,550,1,0,0,0,1009.630920
-1643,1499,2,1,0,21,108.898239
-1147,-249,3,1,0,20,121.660309
710,-1782,4,0,0,0,680.367432
24,1211,1,0,0,0,831.447998
-1762,393,2,0,0,0,716.849670
-854,-619,3,0,0,0,871.257202
1816,-1121,4,0,0,0,649.900879
1518,87,1,0,0,0,766.097595
-635,1376,2,0,0,0,767.050171
-429,-1610,3,0,0,0,739.840027
31,-1079,4,0,0,0,845.380005
1694,1582,1,0,0,0,645.390137
-1585,230,2,0,0,0,751.180237
-147,-1991,3,0,0,0,688.037354
1998,-1869,4,0,0,0,579.249146
272,414,1,0,0,0,1089.057617
-821,458,2,1,0,21,108.898239
-332,-278,3,0,0,0,1127.846069
413,-988,4,0,0,0,847.681030
295,231,1,0,0,0,1169.586792
-1657,626,2,0,0,0,722.296753
-668,-286,3,1,0,20,121.660309
1163,-1416,4,1,0,3,170.874207
1089,1481,1,0,0,0,711.662170
-779,672,2,0,0,0,878.426086
-217,-317,3,1,0,0,214.518127
980,-1066,4,1,0,3,170.874207
173,1229,1,0,0,0,824.439331
-999,911,2,0,0,0,799.835144
-970,-1203,3,0,0,0,761.441528
354,-566,4,0,0,0,983.778259
195,872,1,0,0,0,919.017700
-147,999,2,0,0,0,883.804321
-203,-998,3,0,0,0,881.340210
816,-1497,4,0,0,0,714.105225
1076,1011,1,0,0,0,774.538391
-358,928,2,1,0,21,108.898239
-1082,-352,3,1,0,20,121.660309
700,-1485,4,1,0,3,170.874207
654,179,1,1,0,6,173.868744
-1988,312,2,1,0,21,108.898239
-1516,-1685,3,1,0,20,121.660309
1505,-1970,4,0,0,0,607.223083
664,1191,1,0,0,0,797.383423
-1075,1289,2,0,0,0,737.737183
-957,-67,3,0,0,0,898.551636
779,-464,4,0,0,0,895.571777
1383,1254,1,0,0,0,707.242004
-583,1890,2,0,0,0,690.707275
-1239,-1370,3,0,0,0,710.281067
702,-1345,4,0,0,0,747.560730
783,449,1,0,0,0,916.110413
-1186,1957,2,1,0,21,108.898239
-1093,-739,3,1,0,20,121.660309
1195,-1625,4,1,0,3,170.874207
386,473,1,0,0,0,1028.787476
-1705,1107,2,0,0,0,682.864807
-405,-1026,3,0,0,0,858.369385
766,-108,4,0,0,0,941.314636
602,557,1,0,0,0,943.705200
-1684,1422,2,0,0,0,659.753235
-342,-1230,3,0,0,0,816.319275
333,-1572,4,1,0,20,121.660309
1918,87,1,0,0,0,699.211121
-736,1965,2,0,0,0,673.802124
-507,-1687,3,0,0,0,723.881531
1469,-1147,4,0,0,0,688.609070
116,994,1,0,0,0,886.385376
-859,1289,2,0,0,0,760.764526
-252,-1717,3,0,0,0,728.168030
743,-1919,4,0,0,0,660.295044
317,1456,1,0,0,0,771.893311
-1170,895,2,1,0,21,108.898239
-1518,-251,3,1,0,20,121.660309
359,-536,4,0,0,0,993.646240
241,1990,1,1,0,21,108.898239
-1947,1772,2,0,0,0,609.120056
-412,-293,3,0,0,0,1083.177612
564,-303,4,0,0,0,995.834778
696,198,1,0,0,0,979.793457
-254,726,2,0,0,0,962.206055
-722,-1719,3,0,0,0,707.610535
1625,-1290,4,0,0,0,657.950378
1001,1813,1,0,0,0,677.550293
-1800,1811,2,0,0,0,617.815796
-1587,-1124,3,1,0,20,121.660309
887,-1436,4,0,0,0,716.992615
227,1366,1,1,0,21,108.898239
-705,1339,2,0,0,0,767.466797
-1753,-770,3,0,0,0,700.004700
73,-1303,4,0,0,0,790.808350
1857,992,1,0,0,0,672.844788
-482,1313,2,0,0,0,790.083008
-1828,-68,3,0,0,0,713.070984
1962,-1747,4,0,0,0,590.759644
584,1192,1,0,0,0,805.120605
-952,1705,2,0,0,0,694.362000
-820,-251,3,0,0,0,930.857849
1944,-166,4,1,0,3,170.874207
1634,1369,1,0,0,0,669.291565
-1946,1906,2,1,0,21,108.898239
-1470,-1174,3,0,0,0,705.041443
970,-1351,4,0,0,0,721.216797
1569,286,1,0,0,0,752.391602
-1734,649,2,0,0,0,709.613831
-1320,-626,3,1,0,20,121.660309
1368,-38,4,0,0,0,777.162781
1526,1637,1,0,0,0,655.397583
-858,345,2,0,0,0,909.123596
-787,-1400,3,0,0,0,750.385742
1247,-1302,4,0,0,0,698.118835
1797,199,1,0,0,0,716.423279
-1526,938,2,0,0,0,719.090454
-592,-535,3,0,0,0,951.621521
1493,-480,4,1,0,3,170.874207
1407,1769,1,0,0,0,652.560425
-1557,697,2,0,0,0,733.084473
-1113,-1769,3,0,0,0,674.935974
1167,-909,4,0,0,0,754.826172
1153,1147,1,0,0,0,746.779968
-1867,751,2,0,0,0,685.758789
-1118,-589,3,0,0,0,819.261963
1843,-802,4,0,0,0,667.019287
1226,1899,1,0,0,0,652.552917
-298,495,2,0,0,0,1044.675659
-1093,-59,3,1,0,20,121.660309
393,-191,4,0,0,0,1105.981934
452,1070,1,0,0,0,843.497009
-836,574,2,0,0,0,882.572510
-781,-1860,3,0,0,0,685.058533
855,-1426,4,0,0,0,721.299866
1219,41,1,1,0,6,172.901443
-257,674,2,0,0,0,980.703064
-1791,-1962,3,0,0,0,606.552734
1624,-1906,4,0,0,0,604.378174
687,1924,1,0,0,0,681.443787
-1895,308,2,0,0,0,699.226746
-1878,-1492,3,0,0,0,635.632019
434,-1711,4,0,0,0,704.161377
936,1523,1,0,0,0,719.667419
-224,998,2,0,0,0,880.101135
-1153,-1005,3,0,0,0,764.397644
449,-1071,4,0,0,0,824.351929
1889,1986,1,0,0,0,597.670044
-355,1537,2,0,0,0,755.537842
-905,-703,3,0,0,0,847.384338
600,-1792,4,0,0,0,684.641724
60,1675,1,0,0,0,738.140991
-1805,1480,2,0,0,0,643.384888
-483,-1316,3,0,0,0,789.434387
1725,-1528,4,1,0,3,170.874207
731,876,1,0,0,0,848.649536
-1608,1442,2,0,0,0,665.539978
-407,-1110,3,0,0,0,838.412476
1013,-623,4,0,0,0,817.517212
1440,765,1,0,0,0,746.033020
-1444,1843,2,0,0,0,642.514587
-829,-28,3,0,0,0,940.450195
535,-852,4,0,0,0,865.644653
1731,1626,1,1,0,6,105.058868
-441,1406,2,0,0,0,775.104736
-1288,-523,3,0,0,0,791.843201
1692,-337,4,1,0,3,170.874207
195,1869,1,0,0,0,705.365173
-1939,1954,2,0,0,0,596.441040
-1893,-1962,3,1,0,20,121.660309
929,-1310,4,0,0,0,731.247375
1310,1076,1,0,0,0,734.878296
-928,3,2,1,0,21,108.898239
-1214,-1520,3,0,0,0,695.459595
497,-461,4,0,0,0,979.365417
532,939,1,0,0,0,864.649353
-1291,715,2,0,0,0,774.669556
-8,-1628,3,0,0,0,746.485657
1692,-769,4,0,0,0,689.407959
1866,732,1,0,0,0,686.890259
-1592,1109,2,0,0,0,696.212280
-491,-919,3,0,0,0,874.771484
1063,-1189,4,1,0,3,170.874207
1436,1191,1,1,0,6,155.260941
-1057,770,2,0,0,0,809.407104
-718,-950,3,1,0,20,121.660309
624,-85,4,0,0,0,1000.590271
1759,149,1,0,0,0,723.270264
-1905,948,2,0,0,0,669.807922
-38,-238,3,0,0,0,1296.869995
980,-299,4,0,0,0,860.385620
1580,1537,1,0,0,0,659.729126
-405,1770,2,1,0,21,108.898239
-868,-759,3,0,0,0,845.612976
1046,-41,4,0,0,0,854.215332
281,183,1,1,0,0,261.990204
-1667,1623,2,1,0,21,108.898239
-1624,-434,3,0,0,0,737.300903
1098,-1932,4,0,0,0,638.364868
1447,333,1,0,0,0,772.913879
-228,830,2,0,0,0,929.787720
-753,-779,3,0,0,0,863.528931
1558,-1381,4,0,0,0,656.965576
1259,1003,1,0,0,0,749.735229
-1270,807,2,0,0,0,769.093323
-1535,-7,3,1,0,21,108.898239
1774,-1737,4,0,0,0,606.800110
539,160,1,0,0,0,1052.533569
-641,1536,2,0,0,0,740.148438
-288,-1562,3,0,0,0,753.568054
1596,-217,4,0,0,0,730.406982
414,1760,1,1,0,21,108.898239
-1166,1108,2,0,0,0,749.949707
-1729,-1655,3,0,0,0,636.239868
1429,-1320,4,0,0,0,676.351929
1041,823,1,0,0,0,805.194824
-150,1073,2,0,0,0,863.531433
-1593,-1190,3,0,0,0,689.188293
385,-1926,4,0,0,0,673.611572
573,815,1,0,0,0,887.675903
-126,1010,2,0,0,0,881.511902
-432,-43,3,1,0,0,175.363144
366,-548,4,0,0,0,987.516541
55,266,1,0,0,0,1262.373901
-848,798,2,0,0,0,842.784119
-1837,-176,3,0,0,0,710.553284
394,-4,4,0,0,0,1135.812500
153,1984,1,0,0,0,688.974426
-1682,1227,2,0,0,0,676.035767
-1943,-1489,3,0,0,0,629.822876
180,-1334,4,0,0,0,781.911377
1758,1686,1,0,0,0,631.237183
-1541,967,2,1,0,21,108.898239
-1465,-1730,3,0,0,0,651.721619
1772,-662,4,0,0,0,684.363098
421,833,1,0,0,0,906.464111
-1333,1068,2,0,0,0,732.717712
-1451,-1107,3,0,0,0,713.729797
1662,-1449,4,0,0,0,640.587219
95,1705,1,1,0,21,108.898239
-884,1596,2,0,0,0,713.823425
-1216,-700,3,0,0,0,789.177979
1623,-1058,4,0,0,0,677.525635
825,136,1,0,0,0,938.145508
-1583,1244,2,0,0,0,685.626892
-178,-901,3,0,0,0,911.108032
1537,-948,4,0,0,0,697.641663
470,25,1,0,0,0,1103.804932
-1817,259,2,0,0,0,712.116821
-1199,-366,3,1,0,20,121.660309
122,-1333,4,0,0,0,783.520203
154,656,1,1,0,21,108.898239
-155,946,2,0,0,0,898.770447
-556,-1907,3,1,0,20,121.660309
1057,-1621,4,0,0,0,677.853638
1331,936,1,1,0,6,199.913574
-755,1415,2,1,0,21,108.898239
-718,-429,3,0,0,0,938.053894
466,-1231,4,0,0,0,788.351196
89,660,1,0,0,0,1003.720337
-1962,433,2,0,0,0,686.210022
-258,-819,3,0,0,0,930.481567
577,-910,4,0,0,0,845.895996
394,121,1,1,0,0,191.533997
-1976,557,2,0,0,0,680.043152
-1506,-422,3,0,0,0,757.996887
1119,-1733,4,1,0,3,170.874207
946,800,1,1,0,6,262.834778
-525,512,2,0,0,0,975.951111
-4,-408,3,0,0,0,1145.000000
1492,-756,4,1,0,3,170.874207
1619,1414,1,0,0,0,666.908325
-316,1615,2,0,0,0,743.399963
-1756,-1553,3,0,0,0,642.162415
1616,-660,4,1,0,3,170.874207
1687,807,1,0,0,0,706.749207
-1396,1090,2,0,0,0,722.324402
-1369,-765,3,0,0,0,757.220642
1860,-1602,4,0,0,0,610.024353
523,363,1,0,0,0,1016.710327
-1885,864,2,1,0,21,108.898239
-1875,-1988,3,1,0,20,121.660309
1156,-1725,4,0,0,0,657.710632
804,151,1,0,0,0,944.442932
-534,56,2,0,0,0,1065.819458
-1653,-1347,3,0,0,0,669.206726
1709,-1993,4,1,0,3,170.874207
1074,113,1,0,0,0,864.464294
-1263,152,2,1,0,21,108.898239
-1904,-1746,3,0,0,0,614.494080
710,-44,4,0,0,0,965.473877
715,1069,1,0,0,0,814.207214
-1696,333,2,1,0,21,108.898239
-941,-1206,3,0,0,0,764.367920
1147,-1727,4,0,0,0,658.168823
1471,611,1,0,0,0,752.752808
-330,1123,2,0,0,0,841.293640
-657,-507,3,1,0,20,121.660309
1967,-1869,4,1,0,3,170.874207
622,837,1,1,0,6,189.500366
-660,1100,2,0,0,0,814.938049
-894,-29,3,0,0,0,918.717102
1874,-660,4,0,0,0,670.324219
1482,1314,1,0,0,0,690.308167
-455,1863,2,0,0,0,699.541565
-598,-506,3,1,0,20,121.660309
227,-445,4,0,0,0,1067.371948
613,1526,1,0,0,0,743.592712
-586,957,2,0,0,0,853.424194
-1044,-551,3,0,0,0,838.846558
611,-287,4,0,0,0,980.574707
720,1501,1,0,0,0,740.085205
-954,1222,2,0,0,0,760.525513
-28,-1841,3,1,0,20,121.660309
1479,-1,4,0,0,0,754.874084
367,1766,1,0,0,0,717.098267
-1552,1349,2,1,0,21,108.898239
-1714,-199,3,0,0,0,729.804871
1809,-1845,4,0,0,0,595.461731
1305,1413,1,0,0,0,698.695679
-1143,179,2,0,0,0,844.644043
-1388,-160,3,0,0,0,790.388123
1733,-917,4,0,0,0,674.113464
1316,1281,1,1,0,6,152.014511
-120,1109,2,0,0,0,855.144226
-491,-607,3,0,0,0,957.902283
1284,-1954,4,0,0,0,623.879944
759,939,1,0,0,0,832.362061
-494,1123,2,0,0,0,827.763794
-305,-1266,3,0,0,0,810.619934
574,-1199,4,0,0,0,785.513916
1411,1400,1,1,0,6,135.250183
-1384,1697,2,1,0,21,108.898239
-1278,-920,3,0,0,0,756.041016
1573,-1596,4,1,0,3,170.874207
1029,974,1,0,0,0,786.369934
-1714,1157,2,0,0,0,677.968384
-1877,-28,3,0,0,0,705.660522
1608,-597,4,0,0,0,712.380798
1018,246,1,0,0,0,873.294617
-215,1611,2,0,0,0,746.968506
-510,-1981,3,0,0,0,681.077026
1800,-1168,4,0,0,0,648.351501
340,537,1,1,0,6,154.360321
-548,1763,2,0,0,0,710.430237
-143,-1424,3,0,0,0,783.486389
1939,-1415,4,0,0,0,616.396484
1065,1505,1,0,0,0,710.818237
-1731,688,2,0,0,0,707.880188
-1696,-1615,3,0,0,0,642.440491
896,-539,4,0,0,0,854.538879
1082,402,1,0,0,0,845.307678
-339,651,2,0,0,0,975.695923
-1135,-569,3,1,0,20,121.660309
522,-1418,4,0,0,0,748.726074
285,1777,1,0,0,0,717.737854
-172,484,2,0,0,0,1078.598633
-1153,-483,3,0,0,0,822.370056
541,-111,4,0,0,0,1038.444824
604,1613,1,1,0,21,108.898239
-1918,1259,2,0,0,0,648.301880
-1842,-1434,3,1,0,20,121.660309
380,-1806,4,0,0,0,691.417847
462,945,1,0,0,0,872.036438
-167,693,2,0,0,0,984.118530
-1087,-1311,3,0,0,0,733.566528
1415,-400,4,0,0,0,756.537903
264,742,1,0,0,0,955.387939
-955,1315,2,0,0,0,746.984375
-465,-749,3,0,0,0,922.890381
727,-1948,4,0,0,0,657.337708
1199,1390,1,0,0,0,712.068787
-1419,445,2,0,0,0,772.465881
-1115,-1722,3,0,0,0,680.257690
313,-1226,4,0,0,0,799.690491
1801,807,1,0,0,0,691.335388
-1665,1148,2,0,0,0,684.337769
-313,-523,3,0,0,0,1029.262817
254,-443,4,0,0,0,1061.036011
67,662,1,0,0,0,1003.976562
-693,1172,2,0,0,0,797.812561
-1524,-1454,3,0,0,0,672.710266
898,-1564,4,0,0,0,698.018311
518,1775,1,0,0,0,709.990723
-1921,136,2,0,0,0,698.342407
-236,-829,3,0,0,0,929.389160
221,-1651,4,0,0,0,720.774963
174,591,1,0,0,0,1026.169189
-366,471,2,0,0,0,1035.488037
-656,-1524,3,1,0,20,121.660309
685,-1567,4,0,0,0,713.228516
948,479,1,0,0,0,869.244385
-1068,343,2,0,0,0,853.535400
-338,-639,3,0,0,0,980.084106
635,-1766,4,1,0,3,170.874207
1053,1142,1,0,0,0,759.954895
-1536,997,2,1,0,21,108.898239
-1663,-1500,3,1,0,20,121.660309
199,-798,4,0,0,0,923.669434
613,369,1,0,0,0,983.047119
-1722,812,2,0,0,0,701.625977
-207,-1023,3,0,0,0,874.277161
1227,-1856,4,0,0,0,638.017822
759,1302,1,0,0,0,768.641602
-1541,1826,2,0,0,0,636.726074
-911,-1181,3,0,0,0,771.618347
1067,-828,4,1,0,3,170.874207
1516,657,1,0,0,0,742.248718
-746,1709,2,0,0,0,707.571289
-1406,-1547,3,0,0,0,674.873474
1924,-1418,4,1,0,3,170.874207
1224,449,1,0,0,0,810.281555
-698,1931,2,0,0,0,680.004761
-1562,-1563,3,0,0,0,659.024353
941,-11,4,1,0,6,167.218597
1378,1513,1,1,0,6,126.180443
-1384,1913,2,1,0,21,108.898239
-384,-146,3,0,0,0,1143.027832
880,-142,4,0,0,0,900.483643
1599,794,1,0,0,0,720.044006
-294,878,2,0,0,0,908.765137
-834,-878,3,0,0,0,831.512390
340,-1528,4,0,0,0,738.590454
345,88,1,0,0,0,1184.302246
-1138,342,2,0,0,0,836.952454
-715,-1797,3,0,0,0,697.124207
1222,-912,4,0,0,0,746.122253
1323,384,1,0,0,0,794.445740
-1730,1437,2,1,0,21,108.898239
-1384,-466,3,0,0,0,777.687561
1033,-829,4,0,0,0,786.553894
543,1599,1,0,0,0,735.991699
-527,479,2,0,0,0,984.393433
-1603,-1074,3,0,0,0,697.789734
347,-1254,4,1,0,20,121.660309
1061,209,1,1,0,6,210.593277
-1068,479,2,0,0,0,841.289856
-689,-1301,3,0,0,0,775.369080
1449,-1465,4,1,0,3,170.874207
1987,1596,1,0,0,0,618.347717
-1967,1042,2,0,0,0,656.933228
-700,-1750,3,0,0,0,704.503479
1704,-1812,4,0,0,0,606.277344
353,190,1,0,0,0,1150.087769
-1567,1814,2,0,0,0,635.802246
-217,-158,3,1,0,0,346.402527
7,-1573,4,0,0,0,737.193054
444,960,1,0,0,0,870.449646
-1230,709,2,0,0,0,785.794067
-85,-1165,3,0,0,0,841.880676
1491,-1613,4,0,0,0,641.676270
487,410,1,0,0,0,1016.720764
-1065,1913,2,0,0,0,661.651611
-1671,-843,3,0,0,0,706.517273
832,-1976,4,1,0,3,170.874207
444,1492,1,1,0,21,108.898239
-401,261,2,0,0,0,1099.068604
-1476,-786,3,1,0,20,121.660309
1838,-1819,4,1,0,3,170.874207
1446,378,1,0,0,0,771.030884
-639,749,2,0,0,0,891.085632
-726,-1606,3,0,0,0,723.729492
466,-13,4,0,0,0,1087.310303
258,740,1,0,0,0,956.810913
-370,82,2,0,0,0,1166.298096
-1701,-1174,3,0,0,0,678.127869
773,-815,4,0,0,0,833.929016
843,541,1,0,0,0,886.121338
-1136,1389,2,0,0,0,718.586792
-65,-1710,3,0,0,0,732.187317
1901,-1881,4,1,0,3,170.874207
523,935,1,0,0,0,866.764404
-1651,1969,2,1,0,21,108.898239
-1318,-1140,3,0,0,0,726.976685
12,-833,4,0,0,0,919.963989
276,875,1,0,0,0,911.395935
-1571,1662,2,0,0,0,649.213135
-1280,-1264,3,0,0,0,717.864197
1446,-684,4,0,0,0,732.384033
603,350,1,0,0,0,990.505798
-954,1225,2,1,0,21,108.898239
-1255,-336,3,0,0,0,811.287842
854,-522,4,0,0,0,867.120911
1018,1396,1,0,0,0,729.432678
-414,995,2,0,0,0,865.060669
-425,-1303,3,0,0,0,795.918335
377,-669,4,0,0,0,943.431885
1769,1319,1,1,0,6,121.959503
-1944,1201,2,0,0,0,649.451721
-1168,-1861,3,0,0,0,660.649719
1067,-1910,4,0,0,0,642.811462
1537,589,1,0,0,0,743.335999
-1656,876,2,0,0,0,706.238525
-1258,-1120,3,0,0,0,736.732056
1690,-1214,4,0,0,0,657.118042
87,1037,1,1,0,21,108.898239
-537,11,2,0,0,0,1065.720459
-1045,-1427,3,0,0,0,722.716125
1124,-113,4,1,0,3,170.874207
659,1351,1,0,0,0,769.389648
-892,1158,2,0,0,0,777.417297
-1354,-243,3,0,0,0,794.856689
373,-659,4,0,0,0,947.464966
115,764,1,1,0,21,108.898239
-1858,1914,2,0,0,0,605.380859
-810,-463,3,0,0,0,906.573364
1418,-1532,4,1,0,3,170.874207
1505,1227,1,0,0,0,695.976501
-601,1008,2,0,0,0,840.535828
-639,-615,3,1,0,20,121.660309
1740,-932,4,0,0,0,672.191589
1895,998,1,0,0,0,667.948853
-891,1592,2,0,0,0,713.837463
-231,-1323,3,0,0,0,801.753113
152,-172,4,0,0,0,1291.682861
1073,458,1,0,0,0,842.234985
-1869,251,2,0,0,0,704.356079
-180,-1523,3,1,0,20,121.660309
1795,-1893,4,0,0,0,592.746704
765,845,1,1,0,6,214.370102
-132,745,2,1,0,21,108.898239
-552,-977,3,0,0,0,853.425415
484,-1271,4,1,0,3,170.874207
58,923,1,0,0,0,909.106201
-1522,1444,2,1,0,21,108.898239
-432,-1138,3,0,0,0,830.026611
1392,-559,4,0,0,0,750.818787
693,251,1,0,0,0,974.489929
-1613,937,2,0,0,0,707.466858
-467,-1943,3,0,0,0,687.762939
1319,-1054,4,0,0,0,716.901489
1201,76,1,0,0,0,833.314575
-1640,348,2,1,0,21,108.898239
-1673,-52,3,0,0,0,738.529236
605,-807,4,0,0,0,864.914795
1685,347,1,1,0,6,158.241501
-946,1178,2,1,0,21,108.898239
-197,-521,3,0,0,0,1055.236206
712,-1012,4,1,0,3,170.874207
1555,1693,1,0,0,0,647.748047
-1452,1539,2,0,0,0,671.423401
-1553,-620,3,0,0,0,738.807129
219,-338,4,0,0,0,1129.494385
1412,539,1,1,0,6,216.592194
-238,1055,2,0,0,0,864.042358
-1789,-619,3,0,0,0,703.252380
1774,-1221,4,0,0,0,647.311218
1326,92,1,1,0,6,173.843140
-833,1092,2,0,0,0,795.313782
-1665,-1172,3,0,0,0,682.404114
668,-1486,4,1,0,3,170.874207
418,1798,1,0,0,0,710.469788
-1797,1396,2,0,0,0,650.645813
-328,-1116,3,1,0,20,121.660309
495,-1901,4,0,0,0,673.569885
1197,1805,1,0,0,0,664.752075
-983,1440,2,1,0,21,108.898239
-627,-1751,3,0,0,0,708.317444
252,-1353,4,0,0,0,775.542908
998,1681,1,0,0,0,694.045776
-1725,1500,2,1,0,21,108.898239
-1728,-78,3,0,0,0,729.100220
1524,-1613,4,0,0,0,638.766052
1604,963,1,0,0,0,706.627930
-1491,75,2,1,0,21,108.898239
-48,-969,3,1,0,20,121.660309
1084,-1456,4,0,0,0,696.160522
1924,990,1,0,0,0,665.025085
-615,1944,2,1,0,21,108.898239
-1240,-1079,3,1,0,20,121.660309
1265,-55,4,0,0,0,799.492615
869,1114,1,0,0,0,787.184998
-1802,721,2,1,0,21,108.898239
-1014,-1882,3,0,0,0,668.476379
968,-291,4,0,0,0,864.289368
396,1669,1,0,0,0,731.501038
-1123,1051,2,1,0,21,108.898239
-1067,-1610,3,0,0,0,697.501343
868,-556,4,0,0,0,858.647217
760,1829,1,0,0,0,690.310974
-1782,93,2,0,0,0,720.181885
-418,-1410,3,0,0,0,775.667542
688,-851,4,0,0,0,841.441467
1822,478,1,1,0,6,145.861633
-1964,1059,2,1,0,21,108.898239
-1907,-482,3,1,0,20,121.660309
223,-1767,4,0,0,0,701.604858
534,676,1,0,0,0,929.545288
-1263,598,2,0,0,0,790.341675
-168,-1089,3,0,0,0,858.671997
405,-1542,4,0,0,0,733.338867
806,1484,1,0,0,0,735.979614
-71,211,2,0,0,0,1319.767944
-600,-1418,3,0,0,0,762.490234
633,-1924,4,0,0,0,664.822327
414,1074,1,0,0,0,846.115112
-1276,430,2,0,0,0,801.007080
-350,-1690,3,1,0,20,121.660309
981,-12,4,0,0,0,872.879944
1950,183,1,1,0,6,124.183510
-730,649,2,1,0,21,108.898239
-804,-978,3,1,0,20,121.660309
777,-1144,4,0,0,0,774.158203
1371,701,1,0,0,0,762.471130
-730,1441,2,0,0,0,748.725830
-646,-1705,3,1,0,20,121.660309
1983,-1313,4,0,0,0,619.030334
198,1830,1,0,0,0,711.288757
-336,1240,2,0,0,0,814.510986
-1764,-1931,3,0,0,0,610.985168
606,-1389,4,1,0,3,170.874207
1588,982,1,0,0,0,707.206543
-199,178,2,1,0,0,348.512909
-154,-657,3,1,0,20,121.660309
1423,-201,4,0,0,0,763.118408
398,1964,1,0,0,0,686.964355
-1588,1338,2,1,0,21,108.898239
-166,-61,3,0,0,0,1386.175537
1098,-1260,4,0,0,0,719.819702
550,1278,1,1,0,6,138.989243
-206,845,2,0,0,0,926.790771
-1775,-1901,3,0,0,0,612.574829
1539,-1785,4,0,0,0,621.607849
834,1882,1,0,0,0,679.276855
-50,1750,2,0,0,0,725.648254
-1956,-965,3,1,0,20,121.660309
784,-1572,4,0,0,0,705.548279
1099,632,1,0,0,0,818.330444
-283,1591,2,0,0,0,748.616699
-372,-1188,3,0,0,0,823.568359
630,-694,4,0,0,0,886.019409
1490,1671,1,0,0,0,655.286743
-1674,1042,2,1,0,21,108.898239
-360,-1519,3,1,0,20,121.660309
1534,-456,4,0,0,0,732.254089
176,91,1,0,0,0,1353.393311
-1589,350,2,0,0,0,746.649658
-1193,-1299,3,0,0,0,723.529541
609,-1433,4,0,0,0,740.120972
14,149,1,1,0,0,588.031372
-104,674,2,1,0,21,108.898239
-1621,-1024,3,0,0,0,699.602905
588,-737,4,0,0,0,884.329102
598,568,1,0,0,0,942.092102
-1851,144,2,0,0,0,708.823120
-899,-163,3,0,0,0,912.603699
278,-1092,4,0,0,0,833.020752
233,1246,1,0,0,0,818.367859
-515,1420,2,0,0,0,767.989624
-636,-218,3,1,0,20,121.660309
1411,-134,4,1,0,3,170.874207
47,1009,1,0,0,0,883.708252
-813,131,2,0,0,0,942.536987
-1876,-332,3,1,0,20,121.660309
1369,-51,4,0,0,0,776.864563
214,645,1,0,0,0,997.893005
-1199,1695,2,0,0,0,676.830322
-763,-1271,3,0,0,0,773.376221
1972,-321,4,1,0,3,170.874207
137,527,1,0,0,0,1061.772827
-1147,643,2,0,0,0,807.826660
-1835,-634,3,0,0,0,696.028564
701,-1243,4,0,0,0,765.139832
1857,1200,1,0,0,0,658.859802
-122,252,2,0,0,0,1253.637085
-1260,-1747,3,0,0,0,666.320862
898,-812,4,1,0,3,170.874207
296,389,1,0,0,0,1092.894287
-1824,109,2,0,0,0,713.385803
-23,-1159,3,0,0,0,844.073425
1409,-1322,4,0,0,0,678.309692
1112,1821,1,0,0,0,669.025757
-1857,712,2,0,0,0,689.128723
-1787,-414,3,0,0,0,712.278625
1197,-1150,4,0,0,0,721.776855
578,1439,1,0,0,0,760.441528
-810,1207,2,0,0,0,779.017883
-1527,-464,3,0,0,0,752.196289
866,-1122,4,1,0,3,170.874207
1353,1763,1,0,0,0,657.397156
-1741,619,2,0,0,0,710.187988
-423,-1624,3,0,0,0,737.780029
1265,-972,4,0,0,0,733.157227
1834,452,1,0,0,0,703.885986
-979,1428,2,0,0,0,728.834290
-1053,-1006,3,0,0,0,778.482239
1119,-958,4,0,0,0,756.027893
371,796,1,0,0,0,924.000854
-108,1674,2,1,0,21,108.898239
-896,-1600,3,0,0,0,712.361633
199,-764,4,0,0,0,935.447388
1683,1291,1,0,0,0,670.712036
-1512,510,2,0,0,0,752.240112
-1890,-798,3,0,0,0,680.244385
1244,-1397,4,0,0,0,687.559631
1401,1262,1,0,0,0,704.385010
-225,1936,2,0,0,0,694.911316
-737,-447,3,0,0,0,929.381348
594,-1089,4,0,0,0,805.393311
1727,1537,1,0,0,0,646.120728
-990,1798,2,1,0,21,108.898239
-1680,-331,3,0,0,0,732.009521
1289,-1505,4,0,0,0,671.083801
1984,519,1,0,0,0,680.355896
-906,530,2,1,0,21,108.898239
-1503,-1854,3,0,0,0,637.041565
836,-964,4,0,0,0,797.274353
1700,202,1,0,0,0,732.066162
-1749,-1261,3,0,0,0,666.028259
736,-1616,4,0,0,0,702.458923
243,610,1,0,0,0,1007.798157
-1811,-1708,3,0,0,0,625.041138
730,-1852,4,1,0,3,170.874207
-878,-84,3,0,0,0,922.758301
1660,-938,4,0,0,0,682.094604
-974,-1611,3,1,0,20,121.660309
-266,-115,3,0,0,0,1243.695801
-886,-691,3,1,0,20,121.660309
-1372,-310,3,0,0,0,788.462769


each generation good chromosome number
4,6,10,14,20,22,24,25,28,31,35,34,34,32,39,44,49,50,54,56,63,66,65,63,58,61,61,65,72,75,72,75,78,80,78,78,79,82,81,84,87,87,91,90,86,86,85,88,93,98,94,93,93,93,88,89,91,92,89,90,92,93,92,92,96,95,95,99,99,98,99,101,104,104,102,101,104,105,103,103,103,103,99,102,108,109,110,110,112,110,111,110,108,108,109,110,110,115,109,109,