each times' max average throughput
597.148804,600.786682,592.386230,599.114258,596.772705,590.287476,592.553833,576.432373,586.986450,583.808655,590.688538,590.552307,581.550964,581.729614,578.139282,593.003052,582.065735,584.423096,588.200928,583.987732,583.004761,590.509338,602.427246,586.970642,601.862366,585.713318,600.214539,593.708252,585.972351,594.672791,602.234009,595.262756,587.226074,585.248962,585.469421,595.864319,589.665222,601.419312,580.425537,583.153381,519.421204,585.515320,580.215149,585.360901,578.159180,582.935974,590.045959,585.925293,602.502319,584.669617,594.510071,599.513123,589.233215,597.648010,586.574890,585.216248,602.572815,578.240295,601.822937,597.828369,584.736572,589.868713,595.776123,585.456665,585.595947,601.693909,588.091736,586.269226,582.383850,586.457825,597.250488,587.356323,580.169800,595.389404,585.246704,598.930786,593.781189,584.267578,584.055603,590.889038,597.881592,596.175903,584.397095,586.201782,586.223328,583.741394,599.264587,594.288025,592.567078,601.260315,586.977478,579.646912,587.002380,588.160339,584.652527,584.027954,584.642883,600.249573,585.535461,586.101685,
avg. throughput in all test times
589.022339
avg. BS TX power in all test times
MBS area 1,MBS area 2,MBS area 3,MBS area 4,CBSD 1,CBSD 2,CBSD 3,CBSD 4,CBSD 5,CBSD 6,CBSD 7,
8.025,7.912,7.975,7.900,0.185,0.192,0.254,0.312,0.177,0.251,0.236,
avg. mbs all power,avg. cbsd enable number,avg. mbs area all power,avg. cbsd all power
47.862,2.000,31.812,1.609
avg. max avg. throughput generation number in all test times
0.730000
avg. number of relay UE
235

the max average throughput times

BS TX power
MBS area 1,MBS area 2,MBS area 3,MBS area 4,CBSD 1,CBSD 2,CBSD 3,CBSD 4,CBSD 5,CBSD 6,CBSD 7,
6.250,7.500,7.500,10.000,0.000,0.000,0.750,0.000,0.000,0.000,0.875,
max average throughput
586.101685

x,y,area,be blocked (1 : NLOS / 0 : LOS),be blocked number (>=1 : CBSD(x) / 0 : no),connect bs number (>=1 : CBSD / 0 : MBS),throughput (unit : M bps)
174,657,1,0,0,0,930.138916
-535,1043,2,0,0,0,799.507507
-1883,-1058,3,1,0,7,60.045628
229,-1843,4,0,0,0,708.733521
488,1434,1,0,0,0,699.798279
-1029,807,2,0,0,0,768.084412
-1905,-621,3,1,0,7,60.045628
278,-1087,4,0,0,0,853.468933
1994,522,1,1,0,3,106.059853
-277,1776,2,0,0,0,676.921448
-1128,-1204,3,0,0,0,701.440369
529,-1153,4,0,0,0,818.149353
1168,862,1,0,0,0,711.987000
-1007,1853,2,0,0,0,631.308044
-161,-1384,3,0,0,0,749.878418
441,-1970,4,0,0,0,684.854309
1386,1829,1,0,0,0,581.393494
-962,284,2,0,0,0,844.324341
-1523,-54,3,0,0,0,724.178650
804,-1814,4,0,0,0,689.795227
1472,992,1,0,0,0,654.463074
-578,583,2,1,0,7,60.045628
-1054,-1547,3,1,0,7,60.045628
532,-457,4,0,0,0,988.807007
1580,1441,1,1,0,3,106.059853
-27,212,2,0,0,0,1290.057251
-451,-136,3,0,0,0,1062.082031
1274,-616,4,0,0,0,786.726990
1216,731,1,0,0,0,718.541992
-1416,292,2,0,0,0,739.275208
-1666,-1865,3,0,0,0,582.874756
1651,-15,4,0,0,0,742.452820
1770,649,1,0,0,0,637.286194
-1880,1695,2,0,0,0,579.435547
-639,-1689,3,0,0,0,675.594604
1231,-1679,4,0,0,0,676.044067
1262,1003,1,0,0,0,681.989624
-1666,93,2,1,0,7,60.045628
-2000,-977,3,0,0,0,615.944397
551,-553,4,1,0,3,106.059853
427,909,1,0,0,0,817.745483
-1495,1053,2,0,0,0,672.011353
-1661,-1382,3,0,0,0,624.396362
942,-1211,4,1,0,7,60.045628
444,84,1,0,0,0,1047.784790
-836,1891,2,0,0,0,636.957458
-571,-1132,3,0,0,0,776.970520
1599,-552,4,0,0,0,735.496948
1643,430,1,0,0,0,667.081726
-142,1619,2,0,0,0,705.747803
-279,-66,3,0,0,0,1205.297729
1819,-375,4,0,0,0,708.721497
1439,1545,1,1,0,3,106.059853
-1971,1109,2,0,0,0,611.418762
-1539,-243,3,0,0,0,717.835022
1763,-470,4,1,0,3,106.059853
1910,613,1,0,0,0,619.606323
-1215,107,2,0,0,0,788.094055
-716,-1587,3,0,0,0,686.043701
634,-362,4,0,0,0,977.234802
1718,1546,1,0,0,0,579.379333
-25,1880,2,1,0,7,60.045628
-1972,-1707,3,0,0,0,570.960999
1694,-1634,4,0,0,0,641.018738
1191,1937,1,0,0,0,583.995300
-909,1048,2,0,0,0,751.125000
-1661,-642,3,1,0,7,60.045628
387,-1645,4,0,0,0,735.783386
215,629,1,0,0,0,936.533997
-1907,396,2,1,0,7,60.045628
-1032,-516,3,1,0,7,60.045628
1754,-1489,4,0,0,0,647.495422
1123,1107,1,0,0,0,688.294678
-1092,1356,2,0,0,0,686.044739
-497,-870,3,0,0,0,844.638245
1908,-1604,4,1,0,7,60.045628
149,331,1,0,0,0,1110.947876
-1089,764,2,1,0,7,60.045628
-1770,-1090,3,0,0,0,635.424744
1569,-561,4,0,0,0,739.822388
974,729,1,0,0,0,762.644104
-1417,1488,2,1,0,7,60.045628
-1298,-982,3,0,0,0,705.325195
1792,-1028,4,0,0,0,678.249207
1292,1173,1,0,0,0,659.331848
-1369,1746,2,0,0,0,616.862061
-293,-1758,3,1,0,7,60.045628
1154,-1973,4,0,0,0,649.372498
945,1239,1,0,0,0,691.696533
-997,359,2,1,0,7,60.045628
-1663,-701,3,0,0,0,675.772888
596,-585,4,1,0,3,106.059853
578,900,1,0,0,0,799.630188
-578,1427,2,1,0,7,60.045628
-298,-530,3,0,0,0,988.495056
1145,-1966,4,1,0,7,60.045628
335,1465,1,0,0,0,702.065308
-433,1859,2,0,0,0,659.756714
-1147,-1299,3,0,0,0,687.380981
1539,-1464,4,0,0,0,670.310913
1820,42,1,0,0,0,647.252625
-1378,118,2,1,0,7,60.045628
-102,-537,3,0,0,0,1019.197754
1074,-606,4,0,0,0,826.286194
1104,1081,1,1,0,3,106.059853
-1278,1156,2,1,0,7,60.045628
-585,-1735,3,0,0,0,671.643799
867,-1474,4,0,0,0,732.381531
560,840,1,0,0,0,816.244019
-884,819,2,0,0,0,791.559753
-118,-1101,3,0,0,0,815.881836
1331,-1820,4,0,0,0,653.261902
552,550,1,0,0,0,890.758606
-609,1865,2,1,0,7,60.045628
-65,-1910,3,1,0,7,60.045628
127,-1783,4,1,0,7,60.045628
1999,280,1,0,0,0,617.830566
-1757,1413,2,1,0,7,60.045628
-1120,-1381,3,0,0,0,680.023560
1050,-1796,4,1,0,7,60.045628
191,1495,1,0,0,0,701.240234
-629,385,2,0,0,0,932.878906
-600,-1815,3,0,0,0,659.331848
1224,-1242,4,0,0,0,726.787354
1046,1119,1,1,0,3,106.059853
-1712,1852,2,0,0,0,580.468994
-1064,-389,3,1,0,7,60.045628
46,-934,4,0,0,0,905.912659
341,825,1,1,0,3,106.059853
-85,1216,2,0,0,0,788.267700
-1801,-8,3,0,0,0,676.357971
11,-1432,4,0,0,0,783.309753
340,1706,1,0,0,0,660.232788
-1317,318,2,1,0,7,60.045628
-541,-341,3,0,0,0,973.951477
1077,-1177,4,0,0,0,752.295837
738,1950,1,0,0,0,608.615845
-678,616,2,0,0,0,870.434692
-557,-1056,3,0,0,0,794.239258
1680,-748,4,0,0,0,711.550903
1530,1716,1,0,0,0,580.874695
-508,28,2,1,0,7,60.045628
-1193,-1247,3,0,0,0,688.565063
111,-144,4,0,0,0,1378.190796
1431,590,1,0,0,0,693.611877
-915,37,2,1,0,7,60.045628
-197,-1685,3,1,0,7,60.045628
1515,-1673,4,0,0,0,652.976074
292,528,1,1,0,3,106.059853
-376,1349,2,1,0,7,60.045628
-664,-609,3,0,0,0,875.206421
552,-1611,4,0,0,0,733.579651
784,1815,1,0,0,0,623.732849
-705,477,2,1,0,7,60.045628
-125,-1211,3,0,0,0,788.629089
39,-47,4,0,0,0,1692.952393
1197,747,1,0,0,0,720.130798
-1170,1643,2,0,0,0,644.013672
-1236,-1158,3,0,0,0,693.929138
1448,-941,4,1,0,3,106.059853
1384,180,1,0,0,0,723.257141
-481,1527,2,0,0,0,710.053650
-1345,-828,3,0,0,0,713.932129
1019,-1889,4,0,0,0,667.337952
1357,1565,1,1,0,3,106.059853
-1386,1369,2,1,0,7,60.045628
-1534,-424,3,0,0,0,711.748413
1469,-350,4,0,0,0,768.062744
332,908,1,1,0,3,106.059853
-668,14,2,0,0,0,961.323669
-686,-532,3,0,0,0,885.906616
1240,-1999,4,0,0,0,641.173035
122,1643,1,0,0,0,675.763062
-697,1176,2,0,0,0,755.346741
-1709,-266,3,1,0,7,60.045628
109,-1721,4,1,0,7,60.045628
915,808,1,0,0,0,761.680359
-1508,1064,2,0,0,0,669.372681
-171,-1989,3,0,0,0,646.952698
1360,-1098,4,0,0,0,726.107239
161,721,1,0,0,0,906.119324
-1858,21,2,1,0,7,60.045628
-1644,-1429,3,0,0,0,622.099731
1954,-504,4,0,0,0,684.968384
1619,855,1,0,0,0,645.625366
-1720,1704,2,0,0,0,592.048462
-1290,-259,3,0,0,0,766.324585
959,-1682,4,0,0,0,696.804382
354,912,1,0,0,0,825.288879
-1356,1705,2,1,0,7,60.045628
-1855,-369,3,0,0,0,662.374573
1199,-1755,4,1,0,7,60.045628
116,332,1,0,0,0,1120.076172
-515,1157,2,1,0,7,60.045628
-1125,-618,3,0,0,0,773.433777
1066,-1998,4,0,0,0,652.020935
1557,1517,1,0,0,0,596.759216
-427,255,2,0,0,0,1046.424194
-1373,-1700,3,0,0,0,621.192078
746,-667,4,0,0,0,886.397766
445,827,1,0,0,0,837.042419
-97,446,2,0,0,0,1071.182129
-1595,-1327,3,1,0,7,60.045628
718,-1672,4,0,0,0,714.581360
521,71,1,0,0,0,1004.094543
-149,882,2,0,0,0,877.286926
-1224,-1881,3,1,0,7,60.045628
1147,-1409,4,0,0,0,715.024048
273,1974,1,0,0,0,621.481140
-523,106,2,1,0,7,60.045628
-945,-1219,3,0,0,0,720.731689
410,-748,4,0,0,0,932.393066
167,68,1,0,0,0,1312.783325
-476,589,2,1,0,7,60.045628
-1936,-1223,3,0,0,0,607.875000
1058,-588,4,1,0,3,106.059853
642,1541,1,0,0,0,671.995056
-615,631,2,0,0,0,881.622681
-1954,-1792,3,0,0,0,566.322144
1955,-612,4,0,0,0,680.663818
783,1235,1,0,0,0,709.892090
-613,383,2,1,0,7,60.045628
-1800,-651,3,1,0,7,60.045628
853,-1626,4,0,0,0,711.993042
918,114,1,0,0,0,841.385864
-1047,488,2,0,0,0,803.723145
-88,-1268,3,0,0,0,776.248535
1187,-334,4,0,0,0,826.303894
164,1313,1,0,0,0,738.541809
-124,1767,2,0,0,0,681.108154
-146,-1257,3,0,0,0,777.516479
1100,-1600,4,0,0,0,695.997375
567,541,1,0,0,0,889.116455
-1494,1500,2,0,0,0,630.211243
-607,-1469,3,0,0,0,712.117798
1632,-1999,4,0,0,0,614.799438
1485,1412,1,0,0,0,613.546692
-367,92,2,0,0,0,1125.283081
-1338,-1762,3,1,0,7,60.045628
1815,-254,4,0,0,0,712.535278
1587,647,1,0,0,0,664.489136
-1283,1384,2,0,0,0,663.000305
-1055,-1148,3,0,0,0,717.636658
882,-90,4,0,0,0,921.269287
691,672,1,0,0,0,829.557983
-26,1704,2,0,0,0,692.163086
-149,-1928,3,0,0,0,656.043518
669,-1415,4,0,0,0,757.781860
1954,1123,1,0,0,0,586.518250
-691,1525,2,0,0,0,697.237610
-236,-281,3,1,0,7,60.045628
1301,-1212,4,0,0,0,721.203674
1348,241,1,1,0,3,106.059853
-198,1870,2,0,0,0,664.024414
-422,-1726,3,0,0,0,680.222534
1488,-302,4,1,0,3,106.059853
784,1024,1,0,0,0,745.906494
-1079,389,2,0,0,0,805.761169
-1920,-1551,3,1,0,7,60.045628
638,-1798,4,0,0,0,701.025940
1513,749,1,1,0,3,106.059853
-1413,882,2,1,0,7,60.045628
-1019,-1214,3,0,0,0,712.928040
28,-1037,4,1,0,7,60.045628
1812,812,1,0,0,0,622.506775
-518,396,2,1,0,7,60.045628
-282,-1073,3,0,0,0,815.328735
904,-657,4,1,0,3,106.059853
118,786,1,0,0,0,885.060425
-422,1943,2,0,0,0,648.103882
-1704,-240,3,0,0,0,689.385803
1306,-552,4,0,0,0,786.168030
324,521,1,0,0,0,959.629333
-384,1476,2,1,0,7,60.045628
-551,-648,3,1,0,7,60.045628
1283,-1723,4,0,0,0,667.085999
144,1756,1,0,0,0,656.588684
-1275,1528,2,0,0,0,647.848755
-317,-945,3,1,0,7,60.045628
1164,-1921,4,0,0,0,654.356018
401,1480,1,0,0,0,696.304565
-1950,834,2,0,0,0,629.703003
-392,-1102,3,1,0,7,60.045628
175,-881,4,1,0,7,60.045628
1665,849,1,1,0,3,106.059853
-463,1741,2,0,0,0,676.279602
-592,-522,3,0,0,0,913.325439
1301,-1047,4,0,0,0,739.187012
154,1728,1,0,0,0,661.005920
-135,1169,2,0,0,0,798.391174
-262,-905,3,0,0,0,862.343506
1282,-94,4,0,0,0,814.348633
87,1427,1,0,0,0,716.360596
-541,1850,2,0,0,0,656.970337
-1830,-483,3,0,0,0,662.174927
506,-731,4,1,0,7,60.045628
1582,424,1,0,0,0,677.449341
-581,1203,2,1,0,7,60.045628
-1966,-1738,3,0,0,0,569.241394
112,-1410,4,1,0,7,60.045628
579,1219,1,0,0,0,732.894287
-1179,1092,2,1,0,7,60.045628
-1875,-1197,3,0,0,0,616.119324
190,-1325,4,0,0,0,802.709717
1040,802,1,0,0,0,740.692627
-375,1282,2,1,0,7,60.045628
-224,-1684,3,0,0,0,693.065430
384,-792,4,0,0,0,923.355652
356,1164,1,0,0,0,762.497314
-231,488,2,0,0,0,1022.748047
-279,-769,3,0,0,0,903.011658
1938,-1501,4,0,0,0,629.431519
1477,1009,1,0,0,0,652.271423
-423,1458,2,0,0,0,725.278381
-1278,-123,3,0,0,0,773.358582
263,-426,4,0,0,0,1085.996338
1732,1216,1,1,0,3,106.059853
-961,1336,2,0,0,0,702.156616
-1730,-1187,3,0,0,0,632.782166
669,-969,4,0,0,0,839.572266
801,735,1,0,0,0,794.966187
-883,970,2,0,0,0,767.205750
-1983,-1655,3,1,0,7,60.045628
182,-1365,4,0,0,0,794.554504
877,1962,1,0,0,0,600.010437
-1679,548,2,0,0,0,681.945679
-821,-1631,3,1,0,7,60.045628
1854,-1953,4,0,0,0,602.691772
1551,1234,1,0,0,0,623.025146
-1167,1437,2,0,0,0,668.506775
-1840,-846,3,1,0,7,60.045628
1490,-958,4,1,0,3,106.059853
1056,1845,1,0,0,0,603.101074
-571,485,2,0,0,0,928.342896
-280,-1727,3,0,0,0,684.648804
1033,-534,4,0,0,0,843.173279
695,769,1,0,0,0,808.663696
-1094,1578,2,1,0,7,60.045628
-496,-1962,3,0,0,0,643.066223
254,-779,4,0,0,0,943.983093
1546,1111,1,0,0,0,634.493469
-1132,719,2,0,0,0,760.857605
-92,-1732,3,1,0,7,60.045628
1387,-1202,4,0,0,0,712.116821
24,303,1,1,0,3,106.059853
-1882,985,2,0,0,0,629.257385
-505,-1770,3,0,0,0,670.139709
213,-12,4,1,0,0,439.157715
1791,721,1,0,0,0,630.497986
-84,1119,2,1,0,7,60.045628
-955,-1778,3,0,0,0,643.839783
547,-1815,4,0,0,0,702.863342
1778,1414,1,0,0,0,584.263245
-233,1408,2,1,0,7,60.045628
-1533,-285,3,0,0,0,717.614014
1513,-1246,4,0,0,0,693.302002
242,1619,1,0,0,0,677.597229
-226,923,2,0,0,0,859.878784
-347,-753,3,1,0,7,60.045628
1517,-665,4,0,0,0,741.535645
877,756,1,0,0,0,776.851440
-1212,1770,2,0,0,0,626.454102
-1733,-1417,3,0,0,0,614.327209
709,-1498,4,1,0,7,60.045628
641,895,1,1,0,3,106.059853
-1209,320,2,0,0,0,780.899841
-492,-909,3,0,0,0,835.689880
760,-705,4,0,0,0,876.239563
1460,130,1,0,0,0,709.211548
-1361,554,2,0,0,0,734.623901
-341,-1109,3,0,0,0,802.456726
1334,-1937,4,0,0,0,641.226624
1948,1030,1,0,0,0,592.905457
-759,1898,2,0,0,0,640.204773
-527,-1370,3,0,0,0,734.930237
1754,-33,4,0,0,0,725.060059
561,103,1,0,0,0,980.646851
-711,356,2,0,0,0,911.189209
-1382,-1835,3,1,0,7,60.045628
1163,-1907,4,0,0,0,655.946716
1878,1272,1,1,0,3,106.059853
-742,757,2,0,0,0,828.435730
-236,-1787,3,0,0,0,676.120422
1297,-1717,4,0,0,0,666.607727
1199,1337,1,0,0,0,651.135803
-1676,1503,2,0,0,0,612.724243
-27,-583,3,0,0,0,1000.304626
97,-61,4,1,0,0,702.241150
609,1332,1,0,0,0,709.437988
-1389,860,2,0,0,0,704.259705
-1289,-257,3,0,0,0,766.624207
1115,-1344,4,0,0,0,726.372131
1983,1672,1,1,0,3,106.059853
-1739,1512,2,0,0,0,606.085876
-682,-1645,3,0,0,0,679.590576
1073,-611,4,0,0,0,825.914368
210,991,1,0,0,0,815.262573
-461,1265,2,0,0,0,759.715881
-494,-689,3,0,0,0,892.725586
521,-1155,4,0,0,0,818.487793
81,1393,1,0,0,0,723.319336
-70,513,2,0,0,0,1034.829590
-801,-1528,3,0,0,0,688.655029
610,-1162,4,0,0,0,808.385925
404,1340,1,1,0,3,106.059853
-666,129,2,1,0,7,60.045628
-1806,-533,3,0,0,0,663.636047
1165,-809,4,0,0,0,786.070374
89,758,1,0,0,0,896.742615
-1151,645,2,0,0,0,765.527161
-1711,-1340,3,0,0,0,622.750854
1485,-1260,4,0,0,0,695.133545
1873,1993,1,0,0,0,531.837769
-658,607,2,0,0,0,877.055786
-1230,-1416,3,0,0,0,664.759094
1889,-37,4,0,0,0,703.812500
502,1528,1,0,0,0,682.643982
-1963,432,2,0,0,0,645.010803
-716,-401,3,0,0,0,902.098999
1391,-545,4,0,0,0,771.152710
1946,638,1,0,0,0,613.716309
-1656,1784,2,1,0,7,60.045628
-1339,-1628,3,0,0,0,631.447449
1019,-935,4,0,0,3,106.059853
154,242,1,0,0,0,1178.855469
-1405,1691,2,0,0,0,619.463074
-1229,-468,3,0,0,0,766.466858
1558,-1479,4,0,0,0,667.086243
1008,1690,1,1,0,3,106.059853
-1861,605,2,1,0,7,60.045628
-831,-1782,3,1,0,7,60.045628
937,-1336,4,0,0,0,745.815308
990,1470,1,1,0,3,106.059853
-76,1862,2,0,0,0,666.603455
-304,-274,3,1,0,7,60.045628
1924,-881,4,0,0,0,671.388000
838,1431,1,1,0,3,106.059853
-329,539,2,0,0,0,977.591248
-1051,-1515,3,0,0,0,669.638733
556,-1811,4,0,0,0,703.045654
1186,1413,1,0,0,0,643.473022
-890,67,2,1,0,7,60.045628
-1970,-1105,3,0,0,0,611.774963
1130,-86,4,0,0,0,850.590088
1957,139,1,1,0,3,106.059853
-1906,126,2,0,0,0,659.547546
-1787,-71,3,0,0,0,678.366455
313,-1148,4,0,0,0,836.559326
1126,148,1,0,0,0,782.408691
-548,356,2,0,0,0,967.718689
-847,-1494,3,0,0,0,689.955811
1101,-1851,4,0,0,0,666.358032
743,1915,1,1,0,3,106.059853
-1130,301,2,0,0,0,800.196167
-615,-142,3,0,0,0,977.726440
467,-502,4,1,0,3,106.059853
458,698,1,0,0,0,870.912048
-1293,609,2,0,0,0,742.578308
-1360,-998,3,1,0,7,60.045628
663,-214,4,1,0,3,106.059853
1142,1715,1,0,0,0,611.983276
-561,976,2,0,0,0,811.134094
-1853,-2,3,0,0,0,668.225647
551,-1061,4,1,0,7,60.045628
104,1325,1,0,0,0,737.271912
-1167,1265,2,0,0,0,689.342590
-940,-211,3,0,0,0,855.931335
1236,-1793,4,0,0,0,663.186462
779,1404,1,1,0,3,106.059853
-943,588,2,0,0,0,814.845886
-577,-613,3,0,0,0,894.755066
1889,-1951,4,1,0,7,60.045628
959,1651,1,0,0,0,633.668457
-268,655,2,0,0,0,944.748657
-1441,-165,3,0,0,0,738.360168
1607,-1398,4,1,0,3,106.059853
366,839,1,0,0,0,844.417114
-1268,173,2,1,0,7,60.045628
-448,-619,3,0,0,0,922.656799
517,-1185,4,0,0,0,812.691956
1488,946,1,0,0,0,656.368713
-1411,1133,2,0,0,0,675.001038
-905,-1962,3,0,0,0,624.407898
1307,-375,4,0,0,0,798.197571
1961,454,1,0,0,0,618.627686
-1866,1058,2,0,0,0,626.470398
-1474,-1942,3,0,0,0,590.077576
354,-27,4,0,0,0,1185.128540
229,1329,1,0,0,0,733.092773
-1327,1467,2,0,0,0,649.566040
-1899,-735,3,0,0,0,641.302795
915,-564,4,1,0,3,106.059853
521,794,1,0,0,0,833.829468
-856,706,2,0,0,0,815.291382
-1041,-780,3,0,0,0,769.604309
769,-106,4,0,0,0,959.550598
1020,399,1,1,0,3,106.059853
-1428,1049,2,1,0,7,60.045628
-762,-592,3,1,0,7,60.045628
1489,-747,4,0,0,0,739.892212
1808,1537,1,0,0,0,571.903259
-152,605,2,1,0,7,60.045628
-637,-1425,3,0,0,0,717.315002
643,-1581,4,0,0,0,732.939148
1443,77,1,0,0,0,713.290405
-1385,511,2,0,0,0,733.295044
-158,-387,3,0,0,0,1096.536377
39,-851,4,0,0,0,932.766296
102,1289,1,0,0,0,745.158875
-1214,651,2,0,0,0,753.151123
-513,-1503,3,0,0,0,712.357910
1094,-759,4,0,0,0,804.226318
1398,1999,1,1,0,3,106.059853
-1284,1007,2,0,0,0,704.593262
-1321,-1637,3,1,0,7,60.045628
858,-1100,4,1,0,7,60.045628
901,1587,1,0,0,0,646.556763
-186,955,2,0,0,0,853.091309
-946,-622,3,0,0,0,809.498230
1831,-1225,4,0,0,0,659.893188
1126,641,1,1,0,3,106.059853
-1481,1669,2,0,0,0,615.245728
-1996,-432,3,0,0,0,640.472778
365,-57,4,0,0,0,1173.662964
1072,391,1,0,0,0,781.047180
-142,1529,2,0,0,0,722.000916
-98,-1041,3,0,0,0,832.370911
796,-1899,4,0,0,0,679.197998
991,248,1,1,0,3,106.059853
-794,768,2,0,0,0,816.571350
-220,-635,3,1,0,7,60.045628
134,-1367,4,0,0,0,795.291565
1338,674,1,0,0,0,702.951111
-940,1821,2,0,0,0,639.485046
-823,-104,3,0,0,0,898.992249
1726,-1568,4,1,0,7,60.045628
845,607,1,0,0,0,807.585754
-203,151,2,1,0,0,332.027618
-945,-1829,3,0,0,0,638.179871
1292,-600,4,0,0,0,784.822266
1605,1635,1,0,0,0,581.851501
-1693,763,2,0,0,0,667.610779
-347,-1993,3,0,0,0,643.170898
692,-782,4,0,0,0,874.143677
913,416,1,0,0,0,818.028870
-395,1624,2,0,0,0,697.733887
-890,-1695,3,0,0,0,658.906982
1775,-194,4,0,0,0,719.997925
1465,1717,1,0,0,0,586.098267
-1067,1574,2,0,0,0,660.834839
-1923,-814,3,0,0,0,634.127014
200,-1123,4,0,0,0,848.716736
1733,1510,1,0,0,0,580.932922
-1519,1841,2,0,0,0,596.109863
-1179,-1671,3,0,0,0,640.075562
947,-426,4,0,0,0,875.750305
1352,1230,1,0,0,0,646.110718
-1457,1994,2,0,0,0,586.430054
-698,-1927,3,0,0,0,639.454468
1851,-1009,4,0,0,0,672.466003
842,1351,1,1,0,3,106.059853
-354,1749,2,1,0,7,60.045628
-1732,-882,3,1,0,7,60.045628
968,-114,4,0,0,0,893.981567
1497,1645,1,1,0,3,106.059853
-1751,1288,2,0,0,0,622.695801
-388,-391,3,1,0,7,60.045628
157,-1706,4,1,0,7,60.045628
1497,102,1,1,0,3,106.059853
-1501,166,2,0,0,0,726.787109
-1033,-508,3,1,0,7,60.045628
1772,-1704,4,1,0,7,60.045628
956,1836,1,1,0,3,106.059853
-488,1870,2,0,0,0,656.208984
-958,-664,3,0,0,0,801.128784
1349,-1705,4,0,0,0,663.660645
1606,1268,1,0,0,0,613.950684
-916,1305,2,0,0,0,711.232117
-1667,-1125,3,0,0,0,644.851440
125,-915,4,0,0,0,909.518005
1794,1925,1,0,0,0,542.714111
-247,1153,2,0,0,0,797.808044
-232,-939,3,0,0,0,854.784790
1715,-575,4,1,0,3,106.059853
1245,1901,1,0,0,0,584.177063
-160,583,2,0,0,0,990.147827
-833,-1277,3,1,0,7,60.045628
257,-1820,4,0,0,0,711.697388
721,1453,1,0,0,0,680.218018
-1892,1852,2,0,0,0,566.721619
-698,-636,3,1,0,7,60.045628
1642,-121,4,0,0,0,743.255859
192,17,1,0,0,0,1293.539429
-1104,1370,2,0,0,0,683.032837
-1048,-1744,3,0,0,0,641.529724
470,-252,4,0,0,0,1067.777222
1385,266,1,0,0,0,720.263000
-1425,1573,2,0,0,0,629.484558
-850,-171,3,0,0,0,886.266235
1964,-302,4,0,0,0,689.378296
1054,738,1,0,0,0,746.569763
-329,391,2,0,0,0,1038.614746
-1184,-1440,3,1,0,7,60.045628
1970,-1156,4,0,0,0,649.569519
912,731,1,0,0,0,774.152161
-761,1094,2,0,0,0,762.658936
-281,-770,3,0,0,0,902.440491
1602,-1601,4,0,0,0,651.986328
1295,211,1,0,0,0,740.963745
-1385,802,2,0,0,0,710.146240
-377,-506,3,0,0,0,977.807434
1791,-528,4,0,0,0,707.190186
382,1058,1,0,0,0,785.162659
-1311,1840,2,1,0,7,60.045628
-1052,-680,3,0,0,0,780.439575
422,-246,4,0,0,0,1093.097656
1531,1594,1,1,0,3,106.059853
-647,103,2,0,0,0,966.985596
-138,-1913,3,0,0,0,658.382263
874,-1687,4,1,0,7,60.045628
1763,65,1,1,0,3,106.059853
-1531,1951,2,0,0,0,585.238464
-1769,-11,3,1,0,7,60.045628
432,-1289,4,0,0,0,798.254089
1918,1531,1,0,0,0,562.397827
-1908,1040,2,1,0,7,60.045628
-280,-629,3,0,0,0,952.673889
1651,-1226,4,0,0,0,679.567444
558,1754,1,1,0,3,106.059853
-1424,1919,2,1,0,7,60.045628
-1410,-1710,3,0,0,0,617.164978
1059,-561,4,0,0,0,834.508911
40,1521,1,0,0,0,698.522644
-1327,1671,2,0,0,0,627.968384
-1115,-1012,3,1,0,7,60.045628
858,-1555,4,0,0,0,721.537476
1981,1240,1,0,0,0,576.224243
-661,1929,2,1,0,7,60.045628
-1389,-188,3,0,0,0,748.167603
1380,-1295,4,0,0,0,703.342468
1560,159,1,0,0,0,689.897034
-432,1321,2,0,0,0,750.598206
-1130,-235,3,1,0,7,60.045628
77,-192,4,0,0,0,1340.951904
498,1331,1,0,0,0,718.076599
-1307,356,2,0,0,0,757.966125
-349,-1151,3,0,0,0,792.116516
1272,-1031,4,0,0,0,744.844604
27,1048,1,0,0,0,805.403687
-1545,706,2,1,0,7,60.045628
-1575,-1426,3,0,0,0,629.195801
1626,-1012,4,0,0,0,699.922485
575,301,1,0,0,0,943.425293
-1490,917,2,0,0,0,684.646240
-161,-393,3,1,0,7,60.045628
1478,-204,4,0,0,0,771.526794
671,1940,1,0,0,0,613.043762
-897,860,2,0,0,0,782.736694
-858,-1300,3,0,0,0,717.918091
0,-549,4,0,0,0,1059.408203
1854,90,1,0,0,0,641.713562
-231,921,2,0,0,0,860.102234
-1591,-818,3,0,0,0,678.277527
10,-449,4,1,0,7,60.045628
1822,890,1,1,0,3,106.059853
-1517,268,2,0,0,0,721.085632
-1603,-1468,3,0,0,0,622.705322
1719,-1318,4,1,0,3,106.059853
554,1021,1,1,0,3,106.059853
-1263,1634,2,0,0,0,637.279419
-1940,-477,3,0,0,0,646.746704
729,-453,4,1,0,3,106.059853
742,785,1,1,0,3,106.059853
-193,1809,2,0,0,0,673.476501
-444,-879,3,0,0,0,849.614441
1072,-1863,4,0,0,0,666.927185
1921,269,1,0,0,0,629.163818
-932,470,2,1,0,7,60.045628
-1200,-749,3,0,0,0,745.539124
827,-1089,4,0,0,7,60.045628
1455,1788,1,0,0,0,580.115051
-254,979,2,0,0,0,841.934265
-1725,-1656,3,0,0,0,595.579712
1253,-513,4,0,0,0,799.422668
936,1215,1,0,0,0,696.236450
-1728,202,2,0,0,0,686.253296
-1677,-1865,3,0,0,0,582.043701
1310,-1068,4,0,0,0,735.736755
1025,1554,1,1,0,3,106.059853
-519,1746,2,0,0,0,673.125000
-763,-700,3,1,0,7,60.045628
1842,-772,4,0,0,0,687.920227
1193,645,1,0,0,0,731.478577
-382,1921,2,0,0,0,652.396484
-601,-1548,3,0,0,0,699.585022
200,-571,4,0,0,0,1031.396118
512,1831,1,0,0,0,634.876465
-1457,1880,2,0,0,0,597.094910
-1338,-1032,3,0,0,0,694.598816
1836,-1434,4,1,0,3,106.059853
1340,283,1,1,0,3,106.059853
-1737,92,2,0,0,0,686.307556
-9,-560,3,1,0,7,60.045628
1020,-456,4,0,0,0,854.676086
1567,1564,1,0,0,0,591.568420
-352,1947,2,0,0,0,649.504333
-1792,-1484,3,1,0,7,60.045628
1201,-1999,4,0,0,0,643.647400
613,587,1,0,0,0,866.165222
-1137,1463,2,0,0,0,668.245239
-392,-301,3,0,0,0,1048.235596
1227,-1774,4,0,0,0,665.920898
715,738,1,1,0,3,106.059853
-520,1495,2,0,0,0,713.312561
-1889,-1253,3,1,0,7,60.045628
1346,-321,4,0,0,0,793.166504
395,1684,1,0,0,0,661.853821
-1420,1279,2,0,0,0,659.409607
-1357,-776,3,0,0,0,716.890686
1791,-182,4,0,0,0,717.656067
219,1812,1,0,0,0,646.516663
-1266,1776,2,0,0,0,621.735657
-1437,-1558,3,0,0,0,629.884155
325,-728,4,0,0,0,951.866028
1622,558,1,0,0,0,664.242737
-504,768,2,0,0,0,869.630676
-920,-1056,3,0,0,0,748.396423
1328,-1269,4,0,0,0,711.888367
59,152,1,0,0,0,1341.820923
-1145,1745,2,1,0,7,60.045628
-1530,-1768,3,0,0,0,601.960083
1062,-1995,4,0,0,0,652.592529
239,1979,1,0,0,0,621.396606
-1875,1082,2,0,0,0,623.863647
-1044,-1692,3,0,0,0,648.122925
1043,-1913,4,0,0,0,663.039917
994,660,1,1,0,3,106.059853
-577,1339,2,0,0,0,736.858276
-645,-969,3,1,0,7,60.045628
1860,-1700,4,1,0,7,60.045628
1786,698,1,0,0,0,632.442017
-634,835,2,0,0,0,831.597290
-92,-622,3,0,0,0,978.830688
881,-1804,4,0,0,0,686.435425
1050,1134,1,0,0,0,694.054810
-1348,1086,2,1,0,7,60.045628
-770,-162,3,0,0,0,914.207397
1017,-816,4,0,0,3,106.059853
227,258,1,0,0,0,1126.742310
-57,1174,2,0,0,0,798.729980
-716,-1269,3,0,0,0,737.049744
734,-1345,4,1,0,7,60.045628
1067,1560,1,1,0,3,106.059853
-1474,631,2,0,0,0,709.621399
-1434,-1886,3,0,0,0,598.200867
95,-1837,4,0,0,0,711.479492
138,1938,1,0,0,0,628.699402
-313,1160,2,0,0,0,792.417908
-546,-686,3,0,0,0,883.052490
1556,-1741,4,1,0,7,60.045628
315,586,1,0,0,0,936.288025
-1523,631,2,0,0,0,701.667236
-684,-921,3,1,0,7,60.045628
622,-1201,4,1,0,7,60.045628
785,941,1,0,0,0,760.565613
-42,974,2,0,0,0,852.511963
-956,-258,3,0,0,0,848.032349
1661,-651,4,0,0,0,720.247131
1753,1575,1,1,0,3,106.059853
-254,800,2,0,0,0,895.606934
-1473,-1395,3,0,0,0,642.361328
1120,-1647,4,1,0,7,60.045628
441,1169,1,0,0,0,755.004150
-1625,1206,2,1,0,7,60.045628
-918,-1256,3,0,0,0,718.266907
650,-978,4,0,0,0,840.356384
827,989,1,1,0,3,106.059853
-975,1860,2,1,0,7,60.045628
-1732,-1381,3,1,0,7,60.045628
1553,-1547,4,0,0,0,661.317444
528,1140,1,1,0,3,106.059853
-1585,455,2,0,0,0,701.584778
-1505,-80,3,0,0,0,727.362244
146,-1673,4,0,0,0,737.579712
1030,890,1,1,0,3,106.059853
-34,1914,2,0,0,0,658.929016
-1882,-764,3,0,0,0,642.020142
355,-1134,4,0,0,0,836.955261
539,1242,1,1,0,3,106.059853
-36,909,2,1,0,3,106.059853
-1093,-1794,3,1,0,7,60.045628
1889,-1219,4,0,0,0,654.097290
1000,362,1,0,0,0,801.277466
-1223,1941,2,0,0,0,607.350647
-48,-1571,3,1,0,7,60.045628
371,-1773,4,0,0,0,715.882446
746,312,1,0,0,0,880.101624
-1068,195,2,0,0,0,821.559204
-225,-183,3,0,0,0,1201.972290
343,-1179,4,0,0,0,827.522766
1839,1737,1,0,0,0,553.834717
-420,880,2,0,0,0,852.457397
-1993,-1998,3,0,0,0,548.689514
829,-830,4,1,0,3,106.059853
699,1270,1,1,0,3,106.059853
-1884,679,2,0,0,0,646.056091
-164,-613,3,0,0,0,976.187805
1634,-1363,4,0,0,0,669.807922
214,898,1,0,0,0,841.978699
-741,552,2,0,0,0,867.944336
-1600,-370,3,0,0,0,702.766235
201,-201,4,0,0,0,1249.261963
114,1234,1,0,0,0,757.348206
-869,1714,2,0,0,0,657.827026
-1632,-243,3,0,0,0,701.415222
1168,-1171,4,0,0,0,741.956970
1929,1151,1,0,0,0,587.453918
-691,886,2,0,0,0,811.681580
-528,-95,3,0,0,0,1024.587036
158,-1823,4,0,0,0,712.981689
262,1457,1,0,0,0,706.374390
-1291,678,2,0,0,0,736.823486
-827,-84,3,1,0,7,60.045628
1760,-476,4,1,0,3,106.059853
1733,253,1,0,0,0,658.299255
-351,496,2,0,0,0,988.684937
-1371,-1834,3,1,0,7,60.045628
1932,-289,4,1,0,3,106.059853
709,1350,1,0,0,0,697.897095
-1185,512,2,0,0,0,771.802734
-1168,-1844,3,0,0,0,621.507629
832,-1995,4,1,0,7,60.045628
747,1477,1,0,0,0,674.441833
-648,660,2,1,0,7,60.045628
-397,-1283,3,0,0,0,760.434448
871,-1712,4,0,0,0,699.083374
321,750,1,1,0,3,106.059853
-248,1156,2,0,0,0,797.043152
-1333,-412,3,0,0,0,749.490784
1749,-1469,4,0,0,0,649.577026
1690,1652,1,0,0,0,573.064941
-284,1303,2,0,0,0,762.456238
-925,-1993,3,0,0,0,619.634521
1939,-1639,4,0,0,0,619.432556
1372,100,1,1,0,3,106.059853
-1923,1148,2,0,0,0,614.195251
-1837,-688,3,0,0,0,651.960266
248,-630,4,0,0,0,998.963257
1017,444,1,0,0,0,789.059631
-765,1881,2,0,0,0,642.097290
-1432,-368,3,1,0,7,60.045628
713,-1971,4,0,0,0,674.117737
753,1353,1,0,0,0,693.506836
-1061,1782,2,0,0,0,636.077637
-27,-1011,3,0,0,0,841.949402
107,-869,4,0,0,0,924.871277
1286,118,1,0,0,0,745.519958
-1666,826,2,1,0,7,60.045628
-1421,-1917,3,0,0,0,596.172668
1032,-43,4,1,0,3,106.059853
956,950,1,0,0,0,733.270081
-1271,575,2,0,0,0,749.532593
-1320,-152,3,0,0,0,763.506226
1084,-334,4,0,0,0,850.330750
1691,1060,1,0,0,0,621.056091
-336,395,2,0,0,0,1034.372314
-1742,-1332,3,0,0,0,620.192505
756,-58,4,1,0,3,106.059853
557,643,1,0,0,0,865.495483
-1354,5,2,0,0,0,758.094727
-248,-1880,3,0,0,0,661.629517
1268,-26,4,0,0,0,818.216309
1392,1766,1,0,0,0,587.156921
-1134,1503,2,1,0,7,60.045628
-587,-710,3,0,0,0,868.809509
1106,-1943,4,0,0,0,655.681946
743,721,1,1,0,3,106.059853
-1131,670,2,0,0,0,766.583374
-1344,-759,3,0,0,0,720.525269
144,-1062,4,0,0,0,866.660767
203,472,1,0,0,0,1010.756958
-707,991,2,0,0,0,788.649780
-411,-1468,3,0,0,0,724.085999
1324,-54,4,1,0,3,106.059853
890,1501,1,1,0,3,106.059853
-1142,1147,2,1,0,7,60.045628
-977,-100,3,0,0,0,850.394958
824,-253,4,1,0,3,106.059853
41,1993,1,0,0,0,621.390625
-1733,310,2,0,0,0,682.863037
-631,-1511,3,0,0,0,703.597717
1493,-810,4,0,0,0,734.317139
556,356,1,0,0,0,938.501587
-687,1432,2,0,0,0,712.334229
-1266,-992,3,0,0,0,708.733765
149,-842,4,0,0,0,931.689819
1809,1389,1,0,0,0,583.138245
-1521,1616,2,0,0,0,616.797607
-1967,-675,3,0,0,0,635.302063
758,-1367,4,0,0,0,758.165283
1693,827,1,1,0,3,106.059853
-384,183,2,0,0,0,1091.499023
-374,-407,3,0,0,0,1015.976746
1592,-1352,4,0,0,0,675.124817
885,695,1,0,0,0,785.053406
-1675,154,2,0,0,0,695.904602
-492,-395,3,0,0,0,977.834778
1371,-91,4,0,0,0,795.194397
1446,1024,1,0,0,0,654.978333
-1526,461,2,0,0,0,711.281921
-1494,-764,3,0,0,0,696.594482
1495,-1667,4,0,0,0,655.242126
1931,1659,1,0,0,0,552.038513
-334,1712,2,1,0,7,60.045628
-375,-1650,3,0,0,0,694.205688
1478,-1633,4,0,0,0,659.952393
51,393,1,0,0,0,1085.631592
-10,1423,2,0,0,0,743.826599
-319,-1924,3,0,0,0,653.615417
1525,-1522,4,0,0,0,666.243591
1027,621,1,0,0,0,766.551575
-1976,399,2,0,0,0,644.174011
-1069,-1475,3,0,0,0,673.102905
421,-329,4,0,0,0,1067.231567
547,1965,1,0,0,0,614.857910
-1401,835,2,1,0,7,60.045628
-1694,-1158,3,1,0,7,60.045628
1059,-419,4,0,0,0,849.169128
1266,1798,1,0,0,0,593.492798
-1405,1953,2,1,0,7,60.045628
-308,-733,3,1,0,7,60.045628
1914,-1359,4,0,0,0,641.775208
1149,261,1,1,0,3,106.059853
-1733,1584,2,0,0,0,600.779846
-1853,-1079,3,0,0,0,626.577942
471,-1579,4,1,0,7,60.045628
728,924,1,1,0,3,106.059853
-590,1256,2,0,0,0,751.046387
-1353,-858,3,0,0,0,709.847839
865,1399,1,0,0,0,676.232910
-1888,1834,2,1,0,7,60.045628
-669,-1650,3,0,0,0,679.639282
400,1771,1,0,0,0,648.017395
-267,1943,2,0,0,0,652.011414
-370,-753,3,0,0,0,895.731384
1116,302,1,0,0,0,777.281128
-319,1303,2,0,0,0,760.763245
-1082,-713,3,0,0,0,770.710571
265,950,1,0,0,0,822.954285
-1201,1356,2,0,0,0,674.716248
-1555,-678,3,0,0,0,693.478699
1079,362,1,1,0,3,106.059853
-1405,186,2,1,0,7,60.045628
-446,-1659,3,0,0,0,689.870850
501,1057,1,0,0,0,773.926941
-293,1773,2,0,0,0,676.989258
-536,-1373,3,0,0,0,733.750916
1496,1835,1,1,0,3,106.059853
-1998,961,2,1,0,7,60.045628
-750,-1952,3,1,0,7,60.045628
752,1369,1,0,0,0,691.019470
-1095,1928,2,0,0,0,617.049011
-1209,-1134,3,1,0,7,60.045628
1120,805,1,0,0,0,726.639526
-1866,160,2,0,0,0,665.182129
-1941,-89,3,1,0,7,60.045628
1504,1423,1,0,0,0,610.598267
-1786,804,2,0,0,0,652.394958
-1195,-258,3,1,0,7,60.045628
888,668,1,0,0,0,788.670227
-1748,1058,2,0,0,0,640.328491
-763,-1890,3,1,0,7,60.045628
1296,1888,1,1,0,3,106.059853
-1758,304,2,0,0,0,679.058105
-1738,-1016,3,0,0,0,644.556274
1714,345,1,0,0,0,658.787598
-182,808,2,0,0,0,899.444519
-440,-741,3,0,0,0,888.011780
144,1065,1,0,0,0,798.270264
-1064,1925,2,0,0,0,619.339050
-1550,-1715,3,0,0,0,605.193176
1297,1785,1,1,0,3,106.059853
-1147,1651,2,0,0,0,644.961182
-1128,-936,3,0,0,0,735.339783
439,935,1,0,0,0,809.662659
-1842,330,2,0,0,0,665.414001
-1378,-640,3,0,0,0,725.042725
350,1979,1,0,0,0,619.074341
-1015,-848,3,1,0,7,60.045628
1335,628,1,0,0,0,707.350159
-1547,-1949,3,0,0,0,584.286133
426,1393,1,0,0,0,710.994080
-1566,-1541,3,1,0,7,60.045628
148,743,1,1,0,3,106.059853
-1731,-1490,3,0,0,0,608.618591
715,1786,1,0,0,0,631.514221
-1165,-1038,3,0,0,0,717.416687
-1908,-297,3,0,0,0,656.452759
-445,-607,3,0,0,0,927.012390
-722,-1561,3,0,0,0,689.541138


each generation good chromosome number
4,4,6,