each times' max average throughput
619.200806,0.000000,0.000000,0.000000,0.000000,0.000000,0.000000,0.000000,0.000000,0.000000,0.000000,0.000000,0.000000,0.000000,0.000000,0.000000,0.000000,0.000000,607.855652,628.397644,0.000000,0.000000,0.000000,0.000000,613.529297,0.000000,0.000000,0.000000,583.864746,567.472778,622.474915,583.782898,575.304199,0.000000,0.000000,0.000000,0.000000,0.000000,0.000000,0.000000,0.000000,0.000000,0.000000,589.431702,0.000000,0.000000,0.000000,0.000000,0.000000,0.000000,0.000000,614.208252,0.000000,0.000000,0.000000,0.000000,0.000000,0.000000,0.000000,0.000000,596.291992,616.918945,0.000000,0.000000,0.000000,0.000000,0.000000,0.000000,0.000000,0.000000,0.000000,0.000000,0.000000,0.000000,0.000000,0.000000,0.000000,591.254822,0.000000,0.000000,603.600525,630.580261,0.000000,0.000000,0.000000,0.000000,0.000000,0.000000,0.000000,0.000000,0.000000,0.000000,0.000000,0.000000,0.000000,0.000000,0.000000,0.000000,0.000000,0.000000,
avg. throughput in all test times
96.441689
avg. BS TX power in all test times
MBS area 1,MBS area 2,MBS area 3,MBS area 4,CBSD 1,CBSD 2,CBSD 3,CBSD 4,CBSD 5,CBSD 6,CBSD 7,CBSD 8,CBSD 9,CBSD 10,CBSD 11,CBSD 12,CBSD 13,CBSD 14,CBSD 15,CBSD 16,CBSD 17,CBSD 18,CBSD 19,CBSD 20,CBSD 21,CBSD 22,CBSD 23,CBSD 24,CBSD 25,CBSD 26,CBSD 27,CBSD 28,CBSD 29,
7.525,8.363,9.100,8.100,0.009,0.000,0.168,0.005,0.190,0.116,0.303,0.185,0.301,0.201,0.246,0.203,0.188,0.183,0.050,0.016,0.087,0.117,0.199,0.106,0.016,0.207,0.084,0.196,0.120,0.117,0.090,0.129,0.000,
avg. mbs all power,avg. cbsd enable number,avg. mbs area all power,avg. cbsd all power
70.963,5.000,33.088,3.832
avg. max avg. throughput generation number in all test times
6.170000
avg. number of relay UE
265

the max average throughput times

BS TX power
MBS area 1,MBS area 2,MBS area 3,MBS area 4,CBSD 1,CBSD 2,CBSD 3,CBSD 4,CBSD 5,CBSD 6,CBSD 7,CBSD 8,CBSD 9,CBSD 10,CBSD 11,CBSD 12,CBSD 13,CBSD 14,CBSD 15,CBSD 16,CBSD 17,CBSD 18,CBSD 19,CBSD 20,CBSD 21,CBSD 22,CBSD 23,CBSD 24,CBSD 25,CBSD 26,CBSD 27,CBSD 28,CBSD 29,
8.750,8.750,10.000,8.750,0.000,0.000,0.000,0.000,0.000,0.000,0.000,0.000,1.000,0.625,0.000,0.000,0.000,0.875,0.000,0.000,0.000,0.000,0.625,0.000,0.000,0.000,0.000,1.000,0.000,0.000,0.000,0.000,0.000,
max average throughput
630.580261

x,y,area,be blocked (1 : NLOS / 0 : LOS),be blocked number (>=1 : CBSD(x) / 0 : no),connect bs number (>=1 : CBSD / 0 : MBS),throughput (unit : M bps)
967,478,1,0,0,0,845.581116
-1620,1398,2,1,0,9,96.109474
-267,-1127,3,0,0,0,844.329651
1424,-1999,4,0,0,0,610.076782
796,1416,1,0,0,0,727.976135
-218,1657,2,0,0,0,719.821167
-1422,-1886,3,1,0,24,102.549393
1307,-524,4,0,0,0,768.970703
555,44,1,1,0,10,173.956253
-388,1929,2,0,0,0,673.098145
-1336,-941,3,1,0,24,102.549393
1806,-1823,4,0,0,0,597.421875
144,1821,1,0,0,0,694.357239
-1686,1043,2,0,0,0,670.941956
-1175,-1974,3,0,0,0,647.936462
634,-823,4,1,0,19,154.774841
877,315,1,0,0,0,887.697693
-636,609,2,0,0,0,904.003235
-446,-1594,3,0,0,0,741.732422
168,-171,4,0,0,0,1279.163452
1718,1555,1,0,0,0,626.435120
-1422,1335,2,0,0,0,675.603394
-483,-712,3,1,0,24,102.549393
81,-1387,4,1,0,24,102.549393
867,556,1,0,0,0,858.882507
-1688,642,2,1,0,9,129.483002
-80,-133,3,0,0,0,1423.846069
752,-1073,4,1,0,19,154.774841
432,1324,1,1,0,14,159.029495
-1751,1954,2,1,0,9,71.452301
-1615,-948,3,0,0,0,706.352234
977,-567,4,1,0,19,154.774841
1079,832,1,0,0,0,778.425964
-1661,450,2,0,0,0,711.441956
-1001,-1055,3,0,0,0,778.876831
363,-861,4,0,0,0,886.914673
1646,213,1,0,0,0,721.809387
-1962,927,2,0,0,0,645.148804
-1348,-230,3,0,0,0,796.564514
1855,-687,4,0,0,0,671.577820
978,539,1,0,0,0,835.620117
-76,782,2,0,0,0,936.839966
-740,-1088,3,1,0,24,102.549393
590,-137,4,0,0,0,1011.822205
955,641,1,1,0,10,339.005768
-1685,141,2,1,0,24,102.549393
-1156,-382,3,1,0,24,102.549393
132,-799,4,0,0,0,928.119690
1001,447,1,0,0,0,840.929993
-273,1312,2,0,0,0,783.191895
-1523,-1531,3,0,0,0,665.587158
1093,-416,4,0,0,0,822.333679
1292,387,1,0,0,0,781.351440
-1910,314,2,1,0,24,102.549393
-1844,-1136,3,0,0,0,664.752075
452,-1954,4,0,0,0,667.637146
418,243,1,0,0,0,1076.790649
-1170,722,2,0,0,0,775.841125
-101,-1807,3,0,0,0,716.132629
1056,-1640,4,0,0,0,675.587585
1590,556,1,0,0,0,717.578552
-1565,1344,2,1,0,9,100.415413
-1181,-1557,3,1,0,24,102.549393
662,-1946,4,0,0,0,660.613831
272,1735,1,1,0,14,159.029495
-1319,438,2,0,0,0,772.728455
-676,-857,3,0,0,0,861.390198
879,-140,4,0,0,0,900.905029
1510,1734,1,0,0,0,628.645142
-195,812,2,1,0,14,159.029495
-1311,-1758,3,0,0,0,661.190491
1315,-1116,4,1,0,19,154.774841
846,276,1,0,0,0,900.968567
-1027,817,2,1,0,9,163.662811
-197,-1410,3,0,0,0,784.989075
823,-717,4,0,0,0,842.179382
630,1908,1,0,0,0,667.107361
-806,1450,2,0,0,0,721.942017
-977,-1403,3,0,0,0,732.451294
1584,-1678,4,0,0,0,627.628418
211,1530,1,0,0,0,742.443726
-329,435,2,0,0,0,1042.051636
-1720,-735,3,1,0,24,102.549393
884,-792,4,0,0,0,818.085449
1204,1885,1,0,0,0,636.512024
-1564,78,2,0,0,0,738.485168
-986,-716,3,0,0,0,829.717896
1011,-1912,4,0,0,0,646.087952
1143,1558,1,0,0,0,678.277283
-1094,161,2,0,0,0,838.444519
-1851,-273,3,0,0,0,706.605530
1102,-806,4,0,0,0,777.841187
1469,194,1,0,0,0,754.340149
-573,298,2,0,0,0,993.315613
-654,-206,3,0,0,0,995.316040
1129,-1400,4,0,0,0,698.806274
303,1231,1,0,0,0,799.141663
-642,1836,2,0,0,0,676.404175
-1122,-1433,3,0,0,0,714.526733
1786,-497,4,0,0,0,690.131226
1390,898,1,0,0,0,722.653687
-1200,1186,2,0,0,0,717.106873
-1863,-67,3,1,0,24,102.549393
1841,-755,4,0,0,0,669.896484
1646,1334,1,1,0,14,159.029495
-330,483,2,0,0,0,1021.860474
-128,-1354,3,1,0,24,102.549393
1200,-980,4,0,0,0,741.546021
1000,509,1,0,0,0,834.234009
-394,156,2,0,0,0,1114.826172
-102,-869,3,0,0,0,925.067871
68,-1898,4,1,0,24,102.549393
943,1767,1,1,0,14,159.029495
-931,1464,2,1,0,9,99.945244
-869,-1109,3,0,0,0,787.987305
1448,-116,4,1,0,19,154.774841
1642,1199,1,0,0,0,663.736877
-1985,665,2,0,0,0,655.395813
-1852,-1757,3,1,0,24,102.549393
513,-1098,4,0,0,0,812.084106
1966,640,1,0,0,0,658.947571
-1536,1428,2,1,0,9,96.782593
-218,-1110,3,0,0,0,851.114258
866,-594,4,0,0,0,853.299805
522,632,1,0,0,0,924.630127
-1340,1310,2,0,0,0,687.047302
-1728,-1981,3,1,0,24,102.549393
389,-1110,4,0,0,0,820.691040
587,1784,1,0,0,0,686.416321
-77,758,2,0,0,0,945.696167
-1044,-622,3,0,0,0,830.497803
601,-214,4,0,0,0,996.860962
1305,302,1,1,0,10,216.840530
-269,1057,2,1,0,14,159.029495
-115,-841,3,1,0,24,102.549393
1057,-1650,4,1,0,19,154.774841
504,153,1,0,0,0,1052.107300
-642,866,2,0,0,0,845.761047
-1496,-648,3,0,0,0,746.081909
1928,-668,4,0,0,0,662.716309
918,1885,1,0,0,0,654.957031
-541,269,2,0,0,0,1012.541626
-1924,-1283,3,0,0,0,646.041565
952,-1638,4,0,0,0,683.919434
31,1655,1,0,0,0,722.576172
-592,1357,2,0,0,0,754.581177
-1868,-981,3,0,0,0,672.224976
632,-571,4,0,0,0,913.584778
1989,397,1,0,0,0,664.430664
-891,1328,2,0,0,0,732.457336
-1638,-592,3,0,0,0,727.128540
80,-624,4,1,0,24,102.549393
782,998,1,0,0,0,799.109619
-351,279,2,0,0,0,1098.540161
-457,-674,3,0,0,0,945.760498
1852,-1123,4,0,0,0,645.687012
1575,1698,1,0,0,0,626.586731
-1064,632,2,0,0,0,806.070984
-297,-290,3,0,0,0,1140.036865
1266,-455,4,0,0,0,782.083923
1181,72,1,0,0,0,818.983887
-122,109,2,0,0,0,1389.386353
-748,-132,3,0,0,0,965.822693
840,-346,4,1,0,19,154.774841
413,734,1,0,0,0,916.825134
-35,1551,2,1,0,14,159.029495
-796,-1129,3,0,0,0,793.654907
1385,-575,4,0,0,0,750.901428
454,206,1,0,0,0,1067.951904
-1975,936,2,0,0,0,643.105530
-697,-810,3,0,0,0,867.499084
1864,-95,4,0,0,0,688.199707
1914,894,1,0,0,0,652.808350
-221,319,2,1,0,0,196.560822
-793,-1492,3,0,0,0,735.827698
109,-1102,4,0,0,0,838.030151
1504,427,1,0,0,0,738.944153
-1272,1741,2,0,0,0,646.968933
-1514,-13,3,1,0,24,102.549393
926,-1569,4,1,0,19,154.774841
920,1273,1,1,0,14,159.029495
-348,667,2,0,0,0,949.340637
-1743,-432,3,1,0,24,102.549393
1645,-404,4,1,0,19,154.774841
1037,1543,1,0,0,0,689.325256
-145,514,2,1,0,14,159.029495
-325,-368,3,0,0,0,1091.625122
1839,-1833,4,0,0,0,594.080444
1204,1999,1,0,0,0,624.432129
-1434,1243,2,0,0,0,683.439880
-474,-1546,3,0,0,0,748.428711
1937,-1751,4,0,0,0,592.486450
112,595,1,0,0,0,1011.939941
-1831,1929,2,1,0,9,71.035561
-1839,-1775,3,0,0,0,617.535889
1329,-203,4,0,0,0,782.269165
1150,1294,1,0,0,0,709.734619
-1318,1288,2,0,0,0,691.837036
-843,-1911,3,1,0,24,102.549393
1806,-1085,4,0,0,0,653.570496
412,106,1,1,0,0,168.067642
-617,1075,2,0,0,0,805.621582
-207,-1433,3,0,0,0,780.151489
925,-505,4,0,0,0,852.278442
368,446,1,1,0,10,178.648026
-1087,1858,2,1,0,14,159.029495
-997,-1548,3,1,0,24,102.549393
389,-1360,4,0,0,0,767.666260
225,1913,1,1,0,14,159.029495
-1129,1617,2,0,0,0,672.444641
-87,-38,3,0,0,0,1565.670898
1677,-411,4,0,0,0,710.486145
726,1939,1,0,0,0,658.546021
-1669,624,2,0,0,0,701.473083
-477,-569,3,1,0,24,102.549393
388,-128,4,0,0,0,1125.355225
1026,1224,1,0,0,0,732.828552
-1117,940,2,0,0,0,758.606018
-221,-56,3,0,0,0,1312.904663
1209,-1499,4,1,0,19,154.774841
244,1245,1,0,0,0,798.928101
-288,435,2,0,0,0,1054.864868
-1014,-410,3,0,0,0,860.803223
1423,-598,4,0,0,0,742.617615
1057,771,1,0,0,0,790.088806
-75,1257,2,0,0,0,801.076721
-756,-753,3,0,0,0,867.923584
35,-1724,4,0,0,0,710.863770
1244,1351,1,1,0,14,159.029495
-1967,418,2,1,0,24,102.549393
-608,-893,3,0,0,0,864.357117
619,-1040,4,0,0,0,812.477295
1482,61,1,0,0,0,754.049744
-288,875,2,1,0,14,159.029495
-758,-1180,3,1,0,24,102.549393
1125,-260,4,0,0,0,826.005249
1428,1657,1,0,0,0,642.863586
-967,850,2,1,0,9,156.443588
-28,-1936,3,1,0,24,102.549393
1175,-946,4,0,0,0,749.208740
393,1066,1,0,0,0,830.655151
-1562,1175,2,0,0,0,674.997742
-404,-902,3,0,0,0,889.976379
1614,-1885,4,0,0,0,606.938904
1141,396,1,1,0,10,275.983795
-1894,1093,2,0,0,0,642.951721
-179,-1624,3,0,0,0,745.462769
597,-1287,4,0,0,0,766.818115
1114,917,1,0,0,0,761.972351
-1416,1723,2,0,0,0,637.342285
-466,-826,3,0,0,0,901.860168
336,-48,4,0,0,0,1178.845581
1247,1287,1,1,0,14,159.029495
-1931,1457,2,0,0,0,614.200012
-1665,-289,3,0,0,0,735.785889
1480,-434,4,0,0,0,742.845154
829,32,1,0,0,0,921.165771
-995,1074,2,0,0,0,757.786133
-1898,-947,3,0,0,0,670.710510
274,-955,4,0,0,0,869.248169
820,23,1,1,0,10,191.739807
-956,821,2,0,0,0,800.868225
-1589,-671,3,0,0,0,729.912659
152,-570,4,0,0,0,1019.431519
186,1538,1,0,0,0,741.567688
-1826,640,2,0,0,0,677.892578
-1270,-627,3,0,0,0,786.476440
1908,-391,4,0,0,0,676.015930
180,1941,1,0,0,0,675.769836
-1008,1997,2,0,0,0,636.476990
-1097,-1314,3,0,0,0,732.105225
753,-1354,4,0,0,0,741.550537
1061,1348,1,1,0,14,159.029495
-11,897,2,0,0,0,898.653076
-1457,-551,3,0,0,0,759.155640
1060,-1522,4,0,0,0,689.994812
790,1451,1,0,0,0,723.125488
-433,1938,2,0,0,0,670.474060
-1178,-1342,3,0,0,0,719.980530
1932,-1084,4,0,0,0,639.249390
982,751,1,0,0,0,806.370972
-1920,270,2,0,0,0,677.304688
-252,-485,3,0,0,0,1060.692017
831,-853,4,0,0,0,817.124207
152,425,1,0,0,0,1096.625854
-96,1957,2,0,0,0,674.303772
-391,-1953,3,0,0,0,688.706299
811,-1747,4,1,0,19,154.774841
1973,1491,1,1,0,14,159.029495
-1006,1678,2,0,0,0,674.726562
-359,-1840,3,0,0,0,706.044067
1364,-1990,4,0,0,0,614.956116
1826,1893,1,0,0,0,590.425232
-626,1694,2,1,0,14,159.029495
-1702,-1297,3,0,0,0,668.198792
275,-371,4,0,0,0,1090.028809
95,1017,1,0,0,0,861.277710
-1139,209,2,0,0,0,825.168884
-1717,-474,3,0,0,0,720.696167
1476,-1959,4,1,0,19,154.774841
1100,1443,1,0,0,0,696.279968
-1967,1556,2,0,0,0,603.925415
-878,-997,3,0,0,0,804.878235
396,-1888,4,1,0,24,102.549393
667,1321,1,0,0,0,754.710999
-1690,1503,2,1,0,9,89.455009
-1732,-515,3,1,0,24,102.549393
691,-1741,4,0,0,0,687.175171
496,995,1,1,0,14,159.029495
-386,115,2,1,0,0,184.769409
-398,-217,3,0,0,0,1114.637939
75,-1431,4,1,0,24,102.549393
862,1359,1,0,0,0,730.649292
-619,1304,2,0,0,0,761.855591
-1238,-176,3,1,0,24,102.549393
1947,-570,4,0,0,0,664.362122
1594,1465,1,1,0,14,159.029495
-469,1530,2,0,0,0,732.267151
-1789,-1671,3,1,0,24,102.549393
612,-1065,4,1,0,19,154.774841
1343,525,1,0,0,0,762.152344
-938,1628,2,0,0,0,686.294495
-1822,-1565,3,0,0,0,635.237000
35,-632,4,0,0,0,999.126770
295,809,1,0,0,0,910.435364
-1682,194,2,1,0,24,102.549393
-1705,-1632,3,0,0,0,640.226807
80,-1941,4,0,0,0,676.751465
1512,35,1,1,0,19,154.774841
-866,21,2,0,0,0,908.718872
-63,-944,3,1,0,24,102.549393
1736,-257,4,0,0,0,705.831299
1521,1620,1,0,0,0,638.375916
-702,1916,2,0,0,0,662.700989
-361,-47,3,0,0,0,1177.892456
153,-1830,4,0,0,0,692.841736
1218,1361,1,1,0,14,159.029495
-1508,544,2,1,0,9,153.106247
-1393,-864,3,1,0,24,102.549393
1356,-1202,4,0,0,0,696.658813
1368,1732,1,1,0,14,159.029495
-868,1486,2,0,0,0,711.432434
-1165,-675,3,0,0,0,801.025024
1827,-1140,4,1,0,19,154.774841
1625,1605,1,0,0,0,630.549255
-270,1351,2,0,0,0,775.240967
-1848,-319,3,0,0,0,705.946960
1969,-499,4,0,0,0,664.006592
692,1434,1,0,0,0,733.709839
-852,526,2,0,0,0,867.008911
-480,-1243,3,0,0,0,804.021057
534,-106,4,0,0,0,1042.573120
1505,195,1,1,0,10,175.112076
-417,1410,2,1,0,14,159.029495
-1925,-1730,3,1,0,24,102.549393
46,-1022,4,0,0,0,860.824951
1635,1980,1,0,0,0,597.235352
-1875,1351,2,0,0,0,627.198608
-1639,-895,3,1,0,24,102.549393
451,-1260,4,0,0,0,783.582275
1793,1001,1,1,0,14,159.029495
-1846,1334,2,1,0,9,91.858673
-248,-1325,3,1,0,24,102.549393
1020,-590,4,0,0,0,820.164185
39,965,1,1,0,14,159.029495
-71,564,2,0,0,0,1030.118530
-1600,-50,3,0,0,0,751.327148
823,-1650,4,0,0,0,691.678711
1237,583,1,0,0,0,777.378479
-1188,1545,2,1,0,9,95.589958
-886,-1497,3,0,0,0,727.483582
1981,-705,4,0,0,0,654.133362
1198,826,1,0,0,0,759.539124
-1328,1543,2,1,0,9,94.463356
-29,-1690,3,0,0,0,735.725952
967,-946,4,1,0,19,154.774841
1505,1941,1,0,0,0,609.870972
-1441,1065,2,0,0,0,699.869446
-1315,-938,3,0,0,0,748.743225
68,-483,4,0,0,0,1074.259644
100,186,1,0,0,0,1315.735840
-1863,1730,2,1,0,9,76.909119
-1673,-1835,3,1,0,24,102.549393
457,-258,4,1,0,19,154.774841
1409,1955,1,0,0,0,615.280945
-615,1354,2,0,0,0,753.301819
-114,-1450,3,0,0,0,778.844788
761,-1215,4,1,0,19,154.774841
1883,608,1,0,0,0,671.491699
-251,617,2,0,0,0,984.420532
-546,-780,3,0,0,0,900.730530
1941,-1430,4,0,0,0,615.156982
460,929,1,0,0,0,857.020569
-549,1687,2,0,0,0,702.721497
-1407,-923,3,0,0,0,737.004639
1320,-1074,4,0,0,0,714.647827
765,1991,1,0,0,0,650.063538
-1996,107,2,0,0,0,668.597595
-652,-618,3,1,0,24,102.549393
558,-1426,4,0,0,0,744.905090
619,637,1,1,0,10,226.232391
-1303,597,2,0,0,0,763.892578
-568,-822,3,0,0,0,886.843872
524,-1420,4,0,0,0,748.238647
1982,859,1,0,0,0,646.444214
-1994,1762,2,1,0,9,73.173500
-401,-661,3,0,0,0,960.720764
1631,-745,4,1,0,19,154.774841
137,508,1,0,0,0,1052.415283
-951,223,2,0,0,0,874.137634
-114,-965,3,0,0,0,894.863037
90,-1959,4,0,0,0,674.053955
1582,1981,1,0,0,0,600.867920
-941,1119,2,0,0,0,758.178894
-1444,-1708,3,1,0,24,102.549393
1562,-1691,4,0,0,0,628.309875
44,911,1,1,0,14,159.029495
-1703,1185,2,1,0,9,103.750404
-109,-991,3,0,0,0,887.471802
640,-1498,4,1,0,19,154.774841
1615,1036,1,1,0,14,159.029495
-1782,810,2,0,0,0,674.580933
-812,-133,3,1,0,24,102.549393
1616,-493,4,0,0,0,716.709229
704,384,1,0,0,0,930.948181
-666,944,2,0,0,0,825.847168
-407,-584,3,1,0,24,102.549393
1362,-275,4,0,0,0,772.798096
1710,1685,1,0,0,0,616.362488
-1235,1797,2,0,0,0,643.772400
-1052,-390,3,0,0,0,853.474487
1303,-659,4,0,0,0,758.552063
188,127,1,1,0,0,395.814697
-978,1712,2,0,0,0,672.514465
-1333,-212,3,0,0,0,800.314819
1596,-252,4,0,0,0,729.502686
78,414,1,1,0,0,170.988571
-1500,1825,2,0,0,0,620.946289
-139,-630,3,0,0,0,1012.877136
1561,-1612,4,0,0,0,635.591187
109,1913,1,0,0,0,680.685425
-1832,839,2,0,0,0,666.303589
-1412,-864,3,1,0,24,102.549393
1263,-955,4,0,0,0,735.303772
795,327,1,0,0,0,910.931702
-1581,1861,2,0,0,0,611.521423
-992,-1503,3,0,0,0,717.555603
1905,-1652,4,0,0,0,602.400024
1736,1594,1,1,0,14,159.029495
-673,898,2,0,0,0,834.205200
-138,-1676,3,1,0,24,102.549393
990,-800,4,1,0,19,154.774841
1748,25,1,1,0,19,154.774841
-460,306,2,1,0,9,129.590652
-1079,-24,3,0,0,0,864.640503
1460,-1642,4,0,0,0,641.590088
1615,442,1,0,0,0,719.287842
-1528,678,2,0,0,0,719.754761
-100,-1263,3,0,0,0,818.514343
1114,-764,4,0,0,0,780.905334
132,955,1,0,0,0,877.909973
-577,138,2,0,0,0,1017.796936
-642,-1526,3,0,0,0,741.675476
1951,-1934,4,0,0,0,578.088501
745,378,1,1,0,10,254.793732
-516,269,2,0,0,0,1023.373291
-156,-18,3,1,0,0,567.581360
700,-1477,4,0,0,0,726.202454
1706,1670,1,0,0,0,617.951050
-39,415,2,1,0,0,174.198990
-571,-1804,3,0,0,0,703.381165
732,-1842,4,0,0,0,671.002197
1897,785,1,1,0,10,136.186996
-78,1685,2,0,0,0,717.171570
-1487,-804,3,0,0,0,735.693481
1713,-601,4,1,0,19,154.774841
1856,400,1,0,0,0,683.307434
-941,115,2,1,0,9,165.062622
-917,-1132,3,1,0,24,102.549393
811,-750,4,0,0,0,838.743225
879,563,1,0,0,0,855.030212
-972,66,2,0,0,0,874.892334
-1888,-211,3,0,0,0,702.241882
1543,-867,4,0,0,0,703.397766
351,550,1,0,0,0,990.385315
-1643,1499,2,1,0,9,90.785599
-1147,-249,3,1,0,24,102.549393
710,-1782,4,0,0,0,680.367432
24,1211,1,0,0,0,812.248230
-1762,393,2,0,0,0,697.728394
-854,-619,3,0,0,0,871.257202
1816,-1121,4,0,0,0,649.900879
1518,87,1,0,0,0,746.934998
-635,1376,2,0,0,0,747.886841
-429,-1610,3,0,0,0,739.840027
31,-1079,4,0,0,0,845.380005
1694,1582,1,0,0,0,626.360596
-1585,230,2,0,0,0,732.028625
-147,-1991,3,0,0,0,688.037354
1998,-1869,4,0,0,0,579.249146
272,414,1,0,0,0,1069.803955
-821,458,2,1,0,9,186.357910
-332,-278,3,0,0,0,1127.846069
413,-988,4,0,0,0,847.681030
295,231,1,0,0,0,1150.328491
-1657,626,2,0,0,0,703.170166
-668,-286,3,1,0,24,102.549393
1163,-1416,4,1,0,19,154.774841
1089,1481,1,0,0,0,692.546143
-779,672,2,0,0,0,859.208374
-217,-317,3,1,0,0,214.518127
980,-1066,4,1,0,19,154.774841
173,1229,1,0,0,0,805.242798
-999,911,2,0,0,0,780.651306
-970,-1203,3,0,0,0,761.441528
354,-566,4,0,0,0,983.778259
195,872,1,0,0,0,899.788513
-147,999,2,0,0,0,864.584900
-203,-998,3,0,0,0,881.340210
816,-1497,4,0,0,0,714.105225
1076,1011,1,0,0,0,755.369934
-358,928,2,1,0,14,159.029495
-1082,-352,3,1,0,24,102.549393
700,-1485,4,1,0,19,154.774841
654,179,1,1,0,10,202.373978
-1988,312,2,1,0,24,102.549393
-1516,-1685,3,1,0,24,102.549393
1505,-1970,4,0,0,0,607.223083
664,1191,1,0,0,0,778.200928
-1075,1289,2,0,0,0,718.596619
-957,-67,3,0,0,0,898.551636
779,-464,4,0,0,0,895.571777
1383,1254,1,0,0,0,688.130554
-583,1890,2,0,0,0,671.614441
-1239,-1370,3,0,0,0,710.281067
702,-1345,4,0,0,0,747.560730
783,449,1,0,0,0,896.881958
-1186,1957,2,1,0,14,159.029495
-1093,-739,3,1,0,24,102.549393
1195,-1625,4,1,0,19,154.774841
386,473,1,0,0,0,1009.539490
-1705,1107,2,0,0,0,663.781555
-405,-1026,3,0,0,0,858.369385
766,-108,4,0,0,0,941.314636
602,557,1,0,0,0,924.470459
-1684,1422,2,0,0,0,640.701416
-342,-1230,3,0,0,0,816.319275
333,-1572,4,1,0,24,102.549393
1918,87,1,0,0,0,680.108459
-736,1965,2,0,0,0,654.730591
-507,-1687,3,0,0,0,723.881531
1469,-1147,4,0,0,0,688.609070
116,994,1,0,0,0,867.165161
-859,1289,2,0,0,0,741.605713
-252,-1717,3,0,0,0,728.168030
743,-1919,4,0,0,0,660.295044
317,1456,1,0,0,0,752.726624
-1170,895,2,1,0,9,150.868088
-1518,-251,3,1,0,24,102.549393
359,-536,4,0,0,0,993.646240
241,1990,1,1,0,14,159.029495
-1947,1772,2,0,0,0,590.157593
-412,-293,3,0,0,0,1083.177612
564,-303,4,0,0,0,995.834778
696,198,1,0,0,0,960.552185
-254,726,2,0,0,0,942.967773
-722,-1719,3,0,0,0,707.610535
1625,-1290,4,0,0,0,657.950378
1001,1813,1,0,0,0,658.473816
-1800,1811,2,0,0,0,598.835693
-1587,-1124,3,1,0,24,102.549393
887,-1436,4,0,0,0,716.992615
227,1366,1,1,0,14,159.029495
-705,1339,2,0,0,0,748.303162
-1753,-770,3,0,0,0,700.004700
73,-1303,4,0,0,0,790.808350
1857,992,1,0,0,0,653.774597
-482,1313,2,0,0,0,770.904785
-1828,-68,3,0,0,0,713.070984
1962,-1747,4,0,0,0,590.759644
584,1192,1,0,0,0,785.933838
-952,1705,2,0,0,0,675.264893
-820,-251,3,0,0,0,930.857849
1944,-166,4,1,0,19,154.774841
1634,1369,1,0,0,0,650.226196
-1946,1906,2,1,0,9,69.814316
-1470,-1174,3,0,0,0,705.041443
970,-1351,4,0,0,0,721.216797
1569,286,1,0,0,0,733.239075
-1734,649,2,0,0,0,690.499939
-1320,-626,3,1,0,24,102.549393
1368,-38,4,0,0,0,777.162781
1526,1637,1,0,0,0,636.352295
-858,345,2,0,0,0,889.896973
-787,-1400,3,0,0,0,750.385742
1247,-1302,4,0,0,0,698.118835
1797,199,1,0,0,0,697.302490
-1526,938,2,0,0,0,699.967041
-592,-535,3,0,0,0,951.621521
1493,-480,4,1,0,19,154.774841
1407,1769,1,0,0,0,633.519531
-1557,697,2,0,0,0,713.947937
-1113,-1769,3,0,0,0,674.935974
1167,-909,4,0,0,0,754.826172
1153,1147,1,0,0,0,727.631897
-1867,751,2,0,0,0,666.671936
-1118,-589,3,0,0,0,819.261963
1843,-802,4,0,0,0,667.019287
1226,1899,1,0,0,0,633.511963
-298,495,2,0,0,0,1025.426025
-1093,-59,3,1,0,24,102.549393
393,-191,4,0,0,0,1105.981934
452,1070,1,0,0,0,824.292053
-836,574,2,0,0,0,863.353455
-781,-1860,3,0,0,0,685.058533
855,-1426,4,0,0,0,721.299866
1219,41,1,1,0,19,154.774841
-257,674,2,0,0,0,961.461609
-1791,-1962,3,0,0,0,606.552734
1624,-1906,4,0,0,0,604.378174
687,1924,1,0,0,0,662.362305
-1895,308,2,0,0,0,680.124084
-1878,-1492,3,0,0,0,635.632019
434,-1711,4,0,0,0,704.161377
936,1523,1,0,0,0,700.543396
-224,998,2,0,0,0,860.882874
-1153,-1005,3,0,0,0,764.397644
449,-1071,4,0,0,0,824.351929
1889,1986,1,0,0,0,578.732483
-355,1537,2,0,0,0,736.382935
-905,-703,3,0,0,0,847.384338
600,-1792,4,0,0,0,684.641724
60,1675,1,0,0,0,719.000122
-1805,1480,2,0,0,0,624.358582
-483,-1316,3,0,0,0,789.434387
1725,-1528,4,1,0,19,154.774841
731,876,1,0,0,0,829.442505
-1608,1442,2,0,0,0,646.479797
-407,-1110,3,0,0,0,838.412476
1013,-623,4,0,0,0,817.517212
1440,765,1,0,0,0,726.885559
-1444,1843,2,0,0,0,623.489807
-829,-28,3,0,0,0,940.450195
535,-852,4,0,0,0,865.644653
1731,1626,1,1,0,14,159.029495
-441,1406,2,0,0,0,755.935913
-1288,-523,3,0,0,0,791.843201
1692,-337,4,1,0,19,154.774841
195,1869,1,0,0,0,686.255798
-1939,1954,2,0,0,0,577.506287
-1893,-1962,3,1,0,24,102.549393
929,-1310,4,0,0,0,731.247375
1310,1076,1,0,0,0,715.740234
-928,3,2,1,0,24,102.549393
-1214,-1520,3,0,0,0,695.459595
497,-461,4,0,0,0,979.365417
532,939,1,0,0,0,845.436340
-1291,715,2,0,0,0,755.501038
-8,-1628,3,0,0,0,746.485657
1692,-769,4,0,0,0,689.407959
1866,732,1,0,0,0,667.802002
-1592,1109,2,0,0,0,677.113037
-491,-919,3,0,0,0,874.771484
1063,-1189,4,1,0,19,154.774841
1436,1191,1,1,0,14,159.029495
-1057,770,2,0,0,0,790.218018
-718,-950,3,1,0,24,102.549393
624,-85,4,0,0,0,1000.590271
1759,149,1,0,0,0,704.142761
-1905,948,2,0,0,0,650.741821
-38,-238,3,0,0,0,1296.869995
980,-299,4,0,0,0,860.385620
1580,1537,1,0,0,0,640.677368
-405,1770,2,1,0,14,159.029495
-868,-759,3,0,0,0,845.612976
1046,-41,4,0,0,0,854.215332
281,183,1,1,0,0,246.040146
-1667,1623,2,1,0,9,84.927559
-1624,-434,3,0,0,0,737.300903
1098,-1932,4,0,0,0,638.364868
1447,333,1,0,0,0,753.746521
-228,830,2,0,0,0,910.555969
-753,-779,3,0,0,0,863.528931
1558,-1381,4,0,0,0,656.965576
1259,1003,1,0,0,0,730.584778
-1270,807,2,0,0,0,749.928528
-1535,-7,3,1,0,24,102.549393
1774,-1737,4,0,0,0,606.800110
539,160,1,0,0,0,1033.283081
-641,1536,2,0,0,0,721.005798
-288,-1562,3,0,0,0,753.568054
1596,-217,4,0,0,0,730.406982
414,1760,1,1,0,14,159.029495
-1166,1108,2,0,0,0,730.799133
-1729,-1655,3,0,0,0,636.239868
1429,-1320,4,0,0,0,676.351929
1041,823,1,0,0,0,786.008057
-150,1073,2,0,0,0,844.318787
-1593,-1190,3,0,0,0,689.188293
385,-1926,4,0,0,0,673.611572
573,815,1,0,0,0,868.455261
-126,1010,2,0,0,0,862.293213
-432,-43,3,1,0,0,175.363144
366,-548,4,0,0,0,987.516541
55,266,1,0,0,0,1243.112671
-848,798,2,0,0,0,823.579468
-1837,-176,3,0,0,0,710.553284
394,-4,4,0,0,0,1135.812500
153,1984,1,0,0,0,669.883667
-1682,1227,2,0,0,0,656.961304
-1943,-1489,3,0,0,0,629.822876
180,-1334,4,0,0,0,781.911377
1758,1686,1,0,0,0,612.231873
-1541,967,2,1,0,9,124.287422
-1465,-1730,3,0,0,0,651.721619
1772,-662,4,0,0,0,684.363098
421,833,1,0,0,0,887.238159
-1333,1068,2,0,0,0,713.581543
-1451,-1107,3,0,0,0,713.729797
1662,-1449,4,0,0,0,640.587219
95,1705,1,1,0,14,159.029495
-884,1596,2,0,0,0,694.705139
-1216,-700,3,0,0,0,789.177979
1623,-1058,4,0,0,0,677.525635
825,136,1,0,0,0,918.911987
-1583,1244,2,0,0,0,666.540222
-178,-901,3,0,0,0,911.108032
1537,-948,4,0,0,0,697.641663
470,25,1,0,0,0,1084.550293
-1817,259,2,0,0,0,693.000366
-1199,-366,3,1,0,24,102.549393
122,-1333,4,0,0,0,783.520203
154,656,1,1,0,14,159.029495
-155,946,2,0,0,0,879.546570
-556,-1907,3,1,0,24,102.549393
1057,-1621,4,0,0,0,677.853638
1331,936,1,1,0,14,159.029495
-755,1415,2,1,0,14,159.029495
-718,-429,3,0,0,0,938.053894
466,-1231,4,0,0,0,788.351196
89,660,1,0,0,0,984.475464
-1962,433,2,0,0,0,667.122681
-258,-819,3,0,0,0,930.481567
577,-910,4,0,0,0,845.895996
394,121,1,1,0,0,177.632477
-1976,557,2,0,0,0,660.963501
-1506,-422,3,0,0,0,757.996887
1119,-1733,4,1,0,19,154.774841
946,800,1,1,0,10,254.956909
-525,512,2,0,0,0,956.710388
-4,-408,3,0,0,0,1145.000000
1492,-756,4,1,0,19,154.774841
1619,1414,1,0,0,0,647.846252
-316,1615,2,0,0,0,724.254639
-1756,-1553,3,0,0,0,642.162415
1616,-660,4,1,0,19,154.774841
1687,807,1,0,0,0,687.638306
-1396,1090,2,0,0,0,703.197815
-1369,-765,3,0,0,0,757.220642
1860,-1602,4,0,0,0,610.024353
523,363,1,0,0,0,997.463806
-1885,864,2,1,0,9,107.610161
-1875,-1988,3,1,0,24,102.549393
1156,-1725,4,0,0,0,657.710632
804,151,1,0,0,0,925.208069
-534,56,2,0,0,0,1046.567871
-1653,-1347,3,0,0,0,669.206726
1709,-1993,4,1,0,19,154.774841
1074,113,1,0,0,0,845.251343
-1263,152,2,1,0,9,167.370331
-1904,-1746,3,0,0,0,614.494080
710,-44,4,0,0,0,965.473877
715,1069,1,0,0,0,795.015686
-1696,333,2,1,0,9,130.533691
-941,-1206,3,0,0,0,764.367920
1147,-1727,4,0,0,0,658.168823
1471,611,1,0,0,0,733.600037
-330,1123,2,0,0,0,822.089661
-657,-507,3,1,0,24,102.549393
1967,-1869,4,1,0,19,154.774841
622,837,1,1,0,14,159.029495
-660,1100,2,0,0,0,795.746155
-894,-29,3,0,0,0,918.717102
1874,-660,4,0,0,0,670.324219
1482,1314,1,0,0,0,671.215820
-455,1863,2,0,0,0,680.438538
-598,-506,3,1,0,24,102.549393
227,-445,4,0,0,0,1067.371948
613,1526,1,0,0,0,724.447266
-586,957,2,0,0,0,834.215271
-1044,-551,3,0,0,0,838.846558
611,-287,4,0,0,0,980.574707
720,1501,1,0,0,0,720.942627
-954,1222,2,0,0,0,741.366821
-28,-1841,3,1,0,24,102.549393
1479,-1,4,0,0,0,754.874084
367,1766,1,0,0,0,697.976807
-1552,1349,2,1,0,9,100.518929
-1714,-199,3,0,0,0,729.804871
1809,-1845,4,0,0,0,595.461731
1305,1413,1,0,0,0,679.593567
-1143,179,2,0,0,0,825.438660
-1388,-160,3,0,0,0,790.388123
1733,-917,4,0,0,0,674.113464
1316,1281,1,1,0,14,159.029495
-120,1109,2,0,0,0,835.934692
-491,-607,3,0,0,0,957.902283
1284,-1954,4,0,0,0,623.879944
759,939,1,0,0,0,813.161926
-494,1123,2,0,0,0,808.565735
-305,-1266,3,0,0,0,810.619934
574,-1199,4,0,0,0,785.513916
1411,1400,1,1,0,14,159.029495
-1384,1697,2,1,0,9,86.234116
-1278,-920,3,0,0,0,756.041016
1573,-1596,4,1,0,19,154.774841
1029,974,1,0,0,0,767.193909
-1714,1157,2,0,0,0,658.891418
-1877,-28,3,0,0,0,705.660522
1608,-597,4,0,0,0,712.380798
1018,246,1,0,0,0,854.078552
-215,1611,2,0,0,0,727.820251
-510,-1981,3,0,0,0,681.077026
1800,-1168,4,0,0,0,648.351501
340,537,1,1,0,10,175.288681
-548,1763,2,0,0,0,691.315552
-143,-1424,3,0,0,0,783.486389
1939,-1415,4,0,0,0,616.396484
1065,1505,1,0,0,0,691.703064
-1731,688,2,0,0,0,688.768127
-1696,-1615,3,0,0,0,642.440491
896,-539,4,0,0,0,854.538879
1082,402,1,0,0,0,826.102051
-339,651,2,0,0,0,956.455261
-1135,-569,3,1,0,24,102.549393
522,-1418,4,0,0,0,748.726074
285,1777,1,0,0,0,698.615723
-172,484,2,0,0,0,1059.345825
-1153,-483,3,0,0,0,822.370056
541,-111,4,0,0,0,1038.444824
604,1613,1,1,0,14,159.029495
-1918,1259,2,0,0,0,629.267639
-1842,-1434,3,1,0,24,102.549393
380,-1806,4,0,0,0,691.417847
462,945,1,0,0,0,852.820862
-167,693,2,0,0,0,964.876526
-1087,-1311,3,0,0,0,733.566528
1415,-400,4,0,0,0,756.537903
264,742,1,0,0,0,936.150879
-955,1315,2,0,0,0,727.836121
-465,-749,3,0,0,0,922.890381
727,-1948,4,0,0,0,657.337708
1199,1390,1,0,0,0,692.952332
-1419,445,2,0,0,0,753.298828
-1115,-1722,3,0,0,0,680.257690
313,-1226,4,0,0,0,799.690491
1801,807,1,0,0,0,672.241821
-1665,1148,2,0,0,0,665.252625
-313,-523,3,0,0,0,1029.262817
254,-443,4,0,0,0,1061.036011
67,662,1,0,0,0,984.731689
-693,1172,2,0,0,0,778.629822
-1524,-1454,3,0,0,0,672.710266
898,-1564,4,0,0,0,698.018311
518,1775,1,0,0,0,690.876404
-1921,136,2,0,0,0,679.240723
-236,-829,3,0,0,0,929.389160
221,-1651,4,0,0,0,720.774963
174,591,1,0,0,0,1006.921570
-366,471,2,0,0,0,1016.239380
-656,-1524,3,1,0,24,102.549393
685,-1567,4,0,0,0,713.228516
948,479,1,0,0,0,850.029724
-1068,343,2,0,0,0,834.326477
-338,-639,3,0,0,0,980.084106
635,-1766,4,1,0,19,154.774841
1053,1142,1,0,0,0,740.796692
-1536,997,2,1,0,9,122.553291
-1663,-1500,3,1,0,24,102.549393
199,-798,4,0,0,0,923.669434
613,369,1,0,0,0,963.805298
-1722,812,2,0,0,0,682.520630
-207,-1023,3,0,0,0,874.277161
1227,-1856,4,0,0,0,638.017822
759,1302,1,0,0,0,749.477173
-1541,1826,2,0,0,0,617.711060
-911,-1181,3,0,0,0,771.618347
1067,-828,4,1,0,19,154.774841
1516,657,1,0,0,0,723.104370
-746,1709,2,0,0,0,688.459534
-1406,-1547,3,0,0,0,674.873474
1924,-1418,4,1,0,19,154.774841
1224,449,1,0,0,0,791.092041
-698,1931,2,0,0,0,660.925110
-1562,-1563,3,0,0,0,659.024353
941,-11,4,1,0,19,154.774841
1378,1513,1,1,0,14,159.029495
-1384,1913,2,1,0,9,77.155579
-384,-146,3,0,0,0,1143.027832
880,-142,4,0,0,0,900.483643
1599,794,1,0,0,0,700.919556
-294,878,2,0,0,0,889.538574
-834,-878,3,0,0,0,831.512390
340,-1528,4,0,0,0,738.590454
345,88,1,0,0,0,1165.043457
-1138,342,2,0,0,0,817.750305
-715,-1797,3,0,0,0,697.124207
1222,-912,4,0,0,0,746.122253
1323,384,1,0,0,0,775.264893
-1730,1437,2,1,0,9,91.232666
-1384,-466,3,0,0,0,777.687561
1033,-829,4,0,0,0,786.553894
543,1599,1,0,0,0,716.852661
-527,479,2,0,0,0,965.151428
-1603,-1074,3,0,0,0,697.789734
347,-1254,4,1,0,24,102.549393
1061,209,1,1,0,10,235.246216
-1068,479,2,0,0,0,822.085876
-689,-1301,3,0,0,0,775.369080
1449,-1465,4,1,0,19,154.774841
1987,1596,1,0,0,0,599.366516
-1967,1042,2,0,0,0,637.885620
-700,-1750,3,0,0,0,704.503479
1704,-1812,4,0,0,0,606.277344
353,190,1,0,0,0,1130.830444
-1567,1814,2,0,0,0,616.788818
-217,-158,3,1,0,0,346.402527
7,-1573,4,0,0,0,737.193054
444,960,1,0,0,0,851.234558
-1230,709,2,0,0,0,766.618408
-85,-1165,3,0,0,0,841.880676
1491,-1613,4,0,0,0,641.676270
487,410,1,0,0,0,997.474182
-1065,1913,2,0,0,0,642.597046
-1671,-843,3,0,0,0,706.517273
832,-1976,4,1,0,19,154.774841
444,1492,1,1,0,14,159.029495
-401,261,2,0,0,0,1079.814209
-1476,-786,3,1,0,24,102.549393
1838,-1819,4,1,0,19,154.774841
1446,378,1,0,0,0,751.864807
-639,749,2,0,0,0,871.864014
-726,-1606,3,0,0,0,723.729492
466,-13,4,0,0,0,1087.310303
258,740,1,0,0,0,937.573608
-370,82,2,0,0,0,1147.039917
-1701,-1174,3,0,0,0,678.127869
773,-815,4,0,0,0,833.929016
843,541,1,0,0,0,866.901184
-1136,1389,2,0,0,0,699.463867
-65,-1710,3,0,0,0,732.187317
1901,-1881,4,1,0,19,154.774841
523,935,1,0,0,0,847.550598
-1651,1969,2,1,0,9,72.311180
-1318,-1140,3,0,0,0,726.976685
12,-833,4,0,0,0,919.963989
276,875,1,0,0,0,892.168640
-1571,1662,2,0,0,0,630.177429
-1280,-1264,3,0,0,0,717.864197
1446,-684,4,0,0,0,732.384033
603,350,1,0,0,0,971.262817
-954,1225,2,1,0,9,116.454453
-1255,-336,3,0,0,0,811.287842
854,-522,4,0,0,0,867.120911
1018,1396,1,0,0,0,710.299438
-414,995,2,0,0,0,845.847534
-425,-1303,3,0,0,0,795.918335
377,-669,4,0,0,0,943.431885
1769,1319,1,1,0,14,159.029495
-1944,1201,2,0,0,0,630.415649
-1168,-1861,3,0,0,0,660.649719
1067,-1910,4,0,0,0,642.811462
1537,589,1,0,0,0,724.190735
-1656,876,2,0,0,0,687.128174
-1258,-1120,3,0,0,0,736.732056
1690,-1214,4,0,0,0,657.118042
87,1037,1,1,0,14,159.029495
-537,11,2,0,0,0,1046.468750
-1045,-1427,3,0,0,0,722.716125
1124,-113,4,1,0,19,154.774841
659,1351,1,0,0,0,750.224731
-892,1158,2,0,0,0,758.247009
-1354,-243,3,0,0,0,794.856689
373,-659,4,0,0,0,947.464966
115,764,1,1,0,14,159.029495
-1858,1914,2,0,0,0,586.426331
-810,-463,3,0,0,0,906.573364
1418,-1532,4,1,0,19,154.774841
1505,1227,1,0,0,0,676.877502
-601,1008,2,0,0,0,821.332153
-639,-615,3,1,0,24,102.549393
1740,-932,4,0,0,0,672.191589
1895,998,1,0,0,0,648.885315
-891,1592,2,0,0,0,694.719238
-231,-1323,3,0,0,0,801.753113
152,-172,4,0,0,0,1291.682861
1073,458,1,0,0,0,823.030579
-1869,251,2,0,0,0,685.247742
-180,-1523,3,1,0,24,102.549393
1795,-1893,4,0,0,0,592.746704
765,845,1,1,0,14,159.029495
-132,745,2,1,0,14,159.029495
-552,-977,3,0,0,0,853.425415
484,-1271,4,1,0,19,154.774841
58,923,1,0,0,0,889.879517
-1522,1444,2,1,0,9,96.287506
-432,-1138,3,0,0,0,830.026611
1392,-559,4,0,0,0,750.818787
693,251,1,0,0,0,955.249512
-1613,937,2,0,0,0,688.355225
-467,-1943,3,0,0,0,687.762939
1319,-1054,4,0,0,0,716.901489
1201,76,1,0,0,0,814.114014
-1640,348,2,1,0,9,136.612747
-1673,-52,3,0,0,0,738.529236
605,-807,4,0,0,0,864.914795
1685,347,1,1,0,10,160.535507
-946,1178,2,1,0,9,120.134270
-197,-521,3,0,0,0,1055.236206
712,-1012,4,1,0,19,154.774841
1555,1693,1,0,0,0,628.714661
-1452,1539,2,0,0,0,652.355103
-1553,-620,3,0,0,0,738.807129
219,-338,4,0,0,0,1129.494385
1412,539,1,1,0,10,208.610886
-238,1055,2,0,0,0,844.829529
-1789,-619,3,0,0,0,703.252380
1774,-1221,4,0,0,0,647.311218
1326,92,1,1,0,19,154.774841
-833,1092,2,0,0,0,776.132507
-1665,-1172,3,0,0,0,682.404114
668,-1486,4,1,0,19,154.774841
418,1798,1,0,0,0,691.354980
-1797,1396,2,0,0,0,631.607849
-328,-1116,3,1,0,24,102.549393
495,-1901,4,0,0,0,673.569885
1197,1805,1,0,0,0,645.693054
-983,1440,2,1,0,9,101.783051
-627,-1751,3,0,0,0,708.317444
252,-1353,4,0,0,0,775.542908
998,1681,1,0,0,0,674.949036
-1725,1500,2,1,0,9,88.695221
-1728,-78,3,0,0,0,729.100220
1524,-1613,4,0,0,0,638.766052
1604,963,1,0,0,0,687.517151
-1491,75,2,1,0,24,102.549393
-48,-969,3,1,0,24,102.549393
1084,-1456,4,0,0,0,696.160522
1924,990,1,0,0,0,645.965637
-615,1944,2,1,0,14,159.029495
-1240,-1079,3,1,0,24,102.549393
1265,-55,4,0,0,0,799.492615
869,1114,1,0,0,0,768.008545
-1802,721,2,1,0,9,117.576080
-1014,-1882,3,0,0,0,668.476379
968,-291,4,0,0,0,864.289368
396,1669,1,0,0,0,712.365906
-1123,1051,2,1,0,9,133.035080
-1067,-1610,3,0,0,0,697.501343
868,-556,4,0,0,0,858.647217
760,1829,1,0,0,0,671.218567
-1782,93,2,0,0,0,701.057373
-418,-1410,3,0,0,0,775.667542
688,-851,4,0,0,0,841.441467
1822,478,1,1,0,10,147.085236
-1964,1059,2,1,0,9,97.102188
-1907,-482,3,1,0,24,102.549393
223,-1767,4,0,0,0,701.604858
534,676,1,0,0,0,910.313660
-1263,598,2,0,0,0,771.163330
-168,-1089,3,0,0,0,858.671997
405,-1542,4,0,0,0,733.338867
806,1484,1,0,0,0,716.840576
-71,211,2,0,0,0,1300.505615
-600,-1418,3,0,0,0,762.490234
633,-1924,4,0,0,0,664.822327
414,1074,1,0,0,0,826.909180
-1276,430,2,0,0,0,781.822510
-350,-1690,3,1,0,24,102.549393
981,-12,4,0,0,0,872.879944
1950,183,1,1,0,19,154.774841
-730,649,2,1,0,9,158.457886
-804,-978,3,1,0,24,102.549393
777,-1144,4,0,0,0,774.158203
1371,701,1,0,0,0,743.311035
-730,1441,2,0,0,0,729.576172
-646,-1705,3,1,0,24,102.549393
1983,-1313,4,0,0,0,619.030334
198,1830,1,0,0,0,692.173096
-336,1240,2,0,0,0,795.319336
-1764,-1931,3,0,0,0,610.985168
606,-1389,4,1,0,19,154.774841
1588,982,1,0,0,0,688.095154
-199,178,2,1,0,0,331.077362
-154,-657,3,1,0,24,102.549393
1423,-201,4,0,0,0,763.118408
398,1964,1,0,0,0,667.876038
-1588,1338,2,1,0,9,100.056366
-166,-61,3,0,0,0,1386.175537
1098,-1260,4,0,0,0,719.819702
550,1278,1,1,0,14,159.029495
-206,845,2,0,0,0,907.559753
-1775,-1901,3,0,0,0,612.574829
1539,-1785,4,0,0,0,621.607849
834,1882,1,0,0,0,660.198181
-50,1750,2,0,0,0,706.518494
-1956,-965,3,1,0,24,102.549393
784,-1572,4,0,0,0,705.548279
1099,632,1,0,0,0,799.136902
-283,1591,2,0,0,0,729.467163
-372,-1188,3,0,0,0,823.568359
630,-694,4,0,0,0,886.019409
1490,1671,1,0,0,0,636.241638
-1674,1042,2,1,0,9,112.353035
-360,-1519,3,1,0,24,102.549393
1534,-456,4,0,0,0,732.254089
176,91,1,0,0,0,1334.130615
-1589,350,2,0,0,0,727.501709
-1193,-1299,3,0,0,0,723.529541
609,-1433,4,0,0,0,740.120972
14,149,1,1,0,0,569.116394
-104,674,2,1,0,14,159.029495
-1621,-1024,3,0,0,0,699.602905
588,-737,4,0,0,0,884.329102
598,568,1,0,0,0,922.857727
-1851,144,2,0,0,0,689.710022
-899,-163,3,0,0,0,912.603699
278,-1092,4,0,0,0,833.020752
233,1246,1,0,0,0,799.174255
-515,1420,2,0,0,0,748.825623
-636,-218,3,1,0,24,102.549393
1411,-134,4,1,0,19,154.774841
47,1009,1,0,0,0,864.488831
-813,131,2,0,0,0,923.302551
-1876,-332,3,1,0,24,102.549393
1369,-51,4,0,0,0,776.864563
214,645,1,0,0,0,978.648926
-1199,1695,2,0,0,0,657.754761
-763,-1271,3,0,0,0,773.376221
1972,-321,4,1,0,19,154.774841
137,527,1,0,0,0,1042.521484
-1147,643,2,0,0,0,788.638428
-1835,-634,3,0,0,0,696.028564
701,-1243,4,0,0,0,765.139832
1857,1200,1,0,0,0,639.809326
-122,252,2,0,0,0,1234.376099
-1260,-1747,3,0,0,0,666.320862
898,-812,4,1,0,19,154.774841
296,389,1,0,0,0,1073.640381
-1824,109,2,0,0,0,694.268005
-23,-1159,3,0,0,0,844.073425
1409,-1322,4,0,0,0,678.309692
1112,1821,1,0,0,0,649.960754
-1857,712,2,0,0,0,670.037842
-1787,-414,3,0,0,0,712.278625
1197,-1150,4,0,0,0,721.776855
578,1439,1,0,0,0,741.282959
-810,1207,2,0,0,0,759.846497
-1527,-464,3,0,0,0,752.196289
866,-1122,4,1,0,19,154.774841
1353,1763,1,0,0,0,638.348877
-1741,619,2,0,0,0,691.073486
-423,-1624,3,0,0,0,737.780029
1265,-972,4,0,0,0,733.157227
1834,452,1,0,0,0,684.778137
-979,1428,2,0,0,0,709.701660
-1053,-1006,3,0,0,0,778.482239
1119,-958,4,0,0,0,756.027893
371,796,1,0,0,0,904.770508
-108,1674,2,1,0,14,159.029495
-896,-1600,3,0,0,0,712.361633
199,-764,4,0,0,0,935.447388
1683,1291,1,0,0,0,651.644653
-1512,510,2,0,0,0,733.087708
-1890,-798,3,0,0,0,680.244385
1244,-1397,4,0,0,0,687.559631
1401,1262,1,0,0,0,685.276611
-225,1936,2,0,0,0,675.813538
-737,-447,3,0,0,0,929.381348
594,-1089,4,0,0,0,805.393311
1727,1537,1,0,0,0,627.090027
-990,1798,2,1,0,14,159.029495
-1680,-331,3,0,0,0,732.009521
1289,-1505,4,0,0,0,671.083801
1984,519,1,0,0,0,661.275818
-906,530,2,1,0,9,205.529678
-1503,-1854,3,0,0,0,637.041565
836,-964,4,0,0,0,797.274353
1700,202,1,0,0,0,712.930603
-1749,-1261,3,0,0,0,666.028259
736,-1616,4,0,0,0,702.458923
243,610,1,0,0,0,988.552795
-1811,-1708,3,0,0,0,625.041138
730,-1852,4,1,0,19,154.774841
-878,-84,3,0,0,0,922.758301
1660,-938,4,0,0,0,682.094604
-974,-1611,3,1,0,24,102.549393
-266,-115,3,0,0,0,1243.695801
-886,-691,3,1,0,24,102.549393
-1372,-310,3,0,0,0,788.462769


each generation good chromosome number
0,0,0,0,0,0,0,0,0,0,0,0,0,0,0,0,0,0,0,0,0,0,0,0,0,0,0,0,0,0,0,0,0,0,0,0,0,0,0,0,0,0,0,0,0,0,0,0,0,0,0,0,0,0,0,0,0,0,0,0,0,0,0,0,0,0,0,0,0,0,0,0,0,0,0,0,0,0,0,0,0,0,0,0,0,0,0,0,0,0,0,0,0,0,0,0,0,0,0,0,