393.429779,393.429779,393.429779,393.429779,393.429779,393.429779,393.429779,393.429779,393.429779,393.429779,393.429779,393.429779,393.429779,393.429779,393.429779,393.429779,393.429779,393.429779,393.429779,393.429779,393.429779,393.429779,393.429779,393.429779,393.429779,393.429779,393.429779,393.429779,393.429779,393.429779,393.429779,393.429779,393.429779,393.429779,393.429779,393.429779,393.429779,393.429779,393.429779,393.429779,393.429779,393.429779,393.429779,393.429779,393.429779,393.429779,393.429779,393.429779,393.429779,393.429779,393.429779,393.429779,393.429779,393.429779,393.429779,393.429779,393.429779,393.429779,393.429779,393.429779,393.429779,393.429779,393.429779,393.429779,393.429779,393.429779,393.429779,393.429779,393.429779,393.429779,393.429779,393.429779,393.429779,393.429779,393.429779,393.429779,393.429779,393.429779,393.429779,393.429779,393.429779,393.429779,393.429779,393.429779,393.429779,393.429779,393.429779,393.429779,393.429779,393.429779,393.429779,393.429779,393.429779,393.429779,393.429779,393.429779,393.429779,393.429779,393.429779,393.429779,

avg. max avg. throughput in test times
393.429718
avg. BS TX power in all test times
MBS area 1,MBS area 2,MBS area 3,MBS area 4,MBS area 5,MBS area 6,MBS area 7,MBS area 8,CBSD 1,CBSD 2,CBSD 3,CBSD 4,CBSD 5,CBSD 6,
5.000,5.000,5.000,5.000,5.000,5.000,5.000,5.000,0.000,0.000,0.000,0.000,0.000,1.000,
avg. mbs all power,avg. cbsd enable number,avg. mbs area all power,avg. cbsd all power
47.500,1.000,40.000,1.000
avg. number of relay UE
459

BS TX power
MBS area 1,MBS area 2,MBS area 3,MBS area 4,MBS area 5,MBS area 6,MBS area 7,MBS area 8,CBSD 1,CBSD 2,CBSD 3,CBSD 4,CBSD 5,CBSD 6,
5.000,5.000,5.000,5.000,5.000,5.000,5.000,5.000,0.000,0.000,0.000,0.000,0.000,1.000,
max average power
0.000000

x,y,area,be blocked (1 : NLOS / 0 : LOS),be blocked number (>=1 : CBSD(x) / 0 : no),connect bs number (>=1 : CBSD / 0 : MBS),throughput (unit : M bps)
1036,1759,1,1,0,6,20.667873
1153,159,2,0,0,6,20.667873
-1646,1316,3,0,0,0,573.922668
-524,1973,4,1,0,6,20.667873
-305,-769,5,1,0,6,20.667873
-1812,-768,6,0,0,0,593.319519
892,-162,7,0,0,6,20.667873
598,-1941,8,0,0,0,584.382019
1661,1820,1,0,0,6,20.667873
836,352,2,0,0,6,20.667873
-416,197,3,1,0,6,20.667873
-278,1459,4,0,0,0,673.510132
-84,-1788,5,0,0,0,620.275024
-590,-17,6,0,0,0,938.629089
1799,-294,7,0,0,6,20.667873
1435,-1998,8,0,0,0,530.269958
1033,1600,1,0,0,6,20.667873
1990,1721,2,0,0,6,20.667873
-439,53,3,0,0,0,1021.865295
-1557,1679,4,0,0,0,550.456482
-602,-989,5,0,0,0,744.839050
-580,-308,6,0,0,0,907.893127
1618,-1534,7,1,0,6,20.667873
618,-1515,8,0,0,0,645.870422
1123,1955,1,0,0,6,20.667873
235,83,2,1,0,6,20.667873
-1888,1762,3,0,0,0,516.614197
-691,1401,4,0,0,0,659.090027
-797,-1228,5,0,0,0,677.636414
-1279,-1187,6,0,0,0,627.530090
1234,-250,7,0,0,6,20.667873
86,-721,8,1,0,6,20.667873
191,992,1,0,0,6,20.667873
996,962,2,1,0,6,20.667873
-1401,682,3,0,0,0,659.814941
-1785,1807,4,0,0,0,521.271484
-116,-1684,5,0,0,0,636.984253
-906,-649,6,0,0,0,755.787170
1692,-335,7,0,0,6,20.667873
144,-245,8,0,0,0,1149.360229
405,1290,1,0,0,6,20.667873
1109,960,2,0,0,6,20.667873
-1078,475,3,0,0,0,739.877319
-66,1111,4,1,0,6,20.667873
-332,-1490,5,0,0,0,665.674438
-1731,-100,6,0,0,0,629.339722
940,-120,7,0,0,6,20.667873
90,-1693,8,0,0,0,635.737427
704,1641,1,0,0,6,20.667873
1346,811,2,0,0,6,20.667873
-1755,1456,3,1,0,6,20.667873
-42,1772,4,0,0,0,623.067688
-1628,-1973,5,1,0,6,20.667873
-1862,-1789,6,0,0,0,516.648682
1998,-333,7,0,0,6,20.667873
219,-1986,8,0,0,0,589.026733
1315,1318,1,0,0,6,20.667873
1374,1252,2,1,0,6,20.667873
-964,405,3,1,0,6,20.667873
-890,1799,4,0,0,0,587.741394
-547,-1450,5,0,0,0,661.365112
-1265,-1174,6,0,0,0,630.665894
1661,-324,7,0,0,6,20.667873
703,-1009,8,0,0,0,727.551086
464,961,1,0,0,6,20.667873
1562,688,2,1,0,6,20.667873
-1111,615,3,0,0,0,718.352234
-706,1687,4,0,0,0,614.173279
-318,-1836,5,1,0,6,20.667873
-1824,-224,6,1,0,6,20.667873
1498,-202,7,0,0,6,20.667873
943,-991,8,1,0,6,20.667873
160,666,1,1,0,6,20.667873
1770,1553,2,0,0,6,20.667873
-886,150,3,0,0,0,817.637451
-504,1582,4,0,0,0,641.692505
-567,-831,5,0,0,0,785.188171
-544,-96,6,0,0,0,957.719299
814,-97,7,0,0,6,20.667873
125,-1906,8,1,0,6,20.667873
1464,1795,1,0,0,6,20.667873
1660,854,2,0,0,6,20.667873
-1168,639,3,0,0,0,704.802490
-434,1205,4,1,0,6,20.667873
-127,-381,5,0,0,0,1049.617432
-1400,-619,6,0,0,0,664.889587
1611,-728,7,0,0,0,623.814636
113,-134,8,1,0,6,20.667873
10,694,1,0,0,0,891.957214
1186,855,2,0,0,6,20.667873
-1442,988,3,1,0,6,20.667873
-18,1607,4,0,0,0,650.990173
-146,-374,5,0,0,0,1049.704956
-375,-153,6,0,0,0,1047.185303
1476,-747,7,0,0,0,642.738831
995,-1730,8,0,0,0,589.355164
1035,1880,1,0,0,6,20.667873
507,476,2,0,0,6,20.667873
-1216,703,3,0,0,0,689.478577
-998,1589,4,0,0,0,606.860779
-531,-703,5,1,0,6,20.667873
-774,-683,6,0,0,0,777.787415
1873,-573,7,0,0,6,20.667873
584,-1991,8,1,0,6,20.667873
669,1983,1,0,0,6,20.667873
1239,964,2,1,0,6,20.667873
-1381,159,3,1,0,6,20.667873
-241,1212,4,0,0,0,726.161377
-505,-1784,5,1,0,6,20.667873
-667,-112,6,0,0,0,899.410400
1679,-1069,7,1,0,6,20.667873
793,-1259,8,0,0,0,672.994934
662,707,1,0,0,6,20.667873
1563,1426,2,0,0,6,20.667873
-785,727,3,1,0,6,20.667873
-305,1928,4,0,0,0,595.645508
-813,-859,5,1,0,6,20.667873
-1882,-1118,6,0,0,0,563.171570
1940,-593,7,0,0,0,584.720459
801,-1493,8,1,0,6,20.667873
531,1499,1,0,0,6,20.667873
1220,121,2,0,0,6,20.667873
-724,15,3,0,0,0,879.740784
-584,1592,4,0,0,0,635.679321
-678,-1081,5,1,0,6,20.667873
-1021,-867,6,0,0,0,703.069580
1107,-403,7,1,0,6,20.667873
242,-608,8,1,0,6,20.667873
1259,1326,1,0,0,6,20.667873
1681,1622,2,0,0,6,20.667873
-1899,1346,3,0,0,0,545.835571
-11,1248,4,0,0,0,723.317871
-237,-1081,5,0,0,0,757.801025
-1847,-1528,6,0,0,0,537.547485
215,-161,7,1,0,6,20.667873
1007,-1469,8,0,0,0,621.703125
42,1142,1,1,0,6,20.667873
1050,12,2,1,0,6,20.667873
-1431,479,3,0,0,0,668.968567
-117,339,4,1,0,6,20.667873
-1049,-1614,5,0,0,0,599.605774
-1559,-883,6,0,0,0,620.001282
302,-238,7,0,0,0,1062.163330
149,-305,8,0,0,0,1098.108032
85,355,1,0,0,0,1077.152344
1557,890,2,0,0,6,20.667873
-1480,662,3,0,0,0,648.478516
-435,725,4,0,0,0,835.161499
-1926,-1964,5,1,0,6,20.667873
-461,-213,6,1,0,6,20.667873
1959,-1901,7,0,0,0,501.083344
258,-1938,8,0,0,0,595.191956
164,356,1,0,0,0,1056.630493
1659,1586,2,0,0,6,20.667873
-641,161,3,0,0,0,906.055786
-229,1190,4,0,0,0,731.759399
-720,-1825,5,0,0,0,594.207092
-1562,-381,6,0,0,0,650.866882
1250,-25,7,0,0,6,20.667873
1531,-1815,8,0,0,0,540.219849
793,1029,1,0,0,6,20.667873
1131,673,2,0,0,6,20.667873
-1994,1076,3,0,0,0,553.434509
-151,256,4,0,0,0,1136.428833
-535,-1427,5,0,0,0,666.151489
-930,-495,6,0,0,0,771.930359
1023,-355,7,1,0,6,20.667873
49,-1181,8,0,0,0,738.903870
153,344,1,0,0,0,1068.241211
1906,108,2,1,0,6,20.667873
-1819,820,3,1,0,6,20.667873
-1321,1474,4,0,0,0,591.696777
-840,-1457,5,0,0,0,638.031616
-844,-108,6,0,0,0,833.332275
1543,-35,7,1,0,6,20.667873
619,-1866,8,0,0,0,593.614990
25,1576,1,1,0,6,20.667873
465,80,2,1,0,6,20.667873
-1351,143,3,0,0,0,699.016785
-562,1510,4,0,0,0,650.264282
-194,-1910,5,0,0,0,600.361450
-1603,-503,6,0,0,0,638.325806
1558,-152,7,0,0,6,20.667873
449,-1835,8,0,0,0,604.940308
757,871,1,0,0,6,20.667873
966,676,2,1,0,6,20.667873
-1699,798,3,0,0,0,606.760681
-1189,1451,4,0,0,0,606.933411
-1172,-1841,5,0,0,0,564.029358
-1401,-238,6,0,0,0,686.140686
1614,-955,7,0,0,0,607.018311
615,-697,8,1,0,6,20.667873
1057,1543,1,1,0,6,20.667873
864,351,2,0,0,6,20.667873
-1575,425,3,0,0,0,646.719849
-1008,1188,4,0,0,0,659.845276
-975,-1725,5,0,0,0,591.388184
-1498,-735,6,0,0,0,640.277893
445,-333,7,0,0,0,955.954102
551,-911,8,1,0,6,20.667873
190,571,1,0,0,0,933.052246
1647,341,2,0,0,6,20.667873
-1607,1100,3,0,0,0,596.308838
-1043,1981,4,1,0,6,20.667873
-115,-366,5,0,0,0,1062.815308
-1684,-9,6,0,0,0,637.654785
1317,-214,7,0,0,6,20.667873
1227,-1889,8,0,0,0,555.093140
146,1825,1,1,0,6,20.667873
1572,476,2,0,0,6,20.667873
-498,496,3,0,0,0,888.332214
-798,1599,4,0,0,0,620.737549
-6,-1941,5,0,0,0,597.245056
-708,-227,6,0,0,0,872.151489
1616,-946,7,1,0,6,20.667873
1330,-1605,8,0,0,0,577.025085
165,1957,1,0,0,0,593.910400
237,195,2,0,0,0,1127.170898
-1602,1590,3,0,0,0,554.519226
-160,348,4,0,0,0,1063.283325
-1365,-1545,5,0,0,0,580.145874
-1209,-604,6,0,0,0,700.509949
1831,-714,7,0,0,0,593.716187
1296,-1978,8,0,0,0,541.376038
1675,1901,1,0,0,6,20.667873
1513,344,2,1,0,6,20.667873
-257,40,3,0,0,0,1174.911011
-1765,1947,4,0,0,0,511.722382
-1507,-1991,5,0,0,0,526.061829
-747,-259,6,1,0,6,20.667873
1088,-322,7,0,0,6,20.667873
1179,-1425,8,0,0,0,610.967163
222,453,1,0,0,0,983.878235
1628,1215,2,0,0,6,20.667873
-1704,90,3,0,0,0,633.896729
-1095,1502,4,0,0,0,609.546082
-527,-613,5,0,0,0,848.069519
-992,-383,6,0,0,0,769.261047
1847,-10,7,0,0,6,20.667873
307,-1946,8,0,0,0,593.026855
544,1783,1,0,0,6,20.667873
1162,752,2,0,0,6,20.667873
-426,4,3,0,0,0,1032.605103
-825,1259,4,0,0,0,669.691650
-673,-1312,5,1,0,6,20.667873
-1633,-949,6,1,0,6,20.667873
1316,-828,7,0,0,0,660.432983
1788,-1823,8,0,0,0,519.782654
434,1517,1,0,0,6,20.667873
1617,301,2,1,0,6,20.667873
-1970,621,3,0,0,0,579.603821
-1073,1229,4,1,0,6,20.667873
-1547,-1840,5,1,0,6,20.667873
-1123,-341,6,0,0,0,740.945862
1846,-1402,7,0,0,0,547.001282
1070,-1848,8,0,0,0,570.185669
222,1677,1,0,0,0,636.370300
1156,427,2,0,0,6,20.667873
-1146,446,3,0,0,0,727.556580
-268,388,4,0,0,0,1003.326050
-118,-1524,5,0,0,0,665.296326
-418,-182,6,0,0,0,1013.059204
1595,-1157,7,0,0,0,592.971802
1496,-1591,8,0,0,0,563.838623
792,1753,1,0,0,6,20.667873
705,660,2,0,0,6,20.667873
-868,230,3,1,0,6,20.667873
-94,848,4,0,0,0,832.551819
-37,-1711,5,0,0,0,633.058716
-1702,-1458,6,0,0,0,556.527466
969,-926,7,1,0,6,20.667873
1390,-1673,8,0,0,0,564.977661
307,1194,1,0,0,6,20.667873
1091,1007,2,1,0,6,20.667873
-1270,553,3,0,0,0,693.461060
-711,1075,4,0,0,0,714.098450
-30,-1668,5,1,0,6,20.667873
-1363,-754,6,0,0,0,659.911499
1225,-670,7,1,0,6,20.667873
209,-1867,8,0,0,0,606.520264
340,1038,1,0,0,6,20.667873
1211,502,2,0,0,6,20.667873
-1810,391,3,1,0,6,20.667873
-852,1414,4,0,0,0,643.328003
-68,-331,5,0,0,0,1099.416626
-1608,-1458,6,0,0,0,565.564392
898,-160,7,0,0,6,20.667873
490,-759,8,0,0,0,816.099304
1643,1906,1,1,0,6,20.667873
991,783,2,0,0,6,20.667873
-1840,816,3,0,0,0,586.935486
-310,1226,4,0,0,0,719.545288
-161,-390,5,1,0,6,20.667873
-1700,-946,6,0,0,0,596.591125
1908,-812,7,0,0,0,578.503601
13,-1942,8,0,0,0,597.093933
383,1023,1,0,0,6,20.667873
672,524,2,0,0,6,20.667873
-1504,1241,3,0,0,0,595.948242
-333,1926,4,0,0,0,595.267761
-158,-755,5,0,0,0,861.565125
-1434,-345,6,0,0,0,675.505432
1374,-498,7,0,0,6,20.667873
1209,-1561,8,0,0,0,592.398193
222,1387,1,0,0,6,20.667873
1812,1214,2,1,0,6,20.667873
-764,492,3,1,0,6,20.667873
-1805,1850,4,0,0,0,516.376160
-38,-326,5,0,0,0,1107.821411
-249,-82,6,0,0,0,1172.635010
1239,-763,7,0,0,0,679.374817
684,-1918,8,1,0,6,20.667873
1504,1993,1,0,0,6,20.667873
984,63,2,1,0,6,20.667873
-1750,283,3,0,0,0,623.029663
-317,657,4,1,0,6,20.667873
-42,-467,5,1,0,6,20.667873
-1528,-46,6,0,0,0,665.271973
982,-518,7,0,0,0,756.876221
531,-564,8,0,0,0,860.344666
1048,1846,1,1,0,6,20.667873
881,428,2,0,0,6,20.667873
-1969,1080,3,1,0,6,20.667873
-628,771,4,0,0,0,788.523315
-936,-1960,5,1,0,6,20.667873
-1210,-742,6,1,0,6,20.667873
1937,-1541,7,0,0,0,528.528259
681,-1853,8,0,0,0,592.435608
320,554,1,0,0,0,915.415161
1142,134,2,0,0,6,20.667873
-1365,937,3,1,0,6,20.667873
-378,503,4,0,0,0,920.217224
-1425,-1594,5,1,0,6,20.667873
-1575,-802,6,0,0,0,623.881958
1760,-1511,7,0,0,0,546.807068
251,-1388,8,1,0,6,20.667873
591,1478,1,0,0,6,20.667873
1937,1408,2,1,0,6,20.667873
-1945,1062,3,0,0,0,559.704224
-311,888,4,1,0,6,20.667873
-718,-1693,5,1,0,6,20.667873
-795,-142,6,1,0,6,20.667873
1681,-735,7,1,0,6,20.667873
1086,-1561,8,0,0,0,603.070068
1635,1887,1,0,0,6,20.667873
1387,911,2,1,0,6,20.667873
-763,548,3,0,0,0,804.873962
-1498,1712,4,0,0,0,552.307800
-1129,-1885,5,0,0,0,562.113281
-1382,-665,6,1,0,6,20.667873
1565,-462,7,1,0,6,20.667873
1175,-1645,8,1,0,6,20.667873
775,923,1,0,0,6,20.667873
1397,1251,2,0,0,6,20.667873
-1316,47,3,0,0,0,707.945374
-577,1921,4,0,0,0,587.929260
-522,-1885,5,0,0,0,595.069275
-1540,-206,6,1,0,6,20.667873
803,-48,7,0,0,6,20.667873
548,-1971,8,1,0,6,20.667873
599,1481,1,1,0,6,20.667873
1999,1137,2,0,0,6,20.667873
-1863,1362,3,0,0,0,548.253906
-658,1109,4,0,0,0,713.952026
-98,-1519,5,0,0,0,666.495544
-1472,-412,6,0,0,0,665.294556
1908,-513,7,0,0,6,20.667873
22,-692,8,0,0,0,892.672729
109,1101,1,0,0,0,757.876892
939,361,2,0,0,6,20.667873
-1511,143,3,1,0,6,20.667873
-542,610,4,0,0,0,845.372620
-12,-1518,5,0,0,0,667.268188
-1345,-121,6,1,0,6,20.667873
548,-205,7,0,0,0,941.156982
7,-1469,8,0,0,0,676.651489
188,1581,1,0,0,0,653.659790
1280,650,2,0,0,6,20.667873
-1803,1350,3,1,0,6,20.667873
-26,747,4,1,0,6,20.667873
-435,-1007,5,0,0,0,760.337646
-1777,-1174,6,0,0,0,570.932190
1917,-1623,7,0,0,0,524.406860
1111,-1251,8,1,0,6,20.667873
121,1494,1,0,0,0,670.896790
1412,1236,2,0,0,6,20.667873
-1698,1042,3,0,0,0,589.853027
-1689,1826,4,0,0,0,527.150940
-852,-1314,5,1,0,6,20.667873
-906,-525,6,0,0,0,773.682983
1412,-872,7,0,0,0,641.827759
835,-855,8,0,0,0,735.748108
666,1325,1,0,0,6,20.667873
1021,195,2,0,0,6,20.667873
-1181,612,3,0,0,0,705.064636
-829,1348,4,0,0,0,655.390808
-491,-1037,5,1,0,6,20.667873
-179,-166,6,1,0,6,20.667873
1444,-910,7,1,0,6,20.667873
392,-1658,8,1,0,6,20.667873
393,1706,1,1,0,6,20.667873
882,179,2,0,0,6,20.667873
-1438,730,3,0,0,0,650.000854
-930,1895,4,0,0,0,573.453430
-1121,-1460,5,0,0,0,612.321533
-822,-555,6,0,0,0,789.268311
908,-323,7,0,0,0,797.522034
966,-1785,8,0,0,0,584.578247
498,631,1,0,0,6,20.667873
983,833,2,0,0,6,20.667873
-384,141,3,1,0,6,20.667873
-859,981,4,1,0,6,20.667873
-555,-1177,5,0,0,0,711.347595
-1280,-1170,6,1,0,6,20.667873
503,-58,7,0,0,0,982.817505
691,-1274,8,0,0,0,680.509094
1351,1592,1,0,0,6,20.667873
984,291,2,0,0,6,20.667873
-824,549,3,0,0,0,789.755920
-595,1459,4,0,0,0,656.629517
-401,-1474,5,0,0,0,665.481262
-1787,-788,6,1,0,6,20.667873
1426,-76,7,0,0,6,20.667873
1218,-1415,8,1,0,6,20.667873
39,1496,1,0,0,0,671.351624
1570,29,2,0,0,6,20.667873
-1969,1705,3,0,0,0,514.221375
-212,1465,4,0,0,0,674.471985
-146,-1310,5,0,0,0,707.668884
-1925,-604,6,1,0,6,20.667873
511,-374,7,1,0,6,20.667873
527,-1927,8,0,0,0,589.065613
1109,1562,1,1,0,6,20.667873
1855,1146,2,0,0,6,20.667873
-1999,1831,3,0,0,0,503.027771
-102,1498,4,1,0,6,20.667873
-425,-640,5,1,0,6,20.667873
-975,-857,6,1,0,6,20.667873
1326,-100,7,0,0,6,20.667873
1088,-1596,8,0,0,0,598.629639
879,1688,1,1,0,6,20.667873
475,265,2,0,0,0,962.179993
-1471,444,3,0,0,0,663.807922
-1696,1910,4,1,0,6,20.667873
-104,-511,5,0,0,0,974.324341
-1957,-1707,6,1,0,6,20.667873
1859,-949,7,1,0,6,20.667873
1188,-1503,8,0,0,0,600.955505
828,923,1,0,0,6,20.667873
484,123,2,0,0,0,986.800293
-1704,972,3,0,0,0,594.230042
-590,1913,4,0,0,0,588.476624
-125,-822,5,1,0,6,20.667873
-660,-613,6,1,0,6,20.667873
1187,-981,7,0,0,0,663.182922
684,-1560,8,1,0,6,20.667873
294,934,1,0,0,6,20.667873
1577,165,2,0,0,6,20.667873
-1113,310,3,0,0,0,745.445618
-1291,1828,4,0,0,0,556.930359
-679,-1472,5,0,0,0,648.522888
-935,-215,6,0,0,0,798.818542
1349,-433,7,1,0,6,20.667873
334,-396,8,0,0,0,976.226013
1537,1632,1,0,0,6,20.667873
1834,1379,2,1,0,6,20.667873
-981,918,3,1,0,6,20.667873
-1029,1233,4,0,0,0,651.191467
-395,-1663,5,0,0,0,633.414124
-521,-335,6,0,0,0,924.735657
1334,-30,7,0,0,6,20.667873
782,-907,8,0,0,0,735.154663
901,1090,1,0,0,6,20.667873
1725,890,2,0,0,6,20.667873
-1085,464,3,0,0,0,739.381042
-528,1224,4,0,0,0,704.446350
-207,-1872,5,1,0,6,20.667873
-1975,-1660,6,0,0,0,516.887207
752,-519,7,1,0,6,20.667873
7,-1811,8,0,0,0,616.949280
1181,1331,1,0,0,6,20.667873
509,449,2,0,0,6,20.667873
-1423,54,3,1,0,6,20.667873
-1082,1622,4,0,0,0,595.966492
-842,-1011,5,0,0,0,708.191650
-1864,-1134,6,0,0,0,564.100891
494,-127,7,1,0,6,20.667873
396,-659,8,0,0,0,862.509583
758,1576,1,0,0,6,20.667873
1229,1141,2,0,0,6,20.667873
-1242,876,3,1,0,6,20.667873
-335,1800,4,0,0,0,613.841248
-892,-997,5,0,0,0,703.425720
-1935,-146,6,1,0,6,20.667873
793,-772,7,0,0,0,757.788879
848,-1830,8,0,0,0,586.357605
32,1717,1,0,0,0,632.078613
948,939,2,0,0,6,20.667873
-1849,1575,3,0,0,0,533.843567
-1271,1938,4,1,0,6,20.667873
-483,-962,5,0,0,0,765.751892
-1031,-7,6,0,0,0,778.132080
1229,-47,7,1,0,6,20.667873
567,-1309,8,1,0,6,20.667873
1121,1719,1,0,0,6,20.667873
1370,1151,2,1,0,6,20.667873
-874,275,3,0,0,0,812.049255
-902,1069,4,0,0,0,690.680115
-509,-1897,5,1,0,6,20.667873
-1002,-276,6,1,0,6,20.667873
665,-304,7,1,0,6,20.667873
1498,-1830,8,1,0,6,20.667873
1391,1769,1,0,0,6,20.667873
1717,646,2,0,0,6,20.667873
-1884,771,3,1,0,6,20.667873
-315,1371,4,0,0,0,689.044312
-969,-1780,5,1,0,6,20.667873
-1055,-668,6,0,0,0,723.168274
1793,-557,7,1,0,6,20.667873
893,-1873,8,0,0,0,578.313721
1155,1835,1,0,0,6,20.667873
1791,621,2,0,0,6,20.667873
-1029,95,3,0,0,0,777.477600
-483,802,4,0,0,0,805.851074
-44,-573,5,0,0,0,946.325317
-943,-89,6,1,0,6,20.667873
924,-811,7,0,0,0,727.626343
354,-760,8,0,0,0,837.582886
1366,1830,1,0,0,6,20.667873
1435,1095,2,0,0,6,20.667873
-524,460,3,0,0,0,890.636230
-1377,1757,4,0,0,0,557.639465
-1036,-1577,5,0,0,0,605.283264
-1417,-974,6,0,0,0,631.718933
1275,-761,7,0,0,0,673.589233
81,-1040,8,1,0,6,20.667873
1310,1637,1,0,0,6,20.667873
1587,255,2,0,0,6,20.667873
-1537,1107,3,0,0,0,604.186218
-465,1370,4,0,0,0,681.015991
-189,-933,5,0,0,0,801.059326
-1060,-686,6,0,0,0,719.992126
1583,-512,7,0,0,6,20.667873
848,-1171,8,0,0,0,681.205872
420,1170,1,0,0,6,20.667873
153,102,2,0,0,0,1274.939209
-1401,46,3,1,0,6,20.667873
-522,717,4,0,0,0,821.411682
-60,-608,5,0,0,0,928.694824
-730,-425,6,0,0,0,835.428345
1071,-635,7,0,0,0,723.996338
1325,-1960,8,0,0,0,541.246826
547,646,1,0,0,6,20.667873
1346,1074,2,0,0,6,20.667873
-1980,102,3,0,0,0,591.223694
-1489,1534,4,1,0,6,20.667873
-316,-1258,5,0,0,0,712.275574
-1656,-390,6,1,0,6,20.667873
694,-8,7,0,0,6,20.667873
558,-1079,8,0,0,0,731.071350
11,1577,1,0,0,0,656.380005
344,35,2,1,0,6,20.667873
-862,456,3,1,0,6,20.667873
-310,975,4,0,0,0,780.349548
-292,-1316,5,0,0,0,701.246765
-1372,-856,6,1,0,6,20.667873
1551,-788,7,0,0,0,628.386963
1433,-1865,8,0,0,0,542.905762
793,1918,1,0,0,6,20.667873
676,557,2,0,0,6,20.667873
-918,220,3,1,0,6,20.667873
-748,1406,4,0,0,0,653.579041
-998,-1942,5,0,0,0,563.895752
-1824,-1049,6,1,0,6,20.667873
1343,-357,7,0,0,6,20.667873
480,-902,8,0,0,0,780.723206
871,893,1,0,0,6,20.667873
1497,303,2,1,0,6,20.667873
-1651,1357,3,0,0,0,569.960938
-14,558,4,0,0,0,954.725281
-136,-224,5,1,0,6,20.667873
-931,-132,6,0,0,0,804.595459
1273,-370,7,1,0,6,20.667873
304,-1185,8,0,0,0,729.042053
1221,1840,1,0,0,6,20.667873
1117,267,2,0,0,6,20.667873
-1198,934,3,0,0,0,667.076721
-1065,1269,4,0,0,0,642.322510
-246,-1325,5,0,0,0,701.323975
-1158,-401,6,0,0,0,728.552246
1948,-331,7,0,0,6,20.667873
847,-1628,8,1,0,6,20.667873
1006,1311,1,0,0,6,20.667873
406,335,2,1,0,6,20.667873
-424,51,3,1,0,6,20.667873
-218,871,4,0,0,0,817.874573
-33,-1913,5,1,0,6,20.667873
-1202,-781,6,0,0,0,683.660950
1895,-1613,7,0,0,0,527.019165
1042,-1809,8,0,0,0,576.591675
211,1479,1,0,0,0,671.835876
1652,668,2,0,0,6,20.667873
-1589,400,3,0,0,0,645.456787
-893,1977,4,0,0,0,565.728394
-451,-1854,5,0,0,0,602.107056
-1026,-326,6,0,0,0,765.724915
1327,-500,7,0,0,6,20.667873
866,-1331,8,1,0,6,20.667873
527,1292,1,1,0,6,20.667873
1902,1724,2,0,0,6,20.667873
-962,158,3,1,0,6,20.667873
-1669,1794,4,0,0,0,531.371765
-109,-1718,5,0,0,0,631.389893
-1085,-239,6,0,0,0,756.678589
1920,-236,7,0,0,6,20.667873
34,-1922,8,0,0,0,599.995728
251,1186,1,1,0,6,20.667873
835,329,2,0,0,6,20.667873
-950,724,3,1,0,6,20.667873
-780,1336,4,0,0,0,661.866089
-538,-1755,5,0,0,0,613.111450
-1841,-1380,6,0,0,0,549.107300
192,-64,7,1,0,6,20.667873
205,-486,8,1,0,6,20.667873
70,464,1,0,0,0,1004.740723
174,81,2,0,0,0,1262.583252
-951,929,3,0,0,0,705.215271
-824,1912,4,0,0,0,577.358215
-384,-700,5,1,0,6,20.667873
-868,-355,6,0,0,0,805.367310
1637,-1281,7,0,0,0,577.816040
1209,-1213,8,0,0,0,632.856689
1606,1821,1,0,0,6,20.667873
605,311,2,0,0,6,20.667873
-1129,396,3,0,0,0,735.426453
-884,1107,4,0,0,0,687.031738
-829,-1528,5,1,0,6,20.667873
-983,-374,6,0,0,0,772.417725
1234,-244,7,0,0,6,20.667873
1101,-1230,8,0,0,0,643.338501
130,1775,1,0,0,0,621.904663
1016,726,2,0,0,6,20.667873
-1971,653,3,0,0,0,578.127075
-705,1383,4,0,0,0,660.890015
-170,-1341,5,1,0,6,20.667873
-349,-250,6,0,0,0,1030.390991
1471,-875,7,0,0,0,633.030945
188,-1064,8,0,0,0,764.677307
125,1850,1,0,0,0,610.243347
1614,111,2,0,0,6,20.667873
-1664,935,3,1,0,6,20.667873
-366,1648,4,0,0,0,636.956665
-512,-1831,5,0,0,0,603.125488
-861,-94,6,0,0,0,828.228088
1564,-1102,7,0,0,0,601.337280
1065,-1133,8,0,0,0,660.404907
773,1131,1,0,0,6,20.667873
1756,1618,2,0,0,6,20.667873
-1576,227,3,0,0,0,653.637207
-348,733,4,0,0,0,846.995911
-115,-1023,5,0,0,0,778.572815
-947,-94,6,0,0,0,801.148926
907,-268,7,0,0,6,20.667873
1120,-1540,8,0,0,0,602.682251
127,1591,1,0,0,0,652.957520
1710,1424,2,0,0,6,20.667873
-1591,1097,3,1,0,6,20.667873
-1286,1761,4,0,0,0,564.265320
-570,-1180,5,0,0,0,709.336609
-1456,-729,6,0,0,0,647.250122
1772,-779,7,1,0,6,20.667873
819,-1756,8,0,0,0,597.744141
818,1017,1,0,0,6,20.667873
1435,1019,2,0,0,6,20.667873
-1875,278,3,1,0,6,20.667873
-192,762,4,0,0,0,856.219543
-1027,-1986,5,0,0,0,557.193848
-1588,-587,6,1,0,6,20.667873
1515,-700,7,1,0,6,20.667873
749,-845,8,0,0,0,752.025879
1787,1936,1,0,0,6,20.667873
682,52,2,1,0,6,20.667873
-967,777,3,0,0,0,725.058594
-696,1344,4,1,0,6,20.667873
-573,-1281,5,0,0,0,689.738159
-827,-393,6,0,0,0,812.241699
1752,-1633,7,0,0,0,537.792847
1001,-1414,8,0,0,0,629.575134
1058,1181,1,0,0,6,20.667873
413,169,2,0,0,0,1019.235535
-1522,474,3,1,0,6,20.667873
-356,1366,4,0,0,0,688.048157
-286,-361,5,0,0,0,1010.128723
-1487,-83,6,1,0,6,20.667873
1556,-405,7,0,0,6,20.667873
425,-569,8,1,0,6,20.667873
237,1500,1,0,0,6,20.667873
1480,1053,2,0,0,6,20.667873
-1925,862,3,1,0,6,20.667873
-526,1760,4,0,0,0,612.908875
-470,-1055,5,0,0,0,745.546936
-1539,-270,6,0,0,0,659.023315
1704,-490,7,1,0,6,20.667873
483,-875,8,1,0,6,20.667873
340,1581,1,0,0,6,20.667873
1824,689,2,0,0,6,20.667873
-1922,924,3,1,0,6,20.667873
-282,1499,4,0,0,0,665.907349
-942,-1808,5,0,0,0,583.315979
-449,-36,6,0,0,0,1016.534119
1605,-697,7,0,0,0,626.736023
23,-1364,8,0,0,0,697.829468
1389,1908,1,0,0,6,20.667873
1213,153,2,1,0,6,20.667873
-1638,1231,3,1,0,6,20.667873
-1854,1914,4,0,0,0,507.829041
-44,-1580,5,0,0,0,655.733826
-1711,-1529,6,0,0,0,549.864136
1559,-162,7,0,0,6,20.667873
1696,-1989,8,0,0,0,513.221619
862,1406,1,1,0,6,20.667873
1852,410,2,0,0,6,20.667873
-753,218,3,1,0,6,20.667873
-1391,1759,4,0,0,0,556.347839
-1567,-1577,5,0,0,0,558.799866
-744,-163,6,1,0,6,20.667873
1404,-1075,7,0,0,0,623.744629
538,-1509,8,0,0,0,651.890625
884,1574,1,0,0,6,20.667873
1946,382,2,1,0,6,20.667873
-653,278,3,1,0,6,20.667873
-477,489,4,0,0,0,896.537964
-837,-1456,5,1,0,6,20.667873
-764,-332,6,0,0,0,839.435608
483,-170,7,0,0,0,979.584839
253,-1327,8,1,0,6,20.667873
1040,1538,1,0,0,6,20.667873
1195,684,2,0,0,6,20.667873
-1059,1049,3,0,0,0,672.482544
-547,1838,4,0,0,0,600.681030
-397,-858,5,0,0,0,803.045227
-1992,-868,6,0,0,0,565.262817
1130,-679,7,0,0,0,707.625610
583,-1318,8,0,0,0,682.120972
1264,1626,1,0,0,6,20.667873
1542,379,2,0,0,6,20.667873
-747,336,3,0,0,0,844.287476
-495,511,4,0,0,0,884.841187
-641,-1192,5,0,0,0,700.099243
-1869,-975,6,0,0,0,573.839355
1307,-1295,7,0,0,0,612.445923
663,-1487,8,1,0,6,20.667873
42,1275,1,0,0,0,717.039673
1014,141,2,1,0,6,20.667873
-862,285,3,0,0,0,814.681763
-53,1896,4,0,0,0,603.798401
-1509,-1707,5,1,0,6,20.667873
-1585,-470,6,0,0,0,642.919189
1702,-149,7,1,0,6,20.667873
463,-1665,8,0,0,0,630.279541
330,1525,1,0,0,6,20.667873
1808,1490,2,0,0,6,20.667873
-1009,892,3,0,0,0,701.512817
-508,1636,4,0,0,0,632.783386
-326,-1930,5,0,0,0,594.866577
-434,-174,6,1,0,6,20.667873
1682,-410,7,0,0,6,20.667873
219,-551,8,1,0,6,20.667873
1227,1473,1,1,0,6,20.667873
1554,754,2,0,0,6,20.667873
-451,408,3,0,0,0,930.012390
-338,1010,4,0,0,0,768.805786
-1426,-1739,5,0,0,0,555.546082
-1897,-1598,6,1,0,6,20.667873
1807,-1194,7,0,0,0,566.182495
602,-1681,8,0,0,0,620.980347
334,495,1,0,0,0,935.281128
1362,767,2,0,0,6,20.667873
-1133,283,3,0,0,0,742.372192
-1158,1621,4,0,0,0,589.865967
-412,-619,5,0,0,0,872.122437
-1243,-49,6,0,0,0,724.256897
1176,-1039,7,0,0,0,657.796448
589,-638,8,0,0,0,827.500061
232,1522,1,0,0,6,20.667873
408,324,2,0,0,0,974.588135
-320,165,3,0,0,0,1081.129150
-890,1050,4,1,0,6,20.667873
-396,-1571,5,0,0,0,648.684082
-1699,-864,6,0,0,0,602.404541
1335,-752,7,0,0,0,664.611572
88,-1382,8,0,0,0,693.538757
572,705,1,0,0,6,20.667873
569,394,2,0,0,6,20.667873
-841,141,3,0,0,0,832.705444
-1266,1327,4,0,0,0,613.355774
-259,-969,5,0,0,0,786.043396
-988,-965,6,1,0,6,20.667873
1582,-1529,7,0,0,0,561.741821
1122,-1237,8,1,0,6,20.667873
1514,1656,1,0,0,6,20.667873
744,465,2,0,0,6,20.667873
-1529,527,3,0,0,0,649.189819
-157,802,4,0,0,0,844.943542
-1353,-157,6,0,0,0,698.273743
1809,-1593,7,1,0,6,20.667873
896,-1453,8,0,0,0,633.783813
397,1213,1,0,0,6,20.667873
59,42,2,0,0,0,1543.777954
-923,531,3,1,0,6,20.667873
-427,1784,4,0,0,0,613.300842
-893,-863,6,0,0,0,724.742310
775,-560,7,0,0,0,799.793762
1584,-1789,8,0,0,0,538.447815
148,1211,1,0,0,0,729.831299
1081,589,2,1,0,6,20.667873
-936,709,3,0,0,0,740.803467
-480,570,4,0,0,0,871.500183
-839,-59,6,0,0,0,836.667969
341,-320,7,0,0,0,1005.735840
430,-1997,8,0,0,0,582.748291
28,1849,1,0,0,0,611.012146
1753,981,2,1,0,6,20.667873
-1893,1529,3,0,0,0,533.322998
-1348,1514,4,0,0,0,584.925659
-1423,-205,6,1,0,6,20.667873
890,-575,7,0,0,0,770.284058
294,-1766,8,0,0,0,620.222046
447,1818,1,0,0,6,20.667873
619,259,2,0,0,6,20.667873
-206,198,3,0,0,0,1147.798950
-270,781,4,0,0,0,841.746521
-542,-152,6,0,0,0,952.291199
1265,-53,7,0,0,6,20.667873
1017,-1633,8,0,0,0,599.775391
280,1084,1,0,0,6,20.667873
728,603,2,0,0,6,20.667873
-789,200,3,0,0,0,846.096680
-713,1456,4,1,0,6,20.667873
-808,-582,6,0,0,0,788.122314
1470,-501,7,0,0,6,20.667873
541,-1171,8,1,0,6,20.667873
1078,1912,1,1,0,6,20.667873
1132,938,2,0,0,6,20.667873
-706,407,3,0,0,0,845.757263
-453,1854,4,0,0,0,602.036438
-1871,-521,6,0,0,0,597.073242
678,-414,7,1,0,6,20.667873
311,-1955,8,1,0,6,20.667873
523,1999,1,0,0,0,579.504761
1412,307,2,0,0,6,20.667873
-1545,935,3,1,0,6,20.667873
-446,1016,4,0,0,0,757.048218
-1693,-1367,6,0,0,0,564.860901
1941,-743,7,0,0,0,577.855347
1174,-1709,8,0,0,0,578.531677
306,1555,1,0,0,6,20.667873
898,868,2,0,0,6,20.667873
-1522,330,3,0,0,0,659.964417
-1533,1967,4,0,0,0,526.421692
-1112,-632,6,0,0,0,716.286377
1600,-234,7,0,0,6,20.667873
1686,-1884,8,1,0,6,20.667873
827,981,1,0,0,6,20.667873
1389,380,2,0,0,6,20.667873
-1671,104,3,0,0,0,639.316956
-94,672,4,1,0,6,20.667873
-1954,-998,6,1,0,6,20.667873
1540,-258,7,0,0,6,20.667873
536,-1280,8,0,0,0,692.941040
177,1956,1,0,0,0,593.903442
243,242,2,0,0,0,1095.151245
-1630,210,3,1,0,6,20.667873
-69,1107,4,0,0,0,757.160400
-789,-634,6,1,0,6,20.667873
1727,-1531,7,0,0,0,548.235535
75,-1244,8,0,0,0,723.728943
122,893,1,0,0,0,816.778687
1217,528,2,0,0,6,20.667873
-1819,1145,3,0,0,0,568.342712
-624,1032,4,0,0,0,733.146423
-1576,-25,6,0,0,0,656.532227
1988,-338,7,0,0,6,20.667873
849,-1993,8,0,0,0,566.123352
660,1052,1,0,0,6,20.667873
1217,309,2,0,0,6,20.667873
-582,294,3,1,0,6,20.667873
-1303,1597,4,0,0,0,580.213623
-1187,-599,6,1,0,6,20.667873
1639,-747,7,0,0,0,618.495178
707,-1328,8,0,0,0,669.835266
1298,1472,1,1,0,6,20.667873
1601,1491,2,1,0,6,20.667873
-1840,1256,3,0,0,0,558.208740
-68,437,4,0,0,0,1021.818970
-862,-554,6,0,0,0,779.906250
1776,-218,7,1,0,6,20.667873
98,-1841,8,1,0,6,20.667873
1246,1301,1,1,0,6,20.667873
1140,650,2,0,0,6,20.667873
-1612,573,3,0,0,0,633.157043
-133,769,4,1,0,6,20.667873
-1790,-774,6,1,0,6,20.667873
1671,-453,7,0,0,6,20.667873
816,-1025,8,1,0,6,20.667873
808,1996,1,0,0,6,20.667873
1479,503,2,1,0,6,20.667873
-1735,147,3,0,0,0,628.138245
-760,771,4,0,0,0,764.112671
-1537,-297,6,1,0,6,20.667873
286,-1085,8,0,0,0,753.838257
336,582,1,0,0,6,20.667873
1923,1879,2,0,0,6,20.667873
-1752,1696,3,0,0,0,532.739258
-1404,1486,4,1,0,6,20.667873
-930,-421,6,0,0,0,780.979797
663,-1296,8,1,0,6,20.667873
33,254,1,0,0,0,1179.336182
1188,46,2,0,0,6,20.667873
-1491,1390,3,1,0,6,20.667873
-569,1842,4,0,0,0,599.172424
-1306,-1137,6,0,0,0,629.717285
422,-1395,8,0,0,0,678.914978
338,1187,1,0,0,6,20.667873
548,35,2,0,0,0,959.440247
-742,705,3,0,0,0,780.230957
-739,776,4,0,0,0,767.050659
-1626,-696,6,1,0,6,20.667873
222,-1547,8,0,0,0,658.960876
16,71,1,0,0,0,1542.354614
1388,436,2,0,0,6,20.667873
-1423,915,3,1,0,6,20.667873
-399,1259,4,0,0,0,707.104126
-1374,-947,6,0,0,0,640.254639
244,-787,8,0,0,0,842.582458
131,1482,1,0,0,0,673.023804
1248,1087,2,0,0,6,20.667873
-1326,1281,3,0,0,0,611.860657
-767,784,4,0,0,0,760.377014
-629,-461,6,0,0,0,858.414124
15,-1479,8,1,0,6,20.667873
572,1754,1,1,0,6,20.667873
1118,19,2,0,0,6,20.667873
-756,40,3,0,0,0,866.950195
-833,1807,4,1,0,6,20.667873
-1193,-548,6,0,0,0,708.816040
689,-994,8,1,0,6,20.667873
1086,1438,1,0,0,6,20.667873
1280,341,2,0,0,6,20.667873
-1467,1051,3,1,0,6,20.667873
-1089,1512,4,0,0,0,608.846863
-1524,-1140,6,0,0,0,602.832275
1098,1631,1,0,0,6,20.667873
1518,964,2,0,0,6,20.667873
-1832,1747,3,1,0,6,20.667873
1016,1371,1,0,0,6,20.667873
1666,1357,2,0,0,6,20.667873
-1503,1154,3,0,0,0,604.071167
228,749,1,0,0,0,857.277405
1894,1533,2,0,0,6,20.667873
-1087,650,3,0,0,0,719.107605
422,719,1,1,0,6,20.667873
1608,481,2,0,0,6,20.667873
-1374,259,3,0,0,0,690.783203
1110,1776,1,0,0,6,20.667873
1961,1365,2,1,0,6,20.667873
-1287,1259,3,0,0,0,618.621399
293,1834,1,0,0,0,609.777588
643,38,2,1,0,6,20.667873
-506,404,3,0,0,0,911.961060
1300,1833,1,1,0,6,20.667873
-1595,546,3,0,0,0,637.343262
481,1731,1,0,0,6,20.667873
-739,565,3,0,0,0,807.690796
-415,26,3,0,0,0,1039.595825
-1340,403,3,0,0,0,690.559998
-1407,137,3,0,0,0,687.637817
-381,196,3,0,0,0,1030.958496
-1066,228,3,1,0,6,20.667873
-1594,761,3,0,0,0,624.058472
-1992,1444,3,1,0,6,20.667873
-1149,520,3,0,0,0,720.315613
-1684,710,3,1,0,6,20.667873
-1400,714,3,0,0,0,657.373840
-619,162,3,0,0,0,915.383850
-1171,1016,3,0,0,0,661.258789
-1765,1375,3,0,0,0,556.998352
-1991,1449,3,0,0,0,529.980957
-1981,1713,3,1,0,6,20.667873
-1079,355,3,1,0,6,20.667873
-902,793,3,0,0,0,734.329224
-1552,83,3,1,0,6,20.667873
-1483,604,3,0,0,0,652.025208
-1772,598,3,0,0,0,607.805847
-1240,839,3,1,0,6,20.667873
-1052,556,3,0,0,0,736.999329
-1437,441,3,0,0,0,670.086731
-1958,592,3,1,0,6,20.667873
-1635,1343,3,0,0,0,572.789429
-1327,273,3,0,0,0,699.809326
