each times' max average throughput
601.846069,584.471558,585.480896,598.089294,611.933289,606.335876,596.225769,598.527710,608.117065,596.149414,601.229370,594.304504,589.203003,593.838135,612.606812,603.075195,585.814575,606.455444,600.229797,614.065918,585.152161,601.263123,598.333862,602.799377,590.514160,582.379944,612.768188,592.906189,595.400024,590.479065,595.065979,627.271606,609.720764,597.980103,595.955017,620.098999,579.799011,593.567078,613.365540,593.844360,600.877625,603.646667,604.499390,603.156860,601.926453,597.878540,591.108887,608.080444,570.152527,612.709290,617.766113,585.195435,607.263123,591.663025,604.387024,600.326172,569.652649,596.712891,586.263855,608.488098,596.718201,612.541992,607.718384,609.623962,588.864197,610.097595,613.958496,590.917053,591.447021,606.794800,596.127686,597.740173,601.592834,621.299011,583.320007,594.936462,607.041504,605.024902,608.441772,595.195984,598.881226,597.103455,592.631775,615.062012,606.923096,602.606018,588.126953,618.928772,617.787109,597.495850,580.370239,602.898682,576.230957,612.293457,609.089233,581.425720,596.886292,606.221619,589.065063,597.321777,
avg. throughput in all test times
599.551758
avg. BS TX power in all test times
MBS area 1,MBS area 2,MBS area 3,CBSD 1,CBSD 2,CBSD 3,CBSD 4,CBSD 5,CBSD 6,CBSD 7,CBSD 8,CBSD 9,
8.262,7.938,8.750,0.199,0.146,0.156,0.295,0.315,0.248,0.304,0.282,0.192,
avg. mbs all power,avg. cbsd enable number,avg. mbs area all power,avg. cbsd all power
46.400,2.000,24.950,2.138
avg. max avg. throughput generation number in all test times
0.980000
avg. number of relay UE
126

the max average throughput times

BS TX power
MBS area 1,MBS area 2,MBS area 3,CBSD 1,CBSD 2,CBSD 3,CBSD 4,CBSD 5,CBSD 6,CBSD 7,CBSD 8,CBSD 9,
7.500,6.250,7.500,0.875,0.875,0.000,0.500,0.000,0.000,0.000,0.000,0.000,
max average throughput
597.321777

x,y,area,be blocked (1 : NLOS / 0 : LOS),be blocked number (>=1 : CBSD(x) / 0 : no),connect bs number (>=1 : CBSD / 0 : MBS),throughput (unit : M bps)
1962,690,1,0,0,0,635.274536
1444,-1040,2,1,0,2,110.657372
-1910,454,3,0,0,0,651.726624
1748,1058,1,0,0,0,640.328491
1376,-1931,2,1,0,4,202.284912
-183,-1373,3,0,0,0,751.570618
1387,1268,1,0,0,0,664.206604
1561,-1948,2,0,0,0,557.583862
-198,-380,3,1,0,4,202.284912
669,1163,1,0,0,0,760.718384
1709,-884,2,0,0,0,631.471191
-1109,1844,3,1,0,1,241.483734
713,324,1,0,0,0,915.562927
1196,-939,2,0,0,0,698.702454
-388,-42,3,0,0,0,1116.343384
1513,279,1,0,0,0,721.454651
848,-457,2,0,0,0,829.730286
-999,-1702,3,0,0,0,650.231689
1734,75,1,0,0,0,686.935730
1620,-1937,2,0,0,0,554.337158
-186,-1576,3,0,0,0,712.574280
1228,861,1,1,0,2,284.568237
919,-270,2,0,0,0,831.365601
-506,1710,3,0,0,0,679.185730
1716,519,1,0,0,0,677.670837
1601,-962,2,0,0,0,639.935791
-157,1450,3,0,0,0,736.770630
236,1620,1,1,0,2,211.362793
522,-1580,2,1,0,4,202.284912
-357,-616,3,1,0,4,202.284912
1316,534,1,0,0,0,744.395569
887,-1777,2,0,0,0,622.441528
-58,-595,3,0,0,0,993.377380
1390,441,1,1,0,2,223.688599
970,-1395,2,0,0,0,666.954285
-1865,-1600,3,1,0,4,202.284912
1953,782,1,1,0,2,171.396286
1938,-236,2,1,0,2,135.603592
-263,1267,3,0,0,0,771.107544
526,913,1,0,0,0,830.156738
873,-421,2,0,0,0,827.971680
-244,-1228,3,1,0,4,202.284912
1454,1485,1,1,0,2,205.304810
257,-327,2,1,0,4,202.284912
-1060,1706,3,1,0,1,241.483734
1832,1796,1,0,0,0,575.631653
1577,-164,2,0,0,0,686.735718
-1154,490,3,1,0,1,241.483734
679,653,1,1,0,2,367.344055
1202,-710,2,0,0,0,723.179871
-438,-1597,3,0,0,0,700.379150
271,770,1,1,0,2,285.309937
806,-1248,2,0,0,0,705.355652
-1207,940,3,1,0,1,241.483734
1844,915,1,0,0,0,638.203369
1678,-979,2,0,0,0,628.728210
-54,-1502,3,0,0,0,728.153870
13,549,1,1,0,2,221.894287
190,-271,2,0,0,0,1137.583374
-468,-1311,3,0,0,0,750.147095
720,1577,1,1,0,2,243.789352
280,-1532,2,0,0,0,691.857178
-199,-1392,3,0,0,0,747.250732
1323,523,1,1,0,2,240.693100
1398,-1806,2,0,0,0,582.750793
-1831,95,3,0,0,0,671.254761
391,245,1,0,0,0,1068.045898
1218,-215,2,1,0,2,171.949738
-883,-550,3,0,0,0,833.837830
807,916,1,0,0,0,787.840149
1754,-1440,2,0,0,0,584.553589
-473,608,3,1,0,1,241.483734
1900,1095,1,1,0,2,175.674683
716,-1769,2,1,0,4,202.284912
-44,-1142,3,0,0,0,806.798950
215,323,1,0,0,0,1118.013794
343,-744,2,0,0,0,876.337463
-1009,-1272,3,0,0,0,706.033020
1007,728,1,0,0,0,782.752869
677,-680,2,0,0,0,830.854248
-915,-377,3,0,0,0,848.200684
910,1472,1,1,0,2,259.662384
1871,-107,2,0,0,0,638.981140
-558,-875,3,0,0,0,834.530640
1153,333,1,0,0,0,792.743958
1830,-1692,2,0,0,0,558.030029
-892,-1298,3,0,0,0,714.746460
385,206,1,1,0,2,226.247131
1220,-324,2,0,0,0,752.062439
-796,1438,3,0,0,0,702.524780
1423,321,1,0,0,0,736.715698
1402,-924,2,0,0,0,670.336487
-1489,182,3,0,0,0,728.705383
1114,931,1,0,0,0,738.084106
1087,-719,2,0,0,0,742.894287
-1489,875,3,1,0,1,241.483734
1390,1492,1,1,0,2,211.318939
805,-1755,2,0,0,0,630.477722
-205,1233,3,0,0,0,781.062317
119,719,1,0,0,0,936.294617
1812,-1070,2,0,0,0,605.988708
-1970,-141,3,0,0,0,650.013184
1249,1885,1,1,0,2,182.845276
1651,-1128,2,0,0,0,620.517517
-197,839,3,1,0,1,241.483734
887,1461,1,1,0,2,263.246277
1878,-1702,2,0,0,0,553.293152
-276,-1151,3,1,0,4,202.284912
1740,1427,1,0,0,0,612.838135
250,-47,2,0,0,0,1213.504395
-953,-1890,3,0,0,0,630.265991
1231,1763,1,0,0,0,625.784790
839,-1633,2,1,0,4,202.284912
-541,-576,3,0,0,0,912.976807
587,1827,1,0,0,0,658.231812
1692,-1534,2,1,0,2,86.181076
-662,981,3,1,0,1,241.483734
1861,491,1,0,0,0,657.385132
1431,-1065,2,0,0,0,653.059570
-141,207,3,1,0,0,335.967285
302,792,1,0,0,0,892.783752
419,-337,2,0,0,0,997.647644
-393,822,3,0,0,0,871.987671
1496,1010,1,0,0,0,675.722656
507,-112,2,0,0,0,1007.731323
-332,312,3,1,0,1,241.483734
364,644,1,0,0,0,931.990234
1441,-1631,2,0,0,0,596.426086
-1590,-784,3,0,0,0,680.876038
725,45,1,0,0,0,937.239014
1584,-1946,2,0,0,0,556.128540
-359,879,3,0,0,0,860.115356
1378,1103,1,0,0,0,682.122009
292,-189,2,0,0,0,1123.253296
-1205,-1278,3,0,0,0,683.514221
1387,1441,1,0,0,0,646.420959
169,-1347,2,0,0,0,731.190735
-1341,-1329,3,0,0,0,662.880859
195,1926,1,0,0,0,655.734070
1275,-1726,2,0,0,0,600.437561
-1618,-732,3,0,0,0,680.377197
1443,1353,1,0,0,0,649.572021
896,-1734,2,0,0,0,627.396729
-854,1677,3,0,0,0,663.800659
979,199,1,0,0,0,845.481323
1385,-549,2,0,0,0,704.547974
-642,1705,3,0,0,0,673.068237
1010,57,1,0,0,0,841.879150
100,-582,2,1,0,4,202.284912
-669,-708,3,0,0,0,852.756653
1165,1095,1,0,0,0,710.436035
811,-1833,2,0,0,0,619.827820
-325,815,3,0,0,0,882.839539
763,1679,1,0,0,0,669.580444
1706,-897,2,0,0,0,630.975464
-219,319,3,1,0,1,241.483734
1654,79,1,0,0,0,700.394775
1729,-1810,2,0,0,0,556.812744
-472,-822,3,0,0,0,860.603760
644,853,1,0,0,0,826.058105
1495,-1087,2,0,0,0,642.911438
-1010,-1442,3,0,0,0,682.859558
273,741,1,0,0,0,913.172607
743,-1826,2,0,0,0,624.556702
-1388,-427,3,1,0,4,202.284912
1601,386,1,1,0,2,195.117706
1880,-979,2,1,0,2,103.916367
-931,575,3,0,0,0,819.291504
713,577,1,0,0,0,870.065063
346,-915,2,0,0,0,825.306824
-1636,-696,3,0,0,0,680.052734
465,1337,1,0,0,0,745.339050
1735,-1277,2,1,0,2,95.016289
-1338,1693,3,0,0,0,624.773499
165,1158,1,1,0,2,252.809418
648,-1029,2,0,0,0,762.777222
-1798,1430,3,0,0,0,606.959656
655,1951,1,1,0,2,188.966904
1628,-1875,2,0,0,0,559.074829
-1752,-712,3,0,0,0,662.404175
1283,1765,1,0,0,0,621.604614
162,-1646,2,0,0,0,674.649475
-1246,-873,3,0,0,0,724.661011
428,900,1,0,0,0,846.183350
324,-77,2,0,0,0,1135.798584
-131,-1449,3,1,0,4,202.284912
1504,755,1,0,0,0,695.767822
272,-1687,2,0,0,0,665.329163
-152,-1680,3,0,0,0,695.089050
1913,488,1,0,0,0,650.125427
1344,-768,2,1,0,2,127.414627
-1992,1187,3,0,0,0,604.309998
1588,409,1,0,0,0,703.185242
192,-1879,2,1,0,4,202.284912
-337,-520,3,0,0,0,983.039246
254,1283,1,0,0,0,768.041077
1573,-1889,2,0,0,0,561.930542
-1417,-171,3,0,0,0,742.971863
1419,252,1,0,0,0,740.187744
1203,-1048,2,0,0,0,684.944214
-513,1501,3,0,0,0,712.699585
1918,1047,1,0,0,0,621.198059
1817,-921,2,1,0,2,107.980469
-1114,-1826,3,0,0,0,627.278870
1187,31,1,0,0,0,795.805786
1612,-354,2,0,0,0,675.262146
-1956,-256,3,1,0,4,202.284912
1901,1593,1,1,0,2,158.966492
1758,-854,2,0,0,0,627.011963
-698,-193,3,0,0,0,938.114624
1958,1990,1,0,0,0,551.737549
1199,-994,2,1,0,2,116.920509
-926,1050,3,0,0,0,748.510864
1973,1265,1,1,0,2,164.955307
1763,-329,2,0,0,0,651.524109
-1213,421,3,0,0,0,773.341431
1540,310,1,0,0,0,715.485840
719,-5,2,0,0,0,913.919739
-803,206,3,1,0,1,241.483734
1995,1282,1,0,0,0,597.943420
1793,-1951,2,0,0,0,540.750366
-653,419,3,0,0,0,918.258911
1932,1397,1,0,0,0,596.419556
1214,-1993,2,1,0,4,202.284912
-215,-285,3,0,0,0,1142.038818
328,1624,1,0,0,0,700.237854
1583,-1140,2,0,0,0,627.549561
-1800,-91,3,1,0,4,202.284912
489,948,1,1,0,2,366.783600
980,-1736,2,0,0,0,621.377625
-193,-1478,3,0,0,0,730.533142
174,1873,1,0,0,0,663.931580
1278,-1563,2,0,0,0,617.765808
-1891,1184,3,0,0,0,615.279724
1901,1222,1,0,0,0,611.631104
1139,-924,2,0,0,0,709.038452
-264,-938,3,0,0,0,852.648438
1663,1441,1,1,0,2,187.193115
1096,-72,2,0,0,0,792.009277
-1303,-888,3,0,0,0,714.407227
1723,69,1,0,0,0,688.794250
1746,-303,2,0,0,0,654.940491
-574,-72,3,0,0,0,1002.848267
589,557,1,0,0,0,905.624268
1931,-128,2,0,0,0,629.826111
-283,-1311,3,0,0,0,760.823792
995,1339,1,0,0,0,698.270447
1994,-1309,2,0,0,0,570.446411
-433,-316,3,1,0,4,202.284912
1851,1489,1,1,0,2,167.633255
1070,-401,2,0,0,0,780.646729
-545,-1535,3,0,0,0,705.102844
1311,1983,1,0,0,0,597.251587
1986,-1661,2,0,0,0,547.285645
-1800,517,3,1,0,1,241.483734
482,1063,1,0,0,0,800.744507
1361,-1883,2,1,0,4,202.284912
-98,-165,3,0,0,0,1321.103394
78,329,1,1,0,0,225.270004
1861,-1951,2,0,0,0,535.852966
-19,-2000,3,0,0,0,646.416931
1355,1468,1,0,0,0,646.749695
881,-1955,2,1,0,4,202.284912
-914,-1501,3,1,0,4,202.284912
350,1365,1,0,0,0,746.638367
1329,-160,2,0,0,0,735.224670
-244,1465,3,0,0,0,731.567749
611,1499,1,0,0,0,706.890808
928,-612,2,0,0,0,788.558411
-806,1413,3,0,0,0,705.483154
59,271,1,1,0,0,296.775330
983,-1320,2,0,0,0,676.060364
-1135,-1552,3,0,0,0,657.673523
976,1921,1,0,0,0,625.192200
1016,-1491,2,1,0,4,202.284912
-532,-1217,3,0,0,0,763.619202
1766,1499,1,1,0,2,174.470490
1578,-1838,2,0,0,0,566.068726
-242,666,3,0,0,0,944.383728
167,770,1,0,0,0,913.825378
1633,-864,2,0,0,0,643.053711
-66,1160,3,0,0,0,802.052246
768,1046,1,1,0,2,435.492340
934,-812,2,0,0,0,757.727356
-567,-839,3,0,0,0,841.589539
38,1415,1,0,0,0,745.347595
601,-649,2,1,0,4,202.284912
-1610,66,3,1,0,1,241.483734
550,1771,1,0,0,0,668.004272
994,-613,2,0,0,0,774.394104
-625,-222,3,1,0,4,202.284912
1022,424,1,0,0,0,816.100586
1197,-1195,2,0,0,0,668.250977
-915,-1125,3,0,0,0,738.418152
1680,490,1,0,0,0,684.575439
1510,-1517,2,0,0,0,601.158386
-94,1076,3,1,0,2,215.153641
1712,1646,1,0,0,0,597.521912
419,-1603,2,0,0,0,674.148315
-864,557,3,1,0,1,241.483734
120,499,1,0,0,0,1037.362183
1372,-242,2,0,0,0,723.766235
-776,1667,3,0,0,0,670.429382
608,1628,1,0,0,0,686.571899
1214,-874,2,0,0,0,703.388489
-1896,-1132,3,0,0,0,618.210205
259,1343,1,0,0,0,755.197510
1578,-1326,2,0,0,0,611.883667
-654,-11,3,0,0,0,967.449829
640,799,1,0,0,0,838.455139
1111,-394,2,0,0,0,771.708130
-613,615,3,0,0,0,885.835327
1105,1401,1,0,0,0,679.019958
611,-514,2,0,0,0,883.745422
-238,-869,3,1,0,4,202.284912
579,1837,1,0,0,0,657.177002
853,-1653,2,1,0,4,202.284912
-319,-1820,3,0,0,0,669.037354
85,683,1,0,0,0,952.773621
1626,-38,2,0,0,0,679.444641
-1949,-335,3,0,0,0,649.646240
857,317,1,0,0,0,871.157349
1501,-673,2,1,0,2,129.123474
-461,317,3,0,0,0,1012.487915
1224,14,1,0,0,0,787.064880
820,-1957,2,1,0,4,202.284912
-1478,502,3,1,0,1,241.483734
479,1896,1,0,0,0,652.840210
1193,-1073,2,0,0,0,683.320496
-1808,737,3,0,0,0,653.296997
427,1541,1,1,0,2,237.308960
1861,-1859,2,1,0,2,73.765213
-837,-510,3,0,0,0,850.971680
167,1368,1,0,0,0,753.021545
1194,-1193,2,0,0,0,668.849121
-1164,-997,3,0,0,0,722.555298
284,953,1,0,0,0,846.810120
96,-1313,2,1,0,4,202.284912
-1426,1400,3,1,0,1,241.483734
1688,979,1,0,0,0,653.456421
858,-361,2,1,0,2,166.774536
-1119,-807,3,0,0,0,752.712524
1121,1347,1,0,0,0,684.176941
1454,-973,2,0,0,0,658.599976
-793,-112,3,1,0,4,202.284912
190,1445,1,0,0,0,736.974670
597,-625,2,0,0,0,860.928589
-1808,958,3,0,0,0,639.927307
840,905,1,0,0,0,784.569641
611,-1517,2,1,0,4,202.284912
-1953,-762,3,1,0,4,202.284912
727,200,1,1,0,2,239.645126
39,-532,2,0,0,0,999.951477
-1835,1586,3,0,0,0,591.550964
539,-1016,2,0,0,0,778.780701
-1067,926,3,0,0,0,745.900452
1353,-138,2,0,0,0,730.671936
-1239,-497,3,0,0,0,762.160706
1503,-379,2,0,0,0,693.206970
-656,-843,3,1,0,4,202.284912
-1539,1466,3,1,0,1,241.483734
-1930,-1652,3,0,0,0,578.409241
-801,757,3,0,0,0,817.233582
-82,-890,3,0,0,0,877.521606
-213,1883,3,0,0,0,661.821655
-687,1650,3,1,0,1,241.483734
-486,1752,3,0,0,0,673.650696
-832,-1914,3,0,0,0,634.287231
-1852,1126,3,0,0,0,623.516541
-368,1203,3,0,0,0,779.206360
-324,133,3,0,0,0,1147.557861
-954,1722,3,0,0,0,650.944580
-1144,-1830,3,0,0,0,624.738525
-1153,1948,3,0,0,0,611.158020
-1483,-1091,3,0,0,0,670.069946
-1980,-402,3,0,0,0,643.535706
-361,-1016,3,0,0,0,823.533508
-745,-389,3,1,0,4,202.284912
-132,-1672,3,0,0,0,696.732727
-87,-1779,3,0,0,0,679.533325
-734,-532,3,0,0,0,873.443542
-1891,-1847,3,0,0,0,567.171814
-1706,1110,3,1,0,1,241.483734
-998,716,3,1,0,1,241.483734
-859,-906,3,0,0,0,781.393372
-8,-1843,3,0,0,0,669.769226
-1914,-787,3,1,0,4,202.284912
-1583,1319,3,0,0,0,637.931458
-1569,1901,3,0,0,0,586.973572
-1344,-1381,3,0,0,0,657.035034
-416,-33,3,0,0,0,1097.022705
-255,-1755,3,1,0,4,202.284912
-1126,849,3,1,0,1,241.483734
-1874,160,3,0,0,0,663.968750
-1253,648,3,1,0,1,241.483734
-1894,1152,3,0,0,0,617.102966
-1165,-146,3,0,0,0,799.040955
-341,1884,3,0,0,0,658.882874
-932,1631,3,0,0,0,664.320007
-1998,729,3,1,0,1,241.483734
-1933,-1898,3,0,0,0,560.230957
-953,-311,3,0,0,0,844.491638
-861,-1692,3,1,0,4,202.284912
-988,480,3,0,0,0,818.196350
-1672,1459,3,1,0,1,241.483734
-1231,146,3,0,0,0,783.438721
-723,289,3,1,0,1,241.483734
-1025,1250,3,0,0,0,707.284729
-1275,1043,3,1,0,1,241.483734
-1905,-969,3,1,0,4,202.284912
-1502,-201,3,0,0,0,725.794556
-384,235,3,0,0,0,1075.142090
-1672,-1678,3,0,0,0,598.253723
-661,146,3,0,0,0,957.559326
-1131,663,3,0,0,0,767.360596
-1212,-1765,3,1,0,4,202.284912
-1090,-1663,3,1,0,4,202.284912
-772,-1709,3,0,0,0,664.811768
-1193,1221,3,0,0,0,691.680969
-766,-1620,3,1,0,4,202.284912
-1319,76,3,0,0,0,765.138794
-1599,914,3,0,0,0,669.959473
-1507,168,3,1,0,1,241.483734
-1659,1346,3,0,0,0,627.630127
-1257,1434,3,0,0,0,660.030151
-305,-1186,3,0,0,0,786.945312
-924,-511,3,0,0,0,829.555420
-384,-1889,3,0,0,0,656.947266
-1613,-723,3,0,0,0,681.709534
-1699,963,3,1,0,1,241.483734
-1438,-1279,3,1,0,4,202.284912
-763,-1986,3,0,0,0,628.809265
-913,714,3,0,0,0,802.755615
-677,-704,3,1,0,4,202.284912
-1311,-337,3,0,0,0,758.176880
-1672,1296,3,0,0,0,630.428650
-784,1452,3,0,0,0,701.389587
-933,12,3,0,0,0,865.132507
-397,-1449,3,0,0,0,728.262207
-683,-765,3,0,0,0,837.946289
-1381,185,3,0,0,0,749.877869
-1317,-903,3,0,0,0,710.792297
-754,-920,3,0,0,0,795.298401
-1793,1236,3,0,0,0,622.166748
-528,-810,3,0,0,0,854.886414
-1404,1026,3,0,0,0,686.389954
-234,-984,3,0,0,0,841.926697
-378,-1534,3,0,0,0,713.850098
-1745,1200,3,0,0,0,630.116150
-1561,-393,3,0,0,0,708.492798
-630,524,3,1,0,1,241.483734
-1446,1033,3,0,0,0,680.184326
-1612,-100,3,0,0,0,707.535828
-532,1610,3,0,0,0,693.607422
-1819,1157,3,0,0,0,625.051147
-1678,796,3,1,0,1,241.483734
-1904,397,3,0,0,0,654.394592
-1231,743,3,0,0,0,740.855896
-1902,959,3,0,0,0,628.466248
-1410,114,3,1,0,1,241.483734
-472,-1772,3,1,0,4,202.284912
-1128,-648,3,0,0,0,769.586670
-979,-1917,3,1,0,4,202.284912
-1618,1794,3,1,0,1,241.483734
-1270,113,3,0,0,0,775.353455
-855,-1052,3,1,0,4,202.284912
-1879,-82,3,1,0,4,202.284912
-66,-1807,3,0,0,0,675.219482
-641,-1605,3,0,0,0,688.150452
-190,578,3,0,0,0,988.308228
-1559,1260,3,1,0,1,241.483734
-1044,228,3,0,0,0,826.111633
-1737,-552,3,0,0,0,672.952759
-418,-1439,3,0,0,0,729.011108
-524,-1013,3,0,0,0,807.389282
-117,1310,3,1,0,1,241.483734
-248,-1419,3,0,0,0,740.325806
-895,88,3,0,0,0,875.740417
-1195,1947,3,0,0,0,608.554138
-1809,-136,3,0,0,0,674.288452
-1724,1087,3,1,0,1,241.483734
-1065,1822,3,1,0,1,241.483734
-1396,-163,3,1,0,4,202.284912
-913,1294,3,0,0,0,713.165100
-1309,-1112,3,0,0,0,689.927673
-1934,-732,3,0,0,0,636.910339
-898,-1940,3,0,0,0,627.442993
-1983,1297,3,0,0,0,598.171936
-723,1955,3,0,0,0,634.643188
-1411,1090,3,0,0,0,679.235962
-1965,-631,3,0,0,0,637.471252
-1716,1462,3,0,0,0,612.328552
-83,217,3,1,0,0,365.620148
-1154,-476,3,0,0,0,781.432739
-1726,92,3,1,0,1,241.483734
-1274,1822,3,0,0,0,616.282776
-179,-1986,3,0,0,0,647.279907
-1017,822,3,0,0,0,768.094055
-1315,491,3,1,0,1,241.483734
-1313,-1516,3,1,0,4,202.284912


each generation good chromosome number
4,5,9,