mbs coordinate
0,0

cbsd coordinate and channel
-970,900,2
740,900,1
980,-860,1
-750,-850,5
-750,1000,4
1050,600,2
760,-1135,3
-870,-1100,1
-1080,450,1
970,530,3

building coordinate
-885,985
-1055,815
830,810
650,990
1060,-860
900,-860
-830,-770
-670,-930
-668,1070
-832,930
965,675
1135,525
832,-1059
688,-1211
-965,-1035
-775,-1165
-1135,365
-1025,535
907,591
1033,469

area numbers
16,7,15,10,16,6,19,11,

x , y , block , block number
area 1
131,1729,0,0
999,1441,1,0
326,587,1,0
195,785,0,0
1805,1873,1,0
553,608,0,0
1247,1389,0,0
219,1570,0,0
250,1047,0,0
903,1318,1,0
733,1173,0,0
1374,1548,0,0
1200,1824,0,0
22,594,0,0
202,1802,0,0
900,1924,0,0
area 2
692,98,0,0
1997,1099,0,0
1107,1046,0,0
1584,430,0,0
1881,407,0,0
864,338,0,0
824,151,0,0
area 3
-1856,1067,1,0
-1921,1477,0,0
-1178,233,0,0
-1274,138,0,0
-675,86,0,0
-1860,1039,0,0
-1274,719,0,0
-753,460,0,0
-1701,478,0,0
-1699,1100,1,0
-1460,523,0,0
-1391,882,0,0
-1158,801,0,0
-1810,487,0,0
-1330,421,0,0
area 4
-316,1500,0,0
-1858,1858,0,0
-473,747,0,0
-1007,1029,1,0
-1853,1908,1,0
-606,934,1,0
-399,1059,0,0
-905,1237,0,0
-421,725,0,0
-1851,1883,0,0
area 5
-733,-1607,0,0
-1423,-1993,1,0
-525,-783,0,0
-883,-1365,0,0
-1656,-1894,1,0
-371,-906,0,0
-1157,-1537,0,0
-968,-1096,0,0
-301,-1480,0,0
-544,-1164,1,0
-1167,-1949,1,0
-190,-1292,0,0
-410,-1952,1,0
-264,-632,1,0
-108,-679,0,0
-191,-927,0,0
area 6
-1548,-1074,0,0
-1803,-673,1,0
-1159,-1049,0,0
-463,-34,0,0
-1221,-1165,0,0
-183,-176,0,0
area 7
1552,-496,1,0
1248,-994,0,0
1608,-938,0,0
1280,-1273,1,0
1840,-968,0,0
1413,-1240,0,0
1494,-453,0,0
429,-354,0,0
1758,-946,1,0
1588,-1018,0,0
1675,-218,0,0
1305,-768,1,0
812,-405,0,0
443,-311,0,0
488,-175,0,0
896,-498,0,0
1688,-1546,0,0
1500,-723,0,0
1064,-315,0,0
area 8
200,-1274,0,0
1224,-1791,0,0
861,-1552,1,0
820,-1800,0,0
1365,-1435,0,0
1049,-1791,0,0
1192,-1199,0,0
1001,-1656,0,0
559,-830,1,0
865,-878,1,0
1929,-2000,0,0

near cbsd peopel number
7
4
7
5
7
3
4
6
7
3
