mbs coordinate
0,0

cbsd coordinate and channel
-970,900,2
740,900,1
980,-860,1
-750,-850,5
-750,1000,4
1050,600,2
760,-1135,3
-870,-1100,1
-1080,450,1
970,530,3
540,-1000,2
-1200,-300,3
-200,1170,7
820,1255,4
930,-1080,6
-1115,-505,2
-180,1230,3
500,1150,8
1200,-450,10
-500,-1100,7
-650,980,9
1180,450,9
700,-1160,7
-1050,-900,8
-1200,820,10
1200,1000,11
1340,-1120,12
-1440,-1280,10
-1160,1350,13
1420,960,14

building coordinate
-885,985
-1055,815
830,810
650,990
1060,-860
900,-860
-830,-770
-670,-930
-668,1070
-832,930
965,675
1135,525
832,-1059
688,-1211
-965,-1035
-775,-1165
-1135,365
-1025,535
907,591
1033,469
638,-906
442,-1094
-1275,-390
-1125,-210
-298,1123
-102,1217
910,1206
730,1304
1005,-1005
855,-1155
-1178,-407
-1052,-603
-120,1290
-240,1170
410,1240
590,1060
1275,-375
1125,-525
-577,-1023
-423,-1177
-600,1070
-710,890
1135,535
1225,365
743,-1077
657,-1243
-1138,-855
-962,-945
-1100,866
-1300,774
1100,1100
1300,900
1440,-1020
1240,-1220
-1540,-1180
-1340,-1380
-1060,1450
-1260,1250
1320,1060
1520,860

area numbers
627,667,630,676

x , y , block , block number
area 1
992,1044,0,0
801,224,0,0
376,1323,0,0
145,1297,0,0
1723,1389,0,0
158,268,0,0
1690,625,1,0
611,926,1,0
1656,1454,1,0
1934,555,0,0
927,1658,1,0
668,1156,0,0
629,1557,1,0
1930,733,0,0
220,786,1,0
552,69,0,0
1450,221,0,0
1903,1157,1,0
221,520,0,0
667,1478,1,0
1808,1240,1,0
633,1376,0,0
1021,196,0,0
1871,116,1,0
187,931,1,0
1475,414,0,0
985,942,0,0
1568,176,0,0
98,782,0,0
790,488,0,0
777,515,0,0
1139,1217,0,0
365,1988,0,0
1161,1374,0,0
507,553,0,0
130,465,1,0
1033,90,0,0
934,1174,0,0
18,47,0,0
425,463,0,0
546,1447,0,0
329,555,0,0
1108,911,0,0
628,234,0,0
208,589,1,0
1712,166,0,0
824,1788,0,0
553,834,0,0
1544,1572,1,0
1590,422,0,0
246,1042,1,0
71,1812,1,0
65,759,0,0
17,558,0,0
1556,1337,1,0
164,1331,1,0
1135,1266,0,0
302,255,0,0
1031,887,0,0
683,1683,1,0
1231,1243,0,0
848,1840,1,0
363,441,1,0
1003,1459,1,0
748,287,0,0
871,1071,0,0
863,1457,0,0
1397,13,1,0
1134,1389,0,0
895,133,0,0
860,1332,0,0
1613,439,0,0
739,639,1,0
768,1261,0,0
526,1387,0,0
1314,965,1,0
434,201,1,0
1926,343,0,0
1222,1208,1,0
1253,1812,1,0
1974,877,0,0
329,1546,1,0
239,1765,0,0
1570,1888,0,0
1824,1425,0,0
700,56,0,0
978,556,0,0
453,299,0,0
712,1446,0,0
1889,950,0,0
1529,1226,0,0
349,1191,0,0
1221,1224,0,0
958,1631,1,0
1360,1512,0,0
886,778,0,0
799,304,1,0
221,192,0,0
891,1833,0,0
915,659,1,0
740,83,0,0
1052,1560,0,0
1283,1820,1,0
1363,92,0,0
347,1251,0,0
551,895,0,0
1601,1600,0,0
838,268,1,0
160,801,0,0
312,1374,0,0
1234,1638,1,0
1085,207,0,0
113,1133,1,0
378,1174,0,0
226,18,0,0
518,1511,0,0
1774,193,0,0
1083,67,0,0
1406,1495,0,0
850,490,0,0
749,1300,1,0
1183,1802,0,0
782,1493,0,0
1051,44,1,0
1822,1773,1,0
1838,1272,0,0
922,1607,0,0
803,774,0,0
1837,1555,0,0
758,588,1,0
1625,366,1,0
382,1660,0,0
1468,1064,1,0
1222,1472,0,0
1741,1283,1,0
1266,591,0,0
1884,854,0,0
565,118,0,0
983,74,0,0
1153,1265,1,0
21,494,0,0
1657,161,1,0
1588,207,0,0
699,785,0,0
1603,873,1,0
1463,1170,1,0
297,556,1,0
1724,578,0,0
252,469,1,0
600,127,0,0
919,75,0,0
1485,1001,0,0
437,243,0,0
743,1568,0,0
1400,1085,0,0
1021,1272,1,0
1651,768,0,0
1072,907,0,0
614,1625,0,0
680,1497,0,0
1770,407,1,0
1510,1416,0,0
1032,923,0,0
109,1332,0,0
883,1381,0,0
454,1638,0,0
359,1785,0,0
683,1549,0,0
290,446,1,0
796,1800,0,0
708,749,0,0
1703,36,1,0
1130,770,1,0
1771,247,1,0
313,1198,0,0
731,1607,0,0
439,1451,0,0
295,1757,0,0
1488,5,1,0
1656,236,0,0
1387,1003,0,0
1876,693,0,0
41,1112,0,0
920,1772,0,0
1700,499,1,0
1436,681,0,0
945,40,0,0
1349,402,0,0
875,465,0,0
1363,1730,0,0
1478,1405,0,0
238,1121,0,0
1748,1783,0,0
787,349,0,0
307,255,1,0
1180,85,0,0
1707,717,0,0
1399,1625,0,0
553,1209,0,0
1702,757,1,0
1993,1002,1,0
1103,78,0,0
1794,586,0,0
298,1692,0,0
698,1087,0,0
1817,484,0,0
1840,1253,0,0
1584,508,0,0
103,1808,0,0
1723,1384,1,0
1638,1746,0,0
1893,1494,0,0
1837,1049,0,0
1192,1668,0,0
422,1788,0,0
1879,1822,0,0
286,522,0,0
1676,1195,0,0
131,1953,0,0
182,1869,1,0
1280,1177,0,0
464,585,0,0
160,1027,1,0
523,1630,0,0
1544,668,1,0
1667,1679,1,0
1302,1084,0,0
226,1902,0,0
1571,1562,1,0
891,1498,0,0
495,984,0,0
802,569,1,0
359,1526,0,0
294,1601,0,0
1010,225,1,0
530,913,0,0
715,1723,1,0
201,1800,0,0
1361,928,1,0
653,442,0,0
630,1860,0,0
672,1280,1,0
492,1406,0,0
1548,1708,0,0
966,1219,1,0
458,49,0,0
616,872,0,0
1870,362,0,0
1893,1216,1,0
994,703,0,0
764,1586,0,0
1486,540,0,0
1306,119,0,0
1538,880,0,0
828,307,0,0
1829,951,1,0
69,1509,0,0
383,1424,0,0
1940,809,0,0
376,918,0,0
343,115,0,0
1545,1184,0,0
440,1730,1,0
1136,856,0,0
1890,787,1,0
1163,422,0,0
1887,244,0,0
321,1100,0,0
278,1369,1,0
1429,419,1,0
1639,908,1,0
996,12,0,0
324,546,1,0
1512,1208,0,0
550,1502,0,0
916,414,0,0
624,1348,0,0
9,178,1,0
372,112,0,0
1336,56,0,0
1915,1145,0,0
912,966,0,0
859,1012,1,0
1686,681,1,0
286,401,0,0
766,1655,0,0
1460,658,0,0
1542,253,1,0
1479,1167,1,0
463,1069,1,0
364,1263,1,0
186,408,1,0
160,287,1,0
207,939,0,0
1091,1527,0,0
1812,691,1,0
1271,1575,0,0
282,223,0,0
137,716,0,0
657,451,0,0
82,1872,0,0
1819,243,0,0
459,1557,0,0
1054,1734,0,0
1741,1051,0,0
657,762,0,0
829,1444,0,0
1061,90,0,0
1339,1959,0,0
1669,1010,1,0
1278,237,0,0
881,1235,0,0
1904,1522,1,0
1979,493,0,0
1337,1026,0,0
1789,158,0,0
720,597,0,0
1964,867,0,0
432,262,0,0
15,1265,1,0
1495,481,0,0
1332,153,0,0
364,1211,0,0
290,1697,0,0
693,544,0,0
1620,94,1,0
546,1584,0,0
1237,946,0,0
1572,761,0,0
311,1180,1,0
49,1020,0,0
1626,365,0,0
500,989,0,0
722,1297,0,0
791,1919,0,0
451,105,0,0
270,1543,0,0
1842,21,0,0
1034,738,0,0
1442,183,1,0
1168,1715,1,0
1334,298,1,0
1225,635,0,0
391,7,0,0
1352,537,1,0
979,1745,0,0
760,1474,0,0
550,134,0,0
1491,840,0,0
1754,1277,0,0
1616,1640,0,0
501,997,1,0
1307,1348,0,0
481,157,1,0
1035,1526,1,0
94,440,0,0
1100,1178,0,0
400,117,0,0
1175,1554,0,0
1663,418,0,0
1528,291,1,0
52,727,0,0
1302,1216,0,0
152,86,1,0
197,1544,0,0
1693,548,0,0
1186,1049,0,0
1418,36,0,0
1309,1627,1,0
1247,1030,1,0
1651,1681,0,0
1253,815,0,0
1599,1820,1,0
829,788,0,0
29,1247,0,0
301,351,0,0
1629,957,0,0
364,534,1,0
260,1220,0,0
34,1014,1,0
1625,163,1,0
82,1172,0,0
1123,83,1,0
1172,524,0,0
1187,686,0,0
1087,564,1,0
202,426,0,0
1072,1660,0,0
1882,1215,0,0
234,1699,0,0
1815,1354,0,0
604,1719,0,0
914,1551,0,0
1159,1161,0,0
1566,1131,0,0
1726,1557,0,0
1795,816,0,0
1266,368,1,0
426,1901,0,0
1558,149,0,0
763,1299,0,0
1094,466,1,0
1066,1433,0,0
1946,1317,0,0
1619,1500,0,0
396,878,0,0
171,1895,0,0
127,266,0,0
1183,1386,1,0
925,72,0,0
728,442,0,0
413,1815,0,0
1491,1708,0,0
918,28,1,0
295,42,0,0
1342,1219,0,0
1597,993,1,0
120,345,0,0
571,1282,1,0
884,864,0,0
1119,1199,0,0
1947,575,0,0
384,940,0,0
1567,766,0,0
912,602,1,0
61,940,0,0
1341,1473,0,0
283,495,1,0
362,1371,0,0
763,1565,0,0
974,256,1,0
1360,1574,0,0
1046,1610,0,0
1170,960,0,0
935,364,0,0
507,339,1,0
929,813,0,0
1345,768,0,0
762,1271,0,0
397,113,0,0
1525,1484,0,0
951,1066,0,0
652,1263,0,0
1792,1096,0,0
285,1490,0,0
1215,1195,0,0
1381,1807,0,0
1999,1554,0,0
1670,565,1,0
1497,1710,0,0
660,432,0,0
533,1069,1,0
1357,779,1,0
1534,1320,0,0
1476,1394,1,0
1569,782,1,0
618,1011,0,0
939,336,1,0
762,1167,0,0
522,591,1,0
726,521,0,0
450,1398,0,0
301,1881,0,0
8,111,0,0
1744,1024,1,0
957,531,0,0
798,1858,0,0
995,1198,1,0
1389,570,0,0
1175,1565,0,0
68,613,1,0
667,1388,0,0
1429,1069,0,0
1082,1275,0,0
1233,357,0,0
1129,810,1,0
132,544,0,0
1856,1392,0,0
1499,321,0,0
1170,328,0,0
553,546,0,0
516,1189,0,0
565,1880,0,0
248,1042,0,0
381,1559,0,0
106,1991,0,0
120,1563,1,0
1932,849,0,0
567,1642,1,0
1464,654,0,0
1195,1480,1,0
70,1231,0,0
810,1095,0,0
596,371,1,0
1347,1457,0,0
649,673,0,0
1809,401,0,0
420,1103,0,0
1372,1258,0,0
953,1799,1,0
1367,1398,0,0
388,687,0,0
882,168,0,0
1852,613,1,0
1709,913,0,0
586,1675,0,0
1027,586,0,0
1898,289,0,0
1698,338,0,0
1173,711,0,0
1150,1115,0,0
739,528,0,0
1175,246,0,0
305,1702,0,0
418,1055,0,0
1598,1414,0,0
1831,70,1,0
14,1638,0,0
127,1571,0,0
558,119,0,0
1043,1890,0,0
228,973,0,0
1293,87,0,0
996,1622,0,0
1459,300,1,0
1352,447,0,0
217,1374,0,0
668,324,1,0
426,644,1,0
1670,700,1,0
1007,1477,0,0
504,104,1,0
830,371,1,0
967,1510,0,0
995,598,0,0
1044,776,0,0
876,1429,1,0
1359,1228,0,0
445,1309,1,0
326,1636,1,0
779,1060,0,0
1337,42,0,0
1588,1743,1,0
1856,477,0,0
1429,98,0,0
1175,1905,1,0
1201,433,1,0
360,950,0,0
1209,1940,0,0
581,1291,0,0
322,1223,0,0
1646,197,0,0
1770,588,0,0
795,129,1,0
1463,587,0,0
1639,2,0,0
1050,1063,0,0
1112,435,0,0
843,1341,0,0
994,1151,0,0
1247,1041,0,0
1438,328,0,0
485,1611,0,0
420,1125,1,0
1707,530,0,0
89,1320,0,0
316,356,0,0
950,329,0,0
1108,326,0,0
494,1585,0,0
997,1280,0,0
36,1861,1,0
1423,1216,0,0
1674,383,0,0
1181,1533,0,0
221,1342,0,0
1485,1486,1,0
1102,1465,0,0
1476,1762,0,0
742,94,1,0
835,1490,0,0
1784,728,0,0
1323,246,1,0
621,905,0,0
1367,1501,0,0
1288,1575,0,0
329,457,0,0
177,313,0,0
1405,185,1,0
1115,530,1,0
1147,289,0,0
239,400,0,0
437,1077,0,0
1340,947,0,0
76,1545,0,0
1515,52,0,0
1278,1577,0,0
1292,618,0,0
1584,815,0,0
1163,407,0,0
280,1935,1,0
402,1384,0,0
692,964,0,0
1670,603,0,0
1573,1435,0,0
1498,546,0,0
1197,1094,1,0
1171,1828,0,0
170,1341,0,0
1233,436,0,0
509,243,1,0
963,750,0,0
1449,623,0,0
1626,1307,0,0
303,893,0,0
203,1243,0,0
270,1219,0,0
1012,195,0,0
103,504,0,0
1105,1245,1,0
1830,402,1,0
1053,1489,0,0
1339,1387,0,0
1082,1315,0,0
830,170,0,0
1807,321,1,0
811,112,0,0
area 2
-1702,1373,0,0
-511,1069,0,0
-1554,1736,1,0
-1224,95,0,0
-417,172,0,0
-745,261,1,0
-358,1433,0,0
-618,1118,0,0
-283,549,0,0
-163,1252,0,0
-1686,503,1,0
-1599,664,0,0
-1488,562,0,0
-221,752,0,0
-1004,1828,1,0
-517,864,0,0
-187,560,0,0
-1502,1155,0,0
-1626,1727,0,0
-493,1084,1,0
-1935,1134,1,0
-265,1066,1,0
-1258,577,0,0
-342,76,0,0
-781,1130,1,0
-187,763,0,0
-5,1884,0,0
-400,496,0,0
-1961,660,1,0
-1133,784,0,0
-1173,1936,0,0
-343,1107,0,0
-854,35,1,0
-497,710,0,0
-132,1907,0,0
-1202,334,0,0
-1865,660,0,0
-1450,174,0,0
-939,1920,0,0
-1865,1070,1,0
-867,1305,0,0
-315,1783,0,0
-420,78,0,0
-253,1882,1,0
-1336,1320,0,0
-1330,865,0,0
-1179,1004,0,0
-1500,1374,1,0
-1753,1657,0,0
-807,1071,0,0
-137,1156,0,0
-1034,168,0,0
-1648,1168,1,0
-1716,1261,0,0
-1109,518,0,0
-1185,387,0,0
-486,660,0,0
-502,1674,0,0
-861,84,0,0
-731,789,0,0
-1237,167,0,0
-1606,447,1,0
-883,835,1,0
-1764,173,0,0
-145,460,1,0
-288,1005,1,0
-1653,1470,0,0
-896,1761,0,0
-485,1574,1,0
-211,855,1,0
-658,906,0,0
-1196,1213,1,0
-1400,510,0,0
-1658,1439,0,0
-521,1554,0,0
-524,1334,0,0
-542,25,0,0
-1827,1162,0,0
-861,1074,0,0
-1332,275,0,0
-34,1948,0,0
-1390,785,0,0
-1226,170,1,0
-1696,205,0,0
-1377,823,0,0
-1640,595,1,0
-1643,919,0,0
-755,316,0,0
-10,1995,1,0
-1828,1302,0,0
-1823,1580,0,0
-1608,1548,1,0
-1579,908,1,0
-199,511,0,0
-904,665,1,0
-1205,1433,0,0
-521,1279,1,0
-1537,1145,0,0
-349,791,0,0
-140,1269,1,0
-63,1694,0,0
-1990,893,0,0
-861,1076,0,0
-1324,1349,1,0
-1881,681,0,0
-1371,1823,0,0
-1227,881,1,0
-1525,1772,1,0
-650,1190,0,0
-639,901,0,0
-1316,1495,0,0
-1221,1521,0,0
-89,1094,0,0
-1370,417,1,0
-239,68,1,0
-969,1874,0,0
-1248,454,0,0
-1813,355,0,0
-167,1661,1,0
-1347,298,0,0
-1762,1554,1,0
-1381,346,0,0
-666,1610,0,0
-1531,277,0,0
-977,1314,0,0
-683,881,0,0
-168,643,0,0
-744,1513,0,0
-925,589,1,0
-208,367,0,0
-770,287,0,0
-1048,1768,1,0
-1820,5,0,0
-71,1994,0,0
-751,1603,0,0
-1085,203,0,0
-846,42,0,0
-1446,562,0,0
-1149,250,1,0
-674,247,0,0
-340,456,1,0
-1461,356,0,0
-46,1520,0,0
-1443,1032,0,0
-85,1206,1,0
-409,942,0,0
-1250,1309,0,0
-648,740,1,0
-1060,777,0,0
-1422,1678,0,0
-1618,110,0,0
-795,1980,0,0
-475,1335,0,0
-1789,701,0,0
-1117,918,0,0
-1576,1066,0,0
-1975,750,0,0
-531,1889,0,0
-1151,1658,0,0
-162,977,0,0
-1588,1834,0,0
-635,560,1,0
-615,550,0,0
-1653,660,1,0
-210,1268,0,0
-397,548,0,0
-1103,1756,0,0
-1814,143,0,0
-70,505,0,0
-984,241,0,0
-1655,1409,0,0
-99,747,1,0
-761,1656,1,0
-379,1807,1,0
-574,152,0,0
-250,1159,1,0
-18,116,0,0
-896,1956,0,0
-1053,1322,1,0
-269,1282,1,0
-662,904,0,0
-286,1455,0,0
-1088,1400,0,0
-410,1245,0,0
-937,1926,0,0
-186,434,0,0
-832,45,0,0
-1125,1701,0,0
-1004,929,1,0
-631,1802,0,0
-132,1040,0,0
-341,1327,0,0
-1437,1714,0,0
-564,1224,1,0
-1106,1536,0,0
-919,1268,1,0
-1626,1482,0,0
-230,575,0,0
-1576,989,0,0
-1745,138,0,0
-1798,1290,1,0
-668,842,0,0
-1581,1427,0,0
-405,555,0,0
-308,19,0,0
-169,1720,1,0
-1981,1055,1,0
-1535,1795,1,0
-1806,1361,0,0
-802,1042,1,0
-1011,1803,1,0
-1917,104,0,0
-1602,1332,0,0
-1755,265,0,0
-1453,1329,0,0
-636,205,0,0
-961,1879,0,0
-1203,577,1,0
-661,192,0,0
-835,608,0,0
-1688,1248,0,0
-1250,1953,0,0
-1339,1148,0,0
-441,1554,1,0
-677,499,0,0
-1665,1522,0,0
-830,1327,0,0
-718,1954,0,0
-1389,1046,1,0
-785,976,1,0
-76,1261,1,0
-331,1936,0,0
-418,775,0,0
-360,729,0,0
-1986,756,0,0
-164,719,0,0
-1939,104,0,0
-1842,1055,0,0
-882,1563,0,0
-561,1333,0,0
-1818,1260,0,0
-1276,550,0,0
-1877,4,0,0
-1701,1207,0,0
-1896,1343,0,0
-621,649,0,0
-1282,1266,1,0
-1500,611,0,0
-189,724,1,0
-692,657,0,0
-892,85,0,0
-1815,690,0,0
-102,1911,0,0
-1280,1063,1,0
-647,240,0,0
-722,1713,0,0
-980,688,0,0
-1726,1818,1,0
-373,439,0,0
-943,1871,0,0
-708,77,1,0
-744,473,0,0
-1535,1789,0,0
-824,1635,0,0
-1788,845,1,0
-1257,713,0,0
-926,332,0,0
-766,47,1,0
-1847,571,0,0
-568,1331,0,0
-544,1833,0,0
-328,1792,0,0
-1476,295,1,0
-420,873,0,0
-1923,1025,1,0
-33,872,0,0
-331,1600,0,0
-1810,746,0,0
-975,1247,0,0
-1287,1117,0,0
-1405,1385,0,0
-1891,1335,0,0
-1992,967,0,0
-294,872,0,0
-1439,1632,0,0
-892,501,0,0
-1889,983,0,0
-188,1278,1,0
-1525,1879,1,0
-630,1500,0,0
-1611,785,0,0
-1525,1066,0,0
-1284,71,0,0
-876,47,0,0
-1458,787,0,0
-952,348,0,0
-1348,575,0,0
-1881,1023,0,0
-1371,216,0,0
-1292,1013,0,0
-1841,1223,0,0
-726,1604,0,0
-825,185,1,0
-224,1823,0,0
-430,568,1,0
-138,917,0,0
-193,1322,0,0
-509,1436,0,0
-33,1258,0,0
-717,1927,1,0
-695,413,1,0
-533,1417,0,0
-1660,707,0,0
-1771,1251,1,0
-659,906,0,0
-205,375,0,0
-1071,534,0,0
-618,508,0,0
-665,1753,0,0
-1837,185,1,0
-872,1144,1,0
-261,771,0,0
-1219,988,1,0
-1696,1764,0,0
-1337,367,0,0
-945,1831,0,0
-1232,1404,0,0
-1394,275,0,0
-986,939,1,0
-1931,1596,0,0
-1323,590,0,0
-843,1033,0,0
-1597,541,0,0
-527,1414,0,0
-1587,1461,0,0
-295,1550,0,0
-1650,425,1,0
-1200,941,0,0
-1586,65,1,0
-1323,733,0,0
-1285,84,0,0
-1941,927,0,0
-1209,746,0,0
-141,639,1,0
-53,1664,0,0
-1362,1013,0,0
-296,432,0,0
-568,829,1,0
-1502,1699,1,0
-554,302,0,0
-1633,1552,0,0
-811,1914,0,0
-687,1429,0,0
-712,681,0,0
-344,978,1,0
-1707,58,0,0
-1177,1794,1,0
-443,1577,0,0
-1314,120,0,0
-549,5,1,0
-24,1851,1,0
-828,1190,0,0
-1369,1359,0,0
-21,1829,0,0
-1072,1861,1,0
-746,1091,1,0
-1166,947,1,0
-1357,1106,0,0
-90,1609,1,0
-1623,707,0,0
-693,714,0,0
-1569,1405,1,0
-905,857,0,0
-1769,1538,0,0
-923,1376,1,0
-1503,281,0,0
-1066,551,0,0
-1534,28,0,0
-349,317,0,0
-1022,676,0,0
-1135,910,0,0
-1042,782,0,0
-794,1138,0,0
-529,885,0,0
-890,647,0,0
-970,764,0,0
-1732,1416,1,0
-158,1742,0,0
-685,1264,0,0
-159,641,0,0
-1694,1322,1,0
-762,644,1,0
-1902,302,0,0
-615,1249,0,0
-570,1451,0,0
-253,1708,0,0
-628,876,0,0
-70,1787,0,0
-1465,1800,0,0
-33,1044,0,0
-1760,781,1,0
-965,1617,0,0
-774,1744,0,0
-39,1333,0,0
-859,775,0,0
-1336,835,0,0
-830,931,0,0
-678,1723,0,0
-1917,1398,0,0
-1027,520,0,0
-356,1273,0,0
-1955,857,0,0
-1286,1321,0,0
-1082,1422,1,0
-1167,21,0,0
-1021,949,0,0
-1298,1333,1,0
-1474,1560,0,0
-1933,733,0,0
-679,416,0,0
-766,545,0,0
-652,147,0,0
-1787,1044,0,0
-1124,1256,0,0
-1497,1546,1,0
-1390,531,0,0
-1164,1859,0,0
-90,1882,0,0
-480,389,0,0
-1036,1063,1,0
-1068,814,1,0
-1122,46,0,0
-1027,1824,1,0
-955,1357,0,0
-1060,1868,0,0
-768,194,1,0
-1027,1437,0,0
-770,975,0,0
-948,156,0,0
-1360,1652,1,0
-818,173,0,0
-1924,514,0,0
-393,962,0,0
-601,1902,1,0
-811,1597,0,0
-1238,1728,1,0
-1625,1701,0,0
-566,1117,1,0
-1453,1630,0,0
-1157,1592,0,0
-1450,697,1,0
-280,1285,0,0
-1301,1592,0,0
-770,463,0,0
-1026,1230,0,0
-1739,391,0,0
-679,1237,0,0
-937,974,0,0
-1854,1087,0,0
-275,506,0,0
-776,1923,0,0
-1017,812,0,0
-242,416,1,0
-1950,1215,1,0
-1434,1471,0,0
-420,180,0,0
-288,315,0,0
-358,1516,1,0
-617,73,0,0
-738,1012,0,0
-1452,673,1,0
-1118,55,0,0
-707,929,0,0
-408,1250,0,0
-299,728,1,0
-17,1528,0,0
-526,592,0,0
-1623,526,0,0
-464,34,0,0
-700,969,0,0
-723,1795,0,0
-668,1682,1,0
-1011,1721,0,0
-525,1031,0,0
-1286,460,0,0
-1582,203,0,0
-1734,1064,1,0
-1384,143,1,0
-815,240,1,0
-397,1871,0,0
-1157,1463,1,0
-1399,142,1,0
-1152,687,0,0
-1902,1479,0,0
-483,1058,1,0
-1122,667,0,0
-972,1848,0,0
-1481,444,0,0
-1965,796,0,0
-704,180,0,0
-1921,233,0,0
-690,663,0,0
-1598,671,0,0
-276,655,0,0
-914,342,0,0
-783,903,1,0
-953,1080,0,0
-483,1153,0,0
-1885,33,0,0
-644,675,0,0
-798,982,0,0
-1240,281,1,0
-1456,160,0,0
-65,1995,0,0
-1592,1703,0,0
-800,708,0,0
-1820,559,0,0
-494,937,0,0
-119,1274,0,0
-142,1366,0,0
-867,897,0,0
-1683,1252,0,0
-466,1763,1,0
-408,1843,1,0
-1873,663,0,0
-1020,1750,0,0
-1696,1700,0,0
-36,1853,1,0
-385,1080,1,0
-855,1313,1,0
-1838,239,0,0
-1315,16,1,0
-1190,1883,1,0
-1923,1526,0,0
-263,1730,1,0
-655,942,0,0
-514,921,1,0
-1222,1549,0,0
-1568,690,0,0
-1530,1445,0,0
-1379,1268,1,0
-1191,1809,0,0
-213,1871,1,0
-445,1113,0,0
-1969,1161,1,0
-1300,232,0,0
-1530,1336,0,0
-996,1896,0,0
-1081,646,0,0
-1555,211,1,0
-1816,1277,0,0
-1409,1445,0,0
-434,1518,0,0
-1548,930,1,0
-303,1119,0,0
-1721,147,0,0
-142,500,1,0
-920,696,0,0
-1240,630,0,0
-311,177,1,0
-1922,813,0,0
-545,810,0,0
-1851,357,1,0
-48,948,1,0
-1776,248,1,0
-1836,1032,0,0
-879,1264,0,0
-349,1623,0,0
-1253,718,0,0
-39,642,1,0
-268,1064,0,0
-1183,708,0,0
-150,1796,0,0
-514,80,1,0
-1706,147,0,0
-994,1356,0,0
-568,867,0,0
-669,271,1,0
-639,1370,0,0
-1779,412,0,0
-962,1128,0,0
-575,990,0,0
-467,1850,1,0
-98,1058,0,0
-1798,307,1,0
-566,36,0,0
-1064,1237,0,0
-637,42,0,0
-948,1391,1,0
-1449,907,1,0
-331,1153,0,0
-590,893,1,0
-1583,345,0,0
-682,100,0,0
-1752,1906,0,0
-840,889,0,0
-482,1742,0,0
-837,1353,1,0
-173,1931,1,0
-918,86,1,0
-851,1326,0,0
-1221,1683,0,0
-1856,1748,1,0
-1408,1216,0,0
-1240,981,0,0
-381,763,0,0
-58,15,0,0
-771,1107,0,0
-1413,448,1,0
-917,418,1,0
-1885,516,0,0
-730,1970,0,0
-516,815,0,0
-1014,1813,1,0
-46,1933,0,0
-1399,121,0,0
-652,1471,0,0
-1785,791,0,0
-1530,1592,1,0
-309,1524,1,0
-1406,643,1,0
-367,678,0,0
-1051,813,0,0
-1107,1528,0,0
-1334,795,0,0
-775,252,0,0
-1703,587,0,0
-1146,363,0,0
-586,450,1,0
-1452,10,1,0
-6,1012,0,0
-426,1669,0,0
-462,821,0,0
-905,128,0,0
-206,1237,0,0
-1263,848,0,0
-816,869,1,0
-491,1647,0,0
-501,464,0,0
-840,970,0,0
-797,1737,1,0
-1132,1227,1,0
-1074,1688,0,0
-94,1689,0,0
-60,786,0,0
-735,507,0,0
-129,1881,1,0
-665,141,0,0
-981,527,0,0
-1270,544,0,0
-350,1926,0,0
-1992,1068,0,0
-1217,386,0,0
-1225,476,0,0
-1720,1399,1,0
-101,1797,0,0
-1806,1498,0,0
-185,1483,0,0
-98,855,0,0
-919,409,0,0
-702,1421,1,0
-698,1612,0,0
-621,518,0,0
-1430,1877,0,0
-465,1249,0,0
-1212,393,0,0
-278,1053,1,0
area 3
-2000,-326,1,0
-659,-14,0,0
-1109,-1072,0,0
-1895,-561,0,0
-1207,-864,0,0
-276,-1229,0,0
-1130,-1392,0,0
-938,-412,0,0
-93,-603,0,0
-422,-348,0,0
-1257,-1490,0,0
-1672,-735,1,0
-666,-1391,0,0
-896,-753,0,0
-802,-566,1,0
-1057,-1232,0,0
-435,-258,1,0
-735,-1407,0,0
-1734,-519,0,0
-1218,-685,0,0
-457,-1943,0,0
-1402,-1623,0,0
-257,-871,0,0
-197,-1200,1,0
-1065,-1368,0,0
-467,-101,0,0
-1490,-1128,1,0
-1702,-356,0,0
-1383,-1025,1,0
-1812,-1212,0,0
-970,-1354,1,0
-1838,-1033,0,0
-1042,-1596,0,0
-1762,-1434,0,0
-82,-180,0,0
-1711,-1886,0,0
-1155,-1080,0,0
-327,-1347,0,0
-1211,-1847,0,0
-598,-1058,0,0
-1042,-52,1,0
-862,-626,0,0
-1321,-694,0,0
-319,-307,0,0
-292,-1542,1,0
-1809,-1764,0,0
-675,-933,0,0
-1425,-1025,1,0
-1151,-1167,0,0
-1356,-679,1,0
-40,-1658,0,0
-1673,-443,1,0
-926,-1714,1,0
-185,-1693,0,0
-139,-1054,1,0
-1491,-443,0,0
-535,-566,0,0
-735,-219,0,0
-772,-1911,0,0
-1363,-1749,0,0
-1754,-995,0,0
-1148,-338,0,0
-1741,-358,0,0
-581,-53,0,0
-608,-837,0,0
-1511,-1457,0,0
-1787,-1321,0,0
-1157,-1532,0,0
-1603,-1278,0,0
-129,-309,1,0
-734,-1846,1,0
-1877,-492,0,0
-1963,-1331,0,0
-1995,-1683,0,0
-362,-1511,0,0
-852,-1347,0,0
-1456,-1811,0,0
-440,-242,0,0
-1414,-1107,0,0
-781,-110,0,0
-1330,-1418,0,0
-603,-1058,1,0
-1204,-58,0,0
-1638,-678,1,0
-1161,-1276,0,0
-660,-188,0,0
-181,-874,1,0
-1547,-945,0,0
-1023,-1642,0,0
-829,-1353,0,0
-1289,-1008,0,0
-451,-1110,1,0
-1077,-1725,0,0
-1540,-1053,0,0
-1252,-1149,0,0
-1791,-1501,1,0
-376,-1051,0,0
-1589,-414,0,0
-389,-92,0,0
-1250,-174,1,0
-263,-422,0,0
-489,-781,0,0
-1296,-564,0,0
-617,-1961,0,0
-1299,-925,1,0
-1693,-1071,0,0
-880,-753,0,0
-545,-1024,0,0
-1950,-47,0,0
-1310,-1504,0,0
-1660,-446,0,0
-396,-1175,0,0
-550,-604,0,0
-1947,-269,0,0
-533,-91,0,0
-635,-1235,0,0
-1803,-1987,0,0
-1476,-1092,0,0
-1666,-1286,0,0
-1037,-999,0,0
-1207,-608,0,0
-1705,-1373,0,0
-960,-1691,1,0
-1143,-1358,0,0
-881,-1892,0,0
-856,-1708,0,0
-1857,-1592,0,0
-1874,-552,0,0
-664,-547,0,0
-1855,-1137,1,0
-344,-1494,0,0
-1268,-441,0,0
-470,-6,1,0
-1604,-1137,1,0
-407,-813,0,0
-917,-336,1,0
-558,-733,1,0
-1536,-653,0,0
-673,-260,1,0
-1111,-1764,0,0
-741,-161,0,0
-1858,-1208,0,0
-98,-1077,0,0
-1343,-1945,0,0
-455,-576,0,0
-1072,-770,0,0
-661,-591,0,0
-474,-1790,1,0
-1208,-1264,1,0
-1743,-712,0,0
-1302,-1137,0,0
-1990,-920,0,0
-151,-1772,1,0
-1217,-1438,0,0
-1747,-384,0,0
-1583,-1449,0,0
-1321,-467,0,0
-412,-1253,0,0
-1113,-1567,0,0
-1460,-65,0,0
-138,-444,0,0
-1635,-1732,1,0
-275,-734,0,0
-438,-713,0,0
-1612,-812,0,0
-605,-9,1,0
-280,-638,0,0
-1799,-170,0,0
-185,-1009,0,0
-455,-1038,1,0
-1488,-1275,1,0
-1500,-1769,0,0
-423,-1882,1,0
-1569,-304,0,0
-632,-1038,1,0
-421,-778,1,0
-545,-1533,0,0
-446,-1263,0,0
-659,-270,0,0
-835,-1095,0,0
-789,-1578,1,0
-345,-251,0,0
-321,-1265,0,0
-723,-506,0,0
-1350,-642,0,0
-611,-1123,0,0
-539,-1217,1,0
-1022,-1145,0,0
-164,-606,0,0
-1597,-926,0,0
-274,-639,0,0
-1446,-766,0,0
-1293,-1795,0,0
-3,-325,0,0
-574,-440,1,0
-192,-277,0,0
-502,-1645,0,0
-1944,-1042,0,0
-719,-1025,0,0
-1425,-917,1,0
-831,-959,0,0
-1059,-995,1,0
-996,-1915,0,0
-942,-877,1,0
-459,-351,1,0
-1671,-921,0,0
-664,-1090,0,0
-1925,-1863,1,0
-624,-358,0,0
-1335,-1904,0,0
-247,-1313,1,0
-838,-1812,0,0
-219,-199,1,0
-883,-464,0,0
-81,-621,1,0
-1286,-964,0,0
-687,-1504,1,0
-547,-10,0,0
-368,-1020,0,0
-583,-1858,0,0
-853,-1938,0,0
-1853,-151,0,0
-171,-753,0,0
-1275,-1460,0,0
-275,-1558,0,0
-531,-532,0,0
-1735,-1762,0,0
-80,-1612,0,0
-589,-200,0,0
-1607,-1005,0,0
-1496,-1559,0,0
-19,-67,0,0
-1171,-1793,1,0
-961,-1896,0,0
-1145,-1407,1,0
-1378,-508,0,0
-1927,-80,0,0
-1827,-1272,0,0
-1094,-754,0,0
-1455,-1069,0,0
-1738,-1732,0,0
-887,-1177,0,0
-1805,-1376,0,0
-244,-1643,0,0
-1283,-1831,0,0
-1613,-1834,0,0
-1098,-93,0,0
-383,-179,0,0
-657,-151,0,0
-517,-378,0,0
-1216,-263,0,0
-456,-516,1,0
-593,-1419,0,0
-446,-584,0,0
-1087,-675,1,0
-1627,-1550,0,0
-1590,-1182,0,0
-1527,-1679,1,0
-612,-927,0,0
-1212,-1439,0,0
-648,-805,1,0
-1388,-587,0,0
-1700,-986,0,0
-1657,-185,1,0
-1029,-1063,0,0
-1629,-764,0,0
-142,-1113,0,0
-1129,-930,1,0
-1794,-613,0,0
-1607,-1505,1,0
-1886,-1260,1,0
-1409,-681,0,0
-60,-474,0,0
-549,-1204,0,0
-879,-1109,1,0
-1090,-831,1,0
-195,-554,0,0
-1934,-372,0,0
-1629,-472,0,0
-1650,-1615,0,0
-1099,-730,0,0
-590,-646,0,0
-368,-1478,0,0
-68,-371,0,0
-143,-373,0,0
-1067,-180,1,0
-1345,-1571,0,0
-591,-835,1,0
-350,-1770,0,0
-1178,-1891,0,0
-371,-14,0,0
-430,-1442,0,0
-1816,-1485,0,0
-1709,-33,0,0
-1589,-1808,1,0
-453,-336,0,0
-1965,-1535,0,0
-785,-960,0,0
-1743,-150,0,0
-392,-1422,0,0
-726,-1890,0,0
-222,-799,1,0
-162,-483,0,0
-317,-1831,0,0
-1799,-461,0,0
-254,-426,1,0
-309,-420,0,0
-1486,-443,0,0
-1036,-430,0,0
-1496,-905,0,0
-1751,-1679,0,0
-598,-1703,0,0
-711,-65,0,0
-1189,-1108,0,0
-1043,-1756,0,0
-9,-1509,0,0
-1036,-1718,1,0
-744,-1230,1,0
-1880,-667,0,0
-625,-826,0,0
-294,-741,0,0
-837,-794,0,0
-700,-1759,1,0
-1737,-1144,0,0
-1926,-57,0,0
-105,-615,0,0
-16,-444,0,0
-540,-186,0,0
-1321,-1240,1,0
-1080,-403,0,0
-594,-875,1,0
-150,-905,0,0
-1620,-963,1,0
-28,-1372,0,0
-546,-179,1,0
-1140,-1321,0,0
-224,-274,0,0
-319,-548,0,0
-1320,-1207,1,0
-198,-1013,1,0
-521,-1310,0,0
-1907,-1453,0,0
-20,-681,0,0
-1727,-355,0,0
-103,-274,0,0
-906,-1703,0,0
-861,-1686,0,0
-1768,-1646,1,0
-802,-770,0,0
-202,-653,0,0
-1078,-1483,1,0
-1423,-39,0,0
-624,-1455,0,0
-270,-1278,1,0
-858,-619,0,0
-1541,-902,0,0
-825,-1608,0,0
-458,-1507,0,0
-996,-1665,0,0
-1831,-993,0,0
-1969,-290,1,0
-1121,-1024,1,0
-710,-1071,0,0
-376,-458,0,0
-1352,-481,0,0
-554,-50,0,0
-1552,-170,0,0
-734,-1046,0,0
-206,-1388,0,0
-1218,-1308,0,0
-1371,-1178,0,0
-1860,-466,0,0
-508,-1395,1,0
-1202,-54,0,0
-1456,-320,0,0
-1143,-1711,0,0
-23,-1181,1,0
-498,-1831,0,0
-1905,-660,1,0
-1088,-1747,0,0
-922,-744,1,0
-1762,-1559,0,0
-1642,-718,0,0
-485,-1554,0,0
-859,-949,0,0
-972,-1785,0,0
-327,-1512,0,0
-227,-1721,0,0
-881,-182,1,0
-651,-963,1,0
-1523,-839,0,0
-575,-415,0,0
-1963,-1662,1,0
-1498,-1885,1,0
-1250,-1585,0,0
-1536,-1775,0,0
-1504,-1101,0,0
-1901,-1977,1,0
-947,-1064,0,0
-780,-1621,1,0
-1888,-1665,1,0
-129,-924,1,0
-570,-1300,0,0
-1497,-493,0,0
-879,-841,0,0
-904,-1937,1,0
-1035,-236,1,0
-743,-594,1,0
-1995,-343,0,0
-1040,-1384,0,0
-1195,-475,0,0
-970,-159,0,0
-911,-1140,0,0
-1030,-856,0,0
-415,-912,1,0
-344,-419,1,0
-874,-881,0,0
-826,-528,0,0
-1005,-931,0,0
-1395,-83,1,0
-398,-1042,0,0
-1059,-1772,0,0
-639,-1153,0,0
-944,-1517,0,0
-1903,-1422,0,0
-1237,-1208,0,0
-403,-1803,0,0
-1432,-1336,0,0
-327,-185,0,0
-1302,-1798,0,0
-11,-675,1,0
-957,-253,1,0
-370,-1981,0,0
-971,-78,1,0
-379,-78,0,0
-1783,-1714,0,0
-1209,-1870,0,0
-1898,-963,0,0
-751,-1501,1,0
-1648,-1364,0,0
-1792,-493,0,0
-1535,-312,0,0
-828,-1136,0,0
-361,-43,0,0
-1355,-98,0,0
-601,-247,0,0
-884,-1196,0,0
-138,-968,0,0
-442,-752,1,0
-905,-87,0,0
-1341,-498,0,0
-1299,-470,0,0
-179,-283,0,0
-395,-534,0,0
-1698,-1282,1,0
-1559,-1803,0,0
-365,-805,1,0
-1742,-1688,1,0
-1258,-261,0,0
-310,-383,0,0
-1105,-82,1,0
-1317,-1264,0,0
-693,-588,0,0
-430,-864,0,0
-434,-1551,0,0
-578,-531,0,0
-167,-902,0,0
-1084,-651,0,0
-422,-574,1,0
-1602,-1730,0,0
-949,-1256,0,0
-1902,-777,1,0
-55,-1270,0,0
-377,-92,1,0
-573,-550,0,0
-1842,-676,1,0
-267,-1003,0,0
-1151,-685,0,0
-714,-1890,0,0
-800,-466,1,0
-1776,-525,0,0
-1459,-635,1,0
-818,-428,0,0
-500,-1766,0,0
-716,-1601,0,0
-1404,-1208,0,0
-1179,-1763,0,0
-874,-1632,0,0
-872,-754,0,0
-1755,-1099,0,0
-1662,-1389,0,0
-373,-835,0,0
-1640,-1964,0,0
-983,-483,1,0
-1097,-1268,0,0
-558,-56,0,0
-868,-1050,0,0
-1759,-1847,0,0
-534,-545,0,0
-1321,-822,0,0
-661,-202,0,0
-1999,-894,0,0
-441,-993,1,0
-394,-576,0,0
-1870,-854,0,0
-1893,-1050,0,0
-1829,-466,0,0
-535,-1205,1,0
-468,-1065,0,0
-1141,-1088,0,0
-1232,-1070,1,0
-1244,-1792,0,0
-1608,-550,1,0
-1226,-263,0,0
-1862,-1619,0,0
-621,-1012,0,0
-1905,-1507,0,0
-1623,-605,1,0
-1390,-908,0,0
-1368,-74,0,0
-1359,-192,0,0
-1858,-77,0,0
-1439,-1993,0,0
-89,-1298,0,0
-316,-142,0,0
-1464,-20,0,0
-73,-1124,0,0
-1991,-1081,0,0
-276,-528,0,0
-1605,-1211,0,0
-1993,-682,0,0
-793,-900,0,0
-1660,-1226,0,0
-1944,-577,0,0
-795,-163,1,0
-199,-746,0,0
-1386,-694,1,0
-443,-1581,1,0
-250,-63,0,0
-761,-1022,0,0
-1661,-1090,0,0
-445,-1911,0,0
-46,-1693,0,0
-1433,-1656,0,0
-314,-402,0,0
-767,-1445,0,0
-902,-1860,0,0
-1501,-1551,0,0
-772,-1190,0,0
-1067,-1543,0,0
-1874,-920,0,0
-1112,-23,0,0
-1094,-1211,1,0
-189,-1136,1,0
-1381,-1672,0,0
-207,-1476,0,0
-763,-1665,0,0
-1827,-180,0,0
-1357,-1772,0,0
-1497,-355,0,0
-478,-1157,1,0
-124,-1902,0,0
-114,-538,0,0
-268,-534,0,0
-1692,-58,0,0
-478,-211,0,0
-1156,-1525,1,0
-479,-775,1,0
-1342,-1426,1,0
-1420,-1841,0,0
-596,-401,0,0
-882,-1800,1,0
-1717,-625,0,0
-1584,-1395,0,0
-929,-954,0,0
-1219,-1257,0,0
-1766,-736,0,0
-1617,-28,0,0
-728,-1787,0,0
-108,-1353,1,0
-276,-1329,0,0
-1560,-1728,1,0
-1131,-911,0,0
-472,-1904,1,0
-1986,-1471,0,0
-518,-102,0,0
-1058,-153,0,0
-1220,-1100,0,0
-1507,-1326,0,0
-1443,-1492,0,0
-694,-581,1,0
-1079,-601,0,0
-964,-1573,0,0
-1031,-1351,0,0
-140,-1386,0,0
-1437,-398,0,0
-1643,-328,0,0
-603,-607,0,0
-1811,-1679,0,0
-1404,-700,0,0
-769,-230,0,0
-1387,-1539,1,0
-1011,-811,0,0
-1312,-652,0,0
-812,-763,0,0
-1493,-1660,1,0
-545,-1458,0,0
-1185,-310,1,0
-671,-1189,0,0
-1331,-850,0,0
-1272,-702,1,0
-342,-314,0,0
-1762,-40,0,0
-441,-481,0,0
-478,-1151,0,0
-55,-1047,0,0
-1871,-1072,0,0
-1429,-688,1,0
-1853,-901,0,0
-1796,-1534,0,0
-140,-921,0,0
-1562,-1010,0,0
-1098,-470,1,0
-1461,-230,1,0
-1611,-1220,0,0
-1936,-1567,0,0
-539,-1795,0,0
-671,-70,0,0
-582,-49,1,0
-753,-1340,0,0
area 4
785,-1672,0,0
1612,-642,0,0
483,-406,1,0
36,-900,0,0
614,-1422,1,0
269,-1760,0,0
1525,-750,0,0
98,-743,0,0
1101,-78,0,0
539,-1672,1,0
80,-1659,0,0
1561,-567,0,0
766,-442,0,0
912,-1387,0,0
1165,-1745,1,0
1524,-1946,0,0
325,-850,0,0
1470,-1834,1,0
1290,-11,1,0
635,-767,1,0
1919,-120,0,0
1773,-1532,0,0
699,-816,0,0
1448,-1113,0,0
252,-213,1,0
632,-1294,0,0
1234,-1544,0,0
1083,-570,1,0
1159,-1101,0,0
673,-1841,1,0
879,-1633,0,0
627,-122,0,0
1683,-1487,0,0
1761,-79,1,0
1204,-398,0,0
919,-498,0,0
533,-1510,0,0
1212,-91,0,0
1546,-974,0,0
912,-1960,0,0
607,-1499,0,0
1312,-462,1,0
1828,-1063,0,0
225,-963,0,0
1639,-1134,1,0
720,-720,0,0
541,-991,0,0
1895,-1055,0,0
700,-1198,1,0
85,-1055,1,0
899,-630,0,0
599,-587,0,0
784,-73,0,0
648,-159,0,0
521,-1473,0,0
1546,-1184,0,0
1118,-1095,1,0
663,-1587,0,0
203,-587,1,0
633,-984,0,0
352,-642,1,0
1081,-1405,0,0
1240,-453,0,0
907,-1561,0,0
61,-454,0,0
603,-1018,0,0
1138,-1501,1,0
1463,-1905,0,0
885,-417,0,0
1362,-1412,1,0
997,-1545,0,0
433,-348,1,0
216,-1439,0,0
784,-783,0,0
750,-1207,1,0
1139,-483,0,0
1788,-1075,0,0
1460,-770,0,0
464,-1216,1,0
1813,-1731,0,0
1793,-367,1,0
1448,-1542,1,0
728,-1787,0,0
422,-1524,0,0
1124,-1899,0,0
1293,-1067,0,0
248,-543,1,0
1708,-1311,0,0
669,-1060,0,0
1234,-1612,0,0
366,-1692,0,0
106,-1170,0,0
1230,-232,0,0
1402,-124,0,0
1333,-166,0,0
156,-993,0,0
845,-969,0,0
600,-512,0,0
1341,-224,0,0
524,-1086,1,0
1111,-718,1,0
1024,-376,0,0
853,-481,1,0
422,-517,0,0
1597,-268,1,0
1420,-594,0,0
1443,-1114,0,0
696,-1720,0,0
598,-1631,1,0
692,-844,0,0
1028,-1163,1,0
1494,-1644,0,0
1475,-1209,0,0
1460,-1793,0,0
1236,-1297,1,0
637,-1108,0,0
1359,-738,0,0
1826,-399,1,0
1899,-1744,0,0
392,-230,0,0
714,-210,1,0
1625,-1379,0,0
1462,-132,1,0
620,-1076,0,0
297,-476,1,0
45,-7,0,0
504,-515,0,0
1339,-709,0,0
349,-1016,0,0
1498,-1438,0,0
472,-867,0,0
1826,-435,0,0
1227,-37,1,0
938,-329,0,0
1153,-1751,1,0
1403,-1240,1,0
660,-323,0,0
1725,-83,0,0
434,-1042,0,0
1084,-1814,0,0
1421,-1131,0,0
1583,-589,0,0
973,-1765,1,0
331,-366,1,0
385,-572,0,0
472,-1673,0,0
1108,-1098,0,0
1464,-1324,0,0
682,-1434,0,0
1764,-1379,0,0
619,-1243,0,0
1307,-1441,1,0
911,-532,1,0
9,-232,0,0
1180,-783,0,0
1401,-606,0,0
370,-1590,0,0
355,-862,0,0
1091,-398,0,0
1626,-1001,0,0
1175,-1021,0,0
164,-896,0,0
321,-874,0,0
1286,-799,0,0
977,-1092,0,0
94,-1249,0,0
870,-894,1,0
1156,-197,0,0
1358,-1516,1,0
667,-1660,0,0
944,-1606,1,0
1438,-321,0,0
1846,-1050,0,0
1770,-1574,1,0
616,-476,0,0
390,-1252,0,0
631,-987,0,0
1961,-1212,0,0
1745,-1094,0,0
1883,-34,0,0
1591,-1874,0,0
271,-363,0,0
891,-1359,0,0
1345,-1190,1,0
1400,-1272,0,0
1232,-1184,1,0
728,-937,0,0
1009,-1112,1,0
1394,-1434,0,0
682,-1171,0,0
440,-1837,0,0
1698,-619,0,0
179,-975,0,0
71,-1802,1,0
733,-406,1,0
495,-382,0,0
387,-74,0,0
1546,-290,1,0
7,-1530,1,0
127,-1347,0,0
1873,-1302,0,0
828,-853,1,0
868,-422,1,0
1980,-167,1,0
824,-97,0,0
1935,-1347,0,0
835,-1344,0,0
815,-1805,0,0
375,-471,1,0
1563,-49,0,0
501,-1582,0,0
356,-1083,0,0
1573,-1328,1,0
850,-306,0,0
1472,-1290,0,0
440,-1855,0,0
75,-522,0,0
1233,-258,0,0
542,-766,0,0
1872,-1425,0,0
563,-34,1,0
1111,-557,0,0
875,-831,0,0
817,-1171,1,0
735,-974,1,0
781,-446,0,0
745,-1242,0,0
843,-68,0,0
1810,-1429,0,0
1641,-984,0,0
1873,-710,1,0
581,-1943,0,0
866,-1592,0,0
1753,-1366,0,0
890,-1354,0,0
785,-1127,1,0
1015,-1956,0,0
588,-1376,1,0
1468,-1142,1,0
1381,-441,0,0
962,-263,1,0
1331,-486,0,0
1127,-490,1,0
1113,-1732,1,0
1723,-673,0,0
1138,-1311,1,0
873,-1275,0,0
1566,-614,0,0
941,-642,1,0
1112,-1138,1,0
685,-793,0,0
1119,-1477,1,0
443,-1205,0,0
1002,-293,0,0
836,-1513,0,0
1958,-1172,0,0
807,-1618,0,0
877,-1599,0,0
1564,-34,0,0
743,-1325,0,0
5,-560,0,0
474,-180,0,0
976,-1801,0,0
124,-379,0,0
1189,-608,0,0
257,-1433,0,0
752,-1208,0,0
529,-163,0,0
1560,-960,0,0
149,-894,0,0
743,-1973,0,0
824,-1972,0,0
653,-1141,0,0
402,-1155,0,0
1373,-1074,0,0
1737,-1357,0,0
1696,-1199,0,0
1293,-153,0,0
979,-730,0,0
336,-663,1,0
1574,-1913,0,0
958,-1101,0,0
1193,-36,0,0
811,-1261,0,0
1470,-761,0,0
1581,-663,1,0
921,-1342,1,0
65,-1469,0,0
10,-1141,0,0
1848,-235,1,0
1385,-489,1,0
61,-1422,0,0
1441,-868,0,0
698,-924,0,0
1612,-809,1,0
821,-929,0,0
374,-467,0,0
1833,-900,0,0
840,-435,0,0
1562,-1633,0,0
1364,-854,0,0
84,-1408,0,0
1607,-329,0,0
1557,-1561,1,0
1042,-1145,0,0
1083,-924,0,0
947,-1550,0,0
5,-1384,0,0
747,-1587,0,0
268,-364,0,0
1279,-1208,0,0
952,-924,1,0
1756,-1035,1,0
340,-1136,1,0
763,-1850,1,0
1690,-365,0,0
444,-1562,0,0
1394,-1030,0,0
588,-1246,1,0
1915,-1583,0,0
666,-517,0,0
1248,-944,0,0
312,-1038,1,0
1530,-310,1,0
1409,-706,1,0
1673,-1465,0,0
1209,-236,0,0
1414,-1711,0,0
681,-453,0,0
246,-1908,0,0
151,-1072,0,0
20,-5,0,0
1259,-1424,0,0
170,-1147,0,0
1934,-34,0,0
1725,-1459,1,0
403,-1103,0,0
1764,-69,1,0
211,-851,0,0
1265,-364,0,0
1634,-1542,1,0
1089,-1741,0,0
1316,-1954,1,0
1487,-1567,0,0
1606,-1067,0,0
1494,-146,0,0
1006,-1774,1,0
1636,-478,0,0
1727,-1361,1,0
39,-510,0,0
909,-285,0,0
872,-989,0,0
494,-934,0,0
1670,-595,1,0
409,-1345,1,0
1258,-305,0,0
1742,-1671,1,0
1309,-1588,0,0
944,-697,0,0
1898,-606,0,0
901,-555,0,0
815,-69,1,0
1158,-832,0,0
1225,-709,0,0
1340,-90,1,0
1205,-855,0,0
1092,-225,0,0
1159,-1679,0,0
1168,-1312,0,0
978,-155,0,0
37,-921,1,0
1409,-133,1,0
1572,-1460,0,0
1119,-191,0,0
323,-1451,1,0
423,-49,0,0
1539,-1668,0,0
182,-461,0,0
405,-886,0,0
1722,-1632,0,0
1168,-420,0,0
607,-651,0,0
436,-104,0,0
267,-1554,0,0
1675,-1781,1,0
1428,-417,1,0
215,-1700,0,0
1608,-1177,0,0
1186,-120,1,0
122,-1901,0,0
28,-1065,0,0
793,-1262,1,0
330,-581,0,0
419,-597,0,0
1648,-571,0,0
1072,-886,1,0
1720,-95,1,0
1876,-22,1,0
262,-1076,0,0
650,-253,0,0
1410,-946,1,0
219,-628,0,0
1740,-1547,1,0
1613,-1740,0,0
1790,-1348,0,0
1026,-1690,1,0
559,-1833,1,0
876,-1859,0,0
1219,-1461,0,0
1196,-1559,0,0
293,-979,0,0
1505,-1741,0,0
927,-847,0,0
918,-379,0,0
1909,-666,1,0
1460,-1707,1,0
411,-381,0,0
1057,-1340,1,0
1380,-1015,0,0
1994,-137,1,0
631,-1592,0,0
684,-1260,0,0
425,-1781,0,0
1521,-83,1,0
443,-854,0,0
112,-449,0,0
878,-1127,0,0
451,-1959,0,0
1006,-525,0,0
1123,-522,1,0
972,-1826,1,0
726,-1640,1,0
103,-1323,0,0
827,-1588,0,0
1401,-525,0,0
1771,-401,0,0
590,-1476,0,0
543,-411,0,0
1129,-712,0,0
1909,-1222,0,0
246,-1864,0,0
1482,-816,0,0
1680,-65,0,0
1517,-406,1,0
415,-56,0,0
1545,-460,0,0
971,-1155,1,0
630,-55,0,0
1050,-649,0,0
1426,-1910,0,0
103,-1756,0,0
1387,-596,1,0
1401,-1521,0,0
1681,-688,0,0
523,-467,0,0
1032,-557,0,0
298,-623,1,0
1331,-1000,0,0
1330,-1572,0,0
927,-584,0,0
1359,-849,0,0
450,-1712,0,0
1253,-1125,1,0
296,-33,1,0
577,-60,0,0
664,-999,0,0
1000,-81,1,0
1238,-513,0,0
1514,-1206,0,0
697,-1568,0,0
198,-764,0,0
1845,-485,0,0
1799,-1889,0,0
113,-632,0,0
1264,-1033,0,0
1563,-1086,0,0
687,-960,0,0
1884,-1231,0,0
240,-480,0,0
1419,-1219,0,0
1879,-1014,1,0
665,-1475,0,0
1768,-611,1,0
1738,-835,0,0
594,-1351,0,0
1938,-785,1,0
1647,-648,0,0
277,-1448,0,0
1374,-1799,0,0
1391,-1827,0,0
1716,-849,0,0
1009,-808,1,0
129,-235,0,0
1866,-137,0,0
961,-1462,1,0
250,-488,0,0
1617,-312,0,0
510,-174,0,0
714,-100,1,0
44,-707,0,0
251,-491,0,0
640,-482,0,0
361,-799,0,0
43,-1144,0,0
1599,-1557,0,0
599,-1347,1,0
468,-182,1,0
1706,-21,0,0
1352,-1097,0,0
31,-167,0,0
1188,-1885,1,0
307,-696,1,0
472,-1342,0,0
236,-455,0,0
186,-1031,0,0
97,-1445,0,0
1315,-1608,0,0
1449,-145,1,0
1638,-371,0,0
859,-1432,0,0
839,-1393,0,0
877,-134,0,0
633,-539,0,0
1482,-659,0,0
1558,-1149,1,0
1188,-147,0,0
246,-1145,1,0
912,-172,0,0
390,-1384,1,0
88,-1359,0,0
106,-625,0,0
603,-1342,1,0
156,-772,0,0
76,-428,0,0
423,-530,0,0
1430,-677,0,0
972,-612,0,0
359,-1203,1,0
1820,-312,0,0
1385,-1894,1,0
1147,-1893,0,0
312,-1267,1,0
1651,-1322,1,0
1748,-66,1,0
202,-1793,0,0
1743,-1744,1,0
517,-71,1,0
794,-211,0,0
1173,-304,0,0
992,-1938,0,0
543,-613,0,0
891,-434,0,0
801,-1280,0,0
684,-1934,0,0
1856,-1388,1,0
1387,-180,0,0
282,-1973,1,0
571,-747,1,0
513,-373,0,0
1880,-350,0,0
706,-1606,0,0
1233,-1233,0,0
991,-1078,0,0
1691,-1252,0,0
203,-877,0,0
1027,-1792,0,0
286,-1739,0,0
1877,-1803,0,0
1695,-99,1,0
344,-1007,1,0
1663,-645,0,0
947,-16,0,0
1233,-1712,0,0
1406,-1613,1,0
997,-317,0,0
1348,-211,0,0
1861,-328,0,0
656,-158,0,0
211,-911,0,0
27,-1598,0,0
1185,-1336,0,0
1792,-850,0,0
792,-180,0,0
941,-1139,1,0
1261,-1573,0,0
790,-1243,0,0
251,-1804,0,0
1743,-1192,0,0
1446,-1675,0,0
1361,-1597,0,0
744,-299,0,0
823,-1941,1,0
690,-1596,0,0
1178,-559,1,0
536,-1297,1,0
1801,-369,1,0
1310,-1235,1,0
1713,-1345,0,0
452,-1321,1,0
1575,-1207,1,0
1199,-1851,1,0
845,-882,1,0
1377,-1004,0,0
1765,-491,0,0
667,-1191,0,0
1535,-25,0,0
1028,-931,0,0
620,-634,0,0
660,-1124,1,0
1844,-581,0,0
579,-568,0,0
1195,-1746,0,0
329,-1379,0,0
1125,-704,0,0
1007,-1303,0,0
1884,-711,1,0
441,-335,0,0
841,-1657,0,0
443,-1574,0,0
1818,-821,0,0
385,-1639,0,0
1032,-703,0,0
873,-642,1,0
1666,-1011,0,0
783,-1923,1,0
695,-489,0,0
1678,-1529,0,0
660,-645,1,0
1400,-1157,0,0
599,-803,0,0
1900,-770,0,0
155,-1599,0,0
1628,-388,0,0
904,-579,0,0
475,-1886,0,0
380,-1795,1,0
1094,-624,0,0
1566,-1208,0,0
911,-98,0,0
748,-1104,0,0
689,-1807,0,0
178,-1346,1,0
641,-301,1,0
908,-342,0,0
919,-1037,0,0
1418,-1108,0,0
104,-951,0,0
620,-44,1,0
148,-1450,0,0
609,-1434,0,0
809,-135,0,0
214,-680,0,0
463,-703,0,0
62,-87,0,0
527,-72,0,0
908,-1463,0,0
575,-1914,0,0
940,-1726,0,0
1114,-1671,0,0
930,-1818,0,0
129,-1049,0,0
1526,-468,1,0
1291,-848,0,0
1313,-52,0,0
1535,-1983,0,0
1123,-392,0,0
1740,-583,1,0
873,-771,0,0
1121,-1387,0,0
1465,-1179,0,0
1275,-1131,0,0
1721,-649,0,0
612,-1461,0,0
535,-1175,0,0
231,-1398,0,0
562,-175,1,0

near cbsd peopel number
158
119
155
135
160
118
147
137
149
120
147
113
136
154
153
110
136
140
140
133
160
139
152
144
136
130
139
137
127
127
