each times' max average throughput
633.348389,639.331665,639.922913,633.380859,642.360107,638.552795,640.776672,625.212463,632.968201,635.120422,628.172546,632.512634,647.798767,635.464966,636.960754,634.842651,642.413696,642.726379,637.643372,634.111206,644.451477,624.975342,630.050354,649.752563,642.935852,623.304443,649.468323,635.719055,640.901794,630.986694,640.456238,637.935242,632.965942,624.899231,641.221924,647.077637,641.717773,644.410706,643.440308,625.522949,630.873413,621.871338,632.838867,622.956116,644.412476,644.610413,643.606506,634.330994,641.014648,643.099426,638.913635,633.586914,649.212708,640.573303,649.297119,642.774292,632.892273,632.955566,640.641174,640.178467,640.774292,640.641174,640.641174,640.641174,640.641174,640.641174,639.760132,640.641174,640.641174,642.136597,640.641174,640.641174,640.641174,640.641174,640.641174,640.641174,638.246155,640.641174,640.641174,636.457581,640.641174,640.641174,640.641174,640.641174,640.641174,640.641174,634.828247,640.641174,640.641174,628.172058,640.641174,640.641174,640.641174,640.641174,640.641174,640.641174,642.439575,640.641174,640.641174,637.166748,
avg. throughput in all test times
638.463074
avg. BS TX power in all test times
MBS area 1,MBS area 2,CBSD 1,CBSD 2,CBSD 3,CBSD 4,CBSD 5,CBSD 6,CBSD 7,
9.675,9.625,0.524,0.394,0.241,0.659,0.452,0.310,0.317,
avg. mbs all power,avg. cbsd enable number,avg. mbs area all power,avg. cbsd all power
48.775,3.000,19.300,2.898
avg. max avg. throughput generation number in all test times
0.530000
avg. number of relay UE
221



the max average throughput times

BS TX power
MBS area 1,MBS area 2,CBSD 1,CBSD 2,CBSD 3,CBSD 4,CBSD 5,CBSD 6,CBSD 7,
10.000,10.000,0.875,0.000,0.750,0.000,0.000,0.625,0.000,
max average throughput
637.166748

x,y,area,be blocked (1 : NLOS / 0 : LOS),be blocked number (>=1 : CBSD(x) / 0 : no),connect bs number (>=1 : CBSD / 0 : MBS),throughput (unit : M bps)
909,367,1,1,0,6,279.646240
-578,-1092,2,1,0,3,78.865021
1689,235,1,0,0,0,733.188721
-193,-240,2,0,0,0,1226.142090
526,-1983,1,0,0,0,680.242126
-1427,-289,2,0,0,0,778.549622
1667,1114,1,1,0,6,155.081802
-567,-129,2,0,0,0,1042.830200
1126,-893,1,0,0,0,782.292114
-761,699,2,0,0,0,877.167358
94,1388,1,1,0,3,78.865021
-1799,67,2,0,0,0,717.652283
1800,-1835,1,0,0,0,615.918884
-1472,-903,2,0,0,0,729.574158
1532,-777,1,0,0,0,731.093506
-457,1674,2,0,0,0,728.190186
1147,1372,1,0,0,0,719.561157
-735,-620,2,0,0,0,897.882629
873,-1300,1,1,0,3,78.865021
-1158,1155,2,0,0,0,745.163635
1607,884,1,0,0,0,712.315369
-102,1546,2,0,0,0,760.697693
592,1075,1,0,0,0,827.675598
-991,-325,2,0,0,0,874.498169
205,694,1,1,0,3,78.865021
-1461,341,2,0,0,0,769.942261
1449,-1048,1,1,0,3,78.865021
-47,-1721,2,0,0,0,730.449036
1780,-1348,1,1,0,3,78.865021
-1091,-1929,2,0,0,0,658.193176
1373,-340,1,0,0,0,786.856445
-1589,1424,2,0,0,0,669.022034
184,-1473,1,0,0,0,772.986267
-1654,-1464,2,0,0,0,659.135681
165,923,1,0,0,0,905.143860
-280,142,2,0,0,0,1220.600464
726,1522,1,0,0,0,736.399048
-771,-827,2,0,0,0,851.255554
656,-1574,1,0,0,0,733.195251
-1973,1898,2,0,0,0,597.998840
223,-1745,1,0,0,0,724.263733
-322,36,2,0,0,0,1211.504395
1852,1732,1,0,0,0,619.793518
-1377,605,2,0,0,0,769.219910
1347,-1653,1,0,0,0,669.206726
-933,240,2,1,0,1,122.351761
1546,-804,1,0,0,0,726.985779
-1235,1923,2,0,0,0,649.407593
1231,1507,1,0,0,0,695.375916
-150,1224,2,1,0,1,122.351761
1376,-166,1,0,0,0,792.703857
-1823,-100,2,0,0,0,713.623352
1675,-738,1,1,0,3,78.865021
-962,728,2,0,0,0,832.596252
59,543,1,0,0,0,1060.884766
-53,904,2,1,0,1,122.351761
1953,689,1,0,0,0,677.551514
-585,1291,2,1,0,1,122.351761
1002,-1544,1,0,0,0,711.295532
-540,-922,2,0,0,0,867.527405
1758,1469,1,0,0,0,648.716370
-247,-1228,2,0,0,0,821.791870
9,1950,1,0,0,0,694.765991
-1094,1870,2,0,0,0,664.663757
1472,-1463,1,0,0,0,676.945557
-568,-1179,2,0,0,0,809.195740
1748,-1012,1,0,0,0,684.704529
-18,-719,2,1,0,3,78.865021
1862,717,1,0,0,0,688.200928
-95,776,2,1,0,1,122.351761
1842,9,1,1,0,3,78.865021
-543,-1126,2,0,0,0,822.367493
61,-1128,1,0,0,0,851.510559
-944,-347,2,0,0,0,884.947388
780,387,1,0,0,0,926.466125
-30,387,2,0,0,0,1159.391602
296,1677,1,0,0,0,733.583679
-1859,-102,2,0,0,0,708.021606
1899,1561,1,0,0,0,628.626343
-674,1558,2,0,0,0,734.491699
1311,-58,1,0,0,0,808.407410
-1952,-1419,2,1,0,3,78.865021
1472,1789,1,0,0,0,645.524414
-869,-557,2,0,0,0,877.479370
1781,-1685,1,0,0,0,629.375977
-301,-410,2,0,0,0,1081.434814
1988,-1945,1,1,0,3,78.865021
-169,1701,2,1,0,1,122.351761
324,-229,1,0,0,0,1153.072876
-1977,1041,2,1,0,1,122.351761
1371,-205,1,0,0,0,792.648804
-1331,-437,2,0,0,0,789.625732
316,212,1,1,0,0,217.711044
-152,-721,2,1,0,3,78.865021
788,627,1,0,0,0,884.588013
-398,-1715,2,0,0,0,724.038147
21,-773,1,0,0,0,960.661011
-930,667,2,1,0,1,122.351761
686,-1161,1,0,0,0,800.576660
-865,-1904,2,0,0,0,674.762451
796,-1092,1,0,0,0,799.980103
-838,690,2,0,0,0,862.979065
4,1932,1,0,0,0,697.422913
-1209,915,2,0,0,0,766.906128
10,456,1,0,0,0,1112.864380
-1777,-1195,2,0,0,0,667.988464
1654,-1460,1,0,0,0,659.478333
-586,465,2,0,0,0,970.211548
1329,-1349,1,0,0,0,703.158081
-794,573,2,0,0,0,892.662354
252,-1841,1,1,0,3,78.865021
-155,-1396,2,0,0,0,788.872864
1416,1486,1,0,0,0,680.096680
-840,1504,2,0,0,0,730.276550
1868,-341,1,0,0,0,702.375183
-1904,-1526,2,0,0,0,630.740234
976,1351,1,0,0,0,739.755676
-483,1693,2,1,0,1,122.351761
919,1444,1,0,0,0,732.120300
-419,1434,2,0,0,0,771.151978
1299,-503,1,1,0,3,78.865021
-586,-1802,2,0,0,0,702.976257
1489,1208,1,0,0,0,699.596375
-725,-607,2,0,0,0,902.720520
164,-660,1,0,0,0,997.682312
-1418,-67,2,0,0,0,785.820312
200,-935,1,0,0,0,899.511292
-652,994,2,1,0,1,122.351761
1454,448,1,0,0,0,765.916077
-628,1385,2,0,0,0,766.052979
511,-1512,1,1,0,3,78.865021
-711,-1872,2,0,0,0,687.170898
698,-1126,1,0,0,0,805.679626
-1137,1586,2,0,0,0,694.556091
834,-368,1,0,0,0,913.259155
-1706,-485,2,0,0,0,721.925659
1521,-889,1,0,0,0,723.847290
-1382,1402,2,0,0,0,692.046936
547,653,1,1,0,6,154.856033
-896,-1945,2,1,0,3,78.865021
1579,-1618,1,0,0,0,652.500244
-1640,951,2,0,0,0,702.840698
21,475,1,0,0,0,1100.878784
-216,-583,2,1,0,3,78.865021
1551,-620,1,0,0,0,739.125793
-1494,-559,2,0,0,0,752.337708
733,-1676,1,0,0,0,713.068481
-1327,-1755,2,1,0,3,78.865021
1745,1972,1,1,0,6,82.440620
-939,1606,2,0,0,0,708.241699
462,1560,1,0,0,0,746.670105
-133,1239,2,0,0,0,823.282654
664,40,1,0,0,0,1004.053772
-431,-768,2,0,0,0,923.194763
396,1423,1,0,0,0,774.416565
-1213,-1023,2,0,0,0,753.846558
148,217,1,0,0,0,1272.052368
-1427,-1379,2,0,0,0,689.760315
1396,452,1,0,0,0,776.313110
-91,1709,2,1,0,1,122.351761
1230,-940,1,0,0,0,760.938293
-1743,9,2,0,0,0,726.910461
447,-1884,1,0,0,0,696.786804
-1410,1940,2,0,0,0,635.663025
1064,-1639,1,0,0,0,694.171204
-1228,1161,2,0,0,0,735.777832
433,1697,1,0,0,0,725.541016
-1394,1325,2,0,0,0,698.723816
1097,901,1,1,0,6,269.815247
-206,1810,2,0,0,0,714.260254
1122,-1749,1,0,0,0,676.589722
-84,-1209,2,0,0,0,831.287292
1243,932,1,0,0,0,759.913330
-1240,1026,2,0,0,0,749.780334
1505,1903,1,0,0,0,632.363403
-1536,939,2,0,0,0,717.646484
1479,-1836,1,0,0,0,640.537354
-1679,463,2,1,0,1,122.351761
1137,1727,1,0,0,0,678.006592
-1540,503,2,0,0,0,747.891113
989,-1052,1,0,0,0,780.942444
-1119,1312,2,0,0,0,729.992493
809,1286,1,0,0,0,766.322327
-860,313,2,0,0,0,912.121704
768,1925,1,0,0,0,677.334534
-1490,-1015,2,0,0,0,717.235718
371,-407,1,0,0,0,1058.507202
-1077,-1038,2,0,0,0,770.801331
708,891,1,0,0,0,849.379700
-1337,1308,2,0,0,0,706.699646
1359,-110,1,0,0,0,797.414001
-899,637,2,1,0,1,122.351761
1571,-1055,1,0,0,0,703.356812
-1766,-658,2,0,0,0,704.535156
1820,-1032,1,0,0,0,674.632141
-1338,1410,2,0,0,0,695.681091
1560,1813,1,0,0,0,636.436157
-643,1664,2,1,0,1,122.351761
304,-989,1,1,0,3,78.865021
-306,166,2,1,0,0,248.551315
1536,1447,1,0,0,0,672.182556
-1916,-972,2,0,0,0,667.054382
128,-1355,1,0,0,0,797.922913
-386,-704,2,0,0,0,949.839722
87,1703,1,0,0,0,733.197021
-946,-542,2,0,0,0,861.722168
305,122,1,0,0,0,1207.535034
-1507,-1389,2,0,0,0,680.534485
939,1072,1,0,0,0,784.706177
-1392,1066,2,0,0,0,725.227234
690,148,1,0,0,0,987.021851
-1868,-352,2,1,0,1,122.351761
375,599,1,0,0,0,986.610718
-1171,1009,2,0,0,0,761.368652
1506,1314,1,0,0,0,687.716736
-1720,1424,2,0,0,0,656.033997
519,1426,1,1,0,1,122.351761
-1422,-921,2,1,0,3,78.865021
377,1269,1,1,0,3,78.865021
-61,-802,2,0,0,0,949.323669
582,-1034,1,0,0,0,837.373657
-777,-769,2,0,0,0,860.948364
233,541,1,0,0,0,1039.109619
-1527,-562,2,1,0,1,122.351761
755,-664,1,0,0,0,885.036438
-938,146,2,1,0,1,122.351761
1058,-1870,1,0,0,0,667.041077
-911,-648,2,1,0,3,78.865021
673,848,1,0,0,0,863.751892
-760,-1052,2,0,0,0,811.596191
299,-1058,1,0,0,0,859.311035
-1832,584,2,0,0,0,698.785156
1242,360,1,0,0,0,812.635864
-1614,972,2,0,0,0,704.613342
1711,531,1,1,0,6,184.731247
-1628,-989,2,1,0,3,78.865021
1372,1949,1,0,0,0,637.426147
-334,438,2,0,0,0,1058.455078
33,980,1,1,0,3,78.865021
-947,-318,2,0,0,0,886.897705
1831,-1640,1,0,0,0,628.644409
-1085,1147,2,0,0,0,755.282227
577,1265,1,0,0,0,791.792419
-117,1006,2,0,0,0,882.943481
1748,-1659,1,1,0,3,78.865021
-809,1674,2,0,0,0,708.415527
1034,224,1,1,0,6,240.261292
-986,1097,2,1,0,1,122.351761
1214,284,1,0,0,0,823.130615
-1254,468,2,0,0,0,802.724365
1231,1276,1,0,0,0,722.022339
-301,-698,2,1,0,3,78.865021
961,-499,1,0,0,0,863.691711
-73,368,2,0,0,0,1169.210205
816,-822,1,0,0,0,844.316528
-215,-1020,2,1,0,3,78.865021
1699,135,1,1,0,3,78.865021
-1303,-1903,2,0,0,0,646.807800
16,1743,1,0,0,0,726.902161
-637,625,2,1,0,1,122.351761
59,1538,1,0,0,0,762.599426
-1895,-643,2,0,0,0,687.364685
954,160,1,0,0,0,896.165894
-1703,-385,2,1,0,1,122.351761
1829,-927,1,0,0,0,680.391541
-1880,1681,2,0,0,0,621.341614
850,753,1,0,0,0,850.007263
-1165,-1873,2,0,0,0,659.535522
922,-354,1,1,0,3,78.865021
-948,-614,2,0,0,0,851.556335
404,721,1,0,0,0,941.494080
-201,1234,2,0,0,0,822.327576
216,-1530,1,0,0,0,761.474854
-16,-1820,2,0,0,0,714.514404
1460,898,1,0,0,0,731.714355
-1528,47,2,1,0,1,122.351761
1618,-1470,1,0,0,0,662.098145
-465,-1150,2,1,0,3,78.865021
1562,852,1,0,0,0,721.013367
-605,1254,2,0,0,0,791.392639
190,1701,1,0,0,0,732.129883
-1504,1054,2,0,0,0,711.931396
1731,-1885,1,0,0,0,617.165466
-1880,957,2,1,0,1,122.351761
564,854,1,0,0,0,879.931702
-1547,-1161,2,0,0,0,697.097534
1280,-623,1,0,0,0,785.015808
-1973,324,2,0,0,0,687.606628
1549,-781,1,0,0,0,728.274231
-1117,-456,2,0,0,0,832.576782
1307,303,1,0,0,0,802.042664
-687,509,2,0,0,0,931.712646
468,-802,1,0,0,0,907.943237
-1589,-827,2,1,0,3,78.865021
447,1559,1,0,0,0,747.580872
-1586,325,2,0,0,0,748.087463
353,459,1,0,0,0,1044.046021
-596,1622,2,0,0,0,729.386536
1096,1485,1,0,0,0,710.515564
-1299,-484,2,1,0,1,122.351761
1297,-452,1,1,0,3,78.865021
-1463,26,2,0,0,0,777.120911
1125,-1547,1,0,0,0,700.281372
-228,-479,2,0,0,0,1069.295410
2,-477,1,0,0,0,1099.946045
-771,677,2,0,0,0,879.197327
1997,966,1,0,0,0,657.907288
-1239,1804,2,1,0,1,122.351761
35,-971,1,1,0,3,78.865021
-869,-1805,2,1,0,3,78.865021
103,-314,1,1,0,0,267.314728
-1624,227,2,0,0,0,744.419250
683,818,1,0,0,0,868.294739
-779,489,2,1,0,1,122.351761
1729,-1192,1,0,0,0,673.562866
-99,495,2,0,0,0,1083.610962
634,-134,1,0,0,0,1011.604736
-1646,-403,2,0,0,0,734.985901
1897,1920,1,0,0,0,602.037476
-1578,-484,2,0,0,0,742.541504
1018,-1625,1,0,0,0,699.574463
-1964,1786,2,0,0,0,606.754944
846,1437,1,0,0,0,739.605469
-1912,-1319,2,1,0,3,78.865021
1118,732,1,0,0,0,803.189880
-307,1142,2,0,0,0,838.343994
738,-301,1,0,0,0,951.948547
-158,-1019,2,1,0,3,78.865021
1832,1614,1,0,0,0,630.565063
-1790,1358,2,1,0,1,122.351761
844,26,1,0,0,0,935.311279
-1644,6,2,0,0,0,743.681458
1098,-1878,1,0,0,0,663.489502
-1417,-859,2,0,0,0,741.417725
1344,-350,1,0,0,0,792.113770
-175,-2000,2,1,0,3,78.865021
349,-1737,1,1,0,3,78.865021
-41,-1282,2,1,0,3,78.865021
35,-1990,1,0,0,0,688.914368
-1906,983,2,0,0,0,667.572632
600,778,1,0,0,0,891.686584
-868,1490,2,0,0,0,729.991455
1267,1082,1,0,0,0,739.846619
-992,-614,2,0,0,0,842.238525
78,1599,1,1,0,1,122.351761
-1009,-1964,2,0,0,0,659.242065
945,1833,1,1,0,6,79.046326
-1140,611,2,1,0,1,122.351761
748,1129,1,0,0,0,799.346924
-613,-42,2,1,0,1,122.351761
1607,1981,1,0,0,0,618.097717
-1146,641,2,0,0,0,808.231140
24,167,1,0,0,0,1399.765991
-915,355,2,1,0,1,122.351761
362,-890,1,0,0,0,898.113525
-245,22,2,1,0,0,381.144470
814,-111,1,0,0,0,943.221069
-703,1609,2,0,0,0,724.804749
556,235,1,0,0,0,1032.059082
-1801,1588,2,1,0,1,122.351761
1800,254,1,1,0,6,158.825912
-483,554,2,0,0,0,975.299744
1946,1173,1,0,0,0,651.064880
-290,1431,2,0,0,0,777.738220
1499,1485,1,1,0,6,122.064659
-1976,-1904,2,1,0,3,78.865021
910,959,1,0,0,0,806.278564
-94,-1879,2,0,0,0,705.029419
1187,1597,1,0,0,0,688.984741
-132,-489,2,0,0,0,1082.641602
12,-1039,1,0,0,0,875.566223
-1437,-631,2,0,0,0,757.002319
1982,1173,1,0,0,0,647.209778
-517,1857,2,0,0,0,698.072327
1574,118,1,0,0,0,755.364624
-1042,857,2,0,0,0,800.442566
624,-712,1,0,0,0,902.359253
-319,1032,2,0,0,0,864.397583
647,-1494,1,1,0,3,78.865021
-62,-810,2,1,0,3,78.865021
1979,-317,1,0,0,0,686.920410
-1768,-499,2,0,0,0,711.851074
395,-1736,1,0,0,0,720.833618
-880,102,2,0,0,0,921.492920
556,-1988,1,0,0,0,678.476196
-61,1460,2,0,0,0,777.505371
519,973,1,0,0,0,858.441711
-426,651,2,0,0,0,958.911194
1124,108,1,0,0,0,851.630615
-260,-671,2,0,0,0,981.392700
1028,-543,1,0,0,0,843.238220
-1123,-357,2,0,0,0,839.359253
1535,533,1,1,0,6,222.603317
-137,623,2,0,0,0,1016.142639
61,1435,1,0,0,0,782.457642
-723,426,2,0,0,0,937.101624
167,-1288,1,0,0,0,811.380554
-510,813,2,0,0,0,898.437561
29,1283,1,0,0,0,814.821899
-1919,-1395,2,0,0,0,638.746765
416,-1018,1,0,0,0,859.237976
-258,1687,2,1,0,1,122.351761
1438,-244,1,1,0,3,78.865021
-768,1525,2,0,0,0,732.819214
1507,-1093,1,0,0,0,708.045715
-1808,-287,2,0,0,0,712.855835
991,-1236,1,0,0,0,754.310181
-1563,-289,2,1,0,1,122.351761
1002,-750,1,0,0,0,822.020203
-1025,1781,2,0,0,0,679.780212
1612,-569,1,0,0,0,732.482483
-1709,-529,2,0,0,0,719.448181
1764,1795,1,1,0,6,92.354630
-325,1073,2,0,0,0,853.686279
403,157,1,0,0,0,1128.192627
-812,-142,2,0,0,0,942.244446
927,602,1,0,0,0,857.775574
-782,-1263,2,1,0,3,78.865021
39,1192,1,1,0,3,78.865021
-1880,1487,2,0,0,0,635.814758
267,-289,1,0,0,0,1155.481323
-249,-1216,2,0,0,0,824.412537
396,-529,1,0,0,0,1005.968506
-821,1521,2,1,0,1,122.351761
677,-1691,1,0,0,0,714.291687
-1487,981,2,0,0,0,720.661682
387,1163,1,0,0,0,828.034302
-1253,139,2,0,0,0,819.940125
815,642,1,0,0,0,876.003662
-153,32,2,0,0,0,1421.800659
1822,536,1,0,0,0,702.324646
-150,525,2,0,0,0,1060.983887
799,1962,1,0,0,0,671.072266
-1614,-1715,2,0,0,0,640.848450
106,1537,1,1,0,3,78.865021
-587,-97,2,0,0,0,1036.226807
1441,-1253,1,0,0,0,700.765198
-1285,1812,2,0,0,0,657.519043
66,1119,1,0,0,0,853.736328
-1585,1617,2,1,0,1,122.351761
1354,1681,1,0,0,0,665.722656
-1912,1633,2,0,0,0,622.188232
538,-450,1,1,0,3,78.865021
-1668,998,2,0,0,0,695.685364
1679,450,1,0,0,0,727.695129
-1982,986,2,0,0,0,658.507690
1872,-1892,1,0,0,0,606.011475
-1943,-1827,2,0,0,0,605.428284
705,633,1,0,0,0,902.135437
-1213,1815,2,0,0,0,662.494019
632,-217,1,0,0,0,1002.751282
-956,716,2,1,0,1,122.351761
1154,241,1,0,0,0,839.232910
-838,1543,2,1,0,1,122.351761
152,422,1,0,0,0,1117.691040
-1358,-48,2,0,0,0,798.384583
1847,-927,1,0,0,0,678.159241
-323,-717,2,0,0,0,955.816406
1061,1549,1,0,0,0,705.611206
-689,855,2,0,0,0,859.670959
624,-972,1,0,0,0,845.110046
-1125,480,2,0,0,0,828.639893
896,-322,1,0,0,0,900.733032
-1454,-923,2,0,0,0,730.352600
917,1637,1,0,0,0,705.792786
-1747,1639,2,1,0,1,122.351761
1128,-422,1,1,0,3,78.865021
-1528,642,2,0,0,0,741.356018
207,-1160,1,1,0,3,78.865021
-1445,-1190,2,1,0,3,78.865021
156,-1818,1,0,0,0,713.789673
-580,-407,2,1,0,3,78.865021
1904,387,1,0,0,0,695.808289
-1189,140,2,0,0,0,834.797668
754,-933,1,0,0,0,834.228455
-1195,-1548,2,0,0,0,693.950012
613,-1911,1,0,0,0,686.537720
-1440,-1280,2,1,0,3,78.865021
1596,-513,1,0,0,0,738.081787
-753,-621,2,0,0,0,893.583496
1234,509,1,0,0,0,803.505005
-679,947,2,0,0,0,842.578125
1675,-235,1,0,0,0,735.529724
-1031,-1808,2,0,0,0,676.128967
1328,1398,1,0,0,0,697.985596
-1010,74,2,0,0,0,882.964478
1849,114,1,1,0,3,78.865021
-1186,1592,2,0,0,0,689.648193
3,-239,1,1,0,0,392.728760
-1790,-756,2,1,0,1,122.351761
980,182,1,0,0,0,887.535278
-524,-1084,2,0,0,0,833.170288
1391,1141,1,0,0,0,717.834717
-201,-1454,2,0,0,0,776.220032
1087,978,1,1,0,6,235.345093
-399,-1348,2,1,0,3,78.865021
340,-1723,1,1,0,3,78.865021
-222,-85,2,0,0,0,1300.845459
1080,730,1,1,0,6,398.747009
-1343,174,2,0,0,0,799.364075
667,108,1,1,0,3,78.865021
-1374,768,2,0,0,0,756.156006
1592,-1133,1,0,0,0,694.181274
-1710,92,2,0,0,0,731.980042
882,-1040,1,0,0,0,797.372070
-937,-1059,2,0,0,0,786.948303
1437,1838,1,0,0,0,643.521667
-199,-1781,2,0,0,0,718.954529
1620,-1525,1,0,0,0,657.072632
-1080,1870,2,0,0,0,665.593140
1117,-732,1,0,0,0,803.369934
-371,40,2,1,0,0,224.351776
1135,-1428,1,0,0,0,713.877991
-1426,1578,2,0,0,0,669.939392
282,-1978,1,0,0,0,687.810669
-913,1958,2,0,0,0,665.469727
1944,872,1,0,0,0,669.436157
-878,-1547,2,0,0,0,721.088379
1487,1660,1,0,0,0,656.590637
-1963,16,2,1,0,1,122.351761
350,-1603,1,1,0,3,78.865021
-1760,1151,2,1,0,1,122.351761
446,-1273,1,0,0,0,800.503174
-1462,235,2,0,0,0,773.699402
89,-558,1,0,0,0,1051.097778
-292,-27,2,0,0,0,1240.280762
1132,-498,1,0,0,0,825.464417
-616,-533,2,0,0,0,945.669373
1697,1757,1,0,0,0,630.430420
-757,1969,2,1,0,1,122.351761
581,1798,1,0,0,0,703.785400
-575,-1446,2,0,0,0,759.446350
1266,365,1,0,0,0,807.252197
-1290,1765,2,1,0,1,122.351761
683,376,1,0,0,0,958.296387
-968,1106,2,0,0,0,775.837830
1544,644,1,0,0,0,738.680908
-929,-1137,2,0,0,0,776.133972
931,-1719,1,0,0,0,694.047546
-549,-282,2,1,0,1,122.351761
683,-1328,1,1,0,3,78.865021
-1153,906,2,1,0,1,122.351761
487,-697,1,0,0,0,933.311890
-1402,1889,2,0,0,0,641.164551
1102,1878,1,0,0,0,663.224060
-812,707,2,1,0,1,122.351761
600,614,1,1,0,6,176.357758
-1275,866,2,0,0,0,762.196472
1297,1262,1,0,0,0,716.158508
-583,-1675,2,0,0,0,721.932190
1089,-1631,1,0,0,0,693.138306
-669,1796,2,0,0,0,699.721313
924,-1648,1,0,0,0,703.812805
-821,860,2,0,0,0,836.786194
1673,825,1,0,0,0,707.474426
-1416,920,2,1,0,1,122.351761
252,1121,1,1,0,3,78.865021
-84,1354,2,1,0,1,122.351761
1125,-1520,1,0,0,0,703.558472
-1486,1459,2,0,0,0,675.962463
885,1315,1,0,0,0,754.157410
-1735,425,2,1,0,1,122.351761
94,-26,1,0,0,0,1557.896851
-963,-1714,2,0,0,0,692.430237
604,731,1,0,0,0,901.901184
-692,628,2,0,0,0,906.114502
1250,1633,1,0,0,0,679.556946
-8,1553,2,0,0,0,760.020508
211,-1561,1,0,0,0,755.951050
-354,545,2,0,0,0,1010.773132
801,-1827,1,0,0,0,688.258484
-626,-1305,2,0,0,0,780.249878
921,725,1,0,0,0,840.891357
-1950,328,2,0,0,0,690.776917
962,-1889,1,0,0,0,670.883728
-1350,-601,2,0,0,0,774.287903
332,1398,1,1,0,1,122.351761
-732,-559,2,0,0,0,910.287598
1396,810,1,0,0,0,748.971558
-1235,-201,2,0,0,0,822.100769
501,-1561,1,1,0,3,78.865021
-575,861,2,0,0,0,876.598877
1152,-487,1,0,0,0,822.225037
-1640,-1799,2,1,0,3,78.865021
121,-566,1,0,0,0,1044.172241
-977,531,2,0,0,0,856.047913
364,-1976,1,1,0,3,78.865021
-631,1332,2,0,0,0,775.034119
251,920,1,0,0,0,900.273193
-1825,1308,2,1,0,1,122.351761
1487,-1459,1,0,0,0,675.864502
-1833,-235,2,0,0,0,710.151489
1813,-1560,1,0,0,0,636.436157
-1641,-868,2,0,0,0,708.849304
677,727,1,0,0,0,888.504456
-360,-1608,2,0,0,0,743.020020
240,1313,1,1,0,3,78.865021
-1661,758,2,0,0,0,713.616516
1720,1392,1,1,0,6,123.813774
-1975,-858,2,0,0,0,666.407715
1957,1427,1,0,0,0,632.854492
-5,504,2,0,0,0,1084.055786
831,-551,1,0,0,0,887.442749
-492,-1150,2,0,0,0,822.198242
1608,504,1,0,0,0,736.594788
-552,705,2,0,0,0,918.420105
1765,546,1,0,0,0,710.225708
-923,-793,2,0,0,0,830.113037
1674,-764,1,1,0,3,78.865021
-1921,-1615,2,0,0,0,622.728821
165,-283,1,0,0,0,1208.332764
-452,513,2,0,0,0,996.139648
1245,1073,1,0,0,0,743.756775
-481,-654,2,0,0,0,946.642700
612,-1279,1,1,0,3,78.865021
-1464,487,2,1,0,1,122.351761
1442,-1349,1,0,0,0,691.177002
-1825,-1894,2,0,0,0,609.385742
713,-235,1,0,0,0,969.192139
-610,-1135,2,0,0,0,813.657410
1586,-176,1,1,0,3,78.865021
-917,-337,2,0,0,0,893.310608
1553,1509,1,0,0,0,664.811279
-1824,-93,2,1,0,1,122.351761
381,895,1,0,0,0,894.563843
-1792,-590,2,0,0,0,704.227295
337,-1171,1,0,0,0,829.721924
-1863,922,2,0,0,0,676.491516
981,776,1,0,0,0,822.200806
-1929,128,2,0,0,0,697.239380
1856,477,1,0,0,0,699.756775
-398,-1641,2,0,0,0,736.010071
1938,-303,1,0,0,0,693.080017
-1604,1129,2,0,0,0,693.087280
1689,1769,1,0,0,0,630.067566
-798,1286,2,0,0,0,767.425964
389,-1843,1,0,0,0,704.686279
-1745,16,2,0,0,0,726.573303
246,-496,1,0,0,0,1056.974365
-338,1353,2,0,0,0,790.925720
1439,-203,1,0,0,0,779.087280
-92,-645,2,1,0,3,78.865021
1578,457,1,0,0,0,743.885315
-1582,1140,2,0,0,0,694.775818
1676,1033,1,0,0,0,692.027344
-26,1151,2,0,0,0,846.049438
1377,622,1,0,0,0,767.902100
-893,1629,2,0,0,0,708.650513
1164,1898,1,0,0,0,656.863037
-279,1345,2,0,0,0,795.274658
1259,-128,1,1,0,3,78.865021
-1979,1783,2,0,0,0,605.781250
1173,519,1,0,0,0,814.965088
-449,1568,2,0,0,0,745.957397
1265,-187,1,0,0,0,815.850037
-776,-294,2,0,0,0,940.327209
1984,-1348,1,0,0,0,635.622009
-1208,-1504,2,1,0,3,78.865021
1980,-113,1,0,0,0,689.934692
-592,-1921,2,1,0,3,78.865021
1997,1909,1,0,0,0,595.424622
-976,-312,2,1,0,1,122.351761
407,-176,1,1,0,3,78.865021
-301,-624,2,0,0,0,992.335266
1126,-1991,1,0,0,0,649.167480
-1103,1884,2,1,0,1,122.351761
1518,-1072,1,0,0,0,708.550415
-583,1142,2,0,0,0,815.073181
477,-812,1,1,0,3,78.865021
-1123,-852,2,0,0,0,787.843201
1899,-851,1,0,0,0,676.175903
-1920,-268,2,0,0,0,696.445129
1778,140,1,0,0,0,720.329956
-1716,1411,2,0,0,0,657.489929
1674,-981,1,0,0,0,696.201233
-1581,74,2,0,0,0,754.581421
1864,1181,1,0,0,0,659.421143
-64,-836,2,0,0,0,937.350159
1205,1515,1,0,0,0,696.863708
-1238,-880,2,0,0,0,766.398987
980,-1618,1,0,0,0,703.466431
-1539,-1089,2,0,0,0,704.425232
366,-1535,1,1,0,3,78.865021
-836,764,2,0,0,0,850.781128
1447,1901,1,0,0,0,636.759644
-1763,1360,2,0,0,0,656.849487
733,-432,1,0,0,0,933.125610
-1127,418,2,1,0,1,122.351761
6,1693,1,0,0,0,735.257690
-313,57,2,0,0,0,1216.767944
1086,-740,1,0,0,0,807.998108
-1339,-1015,2,0,0,0,737.432129
1093,366,1,0,0,0,845.710266
-514,-732,2,0,0,0,918.727234
1141,-295,1,1,0,3,78.865021
-1452,-699,2,1,0,1,122.351761
564,-1523,1,1,0,3,78.865021
-1959,-576,2,0,0,0,681.590698
982,-1520,1,0,0,0,716.164307
-1031,-1083,2,1,0,3,78.865021
278,-351,1,0,0,0,1118.195923
-1419,-1013,2,0,0,0,726.834961
462,-893,1,0,0,0,885.040222
-670,1387,2,0,0,0,762.372742
933,718,1,0,0,0,839.625122
-1400,1137,2,1,0,1,122.351761
1668,-86,1,0,0,0,739.145447
-1446,506,2,0,0,0,763.936951
241,-1800,1,0,0,0,715.146057
-1217,-155,2,0,0,0,827.768799
51,1760,1,0,0,0,724.011719
-233,-669,2,0,0,0,985.912964
1077,1478,1,0,0,0,713.147766
-1232,-777,2,0,0,0,778.434326
1133,176,1,0,0,0,847.227661
-331,1093,2,1,0,1,122.351761
55,1545,1,1,0,1,122.351761
-1703,809,2,1,0,1,122.351761
819,1526,1,1,0,6,96.821831
-330,850,2,0,0,0,913.186279
495,215,1,0,0,0,1064.347656
-257,-1636,2,0,0,0,741.586304
434,1809,1,1,0,3,78.865021
-314,-381,2,0,0,0,1090.014282
489,-87,1,0,0,0,1088.289795
-1671,-1611,2,0,0,0,644.986755
1145,-1000,1,0,0,0,766.151611
-1963,-275,2,1,0,1,122.351761
1926,1231,1,0,0,0,649.362000
-966,-230,2,0,0,0,888.621521
912,-254,1,0,0,0,902.368896
-838,-278,2,1,0,3,78.865021
1907,42,1,1,0,3,78.865021
-272,-1279,2,0,0,0,809.434387
681,1238,1,0,0,0,787.167358
-1856,1939,2,1,0,1,122.351761
861,729,1,0,0,0,851.887939
-698,865,2,0,0,0,856.171509
1715,-586,1,0,0,0,715.731934
-597,230,2,0,0,0,1015.291077
1254,-1250,1,1,0,3,78.865021
-655,-28,2,0,0,0,1008.246887
224,-1646,1,0,0,0,740.702698
-531,1493,2,0,0,0,754.239563
1605,712,1,1,0,6,203.060989
-1835,-1760,2,1,0,3,78.865021
627,1848,1,1,0,3,78.865021
-670,87,2,0,0,0,999.572937
1278,-245,1,0,0,0,810.829529
-230,411,2,0,0,0,1103.612305
145,773,1,0,0,0,955.784790
-610,-964,2,1,0,3,78.865021
221,1873,1,1,0,3,78.865021
-1443,1090,2,0,0,0,716.355835
455,1322,1,1,0,3,78.865021
-1979,-412,2,1,0,1,122.351761
1571,-757,1,0,0,0,726.770752
-502,-1250,2,0,0,0,800.893982
387,-1037,1,0,0,0,857.375183
-1423,1877,2,0,0,0,640.801392
1239,908,1,1,0,6,252.100861
-219,1403,2,1,0,1,122.351761
910,871,1,0,0,0,820.174561
-1086,493,2,0,0,0,835.893250
1387,413,1,1,0,6,253.004257
-1918,-1177,2,0,0,0,653.821960
93,1791,1,1,0,3,78.865021
-1879,-109,2,0,0,0,704.906372
581,-1116,1,0,0,0,820.512512
-512,-1466,2,1,0,3,78.865021
763,-669,1,0,0,0,882.382568
-1258,-1142,2,0,0,0,734.238525
444,-203,1,0,0,0,1093.251953
-1399,-104,2,0,0,0,789.224670
1821,397,1,0,0,0,707.717468
-1234,-511,2,0,0,0,803.340637
19,168,1,1,0,0,536.316833
-497,-219,2,0,0,0,1062.517700
1459,183,1,0,0,0,775.710938
-562,-1696,2,0,0,0,719.818420
1839,1436,1,0,0,0,643.500610
-1919,-769,2,0,0,0,678.052551
1041,-1756,1,0,0,0,681.667603
-1079,1546,2,0,0,0,704.428711
1739,1845,1,1,0,6,89.635254
-1484,276,2,0,0,0,768.190613
617,-1631,1,0,0,0,726.782043
-1316,595,2,0,0,0,780.869568
74,612,1,0,0,0,1025.993530
-779,-1305,2,0,0,0,766.223450
477,1506,1,0,0,0,755.124939
-380,-1211,2,1,0,3,78.865021
425,-1343,1,0,0,0,788.042786
-926,309,2,0,0,0,893.537231
1831,-838,1,0,0,0,685.578125
-1756,433,2,1,0,1,122.351761
341,-1963,1,0,0,0,688.614075
-1785,-1922,2,1,0,3,78.865021
574,258,1,0,0,0,1020.041260
-350,-1477,2,1,0,3,78.865021
55,-1418,1,0,0,0,785.924744
-1401,870,2,0,0,0,742.785950
641,721,1,0,0,0,896.936340
-114,834,2,0,0,0,936.215149
396,-1900,1,1,0,3,78.865021
-1607,655,2,0,0,0,728.173523
1489,116,1,1,0,6,181.861893
-791,-1883,2,0,0,0,681.525146
1738,-623,1,0,0,0,710.417664
-7,-1014,2,0,0,0,882.590210
1673,1130,1,0,0,0,684.838440
-174,-982,2,0,0,0,887.379517
1525,-227,1,0,0,0,762.101685
-508,341,2,0,0,0,1028.162231
1896,-593,1,0,0,0,689.451904
-1551,1215,2,0,0,0,691.814697
1092,863,1,0,0,0,791.489563
-1135,1366,2,0,0,0,721.537964
767,1877,1,0,0,0,683.595093
-448,1215,2,0,0,0,812.227051
1458,-186,1,0,0,0,775.830994
-1049,228,2,1,0,1,122.351761
128,518,1,0,0,0,1067.623169
-572,877,2,0,0,0,873.363647
615,752,1,1,0,6,172.675598
-807,639,2,1,0,1,122.351761
1173,1030,1,0,0,0,758.542969
-365,783,2,0,0,0,928.736084
1979,765,1,0,0,0,670.632690
-704,1363,2,0,0,0,763.544067
1601,1569,1,0,0,0,654.927673
-1222,233,2,1,0,1,122.351761
588,64,1,0,0,0,1037.922119
-1406,-440,2,1,0,1,122.351761
15,1935,1,1,0,1,122.351761
-724,-1431,2,1,0,3,78.865021
1927,-660,1,0,0,0,682.296326
-611,-1423,2,0,0,0,760.833374
1260,-898,1,1,0,3,78.865021
-61,-829,2,0,0,0,939.836487
64,-1615,1,0,0,0,748.564514
-376,-980,2,0,0,0,872.648315
486,409,1,0,0,0,1017.359619
-1197,-838,2,1,0,3,78.865021
826,-1812,1,0,0,0,688.759338
-925,-744,2,0,0,0,837.242798
493,-150,1,0,0,0,1077.667725
-1437,243,2,1,0,1,122.351761
223,1886,1,1,0,3,78.865021
-1434,1223,2,0,0,0,704.520325
311,-861,1,0,0,0,912.040527
-13,1143,2,0,0,0,848.110962
55,-657,1,1,0,3,78.865021
-194,-591,2,1,0,3,78.865021
389,1050,1,0,0,0,854.045227
-671,1034,2,0,0,0,826.410461
913,-1769,1,0,0,0,688.856323
-674,598,2,0,0,0,916.607849
395,1642,1,0,0,0,735.964478
-1666,-402,2,0,0,0,731.755371
1473,-1244,1,1,0,3,78.865021
-967,1573,2,0,0,0,710.390503
362,416,1,0,0,0,1058.122803
-1060,1574,2,1,0,1,122.351761
24,-1181,1,0,0,0,838.660828
-1813,826,2,0,0,0,688.628662
780,-69,1,0,0,0,957.046509
-1964,1589,2,0,0,0,620.849060
1182,-862,1,0,0,0,777.179688
-1375,1105,2,0,0,0,723.483521
1947,-1884,1,0,0,0,600.963989
-1404,-1685,2,0,0,0,661.156433
1255,1657,1,0,0,0,676.497314
-298,-1888,2,0,0,0,700.496094
1515,461,1,0,0,0,754.426392
-986,1730,2,0,0,0,688.778198
779,1194,1,1,0,6,137.524277
-1340,715,2,0,0,0,766.412598
1474,-1465,1,1,0,3,78.865021
-60,-1185,2,0,0,0,837.379211
838,-654,1,0,0,0,869.013062
-50,936,2,0,0,0,905.235168
1697,1329,1,1,0,6,130.783585
-367,-1298,2,0,0,0,800.499390
904,815,1,0,0,0,830.048584
-142,1300,2,0,0,0,809.405823
1223,385,1,1,0,6,296.439087
-1482,1800,2,0,0,0,643.702026
1576,1053,1,0,0,0,702.897034
-1239,-1032,2,0,0,0,749.234680
1940,1704,1,0,0,0,614.632996
-1743,-800,2,0,0,0,699.531494
1347,-1117,1,1,0,3,78.865021
-528,-1099,2,0,0,0,829.550110
1011,459,1,1,0,6,382.366913
-370,353,2,0,0,0,1079.878052
1170,-1236,1,0,0,0,733.749390
-163,1150,2,0,0,0,843.511414
1814,-1532,1,1,0,3,78.865021
-1318,966,2,0,0,0,745.416382
1468,-630,1,0,0,0,751.920532
-71,-1755,2,0,0,0,724.713135
1465,265,1,1,0,6,208.988098
-1311,677,2,0,0,0,774.726074
491,-61,1,1,0,3,78.865021
-564,-804,2,0,0,0,891.801880
1252,449,1,0,0,0,804.535583
-970,1010,2,0,0,0,789.737793
604,-312,1,0,0,0,997.787170
-1985,-1745,2,0,0,0,608.007812
1895,-1895,1,1,0,3,78.865021
-271,-110,2,1,0,0,313.056702
528,-677,1,0,0,0,930.522827
-1907,765,2,0,0,0,679.804321
571,-1764,1,0,0,0,709.205750
-521,-1416,2,0,0,0,768.312439
1257,1334,1,0,0,0,712.498535
-507,153,2,0,0,0,1069.791626
648,-1943,1,1,0,3,78.865021
-1941,-681,2,0,0,0,679.487610
1343,1987,1,0,0,0,635.660034
-1253,597,2,0,0,0,792.293945
134,-177,1,0,0,0,1320.576294
-1296,696,2,0,0,0,775.587280
1867,-435,1,0,0,0,699.653687
-1905,1202,2,0,0,0,653.546692
311,-897,1,1,0,3,78.865021
-75,-408,2,1,0,0,189.481949
1594,929,1,0,0,0,710.623474
-809,1254,2,0,0,0,771.468750
321,1837,1,0,0,0,707.554443
-1542,-1449,2,0,0,0,671.406128
1004,-1972,1,0,0,0,658.616028
-187,-1239,2,0,0,0,821.691284
940,748,1,0,0,0,833.819397
-178,194,2,0,0,0,1271.370239
208,1956,1,0,0,0,692.280945
-787,-114,2,0,0,0,952.603271
1935,-1800,1,1,0,3,78.865021
-1563,1493,2,1,0,1,122.351761
182,-1231,1,1,0,3,78.865021
-1261,663,2,0,0,0,784.791992
849,-1078,1,0,0,0,795.578064
-1716,496,2,0,0,0,719.889648
898,348,1,1,0,6,267.258301
-139,-1569,2,1,0,3,78.865021
1061,-513,1,0,0,0,839.326904
-1239,-376,2,0,0,0,812.263916
850,207,1,0,0,0,925.108337
-1536,952,2,0,0,0,716.563965
435,648,1,0,0,0,957.996948
-1128,-1587,2,1,0,3,78.865021
170,702,1,0,0,0,980.321533
1314,1724,1,0,0,0,664.510681
1854,-1194,1,0,0,0,659.606262
1890,-917,1,0,0,0,673.475708
618,-1279,1,0,0,0,785.638611
1090,-877,1,1,0,3,78.865021
1761,744,1,0,0,0,700.444824
1961,780,1,0,0,0,672.156433
980,-361,1,0,0,0,874.099670
1317,202,1,0,0,0,804.033691
85,-432,1,0,0,0,1123.049927
1052,-788,1,1,0,3,78.865021
1512,1325,1,1,0,6,140.338150
35,-477,1,0,0,0,1099.174438
263,-435,1,0,0,0,1081.606079
1103,1679,1,0,0,0,686.255554
1519,1809,1,0,0,0,639.986877
957,-1693,1,0,0,0,695.539062
692,-877,1,1,0,3,78.865021
729,486,1,0,0,0,924.678467
21,-1601,1,0,0,0,751.263123
921,-1174,1,1,0,3,78.865021
672,-1212,1,0,0,0,792.733887
5,1561,1,1,0,3,78.865021
927,-100,1,0,0,0,906.762085
138,-1758,1,1,0,3,78.865021
690,-102,1,0,0,0,990.388855
1356,968,1,0,0,0,739.859680
822,358,1,0,0,0,918.039856
1790,869,1,0,0,0,688.989014
58,-1030,1,0,0,0,877.634094
1943,-1836,1,0,0,0,604.771301
1516,-1698,1,0,0,0,650.551025
986,-911,1,0,0,0,801.878601
987,-990,1,0,0,0,790.231934
1671,1074,1,0,0,0,689.479065
107,462,1,0,0,0,1101.629150
1806,-1819,1,0,0,0,616.714111
111,-858,1,1,0,3,78.865021
1338,-1587,1,0,0,0,676.890320
1528,-938,1,0,0,0,718.817871
1101,-1840,1,1,0,3,78.865021
1096,1224,1,0,0,0,743.861084
1316,990,1,1,0,6,215.784363
925,1664,1,0,0,0,701.630249
664,296,1,0,0,0,978.453247
188,-1071,1,0,0,0,862.486328
1238,978,1,0,0,0,755.495728


each generation good chromosome number
10,10,10,