each times' max average throughput
637.712158,617.441528,634.106262,631.097107,634.072937,631.650208,627.999939,620.610046,631.947205,633.155029,612.031799,624.406250,614.568909,641.732605,620.940369,640.121033,640.266113,633.353394,639.030029,641.488647,638.600525,633.291382,633.838928,632.653931,643.372986,637.432495,624.935181,633.209412,631.867310,632.988037,640.565735,641.557556,636.650391,640.639648,632.751099,647.901123,632.452881,640.182617,629.438171,625.471313,634.432312,624.277100,620.162964,646.102722,631.014526,625.882751,634.798340,634.457764,642.936523,640.428040,628.043457,640.487000,631.675842,625.642456,625.915894,625.157837,642.011658,626.382568,632.636047,637.239807,643.518555,639.762390,640.748962,629.575745,629.352356,640.877502,634.569946,632.821228,642.651428,625.367493,640.741760,632.711243,624.620239,618.518677,640.529419,632.719177,642.721191,626.065552,635.817322,631.400757,641.487915,640.465820,635.498657,634.127991,615.774536,632.284546,632.060181,638.765259,634.931519,632.838867,619.590149,635.274536,640.481140,634.592163,625.299988,626.111084,640.134216,638.270569,609.487671,630.718933,
avg. throughput in all test times
632.905029
avg. BS TX power in all test times
MBS area 1,MBS area 2,CBSD 1,CBSD 2,CBSD 3,CBSD 4,CBSD 5,CBSD 6,CBSD 7,
9.475,9.288,0.364,0.299,0.273,0.500,0.352,0.349,0.429,
avg. mbs all power,avg. cbsd enable number,avg. mbs area all power,avg. cbsd all power
44.713,3.000,18.763,2.565
avg. max avg. throughput generation number in all test times
0.810000
avg. number of relay UE
223

the max average throughput times

BS TX power
MBS area 1,MBS area 2,CBSD 1,CBSD 2,CBSD 3,CBSD 4,CBSD 5,CBSD 6,CBSD 7,
8.750,8.750,0.875,0.000,1.000,0.625,0.000,0.750,0.000,
max average throughput
630.718933

x,y,area,be blocked (1 : NLOS / 0 : LOS),be blocked number (>=1 : CBSD(x) / 0 : no),connect bs number (>=1 : CBSD / 0 : MBS),throughput (unit : M bps)
909,367,1,1,0,6,234.038712
-578,-1092,2,1,0,4,246.315826
1689,235,1,0,0,0,714.052124
-193,-240,2,0,0,0,1206.881836
526,-1983,1,0,0,0,661.162170
-1427,-289,2,0,0,0,759.378540
1667,1114,1,1,0,6,133.455276
-567,-129,2,0,0,0,1023.580688
1126,-893,1,0,0,0,763.118652
-761,699,2,0,0,0,857.950012
94,1388,1,1,0,3,119.833855
-1799,67,2,0,0,0,698.530212
1800,-1835,1,0,0,0,596.942566
-1472,-903,2,0,0,0,710.440857
1532,-777,1,0,0,0,711.958801
-457,1674,2,0,0,0,709.058044
1147,1372,1,0,0,0,700.437256
-735,-620,2,0,0,0,878.658997
873,-1300,1,1,0,3,119.833855
-1158,1155,2,0,0,0,726.016846
1607,884,1,0,0,0,693.198669
-102,1546,2,0,0,0,741.538940
592,1075,1,0,0,0,808.477600
-991,-325,2,0,0,0,855.281738
205,694,1,1,0,3,119.833855
-1461,341,2,0,0,0,750.776917
1449,-1048,1,1,0,3,119.833855
-47,-1721,2,0,0,0,711.314941
1780,-1348,1,1,0,3,119.833855
-1091,-1929,2,0,0,0,639.143677
1373,-340,1,0,0,0,767.680176
-1589,1424,2,0,0,0,649.957031
184,-1473,1,0,0,0,753.818848
-1654,-1464,2,0,0,0,640.084839
165,923,1,0,0,0,885.918274
-280,142,2,0,0,0,1201.340332
726,1522,1,0,0,0,717.259644
-771,-827,2,0,0,0,832.047485
656,-1574,1,0,0,0,714.058716
-1973,1898,2,0,0,0,579.060547
223,-1745,1,0,0,0,705.135254
-322,36,2,0,0,0,1192.244507
1852,1732,1,0,0,0,600.809570
-1377,605,2,0,0,0,750.055054
1347,-1653,1,0,0,0,650.141479
-933,240,2,1,0,4,123.575874
1546,-804,1,0,0,0,707.854797
-1235,1923,2,0,0,0,630.371582
1231,1507,1,0,0,0,676.277588
-150,1224,2,1,0,1,120.636597
1376,-166,1,0,0,0,773.524048
-1823,-100,2,0,0,0,694.505310
1675,-738,1,1,0,3,119.833855
-962,728,2,0,0,0,813.396057
59,543,1,0,0,0,1041.633545
-53,904,2,1,0,1,124.124634
1953,689,1,0,0,0,658.475037
-585,1291,2,1,0,1,149.640457
1002,-1544,1,0,0,0,692.179871
-540,-922,2,0,0,0,848.313354
1758,1469,1,0,0,0,629.681519
-247,-1228,2,0,0,0,802.596558
9,1950,1,0,0,0,675.668396
-1094,1870,2,0,0,0,645.604858
1472,-1463,1,0,0,0,657.869873
-568,-1179,2,0,0,0,790.006775
1748,-1012,1,0,0,0,665.619019
-18,-719,2,1,0,4,159.835709
1862,717,1,0,0,0,669.111084
-95,776,2,1,0,1,110.389381
1842,9,1,1,0,3,119.833855
-543,-1126,2,0,0,0,803.171997
61,-1128,1,0,0,0,832.302429
-944,-347,2,0,0,0,865.727600
780,387,1,0,0,0,907.235168
-30,387,2,0,0,0,1140.133789
296,1677,1,0,0,0,714.446716
-1859,-102,2,0,0,0,688.909363
1899,1561,1,0,0,0,609.625732
-674,1558,2,0,0,0,715.353943
1311,-58,1,0,0,0,789.218872
-1952,-1419,2,1,0,4,107.193153
1472,1789,1,0,0,0,626.494629
-869,-557,2,0,0,0,858.261963
1781,-1685,1,0,0,0,610.373962
-301,-410,2,0,0,0,1062.181885
1988,-1945,1,1,0,3,119.833855
-169,1701,2,1,0,1,85.121246
324,-229,1,0,0,0,1133.815308
-1977,1041,2,1,0,1,134.632919
1371,-205,1,0,0,0,773.469055
-1331,-437,2,0,0,0,770.447754
316,212,1,1,0,0,202.933304
-152,-721,2,1,0,4,178.045364
788,627,1,0,0,0,865.368347
-398,-1715,2,0,0,0,704.909912
21,-773,1,0,0,0,941.422974
-930,667,2,1,0,1,249.078125
686,-1161,1,0,0,0,781.392334
-865,-1904,2,0,0,0,655.689697
796,-1092,1,0,0,0,780.796143
-838,690,2,0,0,0,843.766663
4,1932,1,0,0,0,678.322266
-1209,915,2,0,0,0,747.742920
10,456,1,0,0,0,1093.609131
-1777,-1195,2,0,0,0,648.924927
1654,-1460,1,0,0,0,640.426941
-586,465,2,0,0,0,950.971802
1329,-1349,1,0,0,0,684.051086
-794,573,2,0,0,0,873.440247
252,-1841,1,1,0,3,119.833855
-155,-1396,2,0,0,0,769.695374
1416,1486,1,0,0,0,661.016907
-840,1504,2,0,0,0,711.142578
1868,-341,1,0,0,0,683.269043
-1904,-1526,2,0,0,0,611.735779
976,1351,1,0,0,0,720.613403
-483,1693,2,1,0,1,93.944138
919,1444,1,0,0,0,712.984680
-419,1434,2,0,0,0,751.985779
1299,-503,1,1,0,3,119.833855
-586,-1802,2,0,0,0,683.869446
1489,1208,1,0,0,0,680.493286
-725,-607,2,0,0,0,883.495544
164,-660,1,0,0,0,978.438293
-1418,-67,2,0,0,0,766.644653
200,-935,1,0,0,0,880.287231
-652,994,2,1,0,1,252.981567
1454,448,1,0,0,0,746.753540
-628,1385,2,0,0,0,746.890381
511,-1512,1,1,0,3,119.833855
-711,-1872,2,0,0,0,668.082336
698,-1126,1,0,0,0,786.492554
-1137,1586,2,0,0,0,675.458740
834,-368,1,0,0,0,894.031433
-1706,-485,2,0,0,0,702.799438
1521,-889,1,0,0,0,704.719238
-1382,1402,2,0,0,0,672.952515
547,653,1,1,0,6,133.271194
-896,-1945,2,1,0,4,123.621742
1579,-1618,1,0,0,0,633.459412
-1640,951,2,0,0,0,683.734009
21,475,1,0,0,0,1081.624268
-216,-583,2,1,0,4,180.328415
1551,-620,1,0,0,0,719.984070
-1494,-559,2,0,0,0,733.185181
733,-1676,1,0,0,0,693.950989
-1327,-1755,2,1,0,4,126.214172
1745,1972,1,1,0,6,73.322128
-939,1606,2,0,0,0,689.129272
462,1560,1,0,0,0,727.522095
-133,1239,2,0,0,0,804.086731
664,40,1,0,0,0,984.808899
-431,-768,2,0,0,0,903.964539
396,1423,1,0,0,0,755.248169
-1213,-1023,2,0,0,0,734.692932
148,217,1,0,0,0,1252.791016
-1427,-1379,2,0,0,0,670.668579
1396,452,1,0,0,0,757.143494
-91,1709,2,1,0,1,69.854744
1230,-940,1,0,0,0,741.779297
-1743,9,2,0,0,0,707.779602
447,-1884,1,0,0,0,677.686890
-1410,1940,2,0,0,0,616.649902
1064,-1639,1,0,0,0,675.074341
-1228,1161,2,0,0,0,716.638977
433,1697,1,0,0,0,706.411377
-1394,1325,2,0,0,0,679.621704
1097,901,1,1,0,6,226.144714
-206,1810,2,0,0,0,695.141602
1122,-1749,1,0,0,0,657.514526
-84,-1209,2,0,0,0,812.087646
1243,932,1,0,0,0,740.755127
-1240,1026,2,0,0,0,730.629883
1505,1903,1,0,0,0,613.356018
-1536,939,2,0,0,0,698.524414
1479,-1836,1,0,0,0,621.515869
-1679,463,2,1,0,1,144.713394
1137,1727,1,0,0,0,658.929504
-1540,503,2,0,0,0,728.742126
989,-1052,1,0,0,0,761.769836
-1119,1312,2,0,0,0,710.858765
809,1286,1,0,0,0,747.159485
-860,313,2,0,0,0,892.894287
768,1925,1,0,0,0,658.258362
-1490,-1015,2,0,0,0,698.114075
371,-407,1,0,0,0,1039.256226
-1077,-1038,2,0,0,0,751.635437
708,891,1,0,0,0,830.172363
-1337,1308,2,0,0,0,687.588806
1359,-110,1,0,0,0,778.231445
-899,637,2,1,0,1,301.431213
1571,-1055,1,0,0,0,684.249573
-1766,-658,2,0,0,0,685.426636
1820,-1032,1,0,0,0,655.559570
-1338,1410,2,0,0,0,676.582458
1560,1813,1,0,0,0,617.421631
-643,1664,2,1,0,1,160.331436
304,-989,1,1,0,3,119.833855
-306,166,2,1,0,0,232.920822
1536,1447,1,0,0,0,653.113220
-1916,-972,2,0,0,0,647.992126
128,-1355,1,0,0,0,778.740112
-386,-704,2,0,0,0,930.603760
87,1703,1,0,0,0,714.060425
-946,-542,2,0,0,0,842.510132
305,122,1,0,0,0,1188.275391
-1507,-1389,2,0,0,0,661.454163
939,1072,1,0,0,0,765.531189
-1392,1066,2,0,0,0,706.097961
690,148,1,0,0,0,967.779419
-1868,-352,2,1,0,4,114.488762
375,599,1,0,0,0,967.368286
-1171,1009,2,0,0,0,742.209412
1506,1314,1,0,0,0,668.627441
-1720,1424,2,0,0,0,636.987732
519,1426,1,1,0,3,119.833855
-1422,-921,2,1,0,4,168.746246
377,1269,1,1,0,3,119.833855
-61,-802,2,0,0,0,930.087830
582,-1034,1,0,0,0,818.171326
-777,-769,2,0,0,0,841.736633
233,541,1,0,0,0,1019.860474
-1527,-562,2,1,0,4,149.815933
755,-664,1,0,0,0,865.816589
-938,146,2,1,0,1,168.747452
1058,-1870,1,0,0,0,647.978821
-911,-648,2,1,0,4,259.533386
673,848,1,0,0,0,844.539185
-760,-1052,2,0,0,0,792.406006
299,-1058,1,0,0,0,840.099915
-1832,584,2,0,0,0,679.682983
1242,360,1,0,0,0,793.445190
-1614,972,2,0,0,0,685.504761
1711,531,1,1,0,6,157.558670
-1628,-989,2,1,0,4,143.356354
1372,1949,1,0,0,0,618.409973
-334,438,2,0,0,0,1039.204102
33,980,1,1,0,3,119.833855
-947,-318,2,0,0,0,867.677368
1831,-1640,1,0,0,0,609.643738
-1085,1147,2,0,0,0,736.127502
577,1265,1,0,0,0,772.613159
-117,1006,2,0,0,0,863.724304
1748,-1659,1,1,0,3,119.833855
-809,1674,2,0,0,0,689.302917
1034,224,1,1,0,6,202.385437
-986,1097,2,1,0,1,343.834259
1214,284,1,0,0,0,803.934692
-1254,468,2,0,0,0,783.538879
1231,1276,1,0,0,0,702.895996
-301,-698,2,1,0,4,202.026825
961,-499,1,0,0,0,844.479004
-73,368,2,0,0,0,1149.952026
816,-822,1,0,0,0,825.111267
-215,-1020,2,1,0,4,186.109207
1699,135,1,1,0,6,138.343964
-1303,-1903,2,0,0,0,627.776001
16,1743,1,0,0,0,707.771240
-637,625,2,1,0,1,211.273102
59,1538,1,0,0,0,743.439270
-1895,-643,2,0,0,0,668.275818
954,160,1,0,0,0,876.942810
-1703,-385,2,1,0,4,127.303764
1829,-927,1,0,0,0,661.311401
-1880,1681,2,0,0,0,602.354614
850,753,1,0,0,0,830.799683
-1165,-1873,2,0,0,0,640.484009
922,-354,1,1,0,3,119.833855
-948,-614,2,0,0,0,832.348145
404,721,1,0,0,0,922.259827
-201,1234,2,0,0,0,803.132080
216,-1530,1,0,0,0,742.315491
-16,-1820,2,0,0,0,695.395508
1460,898,1,0,0,0,712.579041
-1528,47,2,1,0,1,134.002014
1618,-1470,1,0,0,0,643.042908
-465,-1150,2,1,0,4,214.862198
1562,852,1,0,0,0,701.888062
-605,1254,2,0,0,0,772.213623
190,1701,1,0,0,0,712.994263
-1504,1054,2,0,0,0,692.815063
1731,-1885,1,0,0,0,598.186646
-1880,957,2,1,0,1,143.375000
564,854,1,0,0,0,860.713501
-1547,-1161,2,0,0,0,677.997314
1280,-623,1,0,0,0,765.840637
-1973,324,2,0,0,0,668.517517
1549,-781,1,0,0,0,709.142090
-1117,-456,2,0,0,0,813.376587
1307,303,1,0,0,0,782.857544
-687,509,2,0,0,0,912.480469
468,-802,1,0,0,0,888.716858
-1589,-827,2,1,0,4,148.637817
447,1559,1,0,0,0,728.432129
-1586,325,2,0,0,0,728.938293
353,459,1,0,0,0,1024.796387
-596,1622,2,0,0,0,710.253418
1096,1485,1,0,0,0,691.400696
-1299,-484,2,1,0,4,170.972107
1297,-452,1,1,0,3,119.833855
-1463,26,2,0,0,0,757.950745
1125,-1547,1,0,0,0,681.177490
-228,-479,2,0,0,0,1050.043335
2,-477,1,0,0,0,1080.691650
-771,677,2,0,0,0,859.979370
1997,966,1,0,0,0,638.858215
-1239,1804,2,1,0,1,136.073975
35,-971,1,1,0,3,119.833855
-869,-1805,2,1,0,4,136.096771
103,-314,1,1,0,0,251.245911
-1624,227,2,0,0,0,725.273071
683,818,1,0,0,0,849.080444
-779,489,2,1,0,1,241.309952
1729,-1192,1,0,0,0,654.491638
-99,495,2,0,0,0,1064.357788
634,-134,1,0,0,0,992.358826
-1646,-403,2,0,0,0,715.847717
1897,1920,1,0,0,0,583.090149
-1578,-484,2,0,0,0,723.396912
1018,-1625,1,0,0,0,680.471436
-1964,1786,2,0,0,0,587.797424
846,1437,1,0,0,0,720.463318
-1912,-1319,2,1,0,4,112.408409
1118,732,1,0,0,0,784.004150
-307,1142,2,0,0,0,819.141235
738,-301,1,0,0,0,932.712158
-158,-1019,2,1,0,4,177.451080
1832,1614,1,0,0,0,611.560913
-1790,1358,2,1,0,1,139.416565
844,26,1,0,0,0,916.078308
-1644,6,2,0,0,0,724.535889
1098,-1878,1,0,0,0,644.432312
-1417,-859,2,0,0,0,722.274048
1344,-350,1,0,0,0,772.934265
-175,-2000,2,1,0,4,110.145744
349,-1737,1,1,0,3,119.833855
-41,-1282,2,1,0,4,149.639557
35,-1990,1,0,0,0,669.823669
-1906,983,2,0,0,0,648.509644
600,778,1,0,0,0,872.464783
-868,1490,2,0,0,0,710.857727
1267,1082,1,0,0,0,720.704224
-992,-614,2,0,0,0,823.034119
78,1599,1,1,0,3,119.833855
-1009,-1964,2,0,0,0,640.190979
945,1833,1,1,0,6,70.450409
-1140,611,2,1,0,1,228.028656
748,1129,1,0,0,0,780.163330
-613,-42,2,1,0,4,150.837570
1607,1981,1,0,0,0,599.117065
-1146,641,2,0,0,0,789.042725
24,167,1,0,0,0,1380.502808
-915,355,2,1,0,1,142.174316
362,-890,1,0,0,0,878.889832
-245,22,2,1,0,0,363.340546
814,-111,1,0,0,0,923.986450
-703,1609,2,0,0,0,705.675842
556,235,1,0,0,0,1012.810791
-1801,1588,2,1,0,1,72.502846
1800,254,1,1,0,6,136.508362
-483,554,2,0,0,0,956.059143
1946,1173,1,0,0,0,632.026306
-290,1431,2,0,0,0,758.567688
1499,1485,1,1,0,6,106.374481
-1976,-1904,2,1,0,4,90.501610
910,959,1,0,0,0,787.091187
-94,-1879,2,0,0,0,685.920349
1187,1597,1,0,0,0,669.893982
-132,-489,2,0,0,0,1063.388428
12,-1039,1,0,0,0,856.349426
-1437,-631,2,0,0,0,737.846252
1982,1173,1,0,0,0,628.177246
-517,1857,2,0,0,0,678.970947
1574,118,1,0,0,0,736.209839
-1042,857,2,0,0,0,781.258362
624,-712,1,0,0,0,883.134399
-319,1032,2,0,0,0,845.184631
647,-1494,1,1,0,3,119.833855
-62,-810,2,1,0,4,166.912308
1979,-317,1,0,0,0,667.832153
-1768,-499,2,0,0,0,692.734863
395,-1736,1,0,0,0,701.708496
-880,102,2,0,0,0,902.263184
556,-1988,1,0,0,0,659.398560
-61,1460,2,0,0,0,758.334961
519,973,1,0,0,0,839.230896
-426,651,2,0,0,0,939.673523
1124,108,1,0,0,0,832.422424
-260,-671,2,0,0,0,962.151123
1028,-543,1,0,0,0,824.033386
-1123,-357,2,0,0,0,820.156067
1535,533,1,1,0,6,188.162888
-137,623,2,0,0,0,996.896179
61,1435,1,0,0,0,763.284058
-723,426,2,0,0,0,917.868286
167,-1288,1,0,0,0,792.190491
-510,813,2,0,0,0,879.213806
29,1283,1,0,0,0,795.630066
-1919,-1395,2,0,0,0,619.728271
416,-1018,1,0,0,0,840.026855
-258,1687,2,1,0,1,125.483437
1438,-244,1,1,0,3,119.833855
-768,1525,2,0,0,0,713.682983
1507,-1093,1,0,0,0,688.933472
-1808,-287,2,0,0,0,693.738586
991,-1236,1,0,0,0,735.156189
-1563,-289,2,1,0,4,133.727585
1002,-750,1,0,0,0,802.824829
-1025,1781,2,0,0,0,660.700867
1612,-569,1,0,0,0,713.346558
-1709,-529,2,0,0,0,700.324341
1764,1795,1,1,0,6,81.667809
-325,1073,2,0,0,0,834.477295
403,157,1,0,0,0,1108.936523
-812,-142,2,0,0,0,923.010010
927,602,1,0,0,0,838.565063
-782,-1263,2,1,0,4,214.760742
39,1192,1,1,0,3,119.833855
-1880,1487,2,0,0,0,616.801331
267,-289,1,0,0,0,1136.223633
-249,-1216,2,0,0,0,805.216064
396,-529,1,0,0,0,986.723328
-821,1521,2,1,0,1,198.754166
677,-1691,1,0,0,0,695.173035
-1487,981,2,0,0,0,701.536682
387,1163,1,0,0,0,808.836182
-1253,139,2,0,0,0,800.745789
815,642,1,0,0,0,856.786743
-153,32,2,0,0,0,1402.537231
1822,536,1,0,0,0,683.218506
-150,525,2,0,0,0,1041.732544
799,1962,1,0,0,0,652.004395
-1614,-1715,2,0,0,0,621.826416
106,1537,1,1,0,3,119.833855
-587,-97,2,0,0,0,1016.978027
1441,-1253,1,0,0,0,681.660767
-1285,1812,2,0,0,0,638.470581
66,1119,1,0,0,0,834.527344
-1585,1617,2,1,0,1,126.477264
1354,1681,1,0,0,0,646.662231
-1912,1633,2,0,0,0,603.199646
538,-450,1,1,0,3,119.833855
-1668,998,2,0,0,0,676.586731
1679,450,1,0,0,0,708.563477
-1982,986,2,0,0,0,639.457703
1872,-1892,1,0,0,0,587.055542
-1943,-1827,2,0,0,0,586.473633
705,633,1,0,0,0,882.910583
-1213,1815,2,0,0,0,643.438232
632,-217,1,0,0,0,983.506592
-956,716,2,1,0,1,310.776978
1154,241,1,0,0,0,820.029785
-838,1543,2,1,0,1,180.600769
152,422,1,0,0,0,1098.435547
-1358,-48,2,0,0,0,779.201538
1847,-927,1,0,0,0,659.082031
-323,-717,2,0,0,0,936.579285
1061,1549,1,0,0,0,686.501526
-689,855,2,0,0,0,840.459717
624,-972,1,0,0,0,825.904480
-1125,480,2,0,0,0,809.441467
896,-322,1,0,0,0,881.508606
-1454,-923,2,0,0,0,711.218567
917,1637,1,0,0,0,686.682922
-1747,1639,2,1,0,1,127.488274
1128,-422,1,1,0,3,119.833855
-1528,642,2,0,0,0,722.212402
207,-1160,1,1,0,3,119.833855
-1445,-1190,2,1,0,4,156.158264
156,-1818,1,0,0,0,694.671509
-580,-407,2,1,0,4,201.933731
1904,387,1,0,0,0,676.709534
-1189,140,2,0,0,0,815.596497
754,-933,1,0,0,0,815.027466
-1195,-1548,2,0,0,0,674.853394
613,-1911,1,0,0,0,667.449890
-1440,-1280,2,1,0,4,151.574280
1596,-513,1,0,0,0,718.940979
-753,-621,2,0,0,0,874.361084
1234,509,1,0,0,0,784.319092
-679,947,2,0,0,0,823.373596
1675,-235,1,0,0,0,716.391052
-1031,-1808,2,0,0,0,657.054321
1328,1398,1,0,0,0,678.884338
-1010,74,2,0,0,0,863.745300
1849,114,1,1,0,3,119.833855
-1186,1592,2,0,0,0,670.556641
3,-239,1,1,0,0,374.812683
-1790,-756,2,1,0,4,128.689545
980,182,1,0,0,0,868.314697
-524,-1084,2,0,0,0,813.969788
1391,1141,1,0,0,0,698.712524
-201,-1454,2,0,0,0,757.050476
1087,978,1,1,0,6,198.427963
-399,-1348,2,1,0,4,178.427353
340,-1723,1,1,0,3,119.833855
-222,-85,2,0,0,0,1281.583496
1080,730,1,1,0,6,329.480804
-1343,174,2,0,0,0,780.180481
667,108,1,1,0,3,119.833855
-1374,768,2,0,0,0,737.000610
1592,-1133,1,0,0,0,675.084351
-1710,92,2,0,0,0,712.844543
882,-1040,1,0,0,0,778.189575
-937,-1059,2,0,0,0,767.771973
1437,1838,1,0,0,0,624.495178
-199,-1781,2,0,0,0,699.831238
1620,-1525,1,0,0,0,638.024841
-1080,1870,2,0,0,0,646.532959
1117,-732,1,0,0,0,784.184082
-371,40,2,1,0,0,209.375153
1135,-1428,1,0,0,0,694.759705
-1426,1578,2,0,0,0,650.873108
282,-1978,1,0,0,0,668.721313
-913,1958,2,0,0,0,646.409668
1944,872,1,0,0,0,650.370544
-878,-1547,2,0,0,0,701.962952
1487,1660,1,0,0,0,637.543579
-1963,16,2,1,0,4,97.365417
350,-1603,1,1,0,3,119.833855
-1760,1151,2,1,0,1,142.923309
446,-1273,1,0,0,0,781.318909
-1462,235,2,0,0,0,754.531494
89,-558,1,0,0,0,1031.847412
-292,-27,2,0,0,0,1221.020142
1132,-498,1,0,0,0,806.267456
-616,-533,2,0,0,0,926.434265
1697,1757,1,0,0,0,611.426514
-757,1969,2,1,0,1,82.084938
581,1798,1,0,0,0,684.677673
-575,-1446,2,0,0,0,740.288513
1266,365,1,0,0,0,788.064270
-1290,1765,2,1,0,1,135.555084
683,376,1,0,0,0,939.058838
-968,1106,2,0,0,0,756.668518
1544,644,1,0,0,0,719.539551
-929,-1137,2,0,0,0,756.964478
931,-1719,1,0,0,0,674.950806
-549,-282,2,1,0,4,179.471252
683,-1328,1,1,0,3,119.833855
-1153,906,2,1,0,1,307.669739
487,-697,1,0,0,0,914.079346
-1402,1889,2,0,0,0,622.141968
1102,1878,1,0,0,0,644.167236
-812,707,2,1,0,1,285.977905
600,614,1,1,0,6,150.767181
-1275,866,2,0,0,0,743.036621
1297,1262,1,0,0,0,697.037964
-583,-1675,2,0,0,0,702.806030
1089,-1631,1,0,0,0,674.042664
-669,1796,2,0,0,0,680.618103
924,-1648,1,0,0,0,684.705078
-821,860,2,0,0,0,817.584106
1673,825,1,0,0,0,688.362793
-1416,920,2,1,0,1,177.025665
252,1121,1,1,0,3,119.833855
-84,1354,2,1,0,3,119.833855
1125,-1520,1,0,0,0,684.451050
-1486,1459,2,0,0,0,656.888062
885,1315,1,0,0,0,735.003540
-1735,425,2,1,0,1,130.851562
94,-26,1,0,0,0,1538.632812
-963,-1714,2,0,0,0,673.335388
604,731,1,0,0,0,882.676453
-692,628,2,0,0,0,886.888611
1250,1633,1,0,0,0,660.477905
-8,1553,2,0,0,0,740.862183
211,-1561,1,0,0,0,736.795776
-354,545,2,0,0,0,991.527405
801,-1827,1,0,0,0,669.168579
-626,-1305,2,0,0,0,761.077698
921,725,1,0,0,0,821.687500
-1950,328,2,0,0,0,671.683960
962,-1889,1,0,0,0,651.816162
-1350,-601,2,0,0,0,755.119629
332,1398,1,1,0,1,87.940002
-732,-559,2,0,0,0,891.060608
1396,810,1,0,0,0,729.821716
-1235,-201,2,0,0,0,802.905334
501,-1561,1,1,0,3,119.833855
-575,861,2,0,0,0,857.381775
1152,-487,1,0,0,0,803.029602
-1640,-1799,2,1,0,4,109.108856
121,-566,1,0,0,0,1024.922607
-977,531,2,0,0,0,836.838013
364,-1976,1,1,0,3,119.833855
-631,1332,2,0,0,0,755.865295
251,920,1,0,0,0,881.048889
-1825,1308,2,1,0,1,147.571228
1487,-1459,1,0,0,0,656.790283
-1833,-235,2,0,0,0,691.037048
1813,-1560,1,0,0,0,617.421631
-1641,-868,2,0,0,0,689.736145
677,727,1,0,0,0,869.283569
-360,-1608,2,0,0,0,723.875000
240,1313,1,1,0,3,119.833855
-1661,758,2,0,0,0,694.498535
1720,1392,1,1,0,6,107.817520
-1975,-858,2,0,0,0,647.346313
1957,1427,1,0,0,0,613.846252
-5,504,2,0,0,0,1064.802612
831,-551,1,0,0,0,868.222168
-492,-1150,2,0,0,0,803.002808
1608,504,1,0,0,0,717.455200
-552,705,2,0,0,0,899.191040
1765,546,1,0,0,0,691.111206
-923,-793,2,0,0,0,810.913879
1674,-764,1,1,0,3,119.833855
-1921,-1615,2,0,0,0,603.739197
165,-283,1,0,0,0,1189.072998
-452,513,2,0,0,0,976.895874
1245,1073,1,0,0,0,724.611145
-481,-654,2,0,0,0,927.407410
612,-1279,1,1,0,3,119.833855
-1464,487,2,1,0,1,187.112930
1442,-1349,1,0,0,0,672.083618
-1825,-1894,2,0,0,0,590.422729
713,-235,1,0,0,0,949.952637
-610,-1135,2,0,0,0,794.466187
1586,-176,1,1,0,3,119.833855
-917,-337,2,0,0,0,874.088318
1553,1509,1,0,0,0,645.752136
-1824,-93,2,1,0,4,108.243431
381,895,1,0,0,0,875.341187
-1792,-590,2,0,0,0,685.119080
337,-1171,1,0,0,0,810.522949
-1863,922,2,0,0,0,657.416443
981,776,1,0,0,0,803.005310
-1929,128,2,0,0,0,678.138916
1856,477,1,0,0,0,680.653503
-398,-1641,2,0,0,0,716.871033
1938,-303,1,0,0,0,673.984375
-1604,1129,2,0,0,0,673.991638
1689,1769,1,0,0,0,611.064331
-798,1286,2,0,0,0,748.262329
389,-1843,1,0,0,0,685.577637
-1745,16,2,0,0,0,707.442749
246,-496,1,0,0,0,1037.723511
-338,1353,2,0,0,0,771.747009
1439,-203,1,0,0,0,759.915833
-92,-645,2,1,0,4,166.907913
1578,457,1,0,0,0,724.739563
-1582,1140,2,0,0,0,675.678223
1676,1033,1,0,0,0,672.932922
-26,1151,2,0,0,0,826.843445
1377,622,1,0,0,0,748.738159
-893,1629,2,0,0,0,689.537598
1164,1898,1,0,0,0,637.815491
-279,1345,2,0,0,0,776.093384
1259,-128,1,1,0,3,119.833855
-1979,1783,2,0,0,0,586.825867
1173,519,1,0,0,0,795.773193
-449,1568,2,0,0,0,726.809998
1265,-187,1,0,0,0,796.657715
-776,-294,2,0,0,0,921.093140
1984,-1348,1,0,0,0,616.608887
-1208,-1504,2,1,0,4,153.248184
1980,-113,1,0,0,0,670.842773
-592,-1921,2,1,0,4,125.437515
1997,1909,1,0,0,0,576.492188
-976,-312,2,1,0,4,182.471558
407,-176,1,1,0,3,119.833855
-301,-624,2,0,0,0,973.092041
1126,-1991,1,0,0,0,630.131897
-1103,1884,2,1,0,1,124.522675
1518,-1072,1,0,0,0,689.437622
-583,1142,2,0,0,0,795.881226
477,-812,1,1,0,3,119.833855
-1123,-852,2,0,0,0,768.666321
1899,-851,1,0,0,0,657.101257
-1920,-268,2,0,0,0,677.345581
1778,140,1,0,0,0,701.205261
-1716,1411,2,0,0,0,638.441528
1674,-981,1,0,0,0,677.101990
-1581,74,2,0,0,0,735.427185
1864,1181,1,0,0,0,640.369812
-64,-836,2,0,0,0,918.116760
1205,1515,1,0,0,0,677.763733
-1238,-880,2,0,0,0,747.236145
980,-1618,1,0,0,0,684.359070
-1539,-1089,2,0,0,0,685.316833
366,-1535,1,1,0,3,119.833855
-836,764,2,0,0,0,831.573303
1447,1901,1,0,0,0,617.744568
-1763,1360,2,0,0,0,637.802002
733,-432,1,0,0,0,913.893127
-1127,418,2,1,0,1,220.439529
6,1693,1,0,0,0,716.119263
-313,57,2,0,0,0,1197.507935
1086,-740,1,0,0,0,788.809753
-1339,-1015,2,0,0,0,718.291809
1093,366,1,0,0,0,826.504456
-514,-732,2,0,0,0,899.498169
1141,-295,1,1,0,3,119.833855
-1452,-699,2,1,0,4,163.088013
564,-1523,1,1,0,3,119.833855
-1959,-576,2,0,0,0,662.509094
982,-1520,1,0,0,0,697.043762
-1031,-1083,2,1,0,4,226.727295
278,-351,1,0,0,0,1098.940430
-1419,-1013,2,0,0,0,707.704102
462,-893,1,0,0,0,865.820374
-670,1387,2,0,0,0,743.212769
933,718,1,0,0,0,820.421814
-1400,1137,2,1,0,1,147.259598
1668,-86,1,0,0,0,720.003723
-1446,506,2,0,0,0,744.775818
241,-1800,1,0,0,0,696.026489
-1217,-155,2,0,0,0,808.570740
51,1760,1,0,0,0,704.883484
-233,-669,2,0,0,0,966.670715
1077,1478,1,0,0,0,694.030212
-1232,-777,2,0,0,0,759.263306
1133,176,1,0,0,0,828.021179
-331,1093,2,1,0,1,192.834702
55,1545,1,1,0,3,119.833855
-1703,809,2,1,0,1,171.938126
819,1526,1,1,0,6,85.409660
-330,850,2,0,0,0,893.958557
495,215,1,0,0,0,1045.096069
-257,-1636,2,0,0,0,722.442505
434,1809,1,1,0,3,119.833855
-314,-381,2,0,0,0,1070.760620
489,-87,1,0,0,0,1069.036255
-1671,-1611,2,0,0,0,625.957825
1145,-1000,1,0,0,0,746.988892
-1963,-275,2,1,0,4,106.377281
1926,1231,1,0,0,0,630.326050
-966,-230,2,0,0,0,869.400635
912,-254,1,0,0,0,883.144043
-838,-278,2,1,0,4,183.248337
1907,42,1,1,0,3,119.833855
-272,-1279,2,0,0,0,790.245300
681,1238,1,0,0,0,767.990845
-1856,1939,2,1,0,1,113.230881
861,729,1,0,0,0,832.679626
-698,865,2,0,0,0,836.961548
1715,-586,1,0,0,0,696.611816
-597,230,2,0,0,0,996.044678
1254,-1250,1,1,0,3,119.833855
-655,-28,2,0,0,0,989.001404
224,-1646,1,0,0,0,721.559631
-531,1493,2,0,0,0,735.085632
1605,712,1,1,0,6,172.391190
-1835,-1760,2,1,0,4,101.747269
627,1848,1,1,0,3,119.833855
-670,87,2,0,0,0,980.328674
1278,-245,1,0,0,0,791.639771
-230,411,2,0,0,0,1084.357666
145,773,1,0,0,0,936.547668
-610,-964,2,1,0,4,293.581177
221,1873,1,1,0,3,119.833855
-1443,1090,2,0,0,0,697.235107
455,1322,1,1,0,3,119.833855
-1979,-412,2,1,0,4,108.861748
1571,-757,1,0,0,0,707.639954
-502,-1250,2,0,0,0,781.709473
387,-1037,1,0,0,0,838.164856
-1423,1877,2,0,0,0,621.779419
1239,908,1,1,0,6,211.909454
-219,1403,2,1,0,1,141.413025
910,871,1,0,0,0,800.980042
-1086,493,2,0,0,0,816.691589
1387,413,1,1,0,6,212.635818
-1918,-1177,2,0,0,0,634.779114
93,1791,1,1,0,3,119.833855
-1879,-109,2,0,0,0,685.797485
581,-1116,1,0,0,0,801.317871
-512,-1466,2,1,0,4,170.892548
763,-669,1,0,0,0,863.163635
-1258,-1142,2,0,0,0,715.101013
444,-203,1,0,0,0,1073.998047
-1399,-104,2,0,0,0,770.046936
1821,397,1,0,0,0,688.605530
-1234,-511,2,0,0,0,784.154846
19,168,1,1,0,0,517.552246
-497,-219,2,0,0,0,1043.266235
1459,183,1,0,0,0,756.541687
-562,-1696,2,0,0,0,700.694275
1839,1436,1,0,0,0,624.474182
-1919,-769,2,0,0,0,658.975403
1041,-1756,1,0,0,0,662.585815
-1079,1546,2,0,0,0,685.320374
1739,1845,1,1,0,6,79.384514
-1484,276,2,0,0,0,749.026489
617,-1631,1,0,0,0,707.651245
-1316,595,2,0,0,0,761.696960
74,612,1,0,0,0,1006.745850
-779,-1305,2,0,0,0,747.060730
477,1506,1,0,0,0,735.970276
-380,-1211,2,1,0,4,193.862091
425,-1343,1,0,0,0,768.865784
-926,309,2,0,0,0,874.314880
1831,-838,1,0,0,0,666.491516
-1756,433,2,1,0,1,133.078583
341,-1963,1,0,0,0,669.523743
-1785,-1922,2,1,0,4,97.382957
574,258,1,0,0,0,1000.794373
-350,-1477,2,1,0,4,159.823624
55,-1418,1,0,0,0,766.749023
-1401,870,2,0,0,0,723.641113
641,721,1,0,0,0,877.713013
-114,834,2,0,0,0,916.982056
396,-1900,1,1,0,3,119.833855
-1607,655,2,0,0,0,709.041504
1489,116,1,1,0,6,155.232651
-791,-1883,2,0,0,0,662.443604
1738,-623,1,0,0,0,691.302979
-7,-1014,2,0,0,0,863.371155
1673,1130,1,0,0,0,665.752747
-174,-982,2,0,0,0,868.158997
1525,-227,1,0,0,0,742.941895
-508,341,2,0,0,0,1008.914307
1896,-593,1,0,0,0,670.360596
-1551,1215,2,0,0,0,672.720520
1092,863,1,0,0,0,772.310486
-1135,1366,2,0,0,0,702.412170
767,1877,1,0,0,0,664.510925
-448,1215,2,0,0,0,793.036560
1458,-186,1,0,0,0,756.661682
-1049,228,2,1,0,1,155.240219
128,518,1,0,0,0,1048.371338
-572,877,2,0,0,0,854.147583
615,752,1,1,0,6,147.777206
-807,639,2,1,0,1,267.202515
1173,1030,1,0,0,0,739.385803
-365,783,2,0,0,0,909.504578
1979,765,1,0,0,0,651.565491
-704,1363,2,0,0,0,744.383240
1601,1569,1,0,0,0,635.883118
-1222,233,2,1,0,1,141.673569
588,64,1,0,0,0,1018.673096
-1406,-440,2,1,0,4,156.172913
15,1935,1,1,0,1,78.512192
-724,-1431,2,1,0,4,182.787109
1927,-660,1,0,0,0,663.213806
-611,-1423,2,0,0,0,741.674500
1260,-898,1,1,0,3,119.833855
-61,-829,2,0,0,0,920.602600
64,-1615,1,0,0,0,729.415039
-376,-980,2,0,0,0,853.432495
486,409,1,0,0,0,998.113037
-1197,-838,2,1,0,4,207.534073
826,-1812,1,0,0,0,669.668823
-925,-744,2,0,0,0,818.040527
493,-150,1,0,0,0,1058.415039
-1437,243,2,1,0,4,109.789230
223,1886,1,1,0,3,119.833855
-1434,1223,2,0,0,0,685.411804
311,-861,1,0,0,0,892.813110
-13,1143,2,0,0,0,828.904175
55,-657,1,1,0,3,119.833855
-194,-591,2,1,0,4,177.799255
389,1050,1,0,0,0,834.836060
-671,1034,2,0,0,0,807.213074
913,-1769,1,0,0,0,669.765686
-674,598,2,0,0,0,897.379272
395,1642,1,0,0,0,716.825500
-1666,-402,2,0,0,0,712.620056
1473,-1244,1,1,0,3,119.833855
-967,1573,2,0,0,0,691.275818
362,416,1,0,0,0,1038.871826
-1060,1574,2,1,0,1,173.334961
24,-1181,1,0,0,0,819.457947
-1813,826,2,0,0,0,669.538330
780,-69,1,0,0,0,937.809204
-1964,1589,2,0,0,0,601.863037
1182,-862,1,0,0,0,758.009521
-1375,1105,2,0,0,0,704.355774
1947,-1884,1,0,0,0,582.019043
-1404,-1685,2,0,0,0,642.102539
1255,1657,1,0,0,0,657.422241
-298,-1888,2,0,0,0,681.392029
1515,461,1,0,0,0,735.272278
-986,1730,2,0,0,0,669.687622
779,1194,1,1,0,6,119.093529
-1340,715,2,0,0,0,747.249695
1474,-1465,1,1,0,3,119.833855
-60,-1185,2,0,0,0,818.176880
838,-654,1,0,0,0,849.798462
-50,936,2,0,0,0,886.009521
1697,1329,1,1,0,6,113.557236
-367,-1298,2,0,0,0,781.315125
904,815,1,0,0,0,810.849487
-142,1300,2,0,0,0,790.216797
1223,385,1,1,0,6,247.514603
-1482,1800,2,0,0,0,624.675232
1576,1053,1,0,0,0,683.790283
-1239,-1032,2,0,0,0,730.084656
1940,1704,1,0,0,0,595.659241
-1743,-800,2,0,0,0,680.428467
1347,-1117,1,1,0,3,119.833855
-528,-1099,2,0,0,0,810.351257
1011,459,1,1,0,6,316.366882
-370,353,2,0,0,0,1060.625122
1170,-1236,1,0,0,0,714.612305
-163,1150,2,0,0,0,824.306458
1814,-1532,1,1,0,3,119.833855
-1318,966,2,0,0,0,726.269409
1468,-630,1,0,0,0,732.768372
-71,-1755,2,0,0,0,705.584290
1465,265,1,1,0,6,177.178650
-1311,677,2,0,0,0,755.557495
491,-61,1,1,0,3,119.833855
-564,-804,2,0,0,0,872.580078
1252,449,1,0,0,0,785.349182
-970,1010,2,0,0,0,770.559692
604,-312,1,0,0,0,978.543152
-1985,-1745,2,0,0,0,589.047668
1895,-1895,1,1,0,3,119.833855
-271,-110,2,1,0,0,296.126556
528,-677,1,0,0,0,911.290894
-1907,765,2,0,0,0,660.724976
571,-1764,1,0,0,0,690.092285
-521,-1416,2,0,0,0,749.148254
1257,1334,1,0,0,0,693.381653
-507,153,2,0,0,0,1050.539551
648,-1943,1,1,0,3,119.833855
-1941,-681,2,0,0,0,660.408630
1343,1987,1,0,0,0,616.646912
-1253,597,2,0,0,0,773.114380
134,-177,1,0,0,0,1301.314087
-1296,696,2,0,0,0,756.418213
1867,-435,1,0,0,0,680.550537
-1905,1202,2,0,0,0,634.504272
311,-897,1,1,0,3,119.833855
-75,-408,2,1,0,0,175.655838
1594,929,1,0,0,0,691.508545
-809,1254,2,0,0,0,752.302368
321,1837,1,0,0,0,688.442688
-1542,-1449,2,0,0,0,652.337830
1004,-1972,1,0,0,0,639.565918
-187,-1239,2,0,0,0,802.496094
940,748,1,0,0,0,814.618591
-178,194,2,0,0,0,1252.108887
208,1956,1,0,0,0,673.186218
-787,-114,2,0,0,0,933.366760
1935,-1800,1,1,0,3,119.833855
-1563,1493,2,1,0,1,141.471817
182,-1231,1,1,0,3,119.833855
-1261,663,2,0,0,0,765.616943
849,-1078,1,0,0,0,776.396606
-1716,496,2,0,0,0,700.765442
898,348,1,1,0,6,224.090973
-139,-1569,2,1,0,4,137.899597
1061,-513,1,0,0,0,820.123779
-1239,-376,2,0,0,0,793.073364
850,207,1,0,0,0,905.877747
-1536,952,2,0,0,0,697.442993
435,648,1,0,0,0,938.759460
-1128,-1587,2,1,0,4,149.857620
170,702,1,0,0,0,961.080200
1314,1724,1,0,0,0,645.452026
1854,-1194,1,0,0,0,640.554688
1890,-917,1,0,0,0,654.404663
618,-1279,1,0,0,0,766.463074
1090,-877,1,1,0,3,119.833855
1761,744,1,0,0,0,681.340759
1961,780,1,0,0,0,653.087158
980,-361,1,0,0,0,854.883362
1317,202,1,0,0,0,784.847473
85,-432,1,0,0,0,1103.793945
1052,-788,1,1,0,3,119.833855
1512,1325,1,1,0,6,121.400658
35,-477,1,0,0,0,1079.920166
263,-435,1,0,0,0,1062.353027
1103,1679,1,0,0,0,667.168091
1519,1809,1,0,0,0,620.966309
957,-1693,1,0,0,0,676.440552
692,-877,1,1,0,3,119.833855
729,486,1,0,0,0,905.447937
21,-1601,1,0,0,0,732.111511
921,-1174,1,1,0,3,119.833855
672,-1212,1,0,0,0,773.554077
5,1561,1,1,0,3,119.833855
927,-100,1,0,0,0,887.536072
138,-1758,1,1,0,3,119.833855
690,-102,1,0,0,0,971.145874
1356,968,1,0,0,0,720.717346
822,358,1,0,0,0,898.810913
1790,869,1,0,0,0,669.898254
58,-1030,1,0,0,0,858.416687
1943,-1836,1,0,0,0,585.818054
1516,-1698,1,0,0,0,631.513245
986,-911,1,0,0,0,782.693542
987,-990,1,0,0,0,771.053589
1671,1074,1,0,0,0,670.387695
107,462,1,0,0,0,1082.374634
1806,-1819,1,0,0,0,597.736145
111,-858,1,1,0,3,119.833855
1338,-1587,1,0,0,0,657.814697
1528,-938,1,0,0,0,699.694702
1101,-1840,1,1,0,3,119.833855
1096,1224,1,0,0,0,724.715393
1316,990,1,1,0,6,182.663803
925,1664,1,0,0,0,682.524902
664,296,1,0,0,0,959.212158
188,-1071,1,0,0,0,843.274109
1238,978,1,0,0,0,736.340820


each generation good chromosome number
10,10,9,