the max average throughput times

BS TX power
MBS area 1,MBS area 2,CBSD 1,CBSD 2,CBSD 3,CBSD 4,CBSD 5,CBSD 6,CBSD 7,CBSD 8,
10.000,10.000,0.000,0.000,0.000,0.000,1.000,0.000,0.000,1.000,
max average power
684.643799

x,y,area,be blocked (1 : NLOS / 0 : LOS),be blocked number (>=1 : CBSD(x) / 0 : no),connect bs number (>=1 : CBSD / 0 : MBS),throughput (unit : M bps)
1073,645,1,0,0,0,821.942139
-651,-114,2,0,0,0,1005.922180
1834,-324,1,0,0,0,707.928772
-1117,-399,2,0,0,0,837.474731
1305,-703,1,0,0,0,773.400696
-1121,1312,2,1,0,5,586.931824
933,1374,1,1,0,5,275.206421
-2000,251,2,1,0,5,314.565125
297,-598,1,0,0,0,1002.977417
-357,-1158,2,0,0,0,831.318848
995,-559,1,0,0,0,848.564331
-1378,-1219,2,0,0,0,711.426392
1967,-1297,1,0,0,0,640.717712
-1139,591,2,1,0,5,548.567017
371,1973,1,0,0,0,686.442749
-1815,-1690,2,0,0,0,626.117676
1682,1390,1,1,0,5,196.654129
-4,-1510,2,0,0,0,768.084412
1575,-1061,1,0,0,0,702.349792
-761,912,2,1,0,5,1017.518677
390,888,1,0,0,0,895.409668
-1067,-1125,2,1,0,8,609.691040
1896,515,1,0,0,0,692.619995
-1442,-1824,2,0,0,0,644.490662
11,612,1,0,0,0,1028.039185
-1771,-1187,2,0,0,0,669.250916
1749,-1313,1,0,0,0,661.974182
-1095,1820,2,0,0,0,670.323181
684,-1807,1,0,0,0,697.405029
-708,-1062,2,0,0,0,816.386230
250,-1051,1,0,0,0,864.358643
-1683,-1333,2,0,0,0,667.254395
1529,-1650,1,0,0,0,653.926270
-1527,-469,2,0,0,0,751.933594
823,1274,1,0,0,0,766.812622
-419,-609,2,0,0,0,973.645691
941,44,1,0,0,0,903.796875
-450,939,2,1,0,5,703.175598
1487,333,1,0,0,0,765.467651
-1812,-224,2,0,0,0,713.615051
630,1100,1,0,0,0,818.359497
-628,1046,2,0,0,5,919.684143
695,1744,1,0,0,0,705.634094
-658,-1151,2,0,0,0,805.459961
1330,-868,1,0,0,0,753.594482
-1363,-1696,2,0,0,0,663.438354
1792,-1045,1,0,0,0,677.073914
-1219,861,2,0,0,0,771.450623
1535,1915,1,1,0,5,196.795792
-1860,-1428,2,1,0,8,296.620270
63,-1935,1,0,0,0,696.827515
-916,-1907,2,0,0,0,671.459045
949,1226,1,0,0,0,760.509094
-1113,1231,2,0,0,0,740.981628
306,-1234,1,1,0,8,273.420166
-462,-1688,2,0,0,0,725.751709
1467,-369,1,0,0,0,767.573242
-1167,-1543,2,1,0,8,422.131317
594,668,1,0,0,0,918.900330
-1037,364,2,0,0,0,859.418213
916,1012,1,1,0,5,283.123352
-872,1391,2,0,0,0,744.080566
886,1081,1,0,0,0,790.284180
-1204,-897,2,0,0,0,769.724121
1994,-575,1,1,0,5,147.559982
-373,1450,2,0,0,0,770.528687
1011,-302,1,0,0,0,871.147461
-1325,1943,2,0,0,0,641.243164
1247,-1462,1,0,0,0,698.971985
-1772,1371,2,0,0,0,655.079651
913,-674,1,0,0,0,850.192993
-468,-1017,2,0,0,0,854.103577
1561,225,1,1,0,5,198.827408
-1991,-1767,2,1,0,8,255.783020
558,-661,1,0,0,0,928.356018
-1291,970,2,1,0,5,558.864990
210,-1347,1,1,0,8,285.511841
-1073,-873,2,1,0,8,528.383423
897,-84,1,1,0,5,244.721039
-1525,-46,2,0,0,0,765.116882
1665,-1181,1,0,0,0,681.675354
-1325,-1907,2,0,0,0,644.862488
596,107,1,0,0,0,1031.150513
-1121,802,2,0,0,0,794.289734
179,-42,1,0,0,0,1374.962891
-465,-1619,2,1,0,8,382.428192
1761,282,1,1,0,5,184.635651
-951,360,2,0,0,0,881.786804
1854,1368,1,0,0,0,647.088989
-783,738,2,0,0,0,865.518494
1032,-1720,1,0,0,0,686.689453
-1742,1919,2,0,0,0,613.572632
1295,1369,1,0,0,0,704.556519
-1250,510,2,1,0,5,494.492584
670,-1661,1,0,0,0,719.121704
-1661,1622,2,0,0,0,644.927612
177,-1497,1,1,0,8,283.560516
-679,-653,2,0,0,0,903.791260
498,1296,1,1,0,5,345.105316
-40,-291,2,0,0,0,1239.798584
