each times' max average throughput
0.000000,0.000000,0.000000,0.000000,0.000000,603.223755,599.214417,0.000000,587.410889,0.000000,0.000000,0.000000,0.000000,0.000000,0.000000,0.000000,0.000000,0.000000,589.571594,589.848450,0.000000,0.000000,0.000000,0.000000,599.524780,0.000000,0.000000,0.000000,599.992371,605.553223,602.484314,598.733521,602.399292,604.877747,597.834167,597.960815,589.166748,594.809082,0.000000,603.469910,592.170654,584.101746,0.000000,0.000000,594.291809,598.957764,0.000000,0.000000,0.000000,599.434998,597.048584,599.885071,601.961365,600.775696,0.000000,0.000000,595.868103,602.207764,602.088318,0.000000,594.643433,593.329102,600.325684,0.000000,0.000000,0.000000,0.000000,0.000000,0.000000,0.000000,0.000000,587.042114,0.000000,0.000000,0.000000,0.000000,0.000000,0.000000,0.000000,576.558411,0.000000,0.000000,0.000000,0.000000,0.000000,0.000000,0.000000,0.000000,0.000000,0.000000,0.000000,0.000000,0.000000,587.960510,603.382080,0.000000,598.381042,565.917114,0.000000,0.000000,
avg. throughput in all test times
226.424057
avg. BS TX power in all test times
MBS area 1,MBS area 2,MBS area 3,MBS area 4,CBSD 1,CBSD 2,CBSD 3,CBSD 4,CBSD 5,CBSD 6,CBSD 7,CBSD 8,CBSD 9,CBSD 10,CBSD 11,CBSD 12,CBSD 13,CBSD 14,CBSD 15,CBSD 16,CBSD 17,CBSD 18,CBSD 19,CBSD 20,CBSD 21,CBSD 22,CBSD 23,CBSD 24,CBSD 25,CBSD 26,CBSD 27,CBSD 28,
8.012,8.500,8.050,7.812,0.058,0.083,0.105,0.218,0.062,0.095,0.126,0.084,0.146,0.244,0.106,0.101,0.219,0.035,0.050,0.205,0.069,0.204,0.024,0.179,0.078,0.059,0.115,0.059,0.145,0.224,0.234,0.075,
avg. mbs all power,avg. cbsd enable number,avg. mbs area all power,avg. cbsd all power
68.300,4.000,32.375,3.399
avg. max avg. throughput generation number in all test times
23.790001
avg. number of relay UE
610

the max average throughput times

BS TX power
MBS area 1,MBS area 2,MBS area 3,MBS area 4,CBSD 1,CBSD 2,CBSD 3,CBSD 4,CBSD 5,CBSD 6,CBSD 7,CBSD 8,CBSD 9,CBSD 10,CBSD 11,CBSD 12,CBSD 13,CBSD 14,CBSD 15,CBSD 16,CBSD 17,CBSD 18,CBSD 19,CBSD 20,CBSD 21,CBSD 22,CBSD 23,CBSD 24,CBSD 25,CBSD 26,CBSD 27,CBSD 28,
7.500,6.250,6.250,6.250,0.750,0.000,1.000,0.000,0.000,0.000,0.000,0.000,0.000,0.000,0.000,0.000,0.000,0.000,0.000,0.000,0.000,1.000,0.000,0.625,0.000,0.000,0.750,0.000,0.000,0.000,0.000,0.750,
max average throughput
565.917114

x,y,area,be blocked (1 : NLOS / 0 : LOS),be blocked number (>=1 : CBSD(x) / 0 : no),connect bs number (>=1 : CBSD / 0 : MBS),throughput (unit : M bps)
992,1044,1,0,0,0,740.399353
-1702,1373,2,0,0,0,595.075500
-2000,-326,3,1,0,28,86.649590
785,-1672,4,0,0,0,643.111328
801,224,1,0,0,0,898.234436
-511,1069,2,0,0,0,770.235352
-659,-14,3,0,0,0,938.963440
1612,-642,4,0,0,0,660.958008
376,1323,1,0,0,0,753.597290
-1554,1736,2,1,0,1,60.370934
-1109,-1072,3,0,0,0,694.618469
483,-406,4,1,0,3,46.838615
145,1297,1,0,0,0,768.661011
-1224,95,2,0,0,0,760.041382
-1895,-561,3,0,0,0,623.846924
36,-900,4,0,0,0,849.054932
1723,1389,1,0,0,0,617.575378
-417,172,2,0,0,0,1048.293335
-1207,-864,3,0,0,0,705.601868
614,-1422,4,1,0,3,46.838615
158,268,1,0,0,0,1181.729492
-745,261,2,1,0,1,60.370934
-276,-1229,3,0,0,0,752.672424
269,-1760,4,0,0,0,653.599854
1690,625,1,1,0,18,56.394848
-358,1433,2,0,0,0,707.018616
-1130,-1392,3,0,0,0,651.605835
1525,-750,4,0,0,0,666.894775
611,926,1,1,0,18,56.394848
-618,1118,2,0,0,0,748.639404
-938,-412,3,0,0,0,812.020447
98,-743,4,0,0,0,901.986450
1656,1454,1,1,0,18,56.394848
-283,549,2,0,0,0,957.700562
-93,-603,3,0,0,0,961.230286
1101,-78,4,0,0,0,790.600891
1934,555,1,0,0,0,644.715149
-163,1252,2,0,0,0,751.999634
-422,-348,3,0,0,0,992.719116
539,-1672,4,1,0,3,46.838615
927,1658,1,1,0,18,56.394848
-1686,503,2,1,0,1,60.370934
-1257,-1490,3,0,0,0,627.749451
80,-1659,4,0,0,0,673.446594
668,1156,1,0,0,0,762.126404
-1599,664,2,0,0,0,661.576355
-1672,-735,3,1,0,28,86.649590
1561,-567,4,0,0,0,673.470947
629,1557,1,1,0,18,56.394848
-1488,562,2,0,0,0,685.819092
-666,-1391,3,0,0,0,694.656128
766,-442,4,0,0,0,854.324280
1930,733,1,0,0,0,637.377563
-221,752,2,0,0,0,889.075500
-896,-753,3,0,0,0,773.761658
912,-1387,4,0,0,0,673.610779
220,786,1,1,0,18,56.394848
-1004,1828,2,1,0,1,60.370934
-802,-566,3,1,0,28,86.649590
1165,-1745,4,1,0,3,46.838615
552,69,1,0,0,0,1014.129761
-517,864,2,0,0,0,817.009766
-1057,-1232,3,0,0,0,679.999451
1524,-1946,4,0,0,0,560.375427
1450,221,1,0,0,0,735.149353
-187,560,2,0,0,0,970.704407
-435,-258,3,1,0,0,95.433525
325,-850,4,0,0,0,846.101257
1903,1157,1,1,0,18,56.394848
-1502,1155,2,0,0,0,635.852844
-735,-1407,3,0,0,0,686.391968
1470,-1834,4,1,0,3,46.838615
221,520,1,0,0,0,1009.646851
-1626,1727,2,0,0,0,572.024597
-1734,-519,3,0,0,0,648.899841
1290,-11,4,1,0,3,46.838615
667,1478,1,1,0,18,56.394848
-493,1084,2,1,0,1,60.370934
-1218,-685,3,0,0,0,722.897400
635,-767,4,1,0,3,46.838615
1808,1240,1,1,0,18,56.394848
-1935,1134,2,1,0,1,60.370934
-457,-1943,3,0,0,0,621.019836
1919,-120,4,0,0,0,631.670654
633,1376,1,0,0,0,725.940552
-265,1066,2,1,0,18,56.394848
-1402,-1623,3,0,0,0,600.591003
1773,-1532,4,0,0,0,575.484924
1021,196,1,0,0,0,834.015198
-1258,577,2,0,0,0,725.658325
-257,-871,3,0,0,0,846.699158
699,-816,4,0,0,0,798.333130
1871,116,1,1,0,3,46.838615
-342,76,2,0,0,0,1121.176514
-197,-1200,3,1,0,20,119.693481
1448,-1113,4,0,0,0,646.338501
187,931,1,1,0,18,56.394848
-781,1130,2,1,0,1,60.370934
-1065,-1368,3,0,0,0,661.198059
252,-213,4,1,0,0,212.986267
1475,414,1,0,0,0,722.670044
-187,763,2,0,0,0,888.422485
-467,-101,3,0,0,0,1031.702515
632,-1294,4,0,0,0,714.275879
985,942,1,0,0,0,756.208923
-5,1884,2,0,0,0,637.471497
-1490,-1128,3,1,0,28,86.649590
1234,-1544,4,0,0,0,623.812378
1568,176,1,0,0,0,714.220520
-400,496,2,0,0,0,948.723633
-1702,-356,3,0,0,0,660.350708
1083,-570,4,1,0,3,46.838615
98,782,1,0,0,0,913.746948
-1961,660,2,1,0,1,60.370934
-1383,-1025,3,1,0,28,86.649590
1159,-1101,4,0,0,0,684.385254
790,488,1,0,0,0,866.525513
-1133,784,2,0,0,0,726.947266
-1812,-1212,3,0,0,0,595.958252
673,-1841,4,1,0,3,46.838615
777,515,1,0,0,0,865.410095
-1173,1936,2,0,0,0,585.273865
-970,-1354,3,1,0,28,86.649590
879,-1633,4,0,0,0,641.965820
1139,1217,1,0,0,0,698.504333
-343,1107,2,0,0,0,776.591125
-1838,-1033,3,0,0,0,605.441284
627,-122,4,0,0,0,948.016724
365,1988,1,0,0,0,643.417908
-854,35,2,1,0,1,60.370934
-1042,-1596,3,0,0,0,634.158081
1683,-1487,4,0,0,0,587.515198
1161,1374,1,0,0,0,676.705505
-497,710,2,0,0,0,860.145691
-1762,-1434,3,0,0,0,584.254272
1761,-79,4,1,0,3,46.838615
507,553,1,0,0,0,927.934998
-132,1907,2,0,0,0,633.333008
-82,-180,3,0,0,0,1286.082764
1204,-398,4,0,0,0,750.749695
130,465,1,1,0,0,119.738503
-1202,334,2,0,0,0,755.435242
-1711,-1886,3,0,0,0,551.963196
919,-498,4,0,0,0,806.252014
1033,90,1,0,0,0,834.771179
-1865,660,2,0,0,0,623.552795
-1155,-1080,3,0,0,0,687.500366
533,-1510,4,0,0,0,683.898865
934,1174,1,0,0,0,728.680725
-1450,174,2,0,0,0,710.263489
-327,-1347,3,0,0,0,725.221497
1212,-91,4,0,0,0,762.924744
18,47,1,0,0,0,1707.281372
-939,1920,2,0,0,0,601.570312
-1211,-1847,3,0,0,0,592.254883
1546,-974,4,0,0,0,646.196411
425,463,1,0,0,0,978.959351
-1865,1070,2,1,0,1,60.370934
-598,-1058,3,0,0,0,762.949951
912,-1960,4,0,0,0,598.336548
546,1447,1,0,0,0,719.954346
-867,1305,2,0,0,0,690.139771
-1042,-52,3,1,0,1,60.370934
607,-1499,4,0,0,0,681.068237
329,555,1,0,0,0,971.400818
-315,1783,2,0,0,0,648.804077
-862,-626,3,0,0,0,800.785645
1312,-462,4,1,0,3,46.838615
1108,911,1,0,0,0,741.539185
-420,78,2,0,0,0,1063.989502
-1321,-694,3,0,0,0,704.093689
1828,-1063,4,0,0,0,604.605774
628,234,1,0,0,0,960.448364
-253,1882,2,1,0,18,56.394848
-319,-307,3,0,0,0,1053.680542
225,-963,4,0,0,0,822.177551
208,589,1,1,0,18,56.394848
-1336,1320,2,0,0,0,638.365173
-292,-1542,3,1,0,20,91.742310
1639,-1134,4,1,0,3,46.838615
1712,166,1,0,0,0,689.517517
-1330,865,2,0,0,0,686.548279
-1809,-1764,3,0,0,0,554.164062
720,-720,4,0,0,0,813.782654
824,1788,1,0,0,0,650.925537
-1179,1004,2,0,0,0,693.480713
-675,-933,3,0,0,0,778.418640
541,-991,4,0,0,0,784.091003
553,834,1,0,0,0,845.003174
-1500,1374,2,1,0,1,60.370934
-1425,-1025,3,1,0,28,86.649590
1895,-1055,4,0,0,0,597.406677
1544,1572,1,1,0,18,56.394848
-1753,1657,2,0,0,0,567.270752
-1151,-1167,3,0,0,0,677.226074
700,-1198,4,1,0,23,254.014542
1590,422,1,0,0,0,702.274353
-807,1071,2,0,0,0,734.709595
-1356,-679,3,1,0,28,86.649590
85,-1055,4,1,0,3,46.838615
246,1042,1,1,0,18,56.394848
-137,1156,2,0,0,0,775.313110
-40,-1658,3,0,0,0,673.867920
899,-630,4,0,0,0,792.164246
71,1812,1,1,0,18,56.394848
-1034,168,2,0,0,0,805.620056
-1673,-443,3,1,0,28,86.649590
599,-587,4,0,0,0,869.596069
65,759,1,0,0,0,923.537842
-1648,1168,2,1,0,1,60.370934
-926,-1714,3,1,0,28,86.649590
784,-73,4,0,0,0,887.759888
17,558,1,0,0,0,1013.114380
-1716,1261,2,0,0,0,602.611145
-185,-1693,3,0,0,0,666.285278
648,-159,4,0,0,0,935.455994
1556,1337,1,1,0,18,56.394848
-1109,518,2,0,0,0,760.900696
-139,-1054,3,1,0,20,104.922478
521,-1473,4,0,0,0,690.931213
164,1331,1,1,0,18,56.394848
-1185,387,2,0,0,0,755.653564
-1491,-443,3,0,0,0,692.217102
1546,-1184,4,0,0,0,628.056152
1135,1266,1,0,0,0,692.820129
-486,660,2,0,0,0,876.206482
-535,-566,3,0,0,0,890.906311
1118,-1095,4,1,0,3,46.838615
302,255,1,0,0,0,1112.677612
-502,1674,2,0,0,0,658.906494
-735,-219,3,0,0,0,895.340088
663,-1587,4,0,0,0,663.473450
1031,887,1,0,0,0,756.817505
-861,84,2,0,0,0,860.669983
-772,-1911,3,0,0,0,611.898865
203,-587,4,1,0,3,46.838615
683,1683,1,1,0,18,56.394848
-731,789,2,0,0,0,798.031433
-1363,-1749,3,0,0,0,591.129272
633,-984,4,0,0,0,773.854004
1231,1243,1,0,0,0,684.672913
-1237,167,2,0,0,0,755.278687
-1754,-995,3,0,0,0,618.105225
352,-642,4,1,0,3,46.838615
848,1840,1,1,0,18,56.394848
-1606,447,2,1,0,1,60.370934
-1148,-338,3,0,0,0,767.373474
1081,-1405,4,0,0,0,654.837646
363,441,1,1,0,18,56.394848
-883,835,2,1,0,1,60.370934
-1741,-358,3,0,0,0,654.083191
1240,-453,4,0,0,0,739.203369
1003,1459,1,1,0,18,56.394848
-1764,173,2,0,0,0,654.881287
-581,-53,3,0,0,0,974.134216
907,-1561,4,0,0,0,649.630920
748,287,1,0,0,0,909.015625
-145,460,2,1,0,0,105.739738
-608,-837,3,0,0,0,809.220459
61,-454,4,0,0,0,1043.853149
871,1071,1,0,0,0,752.541077
-288,1005,2,1,0,1,60.370934
-1511,-1457,3,0,0,0,606.705261
603,-1018,4,0,0,0,770.639954
863,1457,1,0,0,0,693.981445
-1653,1470,2,0,0,0,591.808228
-1787,-1321,3,0,0,0,590.506226
1138,-1501,4,1,0,3,46.838615
1397,13,1,1,0,3,46.838615
-896,1761,2,0,0,0,623.912964
-1157,-1532,3,0,0,0,632.106384
1463,-1905,4,0,0,0,568.473450
1134,1389,1,0,0,0,677.614563
-485,1574,2,1,0,1,60.370934
-1603,-1278,3,0,0,0,613.413757
885,-417,4,0,0,0,825.280762
895,133,1,0,0,0,873.981567
-211,855,2,1,0,18,56.394848
-129,-309,3,1,0,0,208.101654
1362,-1412,4,1,0,3,46.838615
860,1332,1,0,0,0,712.833435
-658,906,2,0,0,0,786.472900
-734,-1846,3,1,0,28,86.649590
997,-1545,4,0,0,0,644.403503
1613,439,1,0,0,0,697.678101
-1196,1213,2,1,0,1,60.370934
-1877,-492,3,0,0,0,629.065735
433,-348,4,1,0,3,46.838615
739,639,1,1,0,18,56.394848
-1400,510,2,0,0,0,704.517273
-1963,-1331,3,0,0,0,572.061890
216,-1439,4,0,0,0,711.301331
768,1261,1,0,0,0,733.255249
-1658,1439,2,0,0,0,593.959534
-1995,-1683,3,0,0,0,545.002930
784,-783,4,0,0,0,789.489685
526,1387,1,0,0,0,731.913269
-521,1554,2,0,0,0,677.243896
-362,-1511,3,0,0,0,692.522705
750,-1207,4,1,0,23,216.890717
1314,965,1,1,0,18,56.394848
-524,1334,2,0,0,0,715.645142
-852,-1347,3,0,0,0,685.236694
1139,-483,4,0,0,0,757.829468
434,201,1,1,0,0,122.061005
-542,25,2,0,0,0,995.049683
-1456,-1811,3,0,0,0,577.848877
1788,-1075,4,0,0,0,608.438538
1926,343,1,0,0,0,652.733398
-1827,1162,2,0,0,0,597.886597
-440,-242,3,0,0,0,1017.364685
1460,-770,4,0,0,0,675.228516
1222,1208,1,1,0,18,56.394848
-861,1074,2,0,0,0,727.215393
-1414,-1107,3,0,0,0,651.150391
464,-1216,4,1,0,3,46.838615
1253,1812,1,1,0,18,56.394848
-1332,275,2,0,0,0,730.656799
-781,-110,3,0,0,0,887.278625
1813,-1731,4,0,0,0,556.412354
1974,877,1,0,0,0,624.488892
-34,1948,2,0,0,0,627.910339
-1330,-1418,3,0,0,0,628.520813
1793,-367,4,1,0,3,46.838615
329,1546,1,1,0,18,56.394848
-1390,785,2,0,0,0,684.786194
-603,-1058,3,1,0,20,158.831284
1448,-1542,4,1,0,3,46.838615
239,1765,1,0,0,0,679.536316
-1226,170,2,1,0,1,60.370934
-1204,-58,3,0,0,0,765.300476
728,-1787,4,0,0,0,630.657410
1570,1888,1,0,0,0,588.053833
-1696,205,2,0,0,0,665.403198
-1638,-678,3,1,0,28,86.649590
422,-1524,4,0,0,0,687.486816
1824,1425,1,0,0,0,604.824707
-1377,823,2,0,0,0,683.382812
-1161,-1276,3,0,0,0,662.609131
1124,-1899,4,0,0,0,592.497620
700,56,1,0,0,0,946.984375
-1640,595,2,1,0,1,60.370934
-660,-188,3,0,0,0,927.353760
1293,-1067,4,0,0,0,670.795593
978,556,1,0,0,0,811.323975
-1643,919,2,0,0,0,637.691589
-181,-874,3,1,0,20,111.932304
248,-543,4,1,0,3,46.838615
453,299,1,0,0,0,1021.220581
-755,316,2,0,0,0,876.617371
-1547,-945,3,0,0,0,648.460022
1708,-1311,4,0,0,0,599.476074
712,1446,1,0,0,0,708.123474
-10,1995,2,1,0,18,56.394848
-1023,-1642,3,0,0,0,629.919434
669,-1060,4,0,0,0,754.076965
1889,950,1,0,0,0,630.568054
-1828,1302,2,0,0,0,587.708496
-829,-1353,3,0,0,0,686.507080
1234,-1612,4,0,0,0,616.202271
1529,1226,1,0,0,0,652.219971
-1823,1580,2,0,0,0,567.244873
-1289,-1008,3,0,0,0,677.711487
366,-1692,4,0,0,0,661.618225
349,1191,1,0,0,0,783.102112
-1608,1548,2,1,0,1,60.370934
-451,-1110,3,1,0,20,240.572601
106,-1170,4,0,0,0,772.684814
1221,1224,1,0,0,0,688.049438
-1579,908,2,1,0,1,60.370934
-1077,-1725,3,0,0,0,615.710999
1230,-232,4,0,0,0,754.482849
958,1631,1,1,0,18,56.394848
-199,511,2,0,0,0,991.982117
-1540,-1053,3,0,0,0,640.272888
1402,-124,4,0,0,0,720.840698
1360,1512,1,0,0,0,641.670471
-904,665,2,1,0,1,60.370934
-1252,-1149,3,0,0,0,666.915588
1333,-166,4,0,0,0,734.219666
886,778,1,0,0,0,797.822693
-1205,1433,2,0,0,0,639.248352
-1791,-1501,3,1,0,28,86.649590
156,-993,4,0,0,0,817.492676
799,304,1,1,0,18,56.394848
-521,1279,2,1,0,1,60.370934
-376,-1051,3,0,0,0,787.372009
845,-969,4,0,0,0,746.793091
221,192,1,0,0,0,1199.269775
-1537,1145,2,0,0,0,632.581665
-1589,-414,3,0,0,0,676.714783
600,-512,4,0,0,0,887.259399
891,1833,1,0,0,0,641.050842
-349,791,2,0,0,0,860.842407
-389,-92,3,0,0,0,1083.142090
1341,-224,4,0,0,0,730.764587
915,659,1,1,0,18,56.394848
-140,1269,2,1,0,18,56.394848
-1250,-174,3,1,0,1,60.370934
524,-1086,4,1,0,23,159.317596
740,83,1,0,0,0,930.092407
-63,1694,2,0,0,0,667.614807
-263,-422,3,0,0,0,1020.199768
1111,-718,4,1,0,3,46.838615
1052,1560,1,0,0,0,663.854797
-1990,893,2,0,0,0,595.801147
-489,-781,3,0,0,0,842.506104
1024,-376,4,0,0,0,793.981812
1283,1820,1,1,0,18,56.394848
-861,1076,2,0,0,0,726.890320
-1296,-564,3,0,0,0,719.635437
853,-481,4,1,0,3,46.838615
1363,92,1,0,0,0,755.542847
-1324,1349,2,1,0,1,60.370934
-617,-1961,3,0,0,0,612.627075
422,-517,4,0,0,0,935.395264
347,1251,1,0,0,0,770.171265
-1881,681,2,0,0,0,620.384521
-1299,-925,3,1,0,28,86.649590
1597,-268,4,1,0,3,46.838615
551,895,1,0,0,0,830.886353
-1371,1823,2,0,0,0,583.106323
-1693,-1071,3,0,0,0,619.980774
1420,-594,4,0,0,0,695.210999
1601,1600,1,0,0,0,611.183472
-1227,881,2,1,0,1,60.370934
-880,-753,3,0,0,0,776.771729
1443,-1114,4,0,0,0,646.862183
838,268,1,1,0,18,56.394848
-1525,1772,2,1,0,1,60.370934
-545,-1024,3,0,0,0,776.323669
696,-1720,4,0,0,0,641.821289
160,801,1,0,0,0,903.442688
-650,1190,2,0,0,0,731.531250
-1950,-47,3,0,0,0,627.578857
598,-1631,4,1,0,3,46.838615
312,1374,1,0,0,0,746.674622
-639,901,2,0,0,0,790.384338
-1310,-1504,3,0,0,0,621.233582
692,-844,4,0,0,0,793.831116
1234,1638,1,1,0,18,56.394848
-1316,1495,2,0,0,0,621.636108
-1660,-446,3,0,0,0,663.648560
1028,-1163,4,1,0,3,46.838615
1085,207,1,0,0,0,816.593079
-1221,1521,2,0,0,0,627.594604
-396,-1175,3,0,0,0,757.190369
1494,-1644,4,0,0,0,590.610901
113,1133,1,1,0,18,56.394848
-89,1094,2,0,0,0,792.205139
-550,-604,3,0,0,0,877.169617
1475,-1209,4,0,0,0,633.988342
378,1174,1,0,0,0,784.896729
-1370,417,2,1,0,1,60.370934
-1947,-269,3,0,0,0,625.407593
1460,-1793,4,0,0,0,579.251892
226,18,1,0,0,0,1273.016602
-239,68,2,1,0,0,315.483948
-533,-91,3,0,0,0,996.041382
1236,-1297,4,1,0,3,46.838615
518,1511,1,0,0,0,710.705750
-969,1874,2,0,0,0,605.265564
-635,-1235,3,0,0,0,724.691956
637,-1108,4,0,0,0,748.500000
1774,193,1,0,0,0,678.997864
-1248,454,2,0,0,0,737.501160
-1803,-1987,3,0,0,0,537.229919
1359,-738,4,0,0,0,693.871094
1083,67,1,0,0,0,821.714783
-1813,355,2,0,0,0,643.061707
-1476,-1092,3,0,0,0,644.825623
1826,-399,4,1,0,3,46.838615
1406,1495,1,0,0,0,639.070801
-167,1661,2,1,0,18,56.394848
-1666,-1286,3,0,0,0,605.953308
1899,-1744,4,0,0,0,548.455566
850,490,1,0,0,0,850.683044
-1347,298,2,0,0,0,726.580139
-1037,-999,3,0,0,0,714.309814
392,-230,4,0,0,0,1046.119507
749,1300,1,1,0,18,56.394848
-1762,1554,2,1,0,1,60.370934
-1207,-608,3,0,0,0,732.476685
714,-210,4,1,0,3,46.838615
1183,1802,1,0,0,0,625.073181
-1381,346,2,0,0,0,717.558899
-1705,-1373,3,0,0,0,594.772339
1625,-1379,4,0,0,0,602.376587
782,1493,1,0,0,0,695.337402
-666,1610,2,0,0,0,659.779541
-960,-1691,3,1,0,28,86.649590
1462,-132,4,1,0,3,46.838615
1051,44,1,1,0,3,46.838615
-1531,277,2,0,0,0,692.136658
-1143,-1358,3,0,0,0,654.473633
620,-1076,4,0,0,0,756.749207
1822,1773,1,1,0,18,56.394848
-977,1314,2,0,0,0,677.522644
-881,-1892,3,0,0,0,608.332153
297,-476,4,1,0,3,46.838615
1838,1272,1,0,0,0,614.752441
-683,881,2,0,0,0,787.756104
-856,-1708,3,0,0,0,633.492004
45,-7,4,0,0,0,1709.821167
922,1607,1,0,0,0,668.270813
-168,643,2,0,0,0,936.597046
-1857,-1592,3,0,0,0,563.334473
504,-515,4,0,0,0,913.292847
803,774,1,0,0,0,813.814514
-744,1513,2,0,0,0,669.159302
-1874,-552,3,0,0,0,627.135071
1339,-709,4,0,0,0,699.729614
1837,1555,1,0,0,0,593.739136
-925,589,2,1,0,1,60.370934
-664,-547,3,0,0,0,862.269470
349,-1016,4,0,0,0,798.382874
758,588,1,1,0,18,56.394848
-208,367,2,0,0,0,1067.614502
-1855,-1137,3,1,0,28,86.649590
1498,-1438,4,0,0,0,609.774597
1625,366,1,1,0,18,56.394848
-770,287,2,0,0,0,875.464294
-344,-1494,3,0,0,0,696.354858
472,-867,4,0,0,0,822.696106
382,1660,1,0,0,0,692.299316
-1048,1768,2,1,0,1,60.370934
-1268,-441,3,0,0,0,734.389648
1826,-435,4,0,0,0,638.518677
1468,1064,1,1,0,18,56.394848
-1820,5,2,0,0,0,647.327515
-470,-6,3,1,0,0,111.643120
1227,-37,4,1,0,3,46.838615
1222,1472,1,0,0,0,659.104126
-71,1994,2,0,0,0,621.127808
-1604,-1137,3,1,0,28,86.649590
938,-329,4,0,0,0,820.701660
1741,1283,1,1,0,18,56.394848
-751,1603,2,0,0,0,655.245850
-407,-813,3,0,0,0,846.363342
1153,-1751,4,1,0,3,46.838615
1266,591,1,0,0,0,749.093018
-1085,203,2,0,0,0,790.583252
-917,-336,3,1,0,28,86.649590
1403,-1240,4,1,0,3,46.838615
1884,854,1,0,0,0,636.824219
-846,42,2,0,0,0,866.737366
-558,-733,3,1,0,20,93.785385
660,-323,4,0,0,0,907.666504
565,118,1,0,0,0,1003.500549
-1446,562,2,0,0,0,692.962402
-1536,-653,3,0,0,0,672.053528
1725,-83,4,0,0,0,662.301575
983,74,1,0,0,0,849.319763
-1149,250,2,1,0,1,60.370934
-673,-260,3,1,0,1,60.370934
434,-1042,4,0,0,0,784.163391
1153,1265,1,1,0,18,56.394848
-674,247,2,0,0,0,914.394348
-1111,-1764,3,0,0,0,608.652588
1084,-1814,4,0,0,0,604.793274
21,494,1,0,0,0,1048.110474
-340,456,2,1,0,1,60.370934
-741,-161,3,0,0,0,898.604248
1421,-1131,4,0,0,0,647.932739
1657,161,1,1,0,3,46.838615
-1461,356,2,0,0,0,701.887512
-1858,-1208,3,0,0,0,591.283752
1583,-589,4,0,0,0,668.652344
1588,207,1,0,0,0,709.969604
-46,1520,2,0,0,0,698.678833
-98,-1077,3,0,0,0,796.468628
973,-1765,4,1,0,3,46.838615
699,785,1,0,0,0,830.860596
-1443,1032,2,0,0,0,654.625061
-1343,-1945,3,0,0,0,573.027649
331,-366,4,1,0,3,46.838615
1603,873,1,1,0,18,56.394848
-85,1206,2,1,0,18,56.394848
-455,-576,3,0,0,0,907.967773
385,-572,4,0,0,0,925.994751
1463,1170,1,1,0,18,56.394848
-409,942,2,0,0,0,811.329529
-1072,-770,3,0,0,0,739.262878
472,-1673,4,0,0,0,660.437012
297,556,1,1,0,18,56.394848
-1250,1309,2,0,0,0,648.905579
-661,-591,3,0,0,0,853.575317
1108,-1098,4,0,0,0,691.395203
1724,578,1,0,0,0,673.626099
-648,740,2,1,0,1,60.370934
-474,-1790,3,1,0,28,86.649590
1464,-1324,4,0,0,0,624.192810
252,469,1,1,0,18,56.394848
-1060,777,2,0,0,0,740.482727
-1208,-1264,3,1,0,28,86.649590
682,-1434,4,0,0,0,686.301025
600,127,1,0,0,0,986.011963
-1422,1678,2,0,0,0,593.427979
-1743,-712,3,0,0,0,637.652039
1764,-1379,4,0,0,0,588.370728
919,75,1,0,0,0,868.552612
-1618,110,2,0,0,0,680.273743
-1302,-1137,3,0,0,0,662.040405
619,-1243,4,0,0,0,724.709839
1485,1001,1,0,0,0,677.973206
-795,1980,2,0,0,0,602.059143
-1990,-920,3,0,0,0,594.347961
1307,-1441,4,1,0,3,46.838615
437,243,1,0,0,0,1044.879761
-475,1335,2,0,0,0,718.910278
-151,-1772,3,1,0,3,46.838615
911,-532,4,1,0,3,46.838615
743,1568,1,0,0,0,687.016602
-1789,701,2,0,0,0,631.864868
-1217,-1438,3,0,0,0,637.493530
9,-232,4,0,0,0,1239.853760
1400,1085,1,0,0,0,681.128235
-1117,918,2,0,0,0,713.137207
-1747,-384,3,0,0,0,652.277893
1180,-783,4,0,0,0,719.078674
1021,1272,1,1,0,18,56.394848
-1576,1066,2,0,0,0,634.662720
-1583,-1449,3,0,0,0,600.413330
1401,-606,4,0,0,0,697.598633
1651,768,1,0,0,0,673.221924
-1975,750,2,0,0,0,604.873901
-1321,-467,3,0,0,0,722.137634
370,-1590,4,0,0,0,678.385071
1072,907,1,0,0,0,747.645386
-531,1889,2,0,0,0,625.883301
-412,-1253,3,0,0,0,739.455078
355,-862,4,0,0,0,839.159119
614,1625,1,0,0,0,686.686951
-1151,1658,2,0,0,0,617.852783
-1113,-1567,3,0,0,0,631.774780
1091,-398,4,0,0,0,775.994995
680,1497,1,0,0,0,702.421204
-162,977,2,0,0,0,821.769592
-1460,-65,3,0,0,0,710.058899
1626,-1001,4,0,0,0,633.652893
1770,407,1,1,0,18,56.394848
-1588,1834,2,0,0,0,565.660278
-138,-444,3,0,0,0,1039.559814
1175,-1021,4,0,0,0,691.996155
1510,1416,1,0,0,0,636.611450
-635,560,2,1,0,1,60.370934
-1635,-1732,3,1,0,28,86.649590
164,-896,4,0,0,0,845.825745
1032,923,1,0,0,0,751.695190
-615,550,2,0,0,0,874.305969
-275,-734,3,0,0,0,889.066895
321,-874,4,0,0,0,839.515930
109,1332,1,0,0,0,761.840942
-1653,660,2,1,0,1,60.370934
-438,-713,3,0,0,0,870.243286
1286,-799,4,0,0,0,699.942139
883,1381,1,0,0,0,703.300964
-210,1268,2,0,0,0,746.885315
-1612,-812,3,0,0,0,649.695862
977,-1092,4,0,0,0,709.311951
454,1638,1,0,0,0,692.910583
-397,548,2,0,0,0,931.395569
-605,-9,3,1,0,1,60.370934
94,-1249,4,0,0,0,754.289490
359,1785,1,0,0,0,673.244507
-1103,1756,2,0,0,0,610.160950
-280,-638,3,0,0,0,922.986023
870,-894,4,1,0,3,46.838615
683,1549,1,0,0,0,694.067383
-1814,143,2,0,0,0,647.386902
-1799,-170,3,0,0,0,649.371521
1156,-197,4,0,0,0,773.204956
290,446,1,1,0,18,56.394848
-70,505,2,0,0,0,1012.995361
-185,-1009,3,0,0,0,811.648499
1358,-1516,4,1,0,3,46.838615
796,1800,1,0,0,0,651.010254
-984,241,2,0,0,0,815.240601
-455,-1038,3,1,0,20,201.462845
667,-1660,4,0,0,0,652.232056
708,749,1,0,0,0,836.510559
-1655,1409,2,0,0,0,596.796631
-1488,-1275,3,1,0,28,86.649590
944,-1606,4,1,0,3,46.838615
1703,36,1,1,0,3,46.838615
-99,747,2,1,0,18,56.394848
-1500,-1769,3,0,0,0,578.382385
1438,-321,4,0,0,0,707.727234
1130,770,1,1,0,18,56.394848
-761,1656,2,1,0,1,60.370934
-423,-1882,3,1,0,28,86.649590
1846,-1050,4,0,0,0,603.382568
1771,247,1,1,0,3,46.838615
-379,1807,2,1,0,18,56.394848
-1569,-304,3,0,0,0,684.458069
1770,-1574,4,1,0,3,46.838615
313,1198,1,0,0,0,783.766724
-574,152,2,0,0,0,969.055725
-632,-1038,3,1,0,20,131.709229
616,-476,4,0,0,0,891.036865
731,1607,1,0,0,0,682.061707
-250,1159,2,1,0,18,56.394848
-421,-778,3,1,0,20,118.476349
390,-1252,4,0,0,0,741.125732
439,1451,1,0,0,0,725.687744
-18,116,2,0,0,0,1436.618164
-545,-1533,3,0,0,0,679.347717
631,-987,4,0,0,0,773.499329
295,1757,1,0,0,0,679.458435
-896,1956,2,0,0,0,599.697815
-446,-1263,3,0,0,0,735.045105
1961,-1212,4,0,0,0,580.102112
1488,5,1,1,0,3,46.838615
-1053,1322,2,1,0,1,60.370934
-659,-270,3,0,0,0,916.677185
1745,-1094,4,0,0,0,612.101440
1656,236,1,0,0,0,697.497070
-269,1282,2,1,0,18,56.394848
-835,-1095,3,0,0,0,727.105347
1883,-34,4,0,0,0,637.577393
1387,1003,1,0,0,0,690.912903
-662,904,2,0,0,0,786.282837
-789,-1578,3,1,0,28,86.649590
1591,-1874,4,0,0,0,561.918579
1876,693,1,0,0,0,646.443481
-286,1455,2,0,0,0,705.896179
-345,-251,3,0,0,0,1064.351685
271,-363,4,0,0,0,1047.067749
41,1112,1,0,0,0,814.470093
-1088,1400,2,0,0,0,654.785278
-321,-1265,3,0,0,0,742.494873
891,-1359,4,0,0,0,679.691284
920,1772,1,0,0,0,646.916077
-410,1245,2,0,0,0,741.249207
-723,-506,3,0,0,0,854.942749
1345,-1190,4,1,0,3,46.838615
1700,499,1,1,0,18,56.394848
-937,1926,2,0,0,0,600.970703
-1350,-642,3,0,0,0,703.581116
1400,-1272,4,0,0,0,636.331787
1436,681,1,0,0,0,712.149048
-186,434,2,0,0,0,1035.113281
-611,-1123,3,0,0,0,748.410767
1232,-1184,4,1,0,3,46.838615
945,40,1,0,0,0,861.220581
-832,45,2,0,0,0,871.474609
-539,-1217,3,1,0,20,152.549316
728,-937,4,0,0,0,769.819702
1349,402,1,0,0,0,746.950867
-1125,1701,2,0,0,0,614.906128
-1022,-1145,3,0,0,0,696.042603
1009,-1112,4,1,0,3,46.838615
875,465,1,0,0,0,847.834167
-1004,929,2,1,0,1,60.370934
-164,-606,3,0,0,0,953.003418
1394,-1434,4,0,0,0,620.467529
1363,1730,1,0,0,0,618.958618
-631,1802,2,0,0,0,633.672974
-1597,-926,3,0,0,0,643.275391
682,-1171,4,0,0,0,731.705505
1478,1405,1,0,0,0,640.888000
-132,1040,2,0,0,0,805.404907
-274,-639,3,0,0,0,923.594788
440,-1837,4,0,0,0,636.723083
238,1121,1,0,0,0,806.010132
-341,1327,2,0,0,0,728.552002
-1446,-766,3,0,0,0,677.706726
1698,-619,4,0,0,0,649.325134
1748,1783,1,0,0,0,583.309998
-1437,1714,2,0,0,0,588.669678
-1293,-1795,3,0,0,0,591.791748
179,-975,4,0,0,0,821.492249
787,349,1,0,0,0,888.305176
-564,1224,2,1,0,1,60.370934
-3,-325,3,0,0,0,1142.820923
71,-1802,4,1,0,3,46.838615
307,255,1,1,0,0,171.810669
-1106,1536,2,0,0,0,636.150513
-574,-440,3,1,0,28,86.649590
733,-406,4,1,0,3,46.838615
1180,85,1,0,0,0,796.859863
-919,1268,2,1,0,1,60.370934
-192,-277,3,0,0,0,1132.344971
495,-382,4,0,0,0,954.171753
1707,717,1,0,0,0,668.462036
-1626,1482,2,0,0,0,593.356689
-502,-1645,3,0,0,0,663.478760
387,-74,4,0,0,0,1087.298340
1399,1625,1,0,0,0,626.578674
-230,575,2,0,0,0,956.933899
-1944,-1042,3,0,0,0,592.634277
1546,-290,4,1,0,3,46.838615
553,1209,1,0,0,0,763.344849
-1576,989,2,0,0,0,641.033264
-719,-1025,3,0,0,0,754.403931
7,-1530,4,1,0,3,46.838615
1702,757,1,1,0,18,56.394848
-1745,138,2,0,0,0,658.449463
-1425,-917,3,1,0,28,86.649590
127,-1347,4,0,0,0,732.161133
1993,1002,1,1,0,18,56.394848
-1798,1290,2,1,0,1,60.370934
-831,-959,3,0,0,0,750.551636
1873,-1302,4,0,0,0,583.096375
1103,78,1,0,0,0,816.284912
-668,842,2,0,0,0,798.242004
-1059,-995,3,1,0,28,86.649590
828,-853,4,1,0,3,46.838615
1794,586,1,0,0,0,662.988770
-1581,1427,2,0,0,0,602.576233
-996,-1915,3,0,0,0,598.765564
868,-422,4,1,0,3,46.838615
298,1692,1,0,0,0,689.848267
-405,555,2,0,0,0,927.015930
-942,-877,3,1,0,28,86.649590
1980,-167,4,1,0,3,46.838615
698,1087,1,0,0,0,771.595886
-308,19,2,0,0,0,1157.781982
-459,-351,3,1,0,3,46.838615
824,-97,4,0,0,0,872.695374
1817,484,1,0,0,0,664.039001
-169,1720,2,1,0,18,56.394848
-1671,-921,3,0,0,0,633.863953
1935,-1347,4,0,0,0,573.739868
1840,1253,1,0,0,0,615.913391
-1981,1055,2,1,0,1,60.370934
-664,-1090,3,0,0,0,748.890442
835,-1344,4,0,0,0,687.320923
1584,508,1,0,0,0,699.087158
-1535,1795,2,1,0,1,60.370934
-1925,-1863,3,1,0,28,86.649590
815,-1805,4,0,0,0,623.246704
103,1808,1,0,0,0,674.789062
-1806,1361,2,0,0,0,585.552795
-624,-358,3,0,0,0,913.765381
375,-471,4,1,0,3,46.838615
1723,1384,1,1,0,18,56.394848
-802,1042,2,1,0,1,60.370934
-1335,-1904,3,0,0,0,577.644836
1563,-49,4,0,0,0,690.685181
1638,1746,1,0,0,0,595.242554
-1011,1803,2,1,0,1,60.370934
-247,-1313,3,1,0,20,104.138969
501,-1582,4,0,0,0,673.703674
1893,1494,1,0,0,0,593.179688
-1917,104,2,0,0,0,632.105103
-838,-1812,3,0,0,0,620.966553
356,-1083,4,0,0,0,781.316650
1837,1049,1,0,0,0,630.435913
-1602,1332,2,0,0,0,608.829102
-219,-199,3,1,0,0,250.633102
1573,-1328,4,1,0,3,46.838615
1192,1668,1,0,0,0,639.367798
-1755,265,2,0,0,0,654.490173
-883,-464,3,0,0,0,819.700928
850,-306,4,0,0,0,848.199158
422,1788,1,0,0,0,670.684387
-1453,1329,2,0,0,0,624.882080
-81,-621,3,1,0,3,46.838615
1472,-1290,4,0,0,0,626.602478
1879,1822,1,0,0,0,569.972168
-636,205,2,0,0,0,935.024536
-1286,-964,3,0,0,0,682.848450
440,-1855,4,0,0,0,634.093445
286,522,1,0,0,0,994.636719
-961,1879,2,0,0,0,605.159424
-687,-1504,3,1,0,28,86.649590
75,-522,4,0,0,0,1003.248840
1676,1195,1,0,0,0,638.222412
-1203,577,2,1,0,1,60.370934
-547,-10,3,0,0,0,992.660889
1233,-258,4,0,0,0,752.651001
131,1953,1,0,0,0,652.574951
-661,192,2,0,0,0,926.487610
-368,-1020,3,0,0,0,795.697693
542,-766,4,0,0,0,837.276428
182,1869,1,1,0,18,56.394848
-835,608,2,0,0,0,809.670227
-583,-1858,3,0,0,0,628.053162
1872,-1425,4,0,0,0,574.343201
1280,1177,1,0,0,0,686.397522
-1688,1248,2,0,0,0,606.677002
-853,-1938,3,0,0,0,604.228149
563,-34,4,1,0,3,46.838615
464,585,1,0,0,0,929.306946
-1250,1953,2,0,0,0,578.452087
-1853,-151,3,0,0,0,641.259460
1111,-557,4,0,0,0,756.526611
160,1027,1,1,0,18,56.394848
-1339,1148,2,0,0,0,656.287720
-171,-753,3,0,0,0,893.379639
875,-831,4,0,0,0,764.983948
523,1630,1,0,0,0,690.881226
-441,1554,2,1,0,1,60.370934
-1275,-1460,3,0,0,0,629.367493
817,-1171,4,1,0,23,171.915039
1544,668,1,1,0,18,56.394848
-677,499,2,0,0,0,868.788025
-275,-1558,3,0,0,0,687.353577
735,-974,4,1,0,3,46.838615
1667,1679,1,1,0,18,56.394848
-1665,1522,2,0,0,0,586.254211
-531,-532,3,0,0,0,901.134766
781,-446,4,0,0,0,849.484558
1302,1084,1,0,0,0,693.849731
-830,1327,2,0,0,0,690.424561
-1735,-1762,3,0,0,0,560.251343
745,-1242,4,0,0,0,712.646240
226,1902,1,0,0,0,658.768494
-718,1954,2,0,0,0,609.058105
-80,-1612,3,0,0,0,681.643738
843,-68,4,0,0,0,867.180786
1571,1562,1,1,0,18,56.394848
-1389,1046,2,1,0,1,60.370934
-589,-200,3,0,0,0,955.663818
1810,-1429,4,0,0,0,580.004028
891,1498,1,0,0,0,685.729614
-785,976,2,1,0,1,60.370934
-1607,-1005,3,0,0,0,635.755676
1641,-984,4,0,0,0,633.057922
495,984,1,0,0,0,817.395691
-76,1261,2,1,0,18,56.394848
-1496,-1559,3,0,0,0,598.483704
1873,-710,4,1,0,3,46.838615
802,569,1,1,0,18,56.394848
-331,1936,2,0,0,0,625.610657
-19,-67,3,0,0,0,1587.265625
581,-1943,4,0,0,0,616.495667
359,1526,1,0,0,0,716.076233
-418,775,2,0,0,0,855.575439
-1171,-1793,3,1,0,28,86.649590
866,-1592,4,0,0,0,648.538696
294,1601,1,0,0,0,705.298035
-360,729,2,0,0,0,878.529541
-961,-1896,3,0,0,0,603.127014
1753,-1366,4,0,0,0,590.490723
1010,225,1,1,0,18,56.394848
-1986,756,2,0,0,0,603.208862
-1145,-1407,3,1,0,28,86.649590
890,-1354,4,0,0,0,680.524414
530,913,1,0,0,0,829.611023
-164,719,2,0,0,0,906.622742
-1378,-508,3,0,0,0,708.649536
785,-1127,4,1,0,23,175.822281
715,1723,1,1,0,18,56.394848
-1939,104,2,0,0,0,628.863586
-1927,-80,3,0,0,0,630.796021
1015,-1956,4,0,0,0,592.889526
201,1800,1,0,0,0,674.748413
-1842,1055,2,0,0,0,603.515808
-1827,-1272,3,0,0,0,590.004822
588,-1376,4,1,0,3,46.838615
1361,928,1,1,0,18,56.394848
-882,1563,2,0,0,0,651.325317
-1094,-754,3,0,0,0,737.360291
1468,-1142,4,1,0,3,46.838615
653,442,1,0,0,0,913.597168
-561,1333,2,0,0,0,713.055115
-1455,-1069,3,0,0,0,649.612610
1381,-441,4,0,0,0,712.369690
630,1860,1,0,0,0,651.641907
-1818,1260,2,0,0,0,591.825134
-1738,-1732,3,0,0,0,562.449951
962,-263,4,1,0,3,46.838615
672,1280,1,1,0,18,56.394848
-1276,550,2,0,0,0,724.526794
-887,-1177,3,0,0,0,707.647217
1331,-486,4,0,0,0,718.916809
492,1406,1,0,0,0,730.716003
-1877,4,2,0,0,0,638.533203
-1805,-1376,3,0,0,0,584.518250
1127,-490,4,1,0,3,46.838615
1548,1708,1,0,0,0,605.997498
-1701,1207,2,0,0,0,608.514221
-244,-1643,3,0,0,0,673.431030
1113,-1732,4,1,0,3,46.838615
966,1219,1,1,0,18,56.394848
-1896,1343,2,0,0,0,577.880249
-1283,-1831,3,0,0,0,588.786804
1723,-673,4,0,0,0,642.700256
458,49,1,0,0,0,1068.548462
-621,649,2,0,0,0,849.846985
-1613,-1834,3,0,0,0,563.750732
1138,-1311,4,1,0,3,46.838615
616,872,1,0,0,0,826.373840
-1282,1266,2,1,0,1,60.370934
-1098,-93,3,0,0,0,791.077148
873,-1275,4,0,0,0,694.096802
1870,362,1,0,0,0,660.362732
-1500,611,2,0,0,0,680.638733
-383,-179,3,0,0,0,1066.986450
1566,-614,4,0,0,0,669.831970
1893,1216,1,1,0,18,56.394848
-189,724,2,1,0,18,56.394848
-657,-151,3,0,0,0,932.488953
941,-642,4,1,0,3,46.838615
994,703,1,0,0,0,788.619507
-692,657,2,0,0,0,832.458801
-517,-378,3,0,0,0,947.255920
1112,-1138,4,1,0,3,46.838615
764,1586,1,0,0,0,682.877136
-892,85,2,0,0,0,850.553406
-1216,-263,3,0,0,0,756.224304
685,-793,4,0,0,0,805.529175
1486,540,1,0,0,0,713.634644
-1815,690,2,0,0,0,628.871582
-456,-516,3,1,0,28,86.649590
1119,-1477,4,1,0,3,46.838615
1306,119,1,0,0,0,767.271851
-102,1911,2,0,0,0,633.011658
-593,-1419,3,0,0,0,695.454346
443,-1205,4,0,0,0,747.202576
1538,880,1,0,0,0,681.008667
-1280,1063,2,1,0,1,60.370934
-446,-584,3,0,0,0,907.655090
1002,-293,4,0,0,0,806.609314
828,307,1,0,0,0,880.984924
-647,240,2,0,0,0,925.752563
-1087,-675,3,1,0,28,86.649590
836,-1513,4,0,0,0,662.035950
1829,951,1,1,0,18,56.394848
-722,1713,2,0,0,0,641.290527
-1627,-1550,3,0,0,0,587.347778
1958,-1172,4,0,0,0,582.987305
69,1509,1,0,0,0,726.706482
-980,688,2,0,0,0,767.213562
-1590,-1182,3,0,0,0,623.138916
807,-1618,4,0,0,0,649.202332
383,1424,1,0,0,0,733.616394
-1726,1818,2,1,0,1,60.370934
-1527,-1679,3,1,0,28,86.649590
877,-1599,4,0,0,0,646.747192
1940,809,1,0,0,0,632.258545
-373,439,2,0,0,0,977.787476
-612,-927,3,0,0,0,788.774414
1564,-34,4,0,0,0,690.575317
376,918,1,0,0,0,847.505127
-943,1871,2,0,0,0,607.225037
-1212,-1439,3,0,0,0,637.866333
743,-1325,4,0,0,0,698.978760
343,115,1,0,0,0,1138.215698
-708,77,2,1,0,1,60.370934
-648,-805,3,1,0,28,86.649590
5,-560,4,0,0,0,985.927368
1545,1184,1,0,0,0,654.166443
-744,473,2,0,0,0,855.220337
-1388,-587,3,0,0,0,701.264832
474,-180,4,0,0,0,1014.584045
440,1730,1,1,0,18,56.394848
-1535,1789,2,0,0,0,573.788147
-1700,-986,3,0,0,0,625.443359
976,-1801,4,0,0,0,613.641357
1136,856,1,0,0,0,743.954102
-824,1635,2,0,0,0,645.624878
-1657,-185,3,1,0,28,86.649590
124,-379,4,0,0,0,1083.836670
1890,787,1,1,0,18,56.394848
-1788,845,2,1,0,1,60.370934
-1029,-1063,3,0,0,0,706.549683
1189,-608,4,0,0,0,735.903015
1163,422,1,0,0,0,784.002930
-1257,713,2,0,0,0,713.273804
-1629,-764,3,0,0,0,650.598694
257,-1433,4,0,0,0,711.155396
1887,244,1,0,0,0,660.663757
-926,332,2,0,0,0,823.698975
-142,-1113,3,0,0,0,785.885925
752,-1208,4,0,0,0,717.707886
321,1100,1,0,0,0,806.036926
-766,47,2,1,0,1,60.370934
-1129,-930,3,1,0,28,86.649590
529,-163,4,0,0,0,989.281433
278,1369,1,1,0,18,56.394848
-1847,571,2,0,0,0,630.119141
-1794,-613,3,0,0,0,635.687073
1560,-960,4,0,0,0,645.497375
1429,419,1,1,0,18,56.394848
-568,1331,2,0,0,0,712.879028
-1607,-1505,3,1,0,28,86.649590
149,-894,4,0,0,0,847.267822
1639,908,1,1,0,18,56.394848
-544,1833,2,0,0,0,633.264709
-1886,-1260,3,1,0,28,86.649590
743,-1973,4,0,0,0,605.458984
996,12,1,0,0,0,846.331482
-328,1792,2,0,0,0,647.051147
-1409,-681,3,0,0,0,690.470520
824,-1972,4,0,0,0,601.581543
324,546,1,1,0,18,56.394848
-1476,295,2,1,0,1,60.370934
-60,-474,3,0,0,0,1031.711182
653,-1141,4,0,0,0,740.403137
1512,1208,1,0,0,0,655.813782
-420,873,2,0,0,0,828.100525
-549,-1204,3,0,0,0,738.529480
402,-1155,4,0,0,0,761.147522
550,1502,1,0,0,0,710.309753
-1923,1025,2,1,0,1,60.370934
-879,-1109,3,1,0,28,86.649590
1373,-1074,4,0,0,0,659.641113
916,414,1,0,0,0,843.703674
-33,872,2,0,0,0,858.173706
-1090,-831,3,1,0,28,86.649590
1737,-1357,4,0,0,0,592.817688
624,1348,1,0,0,0,731.520874
-331,1600,2,0,0,0,678.140442
-195,-554,3,0,0,0,972.212097
1696,-1199,4,0,0,0,609.703186
9,178,1,1,0,0,473.942383
-1810,746,2,0,0,0,626.538208
-1934,-372,3,0,0,0,624.834778
1293,-153,4,0,0,0,743.170898
372,112,1,0,0,0,1117.655640
-975,1247,2,0,0,0,687.202576
-1629,-472,3,0,0,0,667.474731
979,-730,4,0,0,0,761.559814
1336,56,1,0,0,0,761.686157
-1287,1117,2,0,0,0,666.108826
-1650,-1615,3,0,0,0,579.669006
336,-663,4,1,0,3,46.838615
1915,1145,1,0,0,0,615.265198
-1405,1385,2,0,0,0,624.339844
-1099,-730,3,0,0,0,739.376709
1574,-1913,4,0,0,0,559.739990
912,966,1,0,0,0,763.555664
-1891,1335,2,0,0,0,578.943298
-590,-646,3,0,0,0,857.430542
958,-1101,4,0,0,0,710.452393
859,1012,1,1,0,18,56.394848
-1992,967,2,0,0,0,591.523071
-368,-1478,3,0,0,0,698.222168
1193,-36,4,0,0,0,768.137695
1686,681,1,1,0,18,56.394848
-294,872,2,0,0,0,842.889709
-68,-371,3,0,0,0,1099.888550
811,-1261,4,0,0,0,702.739319
286,401,1,0,0,0,1049.223267
-1439,1632,2,0,0,0,596.500854
-143,-373,3,0,0,0,1083.329102
1470,-761,4,0,0,0,674.416748
766,1655,1,0,0,0,672.785034
-892,501,2,0,0,0,812.421265
-1067,-180,3,1,0,1,60.370934
1581,-663,4,1,0,3,46.838615
1460,658,1,0,0,0,709.971069
-1889,983,2,0,0,0,602.616150
-1345,-1571,3,0,0,0,610.926208
921,-1342,4,1,0,3,46.838615
1542,253,1,1,0,3,46.838615
-188,1278,2,1,0,18,56.394848
-591,-835,3,1,0,20,120.249504
65,-1469,4,0,0,0,708.302063
1479,1167,1,1,0,18,56.394848
-1525,1879,2,1,0,1,60.370934
-350,-1770,3,0,0,0,649.804871
10,-1141,4,0,0,0,781.056519
463,1069,1,1,0,18,56.394848
-630,1500,2,0,0,0,679.359253
-1178,-1891,3,0,0,0,589.785522
1848,-235,4,1,0,3,46.838615
364,1263,1,1,0,18,56.394848
-1611,785,2,0,0,0,651.739929
-371,-14,3,0,0,0,1104.448120
1385,-489,4,1,0,3,46.838615
186,408,1,1,0,0,138.660522
-1525,1066,2,0,0,0,641.029785
-430,-1442,3,0,0,0,701.697144
61,-1422,4,0,0,0,717.634644
160,287,1,1,0,0,235.137421
-1284,71,2,0,0,0,746.731323
-1816,-1485,3,0,0,0,575.162048
1441,-868,4,0,0,0,669.804138
207,939,1,0,0,0,856.482910
-876,47,2,0,0,0,856.648987
-1709,-33,3,0,0,0,665.240356
698,-924,4,0,0,0,776.817932
1091,1527,1,0,0,0,664.594482
-1458,787,2,0,0,0,674.150330
-1589,-1808,3,1,0,28,86.649590
1612,-809,4,1,0,3,46.838615
1812,691,1,1,0,18,56.394848
-952,348,2,0,0,0,815.090881
-453,-336,3,0,0,0,983.883301
821,-929,4,0,0,0,757.223938
1271,1575,1,0,0,0,643.045166
-1348,575,2,0,0,0,709.262878
-1965,-1535,3,0,0,0,557.901001
374,-467,4,0,0,0,966.871704
282,223,1,0,0,0,1140.012939
-1881,1023,2,0,0,0,601.056091
-785,-960,3,0,0,0,757.154602
1833,-900,4,0,0,0,614.535095
137,716,1,0,0,0,936.212097
-1371,216,2,0,0,0,724.852112
-1743,-150,3,0,0,0,658.613770
840,-435,4,0,0,0,834.958374
657,451,1,0,0,0,910.554749
-1292,1013,2,0,0,0,676.761719
-392,-1422,3,0,0,0,707.406738
1562,-1633,4,0,0,0,585.758545
82,1872,1,0,0,0,665.037598
-1841,1223,2,0,0,0,592.048950
-726,-1890,3,0,0,0,616.968018
1364,-854,4,0,0,0,682.476929
1819,243,1,0,0,0,670.990173
-726,1604,2,0,0,0,656.790283
-222,-799,3,1,0,20,101.451714
84,-1408,4,0,0,0,720.224182
459,1557,1,0,0,0,706.094910
-825,185,2,1,0,1,60.370934
-162,-483,3,0,0,0,1013.212891
1607,-329,4,0,0,0,677.013611
1054,1734,1,0,0,0,642.295166
-224,1823,2,0,0,0,644.721436
-317,-1831,3,0,0,0,641.397949
1557,-1561,4,1,0,3,46.838615
1741,1051,1,0,0,0,641.672974
-430,568,2,1,0,1,60.370934
-1799,-461,3,0,0,0,641.568542
1042,-1145,4,0,0,0,693.556335
657,762,1,0,0,0,843.441895
-138,917,2,0,0,0,840.679321
-254,-426,3,1,0,0,99.585129
1083,-924,4,0,0,0,717.573730
829,1444,1,0,0,0,698.815125
-193,1322,2,0,0,0,735.778564
-309,-420,3,0,0,0,1006.513123
947,-1550,4,0,0,0,647.893372
1061,90,1,0,0,0,827.135254
-509,1436,2,0,0,0,698.143738
-1486,-443,3,0,0,0,693.100159
5,-1384,4,0,0,0,725.659058
1339,1959,1,0,0,0,597.765381
-33,1258,2,0,0,0,752.940613
-1036,-430,3,0,0,0,785.969910
747,-1587,4,0,0,0,657.867920
1669,1010,1,1,0,18,56.394848
-717,1927,2,1,0,1,60.370934
-1496,-905,3,0,0,0,658.777283
268,-364,4,0,0,0,1047.694336
1278,237,1,0,0,0,769.827271
-695,413,2,1,0,1,60.370934
-1751,-1679,3,0,0,0,565.666748
1279,-1208,4,0,0,0,657.010742
881,1235,1,0,0,0,725.484314
-533,1417,2,0,0,0,699.955933
-598,-1703,3,0,0,0,649.699097
952,-924,4,1,0,3,46.838615
1904,1522,1,1,0,18,56.394848
-1660,707,2,0,0,0,649.802612
-711,-65,3,0,0,0,915.950806
1756,-1035,4,1,0,3,46.838615
1979,493,1,0,0,0,640.854431
-1771,1251,2,1,0,1,60.370934
-1189,-1108,3,0,0,0,679.657410
340,-1136,4,1,0,3,46.838615
1337,1026,1,0,0,0,695.354004
-659,906,2,0,0,0,786.321960
-1043,-1756,3,0,0,0,614.484131
763,-1850,4,1,0,3,46.838615
1789,158,1,0,0,0,677.161499
-205,375,2,0,0,0,1063.858276
-9,-1509,3,0,0,0,700.884094
1690,-365,4,0,0,0,661.975708
720,597,1,0,0,0,864.443848
-1071,534,2,0,0,0,767.368713
-1036,-1718,3,1,0,28,86.649590
444,-1562,4,0,0,0,679.895996
1964,867,1,0,0,0,626.233521
-618,508,2,0,0,0,883.188538
-744,-1230,3,1,0,28,86.649590
1394,-1030,4,0,0,0,661.270020
432,262,1,0,0,0,1041.883789
-665,1753,2,0,0,0,638.853455
-1880,-667,3,0,0,0,621.191589
588,-1246,4,1,0,23,178.479279
15,1265,1,1,0,18,56.394848
-1837,185,2,1,0,1,60.370934
-625,-826,3,0,0,0,808.862427
1915,-1583,4,0,0,0,558.912048
1495,481,1,0,0,0,715.562317
-872,1144,2,1,0,1,60.370934
-294,-741,3,0,0,0,884.197815
666,-517,4,0,0,0,868.074524
1332,153,1,0,0,0,760.917603
-261,771,2,0,0,0,878.198547
-837,-794,3,0,0,0,777.890137
1248,-944,4,0,0,0,690.494141
364,1211,1,0,0,0,777.727417
-1219,988,2,1,0,1,60.370934
-700,-1759,3,1,0,28,86.649590
312,-1038,4,1,0,3,46.838615
290,1697,1,0,0,0,689.256165
-1696,1764,2,0,0,0,563.211792
-1737,-1144,3,0,0,0,609.312073
1530,-310,4,1,0,3,46.838615
693,544,1,0,0,0,881.659607
-1337,367,2,0,0,0,725.152954
-1926,-57,3,0,0,0,631.064514
1409,-706,4,1,0,3,46.838615
1620,94,1,1,0,3,46.838615
-945,1831,2,0,0,0,611.976562
-105,-615,3,0,0,0,954.799194
1673,-1465,4,0,0,0,590.312805
546,1584,1,0,0,0,697.029907
-1232,1404,2,0,0,0,639.919800
-16,-444,3,0,0,0,1052.667480
1209,-236,4,0,0,0,759.075745
1237,946,1,0,0,0,717.981506
-1394,275,2,0,0,0,718.126465
-540,-186,3,0,0,0,980.263855
1414,-1711,4,0,0,0,590.837158
1572,761,1,0,0,0,685.146240
-986,939,2,1,0,1,60.370934
-1321,-1240,3,1,0,28,86.649590
681,-453,4,0,0,0,876.813049
311,1180,1,1,0,18,56.394848
-1931,1596,2,0,0,0,556.577576
-1080,-403,3,0,0,0,778.127258
246,-1908,4,0,0,0,631.515747
49,1020,1,0,0,0,839.170776
-1323,590,2,0,0,0,712.588867
-594,-875,3,1,0,20,102.303276
151,-1072,4,0,0,0,796.167725
1626,365,1,0,0,0,698.571716
-843,1033,2,0,0,0,736.357727
-150,-905,3,0,0,0,843.792175
20,-5,4,0,0,0,1938.508545
500,989,1,0,0,0,815.648010
-1597,541,2,0,0,0,669.140015
-1620,-963,3,1,0,28,86.649590
1259,-1424,4,0,0,0,634.949341
722,1297,1,0,0,0,731.714844
-527,1414,2,0,0,0,700.886414
-28,-1372,3,0,0,0,728.097778
170,-1147,4,0,0,0,776.440247
791,1919,1,0,0,0,635.845825
-1587,1461,2,0,0,0,598.953186
-546,-179,3,1,0,1,60.370934
1934,-34,4,0,0,0,629.964233
451,105,1,0,0,0,1067.020020
-295,1550,2,0,0,0,688.125305
-1140,-1321,3,0,0,0,659.357666
1725,-1459,4,1,0,3,46.838615
270,1543,1,0,0,0,716.298218
-1650,425,2,1,0,1,60.370934
-224,-274,3,0,0,0,1118.254761
403,-1103,4,0,0,0,772.801086
1842,21,1,0,0,0,669.908813
-1200,941,2,0,0,0,697.878723
-319,-548,3,0,0,0,950.132324
1764,-69,4,1,0,3,46.838615
1034,738,1,0,0,0,776.405945
-1586,65,2,1,0,1,60.370934
-1320,-1207,3,1,0,28,86.649590
211,-851,4,0,0,0,856.810486
1442,183,1,1,0,3,46.838615
-1323,733,2,0,0,0,700.228271
-198,-1013,3,1,0,20,103.136795
1265,-364,4,0,0,0,740.035828
1168,1715,1,1,0,18,56.394848
-1285,84,2,0,0,0,746.334167
-521,-1310,3,0,0,0,720.366943
1634,-1542,4,1,0,3,46.838615
1334,298,1,1,0,18,56.394848
-1941,927,2,0,0,0,599.757202
-1907,-1453,3,0,0,0,569.002808
1089,-1741,4,0,0,0,612.937317
1225,635,1,0,0,0,752.679260
-1209,746,2,0,0,0,718.173767
-20,-681,3,0,0,0,929.443604
1316,-1954,4,1,0,3,46.838615
391,7,1,0,0,0,1115.755615
-141,639,2,1,0,18,56.394848
-1727,-355,3,0,0,0,656.391785
1487,-1567,4,0,0,0,598.539612
1352,537,1,1,0,18,56.394848
-53,1664,2,0,0,0,672.773499
-103,-274,3,0,0,0,1173.007202
1606,-1067,4,0,0,0,630.872864
979,1745,1,0,0,0,646.306152
-1362,1013,2,0,0,0,667.237122
-906,-1703,3,0,0,0,630.745728
1494,-146,4,0,0,0,702.388733
760,1474,1,0,0,0,699.960693
-296,432,2,0,0,0,1005.268127
-861,-1686,3,0,0,0,636.095398
1006,-1774,4,1,0,3,46.838615
550,134,1,0,0,0,1009.099426
-568,829,2,1,0,1,60.370934
-1768,-1646,3,1,0,28,86.649590
1636,-478,4,0,0,0,666.063660
1491,840,1,0,0,0,690.966675
-1502,1699,2,1,0,1,60.370934
-802,-770,3,0,0,0,788.514771
1727,-1361,4,1,0,3,46.838615
1754,1277,1,0,0,0,623.229980
-554,302,2,0,0,0,951.552917
-202,-653,3,0,0,0,928.499512
39,-510,4,0,0,0,1012.057983
1616,1640,1,0,0,0,606.332520
-1633,1552,2,0,0,0,586.625854
-1078,-1483,3,1,0,28,86.649590
909,-285,4,0,0,0,832.934570
501,997,1,1,0,18,56.394848
-811,1914,2,0,0,0,609.469421
-1423,-39,3,0,0,0,717.589111
872,-989,4,0,0,0,739.557861
1307,1348,1,0,0,0,664.458984
-687,1429,2,0,0,0,686.725159
-624,-1455,3,0,0,0,687.158875
494,-934,4,0,0,0,803.151245
481,157,1,1,0,0,108.662544
-712,681,2,0,0,0,823.253113
-270,-1278,3,1,0,20,110.708344
1670,-595,4,1,0,3,46.838615
1035,1526,1,1,0,18,56.394848
-344,978,2,1,0,1,60.370934
-858,-619,3,0,0,0,802.774292
409,-1345,4,1,0,3,46.838615
94,440,1,0,0,0,1075.316406
-1707,58,2,0,0,0,665.463196
-1541,-902,3,0,0,0,652.777283
1258,-305,4,0,0,0,744.844849
1100,1178,1,0,0,0,708.133545
-1177,1794,2,1,0,1,60.370934
-825,-1608,3,0,0,0,649.328430
1742,-1671,4,1,0,3,46.838615
400,117,1,0,0,0,1097.400757
-443,1577,2,0,0,0,677.413147
-458,-1507,3,0,0,0,688.626648
1309,-1588,4,0,0,0,612.324036
1175,1554,1,0,0,0,653.915710
-1314,120,2,0,0,0,739.352539
-996,-1665,3,0,0,0,629.101746
944,-697,4,0,0,0,773.017273
1663,418,1,0,0,0,690.400696
-549,5,2,1,0,1,60.370934
-1831,-993,3,0,0,0,608.895020
1898,-606,4,0,0,0,621.537109
1528,291,1,1,0,3,46.838615
-24,1851,2,1,0,18,56.394848
-1969,-290,3,1,0,28,86.649590
901,-555,4,0,0,0,802.709961
52,727,1,0,0,0,936.264282
-828,1190,2,0,0,0,712.366943
-1121,-1024,3,1,0,28,86.649590
815,-69,4,1,0,3,46.838615
1302,1216,1,0,0,0,679.468018
-1369,1359,2,0,0,0,630.745728
-710,-1071,3,0,0,0,746.953125
1158,-832,4,0,0,0,717.113403
152,86,1,1,0,0,482.417084
-21,1829,2,0,0,0,645.902527
-376,-458,3,0,0,0,969.645508
1225,-709,4,0,0,0,719.234741
197,1544,1,0,0,0,718.119934
-1072,1861,2,1,0,1,60.370934
-1352,-481,3,0,0,0,715.287781
1340,-90,4,1,0,3,46.838615
1693,548,1,0,0,0,679.797546
-746,1091,2,1,0,1,60.370934
-554,-50,3,0,0,0,987.874512
1205,-855,4,0,0,0,706.927063
1186,1049,1,0,0,0,713.222961
-1166,947,2,1,0,1,60.370934
-1552,-170,3,0,0,0,691.140320
1092,-225,4,0,0,0,787.705383
1418,36,1,0,0,0,744.751343
-1357,1106,2,0,0,0,658.420898
-734,-1046,3,0,0,0,748.549438
1159,-1679,4,0,0,0,614.793457
1309,1627,1,1,0,18,56.394848
-90,1609,2,1,0,18,56.394848
-206,-1388,3,0,0,0,721.711426
1168,-1312,4,0,0,0,657.451355
1247,1030,1,1,0,18,56.394848
-1623,707,2,0,0,0,655.229309
-1218,-1308,3,0,0,0,652.504517
978,-155,4,0,0,0,821.808289
1651,1681,1,0,0,0,599.772888
-693,714,2,0,0,0,820.416748
-1371,-1178,3,0,0,0,649.283020
37,-921,4,1,0,3,46.838615
1253,815,1,0,0,0,729.728821
-1569,1405,2,1,0,1,60.370934
-1860,-466,3,0,0,0,632.451233
1409,-133,4,1,0,3,46.838615
1599,1820,1,1,0,18,56.394848
-905,857,2,0,0,0,755.701721
-508,-1395,3,1,0,20,111.742203
1572,-1460,4,0,0,0,600.496704
829,788,1,0,0,0,806.569702
-1769,1538,2,0,0,0,575.375427
-1202,-54,3,0,0,0,765.820984
1119,-191,4,0,0,0,782.535583
29,1247,1,0,0,0,781.657776
-923,1376,2,1,0,1,60.370934
-1456,-320,3,0,0,0,704.373169
323,-1451,4,1,0,3,46.838615
301,351,1,0,0,0,1067.440063
-1503,281,2,0,0,0,697.112122
-1143,-1711,3,0,0,0,612.366272
423,-49,4,0,0,0,1064.904175
1629,957,1,0,0,0,662.682190
-1066,551,2,0,0,0,766.592957
-23,-1181,3,1,0,3,46.838615
1539,-1668,4,0,0,0,584.536682
364,534,1,1,0,18,56.394848
-1534,28,2,0,0,0,696.137878
-498,-1831,3,0,0,0,635.434998
182,-461,4,0,0,0,1021.140320
260,1220,1,0,0,0,781.644165
-349,317,2,0,0,0,1035.541992
-1905,-660,3,1,0,28,86.649590
405,-886,4,0,0,0,826.501953
34,1014,1,1,0,18,56.394848
-1022,676,2,0,0,0,760.589050
-1088,-1747,3,0,0,0,612.306274
1722,-1632,4,0,0,0,571.966919
1625,163,1,1,0,3,46.838615
-1135,910,2,0,0,0,711.372559
-922,-744,3,1,0,28,86.649590
1168,-420,4,0,0,0,756.893616
82,1172,1,0,0,0,798.856689
-1042,782,2,0,0,0,742.999084
-1762,-1559,3,0,0,0,574.340271
607,-651,4,0,0,0,852.472778
1123,83,1,1,0,3,46.838615
-794,1138,2,0,0,0,724.913025
-1642,-718,3,0,0,0,651.733643
436,-104,4,0,0,0,1050.119385
1172,524,1,0,0,0,773.380249
-529,885,2,0,0,0,810.186340
-485,-1554,3,0,0,0,679.184204
267,-1554,4,0,0,0,688.316040
1187,686,1,0,0,0,754.521423
-890,647,2,0,0,0,791.497131
-859,-949,3,0,0,0,748.057434
1675,-1781,4,1,0,3,46.838615
1087,564,1,1,0,18,56.394848
-970,764,2,0,0,0,758.394470
-972,-1785,3,0,0,0,615.867432
1428,-417,4,1,0,3,46.838615
202,426,1,0,0,0,1061.833374
-1732,1416,2,1,0,1,60.370934
-327,-1512,3,0,0,0,693.778320
215,-1700,4,0,0,0,664.535522
1072,1660,1,0,0,0,649.866760
-158,1742,2,0,0,0,658.661438
-227,-1721,3,0,0,0,660.831787
1608,-1177,4,0,0,0,621.488647
1882,1215,1,0,0,0,614.129822
-685,1264,2,0,0,0,714.756042
-881,-182,3,1,0,1,60.370934
1186,-120,4,1,0,3,46.838615
234,1699,1,0,0,0,690.348877
-159,641,2,0,0,0,938.405640
-651,-963,3,1,0,20,133.563202
122,-1901,4,0,0,0,634.326538
1815,1354,1,0,0,0,611.063110
-1694,1322,2,1,0,1,60.370934
-1523,-839,3,0,0,0,660.354980
28,-1065,4,0,0,0,800.774536
604,1719,1,0,0,0,673.043152
-762,644,2,1,0,1,60.370934
-575,-415,3,0,0,0,917.912292
793,-1262,4,1,0,3,46.838615
914,1551,1,0,0,0,676.475952
-1902,302,2,0,0,0,631.214966
-1963,-1662,3,1,0,28,86.649590
330,-581,4,0,0,0,935.043762
1159,1161,1,0,0,0,703.069031
-615,1249,2,0,0,0,723.967407
-1498,-1885,3,1,0,28,86.649590
419,-597,4,0,0,0,909.805176
1566,1131,1,0,0,0,656.343933
-570,1451,2,0,0,0,691.569641
-1250,-1585,3,0,0,0,617.819031
1648,-571,4,0,0,0,659.484070
1726,1557,1,0,0,0,603.617188
-253,1708,2,0,0,0,662.361023
-1536,-1775,3,0,0,0,574.986450
1072,-886,4,1,0,3,46.838615
1795,816,1,0,0,0,650.485901
-628,876,2,0,0,0,797.426880
-1504,-1101,3,0,0,0,640.526855
1720,-95,4,1,0,3,46.838615
1266,368,1,1,0,18,56.394848
-70,1787,2,0,0,0,652.331055
-1901,-1977,3,1,0,28,86.649590
1876,-22,4,1,0,3,46.838615
426,1901,1,0,0,0,653.925781
-1465,1800,2,0,0,0,578.201721
-947,-1064,3,0,0,0,717.415405
262,-1076,4,0,0,0,789.644653
1558,149,1,0,0,0,716.542847
-33,1044,2,0,0,0,806.454834
-780,-1621,3,1,0,28,86.649590
650,-253,4,0,0,0,922.670471
763,1299,1,0,0,0,727.479553
-1760,781,2,1,0,1,60.370934
-1888,-1665,3,1,0,28,86.649590
1410,-946,4,1,0,3,46.838615
1094,466,1,1,0,18,56.394848
-965,1617,2,0,0,0,637.614929
-129,-924,3,1,0,3,46.838615
219,-628,4,0,0,0,936.378113
1066,1433,1,0,0,0,678.750183
-774,1744,2,0,0,0,633.858948
-570,-1300,3,0,0,0,718.407837
1740,-1547,4,1,0,3,46.838615
1946,1317,1,0,0,0,600.546326
-39,1333,2,0,0,0,736.303589
-1497,-493,3,0,0,0,688.439697
1613,-1740,4,0,0,0,571.950012
1619,1500,1,0,0,0,618.358704
-859,775,2,0,0,0,777.083069
-879,-841,3,0,0,0,762.662964
1790,-1348,4,0,0,0,588.147949
396,878,1,0,0,0,855.996582
-1336,835,2,0,0,0,688.551270
-904,-1937,3,1,0,28,86.649590
1026,-1690,4,1,0,3,46.838615
171,1895,1,0,0,0,660.665222
-830,931,2,0,0,0,755.499756
-1035,-236,3,1,0,28,86.649590
559,-1833,4,1,0,3,46.838615
127,266,1,0,0,0,1197.297485
-678,1723,2,0,0,0,642.418945
-743,-594,3,1,0,28,86.649590
876,-1859,4,0,0,0,612.726501
1183,1386,1,1,0,18,56.394848
-1917,1398,2,0,0,0,571.952026
-1995,-343,3,0,0,0,617.020020
1219,-1461,4,0,0,0,634.648926
925,72,1,0,0,0,866.765686
-1027,520,2,0,0,0,778.525391
-1040,-1384,3,0,0,0,661.606934
1196,-1559,4,0,0,0,625.491333
728,442,1,0,0,0,891.411438
-356,1273,2,0,0,0,738.837097
-1195,-475,3,0,0,0,746.735352
293,-979,4,0,0,0,812.747742
413,1815,1,0,0,0,666.934204
-1955,857,2,0,0,0,601.932922
-970,-159,3,0,0,0,823.925049
1505,-1741,4,0,0,0,580.592407
1491,1708,1,0,0,0,610.708435
-1286,1321,2,0,0,0,643.654419
-911,-1140,3,0,0,0,710.482361
927,-847,4,0,0,0,753.568542
918,28,1,1,0,3,46.838615
-1082,1422,2,1,0,1,60.370934
-1030,-856,3,0,0,0,735.081116
918,-379,4,0,0,0,820.951965
295,42,1,0,0,0,1194.170776
-1167,21,2,0,0,0,774.549500
-415,-912,3,1,0,20,135.205582
1909,-666,4,1,0,3,46.838615
1342,1219,1,0,0,0,674.464661
-1021,949,2,0,0,0,723.611633
-344,-419,3,1,0,0,81.668503
1460,-1707,4,1,0,3,46.838615
1597,993,1,1,0,18,56.394848
-1298,1333,2,1,0,1,60.370934
-874,-881,3,0,0,0,756.948364
411,-381,4,0,0,0,985.717529
120,345,1,0,0,0,1135.432007
-1474,1560,2,0,0,0,600.388916
-826,-528,3,0,0,0,824.689148
1057,-1340,4,1,0,3,46.838615
571,1282,1,1,0,18,56.394848
-1933,733,2,0,0,0,611.035645
-1005,-931,3,0,0,0,728.584229
1380,-1015,4,0,0,0,664.613281
884,864,1,0,0,0,784.256775
-679,416,2,0,0,0,884.519714
-1395,-83,3,1,0,1,60.370934
1994,-137,4,1,0,3,46.838615
1119,1199,1,0,0,0,703.145996
-766,545,2,0,0,0,836.744751
-398,-1042,3,0,0,0,787.580750
631,-1592,4,0,0,0,664.710632
1947,575,1,0,0,0,642.164917
-652,147,2,0,0,0,934.962524
-1059,-1772,3,0,0,0,611.445740
684,-1260,4,0,0,0,715.553040
384,940,1,0,0,0,840.799622
-1787,1044,2,0,0,0,610.718933
-639,-1153,3,0,0,0,739.621887
425,-1781,4,0,0,0,645.608582
1567,766,1,0,0,0,685.524597
-1124,1256,2,0,0,0,669.249390
-944,-1517,3,0,0,0,652.592041
1521,-83,4,1,0,3,46.838615
912,602,1,1,0,18,56.394848
-1497,1546,2,1,0,1,60.370934
-1903,-1422,3,0,0,0,571.595459
443,-854,4,0,0,0,830.100891
61,940,1,0,0,0,862.400146
-1390,531,2,0,0,0,704.907410
-1237,-1208,3,0,0,0,661.970703
112,-449,4,0,0,0,1040.923340
1341,1473,1,0,0,0,647.575134
-1164,1859,2,0,0,0,594.221802
-403,-1803,3,0,0,0,643.052429
878,-1127,4,0,0,0,716.562988
283,495,1,1,0,18,56.394848
-90,1882,2,0,0,0,637.449707
-1432,-1336,3,0,0,0,626.430115
451,-1959,4,0,0,0,618.998840
362,1371,1,0,0,0,744.846130
-480,389,2,0,0,0,957.613281
-327,-185,3,0,0,0,1101.019165
1006,-525,4,0,0,0,782.644836
763,1565,1,0,0,0,686.035706
-1036,1063,2,1,0,1,60.370934
-1302,-1798,3,0,0,0,590.805786
1123,-522,4,1,0,3,46.838615
974,256,1,1,0,18,56.394848
-1068,814,2,1,0,1,60.370934
-11,-675,3,1,0,3,46.838615
972,-1826,4,1,0,3,46.838615
1360,1574,1,0,0,0,635.224487
-1122,46,2,0,0,0,785.650208
-957,-253,3,1,0,28,86.649590
726,-1640,4,1,0,3,46.838615
1046,1610,1,0,0,0,658.087830
-1027,1824,2,1,0,1,60.370934
-370,-1981,3,0,0,0,618.289917
103,-1323,4,0,0,0,737.719299
1170,960,1,0,0,0,726.163635
-955,1357,2,0,0,0,673.716736
-971,-78,3,1,0,1,60.370934
827,-1588,4,0,0,0,652.001160
935,364,1,0,0,0,844.235413
-1060,1868,2,0,0,0,600.181091
-379,-78,3,0,0,0,1092.518799
1401,-525,4,0,0,0,703.340454
507,339,1,1,0,18,56.394848
-768,194,2,1,0,1,60.370934
-1783,-1714,3,0,0,0,560.204651
1771,-401,4,0,0,0,647.982849
929,813,1,0,0,0,784.627686
-1027,1437,2,0,0,0,655.881042
-1209,-1870,3,0,0,0,589.928040
590,-1476,4,0,0,0,686.006531
1345,768,1,0,0,0,719.540039
-770,975,2,0,0,0,756.623657
-1898,-963,3,0,0,0,602.767883
543,-411,4,0,0,0,929.564758
762,1271,1,0,0,0,732.197876
-948,156,2,0,0,0,830.493713
-751,-1501,3,1,0,28,86.649590
1129,-712,4,0,0,0,736.047607
397,113,1,0,0,0,1100.176025
-1360,1652,2,1,0,1,60.370934
-1648,-1364,3,0,0,0,601.313293
1909,-1222,4,0,0,0,584.899780
1525,1484,1,0,0,0,628.761719
-818,173,2,0,0,0,870.481995
-1792,-493,3,0,0,0,641.345886
246,-1864,4,0,0,0,638.053894
951,1066,1,0,0,0,742.716858
-1924,514,2,0,0,0,621.668884
-1535,-312,3,0,0,0,690.206360
1482,-816,4,0,0,0,668.184021
652,1263,1,0,0,0,744.163696
-393,962,2,0,0,0,807.928894
-828,-1136,3,0,0,0,721.195618
1680,-65,4,0,0,0,669.969788
1792,1096,1,0,0,0,632.439270
-601,1902,2,1,0,1,60.370934
-361,-43,3,0,0,0,1110.502075
1517,-406,4,1,0,3,46.838615
285,1490,1,0,0,0,725.487854
-811,1597,2,0,0,0,651.891846
-1355,-98,3,0,0,0,730.984253
415,-56,4,0,0,0,1069.730225
1215,1195,1,0,0,0,692.165039
-1238,1728,2,1,0,1,60.370934
-601,-247,3,0,0,0,943.089233
1545,-460,4,0,0,0,681.991089
1381,1807,1,0,0,0,609.824280
-1625,1701,2,0,0,0,574.368103
-884,-1196,3,0,0,0,705.049011
971,-1155,4,1,0,3,46.838615
1999,1554,1,0,0,0,579.358398
-566,1117,2,1,0,1,60.370934
-138,-968,3,0,0,0,825.437927
630,-55,4,0,0,0,950.901184
1670,565,1,1,0,18,56.394848
-1453,1630,2,0,0,0,595.486450
-442,-752,3,1,0,20,90.655312
1050,-649,4,0,0,0,758.478699
1497,1710,1,0,0,0,610.025085
-1157,1592,2,0,0,0,625.041382
-905,-87,3,0,0,0,846.367371
1426,-1910,4,0,0,0,570.643799
660,432,1,0,0,0,913.492920
-1450,697,2,1,0,1,60.370934
-1341,-498,3,0,0,0,716.193542
103,-1756,4,0,0,0,657.055115
533,1069,1,1,0,18,56.394848
-280,1285,2,0,0,0,740.292297
-1299,-470,3,0,0,0,726.197388
1387,-596,4,1,0,3,46.838615
1357,779,1,1,0,18,56.394848
-1301,1592,2,0,0,0,612.598328
-179,-283,3,0,0,0,1134.214355
1401,-1521,4,0,0,0,610.953674
1534,1320,1,0,0,0,643.063232
-770,463,2,0,0,0,849.770935
-395,-534,3,0,0,0,936.757446
1681,-688,4,0,0,0,647.902161
1476,1394,1,1,0,18,56.394848
-1026,1230,2,0,0,0,683.821472
-1698,-1282,3,1,0,28,86.649590
523,-467,4,0,0,0,921.165771
1569,782,1,1,0,18,56.394848
-1739,391,2,0,0,0,653.283203
-1559,-1803,3,0,0,0,570.650757
1032,-557,4,0,0,0,773.191589
618,1011,1,0,0,0,796.406555
-679,1237,2,0,0,0,720.102600
-365,-805,3,1,0,20,93.729660
298,-623,4,1,0,3,46.838615
939,336,1,1,0,18,56.394848
-937,974,2,0,0,0,732.466370
-1742,-1688,3,1,0,28,86.649590
1331,-1000,4,0,0,0,672.781067
762,1167,1,0,0,0,749.793213
-1854,1087,2,0,0,0,600.000671
-1258,-261,3,0,0,0,746.992920
1330,-1572,4,0,0,0,612.160889
522,591,1,1,0,18,56.394848
-275,506,2,0,0,0,977.869507
-310,-383,3,0,0,0,1022.826050
927,-584,4,0,0,0,792.727295
726,521,1,0,0,0,877.576721
-776,1923,2,0,0,0,610.162476
-1105,-82,3,1,0,1,60.370934
1359,-849,4,0,0,0,683.704163
450,1398,1,0,0,0,734.779114
-1017,812,2,0,0,0,743.308289
-1317,-1264,3,0,0,0,646.479065
450,-1712,4,0,0,0,655.253662
301,1881,1,0,0,0,660.330627
-242,416,2,1,0,0,106.227119
-693,-588,3,0,0,0,846.471985
1253,-1125,4,1,0,3,46.838615
8,111,1,0,0,0,1478.318237
-1950,1215,2,1,0,1,60.370934
-430,-864,3,0,0,0,829.197693
296,-33,4,1,0,0,248.324432
1744,1024,1,1,0,18,56.394848
-1434,1471,2,0,0,0,612.829407
-434,-1551,3,0,0,0,682.248108
577,-60,4,0,0,0,975.769836
957,531,1,0,0,0,819.240967
-420,180,2,0,0,0,1044.567261
-578,-531,3,0,0,0,888.677673
664,-999,4,0,0,0,766.698608
798,1858,1,0,0,0,643.292664
-288,315,2,0,0,0,1064.238525
-167,-902,3,0,0,0,843.797485
1000,-81,4,1,0,3,46.838615
995,1198,1,1,0,18,56.394848
-358,1516,2,1,0,18,56.394848
-1084,-651,3,0,0,0,751.569641
1238,-513,4,0,0,0,734.907043
1389,570,1,0,0,0,728.452026
-617,73,2,0,0,0,956.000427
-422,-574,3,1,0,20,84.313454
1514,-1206,4,0,0,0,629.769592
1175,1565,1,0,0,0,652.631592
-738,1012,2,0,0,0,754.294006
-1602,-1730,3,0,0,0,573.722961
697,-1568,4,0,0,0,664.136841
68,613,1,1,0,18,56.394848
-1452,673,2,1,0,1,60.370934
-949,-1256,3,0,0,0,688.781189
198,-764,4,0,0,0,887.084595
667,1388,1,0,0,0,721.187317
-1118,55,2,0,0,0,786.570251
-1902,-777,3,1,0,28,86.649590
1845,-485,4,0,0,0,633.912231
1429,1069,1,0,0,0,678.976257
-707,929,2,0,0,0,774.490479
-55,-1270,3,0,0,0,750.046265
1799,-1889,4,0,0,0,545.164429
1082,1275,1,0,0,0,697.583069
-408,1250,2,0,0,0,740.347229
-377,-92,3,1,0,0,162.093445
113,-632,4,0,0,0,946.548340
1233,357,1,0,0,0,773.417114
-299,728,2,1,0,1,60.370934
-573,-550,3,0,0,0,885.263489
1264,-1033,4,0,0,0,678.396606
1129,810,1,1,0,18,56.394848
-17,1528,2,0,0,0,697.289612
-1842,-676,3,1,0,28,86.649590
1563,-1086,4,0,0,0,634.574829
132,544,1,0,0,0,1012.326904
-526,592,2,0,0,0,886.107910
-267,-1003,3,0,0,0,808.274536
687,-960,4,0,0,0,771.293945
1856,1392,1,0,0,0,604.168274
-1623,526,2,0,0,0,665.777344
-1151,-685,3,0,0,0,735.049866
1884,-1231,4,0,0,0,586.921814
1499,321,1,0,0,0,722.485779
-464,34,2,0,0,0,1039.378540
-714,-1890,3,0,0,0,617.569092
240,-480,4,0,0,0,998.211975
1170,328,1,0,0,0,789.178711
-700,969,2,0,0,0,767.693298
-800,-466,3,1,0,28,86.649590
1419,-1219,4,0,0,0,639.492004
553,546,1,0,0,0,917.791870
-723,1795,2,0,0,0,629.840881
-1776,-525,3,0,0,0,642.361328
1879,-1014,4,1,0,3,46.838615
516,1189,1,0,0,0,770.634888
-668,1682,2,1,0,1,60.370934
-1459,-635,3,1,0,28,86.649590
665,-1475,4,0,0,0,680.937134
565,1880,1,0,0,0,651.748718
-1011,1721,2,0,0,0,621.024536
-818,-428,3,0,0,0,841.960510
1768,-611,4,1,0,3,46.838615
248,1042,1,0,0,0,825.439697
-525,1031,2,0,0,0,777.074463
-500,-1766,3,0,0,0,644.922363
1738,-835,4,0,0,0,630.867371
381,1559,1,0,0,0,709.353699
-1286,460,2,0,0,0,729.456848
-716,-1601,3,0,0,0,657.901489
594,-1351,4,0,0,0,707.256348
106,1991,1,0,0,0,647.312988
-1582,203,2,0,0,0,685.032898
-1404,-1208,3,0,0,0,642.333008
1938,-785,4,1,0,3,46.838615
120,1563,1,1,0,18,56.394848
-1734,1064,2,1,0,1,60.370934
-1179,-1763,3,0,0,0,603.761169
1647,-648,4,0,0,0,655.296021
1932,849,1,0,0,0,631.123352
-1384,143,2,1,0,1,60.370934
-874,-1632,3,0,0,0,642.465271
277,-1448,4,0,0,0,707.559204
567,1642,1,1,0,18,56.394848
-815,240,2,1,0,1,60.370934
-872,-754,3,0,0,0,778.117432
1374,-1799,4,0,0,0,585.266846
1464,654,1,0,0,0,709.611328
-397,1871,2,0,0,0,633.170349
-1755,-1099,3,0,0,0,610.569031
1391,-1827,4,0,0,0,581.216736
1195,1480,1,1,0,18,56.394848
-1157,1463,2,1,0,1,60.370934
-1662,-1389,3,0,0,0,597.783813
1716,-849,4,0,0,0,632.889771
70,1231,1,0,0,0,784.981506
-1399,142,2,1,0,1,60.370934
-373,-835,3,0,0,0,844.678650
1009,-808,4,1,0,3,46.838615
810,1095,1,0,0,0,756.399536
-1152,687,2,0,0,0,734.647095
-1640,-1964,3,0,0,0,550.612122
129,-235,4,0,0,0,1198.373535
596,371,1,1,0,18,56.394848
-1902,1479,2,0,0,0,567.602173
-983,-483,3,1,0,28,86.649590
1866,-137,4,0,0,0,639.443237
1347,1457,1,0,0,0,648.685303
-483,1058,2,1,0,1,60.370934
-1097,-1268,3,0,0,0,670.749939
961,-1462,4,1,0,3,46.838615
649,673,1,0,0,0,864.555542
-1122,667,2,0,0,0,742.452332
-558,-56,3,0,0,0,985.525879
250,-488,4,0,0,0,992.019531
1809,401,1,0,0,0,668.239197
-972,1848,2,0,0,0,608.199585
-868,-1050,3,0,0,0,730.186646
1617,-312,4,0,0,0,675.884094
420,1103,1,0,0,0,797.540466
-1481,444,2,0,0,0,693.932434
-1759,-1847,3,0,0,0,551.507507
510,-174,4,0,0,0,997.027832
1372,1258,1,0,0,0,666.927673
-1965,796,2,0,0,0,603.867737
-534,-545,3,0,0,0,896.817749
714,-100,4,1,0,3,46.838615
953,1799,1,1,0,18,56.394848
-704,180,2,0,0,0,910.879578
-1321,-822,3,0,0,0,692.134644
44,-707,4,0,0,0,918.217712
1367,1398,1,0,0,0,652.883850
-1921,233,2,0,0,0,629.849365
-661,-202,3,0,0,0,925.294617
251,-491,4,0,0,0,990.380737
388,687,1,0,0,0,913.426147
-690,663,2,0,0,0,831.646790
-1999,-894,3,0,0,0,594.681030
640,-482,4,0,0,0,882.753845
882,168,1,0,0,0,876.207703
-1598,671,2,0,0,0,661.283875
-441,-993,3,1,0,20,148.911331
361,-799,4,0,0,0,856.810486
1852,613,1,1,0,18,56.394848
-276,655,2,0,0,0,917.240601
-394,-576,3,0,0,0,922.521729
43,-1144,4,0,0,0,780.110596
1709,913,1,0,0,0,655.476807
-914,342,2,0,0,0,825.996704
-1870,-854,3,0,0,0,612.626831
1599,-1557,4,0,0,0,589.287109
586,1675,1,0,0,0,680.591736
-783,903,2,1,0,1,60.370934
-1893,-1050,3,0,0,0,597.953918
599,-1347,4,1,0,23,143.397568
1027,586,1,0,0,0,797.013855
-953,1080,2,0,0,0,714.224243
-1829,-466,3,0,0,0,636.953918
468,-182,4,1,0,3,46.838615
1898,289,1,0,0,0,658.098877
-483,1153,2,0,0,0,754.852173
-535,-1205,3,1,0,20,180.955139
1706,-21,4,0,0,0,665.773804
1698,338,1,0,0,0,687.646362
-1885,33,2,0,0,0,637.277649
-468,-1065,3,0,0,0,775.509888
1352,-1097,4,0,0,0,659.983948
1173,711,1,0,0,0,754.377747
-644,675,2,0,0,0,838.945618
-1141,-1088,3,0,0,0,688.349487
31,-167,4,0,0,0,1330.026001
1150,1115,1,0,0,0,709.906189
-798,982,2,0,0,0,751.365967
-1232,-1070,3,1,0,28,86.649590
1188,-1885,4,1,0,3,46.838615
739,528,1,0,0,0,872.897400
-1240,281,2,1,0,1,60.370934
-1244,-1792,3,0,0,0,595.763733
307,-696,4,1,0,3,46.838615
1175,246,1,0,0,0,792.659668
-1456,160,2,0,0,0,709.409302
-1608,-550,3,1,0,28,86.649590
472,-1342,4,0,0,0,717.780151
305,1702,1,0,0,0,688.010193
-65,1995,2,0,0,0,621.014343
-1226,-263,3,0,0,0,753.978149
236,-455,4,0,0,0,1011.453003
418,1055,1,0,0,0,808.832642
-1592,1703,2,0,0,0,576.933777
-1862,-1619,3,0,0,0,560.868958
186,-1031,4,0,0,0,805.596802
1598,1414,1,0,0,0,627.973877
-800,708,2,0,0,0,799.984619
-621,-1012,3,0,0,0,769.633057
97,-1445,4,0,0,0,712.656799
1831,70,1,1,0,3,46.838615
-1820,559,2,0,0,0,634.475952
-1905,-1507,3,0,0,0,565.306091
1315,-1608,4,0,0,0,609.674438
14,1638,1,0,0,0,703.493591
-494,937,2,0,0,0,802.430481
-1623,-605,3,1,0,28,86.649590
1449,-145,4,1,0,3,46.838615
127,1571,1,0,0,0,714.533020
-119,1274,2,0,0,0,748.166321
-1390,-908,3,0,0,0,673.556274
1638,-371,4,0,0,0,670.270508
558,119,1,0,0,0,1006.837280
-142,1366,2,0,0,0,727.873108
-1368,-74,3,0,0,0,728.575684
859,-1432,4,0,0,0,671.909912
1043,1890,1,0,0,0,624.667969
-867,897,2,0,0,0,755.441040
-1359,-192,3,0,0,0,728.053955
839,-1393,4,0,0,0,679.495911
228,973,1,0,0,0,845.384766
-1683,1252,2,0,0,0,606.898254
-1858,-77,3,0,0,0,641.190063
877,-134,4,0,0,0,853.413818
1293,87,1,0,0,0,770.682800
-466,1763,2,1,0,1,60.370934
-1439,-1993,3,0,0,0,561.927551
633,-539,4,0,0,0,872.105957
996,1622,1,0,0,0,660.561401
-408,1843,2,1,0,18,56.394848
-89,-1298,3,0,0,0,743.385376
1482,-659,4,0,0,0,680.242126
1459,300,1,1,0,3,46.838615
-1873,663,2,0,0,0,622.326233
-316,-142,3,0,0,0,1124.408081
1558,-1149,4,1,0,3,46.838615
1352,447,1,0,0,0,743.636597
-1020,1750,2,0,0,0,616.838806
-1464,-20,3,0,0,0,709.532043
1188,-147,4,0,0,0,767.292786
217,1374,1,0,0,0,750.353271
-1696,1700,2,0,0,0,568.546509
-73,-1124,3,0,0,0,784.775330
246,-1145,4,1,0,3,46.838615
668,324,1,1,0,18,56.394848
-36,1853,2,1,0,18,56.394848
-1991,-1081,3,0,0,0,585.035767
912,-172,4,0,0,0,840.446106
426,644,1,1,0,18,56.394848
-385,1080,2,1,0,1,60.370934
-276,-528,3,0,0,0,968.086182
390,-1384,4,1,0,3,46.838615
1670,700,1,1,0,18,56.394848
-855,1313,2,1,0,1,60.370934
-1605,-1211,3,0,0,0,618.947327
88,-1359,4,0,0,0,730.287109
1007,1477,1,0,0,0,678.493530
-1838,239,2,0,0,0,642.130127
-1993,-682,3,0,0,0,605.702393
106,-625,4,0,0,0,950.205444
504,104,1,1,0,0,104.829559
-1315,16,2,1,0,1,60.370934
-793,-900,3,0,0,0,766.703369
603,-1342,4,1,0,3,46.838615
830,371,1,1,0,18,56.394848
-1190,1883,2,1,0,1,60.370934
-1660,-1226,3,0,0,0,611.538940
156,-772,4,0,0,0,887.682007
967,1510,1,0,0,0,677.618591
-1923,1526,2,0,0,0,562.305969
-1944,-577,3,0,0,0,616.521423
76,-428,4,0,0,0,1058.961670
995,598,1,0,0,0,802.300171
-263,1730,2,1,0,18,56.394848
-795,-163,3,1,0,1,60.370934
423,-530,4,0,0,0,930.794067
1044,776,1,0,0,0,769.601746
-655,942,2,0,0,0,779.475769
-199,-746,3,0,0,0,893.411743
1430,-677,4,0,0,0,687.340027
876,1429,1,1,0,18,56.394848
-514,921,2,1,0,1,60.370934
-1386,-694,3,1,0,28,86.649590
972,-612,4,0,0,0,779.155640
1359,1228,1,0,0,0,671.540894
-1222,1549,2,0,0,0,624.323853
-443,-1581,3,1,0,28,86.649590
359,-1203,4,1,0,3,46.838615
445,1309,1,1,0,18,56.394848
-1568,690,2,0,0,0,664.608521
-250,-63,3,0,0,0,1209.633667
1820,-312,4,0,0,0,643.197510
326,1636,1,1,0,18,56.394848
-1530,1445,2,0,0,0,605.966736
-761,-1022,3,0,0,0,749.365967
1385,-1894,4,1,0,3,46.838615
779,1060,1,0,0,0,766.386108
-1379,1268,2,1,0,1,60.370934
-1661,-1090,3,0,0,0,622.350525
1147,-1893,4,0,0,0,591.641724
1337,42,1,0,0,0,761.581726
-1191,1809,2,0,0,0,597.802246
-445,-1911,3,0,0,0,625.895569
312,-1267,4,1,0,3,46.838615
1588,1743,1,1,0,18,56.394848
-213,1871,2,1,0,18,56.394848
-46,-1693,3,0,0,0,667.875549
1651,-1322,4,1,0,3,46.838615
1856,477,1,0,0,0,658.629089
-445,1113,2,0,0,0,766.908447
-1433,-1656,3,0,0,0,594.663574
1748,-66,4,1,0,3,46.838615
1429,98,1,0,0,0,741.953918
-1969,1161,2,1,0,1,60.370934
-314,-402,3,0,0,0,1012.842896
202,-1793,4,0,0,0,649.793823
1175,1905,1,1,0,18,56.394848
-1300,232,2,0,0,0,739.119751
-767,-1445,3,0,0,0,677.779297
1743,-1744,4,1,0,3,46.838615
1201,433,1,1,0,18,56.394848
-1530,1336,2,0,0,0,616.047119
-902,-1860,3,0,0,0,611.054565
517,-71,4,1,0,3,46.838615
360,950,1,0,0,0,840.654053
-996,1896,2,0,0,0,600.989685
-1501,-1551,3,0,0,0,598.785034
794,-211,4,0,0,0,875.530823
1209,1940,1,0,0,0,608.378357
-1081,646,2,0,0,0,752.739197
-772,-1190,3,0,0,0,718.608215
1173,-304,4,0,0,0,763.790405
581,1291,1,0,0,0,745.306763
-1555,211,2,1,0,1,60.370934
-1067,-1543,3,0,0,0,638.687195
992,-1938,4,0,0,0,596.328308
322,1223,1,0,0,0,777.691589
-1816,1277,2,0,0,0,590.788818
-1874,-920,3,0,0,0,608.252258
543,-613,4,0,0,0,876.459045
1646,197,1,0,0,0,700.072876
-1409,1445,2,0,0,0,617.868774
-1112,-23,3,0,0,0,788.402161
891,-434,4,0,0,0,821.555176
1770,588,1,0,0,0,666.364502
-434,1518,2,0,0,0,687.944153
-1094,-1211,3,1,0,28,86.649590
801,-1280,4,0,0,0,700.705811
795,129,1,1,0,3,46.838615
-1548,930,2,1,0,1,60.370934
-189,-1136,3,1,0,20,106.080276
684,-1934,4,0,0,0,613.233887
1463,587,1,0,0,0,714.488770
-303,1119,2,0,0,0,776.497986
-1381,-1672,3,0,0,0,597.446106
1856,-1388,4,1,0,3,46.838615
1639,2,1,0,0,0,703.329102
-1721,147,2,0,0,0,662.256714
-207,-1476,3,0,0,0,704.431763
1387,-180,4,0,0,0,722.646667
1050,1063,1,0,0,0,729.842102
-142,500,2,1,0,18,56.394848
-763,-1665,3,0,0,0,645.531677
282,-1973,4,1,0,3,46.838615
1112,435,1,0,0,0,794.200378
-920,696,2,0,0,0,777.910583
-1827,-180,3,0,0,0,644.855713
571,-747,4,1,0,3,46.838615
843,1341,1,0,0,0,713.112244
-1240,630,2,0,0,0,724.243042
-1357,-1772,3,0,0,0,589.276184
513,-373,4,0,0,0,950.049072
994,1151,1,0,0,0,724.772766
-311,177,2,1,0,0,186.684525
-1497,-355,3,0,0,0,695.343933
1880,-350,4,0,0,0,633.222900
1247,1041,1,0,0,0,705.890625
-1922,813,2,0,0,0,608.357422
-478,-1157,3,1,0,20,206.955597
706,-1606,4,0,0,0,657.817200
1438,328,1,0,0,0,733.552917
-545,810,2,0,0,0,825.881226
-124,-1902,3,0,0,0,634.158081
1233,-1233,4,0,0,0,659.548279
485,1611,1,0,0,0,695.843262
-1851,357,2,1,0,1,60.370934
-114,-538,3,0,0,0,991.161011
991,-1078,4,0,0,0,709.500916
420,1125,1,1,0,18,56.394848
-48,948,2,1,0,18,56.394848
-268,-534,3,0,0,0,967.268555
1691,-1252,4,0,0,0,606.029175
1707,530,1,0,0,0,678.530212
-1776,248,2,1,0,1,60.370934
-1692,-58,3,0,0,0,667.981934
203,-877,4,0,0,0,849.224976
89,1320,1,0,0,0,764.745911
-1836,1032,2,0,0,0,605.742615
-478,-211,3,0,0,0,1005.918640
1027,-1792,4,0,0,0,611.294861
316,356,1,0,0,0,1059.063477
-879,1264,2,0,0,0,695.144348
-1156,-1525,3,1,0,28,86.649590
286,-1739,4,0,0,0,656.512939
950,329,1,0,0,0,843.662231
-349,1623,2,0,0,0,673.589233
-479,-775,3,1,0,20,109.900795
1877,-1803,4,0,0,0,545.803894
1108,326,1,0,0,0,803.767578
-1253,718,2,0,0,0,713.471863
-1342,-1426,3,1,0,28,86.649590
1695,-99,4,1,0,3,46.838615
494,1585,1,0,0,0,699.649902
-39,642,2,1,0,18,56.394848
-1420,-1841,3,0,0,0,577.691162
344,-1007,4,1,0,3,46.838615
997,1280,1,0,0,0,706.231750
-268,1064,2,0,0,0,792.305054
-596,-401,3,0,0,0,914.189941
1663,-645,4,0,0,0,653.077087
36,1861,1,1,0,18,56.394848
-1183,708,2,0,0,0,726.765442
-882,-1800,3,1,0,28,86.649590
947,-16,4,0,0,0,834.598816
1423,1216,1,0,0,0,665.343750
-150,1796,2,0,0,0,650.124451
-1717,-625,3,0,0,0,646.199951
1233,-1712,4,0,0,0,605.252808
1674,383,1,0,0,0,689.978943
-514,80,2,1,0,1,60.370934
-1584,-1395,3,0,0,0,605.130005
1406,-1613,4,1,0,3,46.838615
1181,1533,1,0,0,0,655.834839
-1706,147,2,0,0,0,664.739014
-929,-954,3,0,0,0,736.727783
997,-317,4,0,0,0,805.998047
221,1342,1,0,0,0,756.811462
-994,1356,2,0,0,0,669.962524
-1219,-1257,3,0,0,0,658.359192
1348,-211,4,0,0,0,729.746948
1485,1486,1,1,0,18,56.394848
-568,867,2,0,0,0,808.673523
-1766,-736,3,0,0,0,633.084473
1861,-328,4,0,0,0,636.613953
1102,1465,1,0,0,0,671.295410
-669,271,2,1,0,1,60.370934
-1617,-28,3,0,0,0,681.066956
656,-158,4,0,0,0,932.219971
1476,1762,1,0,0,0,606.811340
-639,1370,2,0,0,0,700.378418
-728,-1787,3,0,0,0,630.657410
211,-911,4,0,0,0,838.272705
742,94,1,1,0,3,46.838615
-1779,412,2,0,0,0,646.376343
-108,-1353,3,1,0,3,46.838615
27,-1598,4,0,0,0,684.449524
835,1490,1,0,0,0,691.522644
-962,1128,2,0,0,0,705.961060
-276,-1329,3,0,0,0,731.233826
1185,-1336,4,0,0,0,652.739929
1784,728,1,0,0,0,657.068115
-575,990,2,0,0,0,780.095215
-1560,-1728,3,1,0,28,86.649590
1792,-850,4,0,0,0,622.829346
1323,246,1,1,0,3,46.838615
-467,1850,2,1,0,18,56.394848
-1131,-911,3,0,0,0,711.863708
792,-180,4,0,0,0,878.829651
621,905,1,0,0,0,818.420105
-98,1058,2,0,0,0,801.541565
-472,-1904,3,1,0,28,86.649590
941,-1139,4,1,0,3,46.838615
1367,1501,1,0,0,0,642.155945
-1798,307,2,1,0,1,60.370934
-1986,-1471,3,0,0,0,560.409180
1261,-1573,4,0,0,0,618.178467
1288,1575,1,0,0,0,641.538757
-566,36,2,0,0,0,982.285339
-518,-102,3,0,0,0,1002.928284
790,-1243,4,0,0,0,707.841736
329,457,1,0,0,0,1010.621216
-1064,1237,2,0,0,0,678.531677
-1058,-153,3,0,0,0,799.794800
251,-1804,4,0,0,0,647.112549
177,313,1,0,0,0,1139.962891
-637,42,2,0,0,0,948.186279
-1220,-1100,3,0,0,0,676.604553
1743,-1192,4,0,0,0,605.007935
1405,185,1,1,0,3,46.838615
-948,1391,2,1,0,1,60.370934
-1507,-1326,3,0,0,0,619.413330
1446,-1675,4,0,0,0,591.714478
1115,530,1,1,0,18,56.394848
-1449,907,2,1,0,1,60.370934
-1443,-1492,3,0,0,0,609.891235
1361,-1597,4,0,0,0,606.809814
1147,289,1,0,0,0,796.910400
-331,1153,2,0,0,0,766.691284
-694,-581,3,1,0,28,86.649590
744,-299,4,0,0,0,882.526733
239,400,1,0,0,0,1065.219238
-590,893,2,1,0,1,60.370934
-1079,-601,3,0,0,0,758.314819
823,-1941,4,1,0,3,46.838615
437,1077,1,0,0,0,801.951782
-1583,345,2,0,0,0,680.551819
-964,-1573,3,0,0,0,643.453735
690,-1596,4,0,0,0,660.361206
1340,947,1,0,0,0,703.005188
-682,100,2,0,0,0,926.080994
-1031,-1351,3,0,0,0,666.893005
1178,-559,4,1,0,3,46.838615
76,1545,1,0,0,0,719.901978
-1752,1906,2,0,0,0,547.302002
-140,-1386,3,0,0,0,723.792175
536,-1297,4,1,0,23,132.089661
1515,52,1,0,0,0,725.699341
-840,889,2,0,0,0,761.119568
-1437,-398,3,0,0,0,704.306519
1801,-369,4,1,0,3,46.838615
1278,1577,1,0,0,0,642.207031
-482,1742,2,0,0,0,649.302124
-1643,-328,3,0,0,0,670.963806
1310,-1235,4,1,0,3,46.838615
1292,618,1,0,0,0,741.985657
-837,1353,2,1,0,1,60.370934
-603,-607,3,0,0,0,863.842651
1713,-1345,4,0,0,0,596.224060
1584,815,1,0,0,0,679.494141
-173,1931,2,1,0,18,56.394848
-1811,-1679,3,0,0,0,560.624146
452,-1321,4,1,0,3,46.838615
1163,407,1,0,0,0,785.174805
-918,86,2,1,0,1,60.370934
-1404,-700,3,0,0,0,689.761292
1575,-1207,4,1,0,3,46.838615
280,1935,1,1,0,18,56.394848
-851,1326,2,0,0,0,688.530884
-769,-230,3,0,0,0,882.230591
1199,-1851,4,1,0,3,46.838615
402,1384,1,0,0,0,740.188232
-1221,1683,2,0,0,0,609.396729
-1387,-1539,3,1,0,28,86.649590
845,-882,4,1,0,3,46.838615
692,964,1,0,0,0,795.985962
-1856,1748,2,1,0,1,60.370934
-1011,-811,3,0,0,0,744.481262
1377,-1004,4,0,0,0,666.104553
1670,603,1,0,0,0,680.433472
-1408,1216,2,0,0,0,641.065125
-1312,-652,3,0,0,0,709.348389
1765,-491,4,0,0,0,645.450256
1573,1435,1,0,0,0,628.583313
-1240,981,2,0,0,0,687.526733
-812,-763,3,0,0,0,787.887634
667,-1191,4,0,0,0,729.612732
1498,546,1,0,0,0,711.230103
-381,763,2,0,0,0,864.775269
-1493,-1660,3,1,0,28,86.649590
1535,-25,4,0,0,0,695.961121
1197,1094,1,1,0,18,56.394848
-58,15,2,0,0,0,1630.705322
-545,-1458,3,0,0,0,692.012512
1028,-931,4,0,0,0,725.057068
1171,1828,1,0,0,0,623.061401
-771,1107,2,0,0,0,732.997559
-1185,-310,3,1,0,28,86.649590
620,-634,4,0,0,0,853.547241
170,1341,1,0,0,0,758.577759
-1413,448,2,1,0,1,60.370934
-671,-1189,3,0,0,0,729.567139
660,-1124,4,1,0,23,202.541138
1233,436,1,0,0,0,768.059753
-917,418,2,1,0,1,60.370934
-1331,-850,3,0,0,0,687.864685
1844,-581,4,0,0,0,630.101868
509,243,1,1,0,18,56.394848
-1885,516,2,0,0,0,627.026978
-1272,-702,3,1,0,28,86.649590
579,-568,4,0,0,0,879.222656
963,750,1,0,0,0,787.882568
-730,1970,2,0,0,0,606.453064
-342,-314,3,0,0,0,1039.973999
1195,-1746,4,0,0,0,604.447327
1449,623,1,0,0,0,714.327698
-516,815,2,0,0,0,829.338928
-1762,-40,3,0,0,0,656.498169
329,-1379,4,0,0,0,718.765259
1626,1307,1,0,0,0,634.401855
-1014,1813,2,1,0,1,60.370934
-441,-481,3,0,0,0,941.855225
1125,-704,4,0,0,0,737.694580
303,893,1,0,0,0,862.086182
-46,1933,2,0,0,0,630.075073
-478,-1151,3,0,0,0,755.719116
1007,-1303,4,0,0,0,675.893372
203,1243,1,0,0,0,778.877869
-1399,121,2,0,0,0,721.503235
-55,-1047,3,0,0,0,805.377380
1884,-711,4,1,0,3,46.838615
270,1219,1,0,0,0,781.380249
-652,1471,2,0,0,0,682.524658
-1871,-1072,3,0,0,0,599.052979
441,-335,4,0,0,0,989.142456
1012,195,1,0,0,0,836.523682
-1785,791,2,0,0,0,627.309692
-1429,-688,3,1,0,28,86.649590
841,-1657,4,0,0,0,641.402954
103,504,1,0,0,0,1036.694092
-1530,1592,2,1,0,1,60.370934
-1853,-901,3,0,0,0,611.982544
443,-1574,4,0,0,0,677.917664
1105,1245,1,1,0,18,56.394848
-309,1524,2,1,0,18,56.394848
-1796,-1534,3,0,0,0,573.228088
1818,-821,4,0,0,0,621.196106
1830,402,1,1,0,3,46.838615
-1406,643,2,1,0,1,60.370934
-140,-921,3,0,0,0,839.362549
385,-1639,4,0,0,0,669.569946
1053,1489,1,0,0,0,672.778564
-367,678,2,0,0,0,893.833618
-1562,-1010,3,0,0,0,641.113708
1032,-703,4,0,0,0,755.170532
1339,1387,1,0,0,0,656.912170
-1051,813,2,0,0,0,737.342407
-1098,-470,3,1,0,28,86.649590
873,-642,4,1,0,3,46.838615
1082,1315,1,0,0,0,692.377197
-1107,1528,2,0,0,0,637.040588
-1461,-230,3,1,0,28,86.649590
1666,-1011,4,0,0,0,627.842285
830,170,1,0,0,0,892.917786
-1334,795,2,0,0,0,692.676086
-1611,-1220,3,0,0,0,617.505371
783,-1923,4,1,0,3,46.838615
1807,321,1,1,0,3,46.838615
-775,252,2,0,0,0,877.858643
-1936,-1567,3,0,0,0,558.216187
695,-489,4,0,0,0,865.804688
811,112,1,0,0,0,902.783020
-1703,587,2,0,0,0,650.271057
-539,-1795,3,0,0,0,638.962646
1678,-1529,4,0,0,0,584.459961
-1146,363,2,0,0,0,766.082520
-671,-70,3,0,0,0,932.270081
660,-645,4,1,0,3,46.838615
-586,450,2,1,0,1,60.370934
-582,-49,3,1,0,1,60.370934
1400,-1157,4,0,0,0,647.921936
-1452,10,2,1,0,1,60.370934
-753,-1340,3,0,0,0,695.611694
599,-803,4,0,0,0,818.460022
-6,1012,2,0,0,0,815.543213
1900,-770,4,0,0,0,613.413513
-426,1669,2,0,0,0,663.044434
155,-1599,4,0,0,0,682.973816
-462,821,2,0,0,0,836.143127
1628,-388,4,0,0,0,671.274841
-905,128,2,0,0,0,844.841431
904,-579,4,0,0,0,798.582275
-206,1237,2,0,0,0,753.945129
475,-1886,4,0,0,0,628.407959
-1263,848,2,0,0,0,698.570190
380,-1795,4,1,0,3,46.838615
-816,869,2,1,0,1,60.370934
1094,-624,4,0,0,0,752.708984
-491,1647,2,0,0,0,663.688477
1566,-1208,4,0,0,0,623.633118
-501,464,2,0,0,0,928.782166
911,-98,4,0,0,0,844.134338
-840,970,2,0,0,0,747.357117
748,-1104,4,0,0,0,736.310852
-797,1737,2,1,0,1,60.370934
689,-1807,4,0,0,0,630.023010
-1132,1227,2,1,0,1,60.370934
178,-1346,4,1,0,3,46.838615
-1074,1688,2,0,0,0,620.352539
641,-301,4,1,0,3,46.838615
-94,1689,2,0,0,0,668.215088
908,-342,4,0,0,0,827.656921
-60,786,2,0,0,0,887.432617
919,-1037,4,0,0,0,725.326721
-735,507,2,0,0,0,851.563110
1418,-1108,4,0,0,0,650.552307
-129,1881,2,1,0,18,56.394848
104,-951,4,0,0,0,831.717773
-665,141,2,0,0,0,930.082520
620,-44,4,1,0,3,46.838615
-981,527,2,0,0,0,788.052429
148,-1450,4,0,0,0,710.826782
-1270,544,2,0,0,0,726.157104
609,-1434,4,0,0,0,691.750122
-350,1926,2,0,0,0,626.561951
809,-135,4,0,0,0,876.011475
-1992,1068,2,0,0,0,585.698730
214,-680,4,0,0,0,916.389221
-1217,386,2,0,0,0,748.794373
463,-703,4,0,0,0,868.534180
-1225,476,2,0,0,0,740.493347
62,-87,4,0,0,0,1463.806641
-1720,1399,2,1,0,1,60.370934
527,-72,4,0,0,0,1000.780396
-101,1797,2,0,0,0,650.507446
908,-1463,4,0,0,0,663.150574
-1806,1498,2,0,0,0,575.096375
575,-1914,4,0,0,0,620.665771
-185,1483,2,0,0,0,703.654846
940,-1726,4,0,0,0,625.425598
-98,855,2,0,0,0,862.167847
1114,-1671,4,0,0,0,619.275330
-919,409,2,0,0,0,817.285583
930,-1818,4,0,0,0,614.530334
-702,1421,2,1,0,1,60.370934
129,-1049,4,0,0,0,803.067688
-698,1612,2,0,0,0,657.443054
1526,-468,4,1,0,3,46.838615
-621,518,2,0,0,0,880.078613
1291,-848,4,0,0,0,694.214966
-1430,1877,2,0,0,0,573.501160
1313,-52,4,0,0,0,740.537415
-465,1249,2,0,0,0,736.479614
1535,-1983,4,0,0,0,556.295715
-1212,393,2,0,0,0,749.384644
1123,-392,4,0,0,0,769.123840
-278,1053,2,1,0,18,56.394848
1740,-583,4,1,0,3,46.838615
873,-771,4,0,0,0,775.157959
1121,-1387,4,0,0,0,653.130249
1465,-1179,4,0,0,0,638.003296
1275,-1131,4,0,0,0,666.073181
1721,-649,4,0,0,0,644.318787
612,-1461,4,0,0,0,687.006836
535,-1175,4,0,0,0,745.594788
231,-1398,4,0,0,0,718.916321
562,-175,4,1,0,3,46.838615


each generation good chromosome number
0,0,0,0,0,0,0,0,0,0,0,0,0,0,0,0,0,0,0,0,0,0,0,0,0,0,0,0,0,0,0,0,0,0,0,0,0,0,0,0,0,0,0,0,0,0,0,0,0,0,0,0,0,0,0,0,0,0,0,0,0,0,0,0,0,0,0,0,0,0,0,0,0,0,0,0,0,0,0,0,0,0,0,0,0,0,0,0,0,0,0,0,0,0,0,0,0,0,0,0,