each times' max average throughput
621.132141,621.233337,630.312012,626.807556,632.970886,628.716858,636.089478,632.972046,635.832275,646.920837,626.454468,597.513428,626.267944,631.426392,625.882019,629.009705,616.083740,629.284546,630.960205,622.039246,642.696533,625.361450,618.357971,609.653503,619.717651,618.918762,599.077942,630.129517,644.923462,633.893127,621.898071,626.858276,623.661316,612.571167,626.972595,626.729187,627.437866,645.195129,632.326721,624.253540,630.552551,620.169861,630.803528,636.554810,610.282288,639.974426,620.699097,616.701050,627.207031,622.542786,609.796326,617.266296,603.201111,628.923523,622.401367,626.503662,624.156189,613.065613,619.695618,619.695618,619.695618,619.695618,619.695618,619.695618,619.695618,619.695618,619.695618,619.695618,619.695618,619.695618,619.695618,619.695618,619.695618,619.695618,619.695618,619.695618,619.695618,619.695618,619.695618,619.695618,619.695618,619.695618,619.695618,619.695618,619.695618,619.695618,619.695618,619.695618,619.695618,619.695618,619.695618,619.695618,619.695618,619.695618,619.695618,619.695618,619.695618,619.695618,619.695618,619.695618,
avg. throughput in all test times
622.865417
avg. BS TX power in all test times
MBS area 1,MBS area 2,MBS area 3,MBS area 4,MBS area 5,CBSD 1,CBSD 2,CBSD 3,CBSD 4,CBSD 5,CBSD 6,CBSD 7,CBSD 8,CBSD 9,CBSD 10,
6.488,6.312,6.175,6.125,8.175,0.076,0.095,0.076,0.159,0.102,0.330,0.109,0.322,0.078,0.112,
avg. mbs all power,avg. cbsd enable number,avg. mbs area all power,avg. cbsd all power
48.350,2.000,33.275,1.460
avg. max avg. throughput generation number in all test times
0.180000
avg. number of relay UE
28



the max average throughput times

BS TX power
MBS area 1,MBS area 2,MBS area 3,MBS area 4,MBS area 5,CBSD 1,CBSD 2,CBSD 3,CBSD 4,CBSD 5,CBSD 6,CBSD 7,CBSD 8,CBSD 9,CBSD 10,
6.250,6.250,5.000,5.000,10.000,0.000,0.000,0.000,0.000,0.000,0.625,0.000,0.625,0.000,0.000,
max average throughput
619.695618

x,y,area,be blocked (1 : NLOS / 0 : LOS),be blocked number (>=1 : CBSD(x) / 0 : no),connect bs number (>=1 : CBSD / 0 : MBS),throughput (unit : M bps)
410,456,1,0,0,0,959.775330
1456,1031,2,0,0,0,653.018738
-1318,1461,3,0,0,0,593.375366
-1500,-1055,4,0,0,0,613.383789
246,-1128,5,0,0,0,845.246033
1676,1721,1,1,0,6,294.048615
1275,371,2,0,0,0,737.529846
-80,1947,3,0,0,0,596.130798
-1724,-1737,4,1,0,8,253.757507
1362,-868,5,0,0,0,748.776245
205,210,1,0,0,0,1172.268433
1232,643,2,1,0,6,773.957642
-332,1430,3,1,0,6,241.985428
-1124,-1768,4,1,0,8,327.057922
736,-1907,5,0,0,0,681.286255
358,1229,1,0,0,0,748.046631
1759,508,2,0,0,0,645.627136
-1426,1219,3,0,0,0,606.920715
-709,-1088,4,0,0,0,711.934875
1420,-1069,5,0,0,0,721.311951
1734,1835,1,0,0,0,554.389771
1991,828,2,0,0,0,599.057434
-380,680,3,1,0,6,268.725677
-744,-1652,4,1,0,8,370.606689
74,-1571,5,0,0,0,756.398499
1035,1961,1,1,0,6,280.464996
588,556,2,0,0,0,879.877319
-78,900,3,0,0,0,816.116211
-836,-1220,4,1,0,8,657.544617
1878,-1137,5,0,0,0,660.883484
772,933,1,1,0,6,561.071411
1389,264,2,0,0,0,719.541809
-1918,750,3,0,0,0,580.447083
-1449,-555,4,0,0,0,661.013672
109,-1598,5,1,0,8,248.271637
508,1771,1,1,0,6,292.884613
1007,34,2,0,0,0,816.808472
-1258,6,3,0,0,0,721.038269
-391,-308,4,0,0,0,987.750977
1062,-1244,5,0,0,0,745.142700
67,150,1,0,0,0,1339.645020
1883,1589,2,0,0,0,561.278076
-455,618,3,0,0,0,863.033447
-1217,-986,4,1,0,8,453.344635
1735,-1186,5,1,0,6,204.853424
303,629,1,0,0,0,922.392151
1804,1475,2,0,0,0,577.054199
-846,346,3,1,0,6,204.844330
-1479,-1932,4,0,0,0,533.352173
198,-775,5,0,0,0,950.912598
991,1681,1,0,0,0,627.461548
1391,87,2,1,0,6,473.062927
-970,1803,3,0,0,0,582.111206
-976,-1974,4,0,0,0,561.488586
981,-395,5,1,0,6,354.259216
672,1537,1,0,0,0,670.611877
644,48,2,0,0,0,944.864075
-1593,1361,3,0,0,0,575.564514
-1053,-974,4,0,0,0,683.471741
518,-358,5,0,0,0,1019.878174
729,1729,1,0,0,0,638.624573
1783,1525,2,0,0,0,575.120239
-1619,728,3,0,0,0,622.642578
-1419,-97,4,0,0,0,685.891235
1277,-271,5,1,0,6,379.232758
664,929,1,1,0,6,521.746094
1185,354,2,0,0,0,757.929810
-1504,1824,3,1,0,6,129.325256
-1558,-1051,4,0,0,0,606.415649
409,-1803,5,0,0,0,710.026733
1324,1513,1,0,0,0,618.961365
-1281,1294,3,0,0,0,615.412415
-176,-913,4,1,0,8,325.995667
438,-1220,5,0,0,0,811.942932
673,1687,1,0,0,0,647.911194
-127,480,3,0,0,0,988.460144
-1295,-1662,4,0,0,0,573.983337
354,-140,5,0,0,0,1165.006348
-1273,1380,3,1,0,6,155.331543
-1999,-1968,4,0,0,0,493.468018
1188,-1931,5,1,0,6,149.040939
-487,1209,3,0,0,0,710.883667
-47,-919,4,1,0,8,296.540955
1612,-405,5,1,0,6,319.760345
-449,493,3,1,0,6,257.760406
-1164,-1254,4,0,0,0,633.130798
1328,-1162,5,0,0,0,723.383057
-544,689,3,0,0,0,824.351196
-1039,-169,4,0,0,0,772.169006
1514,-1698,5,0,0,0,650.717957
-842,545,3,0,0,0,786.050964
-1838,-1283,4,0,0,0,556.477844
1962,-1705,5,1,0,6,153.173859
-211,587,3,0,0,0,922.713745
-389,-425,4,0,0,0,945.593933
802,-522,5,0,0,0,899.281128
-1400,1281,3,0,0,0,603.666809
-606,-1852,4,0,0,0,596.133301
-636,-111,4,1,0,8,262.285950
-163,-1463,4,0,0,0,676.061401


each generation good chromosome number
10,10,10,