each times' max average throughput
626.667480,0.000000,621.667114,0.000000,0.000000,617.314392,570.341736,0.000000,619.405457,0.000000,0.000000,0.000000,553.727600,0.000000,0.000000,0.000000,0.000000,630.357483,0.000000,0.000000,615.459106,609.195374,610.770264,0.000000,579.266541,0.000000,514.244934,554.384155,0.000000,0.000000,613.576233,606.189819,605.019104,0.000000,607.222900,625.636047,564.949036,546.525940,629.334595,0.000000,587.599548,0.000000,0.000000,585.047791,0.000000,564.872925,621.251892,586.586670,551.308228,544.446838,0.000000,0.000000,0.000000,0.000000,580.922546,588.238220,0.000000,0.000000,0.000000,619.750061,578.399109,0.000000,639.217346,618.299744,0.000000,608.100708,0.000000,586.859192,0.000000,614.733948,553.546387,625.990479,623.109558,538.719788,572.833252,0.000000,0.000000,605.823975,516.736816,0.000000,576.892944,607.629639,0.000000,622.113647,0.000000,0.000000,0.000000,588.014343,0.000000,507.122162,0.000000,0.000000,548.838501,589.319153,0.000000,551.267761,592.746460,610.834412,592.216309,619.821655,
avg. throughput in all test times
330.404663
avg. BS TX power in all test times
MBS area 1,MBS area 2,MBS area 3,MBS area 4,MBS area 5,CBSD 1,CBSD 2,CBSD 3,CBSD 4,CBSD 5,CBSD 6,CBSD 7,CBSD 8,CBSD 9,CBSD 10,
7.338,7.675,6.562,6.875,6.975,0.085,0.054,0.171,0.146,0.216,0.131,0.079,0.071,0.115,0.084,
avg. mbs all power,avg. cbsd enable number,avg. mbs area all power,avg. cbsd all power
47.125,1.000,35.425,1.153
avg. max avg. throughput generation number in all test times
0.550000
avg. number of relay UE
33

the max average throughput times

BS TX power
MBS area 1,MBS area 2,MBS area 3,MBS area 4,MBS area 5,CBSD 1,CBSD 2,CBSD 3,CBSD 4,CBSD 5,CBSD 6,CBSD 7,CBSD 8,CBSD 9,CBSD 10,
6.250,10.000,5.000,8.750,5.000,0.000,0.000,0.875,0.000,0.000,0.750,0.000,0.000,0.000,0.000,
max average throughput
619.821655

x,y,area,be blocked (1 : NLOS / 0 : LOS),be blocked number (>=1 : CBSD(x) / 0 : no),connect bs number (>=1 : CBSD / 0 : MBS),throughput (unit : M bps)
410,456,1,0,0,0,959.775330
1456,1031,2,0,0,0,720.239319
-1318,1461,3,0,0,0,593.375366
-1500,-1055,4,0,0,0,693.236084
246,-1128,5,0,0,0,745.657288
1676,1721,1,1,0,6,274.378998
1275,371,2,0,0,0,805.010803
-80,1947,3,0,0,0,596.130798
-1724,-1737,4,1,0,3,136.651306
1362,-868,5,0,0,0,649.577759
205,210,1,0,0,0,1172.268433
1232,643,2,1,0,6,695.604858
-332,1430,3,1,0,6,228.060059
-1124,-1768,4,1,0,3,174.163025
736,-1907,5,0,0,0,582.563843
358,1229,1,0,0,0,748.046631
1759,508,2,0,0,0,712.816833
-1426,1219,3,0,0,0,606.920715
-709,-1088,4,0,0,0,792.225037
1420,-1069,5,0,0,0,622.281006
1734,1835,1,0,0,0,554.389771
1991,828,2,0,0,0,666.011230
-380,680,3,1,0,6,251.893478
-744,-1652,4,1,0,3,209.807144
74,-1571,5,0,0,0,657.158936
1035,1961,1,1,0,6,262.326508
588,556,2,0,0,0,947.562927
-78,900,3,0,0,0,816.116211
-836,-1220,4,1,0,3,214.580536
1878,-1137,5,0,0,0,562.354126
772,933,1,1,0,6,509.219482
1389,264,2,0,0,0,786.979370
-1918,750,3,0,0,0,580.447083
-1449,-555,4,0,0,0,741.114929
109,-1598,5,1,0,3,313.769135
508,1771,1,1,0,6,273.346985
1007,34,2,0,0,0,884.427429
-1258,6,3,0,0,0,721.038269
-391,-308,4,0,0,0,1068.420776
1062,-1244,5,0,0,0,645.964661
67,150,1,0,0,0,1339.645020
1883,1589,2,0,0,0,627.975403
-455,618,3,0,0,0,863.033447
-1217,-986,4,1,0,3,181.615097
1735,-1186,5,1,0,3,384.293579
303,629,1,0,0,0,922.392151
1804,1475,2,0,0,0,643.866882
-846,346,3,1,0,6,194.756943
-1479,-1932,4,0,0,0,612.546143
198,-775,5,0,0,0,851.110474
991,1681,1,0,0,0,627.461548
1391,87,2,1,0,6,432.062714
-970,1803,3,0,0,0,582.111206
-976,-1974,4,0,0,0,640.956909
981,-395,5,1,0,3,509.349182
672,1537,1,0,0,0,670.611877
644,48,2,0,0,0,1012.593750
-1593,1361,3,0,0,0,575.564514
-1053,-974,4,0,0,0,763.664612
518,-358,5,0,0,0,920.000916
729,1729,1,0,0,0,638.624573
1783,1525,2,0,0,0,641.919434
-1619,728,3,0,0,0,622.642578
-1419,-97,4,0,0,0,766.093079
1277,-271,5,1,0,3,432.415070
664,929,1,1,0,6,474.757019
1185,354,2,0,0,0,825.453796
-1504,1824,3,1,0,6,125.928238
-1558,-1051,4,0,0,0,686.224121
409,-1803,5,0,0,0,611.074341
1324,1513,1,0,0,0,618.961365
-1281,1294,3,0,0,0,615.412415
-176,-913,4,1,0,3,310.890686
438,-1220,5,0,0,0,712.460815
673,1687,1,0,0,0,647.911194
-127,480,3,0,0,0,988.460144
-1295,-1662,4,0,0,0,653.557190
354,-140,5,0,0,0,1065.051270
-1273,1380,3,1,0,6,149.848007
-1999,-1968,4,0,0,0,572.167542
1188,-1931,5,1,0,3,323.412476
-487,1209,3,0,0,0,710.883667
-47,-919,4,1,0,3,335.980164
1612,-405,5,1,0,3,396.149841
-449,493,3,1,0,6,242.132538
-1164,-1254,4,0,0,0,713.096375
1328,-1162,5,0,0,0,624.338379
-544,689,3,0,0,0,824.351196
-1039,-169,4,0,0,0,852.611328
1514,-1698,5,0,0,0,552.295410
-842,545,3,0,0,0,786.050964
-1838,-1283,4,0,0,0,635.901123
1962,-1705,5,1,0,3,287.111389
-211,587,3,0,0,0,922.713745
-389,-425,4,0,0,0,1026.241455
802,-522,5,0,0,0,799.564026
-1400,1281,3,0,0,0,603.666809
-606,-1852,4,0,0,0,675.873047
-636,-111,4,1,0,3,222.180603
-163,-1463,4,0,0,0,756.225586


each generation good chromosome number
1,1,1,