each times' max average throughput
594.953308,605.329773,0.000000,0.000000,594.047852,0.000000,546.100647,621.055664,627.062317,0.000000,646.909668,0.000000,586.312927,0.000000,593.744324,529.443054,611.405762,627.248047,537.784729,0.000000,496.299774,616.620972,608.442932,0.000000,587.039307,582.046631,0.000000,0.000000,629.057678,547.252319,615.436340,506.340240,0.000000,0.000000,614.909546,0.000000,629.438843,598.301270,625.146362,0.000000,613.552124,0.000000,609.097107,548.299011,538.140991,603.156738,626.832703,0.000000,0.000000,0.000000,0.000000,0.000000,0.000000,620.497009,627.319336,0.000000,603.533447,0.000000,502.505554,568.544189,0.000000,0.000000,628.223022,599.014771,0.000000,558.127808,575.387451,612.948975,624.198975,0.000000,580.936584,616.135498,0.000000,635.960999,595.867432,0.000000,0.000000,615.903564,0.000000,585.227844,0.000000,638.177307,597.877625,511.481293,0.000000,547.475159,0.000000,641.462769,550.692444,0.000000,0.000000,612.185303,571.660400,531.365356,0.000000,625.807983,513.572754,551.206421,564.308533,561.072266,
avg. throughput in all test times
370.854858
avg. BS TX power in all test times
MBS area 1,MBS area 2,MBS area 3,MBS area 4,MBS area 5,CBSD 1,CBSD 2,CBSD 3,CBSD 4,CBSD 5,CBSD 6,CBSD 7,CBSD 8,CBSD 9,CBSD 10,
6.650,7.375,6.762,6.975,6.812,0.099,0.127,0.138,0.191,0.101,0.134,0.140,0.024,0.034,0.174,
avg. mbs all power,avg. cbsd enable number,avg. mbs area all power,avg. cbsd all power
46.425,1.000,34.575,1.161
avg. max avg. throughput generation number in all test times
0.520000
avg. number of relay UE
32

the max average throughput times

BS TX power
MBS area 1,MBS area 2,MBS area 3,MBS area 4,MBS area 5,CBSD 1,CBSD 2,CBSD 3,CBSD 4,CBSD 5,CBSD 6,CBSD 7,CBSD 8,CBSD 9,CBSD 10,
5.000,10.000,8.750,5.000,10.000,0.000,0.000,0.000,0.625,0.000,0.000,0.000,0.000,0.000,0.000,
max average throughput
561.072266

x,y,area,be blocked (1 : NLOS / 0 : LOS),be blocked number (>=1 : CBSD(x) / 0 : no),connect bs number (>=1 : CBSD / 0 : MBS),throughput (unit : M bps)
410,456,1,0,0,0,927.629028
1456,1031,2,0,0,0,720.239319
-1318,1461,3,0,0,0,673.095886
-1500,-1055,4,0,0,4,236.821365
246,-1128,5,0,0,0,845.246033
1676,1721,1,1,0,4,236.821365
1275,371,2,0,0,0,805.010803
-80,1947,3,0,0,0,675.870544
-1724,-1737,4,1,0,4,236.821365
1362,-868,5,0,0,0,748.776245
205,210,1,0,0,0,1140.086182
1232,643,2,1,0,4,236.821365
-332,1430,3,1,0,4,236.821365
-1124,-1768,4,1,0,4,236.821365
736,-1907,5,0,0,0,681.286255
358,1229,1,0,0,0,716.055603
1759,508,2,0,0,0,712.816833
-1426,1219,3,0,0,0,686.732422
-709,-1088,4,0,0,4,236.821365
1420,-1069,5,0,0,0,721.311951
1734,1835,1,0,0,0,522.967957
1991,828,2,0,0,0,666.011230
-380,680,3,1,0,4,236.821365
-744,-1652,4,1,0,4,236.821365
74,-1571,5,0,0,0,756.398499
1035,1961,1,1,0,4,236.821365
588,556,2,0,0,0,947.562927
-78,900,3,0,0,0,896.635620
-836,-1220,4,1,0,4,236.821365
1878,-1137,5,0,0,0,660.883484
772,933,1,1,0,4,236.821365
1389,264,2,0,0,0,786.979370
-1918,750,3,0,0,0,660.072021
-1449,-555,4,0,0,4,236.821365
109,-1598,5,1,0,4,236.821365
508,1771,1,1,0,4,236.821365
1007,34,2,0,0,0,884.427429
-1258,6,3,0,0,0,801.355713
-391,-308,4,0,0,0,987.750977
1062,-1244,5,0,0,0,745.142700
67,150,1,0,0,0,1307.455566
1883,1589,2,0,0,0,627.975403
-455,618,3,0,0,0,943.612854
-1217,-986,4,1,0,4,236.821365
1735,-1186,5,1,0,4,236.821365
303,629,1,0,0,0,890.259644
1804,1475,2,0,0,0,643.866882
-846,346,3,1,0,4,236.821365
-1479,-1932,4,0,0,4,236.821365
198,-775,5,0,0,0,950.912598
991,1681,1,0,0,0,595.733826
1391,87,2,1,0,4,236.821365
-970,1803,3,0,0,0,661.748962
-976,-1974,4,0,0,4,236.821365
981,-395,5,1,0,4,236.821365
672,1537,1,0,0,0,638.764038
644,48,2,0,0,0,1012.593750
-1593,1361,3,0,0,0,655.151062
-1053,-974,4,0,0,4,236.821365
518,-358,5,0,0,0,1019.878174
729,1729,1,0,0,0,606.862244
1783,1525,2,0,0,0,641.919434
-1619,728,3,0,0,0,702.549988
-1419,-97,4,0,0,0,685.891235
1277,-271,5,1,0,4,236.821365
664,929,1,1,0,4,236.821365
1185,354,2,0,0,0,825.453796
-1504,1824,3,1,0,4,236.821365
-1558,-1051,4,0,0,4,236.821365
409,-1803,5,0,0,0,710.026733
1324,1513,1,0,0,0,587.261841
-1281,1294,3,0,0,0,695.277100
-176,-913,4,1,0,4,236.821365
438,-1220,5,0,0,0,811.942932
673,1687,1,0,0,0,616.122070
-127,480,3,0,0,0,1069.130249
-1295,-1662,4,0,0,4,236.821365
354,-140,5,0,0,0,1165.006348
-1273,1380,3,1,0,4,236.821365
-1999,-1968,4,0,0,0,493.468018
1188,-1931,5,1,0,4,236.821365
-487,1209,3,0,0,0,791.170532
-47,-919,4,1,0,4,236.821365
1612,-405,5,1,0,4,236.821365
-449,493,3,1,0,4,236.821365
-1164,-1254,4,0,0,4,236.821365
1328,-1162,5,0,0,0,723.383057
-544,689,3,0,0,0,904.882568
-1039,-169,4,0,0,4,236.821365
1514,-1698,5,0,0,0,650.717957
-842,545,3,0,0,0,866.520203
-1838,-1283,4,0,0,4,236.821365
1962,-1705,5,1,0,4,236.821365
-211,587,3,0,0,0,1003.346069
-389,-425,4,0,0,0,945.593933
802,-522,5,0,0,0,899.281128
-1400,1281,3,0,0,0,683.457397
-606,-1852,4,0,0,4,236.821365
-636,-111,4,1,0,4,236.821365
-163,-1463,4,0,0,4,236.821365


each generation good chromosome number
0,0,1,