each times' max average throughput
600.040344,600.243042,600.583069,599.577087,600.111328,600.572327,600.503052,600.456665,600.000549,600.037231,
avg. throughput in all test times
600.212463
avg. BS TX power in all test times
MBS area 1,MBS area 2,MBS area 3,MBS area 4,CBSD 1,CBSD 2,CBSD 3,CBSD 4,CBSD 5,CBSD 6,
10.000,10.000,10.000,10.000,0.575,0.738,0.762,0.100,0.387,0.412,
avg. mbs all power,avg. cbsd enable number,avg. mbs area all power,avg. cbsd all power
70.000,4.000,40.000,2.975
avg. max avg. throughput generation number in all test times
11.100000
avg. number of relay UE
644



the max average throughput times

BS TX power
MBS area 1,MBS area 2,MBS area 3,MBS area 4,CBSD 1,CBSD 2,CBSD 3,CBSD 4,CBSD 5,CBSD 6,
10.000,10.000,10.000,10.000,0.875,1.000,0.875,0.000,1.000,0.000,
max average throughput
600.037231

x,y,area,be blocked (1 : NLOS / 0 : LOS),be blocked number (>=1 : CBSD(x) / 0 : no),connect bs number (>=1 : CBSD / 0 : MBS),throughput (unit : M bps)
834,1159,1,1,0,2,109.260109
-950,1903,2,0,0,0,669.928345
-192,-387,3,0,0,0,1128.520752
64,-1717,4,1,0,5,32.430943
581,5,1,0,0,0,1043.062378
-1725,1701,2,0,0,0,632.785400
-226,-759,3,1,0,5,32.430943
1462,-243,4,0,0,0,773.449158
1345,291,1,0,0,0,794.754700
-1787,1255,2,0,0,0,662.410217
-2000,-326,3,0,0,0,683.774231
661,-1134,4,0,0,0,808.341248
505,1341,1,1,0,2,109.260109
-1382,32,2,0,0,0,793.452515
-456,-941,3,0,0,0,873.744446
1373,-782,4,0,0,0,755.062378
1498,763,1,0,0,0,737.278442
-1615,1896,2,1,0,5,32.430943
-14,-1835,3,1,0,5,32.430943
1044,-90,4,0,0,0,873.137817
1982,1328,1,0,0,0,637.152222
-1409,98,2,0,0,0,787.276611
-254,-87,3,1,0,0,346.315399
947,-1232,4,0,0,0,759.856323
1691,1593,1,0,0,0,644.734192
-749,1617,2,0,0,0,720.564026
-1676,-456,3,0,0,0,727.914917
332,-898,4,1,0,3,83.883698
832,883,1,0,0,0,830.976562
-1791,1055,2,1,0,1,56.644333
-1378,-731,3,0,0,0,758.754272
1025,-1116,4,0,0,0,767.082703
860,801,1,1,0,2,109.260109
-1318,144,2,0,0,0,805.452148
-324,-1853,3,0,0,0,705.065613
1335,-621,4,1,0,3,83.883698
853,1125,1,1,0,2,109.260109
-1436,1998,2,0,0,0,628.363159
-1109,-1072,3,0,0,0,761.986206
728,-511,4,0,0,0,920.341187
1712,1748,1,0,0,0,629.963501
-1672,119,2,0,0,0,738.114563
-952,-481,3,0,0,0,868.034851
706,-1614,4,0,0,0,723.862427
142,695,1,1,0,5,32.430943
-1063,1281,2,1,0,1,56.644333
-647,-1276,3,0,0,0,783.587341
603,-1787,4,1,0,3,83.883698
992,432,1,0,0,0,863.916992
-568,1240,2,1,0,5,32.430943
-231,-813,3,0,0,0,935.045288
64,-1860,4,0,0,0,708.128479
376,1323,1,0,0,0,794.906616
-1129,626,2,0,0,0,813.122253
-1655,-1960,3,0,0,0,616.492676
781,-571,4,0,0,0,896.121887
428,327,1,0,0,0,1064.911499
-1853,1726,2,0,0,0,620.171021
-1535,-1895,3,0,0,0,630.899353
1603,-1843,4,0,0,0,630.444946
207,247,1,0,0,0,1213.054077
-922,779,2,1,0,1,56.644333
-1283,-65,3,0,0,0,814.526917
568,-182,4,1,0,5,32.430943
141,1864,1,0,0,0,706.865662
-1261,1924,2,0,0,0,647.542542
-1207,-864,3,1,0,1,56.644333
988,-355,4,0,0,0,872.596985
1246,464,1,0,0,0,804.640625
-1554,1736,2,1,0,1,56.644333
-1583,-783,3,0,0,0,723.146423
277,-997,4,1,0,5,32.430943
1214,558,1,1,0,2,109.260109
-1354,905,2,0,0,0,746.383301
-260,-1106,3,0,0,0,849.859375
626,-585,4,0,0,0,931.112671
412,879,1,0,0,0,895.143311
-1479,274,2,0,0,0,769.196960
-1619,-844,3,0,0,0,713.616028
863,-516,4,0,0,0,885.021484
145,1297,1,0,0,0,809.989624
-1409,471,2,0,0,0,772.755981
-276,-1229,3,0,0,0,820.185913
926,-1560,4,0,0,0,715.450562
1025,1723,1,0,0,0,686.834229
-649,1469,2,0,0,0,750.397095
-289,-92,3,0,0,0,1230.564575
1894,-1495,4,1,0,3,83.883698
1882,1862,1,0,0,0,607.525940
-1224,95,2,1,0,1,56.644333
-1971,-1144,3,0,0,0,650.218201
4,-1720,4,1,0,5,32.430943
1460,1883,1,0,0,0,637.518799
-1420,1478,2,0,0,0,680.516907
-1236,-1597,3,0,0,0,684.758545
475,-1383,4,1,0,3,83.883698
1168,664,1,0,0,0,801.639221
-288,317,2,1,0,0,179.514069
-358,-1156,3,0,0,0,831.702637
207,-1185,4,1,0,5,32.430943
158,268,1,0,0,0,1223.223267
-714,1806,2,0,0,0,695.943054
-642,-1419,3,1,0,5,32.430943
1771,-627,4,1,0,3,83.883698
377,26,1,1,0,0,220.054810
-406,1472,2,0,0,0,764.877808
-1935,-328,3,0,0,0,692.925415
266,-1443,4,0,0,0,776.320923
625,1133,1,1,0,2,109.260109
-1443,750,2,1,0,1,56.644333
-1443,-1649,3,1,0,5,32.430943
1613,-835,4,1,0,3,83.883698
378,304,1,1,0,0,143.320740
-1898,996,2,0,0,0,667.718933
-862,-552,3,0,0,0,879.885437
234,-1739,4,0,0,0,725.000916
1173,859,1,0,0,0,778.959351
-640,604,2,1,0,5,32.430943
-328,-1866,3,0,0,0,703.018494
1494,-96,4,0,0,0,770.552673
1313,1081,1,1,0,2,109.260109
-1010,1499,2,0,0,0,716.498047
-1130,-1392,3,0,0,0,718.820679
1455,-358,4,0,0,0,770.300659
118,1152,1,0,0,0,844.371399
-181,82,2,0,0,0,1352.557861
-408,-417,3,0,0,0,1041.885498
496,-322,4,0,0,0,1037.979858
1656,1454,1,0,0,0,659.797363
-56,1372,2,0,0,0,795.377136
-224,-173,3,1,0,0,325.711823
1666,-537,4,0,0,0,725.698608
901,1249,1,0,0,0,762.425232
-1902,1495,2,0,0,0,633.184326
-348,-1140,3,0,0,0,836.069397
311,-228,4,0,0,0,1161.283936
939,329,1,0,0,0,888.052246
-745,261,2,0,0,0,954.719238
-911,-559,3,0,0,0,867.436951
680,-400,4,0,0,0,954.891846
1724,869,1,0,0,0,697.626282
-1367,85,2,0,0,0,796.111206
-997,-729,3,0,0,0,825.838806
490,-1318,4,0,0,0,788.554138
519,1848,1,0,0,0,699.282043
-495,870,2,1,0,5,32.430943
-358,-1734,3,0,0,0,722.415833
570,-626,4,0,0,0,934.552856
512,671,1,0,0,0,935.438049
-358,221,2,1,0,0,185.051193
-1064,-1649,3,1,0,5,32.430943
1220,-1669,4,1,0,3,83.883698
1938,549,1,0,0,0,685.492188
-900,1276,2,1,0,5,32.430943
-1245,-1689,3,0,0,0,673.807861
74,-1496,4,0,0,0,770.409363
830,843,1,0,0,0,838.227234
-1129,702,2,1,0,1,56.644333
-412,-1723,3,0,0,0,722.253418
801,-1853,4,0,0,0,684.860352
656,337,1,0,0,0,974.316284
-1508,1457,2,0,0,0,673.997437
-893,-1974,3,1,0,5,32.430943
1101,-78,4,0,0,0,858.182312
1971,614,1,0,0,0,678.457397
-1162,1040,2,0,0,0,758.836975
-822,-718,3,0,0,0,861.416504
161,-610,4,0,0,0,1019.322083
927,1658,1,0,0,0,702.272583
-707,1012,2,1,0,5,32.430943
-902,-803,3,0,0,0,832.301697
664,-786,4,0,0,0,878.389709
915,1833,1,0,0,0,680.645264
-1398,1393,2,0,0,0,691.335388
-93,-603,3,0,0,0,1028.968262
1329,-612,4,0,0,0,777.138306
1583,564,1,0,0,0,737.389526
-495,1982,2,1,0,5,32.430943
-933,-1458,3,0,0,0,728.900024
295,-376,4,1,0,0,147.409012
544,627,1,0,0,0,940.232544
-1144,356,2,1,0,1,56.644333
-243,-1772,3,0,0,0,719.514587
66,-1279,4,0,0,0,815.410828
163,1183,1,0,0,0,835.528381
-1388,1934,2,0,0,0,637.779724
-422,-348,3,0,0,0,1060.470703
638,-137,4,0,0,0,1009.593201
1155,552,1,0,0,0,815.539673
-234,764,2,0,0,0,951.223145
-1972,-951,3,0,0,0,661.669678
654,-568,4,0,0,0,927.961060
1197,1231,1,0,0,0,731.219177
-887,1277,2,0,0,0,759.686157
-1814,-1495,3,0,0,0,641.378906
1202,-767,4,0,0,0,784.551514
549,1254,1,0,0,0,796.264160
-365,1844,2,0,0,0,705.268860
-1090,-247,3,0,0,0,854.586853
1093,-347,4,0,0,0,847.184692
266,1216,1,0,0,0,823.597656
-15,1815,2,0,0,0,715.303894
-477,-1257,3,1,0,5,32.430943
1524,-1946,4,0,0,0,627.065735
1294,1761,1,1,0,2,109.260109
-1760,1346,2,0,0,0,658.251343
-1321,-1541,3,0,0,0,683.306702
1920,-1871,4,0,0,0,603.960571
1613,1605,1,0,0,0,650.652283
-900,1739,2,0,0,0,693.583984
-699,-1849,3,1,0,5,32.430943
1348,-1206,4,0,0,0,716.303467
666,1753,1,1,0,5,32.430943
-750,1712,2,0,0,0,706.903870
-1114,-40,3,1,0,1,56.644333
325,-850,4,0,0,0,913.754761
67,113,1,1,0,0,643.642883
-618,1118,2,0,0,0,816.144531
-356,-1299,3,0,0,0,800.922974
1549,-1948,4,0,0,0,625.107666
1998,497,1,0,0,0,679.225159
-234,1048,2,0,0,0,866.100525
-1161,-1050,3,0,0,0,757.744751
1663,-1399,4,0,0,0,663.783081
1738,1439,1,0,0,0,653.054321
-637,310,2,0,0,0,985.907654
-23,-163,3,0,0,0,1406.865723
9,-636,4,0,0,0,1016.967102
1817,1295,1,0,0,0,656.253662
-1686,503,2,0,0,0,724.224426
-1850,-1008,3,1,0,1,56.644333
1828,-1061,4,0,0,0,671.727661
505,936,1,1,0,2,109.260109
-561,765,2,0,0,0,901.778015
-684,-1459,3,0,0,0,749.433777
1227,-205,4,0,0,0,823.770203
89,912,1,1,0,5,32.430943
-1491,84,2,0,0,0,771.266479
-1193,-1264,3,0,0,0,727.723572
304,-857,4,0,0,0,913.974121
1305,1776,1,0,0,0,659.775269
-1945,1399,2,0,0,0,635.947449
-743,-66,3,0,0,0,971.042114
517,-1484,4,0,0,0,756.629211
1705,313,1,0,0,0,728.482239
-1069,588,2,0,0,0,829.364441
-225,-1237,3,0,0,0,820.714539
1866,-1656,4,0,0,0,624.415405
1596,754,1,0,0,0,723.295410
-1908,1181,2,0,0,0,654.636841
-1959,-1245,3,0,0,0,644.983215
476,-1707,4,0,0,0,722.164307
360,1677,1,0,0,0,731.522949
-409,1146,2,0,0,0,830.130676
-1672,-735,3,0,0,0,713.516663
1470,-1834,4,1,0,3,83.883698
1751,668,1,0,0,0,706.136169
-40,1931,2,0,0,0,697.510132
-1867,-1662,3,0,0,0,623.875671
699,-1870,4,0,0,0,688.044128
182,73,1,0,0,0,1356.378418
-1672,1046,2,0,0,0,691.524902
-1814,-990,3,1,0,1,56.644333
524,-1057,4,0,0,0,839.023193
29,1465,1,1,0,5,32.430943
-783,80,2,0,0,0,955.567139
-1126,-546,3,0,0,0,822.067200
677,-1507,4,0,0,0,742.276428
49,1280,1,1,0,5,32.430943
-897,213,2,0,0,0,910.003723
-917,-1880,3,0,0,0,674.701965
437,-916,4,1,0,5,32.430943
1694,1031,1,0,0,0,689.955566
-858,1297,2,1,0,5,32.430943
-1611,-1720,3,0,0,0,640.655579
1557,-86,4,0,0,0,758.848572
1984,1748,1,0,0,0,607.875488
-567,1833,2,0,0,0,699.401978
-1210,-1292,3,0,0,0,722.486816
1073,-1253,4,1,0,3,83.883698
1112,1302,1,0,0,0,732.019836
-1488,562,2,0,0,0,753.159180
-633,-874,3,0,0,0,864.671631
1155,-895,4,1,0,3,83.883698
629,1557,1,0,0,0,737.597595
-1078,1779,2,0,0,0,676.290649
-737,-1118,3,0,0,0,802.599854
66,-63,4,1,0,0,800.292114
1930,733,1,0,0,0,678.445557
-207,766,2,0,0,0,953.233521
-983,-807,3,0,0,0,817.410828
1157,-448,4,0,0,0,824.534302
441,178,1,0,0,0,1100.815674
-150,1685,2,1,0,5,32.430943
-1711,-1302,3,1,0,1,56.644333
361,-1828,4,1,0,5,32.430943
1727,1752,1,0,0,0,628.411682
-311,126,2,0,0,0,1201.401245
-666,-1391,3,0,0,0,762.024048
85,-917,4,0,0,0,910.319946
1348,1806,1,0,0,0,653.408813
-1806,1061,2,1,0,1,56.644333
-846,-389,3,0,0,0,907.142334
640,-689,4,1,0,3,83.883698
1931,493,1,0,0,0,688.536194
-1745,922,2,0,0,0,691.326050
-512,-221,3,0,0,0,1054.895020
627,-725,4,1,0,3,83.883698
419,220,1,0,0,0,1102.228027
-1687,1758,2,1,0,1,56.644333
-522,-1432,3,0,0,0,765.402832
635,-767,4,0,0,0,887.826904
1235,1433,1,0,0,0,703.450867
-1792,1276,2,0,0,0,660.298035
-1428,-424,3,0,0,0,771.987854
1143,-437,4,1,0,3,83.883698
1559,1482,1,0,0,0,666.715393
-1726,1823,2,1,0,1,56.644333
-896,-753,3,0,0,0,841.315125
1877,-1894,4,1,0,5,32.430943
717,621,1,0,0,0,901.812622
-1519,459,2,1,0,1,56.644333
-1151,-102,3,0,0,0,844.997375
730,-341,4,1,0,3,83.883698
1872,1026,1,0,0,0,668.885193
-1417,38,2,0,0,0,786.239929
-128,-298,3,0,0,0,1211.218750
297,-1276,4,1,0,3,83.883698
1612,261,1,0,0,0,745.610657
-700,1779,2,1,0,5,32.430943
-802,-566,3,0,0,0,891.944031
1240,-1085,4,0,0,0,743.043213
1675,1792,1,0,0,0,629.241333
-13,30,2,0,0,0,1873.243042
-1266,-676,3,0,0,0,782.681702
1525,-280,4,0,0,0,760.488159
723,1351,1,0,0,0,763.877197
-967,614,2,0,0,0,847.510193
-1215,-512,3,1,0,1,56.644333
900,-251,4,1,0,3,83.883698
1450,221,1,0,0,0,776.431946
-75,592,2,0,0,0,1035.369751
-1874,-492,3,0,0,0,696.608521
1956,-1935,4,0,0,0,596.584656
1494,439,1,0,0,0,759.255737
-298,235,2,0,0,0,1165.891968
-286,-733,3,1,0,5,32.430943
1932,-940,4,0,0,0,667.042358
265,1468,1,0,0,0,771.581543
-301,552,2,0,0,0,1020.308899
-198,-206,3,1,0,0,322.039642
1066,-154,4,1,0,5,32.430943
864,1441,1,0,0,0,737.440674
-1946,1207,2,1,0,1,56.644333
-1971,-1821,3,0,0,0,603.687073
1538,-284,4,0,0,0,757.998169
352,1260,1,0,0,0,809.293213
-1523,1666,2,0,0,0,652.950012
-1748,-1552,3,0,0,0,642.972534
409,-225,4,0,0,0,1106.180054
263,1751,1,0,0,0,722.404236
-1784,963,2,0,0,0,683.643616
-606,-1427,3,0,0,0,760.515686
308,-362,4,1,0,0,148.933777
1727,540,1,0,0,0,716.190247
-1868,1496,2,0,0,0,636.265381
-1472,-393,3,1,0,1,56.644333
749,-321,4,0,0,0,945.561279
486,98,1,0,0,0,1088.810913
-1695,324,2,0,0,0,729.775879
-1098,-314,3,1,0,1,56.644333
287,-340,4,0,0,0,1120.017212
219,221,1,1,0,0,289.612885
-187,560,2,1,0,5,32.430943
-11,-1407,3,0,0,0,788.369385
583,-1258,4,0,0,0,792.590027
362,992,1,1,0,2,109.260109
-1091,1963,2,1,0,5,32.430943
-979,-748,3,0,0,0,826.548157
1265,-755,4,0,0,0,775.175110
1606,680,1,0,0,0,726.745056
-1089,127,2,1,0,1,56.644333
-327,-288,3,0,0,0,1126.038574
590,-1008,4,0,0,0,841.910767
1541,998,1,1,0,2,109.260109
-1634,461,2,1,0,1,56.644333
-1724,-144,3,0,0,0,729.059937
301,-1859,4,1,0,3,83.883698
1357,147,1,0,0,0,797.099182
-631,1066,2,1,0,5,32.430943
-561,-1706,3,1,0,5,32.430943
1022,-1869,4,0,0,0,669.495361
667,1478,1,1,0,5,32.430943
-258,241,2,0,0,0,1186.739502
-389,-103,3,1,0,0,199.225357
858,-1707,4,1,0,3,83.883698
1086,1589,1,0,0,0,698.512878
-437,1143,2,1,0,5,32.430943
-1809,-43,3,1,0,1,56.644333
1315,-1210,4,1,0,3,83.883698
169,103,1,1,0,0,470.245148
-919,283,2,1,0,1,56.644333
-735,-1407,3,0,0,0,753.733887
1490,-53,4,0,0,0,771.732605
1989,1943,1,0,0,0,593.593994
-291,254,2,0,0,0,1160.807617
-1406,-46,3,0,0,0,788.428711
1217,-935,4,0,0,0,763.426575
1319,633,1,0,0,0,777.160767
-422,1820,2,0,0,0,707.025146
-578,-1327,3,0,0,0,780.242310
1803,-1127,4,0,0,0,670.022217
711,1764,1,0,0,0,701.919006
-1572,1330,2,0,0,0,679.188965
-519,-1523,3,0,0,0,749.856934
519,-533,4,0,0,0,971.809387
787,1993,1,0,0,0,667.812317
-629,302,2,0,0,0,990.287781
-1258,-896,3,0,0,0,761.605713
1300,-483,4,1,0,3,83.883698
163,1870,1,0,0,0,705.678345
-493,1084,2,0,0,0,836.332642
-1951,-497,3,1,0,1,56.644333
1030,-707,4,0,0,0,822.549377
1884,1729,1,0,0,0,617.397888
-25,332,2,0,0,0,1203.658081
-187,-1772,3,1,0,5,32.430943
1158,-552,4,0,0,0,814.932007
924,792,1,0,0,0,830.087463
-542,180,2,1,0,5,32.430943
-1218,-685,3,0,0,0,790.343506
970,-1850,4,1,0,3,83.883698
1706,925,1,0,0,0,696.146973
-1091,1551,2,0,0,0,702.765747
-46,-606,3,1,0,5,32.430943
247,-683,4,0,0,0,978.729980
1267,64,1,0,0,0,818.137268
-1745,1579,2,1,0,1,56.644333
-454,-1870,3,0,0,0,698.563171
361,-1705,4,0,0,0,726.947510
79,61,1,0,0,0,1551.228394
-625,1724,2,0,0,0,712.362427
-1722,-481,3,1,0,1,56.644333
1689,-1330,4,0,0,0,666.875488
1871,1039,1,0,0,0,668.162903
-1566,714,2,0,0,0,730.540710
-655,-457,3,0,0,0,951.353516
144,-484,4,1,0,0,132.615509
1629,390,1,0,0,0,738.319153
-76,297,2,0,0,0,1227.462036
-768,-971,3,0,0,0,825.160278
1382,-564,4,0,0,0,771.402954
196,1207,1,1,0,5,32.430943
-459,972,2,0,0,0,865.800659
-1839,-1079,3,0,0,0,669.227356
1900,-802,4,0,0,0,678.747437
1601,1914,1,1,0,2,109.260109
-1729,1785,2,0,0,0,625.531860
-1516,-1813,3,0,0,0,639.849121
951,-1113,4,0,0,0,776.978333
1892,1048,1,1,0,5,32.430943
-1977,442,2,0,0,0,683.857117
-96,-1581,3,0,0,0,754.367371
203,-1883,4,0,0,0,703.123901
1219,1905,1,1,0,5,32.430943
-1449,332,2,1,0,1,56.644333
-257,-871,3,0,0,0,914.353333
880,-1549,4,1,0,3,83.883698
1871,116,1,0,0,0,706.059937
-766,1507,2,0,0,0,735.682373
-1735,-481,3,1,0,1,56.644333
1700,-1649,4,1,0,3,83.883698
576,200,1,1,0,5,32.430943
-750,880,2,1,0,5,32.430943
-609,-750,3,1,0,5,32.430943
496,-1746,4,0,0,0,715.300354
1217,228,1,0,0,0,825.122131
-1570,94,2,0,0,0,756.385620
-1406,-1539,3,1,0,5,32.430943
1145,-1193,4,0,0,0,742.019409
1873,411,1,1,0,5,32.430943
-1282,1406,2,0,0,0,701.794495
-618,-868,3,0,0,0,868.328369
480,-39,4,0,0,0,1097.191772
721,1919,1,0,0,0,680.465393
-1623,538,2,0,0,0,732.420288
-197,-1200,3,0,0,0,830.304260
1336,-27,4,0,0,0,803.199768
1433,199,1,1,0,5,32.430943
-1720,547,2,1,0,1,56.644333
-1682,-1930,3,1,0,5,32.430943
440,-378,4,1,0,0,99.594231
414,684,1,0,0,0,951.042725
-654,1820,2,0,0,0,697.136536
-52,-356,3,0,0,0,1181.294922
728,-965,4,1,0,3,83.883698
985,942,1,1,0,2,109.260109
-342,76,2,1,0,0,246.298828
-1819,-1080,3,0,0,0,671.476624
1334,-1822,4,0,0,0,652.833679
9,551,1,0,0,0,1058.321045
-1282,204,2,0,0,0,811.524780
-554,-1368,3,0,0,0,774.640808
1261,-1592,4,0,0,0,683.137878
572,1135,1,0,0,0,817.600037
-466,1912,2,1,0,5,32.430943
-808,-1716,3,0,0,0,702.700623
50,-843,4,0,0,0,935.283630
1568,176,1,1,0,2,109.260109
-781,1130,2,0,0,0,795.275146
-1946,-188,3,0,0,0,694.027405
908,-133,4,0,0,0,911.335693
337,235,1,0,0,0,1143.009155
-121,185,2,0,0,0,1321.808228
-171,-28,3,0,0,0,1392.068970
515,-902,4,0,0,0,875.677734
553,1992,1,1,0,5,32.430943
-237,75,2,0,0,0,1287.948364
-1493,-870,3,1,0,1,56.644333
128,-636,4,0,0,0,1011.272766
877,916,1,0,0,0,818.244629
-824,187,2,0,0,0,935.122986
-1893,-895,3,0,0,0,674.402161
668,-1627,4,0,0,0,724.328674
455,1773,1,0,0,0,712.885010
-1223,1721,2,0,0,0,672.039490
-93,-1904,3,1,0,3,83.883698
1448,-1113,4,0,0,0,713.531250
1503,1559,1,0,0,0,664.793213
-759,1967,2,1,0,5,32.430943
-1431,-1246,3,0,0,0,702.590942
1406,-990,4,0,0,0,730.793579
1413,903,1,0,0,0,738.000671
-1942,372,2,0,0,0,690.789185
-204,-1520,3,0,0,0,763.627502
1318,-139,4,0,0,0,805.567810
213,1550,1,0,0,0,757.894287
-924,157,2,0,0,0,905.263245
-1353,-5,3,0,0,0,799.622070
856,-1546,4,1,0,3,83.883698
98,782,1,1,0,5,32.430943
-1368,691,2,1,0,1,56.644333
-1817,-1794,3,1,0,5,32.430943
1901,-1233,4,0,0,0,651.861511
459,482,1,1,0,5,32.430943
-927,1663,2,1,0,5,32.430943
-1421,-1490,3,0,0,0,679.214111
577,-1774,4,0,0,0,707.455811
1667,666,1,1,0,5,32.430943
-187,763,2,1,0,5,32.430943
-56,-683,3,0,0,0,995.477783
418,-62,4,0,0,0,1134.891113
739,476,1,0,0,0,923.732178
-101,293,2,0,0,0,1224.327393
-356,-1542,3,0,0,0,754.612183
1988,-1235,4,0,0,0,642.629333
268,790,1,0,0,0,938.805725
-1799,334,2,1,0,1,56.644333
-1728,-21,3,0,0,0,729.370972
52,-621,4,0,0,0,1022.869629
879,51,1,0,0,0,923.258484
-1410,261,2,0,0,0,782.926697
-419,-365,3,0,0,0,1055.917969
784,-1779,4,0,0,0,695.637329
1562,365,1,1,0,2,109.260109
-1038,355,2,1,0,1,56.644333
-1563,-858,3,1,0,1,56.644333
121,-799,4,0,0,0,947.967896
851,1885,1,1,0,5,32.430943
-1184,1758,2,0,0,0,670.926392
-1896,-957,3,0,0,0,670.347290
1469,-669,4,0,0,0,748.938293
370,1660,1,0,0,0,733.952148
-1213,1980,2,0,0,0,644.875488
-1857,-1945,3,0,0,0,603.085083
1926,-1898,4,0,0,0,601.514404
593,1274,1,0,0,0,788.735840
-370,1601,2,1,0,5,32.430943
-1544,-285,3,0,0,0,756.884094
1101,-1705,4,1,0,3,83.883698
483,775,1,1,0,2,109.260109
-816,1744,2,1,0,5,32.430943
-1020,-1548,3,0,0,0,709.248779
861,-839,4,0,0,0,833.606384
226,1754,1,0,0,0,722.751160
-1096,29,2,0,0,0,860.111816
-1419,-1339,3,0,0,0,694.619202
1083,-570,4,1,0,3,83.883698
1506,98,1,1,0,2,109.260109
-903,1139,2,1,0,5,32.430943
-1134,-740,3,1,0,1,56.644333
1980,-1888,4,1,0,5,32.430943
660,1602,1,1,0,5,32.430943
-896,252,2,0,0,0,907.261475
-654,-1077,3,1,0,5,32.430943
1697,-317,4,0,0,0,729.665344
731,1674,1,0,0,0,713.481140
-1072,11,2,0,0,0,866.570007
-171,-1089,3,0,0,0,858.551636
1818,-75,4,0,0,0,714.596985
782,1108,1,0,0,0,798.952332
-1870,1234,2,0,0,0,655.078613
-1716,-361,3,0,0,0,725.182434
1301,-1994,4,1,0,5,32.430943
351,427,1,1,0,5,32.430943
-1616,1955,2,1,0,5,32.430943
-1286,-83,3,0,0,0,813.626343
1946,-264,4,1,0,3,83.883698
1310,632,1,1,0,2,109.260109
-79,1828,2,0,0,0,713.001526
-677,-185,3,0,0,0,988.607483
916,-1812,4,0,0,0,683.213745
841,1172,1,0,0,0,781.215454
-1376,1910,2,0,0,0,640.970154
-1424,-1084,3,0,0,0,719.344727
841,-1321,4,1,0,3,83.883698
1272,1871,1,0,0,0,652.292175
-1221,161,2,0,0,0,826.660095
-1406,-1870,3,0,0,0,642.724060
1907,-1625,4,0,0,0,623.208435
1161,1374,1,0,0,0,717.877502
-343,1107,2,0,0,0,844.149475
-1222,-660,3,1,0,1,56.644333
1476,-1145,4,0,0,0,707.061340
1029,507,1,0,0,0,847.093689
-1403,461,2,0,0,0,774.470276
-937,-1612,3,0,0,0,707.599426
144,-1646,4,0,0,0,742.241150
1048,1696,1,1,0,5,32.430943
-1001,130,2,0,0,0,883.904480
-1925,-1173,3,0,0,0,653.329590
1045,-1199,4,0,0,0,753.179871
1440,169,1,0,0,0,779.753052
-1326,1730,2,0,0,0,662.926514
-1452,-415,3,0,0,0,768.058472
1102,-1030,4,0,0,0,768.387878
224,1159,1,0,0,0,838.854675
-989,518,2,0,0,0,854.894226
-1381,-203,3,1,0,1,56.644333
938,-422,4,1,0,3,83.883698
760,1876,1,0,0,0,684.098328
-57,216,2,0,0,0,1318.773071
-1792,-1491,3,1,0,1,56.644333
1641,-1997,4,0,0,0,614.341675
1019,205,1,0,0,0,875.470154
-1305,1895,2,0,0,0,647.484436
-1091,-1884,3,0,0,0,663.270752
689,-1045,4,0,0,0,821.997925
955,830,1,1,0,2,109.260109
-1447,1105,2,0,0,0,714.420288
-130,-1554,3,0,0,0,758.838501
1375,-10,4,1,0,5,32.430943
35,1165,1,1,0,5,32.430943
-1628,59,2,0,0,0,746.300903
-170,-1383,3,0,0,0,791.166992
60,-445,4,0,0,0,1117.378174
342,896,1,0,0,0,898.639160
-333,1311,2,0,0,0,799.702637
-1057,-1726,3,0,0,0,684.121155
1935,-659,4,1,0,3,83.883698
1160,914,1,1,0,2,109.260109
-469,641,2,1,0,5,32.430943
-1851,-6,3,1,0,1,56.644333
1899,-1005,4,1,0,3,83.883698
804,222,1,1,0,2,109.260109
-1524,145,2,0,0,0,764.142212
-1628,-353,3,0,0,0,739.899231
926,-1068,4,0,0,0,787.045471
710,896,1,0,0,0,848.078064
-518,1805,2,0,0,0,705.561401
-1510,-936,3,0,0,0,721.446350
1591,-1880,4,0,0,0,628.090942
1417,1518,1,0,0,0,676.777588
-406,18,2,0,0,0,1146.147949
-14,-312,3,0,0,0,1222.106934
589,-366,4,0,0,0,992.065369
90,674,1,0,0,0,997.719788
-1841,1789,2,1,0,1,56.644333
-67,-1094,3,0,0,0,860.199585
839,-372,4,0,0,0,911.309631
1978,1550,1,0,0,0,622.356262
-1948,389,2,0,0,0,689.468018
-1198,-1656,3,0,0,0,681.313660
413,-1331,4,1,0,3,83.883698
1174,1975,1,1,0,5,32.430943
-363,1622,2,1,0,5,32.430943
-1354,-1347,3,0,0,0,700.716614
1782,-1865,4,0,0,0,614.920837
1875,1507,1,0,0,0,634.798889
-826,1815,2,0,0,0,688.367310
-1019,-1603,3,0,0,0,702.285400
731,-1561,4,0,0,0,730.109314
23,961,1,0,0,0,897.972168
-1361,627,2,0,0,0,770.284058
-735,-940,3,1,0,5,32.430943
1508,-1668,4,0,0,0,654.041077
1445,1315,1,0,0,0,694.214966
-1857,1471,2,1,0,1,56.644333
-1657,-1202,3,0,0,0,680.872559
912,-1960,4,0,0,0,665.286011
1701,1816,1,0,0,0,625.173218
-367,1777,2,0,0,0,715.392212
-275,-556,3,0,0,0,1024.206177
1354,-255,4,1,0,3,83.883698
403,321,1,0,0,0,1077.721436
-1455,246,2,1,0,1,56.644333
-625,-664,3,0,0,0,913.165283
990,-1172,4,0,0,0,763.525879
425,463,1,0,0,0,1020.422363
-362,455,2,0,0,0,1042.856201
-1633,-1267,3,0,0,0,678.117615
607,-1499,4,0,0,0,748.392639
423,1941,1,0,0,0,689.453918
-164,135,2,0,0,0,1333.310059
-251,-1,3,0,0,0,1285.155884
1967,-1867,4,0,0,0,600.683533
1857,1525,1,1,0,5,32.430943
-654,287,2,0,0,0,983.567322
-1196,-952,3,1,0,1,56.644333
750,-1249,4,0,0,0,778.369995
118,1322,1,0,0,0,805.145874
-1865,660,2,1,0,1,56.644333
-1487,-1503,3,1,0,5,32.430943
1284,-1292,4,0,0,0,714.286926
1836,409,1,0,0,0,705.081970
-1797,1957,2,0,0,0,606.513733
-1576,-435,3,0,0,0,745.270203
78,-1938,4,0,0,0,696.304321
1503,402,1,0,0,0,759.501343
-122,1660,2,0,0,0,740.132568
-1676,-1460,3,1,0,1,56.644333
786,-1556,4,0,0,0,726.872437
546,1447,1,1,0,5,32.430943
-1523,1820,2,0,0,0,638.662109
-1641,-947,3,1,0,1,56.644333
442,-268,4,0,0,0,1076.780518
1100,369,1,0,0,0,843.821716
-1338,1677,2,0,0,0,667.465454
-1225,-49,3,1,0,1,56.644333
137,-1570,4,0,0,0,755.810608
1572,512,1,1,0,5,32.430943
-47,742,2,0,0,0,971.985779
-1033,-369,3,1,0,1,56.644333
1949,-1108,4,1,0,3,83.883698
1986,700,1,0,0,0,672.790588
-498,758,2,1,0,5,32.430943
-1554,-1152,3,0,0,0,697.063599
388,-912,4,0,0,0,889.172607
329,555,1,0,0,0,1012.861633
-1519,533,2,0,0,0,749.715332
-79,-993,3,1,0,5,32.430943
1117,-1965,4,0,0,0,652.563416
1543,1589,1,1,0,5,32.430943
-1795,1874,2,0,0,0,613.217896
-238,-164,3,0,0,0,1244.455200
880,-332,4,0,0,0,904.250671
1108,911,1,1,0,2,109.260109
-77,1637,2,1,0,5,32.430943
-1425,-1694,3,0,0,0,658.515198
1921,-676,4,0,0,0,682.355347
1351,363,1,0,0,0,790.033264
-1938,1930,2,0,0,0,598.271667
-968,-1293,3,1,0,5,32.430943
768,-1037,4,0,0,0,813.236389
461,625,1,1,0,2,109.260109
-876,1546,2,0,0,0,721.387695
-1701,-1446,3,0,0,0,656.087158
225,-963,4,0,0,0,889.803345
632,1117,1,0,0,0,814.805969
-164,617,2,0,0,0,1015.899292
-1156,-1944,3,0,0,0,652.379944
717,-1896,4,0,0,0,683.682556
84,509,1,0,0,0,1077.348633
-867,1305,2,0,0,0,757.493652
-1782,-1460,3,0,0,0,647.132568
1104,-179,4,0,0,0,854.385681
599,1476,1,1,0,5,32.430943
-315,1783,2,0,0,0,716.007263
-295,-1488,3,0,0,0,766.764893
49,-1669,4,0,0,0,739.230591
1302,1204,1,1,0,2,109.260109
-1119,1388,2,0,0,0,720.428101
-716,-878,3,1,0,5,32.430943
1910,-1978,4,0,0,0,596.764709
174,324,1,0,0,0,1174.960205
-1735,1791,2,0,0,0,624.561462
-1159,-1375,3,0,0,0,717.961365
1852,-1913,4,0,0,0,605.902588
174,1122,1,0,0,0,850.046143
-1014,507,2,0,0,0,850.483643
-1724,-263,3,1,0,1,56.644333
198,-561,4,0,0,0,1036.248535
174,1477,1,0,0,0,772.451721
-1041,1021,2,0,0,0,778.125244
-1770,-556,3,0,0,0,709.026855
865,-1100,4,0,0,0,789.941162
658,1458,1,1,0,2,109.260109
-615,1404,2,1,0,5,32.430943
-1596,-1786,3,0,0,0,636.027100
678,-1852,4,1,0,3,83.883698
1967,1587,1,1,0,5,32.430943
-516,363,2,0,0,0,1019.320618
-1674,-1920,3,0,0,0,618.494690
740,-1855,4,1,0,3,83.883698
1920,1774,1,1,0,5,32.430943
-1790,1204,2,0,0,0,665.886780
-1393,-474,3,0,0,0,775.514648
858,-1123,4,0,0,0,787.103271
1730,1212,1,1,0,2,109.260109
-1256,626,2,1,0,1,56.644333
-1820,-1329,3,0,0,0,653.411316
228,-455,4,1,0,0,130.591614
988,1156,1,0,0,0,766.061035
-64,1896,2,1,0,5,32.430943
-862,-924,3,0,0,0,819.264221
642,-755,4,1,0,3,83.883698
1085,1611,1,1,0,2,109.260109
-253,1882,2,0,0,0,702.366089
-178,-1786,3,0,0,0,718.512817
1905,-1995,4,1,0,5,32.430943
1605,1247,1,0,0,0,682.914551
-1857,1132,2,1,0,1,56.644333
-450,-1549,3,1,0,5,32.430943
626,-715,4,0,0,0,901.274109
1575,1629,1,0,0,0,651.856995
-1553,625,2,0,0,0,738.488159
-859,-1196,3,0,0,0,775.304504
334,-1504,4,1,0,3,83.883698
1107,742,1,0,0,0,803.975342
-1926,208,2,0,0,0,696.654297
-914,-287,3,1,0,1,56.644333
1881,-1614,4,0,0,0,626.283264
715,805,1,0,0,0,865.329956
-1655,1831,2,0,0,0,627.484009
-1412,-221,3,1,0,1,56.644333
422,-1052,4,1,0,5,32.430943
263,587,1,0,0,0,1013.739563
-165,1877,2,0,0,0,704.589966
-908,-1871,3,0,0,0,676.350891
618,-133,4,1,0,3,83.883698
1673,628,1,0,0,0,719.771118
-1134,908,2,0,0,0,779.189941
-1728,-1730,3,0,0,0,630.143677
208,-1711,4,1,0,3,83.883698
1772,846,1,0,0,0,692.780884
-601,792,2,1,0,5,32.430943
-1063,-1355,3,0,0,0,730.354858
1925,-1973,4,0,0,0,596.057007
70,1159,1,0,0,0,843.606140
-163,657,2,0,0,0,999.021729
-1185,-23,3,0,0,0,837.693298
1137,-634,4,0,0,0,810.709595
135,1523,1,0,0,0,764.500793
-316,890,2,1,0,5,32.430943
-226,-804,3,1,0,5,32.430943
349,-1810,4,0,0,0,710.875122
1145,1254,1,0,0,0,734.396973
-1179,1004,2,0,0,0,760.844971
-703,-437,3,1,0,5,32.430943
759,-1290,4,0,0,0,770.621277
259,158,1,0,0,0,1230.470581
-310,1889,2,0,0,0,700.062805
-1762,-1434,3,0,0,0,651.115540
1581,-1449,4,0,0,0,667.571350
1801,294,1,0,0,0,713.764771
-977,1664,2,0,0,0,697.776672
-573,-259,3,1,0,5,32.430943
1749,-930,4,0,0,0,690.272217
1137,1151,1,0,0,0,748.276489
-1392,1235,2,0,0,0,708.161987
-42,-1591,3,0,0,0,752.986023
1374,-1267,4,0,0,0,706.915222
1692,172,1,0,0,0,733.954956
-1476,1076,2,0,0,0,713.493469
-526,-1717,3,0,0,0,718.366821
1657,-1058,4,0,0,0,692.435791
1219,1312,1,0,0,0,719.144592
-857,1002,2,0,0,0,807.047668
-1333,-1329,3,0,0,0,704.881714
619,-954,4,0,0,0,849.587402
1788,926,1,0,0,0,685.591736
-502,1832,2,0,0,0,702.275085
-720,-28,3,0,0,0,981.019531
848,-1211,4,0,0,0,774.161499
1209,64,1,1,0,2,109.260109
-934,58,2,0,0,0,905.707458
-180,-947,3,0,0,0,897.170593
1778,-1326,4,0,0,0,657.953918
1320,551,1,0,0,0,783.642334
-346,595,2,0,0,0,994.219971
-406,-1087,3,1,0,5,32.430943
474,-826,4,0,0,0,900.661438
126,1682,1,1,0,5,32.430943
-1550,858,2,0,0,0,722.244629
-538,-608,3,0,0,0,946.635864
1716,-618,4,0,0,0,713.913513
1712,166,1,0,0,0,730.717773
-1959,1645,2,1,0,1,56.644333
-113,-1146,3,1,0,5,32.430943
313,-1022,4,0,0,0,867.430603
737,439,1,0,0,0,930.761902
-712,1346,2,1,0,5,32.430943
-429,-1510,3,0,0,0,756.943542
1708,-1244,4,0,0,0,671.807739
565,1728,1,0,0,0,714.836792
-1080,1825,2,0,0,0,670.780029
-352,-1629,3,1,0,5,32.430943
1611,-668,4,0,0,0,726.749329
243,1723,1,1,0,5,32.430943
-1365,334,2,1,0,1,56.644333
-756,-1382,3,1,0,5,32.430943
1557,-1499,4,0,0,0,665.349731
1977,824,1,0,0,0,667.934021
-601,590,2,0,0,0,936.063049
-675,-631,3,0,0,0,909.360168
1298,-1664,4,1,0,3,83.883698
1874,1038,1,0,0,0,667.877563
-2,599,2,0,0,0,1034.274292
-561,-1215,3,0,0,0,802.772034
1461,-960,4,0,0,0,726.064209
223,300,1,0,0,0,1170.263184
-807,1071,2,0,0,0,802.184082
-1863,-715,3,0,0,0,688.170044
1835,-691,4,1,0,3,83.883698
342,800,1,0,0,0,926.695129
-887,1495,2,0,0,0,727.683289
-1344,-1791,3,0,0,0,655.239075
41,-637,4,0,0,0,1015.947144
170,981,1,0,0,0,887.863586
-356,1244,2,0,0,0,812.454834
-593,-1130,3,0,0,0,816.435486
1956,-1387,4,0,0,0,635.712158
553,834,1,0,0,0,886.403564
-1805,1477,2,1,0,1,56.644333
-1590,-122,3,0,0,0,752.424133
1692,-876,4,1,0,3,83.883698
788,464,1,0,0,0,912.350403
-705,1029,2,0,0,0,823.000000
-1528,-608,3,0,0,0,743.592468
1585,-1321,4,1,0,3,83.883698
1839,491,1,0,0,0,701.690125
-1140,1522,2,0,0,0,701.963745
-1580,-1549,3,0,0,0,658.645081
625,-503,4,0,0,0,950.058411
293,187,1,0,0,0,1191.237183
-1648,1168,2,0,0,0,684.687744
-539,-416,3,1,0,5,32.430943
899,-630,4,1,0,3,83.883698
1888,375,1,1,0,2,109.260109
-1361,911,2,1,0,1,56.644333
-327,-1347,3,0,0,0,792.673340
19,-1923,4,0,0,0,698.745972
616,268,1,0,0,0,1001.220703
-92,1741,2,1,0,5,32.430943
-1557,-1236,3,0,0,0,689.253662
595,-769,4,0,0,0,894.685486
1737,1684,1,0,0,0,633.174316
-1055,1334,2,1,0,5,32.430943
-826,-137,3,0,0,0,937.749451
150,-778,4,0,0,0,953.650879
1544,1572,1,1,0,5,32.430943
-598,1759,2,0,0,0,708.625854
-265,-754,3,0,0,0,951.157837
282,-902,4,0,0,0,902.873047
1433,166,1,0,0,0,781.203125
-481,1668,2,0,0,0,728.073059
-908,-1613,3,0,0,0,709.685791
1191,-1096,4,0,0,0,748.159790
246,1042,1,0,0,0,866.949219
-1358,996,2,0,0,0,736.771606
-1861,-818,3,0,0,0,682.865784
1691,-1542,4,0,0,0,649.023621
955,1131,1,0,0,0,773.796509
-1722,694,2,1,0,1,56.644333
-1826,-918,3,0,0,0,681.332214
1581,-1627,4,0,0,0,651.512085
1252,675,1,0,0,0,785.257019
-1851,1835,2,0,0,0,611.966309
-598,-1058,3,0,0,0,830.483643
180,-214,4,0,0,0,1253.990845
1064,176,1,0,0,0,864.856384
-839,1532,2,0,0,0,726.307190
-635,-1034,3,0,0,0,830.930786
402,-169,4,0,0,0,1125.816895
71,1812,1,1,0,5,32.430943
-1904,427,2,0,0,0,694.579224
-639,-543,3,0,0,0,937.313721
1772,-32,4,0,0,0,722.137634
924,541,1,1,0,2,109.260109
-1255,471,2,1,0,1,56.644333
-189,-300,3,0,0,0,1185.499634
300,-1500,4,1,0,5,32.430943
160,1160,1,0,0,0,841.170837
-846,1466,2,0,0,0,735.328430
-490,-423,3,0,0,0,1011.908081
1031,-332,4,0,0,0,863.610596
1911,1133,1,0,0,0,657.488953
-1716,1261,2,0,0,0,669.585754
-1300,-32,3,0,0,0,811.023743
961,-964,4,0,0,0,797.891357
293,1688,1,0,0,0,731.851562
-332,1539,2,1,0,5,32.430943
-999,-1306,3,1,0,5,32.430943
103,-1813,4,0,0,0,715.167969
17,558,1,0,0,0,1054.585815
-1399,76,2,0,0,0,789.593140
-1695,-600,3,0,0,0,718.000366
1759,-1962,4,0,0,0,608.859314
1349,396,1,1,0,5,32.430943
-973,1744,2,0,0,0,687.944885
-1198,-925,3,0,0,0,767.411560
84,-387,4,0,0,0,1153.616333
1589,1835,1,1,0,2,109.260109
-1501,1672,2,1,0,1,56.644333
-1202,-996,3,1,0,1,56.644333
275,-151,4,1,0,0,286.501373
707,440,1,1,0,2,109.260109
-842,1168,2,1,0,5,32.430943
-1042,-52,3,0,0,0,874.397278
1178,-808,4,1,0,3,83.883698
306,1895,1,0,0,0,699.274475
-1804,1054,2,0,0,0,675.027649
-626,-1736,3,0,0,0,710.552063
1632,-1950,4,0,0,0,618.994568
1904,935,1,0,0,0,670.703491
-1916,1220,2,0,0,0,651.158630
-176,-1476,3,0,0,0,772.598022
1725,-187,4,0,0,0,728.215576
1286,346,1,0,0,0,804.178101
-177,62,2,1,0,0,492.708588
-859,-1289,3,0,0,0,760.764526
40,-893,4,0,0,0,918.902344
1598,1491,1,0,0,0,662.161865
-1109,518,2,1,0,1,56.644333
-142,-330,3,0,0,0,1181.714478
1230,-215,4,0,0,0,822.699158
373,577,1,1,0,5,32.430943
-762,139,2,0,0,0,960.181091
-513,-320,3,0,0,0,1031.582031
1974,-75,4,0,0,0,691.062195
558,1889,1,0,0,0,691.893616
-347,722,2,0,0,0,950.493469
-589,-1130,3,0,0,0,816.853455
1364,-339,4,0,0,0,788.685608
1837,508,1,1,0,2,109.260109
-1522,625,2,1,0,1,56.644333
-319,-307,3,0,0,0,1121.451294
1711,-1558,4,0,0,0,645.854675
1364,1556,1,0,0,0,677.795105
-1185,387,2,0,0,0,823.173035
-417,-88,3,0,0,0,1132.436890
699,-673,4,0,0,0,895.274048
1682,1640,1,0,0,0,641.556763
-1243,681,2,0,0,0,786.277283
-955,-208,3,1,0,1,56.644333
1720,-1198,4,0,0,0,674.104919
164,1331,1,1,0,5,32.430943
-1449,805,2,0,0,0,741.320740
-292,-1542,3,0,0,0,757.008362
1706,-1046,4,0,0,0,687.361877
481,1333,1,0,0,0,786.317444
-502,1674,2,0,0,0,726.150574
-587,-1401,3,0,0,0,766.378845
1788,-799,4,1,0,3,83.883698
396,1801,1,1,0,5,32.430943
-777,654,2,0,0,0,882.142883
-618,-784,3,0,0,0,887.093201
1246,-1004,4,1,0,3,83.883698
1658,1102,1,0,0,0,688.840759
-1764,1763,2,0,0,0,624.516418
-1124,-1580,3,0,0,0,696.386047
192,-1719,4,0,0,0,729.111816
1839,1725,1,0,0,0,621.400085
-1773,1218,2,0,0,0,666.707825
-638,-757,3,0,0,0,889.494812
1546,-1184,4,0,0,0,695.165710
895,1722,1,0,0,0,696.137634
-1497,1748,2,0,0,0,647.418274
-572,-272,3,0,0,0,1018.186890
1997,-546,4,0,0,0,677.644958
446,952,1,0,0,0,872.199036
-852,1837,2,0,0,0,683.976440
-347,-324,3,0,0,0,1101.313965
465,-681,4,1,0,3,83.883698
1576,1689,1,0,0,0,646.345276
-38,1471,2,0,0,0,775.504028
-1101,-486,3,0,0,0,833.292847
1352,-727,4,0,0,0,763.358215
1893,884,1,0,0,0,675.041687
-458,480,2,0,0,0,1004.815430
-1281,-894,3,1,0,1,56.644333
13,-853,4,1,0,5,32.430943
919,1332,1,0,0,0,748.209900
-455,1747,2,1,0,5,32.430943
-812,-597,3,0,0,0,884.349792
143,-428,4,0,0,0,1115.949097
168,1166,1,0,0,0,839.441895
-674,1731,2,0,0,0,708.669373
-365,-1333,3,0,0,0,793.515320
420,-86,4,0,0,0,1130.729614
1806,923,1,0,0,0,683.520508
-1155,1359,2,0,0,0,720.328918
-645,-614,3,0,0,0,919.992798
441,-1315,4,1,0,3,83.883698
43,87,1,0,0,0,1559.329590
-731,789,2,0,0,0,865.624207
-73,-1237,3,0,0,0,824.894775
185,-1466,4,0,0,0,774.309082
368,267,1,0,0,0,1113.784424
-1237,167,2,1,0,1,56.644333
-1092,-1284,3,0,0,0,736.522217
307,-367,4,1,0,0,147.084152
169,714,1,0,0,0,975.793640
-1922,598,2,0,0,0,685.688171
-159,-1042,3,1,0,3,83.883698
1111,-1574,4,1,0,3,83.883698
1409,1936,1,0,0,0,636.117676
-1315,443,2,0,0,0,792.364380
-1333,-1716,3,1,0,5,32.430943
459,-1335,4,0,0,0,787.419189
1595,1964,1,0,0,0,620.423523
-823,1774,2,0,0,0,693.947021
-1597,-1957,3,0,0,0,620.892578
1042,-1283,4,0,0,0,742.146423
1135,1266,1,0,0,0,734.027466
-195,684,2,1,0,5,32.430943
-1473,-1033,3,0,0,0,717.832214
1828,-1820,4,0,0,0,614.915894
1737,1321,1,0,0,0,662.595337
-1761,101,2,1,0,1,56.644333
-631,-1108,3,0,0,0,816.676147
1931,-1164,4,0,0,0,653.270386
1025,534,1,1,0,2,109.260109
-1764,173,2,0,0,0,722.109436
-1711,-1885,3,0,0,0,618.668640
906,-1774,4,1,0,3,83.883698
1032,705,1,1,0,2,109.260109
-439,1240,2,1,0,5,32.430943
-1909,-1515,3,0,0,0,631.085083
583,-837,4,1,0,3,83.883698
397,442,1,0,0,0,1036.636841
-999,600,2,0,0,0,842.562195
-658,-1757,3,0,0,0,705.818970
203,-587,4,0,0,0,1023.825562
470,497,1,0,0,0,996.005432
-1025,1239,2,0,0,0,750.031372
-1128,-671,3,0,0,0,808.362427
547,-354,4,1,0,5,32.430943
302,255,1,1,0,0,205.070694
-559,257,2,1,0,5,32.430943
-933,-768,3,1,0,1,56.644333
224,-535,4,0,0,0,1043.569214
1691,2,1,0,0,0,735.598267
-145,460,2,0,0,0,1096.754761
-798,-1737,3,0,0,0,700.471680
637,-388,4,0,0,0,971.065918
1508,669,1,0,0,0,742.684387
-6,1041,2,1,0,5,32.430943
-916,-883,3,0,0,0,817.303528
407,-519,4,0,0,0,1006.513123
174,1072,1,1,0,5,32.430943
-270,1584,2,0,0,0,750.241821
-163,-1205,3,1,0,5,32.430943
244,-1620,4,0,0,0,744.684570
285,1993,1,0,0,0,685.632141
-1593,776,2,1,0,1,56.644333
-234,-1609,3,0,0,0,746.854797
450,-407,4,1,0,5,32.430943
1637,1046,1,0,0,0,695.850037
-1694,443,2,0,0,0,725.606934
-1151,-1167,3,0,0,0,744.537415
1524,-441,4,0,0,0,753.894470
1803,1608,1,1,0,5,32.430943
-197,1794,2,0,0,0,716.930969
-346,-1356,3,1,0,5,32.430943
1459,-271,4,0,0,0,773.081604
1031,887,1,1,0,2,109.260109
-1653,1470,2,1,0,1,56.644333
-1565,-444,3,1,0,1,56.644333
1910,-1820,4,1,0,3,83.883698
68,950,1,0,0,0,900.634155
-1558,103,2,0,0,0,758.475647
-599,-303,3,1,0,5,32.430943
677,-1944,4,1,0,3,83.883698
1382,1042,1,0,0,0,728.927002
-1897,782,2,0,0,0,680.202698
-40,-1658,3,0,0,0,741.167542
1335,-1658,4,0,0,0,669.698669
447,432,1,0,0,0,1023.581177
-1714,1218,2,0,0,0,673.206360
-1051,-288,3,1,0,1,56.644333
932,-382,4,0,0,0,884.520752
1618,1930,1,0,0,0,621.730164
-782,417,2,0,0,0,921.381348
-1673,-443,3,0,0,0,728.951416
1425,-735,4,0,0,0,750.860352
1202,418,1,0,0,0,817.234070
-103,1958,2,0,0,0,693.201904
-1903,-897,3,0,0,0,673.054443
1255,-1992,4,0,0,0,640.929077
959,154,1,0,0,0,894.988770
-263,244,2,0,0,0,1182.116333
-84,-138,3,0,0,0,1412.279053
1081,-1405,4,0,0,0,722.065613
1851,483,1,0,0,0,700.255676
-1344,963,2,0,0,0,742.049133
-58,-1237,3,0,0,0,825.078979
98,-1940,4,0,0,0,695.875916
1467,155,1,0,0,0,774.787598
-1382,1084,2,0,0,0,724.717163
-1320,-776,3,0,0,0,764.082458
906,-1152,4,0,0,0,776.658997
1810,551,1,0,0,0,703.411621
-669,1207,2,1,0,5,32.430943
-683,-724,3,0,0,0,887.950073
997,-941,4,0,0,0,795.837585
44,699,1,0,0,0,989.198853
-1095,6,2,0,0,0,860.471069
-1539,-1218,3,0,0,0,692.916626
1638,-253,4,0,0,0,741.350708
515,1287,1,0,0,0,792.654358
-426,403,2,1,0,5,32.430943
-82,-185,3,1,0,0,461.014313
193,-993,4,0,0,0,883.284607
293,1038,1,1,0,5,32.430943
-211,855,2,0,0,0,923.202087
-654,-373,3,1,0,5,32.430943
1961,-626,4,0,0,0,679.279663
1922,1858,1,1,0,5,32.430943
-78,1200,2,0,0,0,833.522766
-1390,-1253,3,0,0,0,706.549194
272,-761,4,0,0,0,947.953979
1797,789,1,1,0,5,32.430943
-1440,582,2,0,0,0,759.993774
-1879,-653,3,0,0,0,689.068909
1180,-119,4,0,0,0,837.508362
1314,108,1,0,0,0,807.063599
-1854,1639,2,0,0,0,626.736572
-1785,-485,3,0,0,0,709.886047
1512,-32,4,1,0,5,32.430943
1269,383,1,1,0,5,32.430943
-1318,1523,2,0,0,0,685.513062
-1900,-963,3,1,0,1,56.644333
437,-74,4,0,0,0,1121.131592
1431,830,1,0,0,0,741.894226
-1400,510,2,1,0,1,56.644333
-139,-1054,3,0,0,0,868.977661
722,-1353,4,0,0,0,763.635071
1683,627,1,0,0,0,718.328796
-299,1135,2,1,0,5,32.430943
-1431,-194,3,0,0,0,780.902832
480,-1902,4,0,0,0,693.066956
1865,275,1,0,0,0,704.449097
-984,956,2,0,0,0,795.631104
-1491,-443,3,1,0,1,56.644333
1205,-823,4,0,0,0,777.907043
1886,1062,1,1,0,5,32.430943
-1739,1391,2,0,0,0,656.813843
-42,-726,3,0,0,0,978.363892
1118,-933,4,0,0,0,778.511536
1490,1226,1,1,0,5,32.430943
-620,158,2,0,0,0,1015.271545
-1517,-658,3,1,0,1,56.644333
1148,-36,4,0,0,0,846.732300
173,909,1,0,0,0,908.951843
-394,448,2,0,0,0,1035.430054
-1920,-1616,3,0,0,0,622.742859
1554,-831,4,0,0,0,723.768005
1725,521,1,1,0,2,109.260109
-276,1465,2,0,0,0,771.765381
-1376,-1436,3,1,0,5,32.430943
1104,-537,4,0,0,0,827.571045
1362,1288,1,1,0,2,109.260109
-921,1276,2,0,0,0,756.230347
-55,-1504,3,0,0,0,769.036804
659,-204,4,0,0,0,993.565735
1761,1637,1,0,0,0,634.941589
-812,717,2,0,0,0,863.579956
-122,-583,3,0,0,0,1035.903442
1138,-1933,4,0,0,0,654.741150
474,1231,1,0,0,0,806.916870
-1675,729,2,0,0,0,713.462769
-402,-1677,3,0,0,0,729.971802
66,-1578,4,0,0,0,755.189697
481,932,1,0,0,0,872.882446
-1237,1956,2,0,0,0,645.822083
-1689,-816,3,0,0,0,705.877319
25,-434,4,1,0,0,174.953705
1938,1046,1,1,0,2,109.260109
-1211,1240,2,0,0,0,728.524048
-1491,-253,3,0,0,0,767.646118
218,-607,4,0,0,0,1012.962952
848,1840,1,0,0,0,683.828979
-1294,1017,2,1,0,1,56.644333
-1346,-416,3,0,0,0,788.006714
30,-875,4,0,0,0,924.887207
1078,1943,1,1,0,5,32.430943
-1993,1118,2,1,0,1,56.644333
-1375,-1341,3,0,0,0,699.109802
1362,-1412,4,0,0,0,693.037781
1909,1534,1,0,0,0,629.702271
-1611,1930,2,0,0,0,622.238220
-219,-1776,3,0,0,0,719.375671
1489,-1110,4,1,0,3,83.883698
1480,964,1,0,0,0,723.113403
-1175,907,2,0,0,0,773.006714
-1788,-1266,3,0,0,0,661.475464
551,-576,4,1,0,3,83.883698
1556,1266,1,0,0,0,686.672668
-919,715,2,1,0,1,56.644333
-560,-681,3,0,0,0,922.865295
1822,-1754,4,1,0,5,32.430943
447,861,1,1,0,2,109.260109
-1329,1104,2,1,0,1,56.644333
-1682,-1083,3,1,0,1,56.644333
655,-515,4,0,0,0,939.152710
67,992,1,1,0,5,32.430943
-738,675,2,0,0,0,886.561096
-642,-1614,3,0,0,0,727.903076
1660,-1556,4,0,0,0,650.681396
1979,815,1,0,0,0,668.147095
-454,1144,2,0,0,0,826.841431
-404,-662,3,0,0,0,959.822693
997,-1545,4,0,0,0,711.587891
1213,1473,1,0,0,0,700.976929
-62,7,2,0,0,0,1686.781860
-1174,-1287,3,1,0,5,32.430943
478,-1053,4,0,0,0,844.772705
1819,663,1,1,0,5,32.430943
-1208,1279,2,0,0,0,724.247375
-1358,-104,3,0,0,0,797.723755
247,-355,4,0,0,0,1128.211182
349,1814,1,0,0,0,710.265442
-447,603,2,0,0,0,969.237244
-537,-73,3,0,0,0,1063.140747
563,-305,4,0,0,0,1015.049988
635,76,1,1,0,5,32.430943
-814,347,2,0,0,0,921.823608
-408,-1016,3,0,0,0,860.512024
680,-8,4,0,0,0,997.692444
1966,618,1,0,0,0,678.953369
-373,1663,2,1,0,5,32.430943
-1825,-1677,3,0,0,0,626.288269
433,-348,4,1,0,0,109.233910
534,1351,1,0,0,0,779.194214
-1417,1059,2,1,0,1,56.644333
-1611,-1205,3,0,0,0,685.841431
287,-1221,4,1,0,3,83.883698
1938,1709,1,0,0,0,614.434631
-529,584,2,0,0,0,955.240112
-1058,-804,3,1,0,1,56.644333
1784,-581,4,0,0,0,705.810669
1839,117,1,1,0,2,109.260109
-382,1864,2,0,0,0,701.792236
-1212,-629,3,0,0,0,796.981567
1564,-595,4,0,0,0,738.606567
1710,590,1,1,0,5,32.430943
-1054,1355,2,0,0,0,731.278870
-1986,-664,3,1,0,1,56.644333
65,-1430,4,0,0,0,783.423035
63,1948,1,1,0,5,32.430943
-1698,865,2,0,0,0,701.357666
-705,-1704,3,0,0,0,710.759644
909,-1709,4,1,0,3,83.883698
748,287,1,0,0,0,950.453247
-1818,1854,2,1,0,1,56.644333
-117,-1000,3,0,0,0,884.642639
750,-1207,4,0,0,0,785.525818
1391,1539,1,0,0,0,677.070129
-761,770,2,0,0,0,863.753174
-792,-1601,3,1,0,5,32.430943
89,-1321,4,0,0,0,805.853088
1295,216,1,0,0,0,808.274292
-417,707,2,1,0,5,32.430943
-104,-1784,3,1,0,5,32.430943
560,-866,4,0,0,0,877.729980
871,1071,1,0,0,0,793.848999
-1002,1992,2,0,0,0,656.438171
-1080,-832,3,0,0,0,797.441772
799,-1271,4,0,0,0,769.748596
620,227,1,0,0,0,1006.208801
-1299,258,2,0,0,0,805.770813
-1117,-772,3,0,0,0,798.602234
1261,-1508,4,0,0,0,692.466431
1816,416,1,0,0,0,707.830383
-1799,118,2,0,0,0,717.235718
-684,-908,3,0,0,0,849.694092
1788,-1075,4,0,0,0,675.446228
840,1343,1,0,0,0,754.340393
-1803,768,2,0,0,0,693.341187
-749,-13,3,0,0,0,969.813110
331,-1787,4,0,0,0,714.935669
900,1511,1,1,0,2,109.260109
-700,1617,2,1,0,5,32.430943
-1024,-1181,3,0,0,0,758.160278
820,-1244,4,1,0,3,83.883698
926,201,1,1,0,2,109.260109
-1593,634,2,0,0,0,731.636230
-1981,-1309,3,1,0,1,56.644333
1387,-1332,4,0,0,0,698.757507
863,1457,1,0,0,0,735.190918
-1566,784,2,1,0,1,56.644333
-999,-1838,3,1,0,5,32.430943
464,-1216,4,0,0,0,810.774963
1081,1397,1,1,0,2,109.260109
-221,1013,2,0,0,0,876.188232
-417,-587,3,0,0,0,981.221069
579,-46,4,0,0,0,1043.160156
684,1501,1,0,0,0,742.724915
-268,666,2,0,0,0,982.079224
-820,-110,3,0,0,0,941.190186
566,-1405,4,1,0,3,83.883698
1475,1491,1,0,0,0,673.939209
-1625,1942,2,0,0,0,620.186523
-685,-1099,3,0,0,0,812.218689
201,-1155,4,0,0,0,840.832703
1606,1919,1,0,0,0,623.560059
-23,949,2,1,0,5,32.430943
-1892,-1897,3,0,0,0,604.134338
1952,-1841,4,0,0,0,603.713013
721,1134,1,0,0,0,801.585205
-1490,759,2,0,0,0,738.808655
-1393,-1877,3,0,0,0,642.989075
1820,-488,4,0,0,0,704.582397
578,448,1,1,0,2,109.260109
-1675,1085,2,0,0,0,688.139099
-1939,-524,3,0,0,0,686.303284
453,-1891,4,0,0,0,695.577026
112,180,1,0,0,0,1333.877197
-1403,1397,2,1,0,1,56.644333
-1363,-1749,3,0,0,0,658.034668
1496,-239,4,0,0,0,767.141724
463,895,1,0,0,0,884.400635
-933,1873,2,0,0,0,674.593262
-410,-1165,3,0,0,0,825.850708
1842,-1553,4,0,0,0,634.353821
1942,1289,1,0,0,0,643.792236
-1172,1736,2,0,0,0,674.310791
-1075,-230,3,0,0,0,859.339539
185,-34,4,0,0,0,1368.389648
1123,1529,1,0,0,0,702.643005
-493,908,2,0,0,0,877.195374
-685,-528,3,0,0,0,928.409180
712,-1766,4,1,0,3,83.883698
1684,1138,1,0,0,0,682.919067
-1570,1801,2,0,0,0,636.737122
-252,-1670,3,1,0,5,32.430943
98,-1390,4,0,0,0,791.158447
1332,741,1,0,0,0,765.390747
-1742,247,2,0,0,0,724.225708
-1367,-87,3,0,0,0,796.084961
1226,-721,4,0,0,0,785.272217
1613,439,1,0,0,0,738.895264
-1188,1314,2,0,0,0,722.277832
-338,-839,3,0,0,0,915.497437
170,-662,4,0,0,0,996.241150
1795,392,1,0,0,0,711.814392
-460,1544,2,1,0,5,32.430943
-532,-521,3,0,0,0,971.545349
431,-257,4,1,0,0,134.255280
1475,1924,1,0,0,0,632.582153
-1982,1813,2,0,0,0,603.403015
-358,-337,3,1,0,0,139.672668
488,-842,4,0,0,0,894.423462
1937,1463,1,0,0,0,632.220764
-1365,619,2,0,0,0,770.224243
-56,-961,3,0,0,0,897.566406
693,-697,4,0,0,0,891.571228
600,715,1,1,0,2,109.260109
-593,246,2,0,0,0,1014.288574
-1776,-1964,3,0,0,0,607.474976
1839,-948,4,0,0,0,677.828552
808,17,1,0,0,0,947.943359
-553,1455,2,0,0,0,759.369690
-886,-1411,3,1,0,5,32.430943
279,-129,4,0,0,0,1226.701294
217,739,1,0,0,0,961.812683
-558,1352,2,0,0,0,777.239990
-1439,-136,3,1,0,1,56.644333
391,-1475,4,0,0,0,765.069702
1686,1943,1,0,0,0,615.690491
-1332,275,2,0,0,0,798.121826
-134,-130,3,1,0,0,494.603729
1711,-1071,4,1,0,3,83.883698
1160,895,1,0,0,0,776.747009
-186,1682,2,0,0,0,735.386169
-1000,-577,3,0,0,0,845.242981
1517,-1488,4,1,0,3,83.883698
607,1406,1,0,0,0,764.039062
-132,1766,2,1,0,5,32.430943
-1140,-1301,3,0,0,0,729.093933
1546,-324,4,0,0,0,755.152161
957,769,1,0,0,0,827.568726
-367,835,2,1,0,5,32.430943
-1197,-1165,3,0,0,0,739.124023
374,-1569,4,0,0,0,749.152283
477,1379,1,0,0,0,777.919617
-888,446,2,1,0,1,56.644333
-537,-1405,3,0,0,0,769.204773
1888,-275,4,0,0,0,701.013367
877,112,1,0,0,0,922.068787
-1278,1099,2,0,0,0,736.523987
-837,-769,3,1,0,5,32.430943
1761,-108,4,0,0,0,723.431152
1697,150,1,0,0,0,733.466797
-1696,205,2,0,0,0,732.672180
-1485,-335,3,0,0,0,765.752869
1982,-316,4,0,0,0,686.520386
1034,1402,1,0,0,0,727.069336
-1241,1675,2,1,0,5,32.430943
-1919,-73,3,0,0,0,699.149048
1747,-1071,4,0,0,0,680.579407
1174,1337,1,0,0,0,721.009094
-1535,1399,2,0,0,0,676.737366
-1457,-108,3,1,0,1,56.644333
362,-869,4,0,0,0,903.993408
1165,1067,1,0,0,0,755.116333
-1329,142,2,0,0,0,803.136902
-1746,-1988,3,1,0,5,32.430943
1232,-1908,4,0,0,0,651.190735
516,1953,1,0,0,0,684.675903
-493,1982,2,0,0,0,681.524902
-229,-1613,3,1,0,3,83.883698
155,-360,4,1,0,0,207.838516
1958,1715,1,0,0,0,612.353027
-1104,1693,2,1,0,5,32.430943
-1525,-1827,3,0,0,0,637.863831
1293,-1067,4,0,0,0,738.084351
1533,1939,1,0,0,0,627.058777
-1095,1589,2,1,0,5,32.430943
-1146,-938,3,0,0,0,773.667358
490,-1408,4,0,0,0,771.755066
735,1139,1,1,0,2,109.260109
-930,1448,2,0,0,0,730.567383
-1107,-381,3,0,0,0,841.232727
1279,-849,4,0,0,0,763.345581
1434,1045,1,0,0,0,721.801819
-435,965,2,1,0,5,32.430943
-1369,-1120,3,0,0,0,722.706604
1737,-1157,4,0,0,0,675.339478
733,1059,1,0,0,0,813.791992
-1893,1519,2,0,0,0,632.257812
-1578,-726,3,1,0,1,56.644333
917,-67,4,1,0,3,83.883698
1074,1028,1,0,0,0,772.552124
-426,597,2,0,0,0,975.919922
-1771,-1450,3,0,0,0,648.977051
1730,-1357,4,0,0,0,660.448547
1926,343,1,1,0,2,109.260109
-1336,129,2,0,0,0,801.924805
-770,-595,3,0,0,0,894.451294
1893,-755,4,1,0,3,83.883698
258,1330,1,1,0,5,32.430943
-598,114,2,1,0,5,32.430943
-1009,-1477,3,0,0,0,719.488953
1943,-1368,4,0,0,0,638.289551
1905,1635,1,0,0,0,622.643311
-1304,1168,2,0,0,0,725.665100
-1558,-702,3,0,0,0,732.587280
302,-295,4,0,0,0,1135.165161
582,426,1,0,0,0,980.737732
-808,1607,2,1,0,5,32.430943
-648,-874,3,0,0,0,862.316711
771,-240,4,0,0,0,948.188843
1715,1524,1,0,0,0,648.301880
-425,1759,2,0,0,0,716.165100
-1867,-1950,3,0,0,0,601.975037
339,-445,4,0,0,0,1053.988770
460,1803,1,0,0,0,708.181580
-435,1507,2,1,0,5,32.430943
-105,-545,3,0,0,0,1056.262207
1844,-1928,4,0,0,0,605.341919
1013,61,1,0,0,0,882.360107
-1395,891,2,0,0,0,741.724365
-908,-1909,3,0,0,0,671.681458
1191,-363,4,0,0,0,823.519836
116,1445,1,0,0,0,779.799500
-1783,83,2,1,0,1,56.644333
-1532,-1101,3,0,0,0,704.232788
1708,-1311,4,1,0,3,83.883698
1252,1512,1,0,0,0,692.857056
-1787,1759,2,0,0,0,622.977905
-1650,-324,3,1,0,1,56.644333
1930,-1066,4,0,0,0,659.655884
131,1875,1,0,0,0,705.300293
-1832,422,2,0,0,0,705.238647
-461,-27,3,0,0,0,1109.294678
954,-1810,4,0,0,0,681.016968
495,1608,1,0,0,0,737.049438
-1283,1297,2,0,0,0,713.839539
-166,-1193,3,0,0,0,833.053833
1763,-1847,4,0,0,0,617.818787
1149,1364,1,0,0,0,720.338257
-1496,1526,2,0,0,0,668.583557
-1860,-1093,3,0,0,0,665.870667
4,-1802,4,1,0,5,32.430943
1632,685,1,0,0,0,722.519531
-826,1537,2,1,0,5,32.430943
-114,-1384,3,0,0,0,792.142517
223,-1076,4,0,0,0,859.461182
1013,1335,1,0,0,0,738.183594
-180,1148,2,0,0,0,843.379761
-123,-470,3,1,0,0,142.899475
1972,-134,4,0,0,0,690.899292
118,296,1,0,0,0,1216.309814
-753,1237,2,1,0,5,32.430943
-943,-269,3,0,0,0,892.235657
425,-18,4,1,0,0,181.620651
1222,1208,1,0,0,0,731.006409
-1643,919,2,0,0,0,704.846252
-279,-778,3,0,0,0,941.479675
1217,-1204,4,0,0,0,732.070984
407,1253,1,1,0,5,32.430943
-621,1949,2,0,0,0,681.084534
-1714,-1669,3,0,0,0,636.367065
1168,-8,4,0,0,0,841.897827
1507,1540,1,0,0,0,666.227051
-1335,979,2,0,0,0,741.684570
-1028,-1478,3,1,0,5,32.430943
140,-1592,4,1,0,3,83.883698
1974,877,1,0,0,0,665.516357
-1261,1349,2,0,0,0,710.369385
-734,-1846,3,0,0,0,689.451660
575,-1855,4,0,0,0,695.934753
583,1544,1,1,0,5,32.430943
-892,122,2,0,0,0,916.844421
-1253,-437,3,0,0,0,805.197388
202,-559,4,0,0,0,1036.509399
1180,1183,1,1,0,2,109.260109
-242,419,2,1,0,5,32.430943
-469,-1806,3,1,0,5,32.430943
1722,-125,4,0,0,0,729.635864
497,291,1,0,0,0,1045.602417
-1945,489,2,1,0,1,56.644333
-1773,-222,3,1,0,1,56.644333
669,-1060,4,0,0,0,821.593323
372,1411,1,1,0,5,32.430943
-1519,616,2,0,0,0,744.530884
-195,-1240,3,0,0,0,821.185364
819,-355,4,0,0,0,919.310669
118,1304,1,0,0,0,809.055359
-572,453,2,0,0,0,977.398865
-492,-1489,3,1,0,5,32.430943
761,-1483,4,0,0,0,739.722900
1440,239,1,0,0,0,777.814941
-28,994,2,0,0,0,888.218384
-880,-818,3,0,0,0,833.777405
692,-1319,4,0,0,0,772.009583
893,698,1,0,0,0,850.550110
-1364,299,2,0,0,0,790.553467
-1963,-1331,3,1,0,1,56.644333
1412,-603,4,0,0,0,763.302246
1556,1353,1,0,0,0,678.796448
-1107,1958,2,0,0,0,653.958374
-693,-261,3,1,0,5,32.430943
1193,-861,4,0,0,0,775.551514
857,1774,1,0,0,0,691.825745
-1903,1,2,0,0,0,701.752991
-1913,-1496,3,0,0,0,632.094116
399,-1098,4,0,0,0,841.843262
1384,504,1,0,0,0,775.226807
-1418,1220,2,1,0,1,56.644333
-273,-1193,3,1,0,5,32.430943
707,-267,4,0,0,0,967.276184
823,1164,1,0,0,0,784.612793
-900,1106,2,1,0,5,32.430943
-281,-1221,3,0,0,0,821.717834
106,-1170,4,0,0,0,840.236389
393,1052,1,0,0,0,853.206299
-543,1700,2,0,0,0,720.151489
-575,-1387,3,0,0,0,769.713257
1537,-1133,4,0,0,0,700.782043
82,1664,1,0,0,0,739.867004
-488,1723,2,0,0,0,719.164001
-1903,-1555,3,0,0,0,628.708435
1032,-1574,4,0,0,0,704.907166
1824,1425,1,0,0,0,645.782471
-553,129,2,1,0,5,32.430943
-1002,-833,3,0,0,0,810.440918
378,-1205,4,0,0,0,819.436218
595,1939,1,0,0,0,683.514221
-1828,1302,2,0,0,0,654.592224
-249,-1930,3,0,0,0,695.357300
406,-39,4,0,0,0,1145.106567
985,1954,1,1,0,5,32.430943
-1958,1221,2,1,0,1,56.644333
-1899,-192,3,0,0,0,700.899719
1550,-521,4,0,0,0,745.219849
1313,700,1,0,0,0,772.311279
-1850,1701,2,1,0,1,56.644333
-1423,-1748,3,0,0,0,653.361145
984,-658,4,0,0,0,838.055664
240,862,1,0,0,0,918.614929
-1753,586,2,0,0,0,710.097412
-1106,-1785,3,0,0,0,673.590210
1578,-33,4,1,0,5,32.430943
534,1038,1,1,0,2,109.260109
-1579,908,2,1,0,1,56.644333
-1402,-1995,3,1,0,5,32.430943
690,-1253,4,0,0,0,783.634766
0,530,1,1,0,5,32.430943
-10,1059,2,1,0,5,32.430943
-697,-1588,3,0,0,0,728.360413
778,-585,4,0,0,0,894.362488
1856,1488,1,0,0,0,637.981506
-964,969,2,0,0,0,796.698853
-91,-1157,3,0,0,0,843.739563
173,-1323,4,0,0,0,803.632507
1585,1782,1,0,0,0,637.256409
-1179,1242,2,0,0,0,731.978027
-362,-1511,3,0,0,0,759.884033
718,-411,4,1,0,3,83.883698
941,1447,1,0,0,0,729.713684
-832,1215,2,0,0,0,775.294434
-1930,-250,3,1,0,1,56.644333
192,-1806,4,1,0,5,32.430943
1093,645,1,0,0,0,818.022095
-678,414,2,1,0,5,32.430943
-852,-1347,3,1,0,5,32.430943
1106,-608,4,0,0,0,819.617615
444,631,1,0,0,0,961.306702
-1566,872,2,1,0,1,56.644333
-202,-638,3,0,0,0,1002.321106
1975,-1892,4,0,0,0,598.280701
1611,848,1,0,0,0,714.437927
-27,486,2,0,0,0,1094.113647
-1811,-1517,3,0,0,0,639.956848
2,-684,4,0,0,0,996.020386
1307,1235,1,0,0,0,717.980469
-933,1329,2,1,0,5,32.430943
-1750,-1272,3,0,0,0,665.067749
1783,-1026,4,0,0,0,679.469788
556,176,1,0,0,0,1041.987549
-1310,1354,2,0,0,0,704.627930
-1936,-1546,3,0,0,0,626.398376
1145,-1091,4,0,0,0,754.795166
1481,1020,1,0,0,0,717.967651
-874,1301,2,0,0,0,757.390564
-1795,-123,3,0,0,0,717.817383
1225,-1706,4,0,0,0,673.538208
1837,574,1,0,0,0,698.523438
-265,966,2,1,0,5,32.430943
-939,-1849,3,0,0,0,677.165771
1585,-796,4,0,0,0,721.917358
961,1139,1,0,0,0,771.866272
-1039,713,2,0,0,0,820.070496
-32,-1616,3,0,0,0,748.555725
1826,-1249,4,0,0,0,658.689270
358,1228,1,0,0,0,815.766174
-131,1403,2,0,0,0,787.948914
-897,-1199,3,0,0,0,770.491394
435,-780,4,0,0,0,919.159119
906,526,1,0,0,0,873.206360
-1636,1159,2,0,0,0,686.819153
-781,-110,3,1,0,1,56.644333
117,-1718,4,0,0,0,730.392639
645,1767,1,0,0,0,705.076416
-375,976,2,0,0,0,873.773010
-810,-482,3,0,0,0,903.633423
1423,-1540,4,0,0,0,674.009766
1668,60,1,1,0,2,109.260109
-945,1416,2,0,0,0,733.675842
-397,-1854,3,0,0,0,702.803955
1796,-1132,4,0,0,0,670.462280
712,1446,1,0,0,0,749.360718
-1658,274,2,1,0,1,56.644333
-1698,-866,3,0,0,0,701.289246
1560,-136,4,0,0,0,757.646729
1460,1652,1,1,0,5,32.430943
-1866,1388,2,0,0,0,644.434021
-1066,-1043,3,0,0,0,771.649109
667,-323,4,0,0,0,972.915344
628,569,1,0,0,0,934.278015
-1280,1136,2,0,0,0,732.159363
-1342,-1095,3,0,0,0,728.721252
1435,-1529,4,0,0,0,673.992432
225,545,1,0,0,0,1038.827515
-1333,748,2,0,0,0,764.584290
-1651,-441,3,0,0,0,732.581726
1369,-217,4,0,0,0,792.679871
440,1902,1,1,0,5,32.430943
-961,1189,2,0,0,0,764.532043
-1929,-784,3,0,0,0,676.001343
527,-1673,4,1,0,3,83.883698
603,1570,1,0,0,0,737.160034
-315,1675,2,0,0,0,733.341370
-829,-335,3,0,0,0,918.827209
1251,-1796,4,0,0,0,661.745911
1533,993,1,1,0,2,109.260109
-110,1204,2,0,0,0,831.976257
-1175,-1155,3,0,0,0,743.052490
1417,-706,4,1,0,3,83.883698
1995,1711,1,0,0,0,609.597534
-701,1932,2,0,0,0,679.731445
-1498,-1649,3,1,0,5,32.430943
1522,-869,4,1,0,3,83.883698
23,1397,1,0,0,0,790.388672
-1814,710,2,0,0,0,695.063171
-321,-1638,3,0,0,0,739.327332
1901,-1990,4,0,0,0,596.514832
1889,950,1,0,0,0,671.615173
-1285,139,2,0,0,0,812.775024
-1806,-1261,3,1,0,1,56.644333
554,-1492,4,1,0,3,83.883698
1226,841,1,0,0,0,772.545837
-1597,1230,2,0,0,0,685.278625
-1468,-1201,3,0,0,0,702.704407
964,-831,4,0,0,0,817.204773
193,248,1,0,0,0,1220.324341
-1323,1416,2,0,0,0,696.553223
-1058,-699,3,1,0,1,56.644333
631,-283,4,0,0,0,992.854797
1363,472,1,0,0,0,781.236877
-58,1567,2,0,0,0,757.251892
-1074,-1452,3,0,0,0,716.731628
1825,-1437,4,0,0,0,644.774780
1679,713,1,0,0,0,713.877747
-754,1315,2,1,0,5,32.430943
-525,-1383,3,0,0,0,773.984924
1395,-376,4,0,0,0,780.765076
1310,411,1,0,0,0,795.415283
-1020,1794,2,0,0,0,678.558105
-485,-1608,3,0,0,0,737.546997
40,-98,4,1,0,0,736.333801
1678,61,1,0,0,0,737.622314
-520,1021,2,1,0,5,32.430943
-727,-1333,3,0,0,0,766.500122
1452,-1950,4,0,0,0,631.774780
1562,1584,1,1,0,5,32.430943
-723,977,2,1,0,5,32.430943
-1976,-1244,3,0,0,0,643.288696
1104,-1138,4,0,0,0,754.076721
1256,1586,1,0,0,0,684.239746
-413,186,2,0,0,0,1114.868164
-1185,-1161,3,1,0,1,56.644333
1348,-1337,4,0,0,0,702.416138
847,981,1,0,0,0,811.983582
-1029,555,2,0,0,0,841.626221
-188,-1034,3,0,0,0,872.292847
880,-1250,4,0,0,0,764.553223
852,1543,1,1,0,2,109.260109
-1113,665,2,1,0,1,56.644333
-1647,-345,3,0,0,0,737.001587
1509,-1074,4,0,0,0,709.505127
1153,1135,1,1,0,2,109.260109
-1122,1386,2,1,0,5,32.430943
-1605,-1198,3,0,0,0,687.123657
587,-1726,4,0,0,0,714.040039
1580,1562,1,1,0,5,32.430943
-1725,1169,2,0,0,0,675.787415
-295,-1043,3,0,0,0,863.403503
1847,-889,4,0,0,0,680.488281
958,1631,1,0,0,0,703.482544
-349,791,2,1,0,5,32.430943
-1487,-284,3,1,0,1,56.644333
1320,-1227,4,0,0,0,717.341431
1046,369,1,0,0,0,856.772827
-380,74,2,0,0,0,1160.152710
-1731,-1615,3,1,0,1,56.644333
776,-188,4,0,0,0,951.433472
464,800,1,0,0,0,909.105652
-1433,459,2,1,0,1,56.644333
-75,-468,3,0,0,0,1101.785645
268,-1308,4,0,0,0,803.436340
428,1803,1,1,0,5,32.430943
-1808,1189,2,1,0,1,56.644333
-1792,-1527,3,0,0,0,640.931091
901,-207,4,0,0,0,909.214478
1723,134,1,1,0,5,32.430943
-556,362,2,1,0,5,32.430943
-1282,-1258,3,0,0,0,718.307922
160,-1079,4,1,0,5,32.430943
1885,1478,1,0,0,0,636.010071
-63,1694,2,1,0,5,32.430943
-1170,-1294,3,0,0,0,726.664978
862,-755,4,0,0,0,847.402527
1783,1234,1,0,0,0,664.417358
-412,713,2,0,0,0,942.540527
-1509,-625,3,0,0,0,745.554749
845,-969,4,1,0,3,83.883698
75,1981,1,0,0,0,690.050598
-1221,500,2,0,0,0,806.850464
-1519,-327,3,1,0,1,56.644333
287,-1398,4,0,0,0,784.291565
511,1556,1,0,0,0,744.774292
-1763,470,2,0,0,0,713.806519
-1023,-1642,3,0,0,0,697.037964
1272,-1029,4,0,0,0,745.065125
340,738,1,1,0,2,109.260109
-1854,264,2,0,0,0,706.348755
-1498,-1900,3,0,0,0,633.150818
560,-1316,4,0,0,0,783.680664
665,1608,1,0,0,0,727.394470
-143,7,2,0,0,0,1447.134033
-829,-1353,3,1,0,5,32.430943
1747,-768,4,0,0,0,700.947998
871,1253,1,0,0,0,765.060913
-1098,1760,2,1,0,5,32.430943
-385,-683,3,0,0,0,956.682068
138,-1435,4,0,0,0,781.394592
318,366,1,1,0,0,143.448135
-124,489,2,0,0,0,1083.797119
-1106,-1699,3,0,0,0,683.650146
1279,-730,4,0,0,0,775.275024
745,683,1,1,0,2,109.260109
-980,1458,2,1,0,5,32.430943
-1620,-844,3,0,0,0,713.476868
18,-1923,4,0,0,0,698.747437
151,82,1,0,0,0,1394.491455
-783,141,2,1,0,1,56.644333
-525,-1289,3,0,0,0,791.496155
1521,-1377,4,0,0,0,680.221741
1580,290,1,1,0,5,32.430943
-1452,1234,2,0,0,0,701.372253
-283,-1359,3,1,0,5,32.430943
344,-737,4,1,0,3,83.883698
725,1360,1,1,0,2,109.260109
-993,808,2,0,0,0,815.523499
-451,-1110,3,0,0,0,834.579102
417,-1582,4,1,0,5,32.430943
608,232,1,0,0,0,1010.382202
-690,1570,2,0,0,0,731.568237
-361,-76,3,1,0,0,228.264297
609,-847,4,0,0,0,874.421021
1748,1084,1,0,0,0,679.510437
-861,1076,2,0,0,0,794.346252
-1941,-1868,3,0,0,0,602.586426
20,-553,4,1,0,0,110.127525
1260,44,1,0,0,0,819.921448
-94,542,2,0,0,0,1058.835815
-597,-151,3,0,0,0,1026.300903
1786,-1704,4,0,0,0,627.441528
1863,1502,1,1,0,5,32.430943
-932,111,2,0,0,0,904.850708
-975,-1970,3,0,0,0,660.531799
1262,-1332,4,0,0,0,712.189270
1280,442,1,0,0,0,799.376709
-533,1808,2,1,0,5,32.430943
-1475,-69,3,0,0,0,774.506104
1858,-544,4,0,0,0,696.831299
234,332,1,0,0,0,1146.305176
-673,533,2,0,0,0,930.541504
-583,-739,3,0,0,0,904.025269
1993,-767,4,0,0,0,668.782593
680,1026,1,1,0,2,109.260109
-834,469,2,0,0,0,899.307922
-1937,-1756,3,0,0,0,611.088074
1111,-718,4,0,0,0,806.108887
190,58,1,0,0,0,1352.634644
-1881,681,2,1,0,1,56.644333
-245,-621,3,0,0,0,1003.025024
186,-1811,4,0,0,0,714.442688
1203,1732,1,0,0,0,672.377625
-1972,1179,2,0,0,0,647.895386
-40,-925,3,0,0,0,908.781067
864,-1722,4,1,0,3,83.883698
1938,165,1,0,0,0,695.502075
-1506,984,2,0,0,0,717.855652
-1571,-316,3,0,0,0,751.025208
1667,-939,4,0,0,0,700.211914
799,304,1,0,0,0,931.758423
-830,685,2,0,0,0,865.469727
-7,-565,3,0,0,0,1051.102539
1450,-1440,4,0,0,0,681.363098
77,1580,1,0,0,0,754.736694
-1163,1963,2,1,0,5,32.430943
-580,-515,3,0,0,0,959.783203
1712,-1810,4,1,0,3,83.883698
441,379,1,0,0,0,1042.833496
-1336,234,2,0,0,0,798.916016
-1665,-63,3,1,0,1,56.644333
1796,-1581,4,0,0,0,636.321472
1961,790,1,1,0,5,32.430943
-1291,705,2,0,0,0,775.608765
-1470,-288,3,1,0,1,56.644333
3,-1015,4,0,0,0,882.312012
807,286,1,0,0,0,931.319885
-734,734,2,0,0,0,875.853455
-523,-1780,3,0,0,0,709.031433
1972,-876,4,0,0,0,665.811951
1754,1163,1,1,0,5,32.430943
-304,1580,2,0,0,0,749.861023
-1149,-1984,3,1,0,5,32.430943
782,-812,4,0,0,0,852.102234
891,1833,1,1,0,5,32.430943
-940,252,2,0,0,0,894.424255
-1151,-78,3,0,0,0,845.463623
669,-1542,4,0,0,0,737.321533
1553,338,1,1,0,5,32.430943
-6,498,2,0,0,0,1087.502808
-1592,-1170,3,0,0,0,691.023193
168,-112,4,0,0,0,1347.945068
536,915,1,0,0,0,869.707275
-392,1141,2,0,0,0,832.584900
-492,-319,3,0,0,0,1040.422241
1929,-1703,4,1,0,5,32.430943
740,83,1,0,0,0,971.539001
-650,1190,2,0,0,0,798.998291
-1614,-664,3,0,0,0,726.544617
853,-481,4,0,0,0,892.631470
1558,306,1,0,0,0,753.669861
-357,1636,2,0,0,0,738.410828
-9,-1295,3,0,0,0,812.211853
432,-402,4,0,0,0,1038.587891
124,211,1,0,0,0,1292.446167
-1983,956,2,0,0,0,660.098328
-1791,-1501,3,1,0,1,56.644333
1693,-420,4,1,0,3,83.883698
1857,728,1,0,0,0,688.297974
-752,1388,2,0,0,0,755.327332
-37,-1502,3,1,0,3,83.883698
1511,-685,4,1,0,3,83.883698
1269,562,1,0,0,0,792.309875
-1005,1894,2,0,0,0,667.630615
-1907,-960,3,0,0,0,668.848083
1599,-554,4,1,0,3,83.883698
441,1046,1,0,0,0,850.109070
-639,901,2,1,0,5,32.430943
-1683,-399,3,0,0,0,729.118347
1173,-522,4,1,0,3,83.883698
997,631,1,0,0,0,838.987549
-1324,218,2,1,0,1,56.644333
-1207,-994,3,1,0,1,56.644333
422,-517,4,0,0,0,1003.119751
156,432,1,1,0,0,158.644531
-1367,1618,2,0,0,0,671.111389
-1994,-1057,3,1,0,1,56.644333
274,-824,4,0,0,0,927.250244
1283,1820,1,0,0,0,656.828918
-729,971,2,0,0,0,830.745361
-1291,-948,3,0,0,0,751.165588
102,-52,4,0,0,0,1511.635254
92,1001,1,0,0,0,885.101135
-1702,1423,2,0,0,0,657.890686
-909,-1056,3,0,0,0,791.179626
1016,-72,4,0,0,0,881.308838
1124,1478,1,0,0,0,708.784607
-1161,160,2,1,0,1,56.644333
-1852,-1977,3,0,0,0,600.999451
1681,-1643,4,0,0,0,641.389465
781,1739,1,0,0,0,701.253052
-1538,1783,2,1,0,5,32.430943
-1935,-1796,3,1,0,5,32.430943
1420,-594,4,0,0,0,762.580505
1573,259,1,1,0,2,109.260109
-944,343,2,0,0,0,885.340881
-53,-1480,3,0,0,0,773.664062
586,-1813,4,0,0,0,701.399414
1757,1333,1,0,0,0,659.577148
-1448,825,2,1,0,1,56.644333
-1563,-37,3,0,0,0,758.101501
1963,-1275,4,0,0,0,642.587280
323,1234,1,0,0,0,816.564758
-1961,1978,2,0,0,0,593.105896
-1258,-572,3,1,0,1,56.644333
1729,-1680,4,0,0,0,634.180603
1079,1043,1,1,0,2,109.260109
-1939,600,2,0,0,0,683.306702
-226,-1589,3,0,0,0,750.573303
1103,-1774,4,0,0,0,675.081604
1465,1253,1,1,0,2,109.260109
-1694,214,2,1,0,1,56.644333
-1502,-1775,3,1,0,5,32.430943
1288,-482,4,0,0,0,794.939941
895,1375,1,0,0,0,744.273071
-1974,133,2,0,0,0,690.620361
-1702,-256,3,0,0,0,730.531677
168,-959,4,0,0,0,894.302307
1349,1445,1,1,0,2,109.260109
-1496,726,2,0,0,0,740.411926
-352,-1305,3,0,0,0,799.913452
696,-1720,4,1,0,3,83.883698
1300,1601,1,1,0,2,109.260109
-8,594,2,0,0,0,1036.666504
-1211,-389,3,1,0,1,56.644333
298,-1536,4,0,0,0,757.880676
1823,1336,1,0,0,0,652.582520
-1745,716,2,0,0,0,704.294922
-1950,-563,3,0,0,0,683.315491
332,-1794,4,1,0,3,83.883698
169,1129,1,0,0,0,848.487488
-89,1094,2,0,0,0,859.789001
-1906,-1446,3,1,0,1,56.644333
598,-1631,4,0,0,0,727.874390
619,1764,1,0,0,0,706.846008
-1614,434,2,1,0,1,56.644333
-427,-1248,3,0,0,0,806.933533
1905,-423,4,0,0,0,694.563904
1433,1340,1,1,0,2,109.260109
-1480,507,2,0,0,0,757.919006
-323,-1927,3,0,0,0,694.199890
346,-976,4,0,0,0,876.552612
377,822,1,0,0,0,915.559387
-1642,1903,2,1,0,5,32.430943
-1090,-1525,3,0,0,0,706.075012
249,-1843,4,0,0,0,708.337341
661,1173,1,1,0,2,109.260109
-441,905,2,0,0,0,884.668701
-1292,-970,3,0,0,0,748.682983
1707,-60,4,1,0,3,83.883698
1523,1167,1,1,0,2,109.260109
-1280,334,2,1,0,1,56.644333
-422,-1367,3,0,0,0,783.588074
1875,-1658,4,0,0,0,623.496521
864,1557,1,0,0,0,720.787292
-1616,1727,2,1,0,1,56.644333
-1735,-457,3,0,0,0,718.619812
386,-281,4,0,0,0,1099.677734
939,1699,1,0,0,0,696.061218
-1447,1536,2,0,0,0,672.182556
-1962,-1728,3,1,0,1,56.644333
1071,-574,4,1,0,3,83.883698
356,1300,1,0,0,0,800.717468
-638,1224,2,0,0,0,793.883850
-952,-315,3,0,0,0,885.806213
692,-844,4,0,0,0,861.417542
170,1221,1,1,0,5,32.430943
-1058,1742,2,1,0,5,32.430943
-489,-781,3,0,0,0,910.155762
249,-245,4,0,0,0,1189.802246
1566,1475,1,0,0,0,666.679199
-1294,99,2,1,0,1,56.644333
-68,-1936,3,1,0,5,32.430943
1475,-1209,4,0,0,0,701.126038
1516,1439,1,1,0,2,109.260109
-10,62,2,0,0,0,1684.904053
-363,-941,3,1,0,5,32.430943
1868,-38,4,1,0,3,83.883698
669,1902,1,0,0,0,685.213318
-892,272,2,0,0,0,906.709229
-1519,-1441,3,0,0,0,674.422729
1081,-1639,4,0,0,0,692.811279
1467,1902,1,0,0,0,635.217957
-1312,1756,2,0,0,0,661.321472
-1262,-1549,3,0,0,0,687.809448
1236,-1297,4,1,0,3,83.883698
237,312,1,0,0,0,1156.694580
-640,522,2,1,0,5,32.430943
-1296,-564,3,1,0,1,56.644333
1117,-1660,4,0,0,0,687.407104
128,409,1,0,0,0,1130.832520
-1843,324,2,0,0,0,706.568848
-1206,-690,3,0,0,0,791.987305
643,-755,4,0,0,0,888.998840
690,615,1,0,0,0,909.269104
-416,1704,2,0,0,0,725.103638
-798,-1706,3,0,0,0,704.715759
1780,-1645,4,0,0,0,632.654724
1705,1637,1,1,0,5,32.430943
-1853,1660,2,0,0,0,625.220215
-1299,-925,3,0,0,0,752.421631
1173,-289,4,1,0,3,83.883698
1001,226,1,0,0,0,879.155396
-788,254,2,1,0,1,56.644333
-1162,-100,3,0,0,0,842.324646
18,-396,4,0,0,0,1153.327026
375,731,1,0,0,0,943.206421
-1390,1535,2,0,0,0,677.571594
-224,-368,3,1,0,0,177.709473
1572,-1752,4,1,0,3,83.883698
467,1420,1,0,0,0,770.986755
-1420,113,2,0,0,0,784.828796
-238,-9,3,0,0,0,1300.295044
1930,-1946,4,0,0,0,597.683533
446,1460,1,0,0,0,764.945862
-389,340,2,0,0,0,1076.924561
-1693,-1071,3,0,0,0,687.050049
1668,-579,4,0,0,0,723.215881
1099,1846,1,0,0,0,667.064453
-484,487,2,0,0,0,994.926392
-1566,-1303,3,0,0,0,682.253845
534,-1397,4,1,0,3,83.883698
1677,512,1,0,0,0,725.206116
-1241,209,2,1,0,1,56.644333
-1535,-996,3,1,0,1,56.644333
1621,-224,4,0,0,0,745.012146
1075,1178,1,0,0,0,752.405701
-816,1106,2,0,0,0,795.105286
-1086,-260,3,1,0,1,56.644333
291,-1096,4,1,0,3,83.883698
1638,905,1,0,0,0,706.550720
-1597,174,2,1,0,1,56.644333
-1177,-1184,3,0,0,0,739.270630
1773,-910,4,1,0,3,83.883698
1582,1014,1,0,0,0,705.375977
-385,1860,2,0,0,0,702.291199
-1069,-279,3,0,0,0,857.908813
1314,-1922,4,0,0,0,644.112854
1802,1031,1,0,0,0,676.845581
-1339,1398,2,0,0,0,696.860718
-1242,-758,3,0,0,0,778.734009
1073,-1640,4,1,0,3,83.883698
792,1024,1,1,0,2,109.260109
-1044,1427,2,0,0,0,722.811829
-1620,-1505,3,0,0,0,658.831238
1083,-503,4,1,0,3,83.883698
1603,1220,1,1,0,5,32.430943
-1890,1726,2,0,0,0,617.130981
-1680,-880,3,0,0,0,702.729309
1257,-730,4,0,0,0,779.017883
1833,1861,1,0,0,0,611.344360
-268,900,2,0,0,0,904.707275
-1452,-531,3,0,0,0,761.312195
979,-1556,4,0,0,0,711.649536
542,399,1,0,0,0,1000.683411
-56,779,2,1,0,5,32.430943
-651,-240,3,1,0,5,32.430943
1826,-399,4,0,0,0,706.902649
68,719,1,0,0,0,980.354492
-1830,1724,2,0,0,0,622.218750
-545,-1024,3,0,0,0,843.881592
1268,-330,4,0,0,0,808.855591
525,157,1,0,0,0,1059.948120
-733,1774,2,0,0,0,699.286072
-1988,-839,3,0,0,0,665.815002
1607,-1286,4,0,0,0,679.318604
1345,124,1,0,0,0,800.112366
-1410,70,2,0,0,0,787.412415
-1434,-1214,3,0,0,0,705.407166
967,-23,4,0,0,0,896.180847
578,143,1,0,0,0,1036.000854
-1419,982,2,1,0,1,56.644333
-704,-202,3,1,0,5,32.430943
958,-460,4,0,0,0,869.088867
1874,1503,1,0,0,0,635.188416
-1549,603,2,0,0,0,740.520020
-229,-1659,3,0,0,0,738.371033
1514,-643,4,0,0,0,743.529236
130,1085,1,1,0,5,32.430943
-1748,893,2,0,0,0,692.882935
-204,-592,3,0,0,0,1021.489746
65,-533,4,1,0,0,117.230835
574,241,1,0,0,0,1023.162354
-1953,1779,2,1,0,1,56.644333
-152,-810,3,0,0,0,942.308960
216,-1575,4,0,0,0,753.312683
1745,289,1,0,0,0,722.707336
-1837,299,2,1,0,1,56.644333
-95,-288,3,0,0,0,1230.589722
2,-1630,4,0,0,0,746.136841
323,1911,1,0,0,0,696.520264
-151,1186,2,0,0,0,835.192078
-802,-1456,3,0,0,0,740.513245
39,-668,4,0,0,0,1002.354065
638,378,1,0,0,0,972.729309
-1762,1554,2,0,0,0,641.535217
-1701,-818,3,1,0,1,56.644333
1926,-168,4,0,0,0,697.228821
1759,307,1,0,0,0,719.994873
-508,1303,2,1,0,5,32.430943
-855,-960,3,1,0,5,32.430943
1728,-1813,4,1,0,3,83.883698
1671,103,1,1,0,2,109.260109
-168,850,2,0,0,0,927.887390
-1230,-1907,3,0,0,0,651.432861
410,-1428,4,0,0,0,772.745605
454,782,1,1,0,2,109.260109
-1506,1040,2,1,0,1,56.644333
-605,-509,3,0,0,0,954.266663
1240,-285,4,0,0,0,817.296448
1342,1536,1,0,0,0,681.906433
-666,1610,2,0,0,0,727.027039
-47,-1604,3,0,0,0,750.627502
392,-230,4,0,0,0,1113.888306
367,666,1,1,0,5,32.430943
-1212,1374,2,0,0,0,712.617310
-1105,-167,3,0,0,0,854.609375
183,-883,4,0,0,0,916.377869
1382,1850,1,1,0,5,32.430943
-259,1291,2,0,0,0,807.435974
-1169,-1539,3,0,0,0,697.329102
1043,-1229,4,0,0,0,749.337036
226,18,1,1,0,0,414.203949
-769,1356,2,0,0,0,758.940063
-1114,-62,3,1,0,1,56.644333
106,-1547,4,0,0,0,760.463257
1735,467,1,0,0,0,718.209290
-405,1861,2,0,0,0,701.518616
-40,-733,3,0,0,0,975.651367
877,-483,4,0,0,0,886.252319
1944,396,1,0,0,0,689.833679
-1712,711,2,1,0,1,56.644333
-52,-1263,3,0,0,0,819.169495
1322,-744,4,1,0,3,83.883698
657,1213,1,0,0,0,794.049927
-489,340,2,0,0,0,1035.924683
-1144,-1131,3,0,0,0,749.912170
367,-268,4,1,0,0,161.736176
435,1541,1,0,0,0,751.248291
-681,1818,2,1,0,5,32.430943
-631,-774,3,1,0,5,32.430943
1355,-1993,4,0,0,0,634.273193
696,1028,1,1,0,2,109.260109
-1294,54,2,0,0,0,812.190674
-1068,-395,3,0,0,0,849.212891
1804,-595,4,0,0,0,702.266785
1627,1689,1,1,0,2,109.260109
-401,272,2,1,0,5,32.430943
-1995,-1842,3,0,0,0,600.332275
1402,-258,4,0,0,0,784.616821
429,473,1,1,0,5,32.430943
-623,393,2,0,0,0,974.668152
-1442,-1772,3,0,0,0,649.511841
654,-239,4,0,0,0,990.883301
1865,1475,1,0,0,0,638.108215
-1447,613,2,0,0,0,756.627197
-909,-1253,3,0,0,0,760.950867
1182,-1444,4,0,0,0,707.362976
829,551,1,1,0,2,109.260109
-1793,724,2,0,0,0,697.178223
-1329,-1248,3,1,0,1,56.644333
1167,-1689,4,1,0,3,83.883698
1553,416,1,0,0,0,750.080261
-150,166,2,0,0,0,1318.337158
-1573,-695,3,0,0,0,730.773193
1348,-1414,4,1,0,3,83.883698
183,271,1,1,0,0,271.165741
-1141,655,2,0,0,0,807.673096
-382,-1669,3,1,0,5,32.430943
575,-1001,4,0,0,0,845.275574
286,1871,1,0,0,0,703.302185
-142,1642,2,0,0,0,742.963806
-727,-1772,3,0,0,0,699.903137
5,-1255,4,0,0,0,821.237915
156,208,1,0,0,0,1274.994751
-1945,1460,2,0,0,0,631.683167
-206,-438,3,1,0,0,143.913208
652,-1183,4,0,0,0,800.097229
218,1346,1,0,0,0,797.394043
-1718,1791,2,1,0,1,56.644333
-835,-614,3,1,0,1,56.644333
576,-476,4,0,0,0,970.538574
1010,1568,1,0,0,0,707.508667
-1281,1159,2,0,0,0,729.475708
-1310,-1504,3,1,0,5,32.430943
602,-1037,4,1,0,3,83.883698
67,1905,1,0,0,0,701.275452
-88,1651,2,1,0,5,32.430943
-1909,-1178,3,0,0,0,654.729065
1153,-1417,4,1,0,3,83.883698
298,1566,1,0,0,0,752.526978
-738,341,2,1,0,1,56.644333
-1644,-1387,3,0,0,0,666.724609
213,-181,4,1,0,0,330.558533
1075,928,1,1,0,2,109.260109
-1012,597,2,1,0,1,56.644333
-1842,-921,3,0,0,0,679.151306
666,-316,4,1,0,3,83.883698
1664,1225,1,0,0,0,678.199951
-514,1351,2,0,0,0,780.627808
-1542,-753,3,0,0,0,731.384399
1221,-1162,4,1,0,3,83.883698
1495,1437,1,1,0,5,32.430943
-1694,148,2,0,0,0,733.999756
-720,-747,3,1,0,5,32.430943
100,-1217,4,0,0,0,829.115112
451,35,1,0,0,0,1115.247681
-269,1487,2,1,0,5,32.430943
-573,-701,3,0,0,0,915.222168
1462,-132,4,1,0,5,32.430943
691,704,1,0,0,0,890.526184
-1346,1446,2,1,0,1,56.644333
-1909,-1620,3,0,0,0,623.403503
681,-559,4,1,0,3,83.883698
1769,749,1,1,0,2,109.260109
-801,413,2,0,0,0,916.556458
-705,-1531,3,0,0,0,736.529053
835,-836,4,1,0,3,83.883698
1368,1772,1,1,0,2,109.260109
-1915,1899,2,0,0,0,602.263000
-1108,-170,3,0,0,0,853.730774
1968,-1163,4,0,0,0,649.340942
774,1267,1,0,0,0,772.935547
-1210,760,2,0,0,0,783.944641
-283,-246,3,0,0,0,1169.362061
1207,-1263,4,0,0,0,726.256836
1824,1485,1,0,0,0,641.209106
-335,1264,2,0,0,0,809.426270
-1509,-154,3,0,0,0,766.788147
297,-476,4,0,0,0,1053.144165
1183,1802,1,1,0,5,32.430943
-567,1100,2,0,0,0,825.270691
-406,-621,3,0,0,0,972.585510
1439,-1811,4,0,0,0,645.972900
88,1923,1,0,0,0,698.460571
-43,1036,2,1,0,5,32.430943
-401,-1116,3,0,0,0,837.539429
1957,-1705,4,0,0,0,613.154907
498,418,1,0,0,0,1010.641235
-771,1766,2,0,0,0,698.170166
-1216,-1802,3,1,0,5,32.430943
1603,-850,4,0,0,0,715.405823
853,1680,1,0,0,0,704.604065
-182,1377,2,0,0,0,792.082703
-182,-1134,3,1,0,5,32.430943
418,-507,4,0,0,0,1007.589539
1025,120,1,0,0,0,877.531189
-936,90,2,0,0,0,904.320251
-671,-213,3,1,0,5,32.430943
1817,-309,4,0,0,0,710.914368
281,1028,1,0,0,0,868.278076
-93,138,2,0,0,0,1403.732422
-978,-1746,3,0,0,0,687.345825
98,-824,4,0,0,0,940.334045
768,1923,1,0,0,0,677.590698
-1636,284,2,0,0,0,740.824402
-662,-895,3,1,0,5,32.430943
504,-515,4,0,0,0,981.003540
83,844,1,0,0,0,934.061646
-1235,1777,2,0,0,0,664.992432
-550,-604,3,0,0,0,944.852905
245,-514,4,1,0,0,103.655899
1611,1329,1,1,0,5,32.430943
-1139,952,2,0,0,0,772.983704
-1890,-778,3,0,0,0,681.319153
121,-798,4,0,0,0,948.320679
1457,1917,1,1,0,5,32.430943
-1953,379,2,0,0,0,689.040039
-1615,-1324,3,0,0,0,675.162964
1891,-1296,4,0,0,0,648.526917
1595,686,1,0,0,0,728.023987
-961,373,2,0,0,0,877.852600
-1123,-683,3,0,0,0,807.946289
921,-172,4,0,0,0,905.361694
1090,1042,1,1,0,2,109.260109
-753,774,2,0,0,0,864.484009
-218,-598,3,0,0,0,1016.770874
466,-716,4,1,0,5,32.430943
1104,797,1,1,0,2,109.260109
-975,1625,2,0,0,0,702.950378
-1022,-801,3,0,0,0,811.444153
1956,782,1,0,0,0,672.685669
-193,384,2,1,0,0,178.451218
-1738,-1633,3,1,0,5,32.430943
1109,1671,1,0,0,0,686.735718
-1530,326,2,0,0,0,757.934875
-1622,-404,3,0,0,0,738.915222
136,1129,1,0,0,0,849.603088
-602,1006,2,0,0,0,840.831238
-1952,-957,3,0,0,0,663.680725
1624,611,1,1,0,2,109.260109
-1415,728,2,0,0,0,753.033386
-1065,-466,3,0,0,0,843.265015
1322,843,1,0,0,0,757.282166
-915,1539,2,0,0,0,719.214294
-210,-945,3,0,0,0,895.949158
782,1051,1,0,0,0,808.905823
-251,85,2,0,0,0,1269.497314
-1466,-1898,3,0,0,0,635.666565
830,510,1,1,0,2,109.260109
-463,530,2,0,0,0,987.815308
-1565,-1737,3,0,0,0,642.915405
857,135,1,0,0,0,927.513672
-1548,1682,2,0,0,0,649.345459
-1952,-1288,3,0,0,0,642.841248
1250,1189,1,1,0,2,109.260109
-1987,1487,2,0,0,0,625.909058
-1545,-1139,3,0,0,0,699.286804
970,674,1,0,0,0,838.677246
-1481,231,2,0,0,0,770.202820
-1956,-1202,3,0,0,0,648.113892
1838,1272,1,0,0,0,655.746582
-459,974,2,0,0,0,865.316772
-1673,-1727,3,0,0,0,634.927551
1339,1836,1,0,0,0,651.037842
-770,287,2,0,0,0,943.146179
-1550,-1881,3,0,0,0,631.057007
713,262,1,0,0,0,965.801453
-1048,1768,2,0,0,0,679.727966
-1555,-634,3,0,0,0,737.593079
1965,1282,1,0,0,0,641.918457
-422,621,2,0,0,0,969.158752
-1201,-1293,3,0,0,0,723.363647
1656,682,1,0,0,0,719.137817
-726,1414,2,0,0,0,753.358826
-1121,-1654,3,0,0,0,687.798096
1593,880,1,0,0,0,714.540588
-1241,1946,2,0,0,0,646.599365
-1314,-717,3,1,0,1,56.644333
1578,1907,1,0,0,0,626.664490
-424,651,2,1,0,5,32.430943
-1379,-414,3,0,0,0,781.756714
652,1766,1,1,0,5,32.430943
-169,433,2,0,0,0,1107.413696
-1547,-1898,3,0,0,0,629.745789
1259,1379,1,0,0,0,707.179626
-1115,268,2,1,0,1,56.644333
-1092,-148,3,0,0,0,858.645691
409,1181,1,0,0,0,822.430420
-1842,1741,2,0,0,0,619.919006
-229,-169,3,0,0,0,1248.905396
803,774,1,0,0,0,855.190002
-566,1919,2,0,0,0,687.420166
-1264,-612,3,0,0,0,788.916809
1809,122,1,0,0,0,715.612427
-145,462,2,0,0,0,1095.616089
-68,-1430,3,0,0,0,783.395325
1837,1555,1,0,0,0,634.653198
-71,1994,2,0,0,0,688.202942
-1286,-1911,3,0,0,0,647.170166
1797,1943,1,0,0,0,607.617310
-469,782,2,0,0,0,913.171631
-409,-1002,3,1,0,5,32.430943
1936,746,1,1,0,2,109.260109
-1565,1624,2,0,0,0,653.187683
-559,-1654,3,0,0,0,726.436340
758,588,1,0,0,0,898.556458
-1283,1430,2,1,0,1,56.644333
-504,-519,3,1,0,5,32.430943
729,1838,1,0,0,0,690.791504
-1099,236,2,0,0,0,852.939148
-40,-1520,3,1,0,5,32.430943
988,1229,1,0,0,0,755.642212
-1440,157,2,0,0,0,780.020508
-528,-623,3,0,0,0,944.940002
1997,1597,1,1,0,5,32.430943
-303,1869,2,0,0,0,703.200867
-1358,-914,3,0,0,0,744.918701
589,1053,1,0,0,0,832.566467
-843,1287,2,0,0,0,762.714905
-1087,-683,3,0,0,0,814.723389
392,1536,1,1,0,5,32.430943
-1927,1802,2,0,0,0,608.511719
-1993,-1058,3,0,0,0,653.052795
596,401,1,0,0,0,981.901306
-1097,250,2,1,0,1,56.644333
-594,-653,3,0,0,0,922.516907
382,1660,1,1,0,5,32.430943
-37,825,2,0,0,0,941.718567
-546,-453,3,0,0,0,985.490173
694,1650,1,0,0,0,719.286316
-1086,854,2,0,0,0,793.620605
-961,-1448,3,1,0,5,32.430943
918,698,1,0,0,0,845.566956
-1218,374,2,1,0,1,56.644333
-1076,-1985,3,0,0,0,652.868286
1468,1064,1,1,0,2,109.260109
-988,544,2,1,0,1,56.644333
-377,-560,3,0,0,0,999.806885
1205,1935,1,0,0,0,650.144470
-1383,200,2,0,0,0,790.348022
-1683,-1207,3,0,0,0,677.537964
1070,1593,1,0,0,0,699.356445
-56,1030,2,0,0,0,877.664978
-661,-922,3,0,0,0,850.286987
273,1092,1,0,0,0,852.541565
-1689,695,2,0,0,0,713.519409
-666,-1388,3,1,0,5,32.430943
997,363,1,0,0,0,869.546509
-764,1527,2,1,0,5,32.430943
-1777,-439,3,0,0,0,712.889343
1849,1624,1,0,0,0,628.314148
-678,1165,2,1,0,5,32.430943
-1602,-511,3,0,0,0,737.209961
958,71,1,1,0,2,109.260109
-1781,883,2,0,0,0,689.264221
-1691,-376,3,0,0,0,728.679932
160,1865,1,0,0,0,706.479004
-617,1755,2,0,0,0,708.251770
-1143,-1358,3,0,0,0,721.700073
386,1744,1,0,0,0,719.895935
-1295,-236,3,0,0,0,807.522339
757,1529,1,1,0,2,109.260109
-130,-1527,3,0,0,0,763.834534
1717,1921,1,0,0,0,615.250732
-1016,-914,3,0,0,0,796.745544
1222,1472,1,0,0,0,700.233032
-1910,-1504,3,1,0,1,56.644333
708,1159,1,0,0,0,798.534302
-1977,-1850,3,0,0,0,601.142639
788,1636,1,1,0,5,32.430943
-646,-614,3,0,0,0,919.758545
1723,1546,1,1,0,5,32.430943
-867,-516,3,1,0,1,56.644333
1642,207,1,0,0,0,741.770996
-613,-625,3,1,0,5,32.430943
1715,1202,1,0,0,0,674.351685
501,1265,1,0,0,0,798.014771
110,1266,1,0,0,0,817.649292
142,1048,1,0,0,0,870.484253
1032,1634,1,1,0,2,109.260109
279,477,1,0,0,0,1057.521973
1237,1396,1,0,0,0,707.497803
652,45,1,0,0,0,1009.148254
1996,1053,1,1,0,5,32.430943
1849,1966,1,0,0,0,602.057922
1485,597,1,1,0,2,109.260109
1078,122,1,0,0,0,863.147156
1131,1172,1,1,0,2,109.260109
1564,429,1,0,0,0,747.589417
1651,1146,1,0,0,0,686.132690
388,629,1,0,0,0,973.713501
441,1884,1,0,0,0,696.990173
984,1339,1,0,0,0,740.615051
1553,346,1,0,0,0,753.071960
582,1498,1,0,0,0,750.198975
248,834,1,0,0,0,926.676880
1909,949,1,0,0,0,669.267761
118,1260,1,0,0,0,818.841187
688,1949,1,1,0,5,32.430943


each generation good chromosome number
300,299,296,295,293,290,291,287,294,286,290,282,287,288,283,285,285,283,292,290,294,294,296,283,294,293,288,293,292,291,295,289,291,296,292,293,297,292,295,295,292,298,295,295,296,298,293,298,295,296,297,300,295,299,296,296,298,297,297,298,297,297,298,297,296,297,298,297,298,297,298,298,299,298,299,296,297,300,300,299,295,297,293,299,297,298,298,295,300,300,297,299,299,298,297,298,297,296,299,300,