350.666656,351.564301,349.630341,337.474243,351.618530,351.276123,351.387512,347.342377,351.293579,351.890381,343.629639,344.304352,352.140991,350.979218,350.426117,346.625580,342.757599,345.392517,343.848724,351.179626,350.556122,345.892365,346.900818,351.762421,350.520721,345.536316,343.844727,339.534637,344.123047,351.560089,351.986115,350.710999,350.784515,343.859192,343.979614,343.979614,348.979614,351.044861,340.223724,350.760834,352.524719,350.933441,351.858429,350.403442,343.277008,342.609283,345.629547,340.678101,346.118042,349.086975,352.380707,352.751251,345.136353,350.095428,336.958374,339.783661,351.043274,345.073669,345.073669,343.521820,351.568817,350.723633,345.874481,350.579773,351.138611,344.548737,349.129425,346.915131,341.151062,351.960297,351.842407,351.519104,350.870087,344.459961,344.019012,350.656555,344.389801,351.617065,344.837341,351.004211,347.937317,347.937317,345.894165,349.701416,351.901184,344.432434,351.158081,351.487488,340.422241,345.374695,352.272766,344.826569,342.026367,348.964752,348.969360,342.181610,352.338165,348.652161,349.767456,352.355408,

avg. max avg. throughput in test times
347.743134
avg. BS TX power in all test times
MBS area 1,MBS area 2,MBS area 3,MBS area 4,CBSD 1,CBSD 2,CBSD 3,CBSD 4,CBSD 5,CBSD 6,CBSD 7,CBSD 8,CBSD 9,CBSD 10,CBSD 11,CBSD 12,CBSD 13,CBSD 14,CBSD 15,CBSD 16,CBSD 17,CBSD 18,CBSD 19,CBSD 20,CBSD 21,CBSD 22,CBSD 23,CBSD 24,CBSD 25,CBSD 26,CBSD 27,
10.000,10.000,10.000,10.000,0.130,0.160,0.120,0.170,0.220,0.180,0.200,0.110,0.130,0.120,0.140,0.120,0.150,0.150,0.190,0.160,0.110,0.150,0.150,0.130,0.130,0.150,0.110,0.110,0.170,0.170,0.170,
avg. mbs all power,avg. cbsd enable number,avg. mbs area all power,avg. cbsd all power
70.000,4.000,40.000,4.000
avg. number of relay UE
757

BS TX power
MBS area 1,MBS area 2,MBS area 3,MBS area 4,CBSD 1,CBSD 2,CBSD 3,CBSD 4,CBSD 5,CBSD 6,CBSD 7,CBSD 8,CBSD 9,CBSD 10,CBSD 11,CBSD 12,CBSD 13,CBSD 14,CBSD 15,CBSD 16,CBSD 17,CBSD 18,CBSD 19,CBSD 20,CBSD 21,CBSD 22,CBSD 23,CBSD 24,CBSD 25,CBSD 26,CBSD 27,
10.000,10.000,10.000,10.000,1.000,0.000,0.000,1.000,0.000,0.000,0.000,0.000,0.000,0.000,1.000,0.000,0.000,0.000,0.000,0.000,0.000,1.000,0.000,0.000,0.000,0.000,0.000,0.000,0.000,0.000,0.000,
max average power
352.355408

x,y,area,be blocked (1 : NLOS / 0 : LOS),be blocked number (>=1 : CBSD(x) / 0 : no),connect bs number (>=1 : CBSD / 0 : MBS),throughput (unit : M bps)
865,701,1,0,0,0,855.683655
-1613,248,2,1,0,4,58.492023
-1396,-382,3,0,0,0,780.260986
202,-1381,4,1,0,11,46.863964
1836,241,1,1,0,18,40.178303
-110,81,2,0,0,0,1460.679321
-1263,-766,3,0,0,0,774.404724
692,-1845,4,0,0,11,46.863964
940,1828,1,0,0,18,40.178303
-1989,949,2,0,0,1,60.770741
-1260,-1233,3,0,0,4,58.492023
484,-92,4,0,0,0,1090.629150
1001,571,1,0,0,0,845.771179
-66,511,2,0,0,0,1077.706787
-1052,-1554,3,0,0,4,58.492023
1419,-285,4,0,0,0,780.257690
1341,922,1,1,0,18,40.178303
-866,1646,2,0,0,1,60.770741
-820,-274,3,0,0,0,928.511902
1166,-834,4,0,0,0,783.004150
427,189,1,1,0,18,40.178303
-1367,878,2,1,0,1,60.770741
-636,-1860,3,0,0,4,58.492023
917,-1705,4,0,0,11,46.863964
1923,1804,1,1,0,18,40.178303
-1244,957,2,0,0,0,756.987427
-1274,-891,3,0,0,0,759.718140
1378,-1084,4,0,0,0,725.230774
492,1590,1,0,0,0,740.149170
-1054,100,2,0,0,0,870.169495
-283,-443,3,0,0,0,1071.925537
1221,-1827,4,1,0,11,46.863964
275,1570,1,0,0,0,752.562744
-332,1034,2,0,0,0,862.852417
-632,-1992,3,1,0,4,58.492023
296,-1255,4,1,0,11,46.863964
823,688,1,1,0,18,40.178303
-558,616,2,1,0,1,60.770741
-1834,-1080,3,0,0,4,58.492023
1770,-370,4,0,0,11,46.863964
1000,507,1,0,0,0,853.675415
-14,117,2,1,0,18,40.178303
-1579,-1274,3,1,0,4,58.492023
745,-1712,4,0,0,11,46.863964
1314,1735,1,0,0,18,40.178303
-1451,1287,2,0,0,1,60.770741
-209,-5,3,0,0,0,1337.906616
1226,-375,4,0,0,0,815.104004
66,68,1,1,0,0,783.970093
-356,919,2,1,0,1,60.770741
-1985,-514,3,0,0,4,58.492023
162,-1129,4,1,0,11,46.863964
1254,22,1,0,0,0,821.425049
-27,959,2,0,0,0,898.540527
-661,-1046,3,1,0,4,58.492023
479,-253,4,0,0,0,1063.262573
192,1937,1,0,0,18,40.178303
-572,780,2,0,0,0,896.186157
-743,-298,3,1,0,4,58.492023
1396,-56,4,1,0,18,40.178303
95,1988,1,0,0,18,40.178303
-1113,436,2,0,0,0,835.245422
-134,-671,3,0,0,0,995.916565
574,-903,4,1,0,11,46.863964
737,504,1,0,0,0,919.238586
-1664,1158,2,0,0,1,60.770741
-1617,-649,3,1,0,4,58.492023
1655,-291,4,1,0,18,40.178303
856,203,1,1,0,18,40.178303
-46,423,2,0,0,0,1132.904541
-1604,-371,3,1,0,4,58.492023
413,-1715,4,1,0,11,46.863964
227,240,1,0,0,0,1205.913696
-155,383,2,0,0,0,1141.378052
-736,-1401,3,0,0,0,754.612427
877,-1739,4,0,0,11,46.863964
452,1116,1,1,0,18,40.178303
-1270,1312,2,0,0,1,60.770741
-1580,-1234,3,0,0,4,58.492023
645,-1156,4,1,0,11,46.863964
1833,824,1,0,0,18,40.178303
-281,1757,2,0,0,18,40.178303
-1787,-504,3,0,0,4,58.492023
1604,-1186,4,0,0,11,46.863964
536,1615,1,0,0,0,733.802551
-1336,1194,2,0,0,1,60.770741
-698,-552,3,0,0,0,920.195190
1798,-1076,4,1,0,11,46.863964
1152,940,1,0,0,0,772.523132
-665,1897,2,0,0,1,60.770741
-226,-767,3,0,0,0,951.017151
1191,-945,4,1,0,11,46.863964
462,1937,1,0,0,18,40.178303
-1428,1560,2,0,0,1,60.770741
-1176,-455,3,0,0,0,819.879517
494,-886,4,0,0,0,882.480225
1216,863,1,0,0,0,771.699280
-1690,99,2,0,0,0,735.276855
-1586,-237,3,0,0,0,750.820251
258,-1655,4,1,0,11,46.863964
1420,1705,1,0,0,18,40.178303
-366,950,2,0,0,0,881.445435
-1407,-1849,3,1,0,4,58.492023
49,-264,4,1,0,18,40.178303
1587,782,1,0,0,18,40.178303
-1096,1538,2,0,0,1,60.770741
-1666,-786,3,0,0,4,58.492023
1101,-1591,4,0,0,11,46.863964
67,85,1,1,0,0,726.761414
-1774,1593,2,1,0,1,60.770741
-1231,-1545,3,0,0,4,58.492023
665,-1832,4,0,0,11,46.863964
1236,1221,1,1,0,18,40.178303
-1018,5,2,0,0,0,881.460083
-1253,-1825,3,0,0,4,58.492023
228,-795,4,0,0,0,941.293396
293,1423,1,0,0,0,779.165466
-287,1171,2,0,0,0,832.776123
-697,-678,3,1,0,4,58.492023
1587,-1176,4,0,0,11,46.863964
467,1649,1,0,0,0,731.749084
-1661,1103,2,0,0,1,60.770741
-1084,-167,3,1,0,4,58.492023
1920,-932,4,0,0,11,46.863964
1810,1093,1,0,0,18,40.178303
-622,508,2,1,0,1,60.770741
-1412,-1986,3,0,0,4,58.492023
1257,-612,4,0,0,0,790.207947
1429,518,1,1,0,18,40.178303
-1488,1920,2,0,0,1,60.770741
-478,-1451,3,0,0,0,764.738342
296,-1280,4,0,0,0,808.079651
12,523,1,0,0,0,1073.322754
-480,939,2,1,0,1,60.770741
-91,-1765,3,1,0,11,46.863964
29,-847,4,0,0,0,934.257019
620,416,1,1,0,18,40.178303
-1439,1138,2,0,0,1,60.770741
-481,-1073,3,0,0,0,839.970520
945,-418,4,1,0,11,46.863964
224,887,1,0,0,0,912.229004
-976,1025,2,0,0,0,786.679077
-1462,-286,3,0,0,0,771.969971
729,-524,4,1,0,11,46.863964
774,365,1,0,0,0,931.466431
-612,1702,2,1,0,18,40.178303
-1415,-1139,3,1,0,4,58.492023
61,-1204,4,1,0,11,46.863964
1066,1407,1,0,0,18,40.178303
-1939,1010,2,0,0,1,60.770741
-190,-1902,3,1,0,11,46.863964
275,-1058,4,0,0,0,860.960449
548,1906,1,0,0,18,40.178303
-1841,1426,2,0,0,1,60.770741
-478,-61,3,0,0,0,1097.015137
1165,-352,4,0,0,0,830.078918
343,1194,1,1,0,18,40.178303
-557,994,2,1,0,1,60.770741
-19,-1659,3,0,0,0,741.059204
1114,-1492,4,1,0,11,46.863964
269,1901,1,0,0,18,40.178303
-1806,800,2,0,0,1,60.770741
-1341,-1591,3,0,0,4,58.492023
230,-1050,4,0,0,0,865.808777
52,964,1,0,0,0,896.738831
-5,1567,2,0,0,0,757.446777
-512,-1970,3,0,0,4,58.492023
945,-884,4,0,0,0,812.436890
1989,516,1,1,0,18,40.178303
-1477,1991,2,0,0,1,60.770741
-1021,-198,3,1,0,4,58.492023
749,-191,4,0,0,0,960.778687
186,919,1,0,0,0,905.143372
-1244,203,2,0,0,0,819.993164
-588,-1750,3,1,0,4,58.492023
1377,-485,4,0,0,0,777.772278
1025,780,1,0,0,0,813.770020
-581,1137,2,0,0,0,816.278381
-1441,-1275,3,0,0,4,58.492023
1486,-1282,4,1,0,11,46.863964
338,442,1,1,0,18,40.178303
-1630,291,2,0,0,0,741.636719
-1403,-50,3,1,0,4,58.492023
1708,-925,4,1,0,11,46.863964
232,1982,1,0,0,18,40.178303
-1387,331,2,0,0,0,784.534607
-598,-1743,3,0,0,4,58.492023
1329,-697,4,1,0,11,46.863964
682,1539,1,0,0,0,736.899841
-628,1038,2,1,0,1,60.770741
-1964,-1158,3,1,0,4,58.492023
740,-1898,4,1,0,11,46.863964
898,496,1,1,0,18,40.178303
-1821,404,2,0,0,1,60.770741
-1361,-141,3,0,0,0,796.395691
1785,-1815,4,0,0,11,46.863964
1237,234,1,0,0,0,820.339233
-728,815,2,0,0,0,861.054504
-1670,-1587,3,1,0,4,58.492023
409,-99,4,0,0,0,1136.096191
178,226,1,1,0,18,40.178303
-215,657,2,0,0,0,992.968201
-1639,-1275,3,1,0,4,58.492023
49,-1879,4,0,0,11,46.863964
953,1545,1,1,0,18,40.178303
-1049,1687,2,1,0,1,60.770741
-371,-1649,3,0,0,0,735.730713
401,-1371,4,0,0,0,784.033203
16,861,1,1,0,18,40.178303
-610,1059,2,1,0,1,60.770741
-11,-1572,3,0,0,0,756.526855
810,-375,4,0,0,0,919.321838
410,766,1,0,0,0,927.096924
-1151,360,2,1,0,1,60.770741
-781,-470,3,1,0,4,58.492023
820,-1107,4,1,0,11,46.863964
1704,240,1,0,0,0,730.586060
-1938,875,2,0,0,1,60.770741
-869,-1207,3,1,0,4,58.492023
653,-510,4,0,0,0,940.768005
1234,1927,1,0,0,18,40.178303
-793,438,2,0,0,0,915.053162
-893,-1744,3,1,0,4,58.492023
1345,-1244,4,1,0,11,46.863964
1861,1384,1,1,0,18,40.178303
-496,394,2,0,0,0,1018.156494
-1447,-1810,3,0,0,4,58.492023
1146,-1970,4,1,0,11,46.863964
1551,1549,1,1,0,18,40.178303
-652,1609,2,0,0,0,728.054199
-77,-1393,3,1,0,11,46.863964
1120,-1286,4,0,0,0,733.176392
904,1942,1,1,0,18,40.178303
-975,1685,2,0,0,1,60.770741
-9,-1540,3,0,0,0,762.432495
788,-651,4,0,0,0,880.298645
352,866,1,1,0,18,40.178303
-1520,1709,2,0,0,18,40.178303
-868,-198,3,1,0,4,58.492023
681,-809,4,1,0,11,46.863964
1309,133,1,0,0,0,807.651123
-1518,239,2,0,0,0,763.053345
-1009,-1913,3,0,0,4,58.492023
1305,-1189,4,1,0,11,46.863964
1279,260,1,0,0,0,809.971985
-1219,1785,2,0,0,1,60.770741
-1722,-1260,3,0,0,4,58.492023
807,-1414,4,1,0,11,46.863964
305,1469,1,0,0,0,769.930420
-291,559,2,0,0,0,1019.633545
-1146,-1952,3,1,0,4,58.492023
510,-343,4,0,0,0,1026.857544
972,161,1,0,0,0,890.880249
-1001,1743,2,0,0,1,60.770741
-545,-535,3,1,0,4,58.492023
334,-1488,4,1,0,11,46.863964
1187,120,1,0,0,0,835.799744
-1236,744,2,1,0,1,60.770741
-1581,-1632,3,0,0,4,58.492023
1541,-1468,4,0,0,11,46.863964
658,292,1,0,0,0,981.285095
-1872,585,2,1,0,1,60.770741
-1296,-1412,3,0,0,4,58.492023
1200,-590,4,0,0,0,803.000549
1090,962,1,1,0,18,40.178303
-365,455,2,0,0,0,1041.929077
-915,-1162,3,0,0,0,774.040405
489,-1267,4,1,0,11,46.863964
1287,1035,1,0,0,0,742.370178
-1270,1922,2,0,0,1,60.770741
-1222,-692,3,1,0,4,58.492023
1641,-1984,4,0,0,11,46.863964
1530,1329,1,1,0,18,40.178303
-1829,442,2,0,0,1,60.770741
-1614,-1382,3,1,0,4,58.492023
1578,-1566,4,0,0,11,46.863964
1475,356,1,0,0,0,766.690796
-392,62,2,0,0,0,1152.989502
-517,-556,3,0,0,0,965.948486
164,-976,4,1,0,11,46.863964
545,347,1,0,0,0,1012.457764
-1103,1939,2,0,0,1,60.770741
-508,-90,3,1,0,4,58.492023
1348,-1562,4,0,0,11,46.863964
1077,635,1,0,0,0,822.328125
-1871,544,2,0,0,1,60.770741
-368,-603,3,0,0,0,986.724365
1062,-100,4,0,0,0,868.012329
1574,1288,1,1,0,18,40.178303
-702,1455,2,1,0,1,60.770741
-474,-1739,3,0,0,4,58.492023
1342,-1556,4,1,0,11,46.863964
1252,273,1,0,0,0,815.250000
-997,1811,2,1,0,1,60.770741
-1560,-962,3,0,0,4,58.492023
873,-1872,4,0,0,11,46.863964
1331,1700,1,1,0,18,40.178303
-1351,1410,2,0,0,18,40.178303
-1388,-1973,3,1,0,4,58.492023
1521,-795,4,0,0,0,731.350647
1672,919,1,0,0,18,40.178303
-95,762,2,0,0,0,962.675354
-1845,-1353,3,1,0,4,58.492023
926,-1211,4,0,0,0,765.347839
1430,1503,1,0,0,18,40.178303
-1492,230,2,0,0,0,768.157104
-390,-1634,3,0,0,0,737.487549
162,-742,4,1,0,11,46.863964
308,874,1,0,0,0,908.526855
-1878,790,2,1,0,1,60.770741
-1474,-87,3,1,0,4,58.492023
1657,-653,4,0,0,11,46.863964
1090,1873,1,0,0,18,40.178303
-1886,788,2,0,0,1,60.770741
-720,-413,3,0,0,0,940.252563
498,-1932,4,1,0,11,46.863964
249,1930,1,1,0,18,40.178303
-1386,905,2,1,0,1,60.770741
-544,-1982,3,1,0,4,58.492023
1224,-1937,4,0,0,11,46.863964
633,1137,1,0,0,0,810.816895
-1025,1631,2,0,0,1,60.770741
-408,-56,3,0,0,0,1142.322266
1750,-1528,4,0,0,11,46.863964
1014,577,1,1,0,18,40.178303
-1150,1864,2,0,0,1,60.770741
-1114,-1935,3,0,0,4,58.492023
1269,-1033,4,0,0,0,745.031860
1481,1108,1,1,0,18,40.178303
-1062,1347,2,0,0,0,731.507080
-265,-1467,3,0,0,0,771.771179
1376,-1018,4,0,0,0,732.120056
1399,1537,1,0,0,18,40.178303
-1928,770,2,0,0,1,60.770741
-1659,-773,3,0,0,4,58.492023
1346,-487,4,1,0,11,46.863964
948,801,1,0,0,0,824.445374
-160,44,2,0,0,0,1404.552734
-1495,-1735,3,1,0,4,58.492023
1015,-1640,4,0,0,11,46.863964
679,1538,1,1,0,18,40.178303
-115,639,2,0,0,0,1011.044861
-1725,-629,3,0,0,4,58.492023
81,-1442,4,0,0,0,780.866516
551,495,1,0,0,0,973.070801
-292,995,2,1,0,1,60.770741
-1078,-284,3,0,0,0,855.322449
1050,-1455,4,1,0,11,46.863964
286,1388,1,0,0,0,786.311096
-1203,448,2,0,0,0,814.736023
-254,-1664,3,1,0,11,46.863964
1618,-1491,4,1,0,11,46.863964
1036,901,1,1,0,18,40.178303
-1667,799,2,0,0,1,60.770741
-394,-1626,3,0,0,0,738.658203
1312,-1198,4,0,0,11,46.863964
1386,613,1,0,0,0,767.040100
-1043,824,2,0,0,0,804.720947
-1833,-1611,3,0,0,4,58.492023
1165,-156,4,1,0,18,40.178303
132,441,1,0,0,0,1110.207153
-1515,965,2,0,0,1,60.770741
-1829,-1131,3,0,0,4,58.492023
1812,-1233,4,0,0,11,46.863964
1620,1100,1,1,0,18,40.178303
-1910,1141,2,0,0,1,60.770741
-1043,-422,3,0,0,0,852.662109
515,-85,4,1,0,18,40.178303
172,691,1,0,0,0,984.423279
-1442,1992,2,0,0,18,40.178303
-1364,-1814,3,1,0,4,58.492023
711,-198,4,1,0,18,40.178303
1674,1384,1,1,0,18,40.178303
-1490,1413,2,1,0,1,60.770741
-613,-1109,3,0,0,0,818.471436
679,-1562,4,1,0,11,46.863964
1840,32,1,0,0,18,40.178303
-660,597,2,1,0,1,60.770741
-925,-1023,3,0,0,0,794.115295
1907,-1877,4,1,0,11,46.863964
913,757,1,1,0,18,40.178303
-935,1131,2,0,0,0,776.295410
-1485,-1298,3,0,0,4,58.492023
1764,-592,4,1,0,11,46.863964
1608,237,1,1,0,18,40.178303
-1130,1831,2,1,0,18,40.178303
-246,-728,3,1,0,4,58.492023
970,-419,4,0,0,0,870.742676
67,154,1,0,0,0,1401.089600
-1447,1595,2,0,0,1,60.770741
-1313,-1936,3,0,0,4,58.492023
1231,-226,4,0,0,0,822.026245
1934,665,1,0,0,18,40.178303
-697,1577,2,0,0,0,730.029480
-321,-1111,3,1,0,4,58.492023
1210,-1071,4,1,0,11,46.863964
1082,139,1,0,0,0,861.557068
-420,1329,2,0,0,0,791.089294
-1731,-547,3,0,0,4,58.492023
1654,-131,4,1,0,18,40.178303
1781,593,1,1,0,18,40.178303
-1947,477,2,1,0,1,60.770741
-1802,-189,3,0,0,4,58.492023
539,-310,4,1,0,11,46.863964
532,451,1,1,0,18,40.178303
-1466,1664,2,0,0,1,60.770741
-189,-1362,3,0,0,0,794.978088
226,-490,4,1,0,11,46.863964
601,109,1,1,0,18,40.178303
-913,475,2,0,0,0,878.321655
-926,-679,3,0,0,0,846.806824
1744,-276,4,1,0,18,40.178303
779,1075,1,0,0,0,805.075928
-1606,768,2,1,0,1,60.770741
-1444,-625,3,0,0,0,756.268433
1633,-845,4,0,0,11,46.863964
1150,665,1,0,0,0,804.891846
-1888,1187,2,1,0,1,60.770741
-1886,-829,3,0,0,4,58.492023
394,-1768,4,1,0,11,46.863964
1344,71,1,1,0,18,40.178303
-1459,754,2,0,0,0,743.977783
-918,-1602,3,1,0,4,58.492023
973,-1230,4,1,0,11,46.863964
314,1336,1,1,0,18,40.178303
-99,597,2,0,0,0,1031.329468
-1493,-1946,3,0,0,4,58.492023
561,-629,4,0,0,0,935.847717
1032,1162,1,1,0,18,40.178303
-982,1312,2,1,0,1,60.770741
-1877,-1483,3,1,0,4,58.492023
1466,-1250,4,1,0,11,46.863964
1332,1849,1,0,0,18,40.178303
-780,1530,2,1,0,1,60.770741
-617,-26,3,1,0,4,58.492023
1854,-1347,4,0,0,11,46.863964
1635,1206,1,0,0,18,40.178303
-588,332,2,0,0,0,999.731201
-766,-455,3,0,0,0,919.854919
527,-774,4,0,0,0,905.529114
452,1554,1,0,0,0,748.185974
-1863,1528,2,0,0,1,60.770741
-334,-56,3,1,0,18,40.178303
1337,-1959,4,1,0,11,46.863964
441,1247,1,0,0,0,806.138184
-1540,1947,2,1,0,1,60.770741
-587,-138,3,1,0,4,58.492023
834,-1295,4,0,0,0,762.378052
1575,1530,1,1,0,18,40.178303
-1384,255,2,0,0,0,788.317627
-475,-246,3,0,0,0,1066.899292
533,-564,4,0,0,0,959.649048
1656,1873,1,0,0,18,40.178303
-183,364,2,0,0,0,1145.429443
-512,-1155,3,0,0,0,819.322815
393,-1700,4,0,0,0,726.612610
850,1902,1,0,0,18,40.178303
-811,1858,2,1,0,1,60.770741
-375,-1254,3,0,0,0,809.155823
237,-1611,4,0,0,0,746.429443
177,1549,1,1,0,18,40.178303
-608,593,2,0,0,0,933.644104
-1488,-1144,3,0,0,4,58.492023
1853,-1224,4,1,0,11,46.863964
0,561,1,0,0,0,1053.173340
-554,1094,2,0,0,0,827.898926
-471,-1671,3,0,0,0,728.049377
1940,-1680,4,0,0,11,46.863964
1582,1811,1,0,0,18,40.178303
-923,541,2,0,0,0,867.159058
-1262,-729,3,1,0,4,58.492023
750,-335,4,0,0,0,943.262085
548,913,1,0,0,0,868.515442
-1144,619,2,0,0,0,810.949524
-1628,-1433,3,0,0,4,58.492023
831,-281,4,1,0,11,46.863964
1634,657,1,1,0,18,40.178303
-1850,210,2,1,0,1,60.770741
-1165,-1171,3,0,0,0,742.324280
1020,-690,4,0,0,0,826.685059
471,96,1,0,0,0,1097.729980
-325,1082,2,1,0,18,40.178303
-673,-989,3,0,0,0,835.025818
1535,-1512,4,0,0,11,46.863964
926,149,1,0,0,0,905.058105
-569,1141,2,1,0,1,60.770741
-1828,-1459,3,0,0,4,58.492023
1426,-1227,4,0,0,11,46.863964
73,1823,1,0,0,18,40.178303
-154,1817,2,1,0,18,40.178303
-1057,-1406,3,0,0,0,724.294678
97,-123,4,1,0,18,40.178303
1662,1912,1,1,0,18,40.178303
-881,74,2,1,0,1,60.770741
-961,-1075,3,1,0,4,58.492023
213,-560,4,0,0,0,1034.208374
905,476,1,0,0,0,880.180786
-1883,511,2,0,0,1,60.770741
-140,-575,3,1,0,4,58.492023
771,-1960,4,1,0,11,46.863964
1594,94,1,0,0,0,752.047058
-124,830,2,1,0,18,40.178303
-1198,-1736,3,0,0,4,58.492023
1506,-1047,4,0,0,11,46.863964
887,624,1,0,0,0,863.247803
-1678,1291,2,0,0,1,60.770741
-1434,-1983,3,1,0,4,58.492023
1876,-1695,4,1,0,11,46.863964
311,1659,1,0,0,0,736.124939
-788,97,2,0,0,0,953.062439
-614,-1572,3,0,0,0,736.166260
834,-1245,4,0,0,0,770.275696
1225,789,1,0,0,0,778.326355
-1978,1689,2,0,0,18,40.178303
-1868,-188,3,1,0,4,58.492023
1610,-825,4,0,0,11,46.863964
115,1456,1,0,0,0,777.650696
-910,1019,2,1,0,1,60.770741
-868,-980,3,1,0,4,58.492023
216,-1183,4,0,0,0,833.516663
1966,753,1,0,0,18,40.178303
-747,62,2,0,0,0,969.637939
-1438,-1883,3,1,0,4,58.492023
1126,-1367,4,0,0,11,46.863964
571,1993,1,0,0,18,40.178303
-1522,1870,2,1,0,1,60.770741
-1776,-1764,3,0,0,4,58.492023
401,-1754,4,0,0,11,46.863964
1593,1030,1,0,0,18,40.178303
-1154,1620,2,0,0,1,60.770741
-989,-212,3,0,0,0,883.317261
725,-365,4,0,0,0,946.692322
1128,1341,1,0,0,0,725.383606
-1962,45,2,0,0,4,58.492023
-201,-18,3,1,0,18,40.178303
601,-812,4,0,0,0,883.672302
1605,1688,1,1,0,18,40.178303
-267,1331,2,1,0,18,40.178303
-1677,-194,3,0,0,0,736.076355
1331,-1545,4,1,0,11,46.863964
1458,954,1,1,0,18,40.178303
-1653,1034,2,1,0,1,60.770741
-690,-111,3,0,0,0,989.821960
1208,-1575,4,1,0,11,46.863964
839,1392,1,0,0,0,746.966187
-1885,1987,2,0,0,1,60.770741
-860,-1030,3,0,0,0,802.007568
125,-1110,4,1,0,11,46.863964
615,1546,1,1,0,18,40.178303
-867,413,2,1,0,1,60.770741
-1467,-947,3,0,0,0,726.403381
488,-833,4,1,0,11,46.863964
991,1421,1,0,0,0,728.657532
-810,16,2,0,0,0,947.238464
-1608,-1723,3,1,0,4,58.492023
1158,-691,4,0,0,0,800.582214
1080,487,1,1,0,18,40.178303
-373,1403,2,1,0,18,40.178303
-771,-1707,3,0,0,4,58.492023
1166,-480,4,0,0,0,819.883545
624,1329,1,0,0,0,776.146851
-917,382,2,1,0,1,60.770741
-1121,-1281,3,1,0,4,58.492023
540,-846,4,1,0,11,46.863964
137,313,1,0,0,0,1196.191895
-1969,1065,2,1,0,1,60.770741
-901,-50,3,0,0,0,916.179016
1371,-1847,4,0,0,11,46.863964
727,187,1,0,0,0,969.216675
-1701,363,2,0,0,0,727.523132
-564,-1172,3,0,0,0,810.967896
1799,-1761,4,0,0,11,46.863964
637,1974,1,1,0,18,40.178303
-1304,255,2,0,0,0,804.833557
-616,-1943,3,0,0,4,58.492023
1774,-1695,4,0,0,11,46.863964
716,1751,1,0,0,18,40.178303
-1039,738,2,0,0,0,816.822876
-420,-374,3,1,0,4,58.492023
1798,-80,4,0,0,18,40.178303
1448,148,1,0,0,0,778.633606
-1233,362,2,0,0,0,814.438049
-1138,-1614,3,0,0,4,58.492023
977,-1187,4,0,0,0,762.928528
1076,273,1,1,0,18,40.178303
-1765,1083,2,0,0,1,60.770741
-230,-1959,3,1,0,11,46.863964
1551,-884,4,1,0,11,46.863964
919,598,1,0,0,0,860.098938
-1319,951,2,1,0,1,60.770741
-1622,-199,3,1,0,4,58.492023
264,-1755,4,0,0,11,46.863964
254,1399,1,0,0,0,785.357483
-1799,22,2,0,0,1,60.770741
-1184,-71,3,1,0,1,60.770741
838,-666,4,1,0,11,46.863964
930,1372,1,0,0,0,741.338623
-61,1092,2,1,0,18,40.178303
-203,-1978,3,0,0,11,46.863964
1867,-272,4,1,0,18,40.178303
1088,1078,1,0,0,0,764.005798
-1561,1599,2,1,0,1,60.770741
-1790,-1160,3,0,0,4,58.492023
885,-1930,4,0,0,11,46.863964
1093,948,1,0,0,0,780.356079
-1563,1831,2,0,0,1,60.770741
-373,-1518,3,1,0,4,58.492023
258,-1307,4,0,0,0,804.072571
555,643,1,0,0,0,933.612000
-1902,728,2,1,0,1,60.770741
-768,-757,3,1,0,4,58.492023
1914,-1522,4,1,0,11,46.863964
1992,653,1,1,0,18,40.178303
-494,1723,2,0,0,18,40.178303
-270,-635,3,0,0,0,993.496643
728,-596,4,0,0,0,904.156799
288,875,1,1,0,18,40.178303
-630,1374,2,0,0,0,767.791382
-734,-150,3,0,0,0,969.791077
1019,-376,4,1,0,11,46.863964
1909,17,1,0,0,18,40.178303
-77,1987,2,0,0,18,40.178303
-376,-450,3,0,0,0,1040.400879
1032,-153,4,0,0,0,874.402100
1023,1312,1,0,0,0,740.267822
-1965,1370,2,0,0,1,60.770741
-1742,-365,3,1,0,4,58.492023
930,-1539,4,0,0,11,46.863964
101,1513,1,1,0,18,40.178303
-988,562,2,1,0,1,60.770741
-1719,-808,3,0,0,4,58.492023
1487,-1654,4,0,0,11,46.863964
1942,412,1,1,0,18,40.178303
-1610,673,2,0,0,0,726.585388
-1898,-917,3,0,0,4,58.492023
1683,-1132,4,0,0,11,46.863964
384,149,1,1,0,18,40.178303
-99,1650,2,0,0,0,742.122986
-322,-1732,3,0,0,11,46.863964
773,-1786,4,0,0,11,46.863964
261,1144,1,0,0,0,840.578491
-1275,59,2,1,0,1,60.770741
-1204,-51,3,0,0,0,832.914124
1672,-887,4,1,0,11,46.863964
1284,1648,1,0,0,18,40.178303
-1615,541,2,0,0,0,733.536072
-1195,-1270,3,0,0,0,726.778564
1951,-725,4,1,0,11,46.863964
1062,1194,1,1,0,18,40.178303
-808,803,2,0,0,0,849.099365
-682,-146,3,0,0,0,990.407593
28,-1677,4,0,0,0,737.942749
1723,1664,1,0,0,18,40.178303
-1684,139,2,1,0,1,60.770741
-73,-1222,3,0,0,0,828.391296
31,-1891,4,0,0,11,46.863964
1920,420,1,1,0,18,40.178303
-150,85,2,1,0,18,40.178303
-1397,-902,3,0,0,0,740.405640
1004,-515,4,1,0,11,46.863964
1032,1750,1,0,0,18,40.178303
-608,1922,2,0,0,1,60.770741
-1065,-1894,3,0,0,4,58.492023
299,-480,4,0,0,0,1050.864746
504,1158,1,0,0,0,819.429932
-521,1362,2,0,0,0,778.100769
-1902,-524,3,1,0,4,58.492023
171,-1217,4,0,0,0,827.271179
690,659,1,0,0,0,900.118164
-1666,613,2,0,0,1,60.770741
-1589,-1464,3,0,0,4,58.492023
1030,-1016,4,1,0,11,46.863964
891,1910,1,0,0,18,40.178303
-869,321,2,0,0,0,908.617126
-192,-21,3,1,0,18,40.178303
1210,-929,4,0,0,0,765.153931
315,400,1,1,0,18,40.178303
-583,526,2,1,0,1,60.770741
-801,-1765,3,0,0,4,58.492023
1846,-1796,4,0,0,11,46.863964
1599,665,1,1,0,18,40.178303
-1821,310,2,1,0,1,60.770741
-1392,-1290,3,1,0,4,58.492023
1154,-1837,4,1,0,11,46.863964
1844,1311,1,0,0,18,40.178303
-599,249,2,1,0,1,60.770741
-274,-520,3,0,0,0,1039.731567
1992,-1625,4,0,0,11,46.863964
687,264,1,0,0,0,974.910889
-36,1096,2,0,0,0,860.057495
-1359,-351,3,1,0,4,58.492023
1978,-1585,4,1,0,11,46.863964
806,278,1,0,0,0,932.528687
-1185,465,2,1,0,1,60.770741
-1807,-1752,3,0,0,4,58.492023
1269,-337,4,1,0,11,46.863964
1746,864,1,0,0,18,40.178303
-248,1973,2,0,0,18,40.178303
-1917,-1932,3,1,0,4,58.492023
1768,-1369,4,0,0,11,46.863964
1988,430,1,0,0,18,40.178303
-1985,1899,2,0,0,1,60.770741
-1963,-1207,3,1,0,4,58.492023
809,-819,4,1,0,11,46.863964
1628,954,1,0,0,18,40.178303
-490,1461,2,0,0,0,762.254761
-130,-1188,3,0,0,0,835.308044
765,-852,4,1,0,11,46.863964
1743,9,1,1,0,18,40.178303
-1472,1860,2,1,0,18,40.178303
-1544,-1039,3,1,0,4,58.492023
663,-713,4,0,0,0,894.297485
374,909,1,0,0,0,891.556580
-1822,1423,2,1,0,1,60.770741
-159,-745,3,0,0,0,964.981567
1674,-362,4,1,0,11,46.863964
1866,150,1,1,0,18,40.178303
-1842,292,2,0,0,1,60.770741
-1562,-804,3,1,0,4,58.492023
808,-338,4,0,0,0,924.777649
265,1980,1,0,0,18,40.178303
-1678,1080,2,0,0,1,60.770741
-254,-566,3,1,0,4,58.492023
1533,-372,4,1,0,11,46.863964
1192,100,1,0,0,0,835.044556
-1652,1,2,0,0,0,742.290771
-1595,-272,3,0,0,0,748.252258
432,-1571,4,0,0,0,746.257568
1488,1840,1,0,0,18,40.178303
-1173,1732,2,0,0,1,60.770741
-475,-1485,3,0,0,0,758.895691
337,-1586,4,0,0,0,747.653198
557,1945,1,0,0,18,40.178303
-44,1508,2,1,0,18,40.178303
-575,-1162,3,0,0,0,811.889648
97,-1419,4,0,0,0,785.268372
1468,1743,1,1,0,18,40.178303
-1288,104,2,0,0,0,812.842712
-1249,-1229,3,1,0,4,58.492023
1021,-250,4,1,0,11,46.863964
1555,673,1,0,0,0,735.024170
-705,1292,2,1,0,1,60.770741
-1281,-1162,3,1,0,4,58.492023
1300,-1602,4,0,0,11,46.863964
889,704,1,1,0,18,40.178303
-577,1555,2,0,0,0,741.147156
-393,-1370,3,0,0,0,784.674622
1672,-172,4,1,0,18,40.178303
1249,215,1,1,0,18,40.178303
-217,414,2,1,0,18,40.178303
-1197,-220,3,0,0,0,830.071045
1083,-108,4,0,0,0,862.222656
590,945,1,0,0,0,855.509705
-1340,1855,2,1,0,1,60.770741
-1126,-1255,3,0,0,0,736.432312
1752,-1711,4,1,0,11,46.863964
1007,278,1,0,0,0,874.019043
-1551,17,2,0,0,0,760.377014
-622,-1714,3,1,0,4,58.492023
853,-303,4,0,0,0,915.277039
1038,1160,1,0,0,0,759.357117
-388,1416,2,1,0,18,40.178303
-1302,-1161,3,1,0,4,58.492023
1592,-656,4,0,0,0,730.412781
230,1265,1,0,0,0,814.282227
-639,1486,2,0,0,0,748.334167
-860,-1689,3,1,0,4,58.492023
1873,-915,4,1,0,11,46.863964
1118,835,1,1,0,18,40.178303
-673,610,2,0,0,0,914.294128
-1952,-182,3,1,0,4,58.492023
834,-1762,4,1,0,11,46.863964
1327,1268,1,0,0,18,40.178303
-459,1502,2,1,0,18,40.178303
-777,-1733,3,0,0,4,58.492023
232,-414,4,1,0,11,46.863964
629,461,1,0,0,0,958.226013
-782,1079,2,1,0,1,60.770741
-1701,-1461,3,0,0,4,58.492023
867,-1461,4,1,0,11,46.863964
1124,291,1,1,0,18,40.178303
-885,836,2,1,0,1,60.770741
-130,-1054,3,1,0,11,46.863964
1860,-1932,4,0,0,11,46.863964
1806,259,1,0,0,18,40.178303
-291,837,2,1,0,1,60.770741
-1968,-306,3,1,0,4,58.492023
911,-1155,4,1,0,11,46.863964
269,1198,1,1,0,18,40.178303
-1119,1002,2,1,0,1,60.770741
-363,-18,3,1,0,18,40.178303
335,-978,4,1,0,11,46.863964
1199,1736,1,1,0,18,40.178303
-1279,557,2,0,0,0,790.834351
-1103,-934,3,0,0,0,780.657349
1322,-1227,4,0,0,11,46.863964
1791,23,1,0,0,18,40.178303
-841,1292,2,0,0,0,762.138245
-736,-81,3,1,0,4,58.492023
376,-1903,4,0,0,11,46.863964
431,319,1,0,0,0,1066.205078
-502,978,2,1,0,1,60.770741
-679,-1375,3,0,0,0,763.648926
472,-671,4,1,0,11,46.863964
1722,725,1,1,0,18,40.178303
-918,1769,2,0,0,18,40.178303
-1102,-1885,3,1,0,4,58.492023
1488,-595,4,0,0,0,751.010071
560,174,1,0,0,0,1040.400879
-1133,245,2,0,0,0,844.083557
-232,-648,3,0,0,0,994.223999
1450,-1337,4,0,0,11,46.863964
997,189,1,0,0,0,882.382568
-247,251,2,0,0,0,1187.475952
-1906,-122,3,0,0,4,58.492023
104,-348,4,1,0,18,40.178303
1803,51,1,0,0,18,40.178303
-365,186,2,0,0,0,1143.842896
-1655,-223,3,0,0,0,739.189819
1908,-1509,4,1,0,11,46.863964
46,1543,1,1,0,18,40.178303
-1960,724,2,1,0,1,60.770741
-1716,-1855,3,1,0,4,58.492023
1892,-257,4,0,0,18,40.178303
882,663,1,0,0,0,858.275879
-1274,1488,2,0,0,1,60.770741
-1690,-1662,3,0,0,4,58.492023
1312,-1638,4,0,0,11,46.863964
951,1129,1,1,0,18,40.178303
-293,200,2,1,0,18,40.178303
-66,-107,3,0,0,0,1484.642944
629,-1679,4,0,0,11,46.863964
334,1313,1,0,0,0,799.238892
-1191,34,2,0,0,0,836.177490
-922,-1835,3,0,0,4,58.492023
1492,-1354,4,1,0,11,46.863964
1338,1491,1,0,0,18,40.178303
-664,1826,2,0,0,18,40.178303
-76,-870,3,0,0,0,925.612427
1665,-1502,4,1,0,11,46.863964
890,1267,1,1,0,18,40.178303
-745,218,2,0,0,0,959.561951
-1178,-1246,3,0,0,0,731.607300
1166,-1505,4,1,0,11,46.863964
205,1359,1,1,0,18,40.178303
-534,401,2,1,0,1,60.770741
-1665,-1460,3,1,0,4,58.492023
517,-529,4,0,0,0,973.464172
1698,1678,1,0,0,18,40.178303
-1777,1922,2,1,0,1,60.770741
-1903,-1480,3,1,0,4,58.492023
1795,-1888,4,0,0,11,46.863964
1665,449,1,1,0,18,40.178303
-776,1322,2,0,0,0,763.759155
-709,-1196,3,0,0,0,791.796753
987,-364,4,0,0,0,872.011169
1849,1125,1,1,0,18,40.178303
-1712,1800,2,0,0,1,60.770741
-456,-19,3,1,0,18,40.178303
1909,-260,4,1,0,18,40.178303
1013,811,1,0,0,0,811.631531
-227,975,2,0,0,0,886.290283
-1033,-1620,3,1,0,4,58.492023
1087,-304,4,0,0,0,851.749939
51,947,1,0,0,0,901.863770
-263,735,2,0,0,0,957.934448
-255,-1688,3,0,0,0,732.872375
324,-721,4,1,0,11,46.863964
121,1690,1,1,0,18,40.178303
-1595,1035,2,1,0,1,60.770741
-916,-1089,3,0,0,0,785.126099
1062,-1097,4,0,0,0,764.900513
1966,658,1,1,0,18,40.178303
-564,859,2,1,0,1,60.770741
-170,-1280,3,0,0,0,813.054871
694,-1179,4,1,0,11,46.863964
365,287,1,1,0,18,40.178303
-854,416,2,0,0,0,901.390442
-671,-438,3,0,0,0,950.405640
438,-1493,4,0,0,0,759.484680
1130,1239,1,0,0,0,737.998413
-1987,1359,2,0,0,1,60.770741
-693,-1407,3,0,0,0,757.190857
106,-1200,4,0,0,0,833.011108
52,504,1,0,0,0,1082.543091
-1284,789,2,0,0,0,768.648376
-1918,-753,3,1,0,4,58.492023
487,-1224,4,1,0,11,46.863964
580,1742,1,0,0,18,40.178303
-1168,1800,2,0,0,1,60.770741
-1680,-771,3,1,0,4,58.492023
1023,-247,4,0,0,0,871.897644
1950,869,1,1,0,18,40.178303
-90,734,2,1,0,18,40.178303
-1220,-1740,3,0,0,4,58.492023
1937,-93,4,1,0,18,40.178303
925,926,1,1,0,18,40.178303
-463,1477,2,0,0,0,760.974304
-644,-1655,3,0,0,4,58.492023
1232,-1618,4,0,0,11,46.863964
154,1141,1,0,0,0,846.036316
-477,1724,2,1,0,18,40.178303
-1896,-1134,3,0,0,4,58.492023
999,-1611,4,0,0,11,46.863964
1567,1432,1,1,0,18,40.178303
-1877,934,2,0,0,1,60.770741
-1505,-39,3,0,0,0,768.941467
569,-804,4,0,0,0,890.958679
1734,453,1,1,0,18,40.178303
-1002,1811,2,1,0,1,60.770741
-1606,-710,3,1,0,4,58.492023
1810,-1754,4,1,0,11,46.863964
265,1950,1,1,0,18,40.178303
-1880,990,2,0,0,1,60.770741
-634,-980,3,1,0,4,58.492023
1237,-1948,4,1,0,11,46.863964
1484,161,1,0,0,0,771.392822
-1126,545,2,0,0,0,822.167419
-35,-1938,3,1,0,11,46.863964
123,-322,4,0,0,0,1193.650757
345,1570,1,1,0,18,40.178303
-901,63,2,0,0,0,915.919434
-826,-1824,3,0,0,4,58.492023
246,-1773,4,0,0,11,46.863964
1495,636,1,1,0,18,40.178303
-1013,309,2,1,0,1,60.770741
-1663,-433,3,0,0,0,730.981689
1651,-1809,4,1,0,11,46.863964
1195,34,1,0,0,0,835.213867
-835,1049,2,0,0,0,802.237061
-1529,-97,3,1,0,4,58.492023
182,-499,4,0,0,0,1068.937256
1607,439,1,0,0,0,739.890198
-911,660,2,0,0,0,852.708862
-1665,-1103,3,1,0,4,58.492023
769,-175,4,1,0,18,40.178303
1135,1487,1,0,0,18,40.178303
-1079,1916,2,0,0,1,60.770741
-1242,-1434,3,0,0,4,58.492023
1595,-1370,4,0,0,11,46.863964
1577,436,1,0,0,0,745.054504
-998,333,2,0,0,0,871.981323
-1057,-1947,3,0,0,4,58.492023
380,-899,4,1,0,11,46.863964
1688,495,1,1,0,18,40.178303
-1801,1429,2,1,0,1,60.770741
-297,-555,3,0,0,0,1019.970642
529,-1629,4,0,0,0,731.935181
979,1858,1,0,0,18,40.178303
-18,1197,2,1,0,18,40.178303
-672,-1728,3,0,0,4,58.492023
1973,-1020,4,0,0,11,46.863964
1433,743,1,0,0,0,748.937561
-179,1367,2,0,0,0,794.222839
-691,-1193,3,0,0,0,794.222839
1447,-1303,4,1,0,11,46.863964
486,1630,1,0,0,0,733.922668
-377,732,2,1,0,1,60.770741
-907,-890,3,0,0,0,817.658875
168,-583,4,1,0,11,46.863964
194,279,1,0,0,0,1197.758301
-1076,1935,2,0,0,1,60.770741
-805,-854,3,1,0,4,58.492023
864,-1803,4,0,0,11,46.863964
671,1368,1,1,0,18,40.178303
-688,1281,2,1,0,1,60.770741
-1249,-1587,3,1,0,4,58.492023
1683,-1973,4,0,0,11,46.863964
504,519,1,0,0,0,979.860291
-1295,928,2,1,0,1,60.770741
-1363,-1207,3,0,0,4,58.492023
202,-1385,4,0,0,0,789.882385
549,1128,1,0,0,0,821.353333
-156,985,2,1,0,18,40.178303
-521,-464,3,1,0,4,58.492023
1722,-1933,4,1,0,11,46.863964
1075,1076,1,1,0,18,40.178303
-852,794,2,1,0,1,60.770741
-218,-848,3,0,0,0,924.867981
1559,-1105,4,0,0,11,46.863964
300,1543,1,0,0,0,756.553284
-635,1388,2,0,0,0,764.991760
-8,-594,3,0,0,0,1036.666504
839,-97,4,0,0,0,935.247253
1808,416,1,0,0,18,40.178303
-70,1218,2,0,0,0,829.372253
-278,-352,3,0,0,0,1117.691040
121,-1771,4,0,0,11,46.863964
317,1712,1,0,0,0,727.226746
-1551,339,2,0,0,0,753.697083
-1452,-566,3,1,0,4,58.492023
327,-935,4,0,0,0,889.339050
370,274,1,0,0,0,1110.158813
-1400,328,2,1,0,1,60.770741
-306,-954,3,0,0,0,886.060852
1009,-1128,4,0,0,0,767.434265
722,1181,1,0,0,0,793.069824
-71,1280,2,1,0,18,40.178303
-1206,-1500,3,1,0,4,58.492023
545,-823,4,0,0,0,890.340271
382,1661,1,0,0,0,733.341614
-913,830,2,1,0,1,60.770741
-1213,-1995,3,0,0,4,58.492023
777,-1631,4,0,0,11,46.863964
1414,1975,1,0,0,18,40.178303
-217,661,2,0,0,0,991.129395
-1510,-406,3,0,0,0,758.066467
1739,-139,4,1,0,18,40.178303
1157,1805,1,0,0,18,40.178303
-1199,267,2,1,0,1,60.770741
-908,-328,3,1,0,4,58.492023
406,-1993,4,1,0,11,46.863964
1740,854,1,0,0,18,40.178303
-561,478,2,0,0,0,974.501831
-192,-1294,3,1,0,11,46.863964
1024,-1714,4,1,0,11,46.863964
1794,1791,1,0,0,18,40.178303
-1630,821,2,0,0,1,60.770741
-311,-991,3,1,0,4,58.492023
607,-709,4,1,0,11,46.863964
1307,867,1,1,0,18,40.178303
-1049,1130,2,0,0,0,762.092590
-1905,-1965,3,0,0,4,58.492023
160,-166,4,1,0,18,40.178303
1042,1191,1,0,0,0,754.626770
-1725,138,2,1,0,1,60.770741
-1982,-1238,3,0,0,4,58.492023
1427,-669,4,1,0,11,46.863964
3,964,1,1,0,18,40.178303
-1485,1358,2,0,0,1,60.770741
-409,-1172,3,0,0,0,824.393127
388,-442,4,0,0,0,1039.551514
1272,704,1,1,0,18,40.178303
-452,260,2,0,0,0,1074.257690
-677,-849,3,1,0,4,58.492023
538,-785,4,0,0,0,900.865051
1211,448,1,0,0,0,813.061157
-1826,1192,2,0,0,1,60.770741
-1921,-1895,3,1,0,4,58.492023
1636,-1404,4,1,0,11,46.863964
1637,1739,1,1,0,18,40.178303
-778,528,2,0,0,0,904.341248
-1575,-1689,3,0,0,4,58.492023
350,-1119,4,0,0,0,840.808228
632,138,1,1,0,18,40.178303
-358,1946,2,1,0,18,40.178303
-561,-1425,3,1,0,4,58.492023
736,-989,4,1,0,11,46.863964
1936,749,1,0,0,18,40.178303
-99,970,2,0,0,0,893.878418
-71,-100,3,0,0,0,1491.790527
134,-339,4,0,0,0,1177.515137
750,1639,1,0,0,18,40.178303
-1601,1147,2,1,0,1,60.770741
-296,-839,3,1,0,4,58.492023
305,-191,4,1,0,18,40.178303
526,218,1,0,0,0,1048.895264
-842,99,2,1,0,1,60.770741
-1975,-1393,3,0,0,4,58.492023
526,-410,4,0,0,0,1003.313171
1078,1537,1,0,0,18,40.178303
-251,729,2,0,0,0,961.513794
-416,-856,3,0,0,0,900.845581
1343,-1342,4,0,0,11,46.863964
370,734,1,0,0,0,943.063660
-1841,264,2,0,0,1,60.770741
-1502,-1270,3,0,0,4,58.492023
1158,-264,4,1,0,11,46.863964
1444,1065,1,0,0,18,40.178303
-227,64,2,0,0,0,1303.119873
-276,-1683,3,0,0,0,733.153198
1595,-749,4,0,0,11,46.863964
193,89,1,1,0,18,40.178303
-1374,1147,2,0,0,1,60.770741
-1092,-1789,3,0,0,4,58.492023
1498,-1930,4,0,0,11,46.863964
672,1272,1,0,0,0,781.997375
-1076,840,2,1,0,1,60.770741
-301,-1957,3,0,0,11,46.863964
1431,-437,4,0,0,0,770.714355
1800,1942,1,0,0,18,40.178303
-1873,87,2,0,0,1,60.770741
-743,-1613,3,0,0,4,58.492023
354,-1422,4,1,0,11,46.863964
475,395,1,0,0,0,1025.376343
-1945,454,2,0,0,1,60.770741
-532,-25,3,0,0,0,1068.160400
814,-95,4,0,0,0,943.926392
1639,1533,1,0,0,18,40.178303
-152,1417,2,0,0,0,784.699890
-1434,-512,3,0,0,0,765.687805
1575,-1,4,0,0,0,755.986572
1327,972,1,0,0,0,743.525452
-1145,468,2,0,0,0,825.405823
-1372,-1521,3,0,0,4,58.492023
1929,-1377,4,0,0,11,46.863964
591,1671,1,1,0,18,40.178303
-1196,1101,2,0,0,0,746.910278
-867,-430,3,0,0,0,896.031616
561,-508,4,1,0,11,46.863964
1934,625,1,1,0,18,40.178303
-655,1263,2,1,0,1,60.770741
-1680,-1839,3,0,0,4,58.492023
839,-1340,4,1,0,11,46.863964
1574,1353,1,1,0,18,40.178303
-1783,1259,2,0,0,1,60.770741
-758,-1788,3,0,0,4,58.492023
1397,-1108,4,0,0,11,46.863964
1341,1476,1,0,0,18,40.178303
-1877,1293,2,1,0,1,60.770741
-1996,-853,3,0,0,4,58.492023
435,-464,4,0,0,0,1016.987122
1164,1030,1,0,0,0,759.787231
-189,174,2,1,0,18,40.178303
-1951,-1872,3,0,0,4,58.492023
1944,-1226,4,0,0,11,46.863964
1433,1304,1,1,0,18,40.178303
-1458,1350,2,0,0,1,60.770741
-1855,-798,3,1,0,4,58.492023
381,-1567,4,0,0,0,749.206726
16,52,1,0,0,0,1726.310059
-1960,363,2,1,0,1,60.770741
648,-1494,4,1,0,11,46.863964
1926,707,1,0,0,18,40.178303
-1715,1497,2,1,0,1,60.770741
1778,-1737,4,1,0,11,46.863964
519,358,1,0,0,0,1019.501892
-1397,152,2,0,0,0,788.736572
1188,-1735,4,0,0,11,46.863964
982,835,1,0,0,0,813.551575
-1606,975,2,0,0,1,60.770741
1504,-377,4,1,0,11,46.863964
381,1800,1,0,0,18,40.178303
-1388,513,2,1,0,1,60.770741
1197,-1445,4,1,0,11,46.863964
867,1842,1,0,0,18,40.178303
-1091,1841,2,0,0,1,60.770741
1237,-806,4,1,0,11,46.863964
365,1064,1,1,0,18,40.178303
-1576,221,2,0,0,0,753.010193
1618,-592,4,0,0,0,730.239258
1985,1735,1,0,0,18,40.178303
-1550,237,2,0,0,0,757.262512
593,-1751,4,1,0,11,46.863964
1209,1086,1,0,0,0,746.993958
-383,1684,2,0,0,0,729.557312
550,-327,4,1,0,11,46.863964
1795,83,1,1,0,18,40.178303
-1989,769,2,0,0,1,60.770741
1064,-1556,4,1,0,11,46.863964
10,334,1,0,0,0,1202.611816
-811,1086,2,1,0,1,60.770741
629,-936,4,0,0,0,852.003967
891,1590,1,0,0,18,40.178303
-1764,1757,2,0,0,1,60.770741
511,-1700,4,1,0,11,46.863964
721,902,1,0,0,0,845.187134
-1622,1845,2,0,0,18,40.178303
1811,-248,4,1,0,18,40.178303
-1538,1281,2,1,0,1,60.770741
1497,-172,4,0,0,0,768.685486
-256,1293,2,0,0,0,807.136047
1251,-55,4,0,0,0,821.880493
-1538,1581,2,1,0,18,40.178303
1386,-297,4,1,0,11,46.863964
-387,645,2,0,0,0,968.630676
1730,-1909,4,0,0,11,46.863964
-85,24,2,0,0,0,1586.505249
720,-1265,4,0,0,0,778.632629
-1713,1036,2,0,0,18,40.178303
573,-1899,4,0,0,11,46.863964
-649,1409,2,0,0,0,760.341675
1353,-1024,4,1,0,11,46.863964
-497,1090,2,0,0,0,834.618286
1442,-1948,4,0,0,11,46.863964
-52,940,2,0,0,0,903.977478
663,-1742,4,1,0,11,46.863964
-649,42,2,0,0,0,1010.560425
880,-1345,4,1,0,11,46.863964
-1419,1772,2,0,0,18,40.178303
18,-642,4,1,0,11,46.863964
1738,-623,4,0,0,11,46.863964
341,-270,4,1,0,18,40.178303
1285,-38,4,1,0,18,40.178303
1315,-1978,4,0,0,11,46.863964
782,-906,4,0,0,0,834.894226
1669,-578,4,0,0,11,46.863964
289,-462,4,0,0,0,1061.545898
523,-951,4,1,0,11,46.863964
1185,-1167,4,0,0,0,740.359070
1598,-753,4,0,0,11,46.863964
537,-1270,4,0,0,0,794.182190
128,-1124,4,0,0,0,851.099121
563,-1205,4,0,0,0,804.544678
1877,-733,4,0,0,11,46.863964
1148,-1391,4,0,0,11,46.863964
1475,-1604,4,1,0,11,46.863964
1085,-831,4,0,0,0,796.735168
59,-130,4,0,0,0,1447.959717
1376,-1427,4,1,0,11,46.863964
