each times' max average throughput
620.071655,644.377991,611.939392,644.896667,630.434509,641.990479,649.102966,603.485107,646.564392,646.221008,642.645203,640.937988,658.111023,650.719604,652.664490,647.288574,661.750183,618.110718,636.811157,648.912720,644.209290,635.721985,642.932617,622.052795,640.872437,636.611816,656.188721,606.988831,629.500366,641.076782,635.691650,637.521301,625.867737,638.159424,620.929871,641.579163,633.157043,634.260254,634.691467,641.136597,632.518066,609.046387,639.777832,633.946594,638.568359,636.544006,647.117310,652.589478,629.950134,658.396667,617.818604,648.756470,657.815613,650.961670,654.920227,629.749878,644.363770,659.098694,670.207092,641.508179,648.939331,651.507202,664.382874,646.057434,651.712524,645.816345,650.039246,634.496887,654.327576,622.025879,629.295654,632.376099,654.442200,616.460144,647.943237,632.698853,643.357239,628.350769,640.354980,645.441101,628.278198,665.298096,640.130005,635.364197,620.666321,632.128540,642.010010,646.863586,670.973694,644.074707,645.804016,637.942505,650.895752,642.998169,618.265686,672.065247,652.140503,654.426941,668.580383,643.471863,
avg. throughput in all test times
641.022400
avg. BS TX power in all test times
MBS area 1,MBS area 2,CBSD 1,CBSD 2,CBSD 3,CBSD 4,CBSD 5,CBSD 6,CBSD 7,CBSD 8,CBSD 9,CBSD 10,
8.837,9.012,0.262,0.184,0.191,0.257,0.278,0.235,0.280,0.192,0.164,0.199,
avg. mbs all power,avg. cbsd enable number,avg. mbs area all power,avg. cbsd all power
40.200,2.000,17.850,2.243
avg. max avg. throughput generation number in all test times
1.010000
avg. number of relay UE
25

the max average throughput times

BS TX power
MBS area 1,MBS area 2,CBSD 1,CBSD 2,CBSD 3,CBSD 4,CBSD 5,CBSD 6,CBSD 7,CBSD 8,CBSD 9,CBSD 10,
7.500,8.750,0.875,0.625,0.000,0.000,0.000,0.000,0.500,0.000,0.000,0.000,
max average throughput
643.471863

x,y,area,be blocked (1 : NLOS / 0 : LOS),be blocked number (>=1 : CBSD(x) / 0 : no),connect bs number (>=1 : CBSD / 0 : MBS),throughput (unit : M bps)
1073,645,1,0,0,0,780.599548
-651,-114,2,0,0,0,986.677002
1834,-324,1,0,0,0,666.780090
-1117,-399,2,0,0,0,818.272400
1305,-703,1,0,0,0,732.122864
-1121,1312,2,1,0,1,522.156616
933,1374,1,1,0,2,389.608765
-2000,251,2,1,0,1,300.170227
297,-598,1,0,0,0,961.519592
-357,-1158,2,0,0,0,812.119202
995,-559,1,0,0,0,807.194885
-1378,-1219,2,0,0,0,692.310608
1967,-1297,1,0,0,0,599.779419
-1139,591,2,1,0,1,570.782654
371,1973,1,0,0,0,645.351013
-1815,-1690,2,0,0,0,607.121704
1682,1390,1,1,0,2,254.364838
-4,-1510,2,0,0,0,748.920410
1575,-1061,1,0,0,0,661.215088
-761,912,2,1,0,1,686.117859
390,888,1,0,0,0,854.002747
-1067,-1125,2,1,0,1,197.038635
1896,515,1,0,0,0,651.511047
-1442,-1824,2,0,0,0,625.462585
11,612,1,0,0,0,986.573975
-1771,-1187,2,0,0,0,650.185608
1749,-1313,1,0,0,0,620.958557
-1095,1820,2,0,0,0,651.256409
684,-1807,1,0,0,0,656.283203
-708,-1062,2,0,0,0,797.193604
250,-1051,1,0,0,0,822.975281
-1683,-1333,2,0,0,0,648.191833
1529,-1650,1,0,0,0,612.938599
-1527,-469,2,0,0,0,732.781494
823,1274,1,0,0,0,725.545288
-419,-609,2,0,0,0,954.405396
941,44,1,0,0,0,862.384460
-450,939,2,1,0,1,484.076050
1487,333,1,0,0,0,724.202271
-1812,-224,2,0,0,0,694.497009
630,1100,1,0,0,0,777.020996
-628,1046,2,0,0,0,810.166138
695,1744,1,0,0,0,664.491150
-658,-1151,2,0,0,0,786.273010
1330,-868,1,0,0,0,712.349792
-1363,-1696,2,0,0,0,644.381165
1792,-1045,1,0,0,0,636.010071
-1219,861,2,0,0,0,752.284241
1535,1915,1,1,0,2,219.808563
-1860,-1428,2,1,0,1,159.093140
63,-1935,1,0,0,0,655.707520
-916,-1907,2,0,0,0,652.390686
949,1226,1,0,0,0,719.252075
-1113,1231,2,0,0,0,721.838318
306,-1234,1,1,0,1,159.513489
-462,-1688,2,0,0,0,706.621887
1467,-369,1,0,0,0,726.304626
-1167,-1543,2,1,0,1,162.055298
594,668,1,0,0,0,877.479126
-1037,364,2,0,0,0,840.207031
916,1012,1,1,0,2,559.678162
-872,1391,2,0,0,0,724.934692
886,1081,1,0,0,0,748.981140
-1204,-897,2,0,0,0,750.558899
1994,-575,1,1,0,2,151.741287
-373,1450,2,0,0,0,751.362976
1011,-302,1,0,0,0,829.758545
-1325,1943,2,0,0,0,622.220459
1247,-1462,1,0,0,0,657.846069
-1772,1371,2,0,0,0,636.034851
913,-674,1,0,0,0,808.822021
-468,-1017,2,0,0,0,834.894470
1561,225,1,1,0,2,254.189011
-1991,-1767,2,1,0,1,135.895294
558,-661,1,0,0,0,886.929321
-1291,970,2,1,0,1,586.177490
210,-1347,1,1,0,1,155.906982
-1073,-873,2,1,0,1,222.752808
897,-84,1,1,0,2,265.866241
-1525,-46,2,0,0,0,745.954895
1665,-1181,1,0,0,0,640.597473
-1325,-1907,2,0,0,0,625.833801
596,107,1,0,0,0,989.684509
-1121,802,2,0,0,0,775.109009
179,-42,1,0,0,0,1333.462646
-465,-1619,2,1,0,1,153.783188
1761,282,1,1,0,2,233.440704
-951,360,2,0,0,0,862.567993
1854,1368,1,0,0,0,606.126282
-783,738,2,0,0,0,846.305176
1032,-1720,1,0,0,0,645.597107
-1742,1919,2,0,0,0,594.601013
1295,1369,1,0,0,0,663.416260
-1250,510,2,1,0,1,502.295258
670,-1661,1,0,0,0,677.946533
-1661,1622,2,0,0,0,625.898804
177,-1497,1,1,0,1,147.969315
-679,-653,2,0,0,0,884.566040
498,1296,1,1,0,2,408.052429
-40,-291,2,0,0,0,1220.537842


each generation good chromosome number
3,6,7,