mbs coordinate
0,0

cbsd coordinate and channel
-970,900,2
740,900,1
980,-860,1
-750,-850,5
-750,1000,4
1050,600,2
760,-1135,3
-870,-1100,1
-1080,450,1
970,530,3

building coordinate
-885,985
-1055,815
830,810
650,990
1060,-860
900,-860
-830,-770
-670,-930
-668,1070
-832,930
965,675
1135,525
832,-1059
688,-1211
-965,-1035
-775,-1165
-1135,365
-1025,535
907,591
1033,469

area numbers
50,50,

x , y , block , block number
area 1
1073,645,0,0
1834,-324,0,0
1305,-703,0,0
933,1374,1,0
297,-598,0,0
995,-559,0,0
1967,-1297,0,0
371,1973,0,0
1682,1390,1,0
1575,-1061,0,0
390,888,0,0
1896,515,0,0
11,612,0,0
1749,-1313,0,0
684,-1807,0,0
250,-1051,0,0
1529,-1650,0,0
823,1274,0,0
941,44,0,0
1487,333,0,0
630,1100,0,0
695,1744,0,0
1330,-868,0,0
1792,-1045,0,0
1535,1915,1,0
63,-1935,0,0
949,1226,0,0
306,-1234,1,0
1467,-369,0,0
594,668,0,0
916,1012,1,0
886,1081,0,0
1994,-575,1,0
1011,-302,0,0
1247,-1462,0,0
913,-674,0,0
1561,225,1,0
558,-661,0,0
210,-1347,1,0
897,-84,1,0
1665,-1181,0,0
596,107,0,0
179,-42,0,0
1761,282,1,0
1854,1368,0,0
1032,-1720,0,0
1295,1369,0,0
670,-1661,0,0
177,-1497,1,0
498,1296,1,0
area 2
-651,-114,0,0
-1117,-399,0,0
-1121,1312,1,0
-2000,251,1,0
-357,-1158,0,0
-1378,-1219,0,0
-1139,591,1,0
-1815,-1690,0,0
-4,-1510,0,0
-761,912,1,0
-1067,-1125,1,0
-1442,-1824,0,0
-1771,-1187,0,0
-1095,1820,0,0
-708,-1062,0,0
-1683,-1333,0,0
-1527,-469,0,0
-419,-609,0,0
-450,939,1,0
-1812,-224,0,0
-628,1046,0,0
-658,-1151,0,0
-1363,-1696,0,0
-1219,861,0,0
-1860,-1428,1,0
-916,-1907,0,0
-1113,1231,0,0
-462,-1688,0,0
-1167,-1543,1,0
-1037,364,0,0
-872,1391,0,0
-1204,-897,0,0
-373,1450,0,0
-1325,1943,0,0
-1772,1371,0,0
-468,-1017,0,0
-1991,-1767,1,0
-1291,970,1,0
-1073,-873,1,0
-1525,-46,0,0
-1325,-1907,0,0
-1121,802,0,0
-465,-1619,1,0
-951,360,0,0
-783,738,0,0
-1742,1919,0,0
-1250,510,1,0
-1661,1622,0,0
-679,-653,0,0
-40,-291,0,0

near cbsd peopel number
10
9
5
9
9
3
2
7
7
4
