each times' max average throughput
0.000000,0.000000,0.000000,0.000000,0.000000,0.000000,0.000000,0.000000,0.000000,0.000000,0.000000,0.000000,0.000000,0.000000,0.000000,0.000000,0.000000,0.000000,0.000000,0.000000,0.000000,0.000000,0.000000,0.000000,0.000000,0.000000,0.000000,0.000000,0.000000,0.000000,0.000000,0.000000,0.000000,0.000000,0.000000,0.000000,0.000000,0.000000,0.000000,0.000000,0.000000,0.000000,0.000000,0.000000,0.000000,0.000000,0.000000,0.000000,0.000000,0.000000,0.000000,0.000000,0.000000,0.000000,0.000000,0.000000,0.000000,0.000000,0.000000,0.000000,0.000000,0.000000,0.000000,0.000000,0.000000,0.000000,0.000000,0.000000,0.000000,0.000000,0.000000,0.000000,0.000000,0.000000,0.000000,0.000000,0.000000,0.000000,0.000000,548.022583,0.000000,0.000000,0.000000,0.000000,0.000000,0.000000,0.000000,0.000000,0.000000,0.000000,0.000000,0.000000,549.480713,0.000000,0.000000,0.000000,0.000000,0.000000,0.000000,0.000000,
avg. throughput in all test times
10.975033
avg. BS TX power in all test times
MBS area 1,MBS area 2,MBS area 3,MBS area 4,MBS area 5,MBS area 6,MBS area 7,MBS area 8,CBSD 1,CBSD 2,CBSD 3,CBSD 4,CBSD 5,
1.350,1.250,1.212,1.737,1.212,1.150,1.212,1.375,0.000,0.000,0.000,0.000,0.000,
avg. mbs all power,avg. cbsd enable number,avg. mbs area all power,avg. cbsd all power
10.500,0.000,10.500,0.000
avg. max avg. throughput generation number in all test times
0.040000
avg. number of relay UE
0

the max average throughput times

BS TX power
MBS area 1,MBS area 2,MBS area 3,MBS area 4,MBS area 5,MBS area 6,MBS area 7,MBS area 8,CBSD 1,CBSD 2,CBSD 3,CBSD 4,CBSD 5,
8.750,7.500,5.000,7.500,5.000,6.250,5.000,5.000,0.000,0.000,0.000,0.000,0.000,
max average throughput
549.480713

x,y,area,be blocked (1 : NLOS / 0 : LOS),be blocked number (>=1 : CBSD(x) / 0 : no),connect bs number (>=1 : CBSD / 0 : MBS),throughput (unit : M bps)
1036,1759,1,1,0,0,2.851618
1153,159,2,0,0,0,801.548828
-1646,1316,3,0,0,0,573.922668
-524,1973,4,1,0,0,2.447722
-305,-769,5,1,0,0,22.823711
-1812,-768,6,0,0,0,625.039429
892,-162,7,0,0,0,815.093872
598,-1941,8,0,0,0,584.382019
1661,1820,1,0,0,0,608.958923
836,352,2,0,0,0,873.265015
-416,197,3,1,0,0,99.648331
-278,1459,4,0,0,0,731.554138
-84,-1788,5,0,0,0,620.275024
-590,-17,6,0,0,0,970.778809
1799,-294,7,0,0,0,615.093567
1435,-1998,8,0,0,0,530.269958
1033,1600,1,0,0,0,682.423462
1990,1721,2,0,0,0,568.500793
-439,53,3,0,0,0,1021.865295
-1557,1679,4,0,0,0,607.889465
-602,-989,5,0,0,0,744.839050
-580,-308,6,0,0,0,940.032654
1618,-1534,7,1,0,0,1.257697
618,-1515,8,0,0,0,645.870422
1123,1955,1,0,0,0,634.242432
235,83,2,1,0,0,337.896118
-1888,1762,3,0,0,0,516.614197
-691,1401,4,0,0,0,717.086487
-797,-1228,5,0,0,0,677.636414
-1279,-1187,6,0,0,0,659.349915
1234,-250,7,0,0,0,720.797913
86,-721,8,1,0,0,32.595047
191,992,1,0,0,0,864.452942
996,962,2,1,0,0,7.700262
-1401,682,3,0,0,0,659.814941
-1785,1807,4,0,0,0,578.465027
-116,-1684,5,0,0,0,636.984253
-906,-649,6,0,0,0,787.826782
1692,-335,7,0,0,0,630.829285
144,-245,8,0,0,0,1149.360229
405,1290,1,0,0,0,780.635376
1109,960,2,0,0,0,735.139771
-1078,475,3,0,0,0,739.877319
-66,1111,4,1,0,0,14.481692
-332,-1490,5,0,0,0,665.674438
-1731,-100,6,0,0,0,661.164185
940,-120,7,0,0,0,802.367065
90,-1693,8,0,0,0,635.737427
704,1641,1,0,0,0,700.862976
1346,811,2,0,0,0,715.385193
-1755,1456,3,1,0,0,1.175907
-42,1772,4,0,0,0,680.922302
-1628,-1973,5,1,0,0,0.834091
-1862,-1789,6,0,0,0,548.035828
1998,-333,7,0,0,0,585.146851
219,-1986,8,0,0,0,589.026733
1315,1318,1,0,0,0,688.906616
1374,1252,2,1,0,0,3.233081
-964,405,3,1,0,0,11.754656
-890,1799,4,0,0,0,645.417175
-547,-1450,5,0,0,0,661.365112
-1265,-1174,6,0,0,0,662.493774
1661,-324,7,0,0,0,636.256409
703,-1009,8,0,0,0,727.551086
464,961,1,0,0,0,848.675049
1562,688,2,1,0,0,4.162958
-1111,615,3,0,0,0,718.352234
-706,1687,4,0,0,0,671.986755
-318,-1836,5,1,0,0,2.148005
-1824,-224,6,1,0,0,2.792658
1498,-202,7,0,0,0,668.492188
943,-991,8,1,0,0,5.368017
160,666,1,1,0,0,61.210155
1770,1553,2,0,0,0,599.948059
-886,150,3,0,0,0,817.637451
-504,1582,4,0,0,0,699.624756
-567,-831,5,0,0,0,785.188171
-544,-96,6,0,0,0,989.874390
814,-97,7,0,0,0,844.051941
125,-1906,8,1,0,0,1.995139
1464,1795,1,0,0,0,626.547180
1660,854,2,0,0,0,666.107056
-1168,639,3,0,0,0,704.802490
-434,1205,4,1,0,0,9.664777
-127,-381,5,0,0,0,1049.617432
-1400,-619,6,0,0,0,696.794617
1611,-728,7,0,0,0,623.814636
113,-134,8,1,0,0,424.937469
10,694,1,0,0,0,972.565002
1186,855,2,0,0,0,736.066772
-1442,988,3,1,0,0,2.597779
-18,1607,4,0,0,0,708.957703
-146,-374,5,0,0,0,1049.704956
-375,-153,6,0,0,0,1079.357788
1476,-747,7,0,0,0,642.738831
995,-1730,8,0,0,0,589.355164
1035,1880,1,0,0,0,648.308167
507,476,2,0,0,0,949.790161
-1216,703,3,0,0,0,689.478577
-998,1589,4,0,0,0,664.638672
-531,-703,5,1,0,0,19.145807
-774,-683,6,0,0,0,809.848755
1873,-573,7,0,0,0,594.671082
584,-1991,8,1,0,0,1.558894
669,1983,1,0,0,0,655.480591
1239,964,2,1,0,0,5.328674
-1381,159,3,1,0,0,5.119832
-241,1212,4,0,0,0,784.344055
-505,-1784,5,1,0,0,2.180025
-667,-112,6,0,0,0,931.546631
1679,-1069,7,1,0,0,1.764593
793,-1259,8,0,0,0,672.994934
662,707,1,0,0,0,876.577393
1563,1426,2,0,0,0,630.388916
-785,727,3,1,0,0,11.000516
-305,1928,4,0,0,0,653.365173
-813,-859,5,1,0,0,8.223401
-1882,-1118,6,0,0,0,594.781250
1940,-593,7,0,0,0,584.720459
801,-1493,8,1,0,0,2.850219
531,1499,1,0,0,0,734.064270
1220,121,2,0,0,0,786.617737
-724,15,3,0,0,0,879.740784
-584,1592,4,0,0,0,693.587769
-678,-1081,5,1,0,0,6.585885
-1021,-867,6,0,0,0,735.041565
1107,-403,7,1,0,0,8.318519
242,-608,8,1,0,0,42.900402
1259,1326,1,0,0,0,694.075439
1681,1622,2,0,0,0,602.222107
-1899,1346,3,0,0,0,545.835571
-11,1248,4,0,0,0,781.494263
-237,-1081,5,0,0,0,757.801025
-1847,-1528,6,0,0,0,569.043579
215,-161,7,1,0,0,258.684967
1007,-1469,8,0,0,0,621.703125
42,1142,1,1,0,0,15.548548
1050,12,2,1,0,0,17.084944
-1431,479,3,0,0,0,668.968567
-117,339,4,1,0,0,205.522568
-1049,-1614,5,0,0,0,599.605774
-1559,-883,6,0,0,0,651.801086
302,-238,7,0,0,0,1062.163330
149,-305,8,0,0,0,1098.108032
85,355,1,0,0,0,1157.852417
1557,890,2,0,0,0,677.566833
-1480,662,3,0,0,0,648.478516
-435,725,4,0,0,0,893.510620
-1926,-1964,5,1,0,0,0.671061
-461,-213,6,1,0,0,94.579422
1959,-1901,7,0,0,0,501.083344
258,-1938,8,0,0,0,595.191956
164,356,1,0,0,0,1137.325195
1659,1586,2,0,0,0,607.229797
-641,161,3,0,0,0,906.055786
-229,1190,4,0,0,0,789.954041
-720,-1825,5,0,0,0,594.207092
-1562,-381,6,0,0,0,682.742493
1250,-25,7,0,0,0,722.812561
1531,-1815,8,0,0,0,540.219849
793,1029,1,0,0,0,792.117310
1131,673,2,0,0,0,766.248962
-1994,1076,3,0,0,0,553.434509
-151,256,4,0,0,0,1194.907104
-535,-1427,5,0,0,0,666.151489
-930,-495,6,0,0,0,803.986206
1023,-355,7,1,0,0,10.625589
49,-1181,8,0,0,0,738.903870
153,344,1,0,0,0,1148.939087
1906,108,2,1,0,0,2.987274
-1819,820,3,1,0,0,1.751816
-1321,1474,4,0,0,0,649.395081
-840,-1457,5,0,0,0,638.031616
-844,-108,6,0,0,0,865.435608
1543,-35,7,1,0,0,3.758734
619,-1866,8,0,0,0,593.614990
25,1576,1,1,0,0,6.124889
465,80,2,1,0,0,125.447418
-1351,143,3,0,0,0,699.016785
-562,1510,4,0,0,0,708.229126
-194,-1910,5,0,0,0,600.361450
-1603,-503,6,0,0,0,670.172607
1558,-152,7,0,0,0,658.495361
449,-1835,8,0,0,0,604.940308
757,871,1,0,0,0,826.170959
966,676,2,1,0,0,12.275644
-1699,798,3,0,0,0,606.760681
-1189,1451,4,0,0,0,664.711914
-1172,-1841,5,0,0,0,564.029358
-1401,-238,6,0,0,0,718.085205
1614,-955,7,0,0,0,607.018311
615,-697,8,1,0,0,16.456678
1057,1543,1,1,0,0,3.697058
864,351,2,0,0,0,865.287170
-1575,425,3,0,0,0,646.719849
-1008,1188,4,0,0,0,717.844543
-975,-1725,5,0,0,0,591.388184
-1498,-735,6,0,0,0,672.129333
445,-333,7,0,0,0,955.954102
551,-911,8,1,0,0,11.158257
190,571,1,0,0,0,1013.691711
1647,341,2,0,0,0,695.927246
-1607,1100,3,0,0,0,596.308838
-1043,1981,4,1,0,0,1.859480
-115,-366,5,0,0,0,1062.815308
-1684,-9,6,0,0,0,669.499939
1317,-214,7,0,0,0,704.178711
1227,-1889,8,0,0,0,555.093140
146,1825,1,1,0,0,3.938196
1572,476,2,0,0,0,702.721008
-498,496,3,0,0,0,888.332214
-798,1599,4,0,0,0,678.581421
-6,-1941,5,0,0,0,597.245056
-708,-227,6,0,0,0,904.275940
1616,-946,7,1,0,0,2.116739
1330,-1605,8,0,0,0,577.025085
165,1957,1,0,0,0,673.634644
237,195,2,0,0,0,1185.647705
-1602,1590,3,0,0,0,554.519226
-160,348,4,0,0,0,1121.749512
-1365,-1545,5,0,0,0,580.145874
-1209,-604,6,0,0,0,732.477966
1831,-714,7,0,0,0,593.716187
1296,-1978,8,0,0,0,541.376038
1675,1901,1,0,0,0,601.037109
1513,344,2,1,0,0,5.515151
-257,40,3,0,0,0,1174.911011
-1765,1947,4,0,0,0,568.826355
-1507,-1991,5,0,0,0,526.061829
-747,-259,6,1,0,0,31.666864
1088,-322,7,0,0,0,750.636780
1179,-1425,8,0,0,0,610.967163
222,453,1,0,0,0,1064.546265
1628,1215,2,0,0,0,641.986084
-1704,90,3,0,0,0,633.896729
-1095,1502,4,0,0,0,667.337219
-527,-613,5,0,0,0,848.069519
-992,-383,6,0,0,0,801.314331
1847,-10,7,0,0,0,611.348328
307,-1946,8,0,0,0,593.026855
544,1783,1,0,0,0,688.549011
1162,752,2,0,0,0,751.785400
-426,4,3,0,0,0,1032.605103
-825,1259,4,0,0,0,727.723816
-673,-1312,5,1,0,0,4.302127
-1633,-949,6,1,0,0,2.574348
1316,-828,7,0,0,0,660.432983
1788,-1823,8,0,0,0,519.782654
434,1517,1,0,0,0,736.310852
1617,301,2,1,0,0,4.644145
-1970,621,3,0,0,0,579.603821
-1073,1229,4,1,0,0,4.756645
-1547,-1840,5,1,0,0,1.004332
-1123,-341,6,0,0,0,772.968872
1846,-1402,7,0,0,0,547.001282
1070,-1848,8,0,0,0,570.185669
222,1677,1,0,0,0,716.353088
1156,427,2,0,0,0,785.132385
-1146,446,3,0,0,0,727.556580
-268,388,4,0,0,0,1061.776611
-118,-1524,5,0,0,0,665.296326
-418,-182,6,0,0,0,1045.226318
1595,-1157,7,0,0,0,592.971802
1496,-1591,8,0,0,0,563.838623
792,1753,1,0,0,0,679.567200
705,660,2,0,0,0,855.234741
-868,230,3,1,0,0,18.146046
-94,848,4,0,0,0,890.897949
-37,-1711,5,0,0,0,633.058716
-1702,-1458,6,0,0,0,588.109619
969,-926,7,1,0,0,5.700576
1390,-1673,8,0,0,0,564.977661
307,1194,1,0,0,0,807.167114
1091,1007,2,1,0,0,6.278235
-1270,553,3,0,0,0,693.461060
-711,1075,4,0,0,0,772.253723
-30,-1668,5,1,0,0,2.984326
-1363,-754,6,0,0,0,691.806396
1225,-670,7,1,0,0,5.053837
209,-1867,8,0,0,0,606.520264
340,1038,1,0,0,0,841.983032
1211,502,2,0,0,0,767.377747
-1810,391,3,1,0,0,2.188258
-852,1414,4,0,0,0,701.266846
-68,-331,5,0,0,0,1099.416626
-1608,-1458,6,0,0,0,597.183716
898,-160,7,0,0,0,813.338928
490,-759,8,0,0,0,816.099304
1643,1906,1,1,0,0,1.529458
991,783,2,0,0,0,778.072998
-1840,816,3,0,0,0,586.935486
-310,1226,4,0,0,0,777.713257
-161,-390,5,1,0,0,119.660904
-1700,-946,6,0,0,0,628.321655
1908,-812,7,0,0,0,578.503601
13,-1942,8,0,0,0,597.093933
383,1023,1,0,0,0,841.962036
672,524,2,0,0,0,891.250549
-1504,1241,3,0,0,0,595.948242
-333,1926,4,0,0,0,652.985596
-158,-755,5,0,0,0,861.565125
-1434,-345,6,0,0,0,707.430908
1374,-498,7,0,0,0,678.125122
1209,-1561,8,0,0,0,592.398193
222,1387,1,0,0,0,769.679993
1812,1214,2,1,0,0,2.009963
-764,492,3,1,0,0,17.546335
-1805,1850,4,0,0,0,573.524536
-38,-326,5,0,0,0,1107.821411
-249,-82,6,0,0,0,1204.819336
1239,-763,7,0,0,0,679.374817
684,-1918,8,1,0,0,1.648646
1504,1993,1,0,0,0,605.199402
984,63,2,1,0,0,20.395103
-1750,283,3,0,0,0,623.029663
-317,657,4,1,0,0,45.942623
-42,-467,5,1,0,0,95.709267
-1528,-46,6,0,0,0,697.177734
982,-518,7,0,0,0,756.876221
531,-564,8,0,0,0,860.344666
1048,1846,1,1,0,0,2.539018
881,428,2,0,0,0,851.170349
-1969,1080,3,1,0,0,1.230860
-628,771,4,0,0,0,846.816223
-936,-1960,5,1,0,0,1.359887
-1210,-742,6,1,0,0,5.993721
1937,-1541,7,0,0,0,528.528259
681,-1853,8,0,0,0,592.435608
320,554,1,0,0,0,996.042175
1142,134,2,0,0,0,805.046631
-1365,937,3,1,0,0,3.052335
-378,503,4,0,0,0,978.631714
-1425,-1594,5,1,0,0,1.425328
-1575,-802,6,0,0,0,655.692200
1760,-1511,7,0,0,0,546.807068
251,-1388,8,1,0,0,4.904686
591,1478,1,0,0,0,733.792236
1937,1408,2,1,0,0,1.521272
-1945,1062,3,0,0,0,559.704224
-311,888,4,1,0,0,23.237085
-718,-1693,5,1,0,0,2.233886
-795,-142,6,1,0,0,29.902603
1681,-735,7,1,0,0,2.249498
1086,-1561,8,0,0,0,603.070068
1635,1887,1,0,0,0,605.201416
1387,911,2,1,0,0,4.524140
-763,548,3,0,0,0,804.873962
-1498,1712,4,0,0,0,609.754333
-1129,-1885,5,0,0,0,562.113281
-1382,-665,6,1,0,0,4.771504
1565,-462,7,1,0,0,3.186860
1175,-1645,8,1,0,0,1.684824
775,923,1,0,0,0,813.680115
1397,1251,2,0,0,0,664.813782
-1316,47,3,0,0,0,707.945374
-577,1921,4,0,0,0,645.606079
-522,-1885,5,0,0,0,595.069275
-1540,-206,6,1,0,0,4.592060
803,-48,7,0,0,0,849.482056
548,-1971,8,1,0,0,1.626030
599,1481,1,1,0,0,5.887465
1999,1137,2,0,0,0,606.662048
-1863,1362,3,0,0,0,548.253906
-658,1109,4,0,0,0,772.106934
-98,-1519,5,0,0,0,666.495544
-1472,-412,6,0,0,0,697.200378
1908,-513,7,0,0,0,592.207764
22,-692,8,0,0,0,892.672729
109,1101,1,0,0,0,838.288635
939,361,2,0,0,0,843.477295
-1511,143,3,1,0,0,3.949876
-542,610,4,0,0,0,903.731567
-12,-1518,5,0,0,0,667.268188
-1345,-121,6,1,0,0,6.936716
548,-205,7,0,0,0,941.156982
7,-1469,8,0,0,0,676.651489
188,1581,1,0,0,0,733.727722
1280,650,2,0,0,0,741.308411
-1803,1350,3,1,0,0,1.220031
-26,747,4,1,0,0,43.144875
-435,-1007,5,0,0,0,760.337646
-1777,-1174,6,0,0,0,602.572449
1917,-1623,7,0,0,0,524.406860
1111,-1251,8,1,0,0,2.958717
121,1494,1,0,0,0,751.040100
1412,1236,2,0,0,0,664.617554
-1698,1042,3,0,0,0,589.853027
-1689,1826,4,0,0,0,584.396729
-852,-1314,5,1,0,0,3.599984
-906,-525,6,0,0,0,805.740479
1412,-872,7,0,0,0,641.827759
835,-855,8,0,0,0,735.748108
666,1325,1,0,0,0,754.105957
1021,195,2,0,0,0,834.067261
-1181,612,3,0,0,0,705.064636
-829,1348,4,0,0,0,713.374451
-491,-1037,5,1,0,0,8.983498
-179,-166,6,1,0,0,322.305756
1444,-910,7,1,0,0,2.788542
392,-1658,8,1,0,0,2.803689
393,1706,1,1,0,0,4.495486
882,179,2,0,0,0,875.528015
-1438,730,3,0,0,0,650.000854
-930,1895,4,0,0,0,631.043518
-1121,-1460,5,0,0,0,612.321533
-822,-555,6,0,0,0,821.339722
908,-323,7,0,0,0,797.522034
966,-1785,8,0,0,0,584.578247
498,631,1,0,0,0,930.257080
983,833,2,0,0,0,772.336975
-384,141,3,1,0,0,127.363060
-859,981,4,1,0,0,9.174625
-555,-1177,5,0,0,0,711.347595
-1280,-1170,6,1,0,0,3.317310
503,-58,7,0,0,0,982.817505
691,-1274,8,0,0,0,680.509094
1351,1592,1,0,0,0,656.139771
984,291,2,0,0,0,837.778992
-824,549,3,0,0,0,789.755920
-595,1459,4,0,0,0,714.617615
-401,-1474,5,0,0,0,665.481262
-1787,-788,6,1,0,0,2.330327
1426,-76,7,0,0,0,684.744751
1218,-1415,8,1,0,0,2.135415
39,1496,1,0,0,0,751.496826
1570,29,2,0,0,0,715.599609
-1969,1705,3,0,0,0,514.221375
-212,1465,4,0,0,0,732.519287
-146,-1310,5,0,0,0,707.668884
-1925,-604,6,1,0,0,2.115451
511,-374,7,1,0,0,46.693653
527,-1927,8,0,0,0,589.065613
1109,1562,1,1,0,0,3.443797
1855,1146,2,0,0,0,621.813171
-1999,1831,3,0,0,0,503.027771
-102,1498,4,1,0,0,6.074523
-425,-640,5,1,0,0,27.978611
-975,-857,6,1,0,0,7.786682
1326,-100,7,0,0,0,705.147888
1088,-1596,8,0,0,0,598.629639
879,1688,1,1,0,0,3.511287
475,265,2,0,0,0,1020.615356
-1471,444,3,0,0,0,663.807922
-1696,1910,4,1,0,0,1.254663
-104,-511,5,0,0,0,974.324341
-1957,-1707,6,1,0,0,0.995877
1859,-949,7,1,0,0,1.531551
1188,-1503,8,0,0,0,600.955505
828,923,1,0,0,0,805.509460
484,123,2,0,0,0,1045.244995
-1704,972,3,0,0,0,594.230042
-590,1913,4,0,0,0,646.156799
-125,-822,5,1,0,0,22.507046
-660,-613,6,1,0,0,22.154154
1187,-981,7,0,0,0,663.182922
684,-1560,8,1,0,0,2.805376
294,934,1,0,0,0,873.436218
1577,165,2,0,0,0,712.814331
-1113,310,3,0,0,0,745.445618
-1291,1828,4,0,0,0,614.410156
-679,-1472,5,0,0,0,648.522888
-935,-215,6,0,0,0,830.897705
1349,-433,7,1,0,0,4.840855
334,-396,8,0,0,0,976.226013
1537,1632,1,0,0,0,635.859558
1834,1379,2,1,0,0,1.727875
-981,918,3,1,0,0,5.660431
-1029,1233,4,0,0,0,709.159973
-395,-1663,5,0,0,0,633.414124
-521,-335,6,0,0,0,956.880981
1334,-30,7,0,0,0,704.164917
782,-907,8,0,0,0,735.154663
901,1090,1,0,0,0,767.739685
1725,890,2,0,0,0,654.965759
-1085,464,3,0,0,0,739.381042
-528,1224,4,0,0,0,762.577759
-207,-1872,5,1,0,0,2.080534
-1975,-1660,6,0,0,0,548.275696
752,-519,7,1,0,0,17.276535
7,-1811,8,0,0,0,616.949280
1181,1331,1,0,0,0,701.862122
509,449,2,0,0,0,956.792419
-1423,54,3,1,0,0,4.768642
-1082,1622,4,0,0,0,653.688110
-842,-1011,5,0,0,0,708.191650
-1864,-1134,6,0,0,0,595.714355
494,-127,7,1,0,0,79.185799
396,-659,8,0,0,0,862.509583
758,1576,1,0,0,0,706.830200
1229,1141,2,0,0,0,696.767944
-1242,876,3,1,0,0,3.933778
-335,1800,4,0,0,0,671.653381
-892,-997,5,0,0,0,703.425720
-1935,-146,6,1,0,0,2.375385
793,-772,7,0,0,0,757.788879
848,-1830,8,0,0,0,586.357605
32,1717,1,0,0,0,712.038574
948,939,2,0,0,0,762.298340
-1849,1575,3,0,0,0,533.843567
-1271,1938,4,1,0,0,1.677225
-483,-962,5,0,0,0,765.751892
-1031,-7,6,0,0,0,810.193665
1229,-47,7,1,0,0,7.335823
567,-1309,8,1,0,0,4.744031
1121,1719,1,0,0,0,661.072876
1370,1151,2,1,0,0,3.619978
-874,275,3,0,0,0,812.049255
-902,1069,4,0,0,0,748.774963
-509,-1897,5,1,0,0,1.836066
-1002,-276,6,1,0,0,14.802670
665,-304,7,1,0,0,31.989796
1498,-1830,8,1,0,0,1.054620
1391,1769,1,0,0,0,634.773621
1717,646,2,0,0,0,671.092590
-1884,771,3,1,0,0,1.650227
-315,1371,4,0,0,0,747.134827
-969,-1780,5,1,0,0,1.672176
-1055,-668,6,0,0,0,755.169006
1793,-557,7,1,0,0,2.100028
893,-1873,8,0,0,0,578.313721
1155,1835,1,0,0,0,645.376831
1791,621,2,0,0,0,661.731873
-1029,95,3,0,0,0,777.477600
-483,802,4,0,0,0,864.166748
-44,-573,5,0,0,0,946.325317
-943,-89,6,1,0,0,19.250654
924,-811,7,0,0,0,727.626343
354,-760,8,0,0,0,837.582886
1366,1830,1,0,0,0,630.598328
1435,1095,2,0,0,0,675.717102
-524,460,3,0,0,0,890.636230
-1377,1757,4,0,0,0,615.124268
-1036,-1577,5,0,0,0,605.283264
-1417,-974,6,0,0,0,663.549500
1275,-761,7,0,0,0,673.589233
81,-1040,8,1,0,0,11.835022
1310,1637,1,0,0,0,654.959534
1587,255,2,0,0,0,708.912415
-1537,1107,3,0,0,0,604.186218
-465,1370,4,0,0,0,739.083191
-189,-933,5,0,0,0,801.059326
-1060,-686,6,0,0,0,751.988586
1583,-512,7,0,0,0,641.109680
848,-1171,8,0,0,0,681.205872
420,1170,1,0,0,0,804.783569
153,102,2,0,0,0,1333.428589
-1401,46,3,1,0,0,4.995604
-522,717,4,0,0,0,879.745850
-60,-608,5,0,0,0,928.694824
-730,-425,6,0,0,0,867.532959
1071,-635,7,0,0,0,723.996338
1325,-1960,8,0,0,0,541.246826
547,646,1,0,0,0,915.370667
1346,1074,2,0,0,0,689.193848
-1980,102,3,0,0,0,591.223694
-1489,1534,4,1,0,0,2.133568
-316,-1258,5,0,0,0,712.275574
-1656,-390,6,1,0,0,3.510868
694,-8,7,0,0,0,891.968079
558,-1079,8,0,0,0,731.071350
11,1577,1,0,0,0,736.460510
344,35,2,1,0,0,217.667023
-862,456,3,1,0,0,14.358095
-310,975,4,0,0,0,838.630554
-292,-1316,5,0,0,0,701.246765
-1372,-856,6,1,0,0,4.080007
1551,-788,7,0,0,0,628.386963
1433,-1865,8,0,0,0,542.905762
793,1918,1,0,0,0,657.855835
676,557,2,0,0,0,883.331177
-918,220,3,1,0,0,15.751208
-748,1406,4,0,0,0,711.556213
-998,-1942,5,0,0,0,563.895752
-1824,-1049,6,1,0,0,1.866475
1343,-357,7,0,0,0,692.540100
480,-902,8,0,0,0,780.723206
871,893,1,0,0,0,803.783508
1497,303,2,1,0,0,5.776834
-1651,1357,3,0,0,0,569.960938
-14,558,4,0,0,0,1013.157410
-136,-224,5,1,0,0,267.640900
-931,-132,6,0,0,0,836.679077
1273,-370,7,1,0,0,5.887564
304,-1185,8,0,0,0,729.042053
1221,1840,1,0,0,0,640.159973
1117,267,2,0,0,0,805.388489
-1198,934,3,0,0,0,667.076721
-1065,1269,4,0,0,0,700.257446
-246,-1325,5,0,0,0,701.323975
-1158,-401,6,0,0,0,760.560059
1948,-331,7,0,0,0,592.184814
847,-1628,8,1,0,0,2.247703
1006,1311,1,0,0,0,723.059814
406,335,2,1,0,0,99.866806
-424,51,3,1,0,0,116.735229
-218,871,4,0,0,0,876.204712
-33,-1913,5,1,0,0,1.985250
-1202,-781,6,0,0,0,715.601074
1895,-1613,7,0,0,0,527.019165
1042,-1809,8,0,0,0,576.591675
211,1479,1,0,0,0,751.983032
1652,668,2,0,0,0,679.402222
-1589,400,3,0,0,0,645.456787
-893,1977,4,0,0,0,623.268494
-451,-1854,5,0,0,0,602.107056
-1026,-326,6,0,0,0,797.774719
1327,-500,7,0,0,0,686.744995
866,-1331,8,1,0,0,3.454947
527,1292,1,1,0,0,8.747870
1902,1724,2,0,0,0,575.461060
-962,158,3,1,0,0,14.370441
-1669,1794,4,0,0,0,588.653748
-109,-1718,5,0,0,0,631.389893
-1085,-239,6,0,0,0,788.719177
1920,-236,7,0,0,0,598.206360
34,-1922,8,0,0,0,599.995728
251,1186,1,1,0,0,13.135994
835,329,2,0,0,0,876.329590
-950,724,3,1,0,0,7.990498
-780,1336,4,0,0,0,719.872314
-538,-1755,5,0,0,0,613.111450
-1841,-1380,6,0,0,0,580.657166
192,-64,7,1,0,0,366.750122
205,-486,8,1,0,0,73.229515
70,464,1,0,0,0,1085.417847
174,81,2,0,0,0,1321.072021
-951,929,3,0,0,0,705.215271
-824,1912,4,0,0,0,634.972595
-384,-700,5,1,0,0,25.177999
-868,-355,6,0,0,0,837.451538
1637,-1281,7,0,0,0,577.816040
1209,-1213,8,0,0,0,632.856689
1606,1821,1,0,0,0,613.142700
605,311,2,0,0,0,956.148499
-1129,396,3,0,0,0,735.426453
-884,1107,4,0,0,0,745.116272
-829,-1528,5,1,0,0,2.640693
-983,-374,6,0,0,0,804.473999
1234,-244,7,0,0,0,721.066223
1101,-1230,8,0,0,0,643.338501
130,1775,1,0,0,0,701.807800
1016,726,2,0,0,0,781.336792
-1971,653,3,0,0,0,578.127075
-705,1383,4,0,0,0,718.892639
-170,-1341,5,1,0,0,5.560019
-349,-250,6,0,0,0,1062.561035
1471,-875,7,0,0,0,633.030945
188,-1064,8,0,0,0,764.677307
125,1850,1,0,0,0,690.076233
1614,111,2,0,0,0,707.055359
-1664,935,3,1,0,0,1.999498
-366,1648,4,0,0,0,694.870300
-512,-1831,5,0,0,0,603.125488
-861,-94,6,0,0,0,860.328247
1564,-1102,7,0,0,0,601.337280
1065,-1133,8,0,0,0,660.404907
773,1131,1,0,0,0,776.869873
1756,1618,2,0,0,0,595.990173
-1576,227,3,0,0,0,653.637207
-348,733,4,0,0,0,905.356628
-115,-1023,5,0,0,0,778.572815
-947,-94,6,0,0,0,833.229919
907,-268,7,0,0,0,802.932617
1120,-1540,8,0,0,0,602.682251
127,1591,1,0,0,0,733.022217
1710,1424,2,0,0,0,616.020386
-1591,1097,3,1,0,0,1.926901
-1286,1761,4,0,0,0,621.795654
-570,-1180,5,0,0,0,709.336609
-1456,-729,6,0,0,0,679.117676
1772,-779,7,1,0,0,1.917601
819,-1756,8,0,0,0,597.744141
818,1017,1,0,0,0,790.785156
1435,1019,2,0,0,0,682.946472
-1875,278,3,1,0,0,2.041268
-192,762,4,0,0,0,914.588379
-1027,-1986,5,0,0,0,557.193848
-1588,-587,6,1,0,0,3.562018
1515,-700,7,1,0,0,2.980973
749,-845,8,0,0,0,752.025879
1787,1936,1,0,0,0,589.939270
682,52,2,1,0,0,54.093658
-967,777,3,0,0,0,725.058594
-696,1344,4,1,0,0,5.933456
-573,-1281,5,0,0,0,689.738159
-827,-393,6,0,0,0,844.330933
1752,-1633,7,0,0,0,537.792847
1001,-1414,8,0,0,0,629.575134
1058,1181,1,0,0,0,734.907776
413,169,2,0,0,0,1077.690796
-1522,474,3,1,0,0,3.415431
-356,1366,4,0,0,0,746.135864
-286,-361,5,0,0,0,1010.128723
-1487,-83,6,1,0,0,5.202851
1556,-405,7,0,0,0,650.858337
425,-569,8,1,0,0,34.586243
237,1500,1,0,0,0,747.290527
1480,1053,2,0,0,0,673.931396
-1925,862,3,1,0,0,1.484441
-526,1760,4,0,0,0,670.716553
-470,-1055,5,0,0,0,745.546936
-1539,-270,6,0,0,0,690.916382
1704,-490,7,1,0,0,2.490157
483,-875,8,1,0,0,13.383002
340,1581,1,0,0,0,729.259155
1824,689,2,0,0,0,653.684570
-1922,924,3,1,0,0,1.436379
-282,1499,4,0,0,0,723.926880
-942,-1808,5,0,0,0,583.315979
-449,-36,6,0,0,0,1048.701782
1605,-697,7,0,0,0,626.736023
23,-1364,8,0,0,0,697.829468
1389,1908,1,0,0,0,621.222839
1213,153,2,1,0,0,11.056630
-1638,1231,3,1,0,0,1.618378
-1854,1914,4,0,0,0,564.894714
-44,-1580,5,0,0,0,655.733826
-1711,-1529,6,0,0,0,581.417358
1559,-162,7,0,0,0,658.131226
1696,-1989,8,0,0,0,513.221619
862,1406,1,1,0,0,5.361223
1852,410,2,0,0,0,661.545715
-753,218,3,1,0,0,26.476788
-1391,1759,4,0,0,0,613.823486
-1567,-1577,5,0,0,0,558.799866
-744,-163,6,1,0,0,34.998657
1404,-1075,7,0,0,0,623.744629
538,-1509,8,0,0,0,651.890625
884,1574,1,0,0,0,697.735413
1946,382,2,1,0,0,2.667810
-653,278,3,1,0,0,34.649723
-477,489,4,0,0,0,954.938171
-837,-1456,5,1,0,0,2.925790
-764,-332,6,0,0,0,871.542664
483,-170,7,0,0,0,979.584839
253,-1327,8,1,0,0,5.570064
1040,1538,1,0,0,0,689.705505
1195,684,2,0,0,0,753.281189
-1059,1049,3,0,0,0,672.482544
-547,1838,4,0,0,0,658.427429
-397,-858,5,0,0,0,803.045227
-1992,-868,6,0,0,0,596.880920
1130,-679,7,0,0,0,707.625610
583,-1318,8,0,0,0,682.120972
1264,1626,1,0,0,0,660.060242
1542,379,2,0,0,0,712.401672
-747,336,3,0,0,0,844.287476
-495,511,4,0,0,0,943.233215
-641,-1192,5,0,0,0,700.099243
-1869,-975,6,0,0,0,605.490723
1307,-1295,7,0,0,0,612.445923
663,-1487,8,1,0,0,3.208155
42,1275,1,0,0,0,797.345337
1014,141,2,1,0,0,18.353861
-862,285,3,0,0,0,814.681763
-53,1896,4,0,0,0,661.560791
-1509,-1707,5,1,0,0,1.178961
-1585,-470,6,0,0,0,674.776794
1702,-149,7,1,0,0,2.780360
463,-1665,8,0,0,0,630.279541
330,1525,1,0,0,0,739.521606
1808,1490,2,0,0,0,601.383179
-1009,892,3,0,0,0,701.512817
-508,1636,4,0,0,0,690.679626
-326,-1930,5,0,0,0,594.866577
-434,-174,6,1,0,0,112.869919
1682,-410,7,0,0,0,629.773315
219,-551,8,1,0,0,55.144260
1227,1473,1,1,0,0,3.436105
1554,754,2,0,0,0,688.316772
-451,408,3,0,0,0,930.012390
-338,1010,4,0,0,0,827.068542
-1426,-1739,5,0,0,0,555.546082
-1897,-1598,6,1,0,0,1.142315
1807,-1194,7,0,0,0,566.182495
602,-1681,8,0,0,0,620.980347
334,495,1,0,0,0,1015.922058
1362,767,2,0,0,0,716.907776
-1133,283,3,0,0,0,742.372192
-1158,1621,4,0,0,0,647.554077
-412,-619,5,0,0,0,872.122437
-1243,-49,6,0,0,0,756.259094
1176,-1039,7,0,0,0,657.796448
589,-638,8,0,0,0,827.500061
232,1522,1,0,0,0,743.355347
408,324,2,0,0,0,1033.028564
-320,165,3,0,0,0,1081.129150
-890,1050,4,1,0,0,7.836307
-396,-1571,5,0,0,0,648.684082
-1699,-864,6,0,0,0,634.153320
1335,-752,7,0,0,0,664.611572
88,-1382,8,0,0,0,693.538757
572,705,1,0,0,0,895.209290
569,394,2,0,0,0,951.175537
-841,141,3,0,0,0,832.705444
-1266,1327,4,0,0,0,671.165344
-259,-969,5,0,0,0,786.043396
-988,-965,6,1,0,0,6.495142
1582,-1529,7,0,0,0,561.741821
1122,-1237,8,1,0,0,2.974908
1514,1656,1,0,0,0,635.612244
744,465,2,0,0,0,882.856262
-1529,527,3,0,0,0,649.189819
-157,802,4,0,0,0,903.302063
-1353,-157,6,0,0,0,730.238281
1809,-1593,7,1,0,0,0.996236
896,-1453,8,0,0,0,633.783813
397,1213,1,0,0,0,797.204956
59,42,2,0,0,0,1602.273193
-923,531,3,1,0,0,11.153019
-427,1784,4,0,0,0,671.110168
-893,-863,6,0,0,0,756.745178
775,-560,7,0,0,0,799.793762
1584,-1789,8,0,0,0,538.447815
148,1211,1,0,0,0,810.173462
1081,589,2,1,0,0,10.839093
-936,709,3,0,0,0,740.803467
-480,570,4,0,0,0,929.881836
-839,-59,6,0,0,0,868.773376
341,-320,7,0,0,0,1005.735840
430,-1997,8,0,0,0,582.748291
28,1849,1,0,0,0,690.849792
1753,981,2,1,0,0,2.567675
-1893,1529,3,0,0,0,533.322998
-1348,1514,4,0,0,0,642.585266
-1423,-205,6,1,0,0,5.772192
890,-575,7,0,0,0,770.284058
294,-1766,8,0,0,0,620.222046
447,1818,1,0,0,0,687.323181
619,259,2,0,0,0,960.095520
-206,198,3,0,0,0,1147.798950
-270,781,4,0,0,0,900.102173
-542,-152,6,0,0,0,984.444824
1265,-53,7,0,0,0,719.199951
1017,-1633,8,0,0,0,599.775391
280,1084,1,0,0,0,834.878052
728,603,2,0,0,0,861.386414
-789,200,3,0,0,0,846.096680
-713,1456,4,1,0,0,4.846276
-808,-582,6,0,0,0,820.192749
1470,-501,7,0,0,0,660.760315
541,-1171,8,1,0,0,6.379794
1078,1912,1,1,0,0,2.298491
1132,938,2,0,0,0,734.488892
-706,407,3,0,0,0,845.757263
-453,1854,4,0,0,0,659.789856
-1871,-521,6,0,0,0,628.805237
678,-414,7,1,0,0,25.528608
311,-1955,8,1,0,0,1.793573
523,1999,1,0,0,0,659.122437
1412,307,2,0,0,0,739.434937
-1545,935,3,1,0,0,2.357840
-446,1016,4,0,0,0,815.291382
-1693,-1367,6,0,0,0,596.477417
1941,-743,7,0,0,0,577.855347
1174,-1709,8,0,0,0,578.531677
306,1555,1,0,0,0,735.048645
898,868,2,0,0,0,781.290894
-1522,330,3,0,0,0,659.964417
-1533,1967,4,0,0,0,583.661133
-1112,-632,6,0,0,0,748.277710
1600,-234,7,0,0,0,649.234192
1686,-1884,8,1,0,0,0.863737
827,981,1,0,0,0,795.685852
1389,380,2,0,0,0,740.419006
-1671,104,3,0,0,0,639.316956
-94,672,4,1,0,0,55.182674
-1954,-998,6,1,0,0,1.647388
1540,-258,7,0,0,0,659.213928
536,-1280,8,0,0,0,692.941040
177,1956,1,0,0,0,673.627625
243,242,2,0,0,0,1153.623169
-1630,210,3,1,0,0,3.119992
-69,1107,4,0,0,0,815.403503
-789,-634,6,1,0,0,15.960869
1727,-1531,7,0,0,0,548.235535
75,-1244,8,0,0,0,723.728943
122,893,1,0,0,0,897.299072
1217,528,2,0,0,0,763.964661
-1819,1145,3,0,0,0,568.342712
-624,1032,4,0,0,0,791.343689
-1576,-25,6,0,0,0,688.420044
1988,-338,7,0,0,0,586.413879
849,-1993,8,0,0,0,566.123352
660,1052,1,0,0,0,805.062317
1217,309,2,0,0,0,779.757874
-582,294,3,1,0,0,43.302288
-1303,1597,4,0,0,0,637.845337
-1187,-599,6,1,0,0,7.260090
1639,-747,7,0,0,0,618.495178
707,-1328,8,0,0,0,669.835266
1298,1472,1,1,0,0,3.205447
1601,1491,2,1,0,0,1.991763
-1840,1256,3,0,0,0,558.208740
-68,437,4,0,0,0,1080.275024
-862,-554,6,0,0,0,811.969421
1776,-218,7,1,0,0,2.423371
98,-1841,8,1,0,0,2.217171
1246,1301,1,1,0,0,4.131474
1140,650,2,0,0,0,767.079651
-1612,573,3,0,0,0,633.157043
-133,769,4,1,0,0,38.543629
-1790,-774,6,1,0,0,2.340497
1671,-453,7,0,0,0,629.762573
816,-1025,8,1,0,0,6.095084
808,1996,1,0,0,0,647.343323
1479,503,2,1,0,0,5.405908
-1735,147,3,0,0,0,628.138245
-760,771,4,0,0,0,822.368042
-1537,-297,6,1,0,0,4.491318
286,-1085,8,0,0,0,753.838257
336,582,1,0,0,0,981.867615
1923,1879,2,0,0,0,562.371521
-1752,1696,3,0,0,0,532.739258
-1404,1486,4,1,0,0,2.437188
-930,-421,6,0,0,0,813.044006
663,-1296,8,1,0,0,4.468360
33,254,1,0,0,0,1260.054199
1188,46,2,0,0,0,795.446289
-1491,1390,3,1,0,0,1.643545
-569,1842,4,0,0,0,656.911133
-1306,-1137,6,0,0,0,661.542725
422,-1395,8,0,0,0,678.914978
338,1187,1,0,0,0,806.852478
548,35,2,0,0,0,1017.874390
-742,705,3,0,0,0,780.230957
-739,776,4,0,0,0,825.310852
-1626,-696,6,1,0,0,3.128793
222,-1547,8,0,0,0,658.960876
16,71,1,0,0,0,1623.088745
1388,436,2,0,0,0,737.480957
-1423,915,3,1,0,0,2.862780
-399,1259,4,0,0,0,765.242188
-1374,-947,6,0,0,0,672.105957
244,-787,8,0,0,0,842.582458
131,1482,1,0,0,0,753.175842
1248,1087,2,0,0,0,700.545105
-1326,1281,3,0,0,0,611.860657
-767,784,4,0,0,0,818.625732
-629,-461,6,0,0,0,890.531738
15,-1479,8,1,0,0,4.263244
572,1754,1,1,0,0,3.849891
1118,19,2,0,0,0,813.076538
-756,40,3,0,0,0,866.950195
-833,1807,4,1,0,0,2.641521
-1193,-548,6,0,0,0,740.796692
689,-994,8,1,0,0,7.704387
1086,1438,1,0,0,0,698.249878
1280,341,2,0,0,0,764.388794
-1467,1051,3,1,0,0,2.362747
-1089,1512,4,0,0,0,666.634583
-1524,-1140,6,0,0,0,634.582336
1098,1631,1,0,0,0,673.313049
1518,964,2,0,0,0,676.801453
-1832,1747,3,1,0,0,0.860489
1016,1371,1,0,0,0,713.857605
1666,1357,2,0,0,0,625.985840
-1503,1154,3,0,0,0,604.071167
228,749,1,0,0,0,937.850403
1894,1533,2,0,0,0,590.237549
-1087,650,3,0,0,0,719.107605
422,719,1,1,0,0,37.081284
1608,481,2,0,0,0,696.528564
-1374,259,3,0,0,0,690.783203
1110,1776,1,0,0,0,655.271423
1961,1365,2,1,0,0,1.531500
-1287,1259,3,0,0,0,618.621399
293,1834,1,0,0,0,689.607483
643,38,2,1,0,0,62.732681
-506,404,3,0,0,0,911.961060
1300,1833,1,1,0,0,2.143040
-1595,546,3,0,0,0,637.343262
481,1731,1,0,0,0,699.112793
-739,565,3,0,0,0,807.690796
-415,26,3,0,0,0,1039.595825
-1340,403,3,0,0,0,690.559998
-1407,137,3,0,0,0,687.637817
-381,196,3,0,0,0,1030.958496
-1066,228,3,1,0,0,10.422025
-1594,761,3,0,0,0,624.058472
-1992,1444,3,1,0,0,0.937042
-1149,520,3,0,0,0,720.315613
-1684,710,3,1,0,0,2.275639
-1400,714,3,0,0,0,657.373840
-619,162,3,0,0,0,915.383850
-1171,1016,3,0,0,0,661.258789
-1765,1375,3,0,0,0,556.998352
-1991,1449,3,0,0,0,529.980957
-1981,1713,3,1,0,0,0.777327
-1079,355,3,1,0,0,9.249731
-902,793,3,0,0,0,734.329224
-1552,83,3,1,0,0,3.681753
-1483,604,3,0,0,0,652.025208
-1772,598,3,0,0,0,607.805847
-1240,839,3,1,0,0,4.112688
-1052,556,3,0,0,0,736.999329
-1437,441,3,0,0,0,670.086731
-1958,592,3,1,0,0,1.626558
-1635,1343,3,0,0,0,572.789429
-1327,273,3,0,0,0,699.809326


each generation good chromosome number
0,0,0,