the max average throughput times

BS TX power
MBS area 1,MBS area 2,MBS area 3,MBS area 4,MBS area 5,MBS area 6,CBSD 1,CBSD 2,CBSD 3,CBSD 4,CBSD 5,
5.000,5.000,5.000,5.000,8.750,6.250,1.000,0.000,0.000,1.000,0.000,
max average power
669.994995

x,y,area,be blocked (1 : NLOS / 0 : LOS),be blocked number (>=1 : CBSD(x) / 0 : no),connect bs number (>=1 : CBSD / 0 : MBS),throughput (unit : M bps)
618,1069,1,0,0,0,726.381226
824,280,2,0,0,0,826.850830
-1240,122,3,0,0,0,723.791382
-1023,1133,4,1,0,1,765.980042
-1537,-1972,5,0,0,0,604.810486
172,-864,6,0,0,0,855.439697
1122,1272,1,0,0,0,635.612488
969,247,2,0,0,0,786.913208
-711,698,3,1,0,1,685.350952
-1264,1970,4,0,0,0,544.265503
-64,-1251,5,1,0,4,347.130798
1602,-567,6,0,0,0,666.906311
358,1408,1,0,0,0,679.825439
440,280,2,0,0,0,974.290955
-540,58,3,1,0,1,419.678864
-106,1782,4,0,0,0,621.042847
-1406,-1939,5,0,0,0,617.024780
1603,-572,6,1,0,1,159.730652
826,1095,1,0,0,0,696.278687
1683,363,2,0,0,0,631.348816
-1685,1648,3,0,0,0,542.310669
-575,1397,4,0,0,0,668.653320
-841,-1558,5,0,0,0,703.301453
1192,-1112,6,0,0,0,678.792908
1303,1965,1,1,0,1,192.738159
280,52,2,0,0,0,1148.749023
-1742,210,3,0,0,0,625.955322
-162,628,4,0,0,0,911.489258
-767,-1912,5,0,0,0,659.977478
1784,-1026,6,0,0,0,612.320557
779,1772,1,0,0,0,598.026978
476,168,2,0,0,0,983.704590
-1029,928,3,1,0,1,1095.205566
-520,899,4,0,0,0,776.041138
-688,-1100,5,0,0,0,792.487793
1877,-1348,6,0,0,0,579.416626
959,1030,1,0,0,0,688.920410
1206,537,2,0,0,0,707.225403
-1916,98,3,0,0,0,600.557068
-952,1040,4,1,0,1,899.542236
-761,-1044,5,1,0,4,613.825378
1329,-338,6,1,0,1,184.674316
270,1960,1,0,0,0,591.813416
1702,483,2,0,0,0,623.596863
-1381,20,3,0,0,0,694.294922
-333,390,4,0,0,0,979.145874
-1337,-814,5,0,0,0,738.603027
457,-1995,6,1,0,4,212.588272
857,969,1,0,0,0,713.044556
336,24,2,0,0,0,1100.319946
-1597,1441,3,1,0,1,452.545135
-1262,1863,4,1,0,1,404.286774
-376,-35,5,0,0,0,1148.070801
1538,-1099,6,0,0,0,636.520508
1361,1790,1,0,0,0,555.578796
1073,873,2,0,0,0,693.853210
-1547,1289,3,0,0,0,586.821167
-1246,1842,4,0,0,0,558.711975
-547,-25,5,0,0,0,1040.908447
1373,-696,6,0,0,0,695.192383
45,1797,1,1,0,1,331.987000
-1691,931,3,0,0,0,598.809265
-147,1658,4,1,0,1,378.268372
-941,-96,5,0,0,0,883.395386
672,-1198,6,0,0,0,727.822510
220,946,1,1,0,1,363.070038
-1440,806,3,1,0,1,589.782227
-411,450,4,1,0,1,488.294586
-239,-512,5,0,0,0,1031.856323
1605,-883,6,0,0,0,645.475586
-945,1354,4,0,0,0,643.273621
-1678,-1644,5,1,0,4,267.709930
955,-661,6,0,0,0,775.967224
-1475,-996,5,0,0,0,701.802551
664,-606,6,0,0,0,849.617004
-102,-1227,5,0,0,0,807.541321
1720,-368,6,0,0,0,657.069885
-623,-401,5,0,0,0,953.750854
203,-610,6,0,0,0,946.158813
-1398,-1585,5,1,0,4,308.136261
80,-678,6,0,0,0,928.847961
-1889,-1154,5,0,0,0,639.471741
646,-876,6,0,0,0,794.618103
-433,-1507,5,1,0,4,363.146576
893,-1332,6,0,0,0,683.482056
-1079,-77,5,0,0,0,844.767883
888,-1847,6,1,0,4,188.224625
-1168,-890,5,0,0,0,756.930176
1163,-1467,6,0,0,0,639.283203
-531,-1408,5,0,0,0,749.911133
1136,-636,6,1,0,4,189.948761
-208,-766,5,1,0,4,416.847992
-567,-1485,5,0,0,0,734.191711
-1457,-1033,5,1,0,4,362.935272
-1598,-1467,5,0,0,0,645.242065
-60,-449,5,0,0,0,1095.587769
-561,-781,5,1,0,4,607.195740
-251,-514,5,0,0,0,1028.318726
-180,-62,5,0,0,0,1345.650269
-310,-1367,5,1,0,4,376.642761
