Algorithm result
CBSD number,Modified GA,,,DP,,,HA,,,BARSPAA,,ES
24,589.298218,73.730003,344.0,589.803101,74.889999,343.0,594.509766,20.1,345.0,411.872925,669.0,595.384338
25,475.336243,62.200001,344.0,540.507996,74.879997,343.0,594.445007,17.5,344.0,412.357117,669.0,595.384338
26,358.910248,43.639999,344.0,428.897217,57.279999,342.0,594.11731,14.1,345.0,411.604218,669.0,595.384338
""
BS power
CBSD number,Modified GA,,,,DP,,,,HA,,,,BARSPAA,,,
24,71.1,4.0,38.325,0.806,72.65,4.0,38.15,0.849,70.0,4.0,40.0,0.7625,70.0,4.0,40.0,1.0
25,71.325,4.0,37.725,0.80425,72.5,4.0,37.475,0.8875,70.0,4.0,40.0,0.7345,70.0,4.0,40.0,1.0
26,71.012,4.0,34.787,0.93325,72.688,4.0,35.487,0.91775,70.5,4.0,39.75,0.78125,70.0,4.0,40.0,1.0
