411.131958,411.131958,411.131958,411.131958,411.131958,411.131958,411.131958,411.131958,411.131958,411.131958,411.131958,411.131958,411.131958,411.131958,411.131958,411.131958,411.131958,411.131958,411.131958,411.131958,411.131958,411.131958,411.131958,411.131958,411.131958,411.131958,411.131958,411.131958,411.131958,411.131958,411.131958,411.131958,411.131958,411.131958,411.131958,411.131958,411.131958,411.131958,411.131958,411.131958,411.131958,411.131958,411.131958,411.131958,411.131958,411.131958,411.131958,411.131958,411.131958,411.131958,411.131958,411.131958,411.131958,411.131958,411.131958,411.131958,411.131958,411.131958,411.131958,411.131958,411.131958,411.131958,411.131958,411.131958,411.131958,411.131958,411.131958,411.131958,411.131958,411.131958,411.131958,411.131958,411.131958,411.131958,411.131958,411.131958,411.131958,411.131958,411.131958,411.131958,411.131958,411.131958,411.131958,411.131958,411.131958,411.131958,411.131958,411.131958,411.131958,411.131958,411.131958,411.131958,411.131958,411.131958,411.131958,411.131958,411.131958,411.131958,411.131958,411.131958,

avg. max avg. throughput in test times
411.132416
avg. BS TX power in all test times
MBS area 1,MBS area 2,MBS area 3,MBS area 4,MBS area 5,MBS area 6,MBS area 7,MBS area 8,CBSD 1,CBSD 2,CBSD 3,CBSD 4,CBSD 5,CBSD 6,CBSD 7,CBSD 8,CBSD 9,CBSD 10,
5.000,5.000,5.000,5.000,5.000,5.000,5.000,5.000,0.000,0.000,0.000,0.000,1.000,0.000,0.000,0.000,0.000,0.000,
avg. mbs all power,avg. cbsd enable number,avg. mbs area all power,avg. cbsd all power
47.500,1.000,40.000,1.000
avg. number of relay UE
221

BS TX power
MBS area 1,MBS area 2,MBS area 3,MBS area 4,MBS area 5,MBS area 6,MBS area 7,MBS area 8,CBSD 1,CBSD 2,CBSD 3,CBSD 4,CBSD 5,CBSD 6,CBSD 7,CBSD 8,CBSD 9,CBSD 10,
5.000,5.000,5.000,5.000,5.000,5.000,5.000,5.000,0.000,0.000,0.000,0.000,1.000,0.000,0.000,0.000,0.000,0.000,
max average power
0.000000

x,y,area,be blocked (1 : NLOS / 0 : LOS),be blocked number (>=1 : CBSD(x) / 0 : no),connect bs number (>=1 : CBSD / 0 : MBS),throughput (unit : M bps)
1113,1173,1,1,0,5,42.409691
1645,1182,2,0,0,0,585.137878
-1095,1089,3,0,0,5,42.409691
-618,1202,4,1,0,5,42.409691
-296,-695,5,0,0,0,867.578003
-1639,-1571,6,1,0,5,42.409691
1715,-1093,7,0,0,0,584.011719
250,-796,8,0,0,0,838.981262
1492,1704,1,0,0,0,553.548035
849,288,2,0,0,0,818.306702
-1914,1570,3,0,0,5,42.409691
-145,830,4,1,0,5,42.409691
-885,-1354,5,0,0,0,649.136902
-1751,-1426,6,1,0,5,42.409691
1496,-485,7,0,0,0,657.174744
1692,-1931,8,0,0,0,518.255371
1199,1925,1,0,0,0,553.175598
1805,361,2,1,0,5,42.409691
-1343,1043,3,1,0,5,42.409691
-1282,1829,4,0,0,5,42.409691
-655,-1282,5,0,0,0,682.428467
-1174,-104,6,1,0,5,42.409691
1996,-1794,7,0,0,0,505.837341
95,-1622,8,0,0,0,647.868347
384,451,1,1,0,5,42.409691
1114,632,2,0,0,0,715.897034
-665,475,3,1,0,5,42.409691
-621,1228,4,0,0,5,42.409691
-895,-1674,5,0,0,0,603.574463
-1893,-325,6,1,0,5,42.409691
1755,-1642,7,0,0,0,536.814392
537,-1124,8,0,0,0,723.859619
631,1870,1,0,0,0,592.519836
1458,175,2,1,0,5,42.409691
-1458,462,3,1,0,5,42.409691
-75,525,4,1,0,5,42.409691
-473,-1568,5,1,0,5,42.409691
-1150,-349,6,0,0,0,734.145569
1831,-175,7,0,0,0,612.533875
819,-1152,8,0,0,0,687.677246
976,1555,1,0,0,0,613.063721
429,149,2,0,0,0,1014.177124
-684,305,3,1,0,5,42.409691
-409,1582,4,0,0,5,42.409691
-494,-1852,5,0,0,0,600.816772
-874,-844,6,0,0,0,731.012451
1140,-743,7,0,0,0,698.552307
1338,-1556,8,0,0,0,581.447754
67,401,1,0,0,0,1046.085571
1760,1077,2,0,0,0,579.903503
-1797,1758,3,0,0,5,42.409691
-269,1722,4,1,0,5,42.409691
-249,-1248,5,0,0,0,717.735352
-1483,-238,6,0,0,0,670.309387
1156,-111,7,0,0,0,743.971436
145,-278,8,0,0,0,1121.004639
1473,1493,1,1,0,5,42.409691
1878,1136,2,0,0,0,562.420654
-695,680,3,0,0,5,42.409691
-966,1275,4,0,0,5,42.409691
-384,-1107,5,1,0,5,42.409691
-1722,-1436,6,0,0,0,556.391968
1053,-138,7,0,0,0,769.629761
315,-712,8,0,0,0,858.886353
387,1625,1,0,0,5,42.409691
1753,372,2,1,0,5,42.409691
-1743,695,3,0,0,5,42.409691
-1131,1637,4,0,0,5,42.409691
-746,-967,5,0,0,0,729.525330
-528,-50,6,0,0,0,969.454651
1392,-577,7,0,0,0,669.383972
582,-1269,8,0,0,0,691.213745
277,709,1,1,0,5,42.409691
623,80,2,0,0,0,920.714417
-1442,637,3,0,0,5,42.409691
-296,823,4,0,0,5,42.409691
-423,-1514,5,1,0,5,42.409691
-1991,-196,6,1,0,5,42.409691
1285,-35,7,0,0,0,714.850098
512,-811,8,0,0,0,798.909912
51,1051,1,0,0,5,42.409691
1929,1169,2,1,0,5,42.409691
-1831,437,3,0,0,5,42.409691
-124,833,4,0,0,5,42.409691
-269,-352,5,1,0,5,42.409691
-1684,-1045,6,0,0,0,591.329163
1366,-929,7,1,0,5,42.409691
1103,-1684,8,1,0,5,42.409691
300,473,1,0,0,0,953.725525
1897,1250,2,1,0,5,42.409691
-1012,285,3,0,0,5,42.409691
-157,1568,4,1,0,5,42.409691
-693,-1797,5,0,0,0,599.450378
-1784,-638,6,0,0,0,604.111877
1429,-1416,7,0,0,0,587.088196
959,-1377,8,1,0,5,42.409691
201,884,1,0,0,0,815.102966
1942,1104,2,1,0,5,42.409691
-1399,858,3,0,0,5,42.409691
-423,1335,4,0,0,5,42.409691
-1282,-1655,5,1,0,5,42.409691
-1082,-189,6,0,0,0,759.959961
1113,-385,7,0,0,0,739.951172
261,-827,8,0,0,0,827.865601
1598,1944,1,1,0,5,42.409691
1237,470,2,0,0,0,706.547913
-1903,359,3,0,0,5,42.409691
-1545,1920,4,0,0,5,42.409691
-196,-1768,5,0,0,0,622.052185
-1245,-246,6,1,0,5,42.409691
834,-300,7,1,0,5,42.409691
1489,-1879,8,0,0,0,537.509399
1168,1250,1,0,0,0,633.164307
1951,1627,2,1,0,5,42.409691
-596,244,3,0,0,0,913.515198
-757,879,4,0,0,5,42.409691
-1244,-1393,5,0,0,0,608.196594
-736,-193,6,0,0,0,865.499084
1467,-658,7,0,0,0,650.864380
640,-1982,8,0,0,0,577.253479
486,1400,1,0,0,0,674.144348
961,175,2,1,0,5,42.409691
-544,410,3,0,0,5,42.409691
-778,1627,4,0,0,5,42.409691
-668,-1980,5,0,0,0,576.319763
-1336,-514,6,0,0,0,684.056396
1546,-343,7,1,0,5,42.409691
324,-1743,8,0,0,0,623.009888
471,1097,1,0,0,0,736.049377
998,133,2,0,0,0,784.955261
-1309,211,3,0,0,5,42.409691
-1191,1996,4,0,0,5,42.409691
-384,-1381,5,1,0,5,42.409691
-1542,-636,6,1,0,5,42.409691
1538,-412,7,1,0,5,42.409691
350,-651,8,0,0,0,873.851868
8,956,1,0,0,5,42.409691
1719,32,2,0,0,0,631.747009
-1726,34,3,1,0,5,42.409691
-1105,1992,4,0,0,5,42.409691
-1164,-1709,5,0,0,0,579.304138
-1757,-641,6,0,0,0,607.791809
839,-246,7,0,0,0,825.516479
80,-508,8,1,0,5,42.409691
97,462,1,1,0,5,42.409691
1745,210,2,0,0,0,625.472351
-1533,1456,3,1,0,5,42.409691
-265,1606,4,0,0,5,42.409691
-508,-1133,5,0,0,0,724.785645
-1333,-826,6,0,0,0,657.989502
579,-121,7,0,0,0,938.013184
746,-1682,8,1,0,5,42.409691
40,1467,1,0,0,5,42.409691
1628,521,2,0,0,0,633.402893
-1005,683,3,0,0,5,42.409691
-296,1644,4,0,0,5,42.409691
-1114,-1991,5,0,0,0,551.488647
-1871,-1162,6,0,0,0,561.440918
146,-124,7,1,0,5,42.409691
50,-910,8,0,0,0,813.581665
969,1588,1,1,0,5,42.409691
1130,395,2,0,0,0,735.279358
-1747,748,3,0,0,5,42.409691
-91,1749,4,1,0,5,42.409691
-1436,-1607,5,0,0,0,567.586792
-1850,-310,6,0,0,0,606.954651
1987,-1178,7,1,0,5,42.409691
673,-1406,8,0,0,0,659.706787
1031,1793,1,1,0,5,42.409691
1284,787,2,0,0,0,669.545593
-639,407,3,0,0,5,42.409691
-469,609,4,0,0,5,42.409691
-77,-459,5,0,0,0,1007.107422
-1892,-668,6,0,0,0,587.833313
1842,-1484,7,0,0,0,541.297302
1316,-1808,8,0,0,0,557.143250
492,1778,1,0,0,0,611.688782
1272,875,2,0,0,0,662.445312
-1054,132,3,0,0,5,42.409691
-100,1666,4,0,0,5,42.409691
-701,-1480,5,0,0,0,645.622620
-864,-4,6,0,0,0,828.928650
1822,-1332,7,0,0,0,554.536072
1165,-1663,8,1,0,5,42.409691
1425,1829,1,1,0,5,42.409691
1717,201,2,0,0,0,630.188965
-1172,203,3,0,0,5,42.409691
-1373,1441,4,1,0,5,42.409691
-1243,-1431,5,0,0,0,603.988770
-690,-140,6,0,0,0,887.843323
791,-741,7,0,0,0,763.779846
1288,-1734,8,1,0,5,42.409691
776,1972,1,1,0,5,42.409691
1633,174,2,1,0,5,42.409691
-1851,1292,3,0,0,5,42.409691
-1048,1735,4,0,0,5,42.409691
-303,-929,5,0,0,0,793.546387
-1873,-1104,6,0,0,0,565.099915
845,-188,7,0,0,0,828.379150
261,-965,8,0,0,0,787.002808
1194,1976,1,1,0,5,42.409691
940,27,2,1,0,5,42.409691
-318,238,3,0,0,0,1052.800537
-146,968,4,0,0,5,42.409691
-861,-1060,5,0,0,0,697.530029
-1881,-988,6,0,0,0,571.610901
1949,-1574,7,0,0,0,525.142212
264,-1773,8,0,0,0,619.866028
527,881,1,0,0,0,779.369568
1979,1576,2,0,0,0,522.391235
-1300,726,3,0,0,5,42.409691
-1232,1870,4,0,0,5,42.409691
-370,-1797,5,0,0,0,613.253357
-1885,-1391,6,0,0,0,544.021362
1854,-1540,7,1,0,5,42.409691
614,-1692,8,0,0,0,618.691406
1281,1850,1,0,0,0,555.382385
131,39,2,1,0,5,42.409691
-992,785,3,0,0,5,42.409691
-1174,1644,4,1,0,5,42.409691
-965,-1205,5,0,0,0,662.466919
-1658,-398,6,0,0,0,634.109741
1024,-505,7,0,0,0,748.845764
1299,-1601,8,0,0,0,580.134216
156,1694,1,0,0,5,42.409691
1898,1499,2,1,0,5,42.409691
-1003,693,3,0,0,5,42.409691
-558,1248,4,0,0,5,42.409691
-932,-1007,5,1,0,5,42.409691
-1542,-285,6,0,0,0,657.999817
1302,-1119,7,0,0,0,632.162964
251,-1364,8,0,0,0,693.104370
1194,1942,1,0,0,0,551.707825
1522,560,2,0,0,0,648.400330
-1803,1036,3,1,0,5,42.409691
-1554,1690,4,0,0,5,42.409691
-937,-1785,5,1,0,5,42.409691
-1515,-571,6,1,0,5,42.409691
773,-772,7,0,0,0,761.506836
137,-157,8,0,0,0,1238.873657
332,890,1,0,0,0,801.676880
1116,195,2,0,0,0,751.077393
-1143,295,3,1,0,5,42.409691
-245,951,4,0,0,5,42.409691
-221,-1115,5,1,0,5,42.409691
-1997,-1941,6,0,0,0,495.496429
1963,-1927,7,0,0,0,498.938934
368,-442,8,0,0,0,946.097351
262,1277,1,1,0,5,42.409691
1254,930,2,0,0,0,659.257812
-1916,1808,3,0,0,5,42.409691
-1007,1234,4,0,0,5,42.409691
-633,-1675,5,0,0,0,620.172302
-1867,-1780,6,0,0,0,516.932007
1388,-161,7,1,0,5,42.409691
1050,-1267,8,1,0,5,42.409691
515,1820,1,0,0,0,604.590576
1731,1482,2,0,0,0,551.824829
-770,67,3,0,0,0,860.986023
-609,641,4,0,0,5,42.409691
-1129,-1622,5,1,0,5,42.409691
-1805,-219,6,0,0,0,615.816711
947,-413,7,0,0,0,777.543213
240,-975,8,0,0,0,785.732239
365,564,1,0,0,0,901.347229
576,324,2,0,0,0,906.072266
-222,173,3,0,0,0,1152.151367
-183,882,4,1,0,5,42.409691
-744,-1020,5,0,0,0,720.015503
-773,-363,6,1,0,5,42.409691
1545,-490,7,1,0,5,42.409691
493,-1407,8,1,0,5,42.409691
635,1482,1,0,0,0,650.066284
1375,453,2,0,0,0,680.831116
-1357,257,3,0,0,5,42.409691
-16,1779,4,0,0,5,42.409691
-1761,-1805,5,0,0,0,523.295044
-1982,-956,6,0,0,0,561.692688
1948,-1745,7,1,0,5,42.409691
1226,-1737,8,0,0,0,571.424927
329,1666,1,0,0,5,42.409691
1823,1214,2,0,0,0,563.016113
-1828,893,3,0,0,5,42.409691
-1057,1252,4,1,0,5,42.409691
-864,-1878,5,0,0,0,579.377075
-1586,-365,6,0,0,0,647.398438
1945,-348,7,0,0,0,592.189819
1593,-1701,8,0,0,0,545.494324
771,968,1,1,0,5,42.409691
672,387,2,0,0,0,860.034241
-1613,1181,3,0,0,5,42.409691
-670,1859,4,0,0,5,42.409691
-892,-1290,5,0,0,0,657.954895
-1912,-1609,6,0,0,0,525.848083
1041,-806,7,0,0,0,708.007019
1756,-1885,8,0,0,0,517.298157
1030,1679,1,0,0,0,593.071777
1603,299,2,0,0,0,646.840149
-1257,693,3,0,0,5,42.409691
-181,253,4,0,0,0,1123.279907
-178,-930,5,0,0,0,802.593811
-1634,-1258,6,1,0,5,42.409691
1246,-810,7,0,0,0,673.338379
1044,-1865,8,0,0,0,569.932617
1034,1704,1,0,0,0,589.716980
1209,130,2,0,0,0,730.782471
-1113,1110,3,0,0,5,42.409691
-923,1926,4,0,0,5,42.409691
-651,-1219,5,0,0,0,694.129761
-896,-431,6,0,0,0,788.559204
1962,-1911,7,0,0,0,500.150726
623,-1797,8,0,0,0,603.022217
191,469,1,0,0,0,982.778748
1074,1009,2,0,0,0,675.757019
-509,429,3,1,0,5,42.409691
-323,1787,4,0,0,5,42.409691
-163,-1059,5,0,0,0,767.081665
-1922,-1053,6,0,0,0,562.846252
752,-437,7,0,0,0,827.022339
12,-192,8,0,0,0,1261.915283
733,1885,1,1,0,5,42.409691
1592,228,2,0,0,0,650.787170
-1470,214,3,1,0,5,42.409691
-439,1723,4,0,0,5,42.409691
-135,-1096,5,0,0,0,758.422241
-1141,-1122,6,0,0,0,652.211243
1438,-1200,7,0,0,0,607.389587
511,-663,8,0,0,0,838.039246
642,1274,1,0,0,0,685.026367
1998,190,2,0,0,0,587.755310
-1363,755,3,0,0,5,42.409691
-201,931,4,0,0,5,42.409691
-1274,-1822,5,0,0,0,558.789917
-1410,-831,6,1,0,5,42.409691
1117,-43,7,0,0,0,754.923218
793,-1508,8,1,0,5,42.409691
115,1371,1,0,0,5,42.409691
784,215,2,0,0,0,846.453308
-1223,501,3,0,0,5,42.409691
-419,949,4,1,0,5,42.409691
-244,-1269,5,0,0,0,713.345764
-1726,-1643,6,0,0,0,539.215759
1418,-138,7,0,0,0,685.411316
30,-654,8,1,0,5,42.409691
812,977,1,0,0,0,718.234436
940,202,2,0,0,0,798.202576
-1879,598,3,1,0,5,42.409691
-1123,1280,4,0,0,5,42.409691
-822,-1726,5,1,0,5,42.409691
-879,-593,6,0,0,0,770.084045
974,-82,7,1,0,5,42.409691
416,-773,8,0,0,0,824.364563
30,647,1,0,0,0,911.872803
898,431,2,1,0,5,42.409691
-1877,210,3,0,0,5,42.409691
-384,1687,4,0,0,5,42.409691
-664,-791,5,0,0,0,777.651184
-1619,-367,6,0,0,0,641.738586
507,-73,7,0,0,0,979.481079
919,-1640,8,0,0,0,606.327515
193,559,1,0,0,0,938.075684
1765,278,2,0,0,0,620.786316
-203,170,3,0,0,0,1169.759521
-1361,1857,4,0,0,5,42.409691
-1086,-1176,5,0,0,0,652.121704
-1195,-636,6,1,0,5,42.409691
616,-102,7,1,0,5,42.409691
93,-216,8,1,0,5,42.409691
1944,1995,1,0,0,0,495.430695
1791,1615,2,1,0,5,42.409691
-740,275,3,0,0,5,42.409691
-938,1728,4,0,0,5,42.409691
-948,-1517,5,0,0,0,620.453308
-1780,-1114,6,0,0,0,574.939453
1260,-116,7,0,0,0,719.376953
555,-697,8,0,0,0,820.090698
1670,971,2,0,0,0,598.599976
-1978,1908,3,0,0,5,42.409691
-247,717,4,0,0,5,42.409691
-649,-1631,5,0,0,0,625.830811
-1896,-562,6,1,0,5,42.409691
1562,-1484,7,1,0,5,42.409691
34,-302,8,0,0,0,1130.006348
1610,330,2,0,0,0,644.605408
-736,114,3,0,0,0,871.657959
-1085,1953,4,0,0,5,42.409691
-1348,-1559,5,0,0,0,580.234741
-1574,-1133,6,0,0,0,597.484741
1367,-1272,7,1,0,5,42.409691
1579,-1628,8,0,0,0,553.164673
1979,391,2,0,0,0,586.311768
-1781,25,3,0,0,0,621.677368
-1092,1586,4,0,0,5,42.409691
-1099,-1279,5,0,0,0,637.268188
-513,-443,6,0,0,0,898.786865
1831,-581,7,0,0,0,600.192566
1273,-1931,8,0,0,0,547.633484
506,320,2,1,0,5,42.409691
-1033,658,3,1,0,5,42.409691
-227,1287,4,0,0,5,42.409691
-23,-63,5,0,0,0,1565.943237
-1662,-1082,6,0,0,0,591.145691
1321,-812,7,0,0,0,661.206055
1558,-1611,8,0,0,0,556.523987
714,570,2,0,0,0,812.874512
-937,534,3,0,0,5,42.409691
-601,1639,4,0,0,5,42.409691
-1324,-1500,5,0,0,0,588.642761
-533,-18,6,0,0,0,967.860657
1350,-261,7,0,0,0,695.571472
22,-1891,8,0,0,0,604.640503
1938,685,2,0,0,0,580.987976
-1660,1423,3,0,0,5,42.409691
-51,289,4,1,0,5,42.409691
-980,-1428,5,0,0,0,629.661255
-1372,-377,6,0,0,0,685.782166
1928,-1731,7,0,0,0,515.684875
118,-359,8,1,0,5,42.409691
1350,294,2,0,0,0,694.191833
-1053,752,3,1,0,5,42.409691
-19,1598,4,0,0,5,42.409691
-961,-1263,5,0,0,0,654.575623
-979,-400,6,0,0,0,770.832886
1042,-603,7,0,0,0,733.642822
96,-332,8,0,0,0,1092.928711
436,177,2,0,0,0,1003.938538
-1606,469,3,0,0,5,42.409691
-1437,1990,4,0,0,5,42.409691
-201,-321,5,0,0,0,1066.525391
-1823,-1500,6,1,0,5,42.409691
1121,-490,7,0,0,0,729.032471
866,-1832,8,0,0,0,585.033264
995,980,2,0,0,0,691.115173
-972,886,3,0,0,5,42.409691
-898,1766,4,0,0,5,42.409691
-705,-1579,5,1,0,5,42.409691
-1930,-468,6,0,0,0,590.750916
711,-502,7,0,0,0,826.822510
1412,-1754,8,1,0,5,42.409691
1314,1057,2,0,0,0,637.257874
-837,762,3,0,0,5,42.409691
-432,1069,4,0,0,5,42.409691
-755,-847,5,0,0,0,750.636292
-1696,-861,6,1,0,5,42.409691
1225,-481,7,0,0,0,708.117188
604,-1267,8,1,0,5,42.409691
931,481,2,0,0,0,773.465515
-1657,1258,3,0,0,5,42.409691
-688,1752,4,1,0,5,42.409691
-831,-1510,5,1,0,5,42.409691
-1739,-925,6,0,0,0,593.078735
1179,-645,7,0,0,0,702.120422
113,-1285,8,0,0,0,713.853088
1949,221,2,1,0,5,42.409691
-1176,282,3,0,0,5,42.409691
-614,-1528,5,0,0,0,644.037231
-990,-182,6,0,0,0,785.021606
1745,-1175,7,0,0,0,574.418335
1718,1078,2,0,0,0,584.776978
-1654,1054,3,0,0,5,42.409691
-602,-1165,5,0,0,0,709.142334
1573,-787,7,0,0,0,625.261780
1488,557,2,0,0,0,654.252686
-1725,1254,3,1,0,5,42.409691
-969,-1980,5,0,0,0,561.194153
1925,-820,7,0,0,0,575.950317
1098,986,2,1,0,5,42.409691
-1238,517,3,0,0,5,42.409691
1350,-847,7,0,0,0,653.378235
1936,1394,2,0,0,0,538.898560
-1719,1631,3,0,0,5,42.409691
766,-645,7,1,0,5,42.409691
955,608,2,0,0,0,751.278015
-1217,531,3,1,0,5,42.409691
896,-229,7,0,0,0,809.376526
1011,823,2,0,0,0,710.833069
-1008,679,3,0,0,5,42.409691
1038,-123,7,0,0,0,774.193054
1287,1123,2,0,0,0,633.614136
-1611,273,3,0,0,5,42.409691
721,547,2,0,0,0,815.594727
-1940,673,3,0,0,5,42.409691
1617,193,2,1,0,5,42.409691
-1815,1811,3,1,0,5,42.409691
548,461,2,0,0,0,882.954102
-1512,1246,3,0,0,5,42.409691
1738,1403,2,0,0,0,557.473206
-1946,1768,3,0,0,5,42.409691
1406,1012,2,0,0,0,629.594910
-1264,843,3,0,0,5,42.409691
1610,493,2,0,0,0,637.694336
-1484,1208,3,0,0,5,42.409691
1125,176,2,0,0,0,749.618286
-1363,299,3,0,0,5,42.409691
968,830,2,0,0,0,717.168518
-1708,164,3,0,0,5,42.409691
1048,103,2,0,0,0,772.061279
-347,237,3,0,0,0,1036.562134
1721,1473,2,0,0,0,553.495972
-560,453,3,1,0,5,42.409691
