322.002686,313.530090,320.077728,326.192780,326.473877,320.136902,327.293762,312.279755,326.333496,323.849762,326.245636,325.866791,323.284302,320.966095,327.083862,326.783997,327.130981,323.136047,323.307648,325.588806,327.822998,320.934265,327.742950,326.086365,326.651215,319.330200,326.224762,320.620544,326.961823,326.246033,327.375366,319.230103,322.912262,320.071167,326.110748,325.020386,311.742157,319.822906,322.734406,327.896484,322.440063,326.951813,327.762787,323.830994,324.527435,321.008606,310.393372,325.369690,321.873138,327.494812,321.265259,327.070770,315.282410,327.985046,327.348389,326.820160,320.758972,316.201691,327.548553,319.187683,326.369232,327.804810,325.946228,319.206390,323.186157,326.290436,320.665405,312.963013,325.344940,326.566864,321.268250,326.297363,327.326447,321.313141,326.222687,325.293365,323.899719,322.883087,320.793579,325.671997,323.556335,325.961090,326.334717,327.665741,319.869598,325.958466,327.922638,322.823242,327.864044,325.792816,328.072327,317.742676,326.989014,325.322449,320.408447,326.769257,320.340607,326.061707,327.290100,320.946991,

avg. max avg. throughput in test times
323.692261
avg. BS TX power in all test times
MBS area 1,MBS area 2,MBS area 3,MBS area 4,CBSD 1,CBSD 2,CBSD 3,CBSD 4,CBSD 5,CBSD 6,CBSD 7,CBSD 8,CBSD 9,CBSD 10,CBSD 11,CBSD 12,CBSD 13,CBSD 14,CBSD 15,CBSD 16,CBSD 17,CBSD 18,CBSD 19,CBSD 20,CBSD 21,CBSD 22,CBSD 23,CBSD 24,CBSD 25,CBSD 26,CBSD 27,CBSD 28,CBSD 29,
10.000,10.000,10.000,10.000,0.110,0.140,0.180,0.090,0.200,0.090,0.130,0.130,0.100,0.150,0.110,0.260,0.140,0.180,0.160,0.170,0.080,0.120,0.100,0.160,0.120,0.120,0.090,0.170,0.100,0.120,0.200,0.170,0.110,
avg. mbs all power,avg. cbsd enable number,avg. mbs area all power,avg. cbsd all power
70.000,4.000,40.000,4.000
avg. number of relay UE
790

BS TX power
MBS area 1,MBS area 2,MBS area 3,MBS area 4,CBSD 1,CBSD 2,CBSD 3,CBSD 4,CBSD 5,CBSD 6,CBSD 7,CBSD 8,CBSD 9,CBSD 10,CBSD 11,CBSD 12,CBSD 13,CBSD 14,CBSD 15,CBSD 16,CBSD 17,CBSD 18,CBSD 19,CBSD 20,CBSD 21,CBSD 22,CBSD 23,CBSD 24,CBSD 25,CBSD 26,CBSD 27,CBSD 28,CBSD 29,
10.000,10.000,10.000,10.000,0.000,0.000,0.000,0.000,1.000,0.000,0.000,0.000,0.000,0.000,0.000,1.000,0.000,0.000,0.000,0.000,1.000,0.000,0.000,1.000,0.000,0.000,0.000,0.000,0.000,0.000,0.000,0.000,0.000,
max average power
320.946991

x,y,area,be blocked (1 : NLOS / 0 : LOS),be blocked number (>=1 : CBSD(x) / 0 : no),connect bs number (>=1 : CBSD / 0 : MBS),throughput (unit : M bps)
687,1568,1,1,0,17,126.913826
-1514,145,2,1,0,5,27.811697
-1543,-889,3,1,0,20,25.441029
1149,-446,4,0,0,0,826.437012
1164,1981,1,0,0,17,126.913826
-1672,33,2,1,0,5,27.811697
-100,-867,3,1,0,20,25.441029
1068,-824,4,0,0,0,800.491028
1198,936,1,1,0,5,27.811697
-952,1987,2,0,0,5,27.811697
-286,-1130,3,1,0,20,25.441029
1580,-1765,4,0,0,20,25.441029
1914,606,1,1,0,5,27.811697
-1498,348,2,0,0,0,762.830933
-480,-617,3,1,0,20,25.441029
1984,-392,4,0,0,20,25.441029
948,1984,1,0,0,5,27.811697
-516,1140,2,0,0,0,822.079529
-998,-1701,3,0,0,20,25.441029
1811,-241,4,1,0,20,25.441029
1402,1423,1,1,0,5,27.811697
-1311,733,2,1,0,5,27.811697
-1206,-1130,3,1,0,20,25.441029
1786,-1836,4,1,0,20,25.441029
1036,1022,1,1,0,17,126.913826
-1923,890,2,0,0,5,27.811697
-671,-1046,3,0,0,0,824.067505
205,-356,4,0,0,0,1143.037231
1134,488,1,1,0,5,27.811697
-1807,1747,2,1,0,5,27.811697
-1273,-1670,3,1,0,20,25.441029
391,-1502,4,0,0,0,760.198486
409,718,1,1,0,17,126.913826
-137,1021,2,0,0,0,878.047791
-956,-168,3,0,0,0,895.177673
1934,-1556,4,1,0,20,25.441029
971,1034,1,1,0,5,27.811697
-1672,1686,2,1,0,5,27.811697
-181,-898,3,1,0,20,25.441029
150,-1763,4,0,0,20,25.441029
154,88,1,1,0,5,27.811697
-529,42,2,1,0,5,27.811697
-1985,-1644,3,0,0,20,25.441029
517,-268,4,1,0,20,25.441029
332,1437,1,1,0,17,126.913826
-36,408,2,1,0,5,27.811697
-1409,-1579,3,0,0,20,25.441029
1107,-854,4,1,0,20,25.441029
1829,839,1,0,0,5,27.811697
-602,1817,2,1,0,5,27.811697
-1976,-27,3,1,0,5,27.811697
493,-95,4,0,0,0,1085.176636
1069,897,1,0,0,0,790.739990
-1756,827,2,1,0,5,27.811697
-1790,-81,3,0,0,5,27.811697
1310,-133,4,1,0,20,25.441029
1800,163,1,1,0,20,25.441029
-206,249,2,1,0,5,27.811697
-265,-1252,3,0,0,0,815.627319
1962,-1894,4,1,0,20,25.441029
128,1409,1,0,0,0,786.789307
-458,866,2,1,0,5,27.811697
-8,-1434,3,0,0,0,782.912842
1767,-190,4,1,0,20,25.441029
1635,220,1,0,0,0,742.684387
-175,488,2,0,0,0,1075.929932
-108,-1923,3,0,0,20,25.441029
1343,-1045,4,1,0,20,25.441029
1954,475,1,0,0,5,27.811697
-323,228,2,0,0,0,1154.087769
-936,-780,3,1,0,20,25.441029
693,-197,4,0,0,0,981.054443
128,43,1,1,0,5,27.811697
-1229,1324,2,1,0,5,27.811697
-876,-889,3,0,0,0,822.830750
863,-1651,4,0,0,20,25.441029
1223,469,1,1,0,5,27.811697
-303,302,2,0,0,0,1131.345215
-1253,-671,3,1,0,20,25.441029
583,-1586,4,0,0,0,735.809082
893,311,1,0,0,0,902.705078
-629,1936,2,1,0,5,27.811697
-1016,-331,3,1,0,20,25.441029
997,-1599,4,0,0,20,25.441029
1688,1763,1,1,0,5,27.811697
-1173,529,2,0,0,0,814.052368
-1259,-948,3,0,0,0,755.804077
1883,-1657,4,1,0,20,25.441029
1984,1698,1,0,0,5,27.811697
-1116,749,2,0,0,0,801.532715
-287,-1012,3,0,0,0,872.030884
1485,-332,4,1,0,20,25.441029
1383,1246,1,1,0,5,27.811697
-945,1941,2,1,0,5,27.811697
-492,-1025,3,0,0,0,849.652893
1874,-267,4,1,0,20,25.441029
1732,661,1,0,0,5,27.811697
-623,1304,2,1,0,5,27.811697
-1733,-458,3,1,0,20,25.441029
672,-960,4,0,0,0,840.962891
1300,799,1,1,0,5,27.811697
-130,1443,2,1,0,17,126.913826
-1762,-1062,3,1,0,20,25.441029
1199,-91,4,1,0,20,25.441029
1564,1286,1,1,0,5,27.811697
-1841,307,2,1,0,5,27.811697
-134,-1085,3,0,0,0,860.937439
1141,-698,4,0,0,0,802.921509
1447,1806,1,0,0,5,27.811697
-8,783,2,0,0,0,957.048340
-8,-1830,3,0,0,20,25.441029
638,-865,4,0,0,0,865.825195
499,1534,1,1,0,17,126.913826
-726,1355,2,1,0,5,27.811697
-479,-397,3,0,0,0,1023.350952
1387,-263,4,0,0,0,787.416931
1379,1693,1,1,0,17,126.913826
-411,1591,2,0,0,0,743.817993
-1993,-72,3,0,0,5,27.811697
1293,-783,4,0,0,0,767.781311
1312,740,1,1,0,5,27.811697
-108,352,2,0,0,0,1174.623413
-1577,-386,3,0,0,0,747.273926
1221,-488,4,0,0,0,807.832703
831,1176,1,1,0,17,126.913826
-615,1448,2,0,0,0,756.316589
-1879,-603,3,1,0,20,25.441029
1923,-472,4,0,0,20,25.441029
1225,1361,1,1,0,17,126.913826
-977,419,2,0,0,0,868.996338
-187,-149,3,0,0,0,1299.167969
1494,-351,4,0,0,0,763.431091
1012,709,1,1,0,5,27.811697
-987,1651,2,1,0,5,27.811697
-1796,-1849,3,1,0,20,25.441029
1464,-409,4,0,0,0,766.179321
246,1120,1,0,0,0,847.200317
-533,1959,2,0,0,5,27.811697
-60,-584,3,1,0,20,25.441029
139,-638,4,1,0,20,25.441029
82,555,1,0,0,0,1053.160645
-1448,1493,2,0,0,5,27.811697
-1804,-1327,3,1,0,20,25.441029
276,-437,4,1,0,20,25.441029
430,1287,1,0,0,0,798.789795
-724,1254,2,1,0,5,27.811697
-594,-6,3,0,0,0,1036.678101
1405,-487,4,0,0,0,772.491333
492,1995,1,0,0,5,27.811697
-241,776,2,0,0,0,946.384827
-1599,-70,3,1,0,5,27.811697
89,-762,4,1,0,20,25.441029
1612,1017,1,1,0,5,27.811697
-789,172,2,0,0,0,948.174683
-1063,-533,3,1,0,20,25.441029
182,-272,4,1,0,20,25.441029
920,642,1,0,0,0,853.502014
-891,1862,2,0,0,5,27.811697
-1905,-1279,3,0,0,20,25.441029
712,-738,4,1,0,20,25.441029
1852,540,1,0,0,5,27.811697
-1306,1937,2,0,0,5,27.811697
-376,-767,3,1,0,20,25.441029
20,-280,4,0,0,0,1252.880981
1820,390,1,0,0,5,27.811697
-1100,659,2,0,0,0,815.053223
-1607,-142,3,0,0,0,749.098572
758,-677,4,1,0,20,25.441029
1898,1124,1,1,0,5,27.811697
-427,1878,2,0,0,5,27.811697
-214,-1783,3,0,0,20,25.441029
591,-1864,4,1,0,20,25.441029
1993,1939,1,1,0,5,27.811697
-361,1396,2,1,0,17,126.913826
-1880,-1831,3,0,0,20,25.441029
1893,-1079,4,1,0,20,25.441029
564,1015,1,1,0,5,27.811697
-1578,1886,2,0,0,5,27.811697
-1258,-1116,3,0,0,0,737.184753
287,-1927,4,0,0,20,25.441029
1944,733,1,0,0,5,27.811697
-469,923,2,0,0,0,876.606506
-10,-959,3,1,0,20,25.441029
1529,-1627,4,1,0,20,25.441029
1471,1632,1,0,0,5,27.811697
-1638,209,2,0,0,0,742.416016
-333,-24,3,0,0,0,1202.858643
1476,-601,4,0,0,0,752.605103
197,1185,1,1,0,17,126.913826
-173,408,2,0,0,0,1121.169556
-1234,-393,3,0,0,0,812.203308
874,-1510,4,0,0,0,726.634766
297,722,1,1,0,5,27.811697
-2000,1381,2,1,0,5,27.811697
-151,-1975,3,0,0,20,25.441029
1994,-1147,4,1,0,20,25.441029
174,1724,1,0,0,0,728.603638
-54,1395,2,0,0,0,790.624146
-1251,-1770,3,0,0,20,25.441029
1590,-1558,4,1,0,20,25.441029
460,1609,1,0,0,0,738.588196
-1854,983,2,1,0,5,27.811697
-593,-519,3,1,0,20,25.441029
324,-910,4,1,0,20,25.441029
1654,1998,1,0,0,5,27.811697
-1951,353,2,0,0,5,27.811697
-166,-558,3,0,0,0,1042.493896
1245,-640,4,1,0,20,25.441029
824,1842,1,1,0,5,27.811697
-473,1005,2,0,0,0,856.366638
-1003,-1414,3,1,0,20,25.441029
1392,-833,4,1,0,20,25.441029
282,1794,1,0,0,17,126.913826
-548,1091,2,1,0,5,27.811697
-744,-1420,3,0,0,0,750.911255
1217,-550,4,1,0,20,25.441029
940,1903,1,1,0,5,27.811697
-357,972,2,0,0,0,876.560486
-665,-1162,3,0,0,0,802.649841
189,-1496,4,0,0,0,768.486755
544,335,1,0,0,0,1015.695679
-807,61,2,1,0,5,27.811697
-512,-495,3,0,0,0,984.393677
1220,-304,4,1,0,20,25.441029
1216,1931,1,0,0,5,27.811697
-1461,1269,2,1,0,5,27.811697
-716,-1579,3,0,0,0,728.439209
1563,-244,4,0,0,0,754.726379
1238,1777,1,1,0,17,126.913826
-567,4,2,0,0,0,1050.098633
-1193,-761,3,1,0,20,25.441029
713,-160,4,0,0,0,976.973083
655,1526,1,1,0,17,126.913826
-1214,72,2,1,0,5,27.811697
-940,-1844,3,0,0,20,25.441029
1709,-1850,4,0,0,20,25.441029
1004,7,1,0,0,0,885.443542
-226,12,2,1,0,5,27.811697
-71,-1648,3,1,0,20,25.441029
35,-410,4,1,0,20,25.441029
1864,1875,1,1,0,5,27.811697
-1520,1864,2,1,0,5,27.811697
-130,-969,3,1,0,20,25.441029
1992,-1596,4,1,0,20,25.441029
853,852,1,1,0,5,27.811697
-247,687,2,0,0,0,977.240662
-12,-1454,3,1,0,20,25.441029
1481,-928,4,0,0,0,726.138000
356,553,1,1,0,5,27.811697
-529,211,2,0,0,0,1048.823120
-280,-140,3,1,0,20,25.441029
1447,-1918,4,0,0,20,25.441029
18,1516,1,0,0,0,766.926575
-459,289,2,1,0,5,27.811697
-1943,-701,3,0,0,20,25.441029
998,-1190,4,1,0,20,25.441029
1590,368,1,1,0,5,27.811697
-814,439,2,0,0,0,909.102112
-565,-404,3,0,0,0,991.597534
344,-1775,4,1,0,20,25.441029
456,62,1,1,0,20,25.441029
-1815,1119,2,1,0,5,27.811697
-534,-507,3,0,0,0,974.767334
1739,-997,4,1,0,20,25.441029
1194,1576,1,1,0,5,27.811697
-866,1701,2,0,0,5,27.811697
-1500,-1959,3,0,0,20,25.441029
655,-1358,4,1,0,20,25.441029
1568,461,1,1,0,5,27.811697
-223,699,2,0,0,0,975.800720
-1089,-93,3,0,0,0,861.011047
325,-939,4,1,0,20,25.441029
1770,624,1,1,0,5,27.811697
-1075,1651,2,1,0,5,27.811697
-540,-1690,3,0,0,20,25.441029
1125,-862,4,0,0,0,786.287415
1354,341,1,0,0,0,790.575684
-328,607,2,1,0,5,27.811697
-291,-1620,3,1,0,20,25.441029
1242,-1475,4,0,0,20,25.441029
878,608,1,1,0,5,27.811697
-526,145,2,1,0,5,27.811697
-659,-245,3,1,0,20,25.441029
601,-669,4,1,0,20,25.441029
55,621,1,0,0,0,1022.750549
-1909,816,2,0,0,5,27.811697
-666,-1494,3,0,0,0,745.131348
1833,-142,4,1,0,20,25.441029
55,808,1,1,0,17,126.913826
-1379,468,2,0,0,0,778.494324
-602,-555,3,1,0,20,25.441029
166,-546,4,1,0,20,25.441029
1067,602,1,1,0,5,27.811697
-139,553,2,0,0,0,1048.482300
-502,-827,3,0,0,0,896.132507
620,-950,4,1,0,20,25.441029
1104,1279,1,1,0,17,126.913826
-23,177,2,1,0,5,27.811697
-164,-277,3,0,0,0,1213.378174
1662,-153,4,1,0,20,25.441029
1301,1951,1,1,0,17,126.913826
-336,7,2,1,0,5,27.811697
-1198,-805,3,1,0,20,25.441029
546,-1495,4,0,0,0,752.980469
1200,1571,1,0,0,5,27.811697
-949,1324,2,0,0,0,746.316528
-597,-1937,3,0,0,20,25.441029
1389,-1864,4,0,0,20,25.441029
212,401,1,0,0,0,1114.461304
-775,658,2,1,0,5,27.811697
-1387,-389,3,1,0,12,145.462128
1695,-1474,4,0,0,20,25.441029
443,97,1,0,0,0,1114.522095
-200,1495,2,0,0,0,768.405518
-1139,-202,3,1,0,12,180.292664
212,-492,4,1,0,20,25.441029
1602,382,1,0,0,0,743.175232
-323,936,2,0,0,0,889.445984
-1090,-161,3,1,0,12,151.639328
1980,-867,4,0,0,20,25.441029
179,40,1,1,0,20,25.441029
-910,240,2,0,0,0,904.075623
-286,-569,3,1,0,20,25.441029
1027,-617,4,1,0,20,25.441029
1521,502,1,0,0,0,751.162292
-864,1877,2,1,0,5,27.811697
-452,-842,3,0,0,0,899.662048
604,-1510,4,0,0,0,746.785522
1398,1173,1,0,0,5,27.811697
-870,1556,2,0,0,5,27.811697
-958,-1661,3,0,0,20,25.441029
1503,-936,4,0,0,20,25.441029
185,1162,1,1,0,17,126.913826
-1590,740,2,1,0,5,27.811697
-478,-1869,3,0,0,20,25.441029
1008,-1387,4,1,0,20,25.441029
1188,1575,1,0,0,5,27.811697
-518,1274,2,1,0,5,27.811697
-370,-111,3,0,0,0,1160.784424
1380,-1257,4,1,0,20,25.441029
1754,647,1,1,0,5,27.811697
-1616,1274,2,1,0,5,27.811697
-212,-1233,3,0,0,0,822.136902
1612,-1046,4,0,0,20,25.441029
1972,798,1,1,0,5,27.811697
-398,1611,2,1,0,17,126.913826
-1790,-1862,3,0,0,20,25.441029
871,-1830,4,1,0,20,25.441029
760,645,1,1,0,17,126.913826
-995,722,2,0,0,0,827.178162
-1918,-1000,3,1,0,20,25.441029
1515,-1077,4,1,0,20,25.441029
1273,628,1,1,0,5,27.811697
-1588,1101,2,0,0,5,27.811697
-1223,-1504,3,0,0,20,25.441029
137,-1113,4,1,0,20,25.441029
457,1016,1,1,0,17,126.913826
-637,660,2,0,0,0,911.469788
-392,-1714,3,0,0,0,724.416260
914,-1406,4,1,0,20,25.441029
562,172,1,1,0,5,27.811697
-934,1145,2,0,0,0,774.309082
-1858,-1329,3,1,0,20,25.441029
1553,-382,4,0,0,0,751.594360
701,1362,1,1,0,5,27.811697
-509,1358,2,1,0,5,27.811697
-338,-1524,3,0,0,0,758.543518
1908,-566,4,0,0,20,25.441029
1940,1581,1,1,0,5,27.811697
-63,297,2,0,0,0,1230.262329
-1912,-1286,3,1,0,20,25.441029
1463,-1788,4,0,0,20,25.441029
810,718,1,0,0,0,863.801941
-1201,573,2,1,0,5,27.811697
-305,-962,3,1,0,20,25.441029
525,-364,4,0,0,0,1015.709900
381,1892,1,0,0,17,126.913826
-675,959,2,0,0,0,840.740784
-715,-812,3,1,0,20,25.441029
541,-1240,4,1,0,20,25.441029
667,1540,1,1,0,5,27.811697
-1490,560,2,1,0,5,27.811697
-1705,-145,3,0,0,0,732.200928
1198,-906,4,1,0,20,25.441029
1247,850,1,1,0,5,27.811697
-244,592,2,1,0,5,27.811697
-155,-1328,3,1,0,20,25.441029
212,-1454,4,1,0,20,25.441029
1231,289,1,0,0,0,819.078613
-1470,1661,2,0,0,5,27.811697
-1076,-617,3,1,0,20,25.441029
471,-359,4,1,0,20,25.441029
1655,18,1,0,0,0,741.753357
-1497,180,2,1,0,5,27.811697
-872,-133,3,1,0,20,25.441029
581,-636,4,0,0,0,929.559998
1190,73,1,0,0,0,835.996094
-1853,1969,2,1,0,5,27.811697
-723,-702,3,0,0,0,884.381165
856,-460,4,1,0,20,25.441029
1679,1094,1,0,0,5,27.811697
-1306,541,2,0,0,0,787.029846
-12,-1433,3,0,0,0,783.107666
1241,-660,4,1,0,20,25.441029
1016,1123,1,1,0,5,27.811697
-1490,632,2,0,0,0,748.169373
-370,-1153,3,0,0,0,831.525024
184,-619,4,0,0,0,1012.601868
473,841,1,0,0,0,896.891846
-1138,41,2,0,0,0,849.204529
-1402,-937,3,0,0,0,736.398254
1207,-1460,4,0,0,20,25.441029
843,50,1,0,0,0,935.283630
-515,634,2,0,0,0,944.882019
-169,-364,3,1,0,20,25.441029
1772,-65,4,1,0,20,25.441029
388,1265,1,0,0,0,806.033142
-1155,776,2,1,0,5,27.811697
-1615,-32,3,0,0,0,748.733154
597,-733,4,0,0,0,902.781250
1221,834,1,0,0,0,774.110779
-656,1384,2,1,0,5,27.811697
-145,-1125,3,0,0,0,850.326721
912,-1178,4,0,0,0,771.957581
694,693,1,0,0,0,892.194458
-705,1428,2,1,0,5,27.811697
-220,-756,3,0,0,0,955.463318
1402,-300,4,1,0,20,25.441029
226,1011,1,1,0,17,126.913826
-592,1237,2,0,0,0,795.750244
-625,-1054,3,1,0,20,25.441029
818,-1157,4,1,0,20,25.441029
824,340,1,1,0,5,27.811697
-1221,978,2,0,0,0,757.926270
-583,-1742,3,0,0,20,25.441029
702,-1260,4,1,0,20,25.441029
455,26,1,1,0,20,25.441029
-702,788,2,0,0,0,871.092834
-226,-1850,3,1,0,20,25.441029
1131,-1190,4,0,0,0,744.080566
1552,694,1,1,0,5,27.811697
-1957,1594,2,0,0,5,27.811697
-1048,-790,3,0,0,0,808.380859
8,-1748,4,1,0,20,25.441029
1827,1161,1,0,0,5,27.811697
-1934,684,2,1,0,5,27.811697
-1241,-1683,3,1,0,20,25.441029
1980,-1412,4,0,0,20,25.441029
14,1640,1,0,0,0,744.371887
-1088,1118,2,0,0,0,758.729309
-1346,-1837,3,0,0,20,25.441029
719,-1033,4,0,0,0,820.418518
1544,460,1,0,0,0,749.489258
-518,1323,2,1,0,5,27.811697
-1655,-291,3,0,0,0,737.403625
495,-677,4,1,0,20,25.441029
1282,83,1,1,0,20,25.441029
-1616,1449,2,1,0,5,27.811697
-1957,-1466,3,0,0,20,25.441029
654,-1455,4,1,0,20,25.441029
1521,1246,1,0,0,17,126.913826
-435,187,2,0,0,0,1102.078003
-1154,-1733,3,0,0,20,25.441029
806,-232,4,0,0,0,937.254211
412,1300,1,1,0,5,27.811697
-1992,640,2,1,0,5,27.811697
-803,-1652,3,1,0,20,25.441029
155,-985,4,0,0,0,887.430115
319,622,1,0,0,0,989.755859
-1119,31,2,0,0,0,854.125610
-790,-1164,3,1,0,20,25.441029
764,-1138,4,0,0,0,795.894836
568,1738,1,0,0,5,27.811697
-372,684,2,1,0,5,27.811697
-1439,-1463,3,0,0,20,25.441029
1404,-140,4,1,0,20,25.441029
988,70,1,0,0,0,889.355225
-1714,1408,2,1,0,5,27.811697
-1814,-1046,3,0,0,20,25.441029
650,-1551,4,0,0,0,737.180725
1852,1894,1,1,0,5,27.811697
-637,1461,2,0,0,0,752.576111
-1439,-1490,3,1,0,20,25.441029
644,-335,4,1,0,20,25.441029
303,1696,1,1,0,5,27.811697
-1343,317,2,0,0,0,793.965393
-1386,-1142,3,1,0,20,25.441029
1851,-1727,4,0,0,20,25.441029
1842,448,1,1,0,5,27.811697
-1205,1612,2,0,0,5,27.811697
-23,-360,3,1,0,20,25.441029
1972,-413,4,0,0,20,25.441029
1421,1679,1,1,0,17,126.913826
-1993,404,2,1,0,5,27.811697
-1382,-914,3,0,0,0,741.441162
1855,-265,4,0,0,20,25.441029
1297,1628,1,0,0,5,27.811697
-104,1238,2,0,0,0,824.151123
-537,-638,3,1,0,20,25.441029
654,-1129,4,0,0,0,810.063660
1971,112,1,0,0,20,25.441029
-901,754,2,0,0,0,840.217407
-1694,-1712,3,1,0,20,25.441029
1046,-473,4,0,0,0,846.880127
1795,1149,1,1,0,5,27.811697
-1901,338,2,0,0,5,27.811697
-1722,-1621,3,1,0,20,25.441029
494,-208,4,0,0,0,1066.316528
197,403,1,1,0,5,27.811697
-667,409,2,1,0,5,27.811697
-1514,-1996,3,1,0,20,25.441029
1350,-1073,4,1,0,20,25.441029
3,1313,1,0,0,0,808.249573
-1051,1514,2,0,0,5,27.811697
-1771,-1552,3,0,0,20,25.441029
1028,-1373,4,1,0,20,25.441029
185,744,1,0,0,0,963.142334
-211,969,2,1,0,5,27.811697
-55,-1720,3,0,0,0,730.575989
843,-227,4,1,0,20,25.441029
426,131,1,1,0,5,27.811697
-1794,606,2,0,0,5,27.811697
-384,-1491,3,1,0,20,25.441029
744,-144,4,0,0,0,966.487671
1477,893,1,1,0,5,27.811697
-217,1074,2,0,0,0,860.290588
-668,-1755,3,1,0,20,25.441029
436,-874,4,1,0,20,25.441029
181,299,1,1,0,5,27.811697
-1045,681,2,1,0,5,27.811697
-194,-1230,3,0,0,0,823.493347
1985,-171,4,0,0,20,25.441029
176,1181,1,1,0,17,126.913826
-1427,1639,2,1,0,5,27.811697
-1645,-117,3,0,0,0,742.785156
696,-1038,4,0,0,0,822.447083
1984,780,1,1,0,5,27.811697
-1917,529,2,0,0,5,27.811697
-895,-204,3,1,0,20,25.441029
344,-763,4,0,0,0,937.860535
1108,46,1,1,0,20,25.441029
-1532,1819,2,0,0,5,27.811697
-1589,-1528,3,1,0,20,25.441029
864,-1307,4,0,0,0,757.491638
1325,922,1,1,0,5,27.811697
-911,1491,2,0,0,0,726.210510
-1698,-1271,3,1,0,20,25.441029
652,-1919,4,1,0,20,25.441029
1568,73,1,0,0,0,756.954407
-773,544,2,0,0,0,902.818665
-341,-584,3,0,0,0,999.299255
1866,-1054,4,0,0,20,25.441029
758,409,1,0,0,0,929.601257
-344,90,2,0,0,0,1184.681763
-1544,-684,3,0,0,0,735.984375
1760,-667,4,0,0,20,25.441029
544,1256,1,1,0,17,126.913826
-1310,1219,2,0,0,5,27.811697
-137,-1168,3,0,0,0,839.938965
484,-1318,4,1,0,20,25.441029
1380,1909,1,1,0,5,27.811697
-1519,468,2,1,0,5,27.811697
-538,-836,3,1,0,20,25.441029
1734,-993,4,1,0,20,25.441029
34,1582,1,0,0,0,754.647705
-29,197,2,1,0,5,27.811697
-1037,-1505,3,0,0,20,25.441029
1910,-292,4,0,0,20,25.441029
198,1203,1,1,0,17,126.913826
-982,1005,2,0,0,0,788.763062
-630,-1657,3,0,0,20,25.441029
332,-722,4,0,0,0,952.798706
1312,597,1,1,0,5,27.811697
-1068,1340,2,0,0,0,731.801208
-399,-1650,3,0,0,0,734.488403
1608,-453,4,0,0,0,739.080933
1816,711,1,0,0,5,27.811697
-1549,819,2,1,0,5,27.811697
-340,-1590,3,0,0,0,746.851562
486,-576,4,0,0,0,968.077087
1398,1063,1,1,0,5,27.811697
-388,9,2,0,0,0,1159.433716
-790,-936,3,1,0,20,25.441029
1003,-1395,4,1,0,20,25.441029
618,1322,1,0,0,0,777.890137
-637,1433,2,0,0,0,757.228210
-862,-1318,3,0,0,0,756.013062
1152,-1516,4,0,0,20,25.441029
138,726,1,1,0,17,126.913826
-1111,84,2,0,0,0,855.480408
-294,-1680,3,0,0,0,733.144653
1725,-465,4,0,0,20,25.441029
1332,275,1,1,0,5,27.811697
-957,1452,2,0,0,0,727.571472
-1176,-705,3,1,0,20,25.441029
893,-1659,4,0,0,20,25.441029
1450,1138,1,0,0,5,27.811697
-1344,922,2,0,0,0,746.162781
-712,-1414,3,0,0,0,754.506775
1562,-820,4,1,0,20,25.441029
1051,1362,1,1,0,17,126.913826
-1331,870,2,1,0,5,27.811697
-1482,-882,3,0,0,0,729.956726
1726,-785,4,1,0,20,25.441029
723,1517,1,0,0,0,737.388062
-427,1890,2,0,0,5,27.811697
-339,-1891,3,1,0,20,25.441029
1648,-118,4,1,0,20,25.441029
978,1507,1,1,0,17,126.913826
-714,1065,2,0,0,0,815.075989
-1417,-747,3,0,0,0,751.136841
288,-1897,4,0,0,20,25.441029
603,1263,1,1,0,5,27.811697
-124,659,2,0,0,0,1001.740051
-1113,-589,3,1,0,20,25.441029
1415,-226,4,1,0,20,25.441029
1071,664,1,1,0,17,126.913826
-677,1327,2,0,0,0,771.968689
-59,-1790,3,1,0,20,25.441029
310,-1867,4,0,0,20,25.441029
556,459,1,0,0,0,980.843811
-387,1322,2,0,0,0,794.470703
-530,-237,3,0,0,0,1043.283203
817,-270,4,1,0,20,25.441029
96,647,1,0,0,0,1008.913574
-247,831,2,0,0,0,927.725220
-809,-1810,3,1,0,20,25.441029
852,-1388,4,1,0,20,25.441029
1433,143,1,0,0,0,781.694336
-1784,1238,2,1,0,5,27.811697
-268,-414,3,1,0,20,25.441029
1453,-921,4,0,0,0,730.671692
1915,1105,1,1,0,5,27.811697
-1613,1250,2,1,0,5,27.811697
-557,-838,3,1,0,20,25.441029
1726,-388,4,1,0,20,25.441029
1127,567,1,0,0,0,819.733276
-1961,1397,2,0,0,5,27.811697
-1875,-799,3,0,0,20,25.441029
1927,-724,4,1,0,20,25.441029
1638,222,1,0,0,0,742.121460
-221,1333,2,1,0,17,126.913826
-865,-386,3,1,0,20,25.441029
1086,-1980,4,0,0,20,25.441029
1749,932,1,0,0,5,27.811697
-841,861,2,0,0,0,833.272400
-234,-1998,3,1,0,20,25.441029
868,-940,4,1,0,20,25.441029
349,735,1,1,0,5,27.811697
-184,1553,2,1,0,17,126.913826
-1782,-1912,3,1,0,20,25.441029
29,-651,4,0,0,0,1009.989990
1401,530,1,1,0,5,27.811697
-127,578,2,1,0,5,27.811697
-679,-1870,3,1,0,20,25.441029
1532,-1851,4,0,0,20,25.441029
54,50,1,1,0,0,893.058411
-757,1370,2,1,0,5,27.811697
-364,-1069,3,1,0,20,25.441029
1518,-538,4,0,0,0,749.587036
1515,1897,1,1,0,5,27.811697
-246,729,2,1,0,5,27.811697
-1654,-854,3,1,0,20,25.441029
107,-1637,4,0,0,0,744.296021
1399,1453,1,0,0,5,27.811697
-1454,1949,2,1,0,5,27.811697
-733,-1921,3,0,0,20,25.441029
1730,-123,4,0,0,0,728.337708
1304,371,1,0,0,0,799.040710
-1268,567,2,0,0,0,792.078430
-1068,-576,3,0,0,0,830.929016
1858,-1531,4,0,0,20,25.441029
831,576,1,0,0,0,883.419678
-728,711,2,0,0,0,881.577393
-256,-455,3,0,0,0,1073.909912
1914,-1285,4,1,0,20,25.441029
291,732,1,0,0,0,955.330994
-409,1912,2,0,0,5,27.811697
-947,-1660,3,1,0,20,25.441029
1024,-1330,4,0,0,0,737.720581
828,202,1,0,0,0,932.634216
-1889,1932,2,1,0,5,27.811697
-1907,-281,3,1,0,20,25.441029
400,-790,4,1,0,20,25.441029
433,106,1,0,0,0,1119.467407
-1204,1495,2,1,0,5,27.811697
-348,-1766,3,0,0,20,25.441029
1490,-1874,4,0,0,20,25.441029
1330,267,1,0,0,0,798.874084
-201,39,2,1,0,5,27.811697
-1640,-1796,3,0,0,20,25.441029
712,-1983,4,0,0,20,25.441029
168,1070,1,1,0,17,126.913826
-86,1575,2,0,0,0,755.559509
-1876,-1492,3,0,0,20,25.441029
1928,-1459,4,0,0,20,25.441029
62,424,1,1,0,17,126.913826
-1102,712,2,0,0,0,808.468994
-1686,-184,3,0,0,0,734.749878
574,-1737,4,1,0,20,25.441029
301,409,1,0,0,0,1081.892090
-20,180,2,0,0,0,1379.316528
-1650,-287,3,1,0,20,25.441029
679,-852,4,1,0,20,25.441029
115,945,1,0,0,0,900.772766
-394,529,2,1,0,5,27.811697
-678,-1868,3,1,0,20,25.441029
320,-1724,4,1,0,20,25.441029
1572,392,1,1,0,5,27.811697
-466,436,2,1,0,5,27.811697
-950,-1811,3,0,0,20,25.441029
63,-941,4,0,0,0,903.467224
1484,1843,1,0,0,5,27.811697
-944,1730,2,0,0,5,27.811697
-847,-1748,3,1,0,20,25.441029
870,-1824,4,0,0,20,25.441029
1360,837,1,0,0,0,752.019043
-565,503,2,0,0,0,967.000000
-1741,-1962,3,1,0,20,25.441029
1421,-1701,4,0,0,20,25.441029
1631,1031,1,0,0,5,27.811697
-1120,1677,2,0,0,5,27.811697
-862,-1351,3,0,0,0,751.005798
1384,-1949,4,0,0,20,25.441029
1829,1187,1,0,0,5,27.811697
-965,488,2,1,0,5,27.811697
-55,-1743,3,1,0,20,25.441029
1678,-1017,4,0,0,20,25.441029
549,1766,1,0,0,5,27.811697
-1205,1714,2,0,0,5,27.811697
-313,-901,3,1,0,20,25.441029
1943,-432,4,1,0,20,25.441029
114,1751,1,1,0,17,126.913826
-1914,106,2,0,0,5,27.811697
-393,-1770,3,0,0,20,25.441029
978,-1762,4,0,0,20,25.441029
1115,270,1,1,0,5,27.811697
-127,397,2,0,0,0,1138.845825
-786,-1141,3,0,0,0,792.797729
579,-1544,4,0,0,0,742.813660
1811,994,1,0,0,5,27.811697
-61,297,2,1,0,5,27.811697
-1446,-34,3,1,0,5,27.811697
846,-1189,4,0,0,0,777.901489
1310,1932,1,0,0,5,27.811697
-210,552,2,1,0,5,27.811697
-793,-1196,3,0,0,0,782.714233
309,-945,4,1,0,20,25.441029
1836,1763,1,0,0,5,27.811697
-1809,1042,2,1,0,5,27.811697
-1583,-860,3,0,0,20,25.441029
1896,-1669,4,1,0,20,25.441029
443,857,1,1,0,17,126.913826
-1344,300,2,1,0,5,27.811697
-547,-1742,3,0,0,20,25.441029
1820,-1850,4,0,0,20,25.441029
1579,809,1,1,0,17,126.913826
-1851,1765,2,0,0,5,27.811697
-1310,-1014,3,1,0,20,25.441029
1707,-1060,4,1,0,20,25.441029
1748,542,1,0,0,5,27.811697
-655,597,2,0,0,0,921.377319
-968,-583,3,0,0,0,851.419617
1052,-76,4,0,0,0,871.256714
57,925,1,0,0,0,908.504333
-1499,389,2,0,0,0,760.829102
-1637,-1749,3,1,0,20,25.441029
1928,-94,4,0,0,20,25.441029
1526,270,1,1,0,5,27.811697
-406,969,2,0,0,0,872.384583
-1631,-1410,3,0,0,20,25.441029
1790,-1565,4,1,0,20,25.441029
40,0,1,0,0,0,1815.062012
-746,311,2,0,0,0,947.924866
-1291,-1213,3,1,0,20,25.441029
208,-1333,4,0,0,0,800.447388
134,1523,1,1,0,17,126.913826
-7,1886,2,0,0,5,27.811697
-295,-1597,3,0,0,0,747.191772
837,-1065,4,0,0,0,799.295959
1634,1331,1,1,0,5,27.811697
-1253,1859,2,1,0,5,27.811697
-803,-1490,3,0,0,0,735.326477
910,-1692,4,0,0,20,25.441029
770,1742,1,0,0,17,126.913826
-229,1436,2,1,0,17,126.913826
-1344,-30,3,1,0,5,27.811697
271,-1071,4,0,0,0,857.922974
519,627,1,0,0,0,945.898376
-38,861,2,0,0,0,929.422546
-1446,-173,3,1,0,12,136.374512
397,-1567,4,1,0,20,25.441029
1485,593,1,0,0,0,751.642517
-1193,1055,2,0,0,0,752.803223
-1097,-935,3,1,0,20,25.441029
1355,-32,4,0,0,0,799.119446
370,1553,1,1,0,17,126.913826
-858,454,2,1,0,5,27.811697
-656,-357,3,0,0,0,970.685181
746,-1609,4,0,0,20,25.441029
1666,1871,1,1,0,5,27.811697
-668,1802,2,1,0,5,27.811697
-697,-1217,3,0,0,0,789.306458
669,-1804,4,1,0,20,25.441029
772,635,1,1,0,17,126.913826
-1764,1630,2,0,0,5,27.811697
-145,-1378,3,0,0,0,792.780334
445,-1868,4,0,0,20,25.441029
539,1297,1,1,0,17,126.913826
-1866,833,2,0,0,5,27.811697
-1902,-1863,3,0,0,20,25.441029
774,-360,4,0,0,0,932.181030
70,1428,1,1,0,17,126.913826
-1139,1236,2,1,0,5,27.811697
-1113,-1624,3,1,0,20,25.441029
939,-291,4,0,0,0,891.519897
1735,1389,1,0,0,5,27.811697
-925,1675,2,0,0,5,27.811697
-1312,-291,3,1,0,12,198.115234
862,-383,4,1,0,20,25.441029
472,9,1,1,0,20,25.441029
-138,928,2,1,0,17,126.913826
-1732,-1247,3,0,0,20,25.441029
1122,-437,4,1,0,20,25.441029
439,1810,1,1,0,5,27.811697
-1775,871,2,0,0,5,27.811697
-1546,-275,3,1,0,12,126.416672
1851,-451,4,1,0,20,25.441029
1722,7,1,0,0,0,730.386841
-442,1719,2,1,0,5,27.811697
-689,-944,3,0,0,0,841.732361
1724,-1498,4,1,0,20,25.441029
71,1530,1,1,0,17,126.913826
-233,767,2,1,0,5,27.811697
-1427,-1236,3,1,0,20,25.441029
1520,-433,4,0,0,0,754.991272
1858,440,1,0,0,5,27.811697
-379,390,2,1,0,5,27.811697
-634,-146,3,0,0,0,1010.455872
1803,-1914,4,1,0,20,25.441029
1841,727,1,0,0,5,27.811697
-1094,537,2,0,0,0,829.683777
-1309,-1240,3,1,0,20,25.441029
1618,-1239,4,0,0,20,25.441029
638,1278,1,0,0,0,784.041260
-121,309,2,0,0,0,1204.606934
-1192,-51,3,0,0,0,835.790161
226,-1977,4,1,0,20,25.441029
1874,1424,1,0,0,5,27.811697
-37,666,2,0,0,0,1003.264771
-1113,-1110,3,1,0,20,25.441029
1423,-345,4,0,0,0,776.925903
1632,1880,1,0,0,5,27.811697
-1468,1717,2,0,0,5,27.811697
-549,-1364,3,1,0,20,25.441029
1376,-1116,4,1,0,20,25.441029
149,1739,1,0,0,0,726.524475
-8,390,2,0,0,0,1157.967773
-145,-172,3,1,0,20,25.441029
1153,-786,4,0,0,0,790.752075
168,1977,1,0,0,17,126.913826
-343,450,2,1,0,5,27.811697
-715,-1315,3,1,0,20,25.441029
7,-948,4,1,0,20,25.441029
1685,1822,1,0,0,5,27.811697
-339,1539,2,1,0,17,126.913826
-602,-1120,3,0,0,0,817.476013
1877,-1681,4,1,0,20,25.441029
135,937,1,0,0,0,902.379517
-1671,1991,2,0,0,5,27.811697
-1160,-1031,3,0,0,0,760.217651
1975,-1933,4,0,0,20,25.441029
1931,689,1,1,0,5,27.811697
-1081,1743,2,0,0,5,27.811697
-1788,-1186,3,1,0,20,25.441029
1392,-1641,4,1,0,20,25.441029
1671,474,1,1,0,5,27.811697
-1785,216,2,0,0,5,27.811697
-999,-1545,3,1,0,20,25.441029
385,-950,4,0,0,0,879.477051
890,1560,1,0,0,17,126.913826
-1605,453,2,1,0,5,27.811697
-1872,-1104,3,0,0,20,25.441029
78,-652,4,1,0,20,25.441029
1906,1173,1,1,0,5,27.811697
-427,768,2,0,0,0,923.833618
-169,-389,3,0,0,0,1133.833862
776,-1717,4,0,0,20,25.441029
1888,180,1,1,0,20,25.441029
-268,310,2,1,0,5,27.811697
-347,-1620,3,0,0,0,741.467896
759,-999,4,0,0,0,821.326355
1077,1190,1,0,0,0,750.571533
-252,185,2,0,0,0,1221.827637
-492,-1043,3,0,0,0,845.568726
1381,-1075,4,0,0,0,725.751953
1507,631,1,1,0,5,27.811697
-940,1216,2,0,0,0,763.003906
-1027,-862,3,1,0,20,25.441029
1274,-1799,4,1,0,20,25.441029
1049,778,1,0,0,0,809.782837
-340,1232,2,1,0,17,126.913826
-887,-691,3,0,0,0,852.853455
1500,-841,4,0,0,0,730.776672
1314,1402,1,1,0,5,27.811697
-10,988,2,0,0,0,890.061340
-1724,-36,3,0,0,0,729.993958
577,-271,4,0,0,0,1016.329773
1649,1359,1,0,0,5,27.811697
-1639,1343,2,0,0,5,27.811697
-310,-315,3,0,0,0,1121.955933
1902,-803,4,0,0,20,25.441029
1361,1225,1,1,0,17,126.913826
-704,1941,2,0,0,5,27.811697
-635,-80,3,0,0,0,1015.179626
1118,-1140,4,1,0,20,25.441029
445,1630,1,1,0,17,126.913826
-688,1247,2,0,0,0,784.886597
-1449,-935,3,0,0,0,729.976868
1489,-116,4,1,0,20,25.441029
110,366,1,1,0,5,27.811697
-765,541,2,0,0,0,905.348267
-1623,-1191,3,1,0,20,25.441029
1248,-1461,4,1,0,20,25.441029
1977,867,1,1,0,5,27.811697
-1419,1173,2,1,0,5,27.811697
-747,-1052,3,0,0,0,813.278076
1484,-1647,4,1,0,20,25.441029
1388,1889,1,0,0,5,27.811697
-988,510,2,0,0,0,856.076721
-499,-1829,3,0,0,20,25.441029
392,-1470,4,1,0,20,25.441029
601,350,1,1,0,5,27.811697
-1765,31,2,1,0,5,27.811697
-620,-292,3,0,0,0,995.465637
438,-374,4,0,0,0,1045.589478
290,1961,1,0,0,17,126.913826
-1517,609,2,0,0,0,745.314819
-262,-639,3,1,0,20,25.441029
1336,-1706,4,1,0,20,25.441029
332,817,1,0,0,0,922.800293
-1058,1943,2,0,0,5,27.811697
-1209,-1949,3,0,0,20,25.441029
1711,-1883,4,1,0,20,25.441029
188,1396,1,0,0,0,788.051147
-170,1161,2,1,0,17,126.913826
-1892,-460,3,1,0,20,25.441029
1061,-364,4,0,0,0,853.541687
889,507,1,0,0,0,879.937500
-1075,1110,2,1,0,5,27.811697
-1151,-1509,3,0,0,20,25.441029
781,-480,4,1,0,20,25.441029
26,909,1,0,0,0,913.957947
-5,1063,2,1,0,17,126.913826
-1965,-770,3,0,0,20,25.441029
1711,-536,4,0,0,20,25.441029
1736,1084,1,1,0,5,27.811697
-1224,1231,2,0,0,0,728.075317
-1478,-1191,3,0,0,20,25.441029
1673,-487,4,1,0,20,25.441029
1311,325,1,0,0,0,800.116638
-1774,1663,2,0,0,5,27.811697
-343,-1163,3,0,0,0,831.142273
1602,-843,4,0,0,20,25.441029
875,1035,1,0,0,0,799.135132
-1986,41,2,0,0,5,27.811697
-337,-488,3,1,0,20,25.441029
335,-945,4,1,0,20,25.441029
44,32,1,0,0,0,1726.310059
-1307,1422,2,0,0,5,27.811697
-552,-1748,3,0,0,20,25.441029
628,-1792,4,0,0,20,25.441029
1037,863,1,1,0,5,27.811697
-1224,1551,2,0,0,5,27.811697
-337,-1556,3,1,0,20,25.441029
253,-1151,4,0,0,0,839.335266
558,545,1,0,0,0,958.172119
-1356,474,2,1,0,5,27.811697
-867,-253,3,1,0,20,25.441029
50,-42,4,0,0,0,1673.649536
1244,1223,1,0,0,0,726.668274
-602,622,2,0,0,0,928.163208
-1858,-858,3,0,0,20,25.441029
1875,-323,4,1,0,20,25.441029
1377,1316,1,0,0,5,27.811697
-675,1986,2,1,0,5,27.811697
-884,-880,3,0,0,0,823.000793
6,-240,4,0,0,0,1297.996826
499,1793,1,1,0,17,126.913826
-696,963,2,1,0,5,27.811697
-851,-13,3,0,0,0,933.034790
1297,-853,4,1,0,20,25.441029
62,722,1,0,0,0,979.379089
-1085,1625,2,0,0,5,27.811697
-293,-1632,3,1,0,20,25.441029
5,-585,4,1,0,20,25.441029
846,754,1,1,0,17,126.913826
-542,935,2,0,0,0,864.249146
-575,-532,3,0,0,0,956.931885
921,-325,4,0,0,0,893.399902
1835,1228,1,1,0,5,27.811697
-1754,554,2,1,0,5,27.811697
-1112,-296,3,0,0,0,846.192444
125,-983,4,0,0,0,889.227478
247,1947,1,1,0,17,126.913826
-1339,402,2,1,0,5,27.811697
-809,-760,3,0,0,0,856.562012
1485,-231,4,1,0,20,25.441029
851,1735,1,0,0,17,126.913826
-214,30,2,0,0,0,1328.360596
-799,-974,3,1,0,20,25.441029
674,-1469,4,0,0,0,748.569092
1507,408,1,0,0,0,758.502625
-908,1733,2,0,0,5,27.811697
-55,-1224,3,0,0,0,828.143250
1378,-364,4,0,0,0,784.672363
1166,1267,1,0,0,0,730.410522
-1153,1180,2,0,0,0,742.674805
-1411,-1120,3,0,0,20,25.441029
1628,-1655,4,0,0,20,25.441029
1125,1319,1,1,0,17,126.913826
-1791,577,2,0,0,5,27.811697
-1291,-1020,3,0,0,0,743.452881
1882,-315,4,0,0,20,25.441029
345,1561,1,0,0,0,751.705750
-1950,1777,2,0,0,5,27.811697
-1503,-115,3,1,0,5,27.811697
852,-1744,4,0,0,20,25.441029
986,1168,1,0,0,0,764.582520
-1115,248,2,1,0,5,27.811697
-670,-933,3,1,0,20,25.441029
20,-1853,4,1,0,20,25.441029
1605,202,1,0,0,0,748.317017
-1107,44,2,0,0,0,857.111572
-56,-99,3,1,0,20,25.441029
1271,-379,4,0,0,0,805.352173
31,609,1,1,0,5,27.811697
-1391,1155,2,1,0,5,27.811697
-1669,-1479,3,1,0,20,25.441029
280,-740,4,0,0,0,954.060913
1560,1175,1,0,0,5,27.811697
-1555,1094,2,0,0,5,27.811697
-989,-909,3,1,0,20,25.441029
1553,-584,4,1,0,20,25.441029
784,1769,1,0,0,17,126.913826
-166,156,2,1,0,5,27.811697
-330,-1656,3,1,0,20,25.441029
43,-1511,4,0,0,0,767.779297
1029,356,1,1,0,5,27.811697
-819,380,2,0,0,0,916.027222
-850,-1894,3,1,0,20,25.441029
106,-407,4,0,0,0,1136.256836
1784,1601,1,1,0,5,27.811697
-203,1182,2,0,0,0,834.295654
-1655,-1193,3,1,0,20,25.441029
1652,-327,4,0,0,0,736.779175
794,1575,1,1,0,17,126.913826
-700,1113,2,1,0,5,27.811697
-216,-1617,3,0,0,0,745.897217
13,-962,4,0,0,0,897.728821
426,245,1,1,0,5,27.811697
-821,402,2,0,0,0,912.452881
-575,-836,3,0,0,0,882.411682
1571,-1780,4,0,0,20,25.441029
980,1653,1,0,0,17,126.913826
-662,1632,2,1,0,5,27.811697
-706,-1421,3,0,0,0,753.859192
1257,-816,4,0,0,0,770.255005
656,322,1,1,0,5,27.811697
-947,693,2,1,0,5,27.811697
-1033,-304,3,0,0,0,865.298340
1464,-1761,4,1,0,20,25.441029
231,982,1,1,0,17,126.913826
-1617,1671,2,1,0,5,27.811697
-355,-1904,3,0,0,20,25.441029
749,-167,4,0,0,0,962.865662
200,1362,1,0,0,0,794.653198
-799,542,2,1,0,5,27.811697
-1356,-1050,3,1,0,20,25.441029
63,-1772,4,1,0,20,25.441029
1113,4,1,0,0,0,855.781189
-1627,1870,2,1,0,5,27.811697
-1611,-651,3,0,0,0,727.809937
1852,-92,4,1,0,20,25.441029
1852,547,1,0,0,5,27.811697
-1663,1584,2,0,0,5,27.811697
-1242,-1935,3,1,0,20,25.441029
644,-257,4,1,0,20,25.441029
1815,1432,1,0,0,5,27.811697
-513,190,2,1,0,5,27.811697
-122,-644,3,0,0,0,1008.310181
1735,-1059,4,0,0,20,25.441029
961,651,1,1,0,5,27.811697
-145,561,2,1,0,5,27.811697
-14,-242,3,0,0,0,1295.210938
426,-1236,4,0,0,0,809.489380
886,40,1,1,0,20,25.441029
-776,1704,2,0,0,5,27.811697
-1961,-973,3,0,0,20,25.441029
326,-1027,4,1,0,20,25.441029
261,1667,1,0,0,0,736.225220
-602,312,2,0,0,0,998.541382
-454,-1709,3,1,0,20,25.441029
377,-641,4,1,0,20,25.441029
7,1606,1,0,0,0,750.390320
-1761,432,2,1,0,5,27.811697
-1075,-1102,3,0,0,0,762.532349
944,-1802,4,0,0,20,25.441029
1219,1576,1,1,0,17,126.913826
-1490,567,2,1,0,5,27.811697
-1873,-358,3,1,0,20,25.441029
137,-266,4,1,0,20,25.441029
755,148,1,1,0,5,27.811697
-1516,301,2,1,0,5,27.811697
-1860,-1003,3,0,0,20,25.441029
387,-99,4,0,0,0,1151.113647
128,1081,1,0,0,0,862.175171
-274,1729,2,1,0,5,27.811697
-1857,-1209,3,1,0,20,25.441029
1528,-510,4,1,0,20,25.441029
1364,1605,1,0,0,17,126.913826
-323,1616,2,0,0,0,742.992554
-1315,-501,3,0,0,0,788.336304
1172,-353,4,1,0,20,25.441029
1599,1856,1,0,0,5,27.811697
-171,1533,2,1,0,17,126.913826
-812,-811,3,0,0,0,846.965271
218,-1367,4,0,0,0,793.057190
1715,1612,1,1,0,5,27.811697
-1863,64,2,1,0,5,27.811697
-1570,-1815,3,1,0,20,25.441029
930,1281,1,0,0,0,754.534241
-1813,1498,2,1,0,5,27.811697
-1983,-213,3,0,0,20,25.441029
293,1719,1,1,0,17,126.913826
-1617,478,2,0,0,0,736.418396
-1698,-663,3,1,0,20,25.441029
221,885,1,0,0,0,913.070923
-507,1607,2,0,0,0,736.604065
-257,-1727,3,0,0,0,726.418457
1986,1346,1,1,0,5,27.811697
-1789,1882,2,0,0,5,27.811697
-1061,-1583,3,1,0,20,25.441029
1299,1700,1,1,0,5,27.811697
-1511,468,2,1,0,5,27.811697
-1349,-1985,3,1,0,20,25.441029
1762,1312,1,0,0,5,27.811697
-1753,1908,2,0,0,5,27.811697
-1238,-1407,3,0,0,20,25.441029
1542,674,1,0,0,0,736.981201
-1636,620,2,1,0,5,27.811697
-1088,-1473,3,0,0,20,25.441029
1683,817,1,0,0,5,27.811697
-1002,283,2,1,0,5,27.811697
-370,-965,3,0,0,0,877.112976
1671,1824,1,0,0,5,27.811697
-1991,237,2,0,0,5,27.811697
879,1385,1,1,0,17,126.913826
-74,514,2,0,0,0,1075.446045
1458,1378,1,0,0,17,126.913826
-274,193,2,0,0,0,1201.750122
656,786,1,1,0,5,27.811697
-1697,932,2,0,0,5,27.811697
1360,1082,1,0,0,0,727.752991
-1427,1564,2,0,0,5,27.811697
1548,1645,1,0,0,5,27.811697
-815,1373,2,0,0,0,752.064941
885,414,1,0,0,0,893.285828
-1066,1200,2,0,0,0,750.553345
1,872,1,0,0,0,926.045593
-1087,221,2,0,0,0,856.757141
1733,445,1,1,0,5,27.811697
-885,1742,2,0,0,5,27.811697
924,184,1,0,0,0,903.761963
-1535,116,2,1,0,5,27.811697
1255,118,1,0,0,0,819.974731
757,138,1,0,0,0,962.084290
1715,419,1,0,0,5,27.811697
1819,1508,1,0,0,5,27.811697
926,120,1,0,0,0,906.340881
1714,407,1,0,0,5,27.811697
331,590,1,1,0,5,27.811697
1804,574,1,1,0,17,126.913826
1732,1142,1,1,0,5,27.811697
1685,1297,1,0,0,5,27.811697
790,176,1,1,0,5,27.811697
882,126,1,0,0,0,919.851379
1232,1033,1,0,0,0,750.077515
1260,482,1,1,0,5,27.811697
25,1442,1,0,0,0,781.276001
1853,1875,1,0,0,5,27.811697
624,744,1,1,0,5,27.811697
1241,112,1,0,0,0,823.299805
1990,1772,1,1,0,5,27.811697
323,1691,1,0,0,0,730.460632
378,1598,1,0,0,0,744.015320
1528,1459,1,0,0,5,27.811697
1232,1789,1,0,0,5,27.811697
854,1005,1,1,0,5,27.811697
300,1212,1,0,0,0,822.715820
