each times' max average throughput
547.566162,584.865967,0.000000,545.586670,580.075317,589.819641,0.000000,0.000000,559.599548,0.000000,0.000000,0.000000,0.000000,0.000000,0.000000,583.398621,0.000000,0.000000,0.000000,0.000000,0.000000,557.947266,0.000000,0.000000,0.000000,0.000000,564.339478,0.000000,574.463501,0.000000,0.000000,0.000000,0.000000,0.000000,583.431641,555.050598,0.000000,0.000000,0.000000,558.748413,0.000000,0.000000,0.000000,0.000000,0.000000,0.000000,0.000000,0.000000,561.411377,567.075806,0.000000,571.043152,549.578247,0.000000,0.000000,0.000000,0.000000,0.000000,0.000000,566.983459,0.000000,0.000000,0.000000,0.000000,0.000000,0.000000,0.000000,0.000000,0.000000,558.960266,0.000000,0.000000,0.000000,0.000000,565.308655,565.885376,599.242920,0.000000,0.000000,0.000000,0.000000,0.000000,0.000000,0.000000,586.946838,0.000000,0.000000,0.000000,0.000000,594.466797,529.209229,542.870544,0.000000,0.000000,0.000000,0.000000,0.000000,595.355957,0.000000,597.766235,
avg. throughput in all test times
159.369995
avg. BS TX power in all test times
MBS area 1,MBS area 2,MBS area 3,MBS area 4,MBS area 5,MBS area 6,CBSD 1,CBSD 2,CBSD 3,CBSD 4,CBSD 5,CBSD 6,CBSD 7,CBSD 8,
8.262,6.500,6.363,7.088,6.500,6.500,0.097,0.136,0.075,0.009,0.020,0.015,0.000,0.119,
avg. mbs all power,avg. cbsd enable number,avg. mbs area all power,avg. cbsd all power
45.862,0.000,41.213,0.471
avg. max avg. throughput generation number in all test times
0.230000
avg. number of relay UE
23

the max average throughput times

BS TX power
MBS area 1,MBS area 2,MBS area 3,MBS area 4,MBS area 5,MBS area 6,CBSD 1,CBSD 2,CBSD 3,CBSD 4,CBSD 5,CBSD 6,CBSD 7,CBSD 8,
5.000,10.000,7.500,5.000,5.000,10.000,0.000,0.000,0.000,0.000,0.750,0.000,0.000,0.000,
max average throughput
597.766235

x,y,area,be blocked (1 : NLOS / 0 : LOS),be blocked number (>=1 : CBSD(x) / 0 : no),connect bs number (>=1 : CBSD / 0 : MBS),throughput (unit : M bps)
618,1069,1,0,0,0,726.381226
824,280,2,0,0,0,926.616699
-1240,122,3,0,0,0,781.968628
-1023,1133,4,1,0,5,260.348389
-1537,-1972,5,0,0,0,525.700989
172,-864,6,0,0,0,923.102905
1122,1272,1,0,0,0,635.612488
969,247,2,0,0,0,886.604370
-711,698,3,1,0,5,260.348389
-1264,1970,4,0,0,5,260.348389
-64,-1251,5,1,0,5,260.348389
1602,-567,6,0,0,0,734.180847
358,1408,1,0,0,0,679.825439
440,280,2,0,0,0,1074.206665
-540,58,3,1,0,5,260.348389
-106,1782,4,0,0,5,260.348389
-1406,-1939,5,0,0,0,537.783936
1603,-572,6,1,0,5,260.348389
826,1095,1,0,0,0,696.278687
1683,363,2,0,0,0,730.438965
-1685,1648,3,0,0,5,260.348389
-575,1397,4,0,0,5,260.348389
-841,-1558,5,0,0,0,623.389771
1192,-1112,6,0,0,0,746.109619
1303,1965,1,1,0,5,260.348389
280,52,2,0,0,0,1248.723999
-1742,210,3,0,0,0,683.822693
-162,628,4,0,0,0,911.489258
-767,-1912,5,0,0,0,580.353210
1784,-1026,6,0,0,0,679.349487
779,1772,1,0,0,0,598.026978
476,168,2,0,0,0,1083.625732
-1029,928,3,1,0,5,260.348389
-520,899,4,0,0,5,260.348389
-688,-1100,5,0,0,0,712.196838
1877,-1348,6,0,0,0,646.245544
959,1030,1,0,0,0,688.920410
1206,537,2,0,0,0,806.688354
-1916,98,3,0,0,0,658.303040
-952,1040,4,1,0,5,260.348389
-761,-1044,5,1,0,5,260.348389
1329,-338,6,1,0,5,260.348389
270,1960,1,0,0,0,591.813416
1702,483,2,0,0,0,722.636597
-1381,20,3,0,0,0,752.399902
-333,390,4,0,0,0,979.145874
-1337,-814,5,0,0,0,658.512939
457,-1995,6,1,0,5,260.348389
857,969,1,0,0,0,713.044556
336,24,2,0,0,0,1200.284790
-1597,1441,3,1,0,5,260.348389
-1262,1863,4,1,0,5,260.348389
-376,-35,5,0,0,0,1067.373169
1538,-1099,6,0,0,0,703.669922
1361,1790,1,0,0,0,555.578796
1073,873,2,0,0,0,793.263916
-1547,1289,3,0,0,5,260.348389
-1246,1842,4,0,0,5,260.348389
-547,-25,5,0,0,0,960.252441
1373,-696,6,0,0,0,762.561890
45,1797,1,1,0,5,260.348389
-1691,931,3,0,0,5,260.348389
-147,1658,4,1,0,5,260.348389
-941,-96,5,0,0,0,802.896790
672,-1198,6,0,0,0,795.280701
220,946,1,1,0,5,260.348389
-1440,806,3,1,0,5,260.348389
-411,450,4,1,0,5,260.348389
-239,-512,5,0,0,0,951.205444
1605,-883,6,0,0,0,712.664612
-945,1354,4,0,0,5,260.348389
-1678,-1644,5,1,0,5,260.348389
955,-661,6,0,0,0,843.524536
-1475,-996,5,0,0,0,621.899414
664,-606,6,0,0,0,917.274231
-102,-1227,5,0,0,0,727.206360
1720,-368,6,0,0,0,724.306763
-623,-401,5,0,0,0,873.160828
203,-610,6,0,0,0,1013.889221
-1398,-1585,5,1,0,5,260.348389
80,-678,6,0,0,0,996.568542
-1889,-1154,5,0,0,0,560.016479
646,-876,6,0,0,0,862.205750
-433,-1507,5,1,0,5,260.348389
893,-1332,6,0,0,0,750.814514
-1079,-77,5,0,0,0,764.341919
888,-1847,6,1,0,5,260.348389
-1168,-890,5,0,0,0,676.763245
1163,-1467,6,0,0,0,706.445068
-531,-1408,5,0,0,0,669.772522
1136,-636,6,1,0,5,260.348389
-208,-766,5,1,0,5,260.348389
-567,-1485,5,0,0,0,654.121582
-1457,-1033,5,1,0,5,260.348389
-1598,-1467,5,0,0,0,565.736816
-60,-449,5,0,0,0,1014.906677
-561,-781,5,1,0,5,260.348389
-251,-514,5,0,0,0,947.669983
-180,-62,5,0,0,0,1264.924438
-310,-1367,5,1,0,5,260.348389


each generation good chromosome number
1,1,2,