537.015808,537.015808,537.015808,537.015808,537.015808,537.015808,537.015808,537.015808,537.015808,537.015808,537.015808,537.015808,537.015808,537.015808,537.015808,537.015808,537.015808,537.015808,537.015808,537.015808,537.015808,537.015808,537.015808,537.015808,537.015808,537.015808,537.015808,537.015808,537.015808,537.015808,537.015808,537.015808,537.015808,537.015808,537.015808,537.015808,537.015808,537.015808,537.015808,537.015808,537.015808,537.015808,537.015808,537.015808,537.015808,537.015808,537.015808,537.015808,537.015808,537.015808,537.015808,537.015808,537.015808,537.015808,537.015808,537.015808,537.015808,537.015808,537.015808,537.015808,537.015808,537.015808,537.015808,537.015808,537.015808,537.015808,537.015808,537.015808,537.015808,537.015808,537.015808,537.015808,537.015808,537.015808,537.015808,537.015808,537.015808,537.015808,537.015808,537.015808,537.015808,537.015808,537.015808,537.015808,537.015808,537.015808,537.015808,537.015808,537.015808,537.015808,537.015808,537.015808,537.015808,537.015808,537.015808,537.015808,537.015808,537.015808,537.015808,537.015808,

avg. max avg. throughput in test times
537.015686
avg. BS TX power in all test times
MBS area 1,MBS area 2,MBS area 3,MBS area 4,MBS area 5,MBS area 6,MBS area 7,CBSD 1,CBSD 2,CBSD 3,CBSD 4,CBSD 5,
5.000,5.000,5.000,5.000,5.000,5.000,5.000,1.000,1.000,0.000,0.000,0.000,
avg. mbs all power,avg. cbsd enable number,avg. mbs area all power,avg. cbsd all power
50.000,2.000,35.000,2.000
avg. number of relay UE
137

BS TX power
MBS area 1,MBS area 2,MBS area 3,MBS area 4,MBS area 5,MBS area 6,MBS area 7,CBSD 1,CBSD 2,CBSD 3,CBSD 4,CBSD 5,
5.000,5.000,5.000,5.000,5.000,5.000,5.000,1.000,1.000,0.000,0.000,0.000,
max average power
0.000000

x,y,area,be blocked (1 : NLOS / 0 : LOS),be blocked number (>=1 : CBSD(x) / 0 : no),connect bs number (>=1 : CBSD / 0 : MBS),throughput (unit : M bps)
24,1130,1,0,0,0,751.750366
1394,524,2,0,0,0,672.744629
-1621,874,3,0,0,0,612.183899
-639,1858,4,0,0,0,593.784973
-1089,-1397,5,1,0,1,98.670769
-1103,-297,6,1,0,1,98.670769
1102,-110,7,0,0,0,757.593262
170,360,1,0,0,0,1052.133057
1589,1139,2,0,0,0,595.197937
-1651,122,3,0,0,0,642.525391
-711,1002,4,1,0,1,98.670769
-1172,-1785,5,0,0,0,570.191650
-1548,-1430,6,0,0,0,573.921692
647,-1338,7,0,0,0,673.323059
826,859,1,0,0,2,218.520218
1454,344,2,1,0,2,218.520218
-1374,1320,3,1,0,1,98.670769
-163,1741,4,0,0,0,626.930664
-1263,-1522,5,0,0,0,591.916626
-1787,-1661,6,1,0,1,98.670769
516,-614,7,0,0,0,850.342896
208,1235,1,0,0,0,722.321655
744,182,2,0,0,0,863.593872
-1843,1071,3,0,0,0,570.692810
-169,896,4,0,0,0,813.447266
-99,-509,5,1,0,1,98.670769
-1862,-115,6,0,0,0,608.511475
169,-54,7,0,0,0,1285.265869
446,577,1,0,0,0,877.711975
1907,96,2,0,0,0,601.906189
-1349,1104,3,0,0,0,627.819763
-26,539,4,0,0,0,964.464172
-438,-820,5,1,0,1,98.670769
-1564,-1096,6,0,0,0,601.849792
1272,-834,7,0,0,0,666.706848
706,1904,1,0,0,0,584.431335
1913,422,2,1,0,2,218.520218
-1420,524,3,1,0,1,98.670769
-808,1261,4,1,0,1,98.670769
-406,-850,5,0,0,0,804.084167
-648,-298,6,1,0,1,98.670769
358,-1158,7,0,0,0,731.701965
985,1346,1,1,0,2,218.520218
1587,347,2,0,0,0,647.918701
-904,685,3,0,0,1,98.670769
-8,1796,4,0,0,0,619.315308
-390,-1209,5,1,0,1,98.670769
-1071,-787,6,0,0,0,705.299011
1128,-1171,7,1,0,2,218.520218
4,1389,1,1,0,1,98.670769
1353,384,2,0,0,0,689.102112
-508,86,3,0,0,0,977.798096
-407,1874,4,0,0,0,600.678101
-86,-1999,5,0,0,0,588.627869
-1444,-1310,6,0,0,0,595.980164
463,-34,7,0,0,0,1007.831116
493,1919,1,0,0,0,591.411377
1693,1378,2,0,0,0,563.962341
-1936,1690,3,0,0,0,517.988220
-629,789,4,1,0,1,98.670769
-1442,-1523,5,0,0,0,575.276978
-1986,-703,6,0,0,0,574.010986
307,-1107,7,1,0,1,98.670769
1089,1685,1,0,0,0,587.859497
601,101,2,0,0,0,929.414978
-1649,1459,3,1,0,1,98.670769
-1483,1515,4,0,0,0,572.232727
-290,-738,5,1,0,1,98.670769
-1210,-137,6,0,0,0,730.367432
416,-220,7,0,0,0,1003.918335
427,1302,1,0,0,0,696.565552
931,679,2,0,0,0,746.206909
-1879,691,3,0,0,0,588.460632
-1059,1583,4,0,0,0,602.628601
-515,-743,5,0,0,0,815.906860
-1467,-940,6,0,0,0,627.957092
2,-60,7,1,0,0,881.227661
768,819,1,1,0,2,218.520218
1665,104,2,0,0,0,640.338745
-473,425,3,0,0,0,917.171814
-283,288,4,0,0,0,1048.067871
-282,-830,5,1,0,1,98.670769
-1837,-1196,6,0,0,0,562.784668
1403,-922,7,0,0,0,638.534180
61,1770,1,1,0,1,98.670769
1348,133,2,0,0,0,699.861389
-1871,1574,3,1,0,1,98.670769
-191,647,4,0,0,0,900.149780
-917,-1103,5,1,0,1,98.670769
-1333,-556,6,0,0,0,681.501770
1767,-345,7,0,0,0,618.627380
93,1290,1,1,0,1,98.670769
1719,1625,2,0,0,0,541.288391
-562,107,3,0,0,0,947.627747
-911,1757,4,1,0,1,98.670769
-45,-696,5,0,0,0,890.557800
-859,-149,6,0,0,0,826.337952
428,-1826,7,0,0,0,607.000610
294,1916,1,1,0,1,98.670769
486,337,2,1,0,2,218.520218
-1581,1181,3,0,0,0,592.546753
-134,533,4,0,0,0,959.193970
-475,-623,5,1,0,1,98.670769
-1786,-1540,6,0,0,0,542.151733
836,-878,7,0,0,0,731.638550
293,868,1,0,0,0,812.088379
1051,286,2,0,0,0,762.365173
-1529,208,3,1,0,1,98.670769
-480,1509,4,0,0,0,655.212280
-51,-1295,5,0,0,0,712.513611
-1773,-1643,6,0,0,0,535.196228
372,-482,7,0,0,0,929.684509
682,1968,1,0,0,0,577.246277
1679,827,2,0,0,0,607.587341
-1792,1459,3,0,0,0,547.879761
-836,1390,4,0,0,0,648.351013
-734,-1623,5,0,0,0,621.663879
-1735,-1062,6,0,0,0,583.936523
1088,-230,7,0,0,0,756.411865
632,1914,1,0,0,0,586.538391
1097,214,2,0,0,0,754.961548
-270,124,3,0,0,0,1136.528687
-1167,1580,4,1,0,1,98.670769
-995,-1670,5,1,0,1,98.670769
-1973,-335,6,0,0,0,588.572754
7,-1633,7,0,0,0,646.426208
980,1535,1,0,0,0,615.359680
1703,364,2,0,0,0,628.097229
-1284,417,3,0,0,0,700.820007
-1590,1681,4,0,0,0,547.513062
-658,-1470,5,0,0,0,650.378845
-1817,-840,6,1,0,1,98.670769
769,-1112,7,0,0,0,700.399780
1645,1666,1,0,0,0,544.188721
1214,835,2,1,0,2,218.520218
-1330,342,3,1,0,1,98.670769
-208,1260,4,1,0,1,98.670769
-71,-338,5,1,0,1,98.670769
-1384,-81,6,1,0,1,98.670769
1500,-992,7,0,0,0,618.946106
1283,1306,1,0,0,0,613.862488
1813,76,2,0,0,0,616.387695
-1514,1489,3,0,0,0,571.767517
-998,1779,4,0,0,0,583.158630
-357,-1675,5,1,0,1,98.670769
-1610,-1520,6,0,0,0,559.945496
936,-1582,7,1,0,1,98.670769
590,1468,1,1,0,2,218.520218
213,151,2,0,0,0,1173.804565
-330,264,3,0,0,0,1034.923828
-464,1136,4,0,0,0,728.168274
-846,-1306,5,0,0,0,660.201965
-1237,-329,6,0,0,0,716.072693
813,-1802,7,1,0,1,98.670769
1198,1745,1,0,0,0,572.683228
1521,161,2,1,0,2,218.520218
-917,850,3,0,0,1,98.670769
-1258,1860,4,0,0,0,555.977722
-764,-955,5,1,0,1,98.670769
-1006,-227,6,0,0,0,778.057129
394,-1785,7,0,0,0,614.298706
450,1274,1,1,0,2,218.520218
1369,1230,2,0,0,0,612.370972
-1077,633,3,0,0,0,723.042664
-675,989,4,0,0,0,735.197205
-1572,-1891,5,1,0,1,98.670769
-1895,-1826,6,1,0,1,98.670769
1270,-620,7,0,0,0,687.717712
745,1837,1,1,0,2,218.520218
1950,1886,2,0,0,0,502.819946
-1303,1007,3,0,0,1,98.670769
-1151,1277,4,0,0,0,631.768738
-189,-845,5,1,0,1,98.670769
-1337,-1139,6,1,0,1,98.670769
137,-750,7,0,0,0,864.922363
1342,1368,1,0,0,0,600.876648
436,369,2,1,0,2,218.520218
-1753,226,3,0,0,0,623.870178
-1820,1873,4,0,0,0,513.468323
-326,-1238,5,0,0,0,716.027893
-1979,-432,6,0,0,0,585.140869
630,-1413,7,0,0,0,661.855774
540,1144,1,0,0,0,719.441345
1738,473,2,0,0,0,618.493164
-976,752,3,0,0,1,98.670769
-357,1656,4,1,0,1,98.670769
-884,-898,5,1,0,1,98.670769
-878,-320,6,0,0,0,806.378296
1024,-879,7,0,0,0,700.924377
1081,1719,1,0,0,0,584.435791
981,590,2,0,0,0,748.092712
-1987,837,3,0,0,0,567.459106
-501,1078,4,1,0,1,98.670769
-3,-1721,5,0,0,0,631.464478
-712,-708,6,0,0,0,785.734497
1420,-937,7,0,0,0,634.748291
1066,1629,1,0,0,0,596.400635
1474,647,2,1,0,2,218.520218
-823,136,3,1,0,1,98.670769
-109,641,4,0,0,0,910.760437
-35,-1885,5,1,0,1,98.670769
-1210,-271,6,0,0,0,725.177673
1129,-714,7,0,0,0,703.845215
298,774,1,1,0,2,218.520218
1432,698,2,0,0,0,653.495300
-1983,898,3,0,0,0,564.748657
-860,1181,4,1,0,1,98.670769
-469,-965,5,0,0,0,766.690002
-1835,-238,6,0,0,0,610.834045
909,-1799,7,0,0,0,586.543152
862,1768,1,0,0,0,593.477356
474,40,2,0,0,0,1000.815063
-594,516,3,0,0,0,855.850952
-289,1669,4,0,0,0,635.998779
-60,-1310,5,1,0,1,98.670769
-1957,-912,6,0,0,0,567.068481
361,-1597,7,0,0,0,645.679749
45,886,1,0,0,0,821.329834
1981,638,2,1,0,2,218.520218
-530,495,3,0,0,0,879.322998
-1558,1680,4,0,0,0,550.282471
-1213,-1593,5,0,0,0,588.429016
-1620,-470,6,0,0,0,637.185059
1750,-1454,7,0,0,0,552.262634
625,1862,1,0,0,0,593.888672
1027,686,2,1,0,2,218.520218
-439,309,3,0,0,0,965.953613
-28,811,4,0,0,0,846.971375
-488,-1537,5,0,0,0,650.013428
-1369,-1239,6,0,0,0,611.441284
1214,-1447,7,0,0,0,604.988953
567,1019,1,0,0,0,742.785950
1869,380,2,0,0,0,602.230103
-1911,1007,3,0,0,0,566.935791
-1429,1536,4,0,0,0,575.198364
-555,-1473,5,0,0,0,656.914673
-512,-446,6,0,0,0,898.273132
1832,-1328,7,0,0,0,553.819824
10,63,1,1,0,0,855.030457
1216,1100,2,0,0,0,645.258545
-1336,1146,3,0,0,0,625.054138
-109,927,4,1,0,1,98.670769
-1089,-1379,5,0,0,0,625.544373
-1865,-1289,6,1,0,1,98.670769
1946,-608,7,0,0,0,583.304016
344,510,1,1,0,2,218.520218
503,142,2,0,0,0,973.670959
-1559,256,3,0,0,0,655.866211
-36,1497,4,0,0,0,671.175171
-1803,-1877,5,1,0,1,98.670769
-1934,-579,6,0,0,0,586.093262
29,-1883,7,0,0,0,605.830933
432,1447,1,0,0,0,668.765991
819,135,2,1,0,2,218.520218
-1836,1311,3,1,0,1,98.670769
-634,864,4,0,0,0,767.031250
-718,-1154,5,0,0,0,698.893555
-1400,-852,6,0,0,0,645.404663
766,-1203,7,0,0,0,685.116089
104,1149,1,0,0,0,745.860168
1358,455,2,0,0,0,683.909912
-1423,911,3,0,0,0,636.707336
-501,901,4,0,0,0,778.160339
-330,-1937,5,0,0,0,593.771057
-1314,-825,6,0,0,0,661.037781
711,-1344,7,0,0,0,666.810974
1074,1309,1,1,0,2,218.520218
1019,690,2,0,0,0,727.345581
-787,572,3,0,0,0,794.800354
-583,1321,4,0,0,0,681.576904
-1368,-1610,5,0,0,0,573.212158
-1378,-805,6,0,0,0,652.985596
695,-174,7,0,0,0,882.820618
102,254,1,1,0,1,98.670769
556,498,2,1,0,2,218.520218
-1555,1294,3,0,0,0,585.507751
-666,797,4,0,0,0,776.019470
-648,-780,5,0,0,0,782.899719
-1937,-1893,6,1,0,1,98.670769
1475,-926,7,0,0,0,628.078735
1846,1870,1,0,0,0,511.750946
1793,636,2,0,0,0,602.943298
-1807,750,3,0,0,0,594.993713
-869,896,4,0,0,1,98.670769
-298,-1674,5,0,0,0,634.910278
-1500,-815,6,0,0,0,633.774048
1921,-1497,7,0,0,0,533.086731
967,1468,1,0,0,0,625.426819
1489,1227,2,0,0,0,598.946167
-1245,1085,3,0,0,1,98.670769
-729,1817,4,0,0,0,594.801758
-846,-1988,5,1,0,1,98.670769
-1244,-366,6,1,0,1,98.670769
1799,-150,7,0,0,0,617.857544
438,821,1,1,0,2,218.520218
1931,1326,2,0,0,0,544.048584
-1963,1711,3,0,0,0,514.285400
-44,1331,4,0,0,0,704.725525
-110,-1217,5,0,0,0,729.373230
-1454,-295,6,0,0,0,673.822937
964,-33,7,1,0,2,218.520218
1604,1797,1,1,0,2,218.520218
1910,26,2,0,0,0,601.792908
-1898,247,3,0,0,0,601.224243
-726,1551,4,0,0,0,632.874756
-439,-734,5,0,0,0,831.854492
-1553,-1237,6,0,0,0,590.820984
1065,-961,7,0,0,0,683.453674
0,1987,1,0,0,0,590.598389
1862,1280,2,0,0,0,554.216614
-1867,204,3,0,0,0,606.603394
-1289,1408,4,1,0,1,98.670769
-695,-1830,5,0,0,0,594.838867
-662,-426,6,0,0,0,855.705139
355,-1819,7,0,0,0,610.381470
674,998,1,0,0,0,733.553162
1227,243,2,1,0,2,218.520218
-1252,439,3,0,0,0,705.801086
-861,1055,4,0,0,1,98.670769
-1627,-1774,5,0,0,0,536.376221
-1613,-217,6,0,0,0,647.385681
363,-1638,7,1,0,1,98.670769
870,1796,1,0,0,0,589.369629
1618,532,2,1,0,2,218.520218
-740,426,3,0,0,0,832.327454
-817,1124,4,1,0,1,98.670769
-980,-1372,5,0,0,0,637.310974
-841,-666,6,0,0,0,766.733398
1697,-649,7,1,0,2,218.520218
287,1222,1,0,0,0,721.668640
396,382,2,1,0,2,218.520218
-1281,999,3,0,0,1,98.670769
-1297,1728,4,0,0,0,566.868225
-1509,-1600,5,1,0,1,98.670769
-1290,-1140,6,0,0,0,631.375610
1717,-209,7,0,0,0,630.032837
316,1659,1,0,0,0,636.843018
1895,1609,2,0,0,0,527.311951
-530,267,3,1,0,1,98.670769
-1012,1400,4,0,0,0,630.396423
-1475,-1939,5,0,0,0,532.989319
-1284,-1112,6,0,0,0,635.200439
754,-471,7,0,0,0,820.721863
24,720,1,0,0,0,881.237793
1936,365,2,1,0,2,218.520218
-1342,1010,3,0,0,1,98.670769
-299,1095,4,1,0,1,98.670769
-1225,-766,6,1,0,1,98.670769
297,-1171,7,0,0,0,732.649475
440,1820,1,0,0,0,607.464478
1353,577,2,0,0,0,676.285889
-821,321,3,1,0,1,98.670769
-665,1620,4,0,0,0,626.513428
-882,-454,6,1,0,1,98.670769
747,-1952,7,1,0,1,98.670769
81,462,1,1,0,1,98.670769
1590,708,2,1,0,2,218.520218
-491,316,3,0,0,0,941.743896
-1257,1319,4,0,0,0,615.223206
-1859,-115,6,0,0,0,608.968201
683,-1187,7,0,0,0,696.723694
1869,1879,1,0,0,0,509.353638
159,138,2,0,0,0,1235.891479
-1229,990,3,1,0,1,98.670769
-1556,1843,4,0,0,0,535.804504
-1206,-1121,6,1,0,1,98.670769
34,-293,7,1,0,1,98.670769
1083,1832,1,0,0,0,571.147461
1739,1188,2,0,0,0,574.104736
-1923,1921,3,0,0,0,502.276031
-853,1622,4,0,0,0,613.575378
-1778,-337,6,0,0,0,617.162720
1820,-1759,7,0,0,0,522.254089
651,916,1,0,0,2,218.520218
1944,1385,2,0,0,0,538.749146
-900,874,3,1,0,1,98.670769
-986,1652,4,0,0,0,599.762939
-933,-280,6,1,0,1,98.670769
144,-1394,7,0,0,0,690.124939
356,939,1,0,0,0,785.699158
541,102,2,1,0,2,218.520218
-514,67,3,0,0,0,976.058167
-1171,1346,4,0,0,0,621.212830
-1961,-996,6,1,0,1,98.670769
1323,-695,7,0,0,0,671.746765
390,681,1,1,0,2,218.520218
312,153,2,0,0,0,1091.352051
-800,232,3,0,0,0,839.455566
-241,1286,4,0,0,0,709.789429
43,-1181,7,0,0,0,738.960510
96,1354,1,0,0,0,699.258911
1164,661,2,0,0,0,703.254150
-1787,117,3,0,0,0,620.139282
24,-618,7,0,0,0,925.174133
1629,1953,1,0,0,0,520.915405
1570,178,2,0,0,0,655.833862
-1271,537,3,1,0,1,98.670769
1233,-792,7,0,0,0,677.345825
1166,1978,1,0,0,0,549.685181
901,38,2,0,0,0,816.617310
-1700,404,3,1,0,1,98.670769
185,-1575,7,0,0,0,654.793274
1399,1603,1,0,0,0,571.219299
1833,566,2,0,0,0,600.573303
-1426,1032,3,1,0,1,98.670769
525,-913,7,0,0,0,772.024963
1067,421,2,0,0,0,747.517151
-1989,1282,3,0,0,0,541.185913
526,-1642,7,0,0,0,630.936890
1651,1202,2,0,0,0,582.826477
-1496,1171,3,0,0,0,603.339905
1478,-32,7,0,0,0,674.841553
1299,586,2,0,0,0,685.338928
-1739,1640,3,0,0,0,538.345459
183,-704,7,0,0,0,878.455444
1564,1199,2,0,0,0,592.934387
-1078,1024,3,0,0,1,98.670769
1237,-172,7,0,0,0,723.121948
1974,1514,2,1,0,2,218.520218
-910,311,3,0,0,0,798.137695
213,-80,7,1,0,0,320.771057
1904,1629,2,0,0,0,525.080017
-1671,979,3,0,0,0,597.881104
1738,-207,7,0,0,0,626.658752
1370,662,2,0,0,0,666.607971
-1414,796,3,0,0,0,648.241699
302,-23,7,0,0,0,1130.988770
974,645,2,0,0,0,742.275146
-1706,124,3,0,0,0,633.208618
806,-803,7,0,0,0,749.856934
1046,274,2,0,0,0,764.461975
-832,84,3,0,0,0,838.328796
843,-128,7,0,0,0,832.730957
1990,748,2,0,0,0,571.444824
-941,250,3,1,0,1,98.670769
1184,-509,7,1,0,2,218.520218
1778,740,2,1,0,2,218.520218
-1780,334,3,1,0,1,98.670769
346,-526,7,1,0,1,98.670769
1846,1676,2,0,0,0,526.478027
1704,-1650,7,0,0,0,540.521729
1631,-1071,7,0,0,0,595.757751
295,-428,7,0,0,0,975.243042
1431,-1851,7,1,0,2,218.520218
1345,-771,7,1,0,2,218.520218
1193,-720,7,0,0,0,691.760376
318,-1216,7,0,0,0,721.293823
825,-474,7,0,0,0,801.203491
1123,-1002,7,0,0,0,669.727783
390,-335,7,0,0,0,978.415527
1889,-656,7,0,0,0,588.796021
1436,-1024,7,0,0,0,624.482910
178,-808,7,0,0,0,841.391724
1854,-1118,7,0,0,0,566.292297
382,-1453,7,0,0,0,670.233337
708,-1382,7,0,0,0,660.802734
208,-75,7,0,0,0,1221.755371
659,-746,7,0,0,0,788.236877
1450,-889,7,0,0,0,634.824402
1916,-1815,7,0,0,0,510.525299
643,-742,7,0,0,0,792.174072
1690,-1403,7,0,0,0,562.211609
404,-1424,7,0,0,0,674.483521
878,-896,7,0,0,0,721.846375
1304,-1831,7,0,0,0,555.675049
1268,-634,7,0,0,0,686.826904
246,-1215,7,1,0,1,98.670769
1050,-117,7,0,0,0,771.122437
482,-1921,7,1,0,1,98.670769
903,-881,7,0,0,0,720.228271
340,-15,7,1,0,2,218.520218
1152,-1066,7,0,0,0,657.740479
863,-540,7,0,0,0,781.777405
1390,-1156,7,0,0,0,617.441895
1431,-1448,7,1,0,2,218.520218
228,-454,7,0,0,0,981.850159
838,-1297,7,0,0,0,662.394897
1147,-935,7,0,0,0,674.559082
1973,-402,7,0,0,0,586.834839
1549,-1670,7,0,0,0,551.944336
592,-178,7,0,0,0,925.306763
1222,-423,7,1,0,2,218.520218
392,-1291,7,0,0,0,700.992981
435,-1479,7,1,0,1,98.670769
536,-356,7,1,0,2,218.520218
419,-1767,7,0,0,0,616.167297
1043,-1968,7,0,0,0,558.273254
1459,-996,7,0,0,0,624.024719
905,-785,7,0,0,0,735.046875
1601,-491,7,0,0,0,639.254883
658,-1353,7,0,0,0,669.826172
1855,-169,7,1,0,2,218.520218
856,-1992,7,1,0,1,98.670769
70,-998,7,0,0,0,786.778992
841,-945,7,0,0,0,719.444153
1621,-1539,7,1,0,2,218.520218
561,-1178,7,0,0,0,710.584229
7,-890,7,1,0,1,98.670769
988,-191,7,0,0,0,785.106628
80,-457,7,0,0,0,1008.015930
