each times' max average throughput
621.751404,627.985474,623.036621,625.029053,614.814819,615.656677,606.284302,620.491333,615.810608,626.657715,621.022583,611.488831,624.406311,619.079529,627.424622,619.101501,625.416077,625.661682,626.550293,623.073425,625.555725,627.215942,602.582764,622.760376,626.025940,629.572327,620.017517,626.864807,627.195923,621.507202,621.894226,612.381348,611.686646,609.319641,615.058228,620.197510,631.707336,615.598083,618.517456,628.349915,612.721069,627.766296,617.771301,615.309326,616.276123,620.611328,621.865723,626.502075,623.169067,625.149231,621.611267,613.946167,616.574646,614.514832,630.724121,623.036621,617.277527,621.272827,626.471375,630.205078,627.196167,625.660645,602.268250,613.640564,620.828674,613.610352,625.778931,623.632751,628.057922,622.823181,623.232971,623.222412,621.041138,616.195129,625.913269,623.074402,627.330933,612.038391,626.643250,621.041138,621.928589,619.086670,632.313721,617.294434,623.372681,623.813354,617.937378,620.821350,614.840942,620.167725,613.371826,612.313354,626.096313,605.183472,619.307007,613.078186,632.920410,622.834167,632.094543,622.952209,
avg. throughput in all test times
620.924866
avg. BS TX power in all test times
MBS area 1,MBS area 2,MBS area 3,CBSD 1,CBSD 2,CBSD 3,CBSD 4,CBSD 5,
8.675,8.575,9.312,0.300,0.420,0.347,0.556,0.403,
avg. mbs all power,avg. cbsd enable number,avg. mbs area all power,avg. cbsd all power
46.662,2.000,26.562,2.026
avg. max avg. throughput generation number in all test times
0.870000
avg. number of relay UE
227

the max average throughput times

BS TX power
MBS area 1,MBS area 2,MBS area 3,CBSD 1,CBSD 2,CBSD 3,CBSD 4,CBSD 5,
6.250,8.750,10.000,0.000,0.750,0.000,0.500,0.750,
max average throughput
622.952209

x,y,area,be blocked (1 : NLOS / 0 : LOS),be blocked number (>=1 : CBSD(x) / 0 : no),connect bs number (>=1 : CBSD / 0 : MBS),throughput (unit : M bps)
909,367,1,1,0,2,131.710815
526,-1983,2,0,0,0,661.162170
-578,-1092,3,1,0,4,122.907288
1689,235,1,0,0,0,665.917847
1126,-893,2,0,0,0,763.118652
-193,-240,3,0,0,0,1226.142090
1667,1114,1,1,0,2,131.710815
1800,-1835,2,0,0,0,596.942566
-1427,-289,3,0,0,0,778.549622
94,1388,1,1,0,5,126.655975
1532,-777,2,0,0,0,711.958801
-567,-129,3,0,0,0,1042.830200
1147,1372,1,0,0,0,652.343323
873,-1300,2,1,0,4,122.907288
-761,699,3,0,0,0,877.167358
1607,884,1,0,0,0,645.127808
1449,-1048,2,1,0,2,131.710815
-1799,67,3,0,0,0,717.652283
592,1075,1,0,0,0,760.147278
1780,-1348,2,1,0,2,131.710815
-1472,-903,3,0,0,0,729.574158
205,694,1,1,0,2,131.710815
1373,-340,2,0,0,0,767.680176
-457,1674,3,0,0,0,728.190186
165,923,1,0,0,0,837.499756
184,-1473,2,0,0,0,753.818848
-735,-620,3,0,0,0,897.882629
726,1522,1,0,0,0,669.116394
656,-1574,2,0,0,0,714.058716
-1158,1155,3,0,0,0,745.163635
1852,1732,1,0,0,0,553.160706
223,-1745,2,0,0,0,705.135254
-102,1546,3,0,0,0,760.697693
1231,1507,1,0,0,0,628.265320
1347,-1653,2,0,0,0,650.141479
-991,-325,3,0,0,0,874.498169
59,543,1,0,0,0,993.133057
1546,-804,2,0,0,0,707.854797
-1461,341,3,0,0,0,769.942261
1953,689,1,0,0,0,610.532349
1376,-166,2,0,0,0,773.524048
-47,-1721,3,0,0,0,730.449036
1758,1469,1,0,0,0,581.870972
1675,-738,2,1,0,2,131.710815
-1091,-1929,3,0,0,0,658.193176
9,1950,1,0,0,0,627.658386
1002,-1544,2,0,0,0,692.179871
-1589,1424,3,0,0,0,669.022034
1862,717,1,0,0,0,621.125854
1472,-1463,2,0,0,0,657.869873
-1654,-1464,3,0,0,0,659.135681
1842,9,1,1,0,2,131.710815
1748,-1012,2,0,0,0,665.619019
-280,142,3,0,0,0,1220.600464
780,387,1,0,0,0,858.799622
61,-1128,2,0,0,0,832.302429
-771,-827,3,0,0,0,851.255554
296,1677,1,0,0,0,666.311340
1311,-58,2,0,0,0,789.218872
-1973,1898,3,0,0,0,597.998840
1899,1561,1,0,0,0,561.924072
1781,-1685,2,0,0,0,610.373962
-322,36,3,0,0,0,1211.504395
1472,1789,1,0,0,0,578.700439
1988,-1945,2,1,0,2,131.710815
-1377,605,3,0,0,0,769.219910
316,212,1,1,0,2,131.710815
324,-229,2,0,0,0,1133.815308
-933,240,3,1,0,5,126.655975
788,627,1,0,0,0,816.968872
1371,-205,2,0,0,0,773.469055
-1235,1923,3,0,0,0,649.407593
4,1932,1,0,0,0,630.302551
21,-773,2,0,0,0,941.422974
-150,1224,3,1,0,5,126.655975
10,456,1,0,0,0,1045.095825
686,-1161,2,0,0,0,781.392334
-1823,-100,3,0,0,0,713.623352
1416,1486,1,0,0,0,613.063721
796,-1092,2,0,0,0,780.796143
-962,728,3,0,0,0,832.596252
976,1351,1,0,0,0,672.460938
1654,-1460,2,0,0,0,640.426941
-53,904,3,1,0,5,126.655975
919,1444,1,0,0,0,664.853455
1329,-1349,2,0,0,0,684.051086
-585,1291,3,1,0,5,126.655975
1489,1208,1,0,0,0,632.465759
252,-1841,2,1,0,4,122.907288
-540,-922,3,0,0,0,867.527405
1454,448,1,0,0,0,698.536499
1868,-341,2,0,0,0,683.269043
-247,-1228,3,0,0,0,821.791870
547,653,1,1,0,2,131.710815
1299,-503,2,1,0,2,131.710815
-1094,1870,3,0,0,0,664.663757
21,475,1,0,0,0,1033.113647
164,-660,2,0,0,0,978.438293
-568,-1179,3,0,0,0,809.195740
1745,1972,1,1,0,2,131.710815
200,-935,2,0,0,0,880.287231
-18,-719,3,1,0,4,122.907288
462,1560,1,0,0,0,679.351440
511,-1512,2,1,0,4,122.907288
-95,776,3,1,0,5,126.655975
664,40,1,0,0,0,936.328796
698,-1126,2,0,0,0,786.492554
-543,-1126,3,0,0,0,822.367493
396,1423,1,0,0,0,707.012573
834,-368,2,0,0,0,894.031433
-944,-347,3,0,0,0,884.947388
148,217,1,0,0,0,1204.258057
1521,-889,2,0,0,0,704.719238
-30,387,3,0,0,0,1159.391602
1396,452,1,0,0,0,708.903870
1579,-1618,2,0,0,0,633.459412
-1859,-102,3,0,0,0,708.021606
433,1697,1,0,0,0,658.299255
1551,-620,2,0,0,0,719.984070
-674,1558,3,0,0,0,734.491699
1097,901,1,1,0,2,131.710815
733,-1676,2,0,0,0,693.950989
-1952,-1419,3,1,0,4,122.907288
1243,932,1,0,0,0,692.551941
1230,-940,2,0,0,0,741.779297
-869,-557,3,0,0,0,877.479370
1505,1903,1,0,0,0,565.632996
447,-1884,2,0,0,0,677.686890
-301,-410,3,0,0,0,1081.434814
1137,1727,1,0,0,0,610.984924
1064,-1639,2,0,0,0,675.074341
-169,1701,3,1,0,5,126.655975
809,1286,1,0,0,0,698.941589
1122,-1749,2,0,0,0,657.514526
-1977,1041,3,1,0,5,126.655975
768,1925,1,0,0,0,610.316528
1479,-1836,2,0,0,0,621.515869
-1331,-437,3,0,0,0,789.625732
708,891,1,0,0,0,781.812439
989,-1052,2,0,0,0,761.769836
-152,-721,3,1,0,4,122.907288
1560,1813,1,0,0,0,569.675842
371,-407,2,0,0,0,1039.256226
-398,-1715,3,0,0,0,724.038147
1536,1447,1,0,0,0,605.193176
1359,-110,2,0,0,0,778.231445
-930,667,3,1,0,5,126.655975
87,1703,1,0,0,0,665.926147
1571,-1055,2,0,0,0,684.249573
-865,-1904,3,0,0,0,674.762451
305,122,1,0,0,0,1139.748047
1820,-1032,2,0,0,0,655.559570
-838,690,3,0,0,0,862.979065
939,1072,1,0,0,0,717.274475
304,-989,2,1,0,4,122.907288
-1209,915,3,0,0,0,766.906128
690,148,1,0,0,0,919.307129
128,-1355,2,0,0,0,778.740112
-1777,-1195,3,0,0,0,667.988464
375,599,1,0,0,0,918.896301
582,-1034,2,0,0,0,818.171326
-586,465,3,0,0,0,970.211548
1506,1314,1,0,0,0,620.644043
755,-664,2,0,0,0,865.816589
-794,573,3,0,0,0,892.662354
519,1426,1,1,0,2,131.710815
1058,-1870,2,0,0,0,647.978821
-155,-1396,3,0,0,0,788.872864
377,1269,1,1,0,2,131.710815
299,-1058,2,0,0,0,840.099915
-840,1504,3,0,0,0,730.276550
233,541,1,0,0,0,971.366882
1831,-1640,2,0,0,0,609.643738
-1904,-1526,3,0,0,0,630.740234
673,848,1,0,0,0,796.161926
1748,-1659,2,1,0,2,131.710815
-483,1693,3,1,0,5,126.655975
1242,360,1,0,0,0,745.138184
961,-499,2,0,0,0,844.479004
-419,1434,3,0,0,0,771.151978
1711,531,1,1,0,2,131.710815
816,-822,2,0,0,0,825.111267
-586,-1802,3,0,0,0,702.976257
1372,1949,1,0,0,0,570.658752
1829,-927,2,0,0,0,661.311401
-725,-607,3,0,0,0,902.720520
33,980,1,1,0,5,126.655975
922,-354,2,1,0,2,131.710815
-1418,-67,3,0,0,0,785.820312
577,1265,1,0,0,0,724.342773
216,-1530,2,0,0,0,742.315491
-652,994,3,1,0,5,126.655975
1034,224,1,1,0,2,131.710815
1618,-1470,2,0,0,0,643.042908
-628,1385,3,0,0,0,766.052979
1214,284,1,0,0,0,755.611206
1731,-1885,2,0,0,0,598.186646
-711,-1872,3,0,0,0,687.170898
1231,1276,1,0,0,0,654.794556
1280,-623,2,0,0,0,765.840637
-1137,1586,3,0,0,0,694.556091
1699,135,1,1,0,2,131.710815
1549,-781,2,0,0,0,709.142090
-1706,-485,3,0,0,0,721.925659
16,1743,1,0,0,0,659.655151
468,-802,2,0,0,0,888.716858
-1382,1402,3,0,0,0,692.046936
59,1538,1,0,0,0,695.229797
1297,-452,2,1,0,2,131.710815
-896,-1945,3,1,0,4,122.907288
954,160,1,0,0,0,828.532288
1125,-1547,2,0,0,0,681.177490
-1640,951,3,0,0,0,702.840698
850,753,1,0,0,0,782.438965
2,-477,2,0,0,0,1080.691650
-216,-583,3,1,0,4,122.907288
404,721,1,0,0,0,873.813721
35,-971,2,1,0,4,122.907288
-1494,-559,3,0,0,0,752.337708
1460,898,1,0,0,0,664.448975
103,-314,2,1,0,0,251.245911
-1327,-1755,3,1,0,4,122.907288
1562,852,1,0,0,0,653.789612
1729,-1192,2,0,0,0,654.491638
-939,1606,3,0,0,0,708.241699
190,1701,1,0,0,0,664.862976
634,-134,2,0,0,0,992.358826
-133,1239,3,0,0,0,823.282654
564,854,1,0,0,0,812.318726
1018,-1625,2,0,0,0,680.471436
-431,-768,3,0,0,0,923.194763
1307,303,1,0,0,0,734.568481
738,-301,2,0,0,0,932.712158
-1213,-1023,3,0,0,0,753.846558
447,1559,1,0,0,0,680.259216
1098,-1878,2,0,0,0,644.432312
-1427,-1379,3,0,0,0,689.760315
353,459,1,0,0,0,976.301208
1344,-350,2,0,0,0,772.934265
-91,1709,3,1,0,5,126.655975
1096,1485,1,0,0,0,643.335754
349,-1737,2,1,0,4,122.907288
-1743,9,3,0,0,0,726.910461
1997,966,1,0,0,0,591.002625
35,-1990,2,0,0,0,669.823669
-1410,1940,3,0,0,0,635.663025
683,818,1,0,0,0,800.698059
362,-890,2,0,0,0,878.889832
-1228,1161,3,0,0,0,735.777832
1897,1920,1,0,0,0,535.557739
814,-111,2,0,0,0,923.986450
-1394,1325,3,0,0,0,698.723816
846,1437,1,0,0,0,672.311340
12,-1039,2,0,0,0,856.349426
-206,1810,3,0,0,0,714.260254
1118,732,1,0,0,0,735.713074
624,-712,2,0,0,0,883.134399
-84,-1209,3,0,0,0,831.287292
1832,1614,1,0,0,0,563.848083
647,-1494,2,1,0,4,122.907288
-1240,1026,3,0,0,0,749.780334
844,26,1,0,0,0,867.636414
1979,-317,2,0,0,0,667.832153
-1536,939,3,0,0,0,717.646484
600,778,1,0,0,0,824.058411
395,-1736,2,0,0,0,701.708496
-1679,463,3,1,0,5,126.655975
1267,1082,1,0,0,0,672.551575
556,-1988,2,0,0,0,659.398560
-1540,503,3,0,0,0,747.891113
78,1599,1,1,0,5,126.655975
1028,-543,2,0,0,0,824.033386
-1119,1312,3,0,0,0,729.992493
945,1833,1,1,0,2,131.710815
167,-1288,2,0,0,0,792.190491
-860,313,3,0,0,0,912.121704
748,1129,1,0,0,0,731.879028
416,-1018,2,0,0,0,840.026855
-1490,-1015,3,0,0,0,717.235718
1607,1981,1,0,0,0,551.478760
1438,-244,2,1,0,2,131.710815
-1077,-1038,3,0,0,0,770.801331
24,167,1,0,0,0,1331.964111
1507,-1093,2,0,0,0,688.933472
-1337,1308,3,0,0,0,706.699646
556,235,1,0,0,0,964.319641
991,-1236,2,0,0,0,735.156189
-899,637,3,1,0,5,126.655975
1800,254,1,1,0,2,131.710815
1002,-750,2,0,0,0,802.824829
-1766,-658,3,0,0,0,704.535156
1946,1173,1,0,0,0,584.203979
1612,-569,2,0,0,0,713.346558
-1338,1410,3,0,0,0,695.681091
1499,1485,1,1,0,2,131.710815
267,-289,2,0,0,0,1136.223633
-643,1664,3,1,0,5,126.655975
910,959,1,0,0,0,738.794739
396,-529,2,0,0,0,986.723328
-306,166,3,1,0,0,248.551315
1187,1597,1,0,0,0,621.905640
677,-1691,2,0,0,0,695.173035
-1916,-972,3,0,0,0,667.054382
1982,1173,1,0,0,0,580.374390
1441,-1253,2,0,0,0,681.660767
-386,-704,3,0,0,0,949.839722
1574,118,1,0,0,0,688.017517
538,-450,2,1,0,2,131.710815
-946,-542,3,0,0,0,861.722168
519,973,1,0,0,0,790.859863
1872,-1892,2,0,0,0,587.055542
-1507,-1389,3,0,0,0,680.534485
1124,108,1,0,0,0,784.059692
632,-217,2,0,0,0,983.506592
-1392,1066,3,0,0,0,725.227234
1535,533,1,1,0,2,131.710815
1847,-927,2,0,0,0,659.082031
-1868,-352,3,1,0,5,126.655975
61,1435,1,0,0,0,715.031799
624,-972,2,0,0,0,825.904480
-1171,1009,3,0,0,0,761.368652
29,1283,1,0,0,0,747.319519
896,-322,2,0,0,0,881.508606
-1720,1424,3,0,0,0,656.033997
1764,1795,1,1,0,2,131.710815
1128,-422,2,1,0,2,131.710815
-1422,-921,3,1,0,4,122.907288
403,157,1,0,0,0,1060.420288
207,-1160,2,1,0,4,122.907288
-61,-802,3,0,0,0,949.323669
927,602,1,0,0,0,790.194824
156,-1818,2,0,0,0,694.671509
-777,-769,3,0,0,0,860.948364
39,1192,1,1,0,5,126.655975
754,-933,2,0,0,0,815.027466
-1527,-562,3,1,0,4,122.907288
387,1163,1,0,0,0,760.505310
613,-1911,2,0,0,0,667.449890
-938,146,3,1,0,5,126.655975
815,642,1,0,0,0,808.396057
1596,-513,2,0,0,0,718.940979
-911,-648,3,1,0,4,122.907288
1822,536,1,0,0,0,635.181396
1675,-235,2,0,0,0,716.391052
-760,-1052,3,0,0,0,811.596191
799,1962,1,0,0,0,604.089111
3,-239,2,1,0,0,374.812683
-1832,584,3,0,0,0,698.785156
106,1537,1,1,0,5,126.655975
340,-1723,2,1,0,4,122.907288
-1614,972,3,0,0,0,704.613342
66,1119,1,0,0,0,786.161987
1592,-1133,2,0,0,0,675.084351
-1628,-989,3,1,0,4,122.907288
1354,1681,1,0,0,0,598.770569
882,-1040,2,0,0,0,778.189575
-334,438,3,0,0,0,1058.455078
1679,450,1,0,0,0,660.445007
1620,-1525,2,0,0,0,638.024841
-947,-318,3,0,0,0,886.897705
705,633,1,0,0,0,834.494751
1117,-732,2,0,0,0,784.184082
-1085,1147,3,0,0,0,755.282227
1154,241,1,0,0,0,771.683167
1135,-1428,2,0,0,0,694.759705
-117,1006,3,0,0,0,882.943481
152,422,1,0,0,0,1049.921265
282,-1978,2,0,0,0,668.721313
-809,1674,3,0,0,0,708.415527
1061,1549,1,0,0,0,638.453064
350,-1603,2,1,0,4,122.907288
-986,1097,3,1,0,5,126.655975
917,1637,1,0,0,0,638.633850
446,-1273,2,0,0,0,781.318909
-1254,468,3,0,0,0,802.724365
1904,387,1,0,0,0,628.695679
89,-558,2,0,0,0,1031.847412
-301,-698,3,1,0,4,122.907288
1234,509,1,0,0,0,736.027466
1132,-498,2,0,0,0,806.267456
-73,368,3,0,0,0,1169.210205
1328,1398,1,0,0,0,630.862610
931,-1719,2,0,0,0,674.950806
-215,-1020,3,1,0,4,122.907288
1849,114,1,1,0,2,131.710815
683,-1328,2,1,0,4,122.907288
-1303,-1903,3,0,0,0,646.807800
980,182,1,0,0,0,819.912354
487,-697,2,0,0,0,914.079346
-637,625,3,1,0,5,126.655975
1391,1141,1,0,0,0,650.623962
1089,-1631,2,0,0,0,674.042664
-1895,-643,3,0,0,0,687.364685
1087,978,1,1,0,2,131.710815
924,-1648,2,0,0,0,684.705078
-1703,-385,3,1,0,4,122.907288
1080,730,1,1,0,2,131.710815
1125,-1520,2,0,0,0,684.451050
-1880,1681,3,0,0,0,621.341614
667,108,1,1,0,2,131.710815
94,-26,2,0,0,0,1538.632812
-1165,-1873,3,0,0,0,659.535522
1437,1838,1,0,0,0,576.711365
211,-1561,2,0,0,0,736.795776
-948,-614,3,0,0,0,851.556335
1944,872,1,0,0,0,602.462402
801,-1827,2,0,0,0,669.168579
-201,1234,3,0,0,0,822.327576
1487,1660,1,0,0,0,589.694275
962,-1889,2,0,0,0,651.816162
-16,-1820,3,0,0,0,714.514404
1697,1757,1,0,0,0,563.714417
501,-1561,2,1,0,4,122.907288
-1528,47,3,1,0,5,126.655975
581,1798,1,0,0,0,636.635437
1152,-487,2,0,0,0,803.029602
-465,-1150,3,1,0,4,122.907288
1266,365,1,0,0,0,739.766235
121,-566,2,0,0,0,1024.922607
-605,1254,3,0,0,0,791.392639
683,376,1,0,0,0,890.602051
364,-1976,2,1,0,4,122.907288
-1504,1054,3,0,0,0,711.931396
1544,644,1,0,0,0,671.390015
1487,-1459,2,0,0,0,656.790283
-1880,957,3,1,0,5,126.655975
1102,1878,1,0,0,0,596.286926
1813,-1560,2,0,0,0,617.421631
-1547,-1161,3,0,0,0,697.097534
600,614,1,1,0,2,131.710815
831,-551,2,0,0,0,868.222168
-1973,324,3,0,0,0,687.606628
1297,1262,1,0,0,0,648.954712
1674,-764,2,1,0,2,131.710815
-1117,-456,3,0,0,0,832.576782
1673,825,1,0,0,0,640.307983
165,-283,2,0,0,0,1189.072998
-687,509,3,0,0,0,931.712646
252,1121,1,1,0,2,131.710815
612,-1279,2,1,0,4,122.907288
-1589,-827,3,1,0,4,122.907288
885,1315,1,0,0,0,686.814087
1442,-1349,2,0,0,0,672.083618
-1586,325,3,0,0,0,748.087463
604,731,1,0,0,0,834.260803
713,-235,2,0,0,0,949.952637
-596,1622,3,0,0,0,729.386536
1250,1633,1,0,0,0,612.526917
1586,-176,2,1,0,2,131.710815
-1299,-484,3,1,0,4,122.907288
921,725,1,0,0,0,773.338623
337,-1171,2,0,0,0,810.522949
-1463,26,3,0,0,0,777.120911
332,1398,1,1,0,2,131.710815
1938,-303,2,0,0,0,673.984375
-228,-479,3,0,0,0,1069.295410
1396,810,1,0,0,0,681.645203
389,-1843,2,0,0,0,685.577637
-771,677,3,0,0,0,879.197327
251,920,1,0,0,0,832.634705
246,-496,2,0,0,0,1037.723511
-1239,1804,3,1,0,5,126.655975
677,727,1,0,0,0,820.880249
1439,-203,2,0,0,0,759.915833
-869,-1805,3,1,0,4,122.907288
240,1313,1,1,0,2,131.710815
1259,-128,2,1,0,2,131.710815
-1624,227,3,0,0,0,744.419250
1720,1392,1,1,0,2,131.710815
1265,-187,2,0,0,0,796.657715
-779,489,3,1,0,5,126.655975
1957,1427,1,0,0,0,566.120361
1984,-1348,2,0,0,0,616.608887
-99,495,3,0,0,0,1083.610962
1608,504,1,0,0,0,669.311401
1980,-113,2,0,0,0,670.842773
-1646,-403,3,0,0,0,734.985901
1765,546,1,0,0,0,643.047180
407,-176,2,1,0,2,131.710815
-1578,-484,3,0,0,0,742.541504
1245,1073,1,0,0,0,676.448120
1126,-1991,2,0,0,0,630.131897
-1964,1786,3,0,0,0,606.754944
1553,1509,1,0,0,0,597.864624
1518,-1072,2,0,0,0,689.437622
-1912,-1319,3,1,0,4,122.907288
381,895,1,0,0,0,826.932129
477,-812,2,1,0,4,122.907288
-307,1142,3,0,0,0,838.343994
981,776,1,0,0,0,754.683228
1899,-851,2,0,0,0,657.101257
-158,-1019,3,1,0,4,122.907288
1856,477,1,0,0,0,632.625488
1674,-981,2,0,0,0,677.101990
-1790,1358,3,1,0,5,126.655975
1689,1769,1,0,0,0,563.354370
980,-1618,2,0,0,0,684.359070
-1644,6,3,0,0,0,743.681458
1578,457,1,0,0,0,676.576172
366,-1535,2,1,0,4,122.907288
-1417,-859,3,0,0,0,741.417725
1676,1033,1,0,0,0,624.933105
733,-432,2,0,0,0,913.893127
-175,-2000,3,1,0,4,122.907288
1377,622,1,0,0,0,700.516724
1086,-740,2,0,0,0,788.809753
-41,-1282,3,1,0,4,122.907288
1164,1898,1,0,0,0,589.964905
1141,-295,2,1,0,2,131.710815
-1906,983,3,0,0,0,667.572632
1173,519,1,0,0,0,747.462402
564,-1523,2,1,0,4,122.907288
-868,1490,3,0,0,0,729.991455
1997,1909,1,0,0,0,529.006836
982,-1520,2,0,0,0,697.043762
-992,-614,3,0,0,0,842.238525
1778,140,1,0,0,0,653.108948
278,-351,2,0,0,0,1098.940430
-1009,-1964,3,0,0,0,659.242065
1864,1181,1,0,0,0,592.507141
462,-893,2,0,0,0,865.820374
-1140,611,3,1,0,5,126.655975
1205,1515,1,0,0,0,629.746033
1668,-86,2,0,0,0,720.003723
-613,-42,3,1,0,5,126.655975
1447,1901,1,0,0,0,569.997009
241,-1800,2,0,0,0,696.026489
-1146,641,3,0,0,0,808.231140
6,1693,1,0,0,0,667.979187
489,-87,2,0,0,0,1069.036255
-915,355,3,1,0,5,126.655975
1093,366,1,0,0,0,778.149231
1145,-1000,2,0,0,0,746.988892
-245,22,3,1,0,0,381.144470
933,718,1,0,0,0,772.074646
912,-254,2,0,0,0,883.144043
-703,1609,3,0,0,0,724.804749
51,1760,1,0,0,0,656.776001
1715,-586,2,0,0,0,696.611816
-1801,1588,3,1,0,5,126.655975
1077,1478,1,0,0,0,645.956604
1254,-1250,2,1,0,2,131.710815
-483,554,3,0,0,0,975.299744
1133,176,1,0,0,0,779.664001
224,-1646,2,0,0,0,721.559631
-290,1431,3,0,0,0,777.738220
55,1545,1,1,0,5,126.655975
1278,-245,2,0,0,0,791.639771
-1976,-1904,3,1,0,4,122.907288
819,1526,1,1,0,2,131.710815
1571,-757,2,0,0,0,707.639954
-94,-1879,3,0,0,0,705.029419
495,215,1,0,0,0,996.594604
387,-1037,2,0,0,0,838.164856
-132,-489,3,0,0,0,1082.641602
434,1809,1,1,0,2,131.710815
581,-1116,2,0,0,0,801.317871
-1437,-631,3,0,0,0,757.002319
1926,1231,1,0,0,0,582.512268
763,-669,2,0,0,0,863.163635
-517,1857,3,0,0,0,698.072327
1907,42,1,1,0,2,131.710815
444,-203,2,0,0,0,1073.998047
-1042,857,3,0,0,0,800.442566
681,1238,1,0,0,0,719.729309
1041,-1756,2,0,0,0,662.585815
-319,1032,3,0,0,0,864.397583
861,729,1,0,0,0,784.316589
617,-1631,2,0,0,0,707.651245
-62,-810,3,1,0,4,122.907288
1605,712,1,1,0,2,131.710815
425,-1343,2,0,0,0,768.865784
-1768,-499,3,0,0,0,711.851074
627,1848,1,1,0,2,131.710815
1831,-838,2,0,0,0,666.491516
-880,102,3,0,0,0,921.492920
145,773,1,0,0,0,888.092468
341,-1963,2,0,0,0,669.523743
-61,1460,3,0,0,0,777.505371
221,1873,1,1,0,5,126.655975
55,-1418,2,0,0,0,766.749023
-426,651,3,0,0,0,958.911194
455,1322,1,1,0,2,131.710815
396,-1900,2,1,0,4,122.907288
-260,-671,3,0,0,0,981.392700
1239,908,1,1,0,2,131.710815
1738,-623,2,0,0,0,691.302979
-1123,-357,3,0,0,0,839.359253
910,871,1,0,0,0,752.661072
1525,-227,2,0,0,0,742.941895
-137,623,3,0,0,0,1016.142639
1387,413,1,1,0,2,131.710815
1896,-593,2,0,0,0,670.360596
-723,426,3,0,0,0,937.101624
93,1791,1,1,0,5,126.655975
1458,-186,2,0,0,0,756.661682
-510,813,3,0,0,0,898.437561
1821,397,1,0,0,0,640.549927
1927,-660,2,0,0,0,663.213806
-1919,-1395,3,0,0,0,638.746765
19,168,1,1,0,0,470.597565
1260,-898,2,1,0,2,131.710815
-258,1687,3,1,0,5,126.655975
1459,183,1,0,0,0,708.303345
64,-1615,2,0,0,0,729.415039
-768,1525,3,0,0,0,732.819214
1839,1436,1,0,0,0,576.690430
826,-1812,2,0,0,0,669.668823
-1808,-287,3,0,0,0,712.855835
1739,1845,1,1,0,2,131.710815
493,-150,2,0,0,0,1058.415039
-1563,-289,3,1,0,5,126.655975
74,612,1,0,0,0,958.256897
311,-861,2,0,0,0,892.813110
-1025,1781,3,0,0,0,679.780212
477,1506,1,0,0,0,687.778503
55,-657,2,1,0,4,122.907288
-1709,-529,3,0,0,0,719.448181
574,258,1,0,0,0,952.307678
913,-1769,2,0,0,0,669.765686
-325,1073,3,0,0,0,853.686279
641,721,1,0,0,0,829.301819
1473,-1244,2,1,0,2,131.710815
-812,-142,3,0,0,0,942.244446
1489,116,1,1,0,2,131.710815
24,-1181,2,0,0,0,819.457947
-782,-1263,3,1,0,4,122.907288
1673,1130,1,0,0,0,617.780579
780,-69,2,0,0,0,937.809204
-1880,1487,3,0,0,0,635.814758
1092,863,1,0,0,0,724.040649
1182,-862,2,0,0,0,758.009521
-249,-1216,3,0,0,0,824.412537
767,1877,1,0,0,0,616.543640
1947,-1884,2,0,0,0,582.019043
-821,1521,3,1,0,5,126.655975
128,518,1,0,0,0,999.868896
1474,-1465,2,1,0,2,131.710815
-1487,981,3,0,0,0,720.661682
615,752,1,1,0,2,131.710815
838,-654,2,0,0,0,849.798462
-1253,139,3,0,0,0,819.940125
1173,1030,1,0,0,0,691.185852
1347,-1117,2,1,0,2,131.710815
-153,32,3,0,0,0,1421.800659
1979,765,1,0,0,0,603.652100
1170,-1236,2,0,0,0,714.612305
-150,525,3,0,0,0,1060.983887
1601,1569,1,0,0,0,588.041870
1814,-1532,2,1,0,2,131.710815
-1614,-1715,3,0,0,0,640.848450
588,64,1,0,0,0,970.179932
1468,-630,2,0,0,0,732.768372
-587,-97,3,0,0,0,1036.226807
15,1935,1,1,0,5,126.655975
491,-61,2,1,0,2,131.710815
-1285,1812,3,0,0,0,657.519043
486,409,1,0,0,0,949.627380
604,-312,2,0,0,0,978.543152
-1585,1617,3,1,0,5,126.655975
223,1886,1,1,0,5,126.655975
1895,-1895,2,1,0,2,131.710815
-1912,1633,3,0,0,0,622.188232
389,1050,1,0,0,0,786.470337
528,-677,2,0,0,0,911.290894
-1668,998,3,0,0,0,695.685364
395,1642,1,0,0,0,668.683411
571,-1764,2,0,0,0,690.092285
-1982,986,3,0,0,0,658.507690
362,416,1,0,0,0,990.372131
648,-1943,2,1,0,4,122.907288
-1943,-1827,3,0,0,0,605.428284
1255,1657,1,0,0,0,609.483887
134,-177,2,0,0,0,1301.314087
-1213,1815,3,0,0,0,662.494019
1515,461,1,0,0,0,687.082214
1867,-435,2,0,0,0,680.550537
-956,716,3,1,0,5,126.655975
779,1194,1,1,0,2,131.710815
311,-897,2,1,0,4,122.907288
-838,1543,3,1,0,5,126.655975
1697,1329,1,1,0,2,131.710815
1004,-1972,2,0,0,0,639.565918
-1358,-48,3,0,0,0,798.384583
904,815,1,0,0,0,762.515747
1935,-1800,2,1,0,2,131.710815
-323,-717,3,0,0,0,955.816406
1223,385,1,1,0,2,131.710815
182,-1231,2,1,0,4,122.907288
-689,855,3,0,0,0,859.670959
1576,1053,1,0,0,0,635.751160
849,-1078,2,0,0,0,776.396606
-1125,480,3,0,0,0,828.639893
1940,1704,1,0,0,0,548.042786
1061,-513,2,0,0,0,820.123779
-1454,-923,3,0,0,0,730.352600
1011,459,1,1,0,2,131.710815
1854,-1194,2,0,0,0,640.554688
-1747,1639,3,1,0,5,126.655975
1465,265,1,1,0,2,131.710815
1890,-917,2,0,0,0,654.404663
-1528,642,3,0,0,0,741.356018
1252,449,1,0,0,0,737.055786
618,-1279,2,0,0,0,766.463074
-1445,-1190,3,1,0,4,122.907288
1257,1334,1,0,0,0,645.310181
1090,-877,2,1,0,2,131.710815
-580,-407,3,1,0,4,122.907288
1343,1987,1,0,0,0,568.905396
980,-361,2,0,0,0,854.883362
-1189,140,3,0,0,0,834.797668
1594,929,1,0,0,0,643.443237
85,-432,2,0,0,0,1103.793945
-1195,-1548,3,0,0,0,693.950012
321,1837,1,0,0,0,640.387634
1052,-788,2,1,0,2,131.710815
-1440,-1280,3,1,0,4,122.907288
940,748,1,0,0,0,766.279480
35,-477,2,0,0,0,1079.920166
-753,-621,3,0,0,0,893.583496
208,1956,1,0,0,0,625.185425
263,-435,2,0,0,0,1062.353027
-679,947,3,0,0,0,842.578125
898,348,1,1,0,2,131.710815
957,-1693,2,0,0,0,676.440552
-1031,-1808,3,0,0,0,676.128967
850,207,1,0,0,0,857.443237
692,-877,2,1,0,4,122.907288
-1010,74,3,0,0,0,882.964478
435,648,1,0,0,0,890.302856
21,-1601,2,0,0,0,732.111511
-1186,1592,3,0,0,0,689.648193
170,702,1,0,0,0,912.611267
921,-1174,2,1,0,4,122.907288
-1790,-756,3,1,0,4,122.907288
1314,1724,1,0,0,0,597.565796
672,-1212,2,0,0,0,773.554077
-524,-1084,3,0,0,0,833.170288
1761,744,1,0,0,0,633.310242
927,-100,2,0,0,0,887.536072
-201,-1454,3,0,0,0,776.220032
1961,780,1,0,0,0,605.167175
138,-1758,2,1,0,4,122.907288
-399,-1348,3,1,0,4,122.907288
1317,202,1,0,0,0,736.554993
690,-102,2,0,0,0,971.145874
-222,-85,3,0,0,0,1300.845459
1512,1325,1,1,0,2,131.710815
58,-1030,2,0,0,0,858.416687
-1343,174,3,0,0,0,799.364075
1103,1679,1,0,0,0,619.190308
1943,-1836,2,0,0,0,585.818054
-1374,768,3,0,0,0,756.156006
1519,1809,1,0,0,0,573.201233
1516,-1698,2,0,0,0,631.513245
-1710,92,3,0,0,0,731.980042
729,486,1,0,0,0,857.013733
986,-911,2,0,0,0,782.693542
-937,-1059,3,0,0,0,786.948303
5,1561,1,1,0,5,126.655975
987,-990,2,0,0,0,771.053589
-199,-1781,3,0,0,0,718.954529
1356,968,1,0,0,0,672.564636
1806,-1819,2,0,0,0,597.736145
-1080,1870,3,0,0,0,665.593140
822,358,1,0,0,0,850.381775
111,-858,2,1,0,4,122.907288
-371,40,3,1,0,5,126.655975
1790,869,1,0,0,0,621.909912
1338,-1587,2,0,0,0,657.814697
-1426,1578,3,0,0,0,669.939392
1671,1074,1,0,0,0,622.397522
1528,-938,2,0,0,0,699.694702
-913,1958,3,0,0,0,665.469727
107,462,1,0,0,0,1033.863770
1101,-1840,2,1,0,4,122.907288
-878,-1547,3,0,0,0,721.088379
1096,1224,1,0,0,0,676.552063
188,-1071,2,0,0,0,843.274109
-1963,16,3,1,0,5,126.655975
1316,990,1,1,0,2,131.710815
-1760,1151,3,1,0,5,126.655975
925,1664,1,0,0,0,634.490234
-1462,235,3,0,0,0,773.699402
664,296,1,0,0,0,910.744202
-292,-27,3,0,0,0,1240.280762
1238,978,1,0,0,0,688.148193
-616,-533,3,0,0,0,945.669373
-757,1969,3,1,0,5,126.655975
-575,-1446,3,0,0,0,759.446350
-1290,1765,3,1,0,5,126.655975
-968,1106,3,0,0,0,775.837830
-929,-1137,3,0,0,0,776.133972
-549,-282,3,1,0,4,122.907288
-1153,906,3,1,0,5,126.655975
-1402,1889,3,0,0,0,641.164551
-812,707,3,1,0,5,126.655975
-1275,866,3,0,0,0,762.196472
-583,-1675,3,0,0,0,721.932190
-669,1796,3,0,0,0,699.721313
-821,860,3,0,0,0,836.786194
-1416,920,3,1,0,5,126.655975
-84,1354,3,1,0,5,126.655975
-1486,1459,3,0,0,0,675.962463
-1735,425,3,1,0,5,126.655975
-963,-1714,3,0,0,0,692.430237
-692,628,3,0,0,0,906.114502
-8,1553,3,0,0,0,760.020508
-354,545,3,0,0,0,1010.773132
-626,-1305,3,0,0,0,780.249878
-1950,328,3,0,0,0,690.776917
-1350,-601,3,0,0,0,774.287903
-732,-559,3,0,0,0,910.287598
-1235,-201,3,0,0,0,822.100769
-575,861,3,0,0,0,876.598877
-1640,-1799,3,1,0,4,122.907288
-977,531,3,0,0,0,856.047913
-631,1332,3,0,0,0,775.034119
-1825,1308,3,1,0,5,126.655975
-1833,-235,3,0,0,0,710.151489
-1641,-868,3,0,0,0,708.849304
-360,-1608,3,0,0,0,743.020020
-1661,758,3,0,0,0,713.616516
-1975,-858,3,0,0,0,666.407715
-5,504,3,0,0,0,1084.055786
-492,-1150,3,0,0,0,822.198242
-552,705,3,0,0,0,918.420105
-923,-793,3,0,0,0,830.113037
-1921,-1615,3,0,0,0,622.728821
-452,513,3,0,0,0,996.139648
-481,-654,3,0,0,0,946.642700
-1464,487,3,1,0,5,126.655975
-1825,-1894,3,0,0,0,609.385742
-610,-1135,3,0,0,0,813.657410
-917,-337,3,0,0,0,893.310608
-1824,-93,3,1,0,5,126.655975
-1792,-590,3,0,0,0,704.227295
-1863,922,3,0,0,0,676.491516
-1929,128,3,0,0,0,697.239380
-398,-1641,3,0,0,0,736.010071
-1604,1129,3,0,0,0,693.087280
-798,1286,3,0,0,0,767.425964
-1745,16,3,0,0,0,726.573303
-338,1353,3,0,0,0,790.925720
-92,-645,3,1,0,4,122.907288
-1582,1140,3,0,0,0,694.775818
-26,1151,3,0,0,0,846.049438
-893,1629,3,0,0,0,708.650513
-279,1345,3,0,0,0,795.274658
-1979,1783,3,0,0,0,605.781250
-449,1568,3,0,0,0,745.957397
-776,-294,3,0,0,0,940.327209
-1208,-1504,3,1,0,4,122.907288
-592,-1921,3,1,0,4,122.907288
-976,-312,3,1,0,4,122.907288
-301,-624,3,0,0,0,992.335266
-1103,1884,3,1,0,5,126.655975
-583,1142,3,0,0,0,815.073181
-1123,-852,3,0,0,0,787.843201
-1920,-268,3,0,0,0,696.445129
-1716,1411,3,0,0,0,657.489929
-1581,74,3,0,0,0,754.581421
-64,-836,3,0,0,0,937.350159
-1238,-880,3,0,0,0,766.398987
-1539,-1089,3,0,0,0,704.425232
-836,764,3,0,0,0,850.781128
-1763,1360,3,0,0,0,656.849487
-1127,418,3,1,0,5,126.655975
-313,57,3,0,0,0,1216.767944
-1339,-1015,3,0,0,0,737.432129
-514,-732,3,0,0,0,918.727234
-1452,-699,3,1,0,4,122.907288
-1959,-576,3,0,0,0,681.590698
-1031,-1083,3,1,0,4,122.907288
-1419,-1013,3,0,0,0,726.834961
-670,1387,3,0,0,0,762.372742
-1400,1137,3,1,0,5,126.655975
-1446,506,3,0,0,0,763.936951
-1217,-155,3,0,0,0,827.768799
-233,-669,3,0,0,0,985.912964
-1232,-777,3,0,0,0,778.434326
-331,1093,3,1,0,5,126.655975
-1703,809,3,1,0,5,126.655975
-330,850,3,0,0,0,913.186279
-257,-1636,3,0,0,0,741.586304
-314,-381,3,0,0,0,1090.014282
-1671,-1611,3,0,0,0,644.986755
-1963,-275,3,1,0,5,126.655975
-966,-230,3,0,0,0,888.621521
-838,-278,3,1,0,4,122.907288
-272,-1279,3,0,0,0,809.434387
-1856,1939,3,1,0,5,126.655975
-698,865,3,0,0,0,856.171509
-597,230,3,0,0,0,1015.291077
-655,-28,3,0,0,0,1008.246887
-531,1493,3,0,0,0,754.239563
-1835,-1760,3,1,0,4,122.907288
-670,87,3,0,0,0,999.572937
-230,411,3,0,0,0,1103.612305
-610,-964,3,1,0,4,122.907288
-1443,1090,3,0,0,0,716.355835
-1979,-412,3,1,0,5,126.655975
-502,-1250,3,0,0,0,800.893982
-1423,1877,3,0,0,0,640.801392
-219,1403,3,1,0,5,126.655975
-1086,493,3,0,0,0,835.893250
-1918,-1177,3,0,0,0,653.821960
-1879,-109,3,0,0,0,704.906372
-512,-1466,3,1,0,4,122.907288
-1258,-1142,3,0,0,0,734.238525
-1399,-104,3,0,0,0,789.224670
-1234,-511,3,0,0,0,803.340637
-497,-219,3,0,0,0,1062.517700
-562,-1696,3,0,0,0,719.818420
-1919,-769,3,0,0,0,678.052551
-1079,1546,3,0,0,0,704.428711
-1484,276,3,0,0,0,768.190613
-1316,595,3,0,0,0,780.869568
-779,-1305,3,0,0,0,766.223450
-380,-1211,3,1,0,4,122.907288
-926,309,3,0,0,0,893.537231
-1756,433,3,1,0,5,126.655975
-1785,-1922,3,1,0,4,122.907288
-350,-1477,3,1,0,4,122.907288
-1401,870,3,0,0,0,742.785950
-114,834,3,0,0,0,936.215149
-1607,655,3,0,0,0,728.173523
-791,-1883,3,0,0,0,681.525146
-7,-1014,3,0,0,0,882.590210
-174,-982,3,0,0,0,887.379517
-508,341,3,0,0,0,1028.162231
-1551,1215,3,0,0,0,691.814697
-1135,1366,3,0,0,0,721.537964
-448,1215,3,0,0,0,812.227051
-1049,228,3,1,0,5,126.655975
-572,877,3,0,0,0,873.363647
-807,639,3,1,0,5,126.655975
-365,783,3,0,0,0,928.736084
-704,1363,3,0,0,0,763.544067
-1222,233,3,1,0,5,126.655975
-1406,-440,3,1,0,4,122.907288
-724,-1431,3,1,0,4,122.907288
-611,-1423,3,0,0,0,760.833374
-61,-829,3,0,0,0,939.836487
-376,-980,3,0,0,0,872.648315
-1197,-838,3,1,0,4,122.907288
-925,-744,3,0,0,0,837.242798
-1437,243,3,1,0,5,126.655975
-1434,1223,3,0,0,0,704.520325
-13,1143,3,0,0,0,848.110962
-194,-591,3,1,0,4,122.907288
-671,1034,3,0,0,0,826.410461
-674,598,3,0,0,0,916.607849
-1666,-402,3,0,0,0,731.755371
-967,1573,3,0,0,0,710.390503
-1060,1574,3,1,0,5,126.655975
-1813,826,3,0,0,0,688.628662
-1964,1589,3,0,0,0,620.849060
-1375,1105,3,0,0,0,723.483521
-1404,-1685,3,0,0,0,661.156433
-298,-1888,3,0,0,0,700.496094
-986,1730,3,0,0,0,688.778198
-1340,715,3,0,0,0,766.412598
-60,-1185,3,0,0,0,837.379211
-50,936,3,0,0,0,905.235168
-367,-1298,3,0,0,0,800.499390
-142,1300,3,0,0,0,809.405823
-1482,1800,3,0,0,0,643.702026
-1239,-1032,3,0,0,0,749.234680
-1743,-800,3,0,0,0,699.531494
-528,-1099,3,0,0,0,829.550110
-370,353,3,0,0,0,1079.878052
-163,1150,3,0,0,0,843.511414
-1318,966,3,0,0,0,745.416382
-71,-1755,3,0,0,0,724.713135
-1311,677,3,0,0,0,774.726074
-564,-804,3,0,0,0,891.801880
-970,1010,3,0,0,0,789.737793
-1985,-1745,3,0,0,0,608.007812
-271,-110,3,1,0,0,313.056702
-1907,765,3,0,0,0,679.804321
-521,-1416,3,0,0,0,768.312439
-507,153,3,0,0,0,1069.791626
-1941,-681,3,0,0,0,679.487610
-1253,597,3,0,0,0,792.293945
-1296,696,3,0,0,0,775.587280
-1905,1202,3,0,0,0,653.546692
-75,-408,3,1,0,4,122.907288
-809,1254,3,0,0,0,771.468750
-1542,-1449,3,0,0,0,671.406128
-187,-1239,3,0,0,0,821.691284
-178,194,3,0,0,0,1271.370239
-787,-114,3,0,0,0,952.603271
-1563,1493,3,1,0,5,126.655975
-1261,663,3,0,0,0,784.791992
-1716,496,3,0,0,0,719.889648
-139,-1569,3,1,0,4,122.907288
-1239,-376,3,0,0,0,812.263916
-1536,952,3,0,0,0,716.563965
-1128,-1587,3,1,0,4,122.907288


each generation good chromosome number
10,10,10,