each times' max average throughput
470.912567,0.000000,0.000000,552.675415,0.000000,0.000000,0.000000,476.696808,0.000000,565.546143,0.000000,0.000000,0.000000,0.000000,460.111511,0.000000,0.000000,441.175446,0.000000,0.000000,556.713379,538.860901,0.000000,0.000000,0.000000,0.000000,486.710083,0.000000,0.000000,435.447052,543.917114,0.000000,555.978088,484.312500,574.520874,0.000000,0.000000,0.000000,0.000000,487.071167,0.000000,0.000000,0.000000,0.000000,0.000000,0.000000,469.160583,487.304230,498.542786,467.890869,484.479126,0.000000,550.796143,0.000000,0.000000,568.124329,476.347961,0.000000,557.782227,557.392456,456.663300,0.000000,0.000000,573.696289,462.402496,0.000000,0.000000,557.611267,0.000000,0.000000,0.000000,0.000000,0.000000,0.000000,0.000000,0.000000,500.340179,475.479614,0.000000,566.355652,0.000000,0.000000,474.305298,0.000000,444.616669,568.921326,434.323395,447.875366,492.918274,0.000000,0.000000,0.000000,560.028870,0.000000,0.000000,0.000000,0.000000,0.000000,545.244751,439.197815,
avg. throughput in all test times
207.484497
avg. BS TX power in all test times
MBS area 1,MBS area 2,MBS area 3,MBS area 4,MBS area 5,MBS area 6,CBSD 1,CBSD 2,CBSD 3,CBSD 4,CBSD 5,CBSD 6,CBSD 7,
6.762,6.625,6.725,7.088,6.925,7.100,0.115,0.039,0.083,0.070,0.096,0.050,0.019,
avg. mbs all power,avg. cbsd enable number,avg. mbs area all power,avg. cbsd all power
46.325,0.000,41.225,0.471
avg. max avg. throughput generation number in all test times
0.340000
avg. number of relay UE
108

the max average throughput times

BS TX power
MBS area 1,MBS area 2,MBS area 3,MBS area 4,MBS area 5,MBS area 6,CBSD 1,CBSD 2,CBSD 3,CBSD 4,CBSD 5,CBSD 6,CBSD 7,
6.250,5.000,7.500,7.500,5.000,5.000,0.875,0.000,0.000,0.000,0.000,0.000,0.000,
max average throughput
439.197815

x,y,area,be blocked (1 : NLOS / 0 : LOS),be blocked number (>=1 : CBSD(x) / 0 : no),connect bs number (>=1 : CBSD / 0 : MBS),throughput (unit : M bps)
24,1130,1,0,0,0,783.785645
1394,524,2,0,0,0,672.744629
-1621,874,3,0,0,1,44.982265
-639,1858,4,0,0,1,44.982265
-1103,-297,5,1,0,1,44.982265
1102,-110,6,0,0,0,757.593262
170,360,1,0,0,0,1084.306274
1589,1139,2,0,0,0,595.197937
-1651,122,3,0,0,1,44.982265
-711,1002,4,1,0,1,44.982265
-1548,-1430,5,0,0,0,573.921692
647,-1338,6,0,0,0,673.323059
826,859,1,0,0,0,768.580566
1454,344,2,1,0,1,44.982265
-1374,1320,3,1,0,1,44.982265
-163,1741,4,0,0,0,684.802002
-1089,-1397,5,1,0,1,44.982265
516,-614,6,0,0,0,850.342896
208,1235,1,0,0,0,754.321228
744,182,2,0,0,0,863.593872
-1843,1071,3,0,0,1,44.982265
-169,896,4,0,0,0,871.772217
-1172,-1785,5,0,0,0,570.191650
169,-54,6,0,0,0,1285.265869
446,577,1,0,0,0,909.839050
1907,96,2,0,0,0,601.906189
-1349,1104,3,0,0,1,44.982265
-26,539,4,0,0,0,1022.900513
-1263,-1522,5,0,0,0,591.916626
1272,-834,6,0,0,0,666.706848
706,1904,1,0,0,0,616.121094
1913,422,2,1,0,1,44.982265
-1420,524,3,1,0,1,44.982265
-808,1261,4,1,0,1,44.982265
-99,-509,5,1,0,1,44.982265
358,-1158,6,0,0,0,731.701965
985,1346,1,1,0,1,44.982265
1587,347,2,0,0,0,647.918701
-904,685,3,0,0,1,44.982265
-8,1796,4,0,0,0,677.153015
-438,-820,5,1,0,1,44.982265
1128,-1171,6,1,0,1,44.982265
4,1389,1,1,0,1,44.982265
1353,384,2,0,0,0,689.102112
-508,86,3,0,0,0,1036.239746
-407,1874,4,0,0,1,44.982265
-406,-850,5,0,0,0,804.084167
463,-34,6,0,0,0,1007.831116
493,1919,1,0,0,0,623.124939
1693,1378,2,0,0,0,563.962341
-1936,1690,3,0,0,1,44.982265
-629,789,4,1,0,1,44.982265
-390,-1209,5,1,0,1,44.982265
307,-1107,6,1,0,1,44.982265
1089,1685,1,0,0,0,619.561035
601,101,2,0,0,0,929.414978
-1649,1459,3,1,0,1,44.982265
-1483,1515,4,0,0,1,44.982265
-1787,-1661,5,1,0,1,44.982265
416,-220,6,0,0,0,1003.918335
427,1302,1,0,0,0,728.527344
931,679,2,0,0,0,746.206909
-1879,691,3,0,0,1,44.982265
-1059,1583,4,0,0,1,44.982265
-86,-1999,5,0,0,0,588.627869
2,-60,6,1,0,0,881.227661
768,819,1,1,0,1,44.982265
1665,104,2,0,0,0,640.338745
-473,425,3,0,0,0,975.584778
-283,288,4,0,0,0,1106.530396
-1442,-1523,5,0,0,0,575.276978
1403,-922,6,0,0,0,638.534180
61,1770,1,1,0,1,44.982265
1348,133,2,0,0,0,699.861389
-1871,1574,3,1,0,1,44.982265
-191,647,4,0,0,0,958.552063
-1862,-115,5,0,0,0,608.511475
1767,-345,6,0,0,0,618.627380
93,1290,1,1,0,1,44.982265
1719,1625,2,0,0,0,541.288391
-562,107,3,0,0,0,1006.056396
-911,1757,4,1,0,1,44.982265
-1564,-1096,5,0,0,0,601.849792
428,-1826,6,0,0,0,607.000610
294,1916,1,1,0,1,44.982265
486,337,2,1,0,1,44.982265
-1581,1181,3,0,0,1,44.982265
-134,533,4,0,0,0,1017.627808
-648,-298,5,1,0,1,44.982265
836,-878,6,0,0,0,731.638550
293,868,1,0,0,0,844.177551
1051,286,2,0,0,0,762.365173
-1529,208,3,1,0,1,44.982265
-480,1509,4,0,0,1,44.982265
-290,-738,5,1,0,1,44.982265
372,-482,6,0,0,0,929.684509
682,1968,1,0,0,0,608.910278
1679,827,2,0,0,0,607.587341
-1792,1459,3,0,0,1,44.982265
-836,1390,4,0,0,1,44.982265
-1071,-787,5,0,0,0,705.299011
1088,-230,6,0,0,0,756.411865
632,1914,1,0,0,0,618.235474
1097,214,2,0,0,0,754.961548
-270,124,3,0,0,0,1195.006836
-1167,1580,4,1,0,1,44.982265
-515,-743,5,0,0,0,815.906860
7,-1633,6,0,0,0,646.426208
980,1535,1,0,0,0,647.146606
1703,364,2,0,0,0,628.097229
-1284,417,3,0,0,1,44.982265
-1590,1681,4,0,0,1,44.982265
-1444,-1310,5,0,0,0,595.980164
769,-1112,6,0,0,0,700.399780
1645,1666,1,0,0,0,575.716248
1214,835,2,1,0,1,44.982265
-1330,342,3,1,0,1,44.982265
-208,1260,4,1,0,1,44.982265
-282,-830,5,1,0,1,44.982265
1500,-992,6,0,0,0,618.946106
1283,1306,1,0,0,0,645.645203
1813,76,2,0,0,0,616.387695
-1514,1489,3,0,0,1,44.982265
-998,1779,4,0,0,1,44.982265
-1986,-703,5,0,0,0,574.010986
936,-1582,6,1,0,1,44.982265
590,1468,1,1,0,1,44.982265
213,151,2,0,0,0,1173.804565
-330,264,3,0,0,0,1093.383179
-464,1136,4,0,0,1,44.982265
-1210,-137,5,0,0,0,730.367432
813,-1802,6,1,0,1,44.982265
1198,1745,1,0,0,0,604.330261
1521,161,2,1,0,1,44.982265
-917,850,3,0,0,1,44.982265
-1258,1860,4,0,0,1,44.982265
-917,-1103,5,1,0,1,44.982265
394,-1785,6,0,0,0,614.298706
450,1274,1,1,0,1,44.982265
1369,1230,2,0,0,0,612.370972
-1077,633,3,0,0,1,44.982265
-675,989,4,0,0,1,44.982265
-45,-696,5,0,0,0,890.557800
1270,-620,6,0,0,0,687.717712
745,1837,1,1,0,1,44.982265
1950,1886,2,0,0,0,502.819946
-1303,1007,3,0,0,1,44.982265
-1151,1277,4,0,0,1,44.982265
-475,-623,5,1,0,1,44.982265
137,-750,6,0,0,0,864.922363
1342,1368,1,0,0,0,632.620728
436,369,2,1,0,1,44.982265
-1753,226,3,0,0,1,44.982265
-1820,1873,4,0,0,1,44.982265
-51,-1295,5,0,0,0,712.513611
630,-1413,6,0,0,0,661.855774
540,1144,1,0,0,0,751.437073
1738,473,2,0,0,0,618.493164
-976,752,3,0,0,1,44.982265
-357,1656,4,1,0,1,44.982265
-734,-1623,5,0,0,0,621.663879
1024,-879,6,0,0,0,700.924377
1081,1719,1,0,0,0,616.125549
981,590,2,0,0,0,748.092712
-1987,837,3,0,0,1,44.982265
-501,1078,4,1,0,1,44.982265
-1467,-940,5,0,0,0,627.957092
1420,-937,6,0,0,0,634.748291
1066,1629,1,0,0,0,628.130493
1474,647,2,1,0,1,44.982265
-823,136,3,1,0,1,44.982265
-109,641,4,0,0,0,969.169617
-995,-1670,5,1,0,1,44.982265
1129,-714,6,0,0,0,703.845215
298,774,1,1,0,1,44.982265
1432,698,2,0,0,0,653.495300
-1983,898,3,0,0,1,44.982265
-860,1181,4,1,0,1,44.982265
-1837,-1196,5,0,0,0,562.784668
909,-1799,6,0,0,0,586.543152
862,1768,1,0,0,0,625.197693
474,40,2,0,0,0,1000.815063
-594,516,3,0,0,1,44.982265
-289,1669,4,0,0,1,44.982265
-658,-1470,5,0,0,0,650.378845
361,-1597,6,0,0,0,645.679749
45,886,1,0,0,0,853.425415
1981,638,2,1,0,1,44.982265
-530,495,3,0,0,1,44.982265
-1558,1680,4,0,0,1,44.982265
-71,-338,5,1,0,1,44.982265
1750,-1454,6,0,0,0,552.262634
625,1862,1,0,0,0,625.610413
1027,686,2,1,0,1,44.982265
-439,309,3,0,0,0,1024.390503
-28,811,4,0,0,0,905.331848
-357,-1675,5,1,0,1,44.982265
1214,-1447,6,0,0,0,604.988953
567,1019,1,0,0,0,774.811096
1869,380,2,0,0,0,602.230103
-1911,1007,3,0,0,1,44.982265
-1429,1536,4,0,0,1,44.982265
-1333,-556,5,0,0,0,681.501770
1832,-1328,6,0,0,0,553.819824
10,63,1,1,0,0,887.146301
1216,1100,2,0,0,0,645.258545
-1336,1146,3,0,0,1,44.982265
-109,927,4,1,0,1,44.982265
-859,-149,5,0,0,0,826.337952
1946,-608,6,0,0,0,583.304016
344,510,1,1,0,1,44.982265
503,142,2,0,0,0,973.670959
-1559,256,3,0,0,1,44.982265
-36,1497,4,0,0,0,729.212036
-1786,-1540,5,0,0,0,542.151733
29,-1883,6,0,0,0,605.830933
432,1447,1,0,0,0,700.678650
819,135,2,1,0,1,44.982265
-1836,1311,3,1,0,1,44.982265
-634,864,4,0,0,1,44.982265
-846,-1306,5,0,0,0,660.201965
766,-1203,6,0,0,0,685.116089
104,1149,1,0,0,0,777.888855
1358,455,2,0,0,0,683.909912
-1423,911,3,0,0,1,44.982265
-501,901,4,0,0,1,44.982265
-764,-955,5,1,0,1,44.982265
711,-1344,6,0,0,0,666.810974
1074,1309,1,1,0,1,44.982265
1019,690,2,0,0,0,727.345581
-787,572,3,0,0,1,44.982265
-583,1321,4,0,0,1,44.982265
-1773,-1643,5,0,0,0,535.196228
695,-174,6,0,0,0,882.820618
102,254,1,1,0,1,44.982265
556,498,2,1,0,1,44.982265
-1555,1294,3,0,0,1,44.982265
-666,797,4,0,0,1,44.982265
-1735,-1062,5,0,0,0,583.936523
1475,-926,6,0,0,0,628.078735
1846,1870,1,0,0,0,543.110229
1793,636,2,0,0,0,602.943298
-1807,750,3,0,0,1,44.982265
-869,896,4,0,0,1,44.982265
-1572,-1891,5,1,0,1,44.982265
1921,-1497,6,0,0,0,533.086731
967,1468,1,0,0,0,657.241150
1489,1227,2,0,0,0,598.946167
-1245,1085,3,0,0,1,44.982265
-729,1817,4,0,0,1,44.982265
-1973,-335,5,0,0,0,588.572754
1799,-150,6,0,0,0,617.857544
438,821,1,1,0,1,44.982265
1931,1326,2,0,0,0,544.048584
-1963,1711,3,0,0,1,44.982265
-44,1331,4,0,0,0,762.857666
-1817,-840,5,1,0,1,44.982265
964,-33,6,1,0,1,44.982265
1604,1797,1,1,0,1,44.982265
1910,26,2,0,0,0,601.792908
-1898,247,3,0,0,1,44.982265
-726,1551,4,0,0,1,44.982265
-1384,-81,5,1,0,1,44.982265
1065,-961,6,0,0,0,683.453674
0,1987,1,0,0,0,622.309265
1862,1280,2,0,0,0,554.216614
-1867,204,3,0,0,1,44.982265
-1289,1408,4,1,0,1,44.982265
-1610,-1520,5,0,0,0,559.945496
355,-1819,6,0,0,0,610.381470
674,998,1,0,0,0,765.567261
1227,243,2,1,0,1,44.982265
-1252,439,3,0,0,1,44.982265
-861,1055,4,0,0,1,44.982265
-1237,-329,5,0,0,0,716.072693
363,-1638,6,1,0,1,44.982265
870,1796,1,0,0,0,621.076294
1618,532,2,1,0,1,44.982265
-740,426,3,0,0,1,44.982265
-817,1124,4,1,0,1,44.982265
-1006,-227,5,0,0,0,778.057129
1697,-649,6,1,0,1,44.982265
287,1222,1,0,0,0,753.667358
396,382,2,1,0,1,44.982265
-1281,999,3,0,0,1,44.982265
-1297,1728,4,0,0,1,44.982265
-1895,-1826,5,1,0,1,44.982265
1717,-209,6,0,0,0,630.032837
316,1659,1,0,0,0,668.686218
1895,1609,2,0,0,0,527.311951
-530,267,3,1,0,1,44.982265
-1012,1400,4,0,0,1,44.982265
-1337,-1139,5,1,0,1,44.982265
754,-471,6,0,0,0,820.721863
24,720,1,0,0,0,913.366455
1936,365,2,1,0,1,44.982265
-1342,1010,3,0,0,1,44.982265
-299,1095,4,1,0,1,44.982265
-189,-845,5,1,0,1,44.982265
297,-1171,6,0,0,0,732.649475
440,1820,1,0,0,0,639.228577
1353,577,2,0,0,0,676.285889
-821,321,3,1,0,1,44.982265
-665,1620,4,0,0,1,44.982265
-326,-1238,5,0,0,0,716.027893
747,-1952,6,1,0,1,44.982265
81,462,1,1,0,1,44.982265
1590,708,2,1,0,1,44.982265
-491,316,3,0,0,0,1000.169983
-1257,1319,4,0,0,1,44.982265
-1979,-432,5,0,0,0,585.140869
683,-1187,6,0,0,0,696.723694
1869,1879,1,0,0,0,540.698914
159,138,2,0,0,0,1235.891479
-1229,990,3,1,0,1,44.982265
-1556,1843,4,0,0,1,44.982265
-884,-898,5,1,0,1,44.982265
34,-293,6,1,0,1,44.982265
1083,1832,1,0,0,0,602.788574
1739,1188,2,0,0,0,574.104736
-1923,1921,3,0,0,1,44.982265
-853,1622,4,0,0,1,44.982265
-3,-1721,5,0,0,0,631.464478
1820,-1759,6,0,0,0,522.254089
651,916,1,0,0,0,785.438965
1944,1385,2,0,0,0,538.749146
-900,874,3,1,0,1,44.982265
-986,1652,4,0,0,1,44.982265
-878,-320,5,0,0,0,806.378296
144,-1394,6,0,0,0,690.124939
356,939,1,0,0,0,817.767456
541,102,2,1,0,1,44.982265
-514,67,3,0,0,0,1034.498901
-1171,1346,4,0,0,1,44.982265
-712,-708,5,0,0,0,785.734497
1323,-695,6,0,0,0,671.746765
390,681,1,1,0,1,44.982265
312,153,2,0,0,0,1091.352051
-800,232,3,0,0,1,44.982265
-241,1286,4,0,0,1,44.982265
-35,-1885,5,1,0,1,44.982265
43,-1181,6,0,0,0,738.960510
96,1354,1,0,0,0,731.224976
1164,661,2,0,0,0,703.254150
-1787,117,3,0,0,0,677.980713
-1210,-271,5,0,0,0,725.177673
24,-618,6,0,0,0,925.174133
1629,1953,1,0,0,0,552.326111
1570,178,2,0,0,0,655.833862
-1271,537,3,1,0,1,44.982265
-1835,-238,5,0,0,0,610.834045
1233,-792,6,0,0,0,677.345825
1166,1978,1,0,0,0,581.237610
901,38,2,0,0,0,816.617310
-1700,404,3,1,0,1,44.982265
-469,-965,5,0,0,0,766.690002
185,-1575,6,0,0,0,654.793274
1399,1603,1,0,0,0,602.860718
1833,566,2,0,0,0,600.573303
-1426,1032,3,1,0,1,44.982265
-1957,-912,5,0,0,0,567.068481
525,-913,6,0,0,0,772.024963
1067,421,2,0,0,0,747.517151
-1989,1282,3,0,0,1,44.982265
-1620,-470,5,0,0,0,637.185059
526,-1642,6,0,0,0,630.936890
1651,1202,2,0,0,0,582.826477
-1496,1171,3,0,0,1,44.982265
-1369,-1239,5,0,0,0,611.441284
1478,-32,6,0,0,0,674.841553
1299,586,2,0,0,0,685.338928
-1739,1640,3,0,0,1,44.982265
-512,-446,5,0,0,0,898.273132
183,-704,6,0,0,0,878.455444
1564,1199,2,0,0,0,592.934387
-1078,1024,3,0,0,1,44.982265
-60,-1310,5,1,0,1,44.982265
1237,-172,6,0,0,0,723.121948
1974,1514,2,1,0,1,44.982265
-910,311,3,0,0,1,44.982265
-1213,-1593,5,0,0,0,588.429016
213,-80,6,1,0,1,44.982265
1904,1629,2,0,0,0,525.080017
-1671,979,3,0,0,1,44.982265
-488,-1537,5,0,0,0,650.013428
1738,-207,6,0,0,0,626.658752
1370,662,2,0,0,0,666.607971
-1414,796,3,0,0,1,44.982265
-1865,-1289,5,1,0,1,44.982265
302,-23,6,0,0,0,1130.988770
974,645,2,0,0,0,742.275146
-1706,124,3,0,0,1,44.982265
-555,-1473,5,0,0,0,656.914673
806,-803,6,0,0,0,749.856934
1046,274,2,0,0,0,764.461975
-832,84,3,0,0,0,896.680908
-1934,-579,5,0,0,0,586.093262
843,-128,6,0,0,0,832.730957
1990,748,2,0,0,0,571.444824
-941,250,3,1,0,1,44.982265
-1400,-852,5,0,0,0,645.404663
1184,-509,6,1,0,1,44.982265
1778,740,2,1,0,1,44.982265
-1780,334,3,1,0,1,44.982265
-1089,-1379,5,0,0,0,625.544373
346,-526,6,1,0,1,44.982265
1846,1676,2,0,0,0,526.478027
-1803,-1877,5,1,0,1,44.982265
1704,-1650,6,0,0,0,540.521729
-1314,-825,5,0,0,0,661.037781
1631,-1071,6,0,0,0,595.757751
-1378,-805,5,0,0,0,652.985596
295,-428,6,0,0,0,975.243042
-718,-1154,5,0,0,0,698.893555
1431,-1851,6,1,0,1,44.982265
-330,-1937,5,0,0,0,593.771057
1345,-771,6,1,0,1,44.982265
-1937,-1893,5,1,0,1,44.982265
1193,-720,6,0,0,0,691.760376
-1500,-815,5,0,0,0,633.774048
318,-1216,6,0,0,0,721.293823
-1244,-366,5,1,0,1,44.982265
825,-474,6,0,0,0,801.203491
-1454,-295,5,0,0,0,673.822937
1123,-1002,6,0,0,0,669.727783
-1368,-1610,5,0,0,0,573.212158
390,-335,6,0,0,0,978.415527
-1553,-1237,5,0,0,0,590.820984
1889,-656,6,0,0,0,588.796021
-662,-426,5,0,0,0,855.705139
1436,-1024,6,0,0,0,624.482910
-648,-780,5,0,0,0,782.899719
178,-808,6,0,0,0,841.391724
-1613,-217,5,0,0,0,647.385681
1854,-1118,6,0,0,0,566.292297
-298,-1674,5,0,0,0,634.910278
382,-1453,6,0,0,0,670.233337
-846,-1988,5,1,0,1,44.982265
708,-1382,6,0,0,0,660.802734
-110,-1217,5,0,0,0,729.373230
208,-75,6,0,0,0,1221.755371
-841,-666,5,0,0,0,766.733398
659,-746,6,0,0,0,788.236877
-1290,-1140,5,0,0,0,631.375610
1450,-889,6,0,0,0,634.824402
-439,-734,5,0,0,0,831.854492
1916,-1815,6,0,0,0,510.525299
-1284,-1112,5,0,0,0,635.200439
643,-742,6,0,0,0,792.174072
-695,-1830,5,0,0,0,594.838867
1690,-1403,6,0,0,0,562.211609
-1627,-1774,5,0,0,0,536.376221
404,-1424,6,0,0,0,674.483521
-1225,-766,5,1,0,1,44.982265
878,-896,6,0,0,0,721.846375
-882,-454,5,1,0,1,44.982265
1304,-1831,6,0,0,0,555.675049
-980,-1372,5,0,0,0,637.310974
1268,-634,6,0,0,0,686.826904
-1509,-1600,5,1,0,1,44.982265
246,-1215,6,1,0,1,44.982265
-1859,-115,5,0,0,0,608.968201
1050,-117,6,0,0,0,771.122437
-1206,-1121,5,1,0,1,44.982265
482,-1921,6,1,0,1,44.982265
-1475,-1939,5,0,0,0,532.989319
903,-881,6,0,0,0,720.228271
-1778,-337,5,0,0,0,617.162720
340,-15,6,1,0,1,44.982265
-933,-280,5,1,0,1,44.982265
1152,-1066,6,0,0,0,657.740479
-1961,-996,5,1,0,1,44.982265
863,-540,6,0,0,0,781.777405
1390,-1156,6,0,0,0,617.441895
1431,-1448,6,1,0,1,44.982265
228,-454,6,0,0,0,981.850159
838,-1297,6,0,0,0,662.394897
1147,-935,6,0,0,0,674.559082
1973,-402,6,0,0,0,586.834839
1549,-1670,6,0,0,0,551.944336
592,-178,6,0,0,0,925.306763
1222,-423,6,1,0,1,44.982265
392,-1291,6,0,0,0,700.992981
435,-1479,6,1,0,1,44.982265
536,-356,6,1,0,1,44.982265
419,-1767,6,0,0,0,616.167297
1043,-1968,6,0,0,0,558.273254
1459,-996,6,0,0,0,624.024719
905,-785,6,0,0,0,735.046875
1601,-491,6,0,0,0,639.254883
658,-1353,6,0,0,0,669.826172
1855,-169,6,1,0,1,44.982265
856,-1992,6,1,0,1,44.982265
70,-998,6,0,0,0,786.778992
841,-945,6,0,0,0,719.444153
1621,-1539,6,1,0,1,44.982265
561,-1178,6,0,0,0,710.584229
7,-890,6,1,0,1,44.982265
988,-191,6,0,0,0,785.106628
80,-457,6,0,0,0,1008.015930


each generation good chromosome number
0,1,1,