each times' max average throughput
644.386414,648.875366,664.367126,661.629150,649.335266,651.528442,665.006104,673.541748,644.125793,670.322021,657.698120,645.409119,641.786194,670.032837,648.876770,649.125183,649.266113,655.250610,676.346863,666.349304,673.484680,651.837769,657.430542,662.479980,645.880249,657.116638,655.273987,660.655334,675.658752,637.980774,665.911560,671.083984,662.134766,655.354431,671.687256,664.978271,663.120178,661.209839,657.032349,647.771973,661.628418,670.410950,661.461121,635.456299,652.340210,659.203186,662.351501,651.992249,661.036621,673.541748,659.134399,676.346863,651.592407,664.870544,667.600830,665.258606,659.657593,647.080994,654.399963,645.645020,655.047852,669.885803,671.945251,646.100464,662.504944,652.219116,666.861694,629.271545,660.854980,671.826660,653.441589,655.759827,674.050842,660.116333,651.027161,664.393982,673.492126,651.059204,646.796997,663.806824,670.761169,642.541931,667.330444,672.330872,652.867554,657.639709,656.785645,657.728821,646.851501,663.242798,666.861694,660.505066,656.852661,643.034973,625.960876,643.280762,659.083984,659.083984,656.785645,660.036926,
avg. throughput in all test times
658.123962
avg. BS TX power in all test times
MBS area 1,MBS area 2,CBSD 1,CBSD 2,CBSD 3,CBSD 4,CBSD 5,
9.150,9.400,0.274,0.316,0.237,0.428,0.335,
avg. mbs all power,avg. cbsd enable number,avg. mbs area all power,avg. cbsd all power
34.525,2.000,18.550,1.590
avg. max avg. throughput generation number in all test times
0.850000
avg. number of relay UE
25

the max average throughput times

BS TX power
MBS area 1,MBS area 2,CBSD 1,CBSD 2,CBSD 3,CBSD 4,CBSD 5,
10.000,8.750,0.000,0.875,0.000,0.500,0.000,
max average throughput
660.036926

x,y,area,be blocked (1 : NLOS / 0 : LOS),be blocked number (>=1 : CBSD(x) / 0 : no),connect bs number (>=1 : CBSD / 0 : MBS),throughput (unit : M bps)
1073,645,1,0,0,0,821.942139
-651,-114,2,0,0,0,986.677002
1834,-324,1,0,0,0,707.928772
-1117,-399,2,0,0,0,818.272400
1305,-703,1,0,0,0,773.400696
-1121,1312,2,1,0,2,208.904053
933,1374,1,1,0,2,488.202698
-2000,251,2,1,0,4,186.100876
297,-598,1,0,0,0,1002.977417
-357,-1158,2,0,0,0,812.119202
995,-559,1,0,0,0,848.564331
-1378,-1219,2,0,0,0,692.310608
1967,-1297,1,0,0,0,640.717712
-1139,591,2,1,0,2,209.089752
371,1973,1,0,0,0,686.442749
-1815,-1690,2,0,0,0,607.121704
1682,1390,1,1,0,2,329.199585
-4,-1510,2,0,0,0,748.920410
1575,-1061,1,0,0,0,702.349792
-761,912,2,1,0,2,256.620300
390,888,1,0,0,0,895.409668
-1067,-1125,2,1,0,4,475.886597
1896,515,1,0,0,0,692.619995
-1442,-1824,2,0,0,0,625.462585
11,612,1,0,0,0,1028.039185
-1771,-1187,2,0,0,0,650.185608
1749,-1313,1,0,0,0,661.974182
-1095,1820,2,0,0,0,651.256409
684,-1807,1,0,0,0,697.405029
-708,-1062,2,0,0,0,797.193604
250,-1051,1,0,0,0,864.358643
-1683,-1333,2,0,0,0,648.191833
1529,-1650,1,0,0,0,653.926270
-1527,-469,2,0,0,0,732.781494
823,1274,1,0,0,0,766.812622
-419,-609,2,0,0,0,954.405396
941,44,1,0,0,0,903.796875
-450,939,2,1,0,2,304.864319
1487,333,1,0,0,0,765.467651
-1812,-224,2,0,0,0,694.497009
630,1100,1,0,0,0,818.359497
-628,1046,2,0,0,0,810.166138
695,1744,1,0,0,0,705.634094
-658,-1151,2,0,0,0,786.273010
1330,-868,1,0,0,0,753.594482
-1363,-1696,2,0,0,0,644.381165
1792,-1045,1,0,0,0,677.073914
-1219,861,2,0,0,0,752.284241
1535,1915,1,1,0,2,288.119995
-1860,-1428,2,1,0,4,241.873413
63,-1935,1,0,0,0,696.827515
-916,-1907,2,0,0,0,652.390686
949,1226,1,0,0,0,760.509094
-1113,1231,2,0,0,0,721.838318
306,-1234,1,1,0,4,263.848114
-462,-1688,2,0,0,0,706.621887
1467,-369,1,0,0,0,767.573242
-1167,-1543,2,1,0,4,333.012390
594,668,1,0,0,0,918.900330
-1037,364,2,0,0,0,840.207031
916,1012,1,1,0,2,686.892822
-872,1391,2,0,0,0,724.934692
886,1081,1,0,0,0,790.284180
-1204,-897,2,0,0,0,750.558899
1994,-575,1,1,0,2,205.884293
-373,1450,2,0,0,0,751.362976
1011,-302,1,0,0,0,871.147461
-1325,1943,2,0,0,0,622.220459
1247,-1462,1,0,0,0,698.971985
-1772,1371,2,0,0,0,636.034851
913,-674,1,0,0,0,850.192993
-468,-1017,2,0,0,0,834.894470
1561,225,1,1,0,2,328.991302
-1991,-1767,2,1,0,4,200.592285
558,-661,1,0,0,0,928.356018
-1291,970,2,1,0,2,196.580246
210,-1347,1,1,0,4,271.835175
-1073,-873,2,1,0,4,533.092957
897,-84,1,1,0,2,342.810699
-1525,-46,2,0,0,0,745.954895
1665,-1181,1,0,0,0,681.675354
-1325,-1907,2,0,0,0,625.833801
596,107,1,0,0,0,1031.150513
-1121,802,2,0,0,0,775.109009
179,-42,1,0,0,0,1374.962891
-465,-1619,2,1,0,4,330.038727
1761,282,1,1,0,2,304.363068
-951,360,2,0,0,0,862.567993
1854,1368,1,0,0,0,647.088989
-783,738,2,0,0,0,846.305176
1032,-1720,1,0,0,0,686.689453
-1742,1919,2,0,0,0,594.601013
1295,1369,1,0,0,0,704.556519
-1250,510,2,1,0,4,212.756592
670,-1661,1,0,0,0,719.121704
-1661,1622,2,0,0,0,625.898804
177,-1497,1,1,0,4,262.605194
-679,-653,2,0,0,0,884.566040
498,1296,1,1,0,2,509.781952
-40,-291,2,0,0,0,1220.537842


each generation good chromosome number
10,10,10,