428.037109,422.795776,427.867462,427.565247,423.984558,422.265686,427.933258,427.274414,424.813171,425.304413,

avg. max avg. throughput in test times
425.784119
avg. BS TX power in all test times
MBS area 1,MBS area 2,MBS area 3,MBS area 4,CBSD 1,CBSD 2,CBSD 3,CBSD 4,CBSD 5,CBSD 6,CBSD 7,CBSD 8,CBSD 9,CBSD 10,CBSD 11,CBSD 12,CBSD 13,CBSD 14,CBSD 15,CBSD 16,CBSD 17,CBSD 18,CBSD 19,CBSD 20,CBSD 21,CBSD 22,
10.000,10.000,10.000,10.000,0.100,0.100,0.100,0.200,0.300,0.100,0.400,0.200,0.100,0.200,0.300,0.100,0.300,0.100,0.200,0.100,0.000,0.100,0.500,0.200,0.100,0.200,
avg. mbs all power,avg. cbsd enable number,avg. mbs area all power,avg. cbsd all power
70.000,4.000,40.000,4.000
avg. number of relay UE
1353

BS TX power
MBS area 1,MBS area 2,MBS area 3,MBS area 4,CBSD 1,CBSD 2,CBSD 3,CBSD 4,CBSD 5,CBSD 6,CBSD 7,CBSD 8,CBSD 9,CBSD 10,CBSD 11,CBSD 12,CBSD 13,CBSD 14,CBSD 15,CBSD 16,CBSD 17,CBSD 18,CBSD 19,CBSD 20,CBSD 21,CBSD 22,
10.000,10.000,10.000,10.000,0.000,0.000,0.000,1.000,0.000,0.000,0.000,0.000,0.000,0.000,1.000,0.000,0.000,1.000,0.000,0.000,0.000,1.000,0.000,0.000,0.000,0.000,
max average power
425.304413

x,y,area,be blocked (1 : NLOS / 0 : LOS),be blocked number (>=1 : CBSD(x) / 0 : no),connect bs number (>=1 : CBSD / 0 : MBS),throughput (unit : M bps)
992,1044,1,0,0,0,781.690063
-1702,1373,2,0,0,14,13.883527
-2000,-326,3,1,0,4,23.915457
785,-1672,4,0,0,11,31.394306
801,224,1,0,0,0,939.666687
-511,1069,2,0,0,0,837.782532
-659,-14,3,0,0,0,1006.689880
1612,-642,4,0,0,0,728.210083
376,1323,1,0,0,0,794.906616
-1554,1736,2,1,0,14,13.883527
-1109,-1072,3,0,0,0,761.986206
483,-406,4,1,0,11,31.394306
145,1297,1,0,0,0,809.989624
-1224,95,2,0,0,0,827.569519
-1895,-561,3,0,0,4,23.915457
36,-900,4,0,0,0,916.711548
1723,1389,1,0,0,14,13.883527
-417,172,2,0,0,0,1116.062622
-1207,-864,3,0,0,0,773.001892
614,-1422,4,1,0,11,31.394306
158,268,1,0,0,0,1223.223267
-745,261,2,1,0,4,23.915457
-276,-1229,3,0,0,0,820.185913
269,-1760,4,0,0,11,31.394306
1690,625,1,1,0,14,13.883527
-358,1433,2,0,0,0,774.422607
-1130,-1392,3,0,0,4,23.915457
1525,-750,4,0,0,0,734.169312
611,926,1,1,0,14,13.883527
-618,1118,2,0,0,0,816.144531
-938,-412,3,0,0,0,879.633057
98,-743,4,0,0,0,969.689331
1656,1454,1,1,0,14,13.883527
-283,549,2,0,0,0,1025.436890
-93,-603,3,0,0,0,1028.968262
1101,-78,4,0,0,0,858.182312
1934,555,1,0,0,14,13.883527
-163,1252,2,0,0,0,819.511780
-422,-348,3,0,0,0,1060.470703
539,-1672,4,1,0,11,31.394306
927,1658,1,1,0,14,13.883527
-1686,503,2,1,0,4,23.915457
-1257,-1490,3,0,0,4,23.915457
80,-1659,4,0,0,0,740.744812
668,1156,1,0,0,0,803.446655
-1599,664,2,0,0,0,728.830811
-1672,-735,3,1,0,4,23.915457
1561,-567,4,0,0,0,740.769226
629,1557,1,1,0,14,13.883527
-1488,562,2,0,0,0,753.159180
-666,-1391,3,0,0,0,762.024048
766,-442,4,0,0,0,921.986328
1930,733,1,0,0,14,13.883527
-221,752,2,0,0,0,956.768616
-896,-753,3,0,0,0,841.315125
912,-1387,4,0,0,0,740.909546
220,786,1,1,0,14,13.883527
-1004,1828,2,1,0,14,13.883527
-802,-566,3,1,0,4,23.915457
1165,-1745,4,1,0,11,31.394306
552,69,1,0,0,0,1055.601440
-517,864,2,0,0,0,884.629028
-1057,-1232,3,0,0,0,747.320312
1524,-1946,4,0,0,11,31.394306
1450,221,1,0,0,0,776.431946
-187,560,2,0,0,0,1038.446777
-435,-258,3,1,0,4,23.915457
325,-850,4,0,0,0,913.754761
1903,1157,1,1,0,14,13.883527
-1502,1155,2,0,0,14,13.883527
-735,-1407,3,0,0,0,753.733887
1470,-1834,4,1,0,11,31.394306
221,520,1,0,0,0,1051.117432
-1626,1727,2,0,0,14,13.883527
-1734,-519,3,0,0,4,23.915457
1290,-11,4,1,0,14,13.883527
667,1478,1,1,0,14,13.883527
-493,1084,2,1,0,14,13.883527
-1218,-685,3,0,0,0,790.343506
635,-767,4,1,0,11,31.394306
1808,1240,1,1,0,14,13.883527
-1935,1134,2,1,0,14,13.883527
-457,-1943,3,0,0,4,23.915457
1919,-120,4,0,0,14,13.883527
633,1376,1,0,0,0,767.208801
-265,1066,2,1,0,14,13.883527
-1402,-1623,3,0,0,4,23.915457
1773,-1532,4,0,0,11,31.394306
1021,196,1,0,0,0,875.407410
-1258,577,2,0,0,0,793.111267
-257,-871,3,0,0,0,914.353333
699,-816,4,0,0,0,865.926331
1871,116,1,1,0,14,13.883527
-342,76,2,0,0,0,1188.960815
-197,-1200,3,1,0,4,23.915457
1448,-1113,4,0,0,11,31.394306
187,931,1,1,0,14,13.883527
-781,1130,2,1,0,14,13.883527
-1065,-1368,3,0,0,0,728.451050
252,-213,4,1,0,11,31.394306
1475,414,1,0,0,0,763.932861
-187,763,2,0,0,0,956.115112
-467,-101,3,0,0,0,1099.467285
632,-1294,4,0,0,0,781.699646
985,942,1,0,0,0,797.521790
-5,1884,2,0,0,14,13.883527
-1490,-1128,3,1,0,4,23.915457
1234,-1544,4,0,0,11,31.394306
1568,176,1,0,0,0,755.468506
-400,496,2,0,0,0,1016.455383
-1702,-356,3,0,0,0,727.600403
1083,-570,4,1,0,11,31.394306
98,782,1,0,0,0,955.186462
-1961,660,2,1,0,4,23.915457
-1383,-1025,3,1,0,4,23.915457
1159,-1101,4,0,0,0,751.720642
790,488,1,0,0,0,907.940430
-1133,784,2,0,0,0,794.403320
-1812,-1212,3,0,0,4,23.915457
673,-1841,4,1,0,11,31.394306
777,515,1,0,0,0,906.824341
-1173,1936,2,0,0,14,13.883527
-970,-1354,3,1,0,4,23.915457
879,-1633,4,0,0,11,31.394306
1139,1217,1,0,0,0,739.722900
-343,1107,2,0,0,0,844.149475
-1838,-1033,3,0,0,4,23.915457
627,-122,4,0,0,0,1015.748108
365,1988,1,0,0,14,13.883527
-854,35,2,1,0,4,23.915457
-1042,-1596,3,0,0,4,23.915457
1683,-1487,4,0,0,11,31.394306
1161,1374,1,0,0,14,13.883527
-497,710,2,0,0,0,927.813538
-1762,-1434,3,0,0,4,23.915457
1761,-79,4,1,0,14,13.883527
507,553,1,0,0,0,969.380493
-132,1907,2,0,0,14,13.883527
-82,-180,3,0,0,0,1353.882690
1204,-398,4,0,0,0,818.259216
130,465,1,1,0,14,13.883527
-1202,334,2,0,0,0,822.954285
-1711,-1886,3,0,0,4,23.915457
919,-498,4,0,0,0,873.856689
1033,90,1,0,0,0,876.164246
-1865,660,2,0,0,4,23.915457
-1155,-1080,3,0,0,0,754.845825
533,-1510,4,0,0,0,751.232666
934,1174,1,0,0,0,769.953125
-1450,174,2,0,0,0,777.676453
-327,-1347,3,0,0,0,792.673340
1212,-91,4,0,0,0,830.458374
18,47,1,0,0,0,1748.784912
-939,1920,2,0,0,14,13.883527
-1211,-1847,3,0,0,4,23.915457
1546,-974,4,0,0,11,31.394306
425,463,1,0,0,0,1020.422363
-1865,1070,2,1,0,14,13.883527
-598,-1058,3,0,0,0,830.483643
912,-1960,4,0,0,11,31.394306
546,1447,1,0,0,0,761.212585
-867,1305,2,0,0,0,757.493652
-1042,-52,3,1,0,4,23.915457
607,-1499,4,0,0,0,748.392639
329,555,1,0,0,0,1012.861633
-315,1783,2,0,0,14,13.883527
-862,-626,3,0,0,0,868.382507
1312,-462,4,1,0,11,31.394306
1108,911,1,0,0,0,782.831299
-420,78,2,0,0,0,1131.762817
-1321,-694,3,0,0,0,771.489441
1828,-1063,4,0,0,11,31.394306
628,234,1,0,0,0,1001.905884
-253,1882,2,1,0,14,13.883527
-319,-307,3,0,0,0,1121.451294
225,-963,4,0,0,0,889.803345
208,589,1,1,0,14,13.883527
-1336,1320,2,0,0,14,13.883527
-292,-1542,3,1,0,4,23.915457
1639,-1134,4,1,0,11,31.394306
1712,166,1,0,0,0,730.717773
-1330,865,2,0,0,0,753.890686
-1809,-1764,3,0,0,4,23.915457
720,-720,4,0,0,0,881.397644
824,1788,1,0,0,14,13.883527
-1179,1004,2,0,0,0,760.844971
-675,-933,3,0,0,0,845.980164
541,-991,4,0,0,0,851.661987
553,834,1,0,0,0,886.403564
-1500,1374,2,1,0,14,13.883527
-1425,-1025,3,1,0,4,23.915457
1895,-1055,4,0,0,11,31.394306
1544,1572,1,1,0,14,13.883527
-1753,1657,2,0,0,14,13.883527
-1151,-1167,3,0,0,0,744.537415
700,-1198,4,1,0,11,31.394306
1590,422,1,0,0,0,743.500488
-807,1071,2,0,0,0,802.184082
-1356,-679,3,1,0,4,23.915457
85,-1055,4,1,0,11,31.394306
246,1042,1,1,0,18,273.536560
-137,1156,2,0,0,0,842.869263
-40,-1658,3,0,0,0,741.167542
899,-630,4,0,0,0,859.748047
71,1812,1,1,0,14,13.883527
-1034,168,2,0,0,0,873.223816
-1673,-443,3,1,0,4,23.915457
599,-587,4,0,0,0,937.272705
65,759,1,0,0,0,964.981567
-1648,1168,2,1,0,14,13.883527
-926,-1714,3,1,0,4,23.915457
784,-73,4,0,0,0,955.451965
17,558,1,0,0,0,1054.585815
-1716,1261,2,0,0,14,13.883527
-185,-1693,3,0,0,0,733.557495
648,-159,4,0,0,0,1003.180481
1556,1337,1,1,0,14,13.883527
-1109,518,2,0,0,0,828.430481
-139,-1054,3,1,0,4,23.915457
521,-1473,4,0,0,0,758.287598
164,1331,1,1,0,14,13.883527
-1185,387,2,0,0,0,823.173035
-1491,-443,3,0,0,0,759.577454
1546,-1184,4,0,0,11,31.394306
1135,1266,1,0,0,0,734.027466
-486,660,2,0,0,0,943.888916
-535,-566,3,0,0,0,958.600891
1118,-1095,4,1,0,11,31.394306
302,255,1,0,0,0,1154.165283
-502,1674,2,0,0,0,726.150574
-735,-219,3,0,0,0,963.038086
663,-1587,4,0,0,0,730.735168
1031,887,1,0,0,0,798.130920
-861,84,2,0,0,0,928.338318
-772,-1911,3,0,0,4,23.915457
203,-587,4,1,0,11,31.394306
683,1683,1,1,0,14,13.883527
-731,789,2,0,0,0,865.624207
-1363,-1749,3,0,0,4,23.915457
633,-984,4,0,0,0,841.407654
1231,1243,1,0,0,0,725.863037
-1237,167,2,0,0,0,822.797424
-1754,-995,3,0,0,4,23.915457
352,-642,4,1,0,11,31.394306
848,1840,1,1,0,14,13.883527
-1606,447,2,1,0,4,23.915457
-1148,-338,3,0,0,0,834.915405
1081,-1405,4,0,0,11,31.394306
363,441,1,1,0,14,13.883527
-883,835,2,1,0,14,13.883527
-1741,-358,3,0,0,4,23.915457
1240,-453,4,0,0,0,806.688110
1003,1459,1,1,0,14,13.883527
-1764,173,2,0,0,4,23.915457
-581,-53,3,0,0,0,1041.878174
907,-1561,4,0,0,11,31.394306
748,287,1,0,0,0,950.453247
-145,460,2,1,0,14,13.883527
-608,-837,3,0,0,0,876.829285
61,-454,4,0,0,0,1111.621216
871,1071,1,0,0,0,793.848999
-288,1005,2,1,0,14,13.883527
-1511,-1457,3,0,0,4,23.915457
603,-1018,4,0,0,0,838.187805
863,1457,1,0,0,0,735.190918
-1653,1470,2,0,0,14,13.883527
-1787,-1321,3,0,0,4,23.915457
1138,-1501,4,1,0,11,31.394306
1397,13,1,1,0,14,13.883527
-896,1761,2,0,0,14,13.883527
-1157,-1532,3,0,0,4,23.915457
1463,-1905,4,0,0,11,31.394306
1134,1389,1,0,0,14,13.883527
-485,1574,2,1,0,14,13.883527
-1603,-1278,3,0,0,4,23.915457
885,-417,4,0,0,0,892.910461
895,133,1,0,0,0,915.400757
-211,855,2,1,0,14,13.883527
-129,-309,3,1,0,4,23.915457
1362,-1412,4,1,0,11,31.394306
860,1332,1,0,0,0,754.078979
-658,906,2,0,0,0,854.047729
-734,-1846,3,1,0,4,23.915457
997,-1545,4,0,0,11,31.394306
1613,439,1,0,0,0,738.895264
-1196,1213,2,1,0,14,13.883527
-1877,-492,3,0,0,4,23.915457
433,-348,4,1,0,11,31.394306
739,639,1,1,0,14,13.883527
-1400,510,2,0,0,0,771.914246
-1963,-1331,3,0,0,4,23.915457
216,-1439,4,0,0,0,778.717163
768,1261,1,0,0,0,774.535095
-1658,1439,2,0,0,14,13.883527
-1995,-1683,3,0,0,4,23.915457
784,-783,4,0,0,0,857.069336
526,1387,1,0,0,0,773.191101
-521,1554,2,0,0,0,744.555298
-362,-1511,3,0,0,0,759.884033
750,-1207,4,1,0,11,31.394306
1314,965,1,1,0,14,13.883527
-524,1334,2,0,0,0,783.072571
-852,-1347,3,0,0,0,752.574890
1139,-483,4,0,0,0,825.353271
434,201,1,1,0,14,13.883527
-542,25,2,0,0,0,1062.802124
-1456,-1811,3,0,0,4,23.915457
1788,-1075,4,0,0,11,31.394306
1926,343,1,0,0,14,13.883527
-1827,1162,2,0,0,14,13.883527
-440,-242,3,0,0,0,1085.125000
1460,-770,4,0,0,0,742.532959
1222,1208,1,1,0,14,13.883527
-861,1074,2,0,0,0,794.672119
-1414,-1107,3,0,0,4,23.915457
464,-1216,4,1,0,11,31.394306
1253,1812,1,1,0,14,13.883527
-1332,275,2,0,0,0,798.121826
-781,-110,3,0,0,0,954.970276
1813,-1731,4,0,0,11,31.394306
1974,877,1,0,0,14,13.883527
-34,1948,2,0,0,14,13.883527
-1330,-1418,3,0,0,4,23.915457
1793,-367,4,1,0,14,13.883527
329,1546,1,1,0,14,13.883527
-1390,785,2,0,0,0,752.122925
-603,-1058,3,1,0,4,23.915457
1448,-1542,4,1,0,11,31.394306
239,1765,1,0,0,14,13.883527
-1226,170,2,1,0,4,23.915457
-1204,-58,3,0,0,0,832.838562
728,-1787,4,0,0,11,31.394306
1570,1888,1,0,0,14,13.883527
-1696,205,2,0,0,0,732.672180
-1638,-678,3,1,0,4,23.915457
422,-1524,4,0,0,0,754.832214
1824,1425,1,0,0,14,13.883527
-1377,823,2,0,0,0,750.714905
-1161,-1276,3,0,0,0,729.867554
1124,-1899,4,0,0,11,31.394306
700,56,1,0,0,0,988.437317
-1640,595,2,1,0,4,23.915457
-660,-188,3,0,0,0,995.073486
1293,-1067,4,0,0,0,738.084351
978,556,1,0,0,0,852.697510
-1643,919,2,0,0,14,13.883527
-181,-874,3,1,0,4,23.915457
248,-543,4,1,0,11,31.394306
453,299,1,0,0,0,1062.693726
-755,316,2,0,0,0,944.300171
-1547,-945,3,0,0,4,23.915457
1708,-1311,4,0,0,11,31.394306
712,1446,1,0,0,0,749.360718
-10,1995,2,1,0,14,13.883527
-1023,-1642,3,0,0,4,23.915457
669,-1060,4,0,0,0,821.593323
1889,950,1,0,0,14,13.883527
-1828,1302,2,0,0,14,13.883527
-829,-1353,3,0,0,0,753.849365
1234,-1612,4,0,0,11,31.394306
1529,1226,1,0,0,14,13.883527
-1823,1580,2,0,0,14,13.883527
-1289,-1008,3,0,0,0,745.024536
366,-1692,4,0,0,0,728.872864
349,1191,1,0,0,0,824.447388
-1608,1548,2,1,0,14,13.883527
-451,-1110,3,1,0,4,23.915457
106,-1170,4,0,0,0,840.236389
1221,1224,1,0,0,0,729.246582
-1579,908,2,1,0,14,13.883527
-1077,-1725,3,0,0,4,23.915457
1230,-232,4,0,0,0,822.000000
958,1631,1,1,0,14,13.883527
-199,511,2,0,0,0,1059.733398
-1540,-1053,3,0,0,4,23.915457
1402,-124,4,0,0,0,788.281555
1360,1512,1,0,0,14,13.883527
-904,665,2,1,0,14,13.883527
-1252,-1149,3,0,0,0,734.190186
1333,-166,4,0,0,0,801.692993
886,778,1,0,0,0,839.183167
-1205,1433,2,0,0,14,13.883527
-1791,-1501,3,1,0,4,23.915457
156,-993,4,0,0,0,885.112549
799,304,1,1,0,14,13.883527
-521,1279,2,1,0,14,13.883527
-376,-1051,3,0,0,0,854.948303
845,-969,4,0,0,0,814.294312
221,192,1,0,0,0,1240.764771
-1537,1145,2,0,0,14,13.883527
-1589,-414,3,0,0,0,744.024353
600,-512,4,0,0,0,954.951050
891,1833,1,0,0,14,13.883527
-349,791,2,0,0,0,928.510864
-389,-92,3,0,0,0,1150.919556
1341,-224,4,0,0,0,798.229858
915,659,1,1,0,14,13.883527
-140,1269,2,1,0,14,13.883527
-1250,-174,3,1,0,4,23.915457
524,-1086,4,1,0,11,31.394306
740,83,1,0,0,0,971.539001
-63,1694,2,0,0,0,734.891968
-263,-422,3,0,0,0,1087.961060
1111,-718,4,1,0,11,31.394306
1052,1560,1,0,0,14,13.883527
-1990,893,2,0,0,4,23.915457
-489,-781,3,0,0,0,910.155762
1024,-376,4,0,0,0,861.568420
1283,1820,1,1,0,14,13.883527
-861,1076,2,0,0,0,794.346252
-1296,-564,3,0,0,0,787.073242
853,-481,4,1,0,11,31.394306
1363,92,1,0,0,0,796.854614
-1324,1349,2,1,0,14,13.883527
-617,-1961,3,0,0,4,23.915457
422,-517,4,0,0,0,1003.119751
347,1251,1,0,0,0,811.501770
-1881,681,2,0,0,4,23.915457
-1299,-925,3,1,0,4,23.915457
1597,-268,4,1,0,14,13.883527
551,895,1,0,0,0,872.276367
-1371,1823,2,0,0,14,13.883527
-1693,-1071,3,0,0,4,23.915457
1420,-594,4,0,0,0,762.580505
1601,1600,1,0,0,14,13.883527
-1227,881,2,1,0,14,13.883527
-880,-753,3,0,0,0,844.330444
1443,-1114,4,0,0,11,31.394306
838,268,1,1,0,14,13.883527
-1525,1772,2,1,0,14,13.883527
-545,-1024,3,0,0,0,843.881592
696,-1720,4,0,0,11,31.394306
160,801,1,0,0,0,944.877747
-650,1190,2,0,0,0,798.998291
-1950,-47,3,0,0,4,23.915457
598,-1631,4,1,0,11,31.394306
312,1374,1,0,0,0,787.974426
-639,901,2,0,0,0,857.965454
-1310,-1504,3,0,0,4,23.915457
692,-844,4,0,0,0,861.417542
1234,1638,1,1,0,14,13.883527
-1316,1495,2,0,0,14,13.883527
-1660,-446,3,0,0,0,730.910950
1028,-1163,4,1,0,11,31.394306
1085,207,1,0,0,0,857.971008
-1221,1521,2,0,0,14,13.883527
-396,-1175,3,0,0,0,824.712891
1494,-1644,4,0,0,11,31.394306
113,1133,1,1,0,14,13.883527
-89,1094,2,0,0,0,859.789001
-550,-604,3,0,0,0,944.852905
1475,-1209,4,0,0,11,31.394306
378,1174,1,0,0,0,826.243774
-1370,417,2,1,0,4,23.915457
-1947,-269,3,0,0,4,23.915457
1460,-1793,4,0,0,11,31.394306
226,18,1,0,0,0,1314.515137
-239,68,2,1,0,4,23.915457
-533,-91,3,0,0,0,1063.794189
1236,-1297,4,1,0,11,31.394306
518,1511,1,0,0,0,751.947449
-969,1874,2,0,0,14,13.883527
-635,-1235,3,0,0,0,792.142517
637,-1108,4,0,0,0,816.004822
1774,193,1,0,0,14,13.883527
-1248,454,2,0,0,0,804.981995
-1803,-1987,3,0,0,4,23.915457
1359,-738,4,0,0,0,761.236572
1083,67,1,0,0,0,863.097107
-1813,355,2,0,0,4,23.915457
-1476,-1092,3,0,0,4,23.915457
1826,-399,4,1,0,14,13.883527
1406,1495,1,0,0,14,13.883527
-167,1661,2,1,0,14,13.883527
-1666,-1286,3,0,0,4,23.915457
1899,-1744,4,0,0,11,31.394306
850,490,1,0,0,0,892.087463
-1347,298,2,0,0,0,794.035278
-1037,-999,3,0,0,0,781.733704
392,-230,4,0,0,0,1113.888306
749,1300,1,1,0,14,13.883527
-1762,1554,2,1,0,14,13.883527
-1207,-608,3,0,0,0,799.945984
714,-210,4,1,0,11,31.394306
1183,1802,1,0,0,14,13.883527
-1381,346,2,0,0,0,784.991333
-1705,-1373,3,0,0,4,23.915457
1625,-1379,4,0,0,11,31.394306
782,1493,1,0,0,0,736.549683
-666,1610,2,0,0,0,727.027039
-960,-1691,3,1,0,4,23.915457
1462,-132,4,1,0,14,13.883527
1051,44,1,1,0,14,13.883527
-1531,277,2,0,0,0,759.496765
-1143,-1358,3,0,0,4,23.915457
620,-1076,4,0,0,0,824.270874
1822,1773,1,1,0,14,13.883527
-977,1314,2,0,0,0,744.835022
-881,-1892,3,0,0,4,23.915457
297,-476,4,1,0,11,31.394306
1838,1272,1,0,0,14,13.883527
-683,881,2,0,0,0,855.333069
-856,-1708,3,0,0,4,23.915457
45,-7,4,0,0,0,1777.627930
922,1607,1,0,0,14,13.883527
-168,643,2,0,0,0,1004.322205
-1857,-1592,3,0,0,4,23.915457
504,-515,4,0,0,0,981.003540
803,774,1,0,0,0,855.190002
-744,1513,2,0,0,0,736.442139
-1874,-552,3,0,0,4,23.915457
1339,-709,4,0,0,0,767.112732
1837,1555,1,0,0,14,13.883527
-925,589,2,1,0,14,13.883527
-664,-547,3,0,0,0,929.939270
349,-1016,4,0,0,0,865.976135
758,588,1,1,0,14,13.883527
-208,367,2,0,0,0,1135.388672
-1855,-1137,3,1,0,4,23.915457
1498,-1438,4,0,0,11,31.394306
1625,366,1,1,0,14,13.883527
-770,287,2,0,0,0,943.146179
-344,-1494,3,0,0,0,763.727905
472,-867,4,0,0,0,890.322632
382,1660,1,0,0,0,733.505554
-1048,1768,2,1,0,14,13.883527
-1268,-441,3,0,0,0,801.863403
1826,-435,4,0,0,14,13.883527
1468,1064,1,1,0,14,13.883527
-1820,5,2,0,0,4,23.915457
-470,-6,3,1,0,4,23.915457
1227,-37,4,1,0,14,13.883527
1222,1472,1,0,0,14,13.883527
-71,1994,2,0,0,14,13.883527
-1604,-1137,3,1,0,4,23.915457
938,-329,4,0,0,0,888.325623
1741,1283,1,1,0,14,13.883527
-751,1603,2,0,0,14,13.883527
-407,-813,3,0,0,0,914.017151
1153,-1751,4,1,0,11,31.394306
1266,591,1,0,0,0,790.395996
-1085,203,2,0,0,0,858.164612
-917,-336,3,1,0,4,23.915457
1403,-1240,4,1,0,11,31.394306
1884,854,1,0,0,14,13.883527
-846,42,2,0,0,0,934.411377
-558,-733,3,1,0,4,23.915457
660,-323,4,0,0,0,975.373413
565,118,1,0,0,0,1044.969727
-1446,562,2,0,0,0,760.325073
-1536,-653,3,0,0,0,739.346741
1725,-83,4,0,0,0,729.558838
983,74,1,0,0,0,890.723206
-1149,250,2,1,0,4,23.915457
-673,-260,3,1,0,4,23.915457
434,-1042,4,0,0,0,851.734497
1153,1265,1,1,0,14,13.883527
-674,247,2,0,0,0,982.105835
-1111,-1764,3,0,0,4,23.915457
1084,-1814,4,0,0,11,31.394306
21,494,1,0,0,0,1089.588989
-340,456,2,1,0,14,13.883527
-741,-161,3,0,0,0,966.304688
1421,-1131,4,0,0,11,31.394306
1657,161,1,1,0,14,13.883527
-1461,356,2,0,0,0,769.276917
-1858,-1208,3,0,0,4,23.915457
1583,-589,4,0,0,0,735.933289
1588,207,1,0,0,0,751.209961
-46,1520,2,0,0,0,766.058777
-98,-1077,3,0,0,0,864.059021
973,-1765,4,1,0,11,31.394306
699,785,1,0,0,0,872.250366
-1443,1032,2,0,0,14,13.883527
-1343,-1945,3,0,0,4,23.915457
331,-366,4,1,0,11,31.394306
1603,873,1,1,0,14,13.883527
-85,1206,2,1,0,14,13.883527
-455,-576,3,0,0,0,975.674927
385,-572,4,0,0,0,993.713623
1463,1170,1,1,0,14,13.883527
-409,942,2,0,0,0,878.941162
-1072,-770,3,0,0,0,806.747681
472,-1673,4,0,0,0,727.687073
297,556,1,1,0,14,13.883527
-1250,1309,2,0,0,14,13.883527
-661,-591,3,0,0,0,921.236633
1108,-1098,4,0,0,0,758.752991
1724,578,1,0,0,14,13.883527
-648,740,2,1,0,14,13.883527
-474,-1790,3,1,0,4,23.915457
1464,-1324,4,0,0,11,31.394306
252,469,1,1,0,14,13.883527
-1060,777,2,0,0,0,807.970276
-1208,-1264,3,1,0,4,23.915457
682,-1434,4,0,0,0,753.642639
600,127,1,0,0,0,1027.476929
-1422,1678,2,0,0,14,13.883527
-1743,-712,3,0,0,4,23.915457
1764,-1379,4,0,0,11,31.394306
919,75,1,0,0,0,909.968567
-1618,110,2,0,0,0,747.595520
-1302,-1137,3,0,0,0,729.296692
619,-1243,4,0,0,0,792.160461
1485,1001,1,0,0,14,13.883527
-795,1980,2,0,0,14,13.883527
-1990,-920,3,0,0,4,23.915457
1307,-1441,4,1,0,11,31.394306
437,243,1,0,0,0,1086.357544
-475,1335,2,0,0,0,786.346191
-151,-1772,3,1,0,11,31.394306
911,-532,4,1,0,11,31.394306
743,1568,1,0,0,0,728.211792
-1789,701,2,0,0,4,23.915457
-1217,-1438,3,0,0,4,23.915457
9,-232,4,0,0,0,1307.650879
1400,1085,1,0,0,14,13.883527
-1117,918,2,0,0,0,780.557922
-1747,-384,3,0,0,4,23.915457
1180,-783,4,0,0,0,786.515015
1021,1272,1,1,0,14,13.883527
-1576,1066,2,0,0,14,13.883527
-1583,-1449,3,0,0,4,23.915457
1401,-606,4,0,0,0,764.975403
1651,768,1,0,0,14,13.883527
-1975,750,2,0,0,4,23.915457
-1321,-467,3,0,0,0,789.581787
370,-1590,4,0,0,0,745.700378
1072,907,1,0,0,0,788.946289
-531,1889,2,0,0,14,13.883527
-412,-1253,3,0,0,0,806.940369
355,-862,4,0,0,0,906.805115
614,1625,1,0,0,0,727.881226
-1151,1658,2,0,0,14,13.883527
-1113,-1567,3,0,0,4,23.915457
1091,-398,4,0,0,0,843.552368
680,1497,1,0,0,0,743.647644
-162,977,2,0,0,0,889.394897
-1460,-65,3,0,0,0,777.471313
1626,-1001,4,0,0,11,31.394306
1770,407,1,1,0,14,13.883527
-1588,1834,2,0,0,14,13.883527
-138,-444,3,0,0,0,1107.326904
1175,-1021,4,0,0,0,759.355835
1510,1416,1,0,0,14,13.883527
-635,560,2,1,0,14,13.883527
-1635,-1732,3,1,0,4,23.915457
164,-896,4,0,0,0,913.479004
1032,923,1,0,0,0,793.001709
-615,550,2,0,0,0,941.986816
-275,-734,3,0,0,0,956.760010
321,-874,4,0,0,0,907.162292
109,1332,1,0,0,0,803.161133
-1653,660,2,1,0,4,23.915457
-438,-713,3,0,0,0,937.920532
1286,-799,4,0,0,0,767.325806
883,1381,1,0,0,0,744.529114
-210,1268,2,0,0,0,814.386780
-1612,-812,3,0,0,4,23.915457
977,-1092,4,0,0,0,776.722290
454,1638,1,0,0,0,734.117920
-397,548,2,0,0,0,999.117676
-605,-9,3,1,0,4,23.915457
94,-1249,4,0,0,0,821.806213
359,1785,1,0,0,14,13.883527
-1103,1756,2,0,0,14,13.883527
-280,-638,3,0,0,0,990.703003
870,-894,4,1,0,11,31.394306
683,1549,1,0,0,0,735.277344
-1814,143,2,0,0,4,23.915457
-1799,-170,3,0,0,4,23.915457
1156,-197,4,0,0,0,840.757446
290,446,1,1,0,14,13.883527
-70,505,2,0,0,0,1080.754272
-185,-1009,3,0,0,0,879.260559
1358,-1516,4,1,0,11,31.394306
796,1800,1,0,0,14,13.883527
-984,241,2,0,0,0,882.857544
-455,-1038,3,1,0,4,23.915457
667,-1660,4,0,0,11,31.394306
708,749,1,0,0,0,877.904907
-1655,1409,2,0,0,14,13.883527
-1488,-1275,3,1,0,4,23.915457
944,-1606,4,1,0,11,31.394306
1703,36,1,1,0,14,13.883527
-99,747,2,1,0,14,13.883527
-1500,-1769,3,0,0,4,23.915457
1438,-321,4,0,0,0,775.133240
1130,770,1,1,0,14,13.883527
-761,1656,2,1,0,14,13.883527
-423,-1882,3,1,0,4,23.915457
1846,-1050,4,0,0,11,31.394306
1771,247,1,1,0,14,13.883527
-379,1807,2,1,0,14,13.883527
-1569,-304,3,0,0,0,751.793701
1770,-1574,4,1,0,11,31.394306
313,1198,1,0,0,0,825.112549
-574,152,2,0,0,0,1036.797363
-632,-1038,3,1,0,4,23.915457
616,-476,4,0,0,0,958.731506
731,1607,1,0,0,14,13.883527
-250,1159,2,1,0,14,13.883527
-421,-778,3,1,0,4,23.915457
390,-1252,4,0,0,0,808.614685
439,1451,1,0,0,0,766.955322
-18,116,2,0,0,0,1504.422729
-545,-1533,3,0,0,0,746.666321
631,-987,4,0,0,0,841.052307
295,1757,1,0,0,14,13.883527
-896,1956,2,0,0,14,13.883527
-446,-1263,3,0,0,0,802.520325
1961,-1212,4,0,0,11,31.394306
1488,5,1,1,0,14,13.883527
-1053,1322,2,1,0,14,13.883527
-659,-270,3,0,0,0,984.390137
1745,-1094,4,0,0,11,31.394306
1656,236,1,0,0,0,738.713623
-269,1282,2,1,0,14,13.883527
-835,-1095,3,0,0,0,794.561829
1883,-34,4,0,0,14,13.883527
1387,1003,1,0,0,0,732.116272
-662,904,2,0,0,0,853.857422
-789,-1578,3,1,0,4,23.915457
1591,-1874,4,0,0,11,31.394306
1876,693,1,0,0,14,13.883527
-286,1455,2,0,0,0,773.296997
-345,-251,3,0,0,0,1132.125000
271,-363,4,0,0,0,1114.836792
41,1112,1,0,0,0,855.846191
-1088,1400,2,0,0,14,13.883527
-321,-1265,3,0,0,0,809.986877
891,-1359,4,0,0,0,747.011047
920,1772,1,0,0,14,13.883527
-410,1245,2,0,0,0,808.738403
-723,-506,3,0,0,0,922.605469
1345,-1190,4,1,0,11,31.394306
1700,499,1,1,0,14,13.883527
-937,1926,2,0,0,14,13.883527
-1350,-642,3,0,0,0,770.975403
1400,-1272,4,0,0,11,31.394306
1436,681,1,0,0,0,753.393616
-186,434,2,0,0,0,1102.879028
-611,-1123,3,0,0,0,815.915466
1232,-1184,4,1,0,11,31.394306
945,40,1,0,0,0,902.631958
-832,45,2,0,0,0,939.152954
-539,-1217,3,1,0,4,23.915457
728,-937,4,0,0,0,837.366089
1349,402,1,0,0,0,788.250793
-1125,1701,2,0,0,14,13.883527
-1022,-1145,3,0,0,0,763.414673
1009,-1112,4,1,0,11,31.394306
875,465,1,0,0,0,889.236877
-1004,929,2,1,0,14,13.883527
-164,-606,3,0,0,0,1020.737366
1394,-1434,4,0,0,11,31.394306
1363,1730,1,0,0,14,13.883527
-631,1802,2,0,0,14,13.883527
-1597,-926,3,0,0,4,23.915457
682,-1171,4,0,0,0,799.172974
1478,1405,1,0,0,14,13.883527
-132,1040,2,0,0,0,873.008362
-274,-639,3,0,0,0,991.312195
440,-1837,4,0,0,11,31.394306
238,1121,1,0,0,0,847.378784
-341,1327,2,0,0,0,796.011963
-1446,-766,3,0,0,0,745.019714
1698,-619,4,0,0,11,31.394306
1748,1783,1,0,0,14,13.883527
-1437,1714,2,0,0,14,13.883527
-1293,-1795,3,0,0,4,23.915457
179,-975,4,0,0,0,889.117249
787,349,1,0,0,0,929.732300
-564,1224,2,1,0,14,13.883527
-3,-325,3,0,0,0,1210.608398
71,-1802,4,1,0,11,31.394306
307,255,1,1,0,14,13.883527
-1106,1536,2,0,0,14,13.883527
-574,-440,3,1,0,4,23.915457
733,-406,4,1,0,11,31.394306
1180,85,1,0,0,0,838.219421
-919,1268,2,1,0,14,13.883527
-192,-277,3,0,0,0,1200.130981
495,-382,4,0,0,0,1021.906311
1707,717,1,0,0,14,13.883527
-1626,1482,2,0,0,14,13.883527
-502,-1645,3,0,0,0,730.740417
387,-74,4,0,0,0,1155.076660
1399,1625,1,0,0,14,13.883527
-230,575,2,0,0,0,1024.669800
-1944,-1042,3,0,0,4,23.915457
1546,-290,4,1,0,14,13.883527
553,1209,1,0,0,0,804.666931
-1576,989,2,0,0,14,13.883527
-719,-1025,3,0,0,0,821.920959
7,-1530,4,1,0,11,31.394306
1702,757,1,1,0,14,13.883527
-1745,138,2,0,0,0,725.691772
-1425,-917,3,1,0,4,23.915457
127,-1347,4,0,0,0,799.629639
1993,1002,1,1,0,14,13.883527
-1798,1290,2,1,0,14,13.883527
-831,-959,3,0,0,0,818.060730
1873,-1302,4,0,0,11,31.394306
1103,78,1,0,0,0,857.662598
-668,842,2,0,0,0,865.835083
-1059,-995,3,1,0,4,23.915457
828,-853,4,1,0,11,31.394306
1794,586,1,0,0,14,13.883527
-1581,1427,2,0,0,14,13.883527
-996,-1915,3,0,0,4,23.915457
868,-422,4,1,0,11,31.394306
298,1692,1,0,0,0,731.049194
-405,555,2,0,0,0,994.735474
-942,-877,3,1,0,4,23.915457
1980,-167,4,1,0,14,13.883527
698,1087,1,0,0,0,812.927795
-308,19,2,0,0,0,1225.571533
-459,-351,3,1,0,4,23.915457
824,-97,4,0,0,0,940.374756
1817,484,1,0,0,14,13.883527
-169,1720,2,1,0,14,13.883527
-1671,-921,3,0,0,4,23.915457
1935,-1347,4,0,0,11,31.394306
1840,1253,1,0,0,14,13.883527
-1981,1055,2,1,0,14,13.883527
-664,-1090,3,0,0,0,816.396057
835,-1344,4,0,0,0,754.665833
1584,508,1,0,0,0,740.306885
-1535,1795,2,1,0,14,13.883527
-1925,-1863,3,1,0,4,23.915457
815,-1805,4,0,0,11,31.394306
103,1808,1,0,0,14,13.883527
-1806,1361,2,0,0,14,13.883527
-624,-358,3,0,0,0,981.476501
375,-471,4,1,0,11,31.394306
1723,1384,1,1,0,14,13.883527
-802,1042,2,1,0,14,13.883527
-1335,-1904,3,0,0,4,23.915457
1563,-49,4,0,0,0,758.040771
1638,1746,1,0,0,14,13.883527
-1011,1803,2,1,0,14,13.883527
-247,-1313,3,1,0,4,23.915457
501,-1582,4,0,0,0,741.002747
1893,1494,1,0,0,14,13.883527
-1917,104,2,0,0,4,23.915457
-838,-1812,3,0,0,4,23.915457
356,-1083,4,0,0,0,848.883057
1837,1049,1,0,0,14,13.883527
-1602,1332,2,0,0,14,13.883527
-219,-199,3,1,0,4,23.915457
1573,-1328,4,1,0,11,31.394306
1192,1668,1,0,0,14,13.883527
-1755,265,2,0,0,4,23.915457
-883,-464,3,0,0,0,887.323608
850,-306,4,0,0,0,915.854919
422,1788,1,0,0,14,13.883527
-1453,1329,2,0,0,14,13.883527
-81,-621,3,1,0,4,23.915457
1472,-1290,4,0,0,11,31.394306
1879,1822,1,0,0,14,13.883527
-636,205,2,0,0,0,1002.748779
-1286,-964,3,0,0,0,750.178833
440,-1855,4,0,0,11,31.394306
286,522,1,0,0,0,1036.104004
-961,1879,2,0,0,14,13.883527
-687,-1504,3,1,0,4,23.915457
75,-522,4,0,0,0,1071.004395
1676,1195,1,0,0,14,13.883527
-1203,577,2,1,0,4,23.915457
-547,-10,3,0,0,0,1060.412354
1233,-258,4,0,0,0,820.164429
131,1953,1,0,0,14,13.883527
-661,192,2,0,0,0,994.206787
-368,-1020,3,0,0,0,863.286987
542,-766,4,0,0,0,904.920227
182,1869,1,1,0,14,13.883527
-835,608,2,0,0,0,877.279602
-583,-1858,3,0,0,4,23.915457
1872,-1425,4,0,0,11,31.394306
1280,1177,1,0,0,0,727.591370
-1688,1248,2,0,0,14,13.883527
-853,-1938,3,0,0,4,23.915457
563,-34,4,1,0,14,13.883527
464,585,1,0,0,0,970.753296
-1250,1953,2,0,0,14,13.883527
-1853,-151,3,0,0,4,23.915457
1111,-557,4,0,0,0,824.047791
160,1027,1,1,0,18,247.889572
-1339,1148,2,0,0,14,13.883527
-171,-753,3,0,0,0,961.076111
875,-831,4,0,0,0,832.521484
523,1630,1,0,0,0,732.084290
-441,1554,2,1,0,14,13.883527
-1275,-1460,3,0,0,4,23.915457
817,-1171,4,1,0,11,31.394306
1544,668,1,1,0,14,13.883527
-677,499,2,0,0,0,936.463928
-275,-1558,3,0,0,0,754.698608
735,-974,4,1,0,11,31.394306
1667,1679,1,1,0,14,13.883527
-1665,1522,2,0,0,14,13.883527
-531,-532,3,0,0,0,968.837036
781,-446,4,0,0,0,917.141663
1302,1084,1,0,0,0,735.058960
-830,1327,2,0,0,0,757.779297
-1735,-1762,3,0,0,4,23.915457
745,-1242,4,0,0,0,780.065674
226,1902,1,0,0,14,13.883527
-718,1954,2,0,0,14,13.883527
-80,-1612,3,0,0,0,748.970032
843,-68,4,0,0,0,934.855225
1571,1562,1,1,0,14,13.883527
-1389,1046,2,1,0,14,13.883527
-589,-200,3,0,0,0,1023.399109
1810,-1429,4,0,0,11,31.394306
891,1498,1,0,0,0,726.922058
-785,976,2,1,0,14,13.883527
-1607,-1005,3,0,0,4,23.915457
1641,-984,4,0,0,11,31.394306
495,984,1,0,0,0,858.774597
-76,1261,2,1,0,14,13.883527
-1496,-1559,3,0,0,4,23.915457
1873,-710,4,1,0,11,31.394306
802,569,1,1,0,14,13.883527
-331,1936,2,0,0,14,13.883527
-19,-67,3,0,0,0,1655.071777
581,-1943,4,0,0,11,31.394306
359,1526,1,0,0,0,757.327515
-418,775,2,0,0,0,923.238770
-1171,-1793,3,1,0,4,23.915457
866,-1592,4,0,0,11,31.394306
294,1601,1,0,0,0,746.529724
-360,729,2,0,0,0,946.213989
-961,-1896,3,0,0,4,23.915457
1753,-1366,4,0,0,11,31.394306
1010,225,1,1,0,14,13.883527
-1986,756,2,0,0,4,23.915457
-1145,-1407,3,1,0,4,23.915457
890,-1354,4,0,0,0,747.847046
530,913,1,0,0,0,870.999817
-164,719,2,0,0,0,974.328918
-1378,-508,3,0,0,0,776.058044
785,-1127,4,1,0,11,31.394306
715,1723,1,1,0,14,13.883527
-1939,104,2,0,0,4,23.915457
-1927,-80,3,0,0,4,23.915457
1015,-1956,4,0,0,11,31.394306
201,1800,1,0,0,14,13.883527
-1842,1055,2,0,0,14,13.883527
-1827,-1272,3,0,0,4,23.915457
588,-1376,4,1,0,11,31.394306
1361,928,1,1,0,14,13.883527
-882,1563,2,0,0,14,13.883527
-1094,-754,3,0,0,0,804.840881
1468,-1142,4,1,0,11,31.394306
653,442,1,0,0,0,955.036865
-561,1333,2,0,0,0,780.475708
-1455,-1069,3,0,0,4,23.915457
1381,-441,4,0,0,0,779.788391
630,1860,1,0,0,14,13.883527
-1818,1260,2,0,0,14,13.883527
-1738,-1732,3,0,0,4,23.915457
962,-263,4,1,0,11,31.394306
672,1280,1,1,0,14,13.883527
-1276,550,2,0,0,0,791.976929
-887,-1177,3,0,0,0,775.053040
1331,-486,4,0,0,0,786.352722
492,1406,1,0,0,0,771.991943
-1877,4,2,0,0,4,23.915457
-1805,-1376,3,0,0,4,23.915457
1127,-490,4,1,0,11,31.394306
1548,1708,1,0,0,14,13.883527
-1701,1207,2,0,0,14,13.883527
-244,-1643,3,0,0,0,740.729187
1113,-1732,4,1,0,11,31.394306
966,1219,1,1,0,14,13.883527
-1896,1343,2,0,0,14,13.883527
-1283,-1831,3,0,0,4,23.915457
1723,-673,4,0,0,11,31.394306
458,49,1,0,0,0,1110.030396
-621,649,2,0,0,0,917.504456
-1613,-1834,3,0,0,4,23.915457
1138,-1311,4,1,0,11,31.394306
616,872,1,0,0,0,867.760010
-1282,1266,2,1,0,14,13.883527
-1098,-93,3,0,0,0,858.659363
873,-1275,4,0,0,0,761.462952
1870,362,1,0,0,14,13.883527
-1500,611,2,0,0,0,747.961670
-383,-179,3,0,0,0,1134.760376
1566,-614,4,0,0,0,737.117249
1893,1216,1,1,0,14,13.883527
-189,724,2,1,0,14,13.883527
-657,-151,3,0,0,0,1000.211731
941,-642,4,1,0,11,31.394306
994,703,1,0,0,0,829.970520
-692,657,2,0,0,0,900.097107
-517,-378,3,0,0,0,1014.986938
1112,-1138,4,1,0,11,31.394306
764,1586,1,0,0,0,724.063049
-892,85,2,0,0,0,918.211609
-1216,-263,3,0,0,0,823.744934
685,-793,4,0,0,0,873.132751
1486,540,1,0,0,0,754.881897
-1815,690,2,0,0,4,23.915457
-456,-516,3,1,0,4,23.915457
1119,-1477,4,1,0,11,31.394306
1306,119,1,0,0,0,808.598511
-102,1911,2,0,0,14,13.883527
-593,-1419,3,0,0,0,762.824646
443,-1205,4,0,0,0,814.704712
1538,880,1,0,0,14,13.883527
-1280,1063,2,1,0,14,13.883527
-446,-584,3,0,0,0,975.362000
1002,-293,4,0,0,0,874.214478
828,307,1,0,0,0,922.408081
-647,240,2,0,0,0,993.471313
-1087,-675,3,1,0,4,23.915457
836,-1513,4,0,0,0,729.292114
1829,951,1,1,0,14,13.883527
-722,1713,2,0,0,14,13.883527
-1627,-1550,3,0,0,4,23.915457
1958,-1172,4,0,0,11,31.394306
69,1509,1,0,0,0,767.975769
-980,688,2,0,0,0,834.755249
-1590,-1182,3,0,0,4,23.915457
807,-1618,4,0,0,11,31.394306
383,1424,1,0,0,0,774.896606
-1726,1818,2,1,0,14,13.883527
-1527,-1679,3,1,0,4,23.915457
877,-1599,4,0,0,11,31.394306
1940,809,1,0,0,14,13.883527
-373,439,2,0,0,0,1045.532959
-612,-927,3,0,0,0,856.352966
1564,-34,4,0,0,0,757.930603
376,918,1,0,0,0,888.907349
-943,1871,2,0,0,14,13.883527
-1212,-1439,3,0,0,4,23.915457
743,-1325,4,0,0,0,766.359619
343,115,1,0,0,0,1179.705811
-708,77,2,1,0,4,23.915457
-648,-805,3,1,0,4,23.915457
5,-560,4,0,0,0,1053.676270
1545,1184,1,0,0,14,13.883527
-744,473,2,0,0,0,922.883301
-1388,-587,3,0,0,0,768.652405
474,-180,4,0,0,0,1082.343506
440,1730,1,1,0,14,13.883527
-1535,1789,2,0,0,14,13.883527
-1700,-986,3,0,0,4,23.915457
976,-1801,4,0,0,11,31.394306
1136,856,1,0,0,0,785.249756
-824,1635,2,0,0,14,13.883527
-1657,-185,3,1,0,4,23.915457
124,-379,4,0,0,0,1151.614258
1890,787,1,1,0,14,13.883527
-1788,845,2,1,0,14,13.883527
-1029,-1063,3,0,0,0,773.952393
1189,-608,4,0,0,0,803.380249
1163,422,1,0,0,0,825.349243
-1257,713,2,0,0,0,780.694946
-1629,-764,3,0,0,4,23.915457
257,-1433,4,0,0,0,778.570801
1887,244,1,0,0,14,13.883527
-926,332,2,0,0,0,891.326660
-142,-1113,3,0,0,0,853.459778
752,-1208,4,0,0,0,785.140686
321,1100,1,0,0,0,847.405579
-766,47,2,1,0,4,23.915457
-1129,-930,3,1,0,4,23.915457
529,-163,4,0,0,0,1057.031616
278,1369,1,1,0,14,13.883527
-1847,571,2,0,0,4,23.915457
-1794,-613,3,0,0,4,23.915457
1560,-960,4,0,0,11,31.394306
1429,419,1,1,0,14,13.883527
-568,1331,2,0,0,0,780.299072
-1607,-1505,3,1,0,4,23.915457
149,-894,4,0,0,0,914.922607
1639,908,1,1,0,14,13.883527
-544,1833,2,0,0,14,13.883527
-1886,-1260,3,1,0,4,23.915457
743,-1973,4,0,0,11,31.394306
996,12,1,0,0,0,887.733093
-328,1792,2,0,0,14,13.883527
-1409,-681,3,0,0,0,757.825439
824,-1972,4,0,0,11,31.394306
324,546,1,1,0,14,13.883527
-1476,295,2,1,0,4,23.915457
-60,-474,3,0,0,0,1099.475830
653,-1141,4,0,0,0,807.890503
1512,1208,1,0,0,14,13.883527
-420,873,2,0,0,0,895.733643
-549,-1204,3,0,0,0,806.012695
402,-1155,4,0,0,0,828.677795
550,1502,1,0,0,0,751.550964
-1923,1025,2,1,0,14,13.883527
-879,-1109,3,1,0,4,23.915457
1373,-1074,4,0,0,0,726.888062
916,414,1,0,0,0,885.103149
-33,872,2,0,0,0,925.839600
-1090,-831,3,1,0,4,23.915457
1737,-1357,4,0,0,11,31.394306
624,1348,1,0,0,0,772.797852
-331,1600,2,0,0,0,745.454956
-195,-554,3,0,0,0,1039.955200
1696,-1199,4,0,0,11,31.394306
9,178,1,1,0,14,13.883527
-1810,746,2,0,0,4,23.915457
-1934,-372,3,0,0,4,23.915457
1293,-153,4,0,0,0,810.664368
372,112,1,0,0,0,1159.143799
-975,1247,2,0,0,0,754.547119
-1629,-472,3,0,0,0,734.751404
979,-730,4,0,0,0,829.090820
1336,56,1,0,0,0,803.006104
-1287,1117,2,0,0,0,733.380371
-1650,-1615,3,0,0,4,23.915457
336,-663,4,1,0,11,31.394306
1915,1145,1,0,0,14,13.883527
-1405,1385,2,0,0,14,13.883527
-1099,-730,3,0,0,0,806.861816
1574,-1913,4,0,0,11,31.394306
912,966,1,0,0,0,804.877747
-1891,1335,2,0,0,14,13.883527
-590,-646,3,0,0,0,925.095703
958,-1101,4,0,0,0,777.865906
859,1012,1,1,0,14,13.883527
-1992,967,2,0,0,14,13.883527
-368,-1478,3,0,0,0,765.600769
1193,-36,4,0,0,0,835.681030
1686,681,1,1,0,14,13.883527
-294,872,2,0,0,0,910.539795
-68,-371,3,0,0,0,1167.669312
811,-1261,4,0,0,0,770.131165
286,401,1,0,0,0,1090.702026
-1439,1632,2,0,0,14,13.883527
-143,-373,3,0,0,0,1151.106567
1470,-761,4,0,0,0,741.718323
766,1655,1,0,0,14,13.883527
-892,501,2,0,0,0,880.034363
-1067,-180,3,1,0,4,23.915457
1581,-663,4,1,0,11,31.394306
1460,658,1,0,0,0,751.211487
-1889,983,2,0,0,14,13.883527
-1345,-1571,3,0,0,4,23.915457
921,-1342,4,1,0,11,31.394306
1542,253,1,1,0,14,13.883527
-188,1278,2,1,0,14,13.883527
-591,-835,3,1,0,4,23.915457
65,-1469,4,0,0,0,775.709656
1479,1167,1,1,0,14,13.883527
-1525,1879,2,1,0,14,13.883527
-350,-1770,3,0,0,4,23.915457
10,-1141,4,0,0,0,848.622498
463,1069,1,1,0,18,381.177765
-630,1500,2,0,0,0,746.677917
-1178,-1891,3,0,0,4,23.915457
1848,-235,4,1,0,14,13.883527
364,1263,1,1,0,18,315.888397
-1611,785,2,0,0,14,13.883527
-371,-14,3,0,0,0,1172.229614
1385,-489,4,1,0,11,31.394306
186,408,1,1,0,14,13.883527
-1525,1066,2,0,0,14,13.883527
-430,-1442,3,0,0,0,769.085999
61,-1422,4,0,0,0,785.067261
160,287,1,1,0,14,13.883527
-1284,71,2,0,0,0,814.232422
-1816,-1485,3,0,0,4,23.915457
1441,-868,4,0,0,0,737.089233
207,939,1,0,0,0,897.891174
-876,47,2,0,0,0,924.313354
-1709,-33,3,0,0,0,732.508667
698,-924,4,0,0,0,844.376709
1091,1527,1,0,0,14,13.883527
-1458,787,2,0,0,0,741.450989
-1589,-1808,3,1,0,4,23.915457
1612,-809,4,1,0,11,31.394306
1812,691,1,1,0,14,13.883527
-952,348,2,0,0,0,882.707581
-453,-336,3,0,0,0,1051.631348
821,-929,4,0,0,0,824.746521
1271,1575,1,0,0,14,13.883527
-1348,575,2,0,0,0,776.673096
-1965,-1535,3,0,0,4,23.915457
374,-467,4,0,0,0,1034.612305
282,223,1,0,0,0,1181.503418
-1881,1023,2,0,0,14,13.883527
-785,-960,3,0,0,0,824.677063
1833,-900,4,0,0,11,31.394306
137,716,1,0,0,0,977.661133
-1371,216,2,0,0,0,792.303040
-1743,-150,3,0,0,0,725.856689
840,-435,4,0,0,0,902.599609
657,451,1,0,0,0,951.992798
-1292,1013,2,0,0,0,744.071533
-392,-1422,3,0,0,0,774.811829
1562,-1633,4,0,0,11,31.394306
82,1872,1,0,0,14,13.883527
-1841,1223,2,0,0,14,13.883527
-726,-1890,3,0,0,4,23.915457
1364,-854,4,0,0,0,749.806030
1819,243,1,0,0,14,13.883527
-726,1604,2,0,0,0,724.026062
-222,-799,3,1,0,4,23.915457
84,-1408,4,0,0,0,787.663513
459,1557,1,0,0,0,747.328125
-825,185,2,1,0,4,23.915457
-162,-483,3,0,0,0,1080.971802
1607,-329,4,0,0,0,744.324219
1054,1734,1,0,0,14,13.883527
-224,1823,2,0,0,14,13.883527
-317,-1831,3,0,0,4,23.915457
1557,-1561,4,1,0,11,31.394306
1741,1051,1,0,0,14,13.883527
-430,568,2,1,0,14,13.883527
-1799,-461,3,0,0,4,23.915457
1042,-1145,4,0,0,0,760.920837
657,762,1,0,0,0,884.841187
-138,917,2,0,0,0,908.327026
-254,-426,3,1,0,4,23.915457
1083,-924,4,0,0,0,785.006226
829,1444,1,0,0,0,740.034546
-193,1322,2,0,0,0,803.255554
-309,-420,3,0,0,0,1074.269775
947,-1550,4,0,0,11,31.394306
1061,90,1,0,0,0,868.522034
-509,1436,2,0,0,0,765.522156
-1486,-443,3,0,0,0,760.463257
5,-1384,4,0,0,0,793.112000
1339,1959,1,0,0,14,13.883527
-33,1258,2,0,0,0,820.454651
-1036,-430,3,0,0,0,853.544006
747,-1587,4,0,0,0,725.107910
1669,1010,1,1,0,14,13.883527
-717,1927,2,1,0,14,13.883527
-1496,-905,3,0,0,0,726.020874
268,-364,4,0,0,0,1115.463501
1278,237,1,0,0,0,811.157288
-695,413,2,1,0,14,13.883527
-1751,-1679,3,0,0,4,23.915457
1279,-1208,4,0,0,0,724.247375
881,1235,1,0,0,0,766.751587
-533,1417,2,0,0,0,767.339661
-598,-1703,3,0,0,4,23.915457
952,-924,4,1,0,11,31.394306
1904,1522,1,1,0,14,13.883527
-1660,707,2,0,0,4,23.915457
-711,-65,3,0,0,0,983.663330
1756,-1035,4,1,0,11,31.394306
1979,493,1,0,0,14,13.883527
-1771,1251,2,1,0,14,13.883527
-1189,-1108,3,0,0,0,746.977051
340,-1136,4,1,0,11,31.394306
1337,1026,1,0,0,0,736.566284
-659,906,2,0,0,0,853.896606
-1043,-1756,3,0,0,4,23.915457
763,-1850,4,1,0,11,31.394306
1789,158,1,0,0,14,13.883527
-205,375,2,0,0,0,1131.631592
-9,-1509,3,0,0,0,768.270569
1690,-365,4,0,0,0,729.231689
720,597,1,0,0,0,905.857239
-1071,534,2,0,0,0,834.910645
-1036,-1718,3,1,0,4,23.915457
444,-1562,4,0,0,0,747.216492
1964,867,1,0,0,14,13.883527
-618,508,2,0,0,0,950.876892
-744,-1230,3,1,0,4,23.915457
1394,-1030,4,0,0,0,728.523315
432,262,1,0,0,0,1083.360962
-665,1753,2,0,0,14,13.883527
-1880,-667,3,0,0,4,23.915457
588,-1246,4,1,0,11,31.394306
15,1265,1,1,0,14,13.883527
-1837,185,2,1,0,4,23.915457
-625,-826,3,0,0,0,876.470703
1915,-1583,4,0,0,11,31.394306
1495,481,1,0,0,0,756.812744
-872,1144,2,1,0,14,13.883527
-294,-741,3,0,0,0,951.887024
666,-517,4,0,0,0,935.749817
1332,153,1,0,0,0,802.236572
-261,771,2,0,0,0,945.882690
-837,-794,3,0,0,0,845.450745
1248,-944,4,0,0,0,757.849182
364,1211,1,0,0,0,819.066467
-1219,988,2,1,0,14,13.883527
-700,-1759,3,1,0,4,23.915457
312,-1038,4,1,0,11,31.394306
290,1697,1,0,0,0,730.455872
-1696,1764,2,0,0,14,13.883527
-1737,-1144,3,0,0,4,23.915457
1530,-310,4,1,0,14,13.883527
693,544,1,0,0,0,923.083435
-1337,367,2,0,0,0,792.604675
-1926,-57,3,0,0,4,23.915457
1409,-706,4,1,0,11,31.394306
1620,94,1,1,0,14,13.883527
-945,1831,2,0,0,14,13.883527
-105,-615,3,0,0,0,1022.534058
1673,-1465,4,0,0,11,31.394306
546,1584,1,0,0,0,738.245850
-1232,1404,2,0,0,14,13.883527
-16,-444,3,0,0,0,1120.437988
1209,-236,4,0,0,0,826.601990
1237,946,1,0,0,0,759.236328
-1394,275,2,0,0,0,785.560364
-540,-186,3,0,0,0,1048.010376
1414,-1711,4,0,0,11,31.394306
1572,761,1,0,0,0,726.337158
-986,939,2,1,0,14,13.883527
-1321,-1240,3,1,0,4,23.915457
681,-453,4,0,0,0,944.496094
311,1180,1,1,0,18,308.365936
-1931,1596,2,0,0,14,13.883527
-1080,-403,3,0,0,0,845.688293
246,-1908,4,0,0,11,31.394306
49,1020,1,0,0,0,880.566895
-1323,590,2,0,0,0,780.008179
-594,-875,3,1,0,4,23.915457
151,-1072,4,0,0,0,863.757690
1626,365,1,0,0,0,739.790405
-843,1033,2,0,0,0,803.835999
-150,-905,3,0,0,0,911.443237
20,-5,4,0,0,0,2006.315552
500,989,1,0,0,0,857.025085
-1597,541,2,0,0,0,736.422729
-1620,-963,3,1,0,4,23.915457
1259,-1424,4,0,0,11,31.394306
722,1297,1,0,0,0,772.992310
-527,1414,2,0,0,0,768.272827
-28,-1372,3,0,0,0,795.556641
170,-1147,4,0,0,0,843.998352
791,1919,1,0,0,14,13.883527
-1587,1461,2,0,0,14,13.883527
-546,-179,3,1,0,4,23.915457
1934,-34,4,0,0,14,13.883527
451,105,1,0,0,0,1108.501831
-295,1550,2,0,0,0,755.472778
-1140,-1321,3,0,0,0,726.603516
1725,-1459,4,1,0,11,31.394306
270,1543,1,0,0,0,757.549927
-1650,425,2,1,0,4,23.915457
-224,-274,3,0,0,0,1186.038574
403,-1103,4,0,0,0,840.352844
1842,21,1,0,0,14,13.883527
-1200,941,2,0,0,0,765.256348
-319,-548,3,0,0,0,1017.864807
1764,-69,4,1,0,14,13.883527
1034,738,1,0,0,0,817.743469
-1586,65,2,1,0,4,23.915457
-1320,-1207,3,1,0,4,23.915457
211,-851,4,0,0,0,924.475037
1442,183,1,1,0,14,13.883527
-1323,733,2,0,0,0,767.612854
-198,-1013,3,1,0,4,23.915457
1265,-364,4,0,0,0,807.522339
1168,1715,1,1,0,14,13.883527
-1285,84,2,0,0,0,813.834473
-521,-1310,3,0,0,0,787.806580
1634,-1542,4,1,0,11,31.394306
1334,298,1,1,0,14,13.883527
-1941,927,2,0,0,14,13.883527
-1907,-1453,3,0,0,4,23.915457
1089,-1741,4,0,0,11,31.394306
1225,635,1,0,0,0,793.987122
-1209,746,2,0,0,0,785.607788
-20,-681,3,0,0,0,997.164551
1316,-1954,4,1,0,11,31.394306
391,7,1,0,0,0,1157.243408
-141,639,2,1,0,14,13.883527
-1727,-355,3,0,0,4,23.915457
1487,-1567,4,0,0,11,31.394306
1352,537,1,1,0,14,13.883527
-53,1664,2,0,0,0,740.069336
-103,-274,3,0,0,0,1240.798462
1606,-1067,4,0,0,11,31.394306
979,1745,1,0,0,14,13.883527
-1362,1013,2,0,0,0,734.512817
-906,-1703,3,0,0,4,23.915457
1494,-146,4,0,0,0,769.779602
760,1474,1,0,0,0,741.182434
-296,432,2,0,0,0,1073.024292
-861,-1686,3,0,0,4,23.915457
1006,-1774,4,1,0,11,31.394306
550,134,1,0,0,0,1050.569946
-568,829,2,1,0,14,13.883527
-1768,-1646,3,1,0,4,23.915457
1636,-478,4,0,0,0,733.335083
1491,840,1,0,0,0,732.169922
-1502,1699,2,1,0,14,13.883527
-802,-770,3,0,0,0,856.092896
1727,-1361,4,1,0,11,31.394306
1754,1277,1,0,0,14,13.883527
-554,302,2,0,0,0,1019.286133
-202,-653,3,0,0,0,996.219910
39,-510,4,0,0,0,1079.816528
1616,1640,1,0,0,14,13.883527
-1633,1552,2,0,0,14,13.883527
-1078,-1483,3,1,0,4,23.915457
909,-285,4,0,0,0,900.573425
501,997,1,1,0,18,329.655426
-811,1914,2,0,0,14,13.883527
-1423,-39,3,0,0,0,785.021606
872,-989,4,0,0,0,807.043335
1307,1348,1,0,0,14,13.883527
-687,1429,2,0,0,0,754.068176
-624,-1455,3,0,0,0,754.503235
494,-934,4,0,0,0,870.751526
481,157,1,1,0,14,13.883527
-712,681,2,0,0,0,890.880249
-270,-1278,3,1,0,4,23.915457
1670,-595,4,1,0,11,31.394306
1035,1526,1,1,0,14,13.883527
-344,978,2,1,0,14,13.883527
-858,-619,3,0,0,0,870.374023
409,-1345,4,1,0,11,31.394306
94,440,1,0,0,0,1116.799316
-1707,58,2,0,0,0,732.732361
-1541,-902,3,0,0,4,23.915457
1258,-305,4,0,0,0,812.341919
1100,1178,1,0,0,0,749.370544
-1177,1794,2,1,0,14,13.883527
-825,-1608,3,0,0,4,23.915457
1742,-1671,4,1,0,11,31.394306
400,117,1,0,0,0,1138.886353
-443,1577,2,0,0,0,744.725159
-458,-1507,3,0,0,0,755.975708
1309,-1588,4,0,0,11,31.394306
1175,1554,1,0,0,14,13.883527
-1314,120,2,0,0,0,806.837585
-996,-1665,3,0,0,4,23.915457
944,-697,4,0,0,0,840.569397
1663,418,1,0,0,0,731.602783
-549,5,2,1,0,4,23.915457
-1831,-993,3,0,0,4,23.915457
1898,-606,4,0,0,11,31.394306
1528,291,1,1,0,14,13.883527
-24,1851,2,1,0,14,13.883527
-1969,-290,3,1,0,4,23.915457
901,-555,4,0,0,0,870.309570
52,727,1,0,0,0,977.713318
-828,1190,2,0,0,0,779.785645
-1121,-1024,3,1,0,4,23.915457
815,-69,4,1,0,14,13.883527
1302,1216,1,0,0,14,13.883527
-1369,1359,2,0,0,14,13.883527
-710,-1071,3,0,0,0,814.454712
1158,-832,4,0,0,0,784.544678
152,86,1,1,0,14,13.883527
-21,1829,2,0,0,14,13.883527
-376,-458,3,0,0,0,1037.387451
1225,-709,4,0,0,0,786.671509
197,1544,1,0,0,0,759.375000
-1072,1861,2,1,0,14,13.883527
-1352,-481,3,0,0,0,782.714233
1340,-90,4,1,0,14,13.883527
1693,548,1,0,0,14,13.883527
-746,1091,2,1,0,14,13.883527
-554,-50,3,0,0,0,1055.624268
1205,-855,4,0,0,0,774.330750
1186,1049,1,0,0,0,754.469238
-1166,947,2,1,0,14,13.883527
-1552,-170,3,0,0,0,758.497375
1092,-225,4,0,0,0,855.282227
1418,36,1,0,0,0,786.048157
-1357,1106,2,0,0,0,725.663086
-734,-1046,3,0,0,0,816.054382
1159,-1679,4,0,0,11,31.394306
1309,1627,1,1,0,14,13.883527
-90,1609,2,1,0,14,13.883527
-206,-1388,3,0,0,0,789.154480
1168,-1312,4,0,0,0,724.689697
1247,1030,1,1,0,14,13.883527
-1623,707,2,0,0,4,23.915457
-1218,-1308,3,0,0,4,23.915457
978,-155,4,0,0,0,889.433655
1651,1681,1,0,0,14,13.883527
-693,714,2,0,0,0,888.040344
-1371,-1178,3,0,0,4,23.915457
37,-921,4,1,0,11,31.394306
1253,815,1,0,0,0,771.003174
-1569,1405,2,1,0,14,13.883527
-1860,-466,3,0,0,4,23.915457
1409,-133,4,1,0,14,13.883527
1599,1820,1,1,0,14,13.883527
-905,857,2,0,0,0,823.221313
-508,-1395,3,1,0,4,23.915457
1572,-1460,4,0,0,11,31.394306
829,788,1,0,0,0,847.938599
-1769,1538,2,0,0,14,13.883527
-1202,-54,3,0,0,0,833.360046
1119,-191,4,0,0,0,850.104004
29,1247,1,0,0,0,823.001526
-923,1376,2,1,0,14,13.883527
-1456,-320,3,0,0,0,771.769714
323,-1451,4,1,0,11,31.394306
301,351,1,0,0,0,1108.921753
-1503,281,2,0,0,0,764.487427
-1143,-1711,3,0,0,4,23.915457
423,-49,4,0,0,0,1132.677612
1629,957,1,0,0,14,13.883527
-1066,551,2,0,0,0,834.133423
-23,-1181,3,1,0,11,31.394306
1539,-1668,4,0,0,11,31.394306
364,534,1,1,0,14,13.883527
-1534,28,2,0,0,0,763.510254
-498,-1831,3,0,0,4,23.915457
182,-461,4,0,0,0,1088.901855
260,1220,1,0,0,0,822.987610
-349,317,2,0,0,0,1103.307861
-1905,-660,3,1,0,4,23.915457
405,-886,4,0,0,0,894.133118
34,1014,1,1,0,14,13.883527
-1022,676,2,0,0,0,828.118225
-1088,-1747,3,0,0,4,23.915457
1722,-1632,4,0,0,11,31.394306
1625,163,1,1,0,14,13.883527
-1135,910,2,0,0,0,778.788513
-922,-744,3,1,0,4,23.915457
1168,-420,4,0,0,0,824.415588
82,1172,1,0,0,0,840.218445
-1042,782,2,0,0,0,810.492188
-1762,-1559,3,0,0,4,23.915457
607,-651,4,0,0,0,920.132996
1123,83,1,1,0,14,13.883527
-794,1138,2,0,0,0,792.364136
-1642,-718,3,0,0,4,23.915457
436,-104,4,0,0,0,1117.889160
1172,524,1,0,0,0,814.714539
-529,885,2,0,0,0,877.796448
-485,-1554,3,0,0,0,746.502258
267,-1554,4,0,0,0,755.664124
1187,686,1,0,0,0,795.831726
-890,647,2,0,0,0,859.079956
-859,-949,3,0,0,0,815.561340
1675,-1781,4,1,0,11,31.394306
1087,564,1,1,0,14,13.883527
-970,764,2,0,0,0,825.919373
-972,-1785,3,0,0,4,23.915457
1428,-417,4,1,0,11,31.394306
202,426,1,0,0,0,1103.314209
-1732,1416,2,1,0,14,13.883527
-327,-1512,3,0,0,0,761.143494
215,-1700,4,0,0,0,731.801208
1072,1660,1,0,0,14,13.883527
-158,1742,2,0,0,0,725.904541
-227,-1721,3,0,0,0,728.083435
1608,-1177,4,0,0,11,31.394306
1882,1215,1,0,0,14,13.883527
-685,1264,2,0,0,0,782.181091
-881,-182,3,1,0,4,23.915457
1186,-120,4,1,0,14,13.883527
234,1699,1,0,0,0,731.550903
-159,641,2,0,0,0,1006.131836
-651,-963,3,1,0,4,23.915457
122,-1901,4,0,0,11,31.394306
1815,1354,1,0,0,14,13.883527
-1694,1322,2,1,0,14,13.883527
-1523,-839,3,0,0,0,727.604675
28,-1065,4,0,0,0,868.371338
604,1719,1,0,0,14,13.883527
-762,644,2,1,0,14,13.883527
-575,-415,3,0,0,0,985.626099
793,-1262,4,1,0,11,31.394306
914,1551,1,0,0,14,13.883527
-1902,302,2,0,0,4,23.915457
-1963,-1662,3,1,0,4,23.915457
330,-581,4,0,0,0,1002.768005
1159,1161,1,0,0,0,744.296753
-615,1249,2,0,0,0,791.416138
-1498,-1885,3,1,0,4,23.915457
419,-597,4,0,0,0,977.513550
1566,1131,1,0,0,14,13.883527
-570,1451,2,0,0,0,758.927979
-1250,-1585,3,0,0,4,23.915457
1648,-571,4,0,0,0,726.730469
1726,1557,1,0,0,14,13.883527
-253,1708,2,0,0,0,729.618469
-1536,-1775,3,0,0,4,23.915457
1072,-886,4,1,0,11,31.394306
1795,816,1,0,0,14,13.883527
-628,876,2,0,0,0,865.018738
-1504,-1101,3,0,0,4,23.915457
1720,-95,4,1,0,14,13.883527
1266,368,1,1,0,14,13.883527
-70,1787,2,0,0,14,13.883527
-1901,-1977,3,1,0,4,23.915457
1876,-22,4,1,0,14,13.883527
426,1901,1,0,0,14,13.883527
-1465,1800,2,0,0,14,13.883527
-947,-1064,3,0,0,0,784.847473
262,-1076,4,0,0,0,857.224548
1558,149,1,0,0,0,757.794922
-33,1044,2,0,0,0,874.059692
-780,-1621,3,1,0,4,23.915457
650,-253,4,0,0,0,990.387329
763,1299,1,0,0,0,768.750061
-1760,781,2,1,0,4,23.915457
-1888,-1665,3,1,0,4,23.915457
1410,-946,4,1,0,11,31.394306
1094,466,1,1,0,14,13.883527
-965,1617,2,0,0,14,13.883527
-129,-924,3,1,0,4,23.915457
219,-628,4,0,0,0,1004.103149
1066,1433,1,0,0,14,13.883527
-774,1744,2,0,0,14,13.883527
-570,-1300,3,0,0,0,785.842529
1740,-1547,4,1,0,11,31.394306
1946,1317,1,0,0,14,13.883527
-39,1333,2,0,0,0,803.781677
-1497,-493,3,0,0,0,755.788147
1613,-1740,4,0,0,11,31.394306
1619,1500,1,0,0,14,13.883527
-859,775,2,0,0,0,844.642273
-879,-841,3,0,0,0,830.196106
1790,-1348,4,0,0,11,31.394306
396,878,1,0,0,0,897.404541
-1336,835,2,0,0,0,755.900085
-904,-1937,3,1,0,4,23.915457
1026,-1690,4,1,0,11,31.394306
171,1895,1,0,0,14,13.883527
-830,931,2,0,0,0,823.018921
-1035,-236,3,1,0,4,23.915457
559,-1833,4,1,0,11,31.394306
127,266,1,0,0,0,1238.792236
-678,1723,2,0,0,14,13.883527
-743,-594,3,1,0,4,23.915457
876,-1859,4,0,0,11,31.394306
1183,1386,1,1,0,14,13.883527
-1917,1398,2,0,0,14,13.883527
-1995,-343,3,0,0,4,23.915457
1219,-1461,4,0,0,11,31.394306
925,72,1,0,0,0,908.180542
-1027,520,2,0,0,0,846.087097
-1040,-1384,3,0,0,0,728.861511
1196,-1559,4,0,0,11,31.394306
728,442,1,0,0,0,932.840454
-356,1273,2,0,0,0,806.320984
-1195,-475,3,0,0,0,814.236511
293,-979,4,0,0,0,880.361328
413,1815,1,0,0,14,13.883527
-1955,857,2,0,0,4,23.915457
-970,-159,3,0,0,0,891.553040
1505,-1741,4,0,0,11,31.394306
1491,1708,1,0,0,14,13.883527
-1286,1321,2,0,0,14,13.883527
-911,-1140,3,0,0,0,777.895935
927,-847,4,0,0,0,821.083862
918,28,1,1,0,14,13.883527
-1082,1422,2,1,0,14,13.883527
-1030,-856,3,0,0,0,802.556458
918,-379,4,0,0,0,888.576233
295,42,1,0,0,0,1235.665405
-1167,21,2,0,0,0,842.104309
-415,-912,3,1,0,4,23.915457
1909,-666,4,1,0,11,31.394306
1342,1219,1,0,0,14,13.883527
-1021,949,2,0,0,0,791.059509
-344,-419,3,1,0,4,23.915457
1460,-1707,4,1,0,11,31.394306
1597,993,1,1,0,14,13.883527
-1298,1333,2,1,0,14,13.883527
-874,-881,3,0,0,0,824.470398
411,-381,4,0,0,0,1053.466309
120,345,1,0,0,0,1176.921753
-1474,1560,2,0,0,14,13.883527
-826,-528,3,0,0,0,892.318115
1057,-1340,4,1,0,11,31.394306
571,1282,1,1,0,14,13.883527
-1933,733,2,0,0,4,23.915457
-1005,-931,3,0,0,0,796.044312
1380,-1015,4,0,0,0,731.879272
884,864,1,0,0,0,825.603088
-679,416,2,0,0,0,952.209229
-1395,-83,3,1,0,4,23.915457
1994,-137,4,1,0,14,13.883527
1119,1199,1,0,0,0,744.373657
-766,545,2,0,0,0,904.388000
-398,-1042,3,0,0,0,855.157410
631,-1592,4,0,0,0,731.977051
1947,575,1,0,0,14,13.883527
-652,147,2,0,0,0,1002.686768
-1059,-1772,3,0,0,4,23.915457
684,-1260,4,0,0,0,782.980225
384,940,1,0,0,0,882.197205
-1787,1044,2,0,0,14,13.883527
-639,-1153,3,0,0,0,807.107483
425,-1781,4,0,0,11,31.394306
1567,766,1,0,0,0,726.716370
-1124,1256,2,0,0,0,736.532532
-944,-1517,3,0,0,4,23.915457
1521,-83,4,1,0,14,13.883527
912,602,1,1,0,14,13.883527
-1497,1546,2,1,0,14,13.883527
-1903,-1422,3,0,0,4,23.915457
443,-854,4,0,0,0,897.736389
61,940,1,0,0,0,903.812256
-1390,531,2,0,0,0,772.305420
-1237,-1208,3,0,0,0,729.226624
112,-449,4,0,0,0,1108.690796
1341,1473,1,0,0,14,13.883527
-1164,1859,2,0,0,14,13.883527
-403,-1803,3,0,0,4,23.915457
878,-1127,4,0,0,0,783.992798
283,495,1,1,0,14,13.883527
-90,1882,2,0,0,14,13.883527
-1432,-1336,3,0,0,4,23.915457
451,-1959,4,0,0,11,31.394306
362,1371,1,0,0,0,786.143311
-480,389,2,0,0,0,1025.349487
-327,-185,3,0,0,0,1168.800049
1006,-525,4,0,0,0,850.213501
763,1565,1,0,0,0,727.228516
-1036,1063,2,1,0,14,13.883527
-1302,-1798,3,0,0,4,23.915457
1123,-522,4,1,0,11,31.394306
974,256,1,1,0,14,13.883527
-1068,814,2,1,0,14,13.883527
-11,-675,3,1,0,11,31.394306
972,-1826,4,1,0,11,31.394306
1360,1574,1,0,0,14,13.883527
-1122,46,2,0,0,0,853.223755
-957,-253,3,1,0,4,23.915457
726,-1640,4,1,0,11,31.394306
1046,1610,1,0,0,14,13.883527
-1027,1824,2,1,0,14,13.883527
-370,-1981,3,0,0,4,23.915457
103,-1323,4,0,0,0,805.200684
1170,960,1,0,0,0,767.432251
-955,1357,2,0,0,0,741.015869
-971,-78,3,1,0,4,23.915457
827,-1588,4,0,0,11,31.394306
935,364,1,0,0,0,885.635498
-1060,1868,2,0,0,14,13.883527
-379,-78,3,0,0,0,1160.298218
1401,-525,4,0,0,0,770.734009
507,339,1,1,0,14,13.883527
-768,194,2,1,0,4,23.915457
-1783,-1714,3,0,0,4,23.915457
1771,-401,4,0,0,14,13.883527
929,813,1,0,0,0,825.974731
-1027,1437,2,0,0,14,13.883527
-1209,-1870,3,0,0,4,23.915457
590,-1476,4,0,0,0,753.347229
1345,768,1,0,0,0,760.797546
-770,975,2,0,0,0,824.145081
-1898,-963,3,0,0,4,23.915457
543,-411,4,0,0,0,997.285828
762,1271,1,0,0,0,773.475891
-948,156,2,0,0,0,898.129700
-751,-1501,3,1,0,4,23.915457
1129,-712,4,0,0,0,803.525208
397,113,1,0,0,0,1141.662109
-1360,1652,2,1,0,14,13.883527
-1648,-1364,3,0,0,4,23.915457
1909,-1222,4,0,0,11,31.394306
1525,1484,1,0,0,14,13.883527
-818,173,2,0,0,0,938.159424
-1792,-493,3,0,0,4,23.915457
246,-1864,4,0,0,11,31.394306
951,1066,1,0,0,0,784.010986
-1924,514,2,0,0,4,23.915457
-1535,-312,3,0,0,0,757.560486
1482,-816,4,0,0,0,735.463196
652,1263,1,0,0,0,785.459961
-393,962,2,0,0,0,875.535889
-828,-1136,3,0,0,0,788.637390
1680,-65,4,0,0,0,737.255554
1792,1096,1,0,0,14,13.883527
-601,1902,2,1,0,14,13.883527
-361,-43,3,0,0,0,1178.284668
1517,-406,4,1,0,11,31.394306
285,1490,1,0,0,0,766.755371
-811,1597,2,0,0,14,13.883527
-1355,-98,3,0,0,0,798.450012
415,-56,4,0,0,0,1137.504883
1215,1195,1,0,0,0,733.371094
-1238,1728,2,1,0,14,13.883527
-601,-247,3,0,0,0,1010.817993
1545,-460,4,0,0,0,749.318604
1381,1807,1,0,0,14,13.883527
-1625,1701,2,0,0,14,13.883527
-884,-1196,3,0,0,0,772.447449
971,-1155,4,1,0,11,31.394306
1999,1554,1,0,0,14,13.883527
-566,1117,2,1,0,14,13.883527
-138,-968,3,0,0,0,893.067749
630,-55,4,0,0,0,1018.634094
1670,565,1,1,0,14,13.883527
-1453,1630,2,0,0,14,13.883527
-442,-752,3,1,0,4,23.915457
1050,-649,4,0,0,0,826.003784
1497,1710,1,0,0,14,13.883527
-1157,1592,2,0,0,14,13.883527
-905,-87,3,0,0,0,914.021179
1426,-1910,4,0,0,11,31.394306
660,432,1,0,0,0,954.932617
-1450,697,2,1,0,4,23.915457
-1341,-498,3,0,0,0,783.622375
103,-1756,4,0,0,0,724.291931
533,1069,1,1,0,18,382.888947
-280,1285,2,0,0,0,807.779419
-1299,-470,3,0,0,0,793.651611
1387,-596,4,1,0,11,31.394306
1357,779,1,1,0,14,13.883527
-1301,1592,2,0,0,14,13.883527
-179,-283,3,0,0,0,1202.000732
1401,-1521,4,0,0,11,31.394306
1534,1320,1,0,0,14,13.883527
-770,463,2,0,0,0,917.428345
-395,-534,3,0,0,0,1004.482727
1681,-688,4,0,0,11,31.394306
1476,1394,1,1,0,14,13.883527
-1026,1230,2,0,0,0,751.155029
-1698,-1282,3,1,0,4,23.915457
523,-467,4,0,0,0,988.881653
1569,782,1,1,0,14,13.883527
-1739,391,2,0,0,4,23.915457
-1559,-1803,3,0,0,4,23.915457
1032,-557,4,0,0,0,840.744019
618,1011,1,0,0,0,837.765869
-679,1237,2,0,0,0,787.541626
-365,-805,3,1,0,4,23.915457
298,-623,4,1,0,11,31.394306
939,336,1,1,0,14,13.883527
-937,974,2,0,0,0,799.935669
-1742,-1688,3,1,0,4,23.915457
1331,-1000,4,0,0,0,740.076843
762,1167,1,0,0,0,791.097107
-1854,1087,2,0,0,14,13.883527
-1258,-261,3,0,0,0,814.494568
1330,-1572,4,0,0,11,31.394306
522,591,1,1,0,14,13.883527
-275,506,2,0,0,0,1045.614990
-310,-383,3,0,0,0,1090.588135
927,-584,4,0,0,0,860.312073
726,521,1,0,0,0,918.998230
-776,1923,2,0,0,14,13.883527
-1105,-82,3,1,0,4,23.915457
1359,-849,4,0,0,0,751.037292
450,1398,1,0,0,0,776.061096
-1017,812,2,0,0,0,810.802002
-1317,-1264,3,0,0,4,23.915457
450,-1712,4,0,0,11,31.394306
301,1881,1,0,0,14,13.883527
-242,416,2,1,0,14,13.883527
-693,-588,3,0,0,0,914.125916
1253,-1125,4,1,0,11,31.394306
8,111,1,0,0,0,1519.820557
-1950,1215,2,1,0,14,13.883527
-430,-864,3,0,0,0,896.832153
296,-33,4,1,0,14,13.883527
1744,1024,1,1,0,14,13.883527
-1434,1471,2,0,0,14,13.883527
-434,-1551,3,0,0,0,749.576477
577,-60,4,0,0,0,1043.514526
957,531,1,0,0,0,860.621216
-420,180,2,0,0,0,1112.335693
-578,-531,3,0,0,0,956.370483
664,-999,4,0,0,0,834.239319
798,1858,1,0,0,14,13.883527
-288,315,2,0,0,0,1132.011841
-167,-902,3,0,0,0,911.448547
1000,-81,4,1,0,14,13.883527
995,1198,1,1,0,14,13.883527
-358,1516,2,1,0,14,13.883527
-1084,-651,3,0,0,0,819.080872
1238,-513,4,0,0,0,802.382019
1389,570,1,0,0,0,769.724365
-617,73,2,0,0,0,1023.735901
-422,-574,3,1,0,4,23.915457
1514,-1206,4,0,0,11,31.394306
1175,1565,1,0,0,14,13.883527
-738,1012,2,0,0,0,821.810791
-1602,-1730,3,0,0,4,23.915457
697,-1568,4,0,0,0,731.401062
68,613,1,1,0,14,13.883527
-1452,673,2,1,0,4,23.915457
-949,-1256,3,0,0,0,756.130798
198,-764,4,0,0,0,954.776184
667,1388,1,0,0,0,762.447388
-1118,55,2,0,0,0,854.145325
-1902,-777,3,1,0,4,23.915457
1845,-485,4,0,0,11,31.394306
1429,1069,1,0,0,14,13.883527
-707,929,2,0,0,0,842.045166
-55,-1270,3,0,0,0,817.554321
1799,-1889,4,0,0,11,31.394306
1082,1275,1,0,0,0,738.799805
-408,1250,2,0,0,0,807.834473
-377,-92,3,1,0,4,23.915457
113,-632,4,0,0,0,1014.278931
1233,357,1,0,0,0,814.751465
-299,728,2,1,0,14,13.883527
-573,-550,3,0,0,0,952.953613
1264,-1033,4,0,0,0,745.711975
1129,810,1,1,0,14,13.883527
-17,1528,2,0,0,0,764.665466
-1842,-676,3,1,0,4,23.915457
1563,-1086,4,0,0,11,31.394306
132,544,1,0,0,0,1053.798096
-526,592,2,0,0,0,953.798706
-267,-1003,3,0,0,0,875.882019
687,-960,4,0,0,0,838.843018
1856,1392,1,0,0,14,13.883527
-1623,526,2,0,0,0,733.047668
-1151,-685,3,0,0,0,802.525146
1884,-1231,4,0,0,11,31.394306
1499,321,1,0,0,0,763.748047
-464,34,2,0,0,0,1107.145508
-714,-1890,3,0,0,4,23.915457
240,-480,4,0,0,0,1065.965698
1170,328,1,0,0,0,830.530640
-700,969,2,0,0,0,835.235840
-800,-466,3,1,0,4,23.915457
1419,-1219,4,0,0,11,31.394306
553,546,1,0,0,0,959.233154
-723,1795,2,0,0,14,13.883527
-1776,-525,3,0,0,4,23.915457
1879,-1014,4,1,0,11,31.394306
516,1189,1,0,0,0,811.965881
-668,1682,2,1,0,14,13.883527
-1459,-635,3,1,0,4,23.915457
665,-1475,4,0,0,0,748.261108
565,1880,1,0,0,14,13.883527
-1011,1721,2,0,0,14,13.883527
-818,-428,3,0,0,0,909.609619
1768,-611,4,1,0,11,31.394306
248,1042,1,0,0,0,866.825317
-525,1031,2,0,0,0,844.633667
-500,-1766,3,0,0,4,23.915457
1738,-835,4,0,0,11,31.394306
381,1559,1,0,0,0,750.593201
-1286,460,2,0,0,0,796.918945
-716,-1601,3,0,0,0,725.141663
594,-1351,4,0,0,0,774.661011
106,1991,1,0,0,14,13.883527
-1582,203,2,0,0,0,752.370422
-1404,-1208,3,0,0,4,23.915457
1938,-785,4,1,0,11,31.394306
120,1563,1,1,0,14,13.883527
-1734,1064,2,1,0,14,13.883527
-1179,-1763,3,0,0,4,23.915457
1647,-648,4,0,0,11,31.394306
1932,849,1,0,0,14,13.883527
-1384,143,2,1,0,4,23.915457
-874,-1632,3,0,0,4,23.915457
277,-1448,4,0,0,0,774.964722
567,1642,1,1,0,14,13.883527
-815,240,2,1,0,4,23.915457
-872,-754,3,0,0,0,845.678406
1374,-1799,4,0,0,11,31.394306
1464,654,1,0,0,0,750.851318
-397,1871,2,0,0,14,13.883527
-1755,-1099,3,0,0,4,23.915457
1391,-1827,4,0,0,11,31.394306
1195,1480,1,1,0,14,13.883527
-1157,1463,2,1,0,14,13.883527
-1662,-1389,3,0,0,4,23.915457
1716,-849,4,0,0,11,31.394306
70,1231,1,0,0,0,826.328857
-1399,142,2,1,0,4,23.915457
-373,-835,3,0,0,0,912.330688
1009,-808,4,1,0,11,31.394306
810,1095,1,0,0,0,797.712341
-1152,687,2,0,0,0,802.121460
-1640,-1964,3,0,0,4,23.915457
129,-235,4,0,0,0,1266.167358
596,371,1,1,0,14,13.883527
-1902,1479,2,0,0,14,13.883527
-983,-483,3,1,0,4,23.915457
1866,-137,4,0,0,14,13.883527
1347,1457,1,0,0,14,13.883527
-483,1058,2,1,0,14,13.883527
-1097,-1268,3,0,0,0,738.038513
961,-1462,4,1,0,11,31.394306
649,673,1,0,0,0,905.969055
-1122,667,2,0,0,0,809.944214
-558,-56,3,0,0,0,1053.274536
250,-488,4,0,0,0,1059.770874
1809,401,1,0,0,14,13.883527
-972,1848,2,0,0,14,13.883527
-868,-1050,3,0,0,0,797.650513
1617,-312,4,0,0,0,743.190857
420,1103,1,0,0,0,838.900879
-1481,444,2,0,0,0,761.298096
-1759,-1847,3,0,0,4,23.915457
510,-174,4,0,0,0,1064.781006
1372,1258,1,0,0,14,13.883527
-1965,796,2,0,0,4,23.915457
-534,-545,3,0,0,0,964.516846
714,-100,4,1,0,14,13.883527
953,1799,1,1,0,14,13.883527
-704,180,2,0,0,0,978.588684
-1321,-822,3,0,0,0,759.494751
44,-707,4,0,0,0,985.931702
1367,1398,1,0,0,14,13.883527
-1921,233,2,0,0,4,23.915457
-661,-202,3,0,0,0,993.013062
251,-491,4,0,0,0,1058.131348
388,687,1,0,0,0,954.865540
-690,663,2,0,0,0,899.284180
-1999,-894,3,0,0,4,23.915457
640,-482,4,0,0,0,950.441833
882,168,1,0,0,0,917.628418
-1598,671,2,0,0,0,728.537170
-441,-993,3,1,0,4,23.915457
361,-799,4,0,0,0,924.475037
1852,613,1,1,0,14,13.883527
-276,655,2,0,0,0,984.953979
-394,-576,3,0,0,0,990.238403
43,-1144,4,0,0,0,847.674988
1709,913,1,0,0,14,13.883527
-914,342,2,0,0,0,893.627258
-1870,-854,3,0,0,4,23.915457
1599,-1557,4,0,0,11,31.394306
586,1675,1,0,0,14,13.883527
-783,903,2,1,0,14,13.883527
-1893,-1050,3,0,0,4,23.915457
599,-1347,4,1,0,11,31.394306
1027,586,1,0,0,0,838.373535
-953,1080,2,0,0,0,781.647949
-1829,-466,3,0,0,4,23.915457
468,-182,4,1,0,11,31.394306
1898,289,1,0,0,14,13.883527
-483,1153,2,0,0,0,822.370056
-535,-1205,3,1,0,4,23.915457
1706,-21,4,0,0,0,733.044128
1698,338,1,0,0,0,728.842896
-1885,33,2,0,0,4,23.915457
-468,-1065,3,0,0,0,843.066345
1352,-1097,4,0,0,0,727.232300
1173,711,1,0,0,0,795.687866
-644,675,2,0,0,0,906.591370
-1141,-1088,3,0,0,0,755.697693
31,-167,4,0,0,0,1397.827759
1150,1115,1,0,0,0,751.146729
-798,982,2,0,0,0,818.876770
-1232,-1070,3,1,0,4,23.915457
1188,-1885,4,1,0,11,31.394306
739,528,1,0,0,0,914.315918
-1240,281,2,1,0,4,23.915457
-1244,-1792,3,0,0,4,23.915457
307,-696,4,1,0,11,31.394306
1175,246,1,0,0,0,834.015198
-1456,160,2,0,0,0,776.819946
-1608,-550,3,1,0,4,23.915457
472,-1342,4,0,0,0,785.213135
305,1702,1,0,0,0,729.207520
-65,1995,2,0,0,14,13.883527
-1226,-263,3,0,0,0,821.494263
236,-455,4,0,0,0,1079.211426
418,1055,1,0,0,0,850.203857
-1592,1703,2,0,0,14,13.883527
-1862,-1619,3,0,0,4,23.915457
186,-1031,4,0,0,0,873.200500
1598,1414,1,0,0,14,13.883527
-800,708,2,0,0,0,867.580261
-621,-1012,3,0,0,0,837.179138
97,-1445,4,0,0,0,780.076294
1831,70,1,1,0,14,13.883527
-1820,559,2,0,0,4,23.915457
-1905,-1507,3,0,0,4,23.915457
1315,-1608,4,0,0,11,31.394306
14,1638,1,0,0,0,744.721863
-494,937,2,0,0,0,870.029663
-1623,-605,3,1,0,4,23.915457
1449,-145,4,1,0,14,13.883527
127,1571,1,0,0,0,755.781616
-119,1274,2,0,0,0,815.670471
-1390,-908,3,0,0,0,740.854858
1638,-371,4,0,0,0,737.557312
558,119,1,0,0,0,1048.307251
-142,1366,2,0,0,0,795.331421
-1368,-74,3,0,0,0,796.035706
859,-1432,4,0,0,0,739.202637
1043,1890,1,0,0,14,13.883527
-867,897,2,0,0,0,822.960083
-1359,-192,3,0,0,0,795.512695
839,-1393,4,0,0,0,746.815002
228,973,1,0,0,0,886.785461
-1683,1252,2,0,0,14,13.883527
-1858,-77,3,0,0,4,23.915457
877,-134,4,0,0,0,921.074951
1293,87,1,0,0,0,812.013672
-466,1763,2,1,0,14,13.883527
-1439,-1993,3,0,0,4,23.915457
633,-539,4,0,0,0,939.784851
996,1622,1,0,0,14,13.883527
-408,1843,2,1,0,14,13.883527
-89,-1298,3,0,0,0,810.879272
1482,-659,4,0,0,0,747.563721
1459,300,1,1,0,14,13.883527
-1873,663,2,0,0,4,23.915457
-316,-142,3,0,0,0,1192.192871
1558,-1149,4,1,0,11,31.394306
1352,447,1,0,0,0,784.932007
-1020,1750,2,0,0,14,13.883527
-1464,-20,3,0,0,0,776.943054
1188,-147,4,0,0,0,834.834595
217,1374,1,0,0,0,791.657898
-1696,1700,2,0,0,14,13.883527
-73,-1124,3,0,0,0,852.347412
246,-1145,4,1,0,11,31.394306
668,324,1,1,0,14,13.883527
-36,1853,2,1,0,14,13.883527
-1991,-1081,3,0,0,4,23.915457
912,-172,4,0,0,0,908.093506
426,644,1,1,0,14,13.883527
-385,1080,2,1,0,14,13.883527
-276,-528,3,0,0,0,1035.827393
390,-1384,4,1,0,11,31.394306
1670,700,1,1,0,14,13.883527
-855,1313,2,1,0,14,13.883527
-1605,-1211,3,0,0,4,23.915457
88,-1359,4,0,0,0,797.751221
1007,1477,1,0,0,14,13.883527
-1838,239,2,0,0,4,23.915457
-1993,-682,3,0,0,4,23.915457
106,-625,4,0,0,0,1017.937988
504,104,1,1,0,14,13.883527
-1315,16,2,1,0,4,23.915457
-793,-900,3,0,0,0,834.244080
603,-1342,4,1,0,11,31.394306
830,371,1,1,0,14,13.883527
-1190,1883,2,1,0,14,13.883527
-1660,-1226,3,0,0,4,23.915457
156,-772,4,0,0,0,955.374023
967,1510,1,0,0,14,13.883527
-1923,1526,2,0,0,14,13.883527
-1944,-577,3,0,0,4,23.915457
76,-428,4,0,0,0,1126.733643
995,598,1,0,0,0,843.665039
-263,1730,2,1,0,14,13.883527
-795,-163,3,1,0,4,23.915457
423,-530,4,0,0,0,998.515808
1044,776,1,0,0,0,810.931335
-655,942,2,0,0,0,847.039124
-199,-746,3,0,0,0,961.108276
1430,-677,4,0,0,0,754.684998
876,1429,1,1,0,14,13.883527
-514,921,2,1,0,14,13.883527
-1386,-694,3,1,0,4,23.915457
972,-612,4,0,0,0,846.718384
1359,1228,1,0,0,14,13.883527
-1222,1549,2,0,0,14,13.883527
-443,-1581,3,1,0,4,23.915457
359,-1203,4,1,0,11,31.394306
445,1309,1,1,0,14,13.883527
-1568,690,2,0,0,0,731.874512
-250,-63,3,0,0,0,1277.428467
1820,-312,4,0,0,14,13.883527
326,1636,1,1,0,14,13.883527
-1530,1445,2,0,0,14,13.883527
-761,-1022,3,0,0,0,816.872620
1385,-1894,4,1,0,11,31.394306
779,1060,1,0,0,0,807.711731
-1379,1268,2,1,0,14,13.883527
-1661,-1090,3,0,0,4,23.915457
1147,-1893,4,0,0,11,31.394306
1337,42,1,0,0,0,802.901550
-1191,1809,2,0,0,14,13.883527
-445,-1911,3,0,0,4,23.915457
312,-1267,4,1,0,11,31.394306
1588,1743,1,1,0,14,13.883527
-213,1871,2,1,0,14,13.883527
-46,-1693,3,0,0,0,735.153687
1651,-1322,4,1,0,11,31.394306
1856,477,1,0,0,14,13.883527
-445,1113,2,0,0,0,834.449524
-1433,-1656,3,0,0,4,23.915457
1748,-66,4,1,0,14,13.883527
1429,98,1,0,0,0,783.246643
-1969,1161,2,1,0,14,13.883527
-314,-402,3,0,0,0,1080.601685
202,-1793,4,0,0,11,31.394306
1175,1905,1,1,0,14,13.883527
-1300,232,2,0,0,0,806.604248
-767,-1445,3,0,0,0,745.092590
1743,-1744,4,1,0,11,31.394306
1201,433,1,1,0,14,13.883527
-1530,1336,2,0,0,14,13.883527
-902,-1860,3,0,0,4,23.915457
517,-71,4,1,0,14,13.883527
360,950,1,0,0,0,882.051575
-996,1896,2,0,0,14,13.883527
-1501,-1551,3,0,0,4,23.915457
794,-211,4,0,0,0,943.212708
1209,1940,1,0,0,14,13.883527
-1081,646,2,0,0,0,820.252808
-772,-1190,3,0,0,0,786.043396
1173,-304,4,0,0,0,831.325684
581,1291,1,0,0,0,786.604370
-1555,211,2,1,0,4,23.915457
-1067,-1543,3,0,0,4,23.915457
992,-1938,4,0,0,11,31.394306
322,1223,1,0,0,0,819.030823
-1816,1277,2,0,0,14,13.883527
-1874,-920,3,0,0,4,23.915457
543,-613,4,0,0,0,944.141785
1646,197,1,0,0,0,741.294800
-1409,1445,2,0,0,14,13.883527
-1112,-23,3,0,0,0,855.980164
891,-434,4,0,0,0,889.180176
1770,588,1,0,0,14,13.883527
-434,1518,2,0,0,0,755.291016
-1094,-1211,3,1,0,4,23.915457
801,-1280,4,0,0,0,768.091736
795,129,1,1,0,14,13.883527
-1548,930,2,1,0,14,13.883527
-189,-1136,3,1,0,4,23.915457
684,-1934,4,0,0,11,31.394306
1463,587,1,0,0,0,755.737244
-303,1119,2,0,0,0,844.056213
-1381,-1672,3,0,0,4,23.915457
1856,-1388,4,1,0,11,31.394306
1639,2,1,0,0,0,744.557068
-1721,147,2,0,0,0,729.513733
-207,-1476,3,0,0,0,771.828430
1387,-180,4,0,0,0,790.092102
1050,1063,1,0,0,0,771.116394
-142,500,2,1,0,14,13.883527
-763,-1665,3,0,0,4,23.915457
282,-1973,4,1,0,11,31.394306
1112,435,1,0,0,0,835.557434
-920,696,2,0,0,0,845.471191
-1827,-180,3,0,0,4,23.915457
571,-747,4,1,0,11,31.394306
843,1341,1,0,0,0,754.358582
-1240,630,2,0,0,0,791.692505
-1357,-1772,3,0,0,4,23.915457
513,-373,4,0,0,0,1017.781494
994,1151,1,0,0,0,766.038879
-311,177,2,1,0,14,13.883527
-1497,-355,3,0,0,0,762.713928
1880,-350,4,0,0,14,13.883527
1247,1041,1,0,0,0,747.123474
-1922,813,2,0,0,4,23.915457
-478,-1157,3,1,0,4,23.915457
706,-1606,4,0,0,0,725.057068
1438,328,1,0,0,0,774.833008
-545,810,2,0,0,0,893.511658
-124,-1902,3,0,0,11,31.394306
1233,-1233,4,0,0,0,726.794922
485,1611,1,0,0,0,737.056763
-1851,357,2,1,0,4,23.915457
-114,-538,3,0,0,0,1058.911987
991,-1078,4,0,0,0,776.911743
420,1125,1,1,0,18,386.946106
-48,948,2,1,0,14,13.883527
-268,-534,3,0,0,0,1035.009399
1691,-1252,4,0,0,11,31.394306
1707,530,1,0,0,14,13.883527
-1776,248,2,1,0,4,23.915457
-1692,-58,3,0,0,0,735.260437
203,-877,4,0,0,0,916.881836
89,1320,1,0,0,0,806.069763
-1836,1032,2,0,0,14,13.883527
-478,-211,3,0,0,0,1073.675049
1027,-1792,4,0,0,11,31.394306
316,356,1,0,0,0,1100.543579
-879,1264,2,0,0,0,762.513733
-1156,-1525,3,1,0,4,23.915457
286,-1739,4,0,0,11,31.394306
950,329,1,0,0,0,885.061951
-349,1623,2,0,0,0,740.887878
-479,-775,3,1,0,4,23.915457
1877,-1803,4,0,0,11,31.394306
1108,326,1,0,0,0,845.133850
-1253,718,2,0,0,0,780.893494
-1342,-1426,3,1,0,4,23.915457
1695,-99,4,1,0,14,13.883527
494,1585,1,0,0,0,740.870728
-39,642,2,1,0,14,13.883527
-1420,-1841,3,0,0,4,23.915457
344,-1007,4,1,0,11,31.394306
997,1280,1,0,0,0,747.465454
-268,1064,2,0,0,0,859.889160
-596,-401,3,0,0,0,981.901306
1663,-645,4,0,0,11,31.394306
36,1861,1,1,0,14,13.883527
-1183,708,2,0,0,0,794.221069
-882,-1800,3,1,0,4,23.915457
947,-16,4,0,0,0,902.239624
1423,1216,1,0,0,14,13.883527
-150,1796,2,0,0,14,13.883527
-1717,-625,3,0,0,4,23.915457
1233,-1712,4,0,0,11,31.394306
1674,383,1,0,0,0,731.180420
-514,80,2,1,0,4,23.915457
-1584,-1395,3,0,0,4,23.915457
1406,-1613,4,1,0,11,31.394306
1181,1533,1,0,0,14,13.883527
-1706,147,2,0,0,0,732.005493
-929,-954,3,0,0,0,804.206909
997,-317,4,0,0,0,873.602295
221,1342,1,0,0,0,798.125122
-994,1356,2,0,0,0,737.248230
-1219,-1257,3,0,0,0,725.601135
1348,-211,4,0,0,0,797.209778
1485,1486,1,1,0,14,13.883527
-568,867,2,0,0,0,876.281555
-1766,-736,3,0,0,4,23.915457
1861,-328,4,0,0,14,13.883527
1102,1465,1,0,0,14,13.883527
-669,271,2,1,0,4,23.915457
-1617,-28,3,0,0,0,748.391357
656,-158,4,0,0,0,999.942566
1476,1762,1,0,0,14,13.883527
-639,1370,2,0,0,0,767.763367
-728,-1787,3,0,0,4,23.915457
211,-911,4,0,0,0,905.917664
742,94,1,1,0,14,13.883527
-1779,412,2,0,0,4,23.915457
-108,-1353,3,1,0,11,31.394306
27,-1598,4,0,0,0,751.785156
835,1490,1,0,0,0,732.727051
-962,1128,2,0,0,0,773.362122
-276,-1329,3,0,0,0,798.700134
1185,-1336,4,0,0,11,31.394306
1784,728,1,0,0,14,13.883527
-575,990,2,0,0,0,847.659546
-1560,-1728,3,1,0,4,23.915457
1792,-850,4,0,0,11,31.394306
1323,246,1,1,0,14,13.883527
-467,1850,2,1,0,14,13.883527
-1131,-911,3,0,0,0,779.281006
792,-180,4,0,0,0,946.514404
621,905,1,0,0,0,859.799927
-98,1058,2,0,0,0,869.139465
-472,-1904,3,1,0,4,23.915457
941,-1139,4,1,0,11,31.394306
1367,1501,1,0,0,14,13.883527
-1798,307,2,1,0,4,23.915457
-1986,-1471,3,0,0,4,23.915457
1261,-1573,4,0,0,11,31.394306
1288,1575,1,0,0,14,13.883527
-566,36,2,0,0,0,1050.032715
-518,-102,3,0,0,0,1070.683716
790,-1243,4,0,0,0,775.247986
329,457,1,0,0,0,1052.092285
-1064,1237,2,0,0,0,745.847534
-1058,-153,3,0,0,0,867.390137
251,-1804,4,0,0,11,31.394306
177,313,1,0,0,0,1181.453369
-637,42,2,0,0,0,1015.917786
-1220,-1100,3,0,0,0,743.913757
1743,-1192,4,0,0,11,31.394306
1405,185,1,1,0,14,13.883527
-948,1391,2,1,0,14,13.883527
-1507,-1326,3,0,0,4,23.915457
1446,-1675,4,0,0,11,31.394306
1115,530,1,1,0,14,13.883527
-1449,907,2,1,0,14,13.883527
-1443,-1492,3,0,0,4,23.915457
1361,-1597,4,0,0,11,31.394306
1147,289,1,0,0,0,838.270203
-331,1153,2,0,0,0,834.231995
-694,-581,3,1,0,4,23.915457
744,-299,4,0,0,0,950.214600
239,400,1,0,0,0,1106.700684
-590,893,2,1,0,14,13.883527
-1079,-601,3,0,0,0,825.839539
823,-1941,4,1,0,11,31.394306
437,1077,1,0,0,0,843.316528
-1583,345,2,0,0,0,747.874512
-964,-1573,3,0,0,4,23.915457
690,-1596,4,0,0,0,727.610962
1340,947,1,0,0,0,744.232544
-682,100,2,0,0,0,993.799927
-1031,-1351,3,0,0,0,734.167542
1178,-559,4,1,0,11,31.394306
76,1545,1,0,0,0,761.159912
-1752,1906,2,0,0,14,13.883527
-140,-1386,3,0,0,0,791.240479
536,-1297,4,1,0,11,31.394306
1515,52,1,0,0,0,766.967163
-840,889,2,0,0,0,828.649780
-1437,-398,3,0,0,0,771.702820
1801,-369,4,1,0,14,13.883527
1278,1577,1,0,0,14,13.883527
-482,1742,2,0,0,14,13.883527
-1643,-328,3,0,0,0,738.253113
1310,-1235,4,1,0,11,31.394306
1292,618,1,0,0,0,783.278687
-837,1353,2,1,0,14,13.883527
-603,-607,3,0,0,0,931.513977
1713,-1345,4,0,0,11,31.394306
1584,815,1,0,0,14,13.883527
-173,1931,2,1,0,14,13.883527
-1811,-1679,3,0,0,4,23.915457
452,-1321,4,1,0,11,31.394306
1163,407,1,0,0,0,826.522156
-918,86,2,1,0,4,23.915457
-1404,-700,3,0,0,0,757.114014
1575,-1207,4,1,0,11,31.394306
280,1935,1,1,0,14,13.883527
-851,1326,2,0,0,0,755.879700
-769,-230,3,0,0,0,949.918213
1199,-1851,4,1,0,11,31.394306
402,1384,1,0,0,0,781.478394
-1221,1683,2,0,0,14,13.883527
-1387,-1539,3,1,0,4,23.915457
845,-882,4,1,0,11,31.394306
692,964,1,0,0,0,837.344849
-1856,1748,2,1,0,14,13.883527
-1011,-811,3,0,0,0,811.977539
1377,-1004,4,0,0,0,733.376099
1670,603,1,0,0,14,13.883527
-1408,1216,2,0,0,14,13.883527
-1312,-652,3,0,0,0,776.758850
1765,-491,4,0,0,11,31.394306
1573,1435,1,0,0,14,13.883527
-1240,981,2,0,0,0,754.872314
-812,-763,3,0,0,0,855.464722
667,-1191,4,0,0,0,797.075195
1498,546,1,0,0,0,752.472778
-381,763,2,0,0,0,932.447449
-1493,-1660,3,1,0,4,23.915457
1535,-25,4,0,0,0,763.333008
1197,1094,1,1,0,14,13.883527
-58,15,2,0,0,0,1698.511841
-545,-1458,3,0,0,0,759.372253
1028,-931,4,0,0,0,792.508484
1171,1828,1,0,0,14,13.883527
-771,1107,2,0,0,0,800.468079
-1185,-310,3,1,0,4,23.915457
620,-634,4,0,0,0,921.208557
170,1341,1,0,0,0,799.893494
-1413,448,2,1,0,4,23.915457
-671,-1189,3,0,0,0,797.029541
660,-1124,4,1,0,11,31.394306
1233,436,1,0,0,0,809.387390
-917,418,2,1,0,4,23.915457
-1331,-850,3,0,0,0,755.211365
1844,-581,4,0,0,11,31.394306
509,243,1,1,0,14,13.883527
-1885,516,2,0,0,4,23.915457
-1272,-702,3,1,0,4,23.915457
579,-568,4,0,0,0,946.907715
963,750,1,0,0,0,829.232849
-730,1970,2,0,0,14,13.883527
-342,-314,3,0,0,0,1107.741089
1195,-1746,4,0,0,11,31.394306
1449,623,1,0,0,0,755.576172
-516,815,2,0,0,0,896.973511
-1762,-40,3,0,0,4,23.915457
329,-1379,4,0,0,0,786.200867
1626,1307,1,0,0,14,13.883527
-1014,1813,2,1,0,14,13.883527
-441,-481,3,0,0,0,1009.583313
1125,-704,4,0,0,0,805.175903
303,893,1,0,0,0,903.498352
-46,1933,2,0,0,14,13.883527
-478,-1151,3,0,0,0,823.238708
1007,-1303,4,0,0,0,743.200134
203,1243,1,0,0,0,820.218201
-1399,121,2,0,0,0,788.945801
-55,-1047,3,0,0,0,872.980835
1884,-711,4,1,0,11,31.394306
270,1219,1,0,0,0,822.723389
-652,1471,2,0,0,0,749.853943
-1871,-1072,3,0,0,4,23.915457
441,-335,4,0,0,0,1056.892578
1012,195,1,0,0,0,877.917847
-1785,791,2,0,0,4,23.915457
-1429,-688,3,1,0,4,23.915457
841,-1657,4,0,0,11,31.394306
103,504,1,0,0,0,1078.170288
-1530,1592,2,1,0,14,13.883527
-1853,-901,3,0,0,4,23.915457
443,-1574,4,0,0,0,745.231384
1105,1245,1,1,0,14,13.883527
-309,1524,2,1,0,14,13.883527
-1796,-1534,3,0,0,4,23.915457
1818,-821,4,0,0,11,31.394306
1830,402,1,1,0,14,13.883527
-1406,643,2,1,0,4,23.915457
-140,-921,3,0,0,0,907.008728
385,-1639,4,0,0,0,736.854248
1053,1489,1,0,0,14,13.883527
-367,678,2,0,0,0,961.530457
-1562,-1010,3,0,0,4,23.915457
1032,-703,4,0,0,0,822.689087
1339,1387,1,0,0,14,13.883527
-1051,813,2,0,0,0,804.822937
-1098,-470,3,1,0,4,23.915457
873,-642,4,1,0,11,31.394306
1082,1315,1,0,0,0,733.583435
-1107,1528,2,0,0,14,13.883527
-1461,-230,3,1,0,4,23.915457
1666,-1011,4,0,0,11,31.394306
830,170,1,0,0,0,934.347351
-1334,795,2,0,0,0,760.037842
-1611,-1220,3,0,0,4,23.915457
783,-1923,4,1,0,11,31.394306
1807,321,1,1,0,14,13.883527
-775,252,2,0,0,0,945.542542
-1936,-1567,3,0,0,4,23.915457
695,-489,4,0,0,0,933.477844
811,112,1,0,0,0,944.217712
-1703,587,2,0,0,4,23.915457
-539,-1795,3,0,0,4,23.915457
1678,-1529,4,0,0,11,31.394306
-1146,363,2,0,0,0,833.622070
-671,-70,3,0,0,0,999.992737
660,-645,4,1,0,11,31.394306
-586,450,2,1,0,14,13.883527
-582,-49,3,1,0,4,23.915457
1400,-1157,4,0,0,11,31.394306
-1452,10,2,1,0,4,23.915457
-753,-1340,3,0,0,0,762.982483
599,-803,4,0,0,0,886.081116
-6,1012,2,0,0,0,883.160461
1900,-770,4,0,0,11,31.394306
-426,1669,2,0,0,0,730.304504
155,-1599,4,0,0,0,750.304626
-462,821,2,0,0,0,903.785706
1628,-388,4,0,0,0,738.565247
-905,128,2,0,0,0,912.493591
904,-579,4,0,0,0,866.175842
-206,1237,2,0,0,0,821.461182
475,-1886,4,0,0,11,31.394306
-1263,848,2,0,0,0,765.949829
380,-1795,4,1,0,11,31.394306
-816,869,2,1,0,14,13.883527
1094,-624,4,0,0,0,820.222534
-491,1647,2,0,0,0,730.950989
1566,-1208,4,0,0,11,31.394306
-501,464,2,0,0,0,996.502686
911,-98,4,0,0,0,911.785767
-840,970,2,0,0,0,814.859558
748,-1104,4,0,0,0,803.789062
-797,1737,2,1,0,14,13.883527
689,-1807,4,0,0,11,31.394306
-1132,1227,2,1,0,14,13.883527
178,-1346,4,1,0,11,31.394306
-1074,1688,2,0,0,14,13.883527
641,-301,4,1,0,11,31.394306
-94,1689,2,0,0,0,735.494446
908,-342,4,0,0,0,895.289490
-60,786,2,0,0,0,955.124451
919,-1037,4,0,0,0,792.778809
-735,507,2,0,0,0,919.222412
1418,-1108,4,0,0,11,31.394306
-129,1881,2,1,0,14,13.883527
104,-951,4,0,0,0,899.355225
-665,141,2,0,0,0,997.803833
620,-44,4,1,0,14,13.883527
-981,527,2,0,0,0,855.629822
148,-1450,4,0,0,0,778.241333
-1270,544,2,0,0,0,793.611267
609,-1434,4,0,0,0,759.109009
-350,1926,2,0,0,14,13.883527
809,-135,4,0,0,0,943.693848
-1992,1068,2,0,0,14,13.883527
214,-680,4,0,0,0,984.102051
-1217,386,2,0,0,0,816.299866
463,-703,4,0,0,0,936.209839
-1225,476,2,0,0,0,807.980896
62,-87,4,0,0,0,1531.611694
-1720,1399,2,1,0,14,13.883527
527,-72,4,0,0,0,1068.535034
-101,1797,2,0,0,14,13.883527
908,-1463,4,0,0,0,730.411011
-1806,1498,2,0,0,14,13.883527
575,-1914,4,0,0,11,31.394306
-185,1483,2,0,0,0,771.049316
940,-1726,4,0,0,11,31.394306
-98,855,2,0,0,0,929.837585
1114,-1671,4,0,0,11,31.394306
-919,409,2,0,0,0,884.905151
930,-1818,4,0,0,11,31.394306
-702,1421,2,1,0,14,13.883527
129,-1049,4,0,0,0,870.667786
-698,1612,2,0,0,0,724.681396
1526,-468,4,1,0,11,31.394306
-621,518,2,0,0,0,947.764404
1291,-848,4,0,0,0,761.581482
-1430,1877,2,0,0,14,13.883527
1313,-52,4,0,0,0,808.025085
-465,1249,2,0,0,0,803.958191
1535,-1983,4,0,0,11,31.394306
-1212,393,2,0,0,0,816.891357
1123,-392,4,0,0,0,836.668945
-278,1053,2,1,0,14,13.883527
1740,-583,4,1,0,11,31.394306
873,-771,4,0,0,0,842.713867
1121,-1387,4,0,0,11,31.394306
1465,-1179,4,0,0,11,31.394306
1275,-1131,4,0,0,0,733.344666
1721,-649,4,0,0,11,31.394306
612,-1461,4,0,0,0,754.350769
535,-1175,4,0,0,0,813.093506
231,-1398,4,0,0,0,786.352234
562,-175,4,1,0,11,31.394306
