each times' max average throughput
653.203064,632.680481,639.683044,636.771362,641.710571,642.935242,639.040955,650.655518,652.033936,649.826294,638.364990,651.396545,647.360779,651.707642,645.080078,627.380920,628.827576,638.114075,649.406616,655.938965,651.774780,649.552429,635.077087,643.845581,646.072876,640.514526,625.695557,654.305908,649.535645,666.183411,628.482300,651.940857,650.163086,643.243713,662.720581,641.119690,637.372070,647.183411,652.541016,653.513672,636.574341,650.277832,647.530518,650.898804,646.630981,630.815063,640.796509,636.446655,656.933533,631.217529,627.350708,644.503662,654.707886,631.575989,659.042847,647.239990,646.897522,640.974976,645.274109,632.555420,650.679443,619.334534,646.584717,641.121826,639.241211,637.313965,652.821777,648.423645,657.116821,620.015198,653.816711,639.726318,647.528564,663.889526,641.894836,649.970337,636.268188,641.795349,644.800537,628.042114,655.763916,637.855042,618.877075,651.606384,647.254761,653.277710,611.385071,639.103333,650.658081,648.830750,639.655884,647.520386,640.539429,645.405457,637.461487,658.522644,650.341858,651.904053,662.764404,635.202637,
avg. throughput in all test times
644.055176
avg. BS TX power in all test times
MBS area 1,MBS area 2,CBSD 1,CBSD 2,CBSD 3,CBSD 4,CBSD 5,CBSD 6,CBSD 7,CBSD 8,CBSD 9,CBSD 10,
8.950,9.225,0.265,0.243,0.161,0.296,0.262,0.338,0.299,0.200,0.201,0.260,
avg. mbs all power,avg. cbsd enable number,avg. mbs area all power,avg. cbsd all power
43.675,3.000,18.175,2.525
avg. max avg. throughput generation number in all test times
0.970000
avg. number of relay UE
104

the max average throughput times

BS TX power
MBS area 1,MBS area 2,CBSD 1,CBSD 2,CBSD 3,CBSD 4,CBSD 5,CBSD 6,CBSD 7,CBSD 8,CBSD 9,CBSD 10,
6.250,10.000,0.875,0.500,0.000,0.875,0.000,0.000,0.750,0.000,0.000,0.000,
max average throughput
635.202637

x,y,area,be blocked (1 : NLOS / 0 : LOS),be blocked number (>=1 : CBSD(x) / 0 : no),connect bs number (>=1 : CBSD / 0 : MBS),throughput (unit : M bps)
1283,1205,1,0,0,0,656.872070
-100,-103,2,0,0,0,1446.354980
1433,1677,1,0,0,0,592.607300
-1043,578,2,1,0,1,334.333160
273,-251,1,1,0,0,175.633881
-537,-1217,2,1,0,4,226.956161
35,-483,1,0,0,0,1027.824951
-1838,-1792,2,1,0,4,113.688042
419,1346,1,0,0,0,720.385803
-1434,948,2,0,0,0,730.884521
1479,589,1,0,0,0,685.572083
-1550,1761,2,0,0,0,641.947510
1117,889,1,1,0,2,214.036575
-551,674,2,0,0,0,926.521545
364,-1755,1,0,0,0,651.696594
-310,-1647,2,0,0,0,738.167480
294,-1758,1,0,0,0,653.283447
-576,180,2,0,0,0,1032.132568
1611,1535,1,1,0,2,116.757645
-1311,-1830,2,0,0,0,653.721191
1180,53,1,0,0,0,771.125244
-1035,-3,2,0,0,0,876.694458
594,-1503,1,0,0,0,681.265442
-1420,-372,2,0,0,0,776.202332
284,-636,1,1,0,7,174.588242
-80,659,2,0,0,0,1004.646301
886,224,1,0,0,0,844.882080
-1643,731,2,0,0,0,717.965393
399,583,1,0,0,0,918.993408
-357,1638,2,0,0,0,738.076294
1845,338,1,0,0,0,638.730530
-803,-766,2,0,0,0,856.622192
525,90,1,1,0,2,139.465622
-1654,1756,2,0,0,0,633.998840
1693,-775,1,1,0,7,140.158630
-1870,1800,2,0,0,0,613.154419
1060,383,1,0,0,0,784.595886
-1935,-1451,2,0,0,0,633.257446
1711,641,1,0,0,0,646.213196
-1331,-1370,2,0,0,0,700.687744
1649,-1349,1,0,0,0,602.478638
-841,696,2,0,0,0,861.357361
1714,-162,1,0,0,0,663.188965
-1466,-231,2,0,0,0,773.055908
510,-1690,1,0,0,0,656.041260
-1606,972,2,0,0,0,705.655945
1370,-868,1,1,0,7,177.867828
-62,-1897,2,1,0,7,129.780396
1842,-432,1,1,0,7,117.150627
-1508,-810,2,1,0,4,172.170456
1668,895,1,0,0,0,636.122192
-250,1944,2,1,0,1,166.614380
1774,-1753,1,0,0,0,557.840942
-1137,1969,2,0,0,0,650.874390
549,1744,1,0,0,0,646.019531
-1383,-483,2,0,0,0,776.790405
1645,352,1,0,0,0,669.802856
-1800,-48,2,0,0,0,717.589600
1889,-1667,1,0,0,0,554.984009
-1709,1270,2,0,0,0,669.623413
467,1844,1,0,0,0,634.730042
-1293,202,2,1,0,1,227.921356
1376,73,1,0,0,0,726.920044
-202,-357,2,0,0,0,1143.472290
1255,236,1,0,0,0,748.738464
-1606,-897,2,0,0,0,711.468933
705,-616,1,0,0,0,837.937683
-1491,-1362,2,0,0,0,684.758057
0,1244,1,0,0,0,756.251282
-1728,1841,2,0,0,0,621.004089
466,-1244,1,1,0,7,249.000183
-759,33,2,0,0,0,965.762207
1879,849,1,0,0,0,611.780457
-1717,-1498,2,0,0,0,650.258789
936,209,1,0,0,0,831.003052
-688,1838,2,0,0,0,692.933716
1494,1823,1,1,0,2,107.906219
-1578,1532,2,0,0,0,660.367249
721,-1633,1,0,0,0,652.856018
-262,38,2,0,0,0,1269.780884
186,805,1,1,0,1,177.371399
-1181,-940,2,0,0,0,768.194946
1715,527,1,0,0,0,651.411316
-1618,1999,2,0,0,0,615.774963
1156,342,1,0,0,0,765.268677
-822,-849,2,0,0,0,838.542603
1543,-1351,1,0,0,0,613.307068
-629,1814,2,1,0,1,198.495560
1883,-189,1,0,0,0,636.195312
-1454,-1023,2,0,0,0,721.244446
1270,1595,1,0,0,0,614.977844
-1742,407,2,0,0,0,719.461731
837,710,1,0,0,0,792.215698
-342,1526,2,0,0,0,758.025146
956,-51,1,1,0,7,131.351837
-1631,-914,2,0,0,0,706.817383
1241,-565,1,0,0,0,729.925720
-1008,-1321,2,0,0,0,740.618774
1333,-1153,1,0,0,0,656.495605
-1554,472,2,1,0,1,235.449036
1358,-1387,1,1,0,7,180.283279
-1487,-1130,2,1,0,4,168.629578
761,1676,1,0,0,0,644.105835
-172,118,2,0,0,0,1338.561401
773,-1049,1,0,0,0,742.944885
-1588,-1071,2,1,0,4,159.821625
195,-253,1,0,0,0,1147.821533
-20,-1994,2,0,0,0,688.369812
1332,1186,1,1,0,2,161.853790
-1798,386,2,0,0,0,711.555481
111,-645,1,0,0,0,941.010742
-868,611,2,0,0,0,869.423157
1367,-691,1,0,0,0,696.611023
-1729,-257,2,1,0,1,156.221268
213,-1922,1,0,0,0,630.042786
-691,-585,2,0,0,0,915.226440
1590,1670,1,0,0,0,580.034363
-1470,-1190,2,0,0,0,703.519531
1831,-298,1,0,0,0,641.881409
-29,-1751,2,0,0,0,725.562134
1187,-761,1,0,0,0,720.327148
-748,536,2,0,0,0,910.543335
1233,-892,1,0,0,0,698.466370
-16,-644,2,0,0,0,1013.303284
811,551,1,0,0,0,824.650024
-727,-1804,2,0,0,0,695.506897
312,625,1,0,0,0,922.238831
-1003,996,2,0,0,0,787.050781
1008,125,1,0,0,0,814.493103
-505,1012,2,0,0,0,851.165588
1453,1921,1,1,0,2,104.087082
-1162,-1761,2,1,0,4,146.606689
987,805,1,0,0,0,749.490784
-253,1935,2,1,0,1,167.478989
861,-174,1,1,0,7,143.304047
-293,583,2,1,0,1,231.465332
1931,-1483,1,0,0,0,564.636902
-1367,598,2,0,0,0,771.514160
1382,-1606,1,1,0,7,163.075012
-1531,-1994,2,1,0,4,117.073997
1649,574,1,1,0,2,126.593697
-558,-1380,2,0,0,0,772.194946
612,-1088,1,0,0,0,755.257507
-1091,1084,2,0,0,0,762.816833
968,745,1,0,0,0,761.491699
-1231,-155,2,0,0,0,824.531067
1123,-571,1,0,0,0,752.622253
-659,982,2,0,0,0,838.324280
1888,1167,1,0,0,0,590.851135
-1966,1181,2,0,0,0,648.407104
1966,-1754,1,0,0,0,542.356201
-77,204,2,0,0,0,1325.761475
198,-1667,1,0,0,0,670.401794
-326,1041,2,0,0,0,861.567688
206,1765,1,1,0,1,149.901703
-1808,-1641,2,0,0,0,630.552551
516,783,1,0,0,0,837.468445
-1934,-1482,2,0,0,0,631.152649
396,-751,1,0,0,0,866.069641
-1210,509,2,0,0,0,808.315979
426,-1752,1,0,0,0,649.998596
-1662,-1870,2,0,0,0,623.620605
1113,-924,1,0,0,0,712.991211
-491,831,2,1,0,1,286.021484
1968,-650,1,0,0,0,610.314026
-1173,-236,2,0,0,0,834.967957
1122,97,1,0,0,0,784.822021
-1829,-1607,2,0,0,0,631.368835
1253,-1632,1,1,0,7,173.185898
-161,1528,2,0,0,0,763.098206
976,1720,1,1,0,2,137.819641
-1503,1322,2,1,0,1,243.321579
706,1186,1,0,0,0,726.443115
-1566,1419,2,1,0,1,224.539230
313,-1621,1,1,0,7,178.654388
-1371,-342,2,0,0,0,787.153015
1626,-1934,1,0,0,0,554.163086
-605,-600,2,0,0,0,932.706055
1647,-623,1,0,0,0,656.751160
-626,-206,2,1,0,4,185.865387
991,1886,1,0,0,0,602.476379
-625,1981,2,0,0,0,676.685669
1845,-349,1,1,0,7,113.817413
-216,1570,2,0,0,0,754.208313
1399,81,1,0,0,0,722.091553
-1627,1722,2,0,0,0,639.156982
636,1526,1,0,0,0,674.774292
-1893,-34,2,0,0,0,703.215454
440,695,1,1,0,2,217.563721
-11,1485,2,1,0,1,181.254684
220,-489,1,0,0,0,998.451782
-22,-492,2,0,0,0,1090.731201
1722,950,1,0,0,0,625.237488
-974,-292,2,0,0,0,881.795166
883,-1428,1,1,0,7,247.732849
-1008,-1616,2,0,0,0,701.511780
1844,277,1,0,0,0,640.409912
-1500,455,2,0,0,0,757.358521
88,1059,1,1,0,1,187.191162
-1884,-207,2,0,0,0,702.908325
1044,1065,1,0,0,0,704.255676
-1158,-800,2,0,0,0,788.282532
1694,792,1,0,0,0,639.598999
-1892,-1688,2,0,0,0,619.809509
361,-1296,1,0,0,0,733.783936
-1493,1729,2,0,0,0,649.535400
1817,299,1,0,0,0,643.988342
-1851,-1124,2,0,0,0,664.790710
1179,-1303,1,1,0,7,214.468033
-1223,-48,2,0,0,0,828.446899
518,-1354,1,0,0,0,712.369934
-228,1367,2,0,0,0,792.723022
1268,-1981,1,1,0,7,141.378754
-904,140,2,0,0,0,912.251282
1439,-272,1,0,0,0,709.464661
-454,-1100,2,0,0,0,836.534546
602,520,1,1,0,2,207.475266
-1165,-847,2,1,0,4,229.060272
1698,-1610,1,0,0,0,575.878967
-1466,-528,2,1,0,4,169.023666
117,-1957,1,0,0,0,626.132935
-1512,-481,2,0,0,0,753.869019
1017,-1971,1,0,0,0,591.061462
-52,1186,2,0,0,0,837.228638
1652,-337,1,0,0,0,669.161072
-725,731,2,0,0,0,878.213928
683,-1959,1,1,0,7,157.599457
-690,1121,2,0,0,0,807.520874
467,30,1,0,0,0,1037.698730
-1414,1667,2,0,0,0,662.114197
1167,227,1,1,0,2,144.063202
-1046,-1623,2,0,0,0,697.591370
322,1274,1,1,0,2,176.675964
-1275,-391,2,0,0,0,803.773865
383,454,1,0,0,0,968.963806
-219,570,2,0,0,0,1028.734741
1996,-1113,1,0,0,0,582.567566
-1503,-292,2,1,0,1,163.124023
1308,1981,1,0,0,0,571.803345
-11,-397,2,0,0,0,1152.786255
1482,-676,1,0,0,0,679.013916
-1246,-733,2,0,0,0,780.599548
15,994,1,1,0,1,196.753448
-1707,89,2,0,0,0,732.508667
1793,1496,1,0,0,0,576.460083
-958,548,2,0,0,0,858.207886
1120,-928,1,0,0,0,711.422852
-447,398,2,0,0,0,1034.512329
265,314,1,0,0,0,1075.210327
-1311,-1931,2,0,0,0,643.409424
734,164,1,0,0,0,900.964722
-567,1326,2,1,0,1,261.851013
474,-970,1,0,0,0,796.955566
-1621,-1614,2,0,0,0,649.148987
1654,1037,1,1,0,2,130.559677
-1940,-1570,2,0,0,0,624.319336
1998,1224,1,1,0,2,100.443291
-782,582,2,0,0,0,893.946960
1265,205,1,0,0,0,747.727783
-1013,1420,2,1,0,1,276.538971
1351,-1117,1,0,0,0,658.039185
-633,1865,2,0,0,0,691.921997
310,1403,1,0,0,0,714.923401
-1844,1767,2,0,0,0,617.752319
1626,-338,1,0,0,0,673.475708
-1008,998,2,0,0,0,786.044617
1206,568,1,0,0,0,736.412354
-812,-1352,2,1,0,4,210.338562
716,-1319,1,0,0,0,702.448364
-1154,1694,2,0,0,0,680.501038
149,-1731,1,0,0,0,660.585999
-986,1185,2,0,0,0,762.145813
1567,1513,1,0,0,0,596.186157
-795,-638,2,0,0,0,881.082764
1138,-1821,1,0,0,0,600.240723
-770,976,2,1,0,1,389.305664
1458,1895,1,0,0,0,569.769836
-1803,1420,2,0,0,0,648.209656
1519,-484,1,0,0,0,685.163330
-5,-46,2,0,0,0,1773.041138
338,1241,1,0,0,0,746.676880
-1776,-80,2,0,0,0,721.247742
1317,1521,1,0,0,0,618.757874
-373,-1674,2,0,0,0,731.548340
1373,1437,1,0,0,0,622.239746
-512,-924,2,0,0,0,870.812439
118,-346,1,0,0,0,1108.907104
-702,808,2,0,0,0,867.026062
777,1992,1,0,0,0,601.456299
-496,-1588,2,0,0,0,740.273621
551,-1798,1,0,0,0,637.997559
-482,-553,2,0,0,0,975.853638
115,-1912,1,0,0,0,632.753357
-879,-1349,2,0,0,0,749.660339
1516,841,1,1,0,2,146.255508
-1213,1930,2,1,0,1,188.522369
351,1215,1,0,0,0,751.518738
-905,955,2,0,0,0,807.661011
1892,-1333,1,1,0,7,127.525612
-1572,-182,2,0,0,0,754.622986
208,576,1,1,0,1,171.098373
-1076,-1741,2,0,0,0,680.926819
363,477,1,0,0,0,966.336060
-1883,1256,2,0,0,0,652.163818
1350,1339,1,0,0,0,634.848450
-287,1364,2,0,0,0,791.072632
687,-271,1,0,0,0,906.212158
-355,1285,2,0,0,0,803.875366
1306,-1699,1,0,0,0,600.822510
-537,826,2,0,0,0,890.889404
735,-948,1,0,0,0,766.695312
-711,1221,2,0,0,0,787.170410
874,1102,1,1,0,2,255.936874
-1309,1088,2,0,0,0,733.718140
963,1751,1,1,0,2,135.037506
-359,1748,2,0,0,0,720.172363
95,-1007,1,0,0,0,815.698486
-221,1939,2,0,0,0,694.541016
1142,-443,1,0,0,0,760.689148
-325,310,2,0,0,0,1117.306763
357,-1545,1,1,0,7,191.659348
-322,1821,2,0,0,0,709.958252
938,-754,1,0,0,0,765.757385
-1240,-1308,2,1,0,4,183.757614
1459,1223,1,0,0,0,634.494507
-1847,351,2,0,0,0,705.226318
917,-1496,1,0,0,0,657.760071
-735,1288,2,0,0,0,773.274292
849,-1508,1,0,0,0,661.711304
-1596,529,2,0,0,0,737.233582
193,1295,1,0,0,0,741.570923
-340,-1715,2,0,0,0,726.031189
886,-677,1,0,0,0,787.678162
-189,939,2,0,0,0,899.005432
875,1534,1,1,0,2,163.171570
-75,-935,2,1,0,4,182.422501
671,1548,1,0,0,0,668.966553
-189,1168,2,0,0,0,838.186584
704,-666,1,0,0,0,828.002014
-322,1724,2,0,0,0,725.141418
1902,245,1,0,0,0,632.417480
-1636,-389,2,0,0,0,737.195068
1155,-596,1,1,0,7,177.535660
-1439,73,2,0,0,0,781.548279
707,335,1,0,0,0,889.608643
-1124,-405,2,0,0,0,835.392944
1802,797,1,0,0,0,624.700012
-1614,-279,2,1,0,1,159.732315
182,699,1,0,0,0,912.605469
-245,1585,2,0,0,0,750.782227
306,1108,1,1,0,2,191.044647
-318,-1885,2,0,0,0,700.456848
1526,1377,1,1,0,2,131.030823
-359,1374,2,0,0,0,785.710266
1168,111,1,0,0,0,773.058899
-1206,-952,2,1,0,4,217.832321
1257,1306,1,0,0,0,648.483826
-928,1214,2,0,0,0,764.671021
1090,1708,1,0,0,0,616.753357
-816,1493,2,0,0,0,733.833008
1230,-1537,1,0,0,0,624.962341
-1545,-906,2,0,0,0,719.119934
1477,-1729,1,0,0,0,583.980835
-1566,-35,2,0,0,0,757.559753
340,1363,1,0,0,0,721.392212
-282,394,2,0,0,0,1095.437256
1107,-621,1,1,0,7,184.536301
-574,636,2,0,0,0,931.137939
50,1139,1,1,0,1,189.758072
-991,-107,2,0,0,0,887.534302
1231,-1413,1,0,0,0,638.987671
-274,-1754,2,0,0,0,721.655579
15,-1426,1,0,0,0,717.077148
-640,329,2,0,0,0,981.392700
184,-327,1,1,0,0,172.088638
-1631,-1400,2,0,0,0,666.920654
697,535,1,0,0,0,856.191956
-362,1937,2,0,0,0,691.770935
743,1399,1,0,0,0,686.996277
-1513,-1546,2,0,0,0,665.104370
1000,1348,1,0,0,0,670.451965
-1280,1963,2,0,0,0,642.255127
880,1546,1,1,0,2,161.355957
-1512,-1108,2,1,0,4,166.745163
1710,-716,1,0,0,0,642.072510
-1549,-1639,2,0,0,0,653.212769
1814,1806,1,0,0,0,550.497131
-1990,81,2,1,0,1,162.906967
1167,-1574,1,1,0,7,187.854370
-1883,-422,2,0,0,0,697.763062
1201,1473,1,0,0,0,634.978149
-125,1568,2,0,0,0,756.355896
437,-529,1,1,0,7,174.984497
-1985,1724,2,0,0,0,609.498108
1576,-432,1,0,0,0,678.095520
-1306,-1834,2,0,0,0,653.677063
843,-1885,1,0,0,0,611.365295
-808,-987,2,0,0,0,816.569336
1695,337,1,0,0,0,662.106384
-399,-360,2,0,0,0,1065.565186
1150,424,1,0,0,0,760.511108
-891,1902,2,0,0,0,673.524414
386,810,1,0,0,0,850.158630
-1151,-459,2,0,0,0,824.896301
730,858,1,0,0,0,784.734680
-182,750,2,0,0,0,961.227478
41,1788,1,0,0,0,652.315247
-1816,-1128,2,0,0,0,668.472595
95,-238,1,0,0,0,1211.380249
-1244,-1188,2,0,0,0,730.699158
997,-1908,1,1,0,7,159.762909
-1279,-1717,2,1,0,4,145.164200
563,-1784,1,0,0,0,639.488037
-1314,-14,2,1,0,1,198.363098
698,-1436,1,0,0,0,684.731445
-1292,-326,2,0,0,0,804.013733
296,411,1,0,0,0,1014.886414
-431,847,2,0,0,0,901.263000
502,1257,1,0,0,0,732.042480
-1922,1475,2,0,0,0,632.768860
1,823,1,0,0,0,875.025635
-1999,-944,2,0,0,0,658.897949
1008,1831,1,0,0,0,607.915161
-1727,1740,2,0,0,0,629.401001
133,1071,1,0,0,0,797.060059
-765,-1724,2,0,0,0,704.306274
1479,-1822,1,0,0,0,575.058105
-1276,-995,2,1,0,4,203.186356
801,803,1,0,0,0,782.784668
-1414,504,2,1,0,1,260.039337
407,108,1,1,0,1,140.049652
-63,756,2,0,0,0,966.178589
1775,634,1,1,0,2,117.524681
-1319,-509,2,0,0,0,786.991943
1167,-1503,1,1,0,7,196.050018
-177,169,2,0,0,0,1292.463135
741,1014,1,1,0,2,327.671692
-894,-1694,2,0,0,0,699.889038
1601,695,1,0,0,0,659.283447
-89,1896,2,0,0,0,702.493103
1639,-1238,1,0,0,0,612.871155
-1271,-1723,2,1,0,4,145.073441
598,1969,1,0,0,0,612.346252
-1627,1957,2,0,0,0,618.751648
573,-921,1,0,0,0,795.606628
-1304,1954,2,0,0,0,641.561768
1056,1987,1,0,0,0,586.964111
-1429,-944,2,0,0,0,731.950073
1691,-343,1,0,0,0,662.559509
-125,1627,2,0,0,0,745.821350
533,1430,1,0,0,0,697.663025
-351,-1244,2,1,0,4,200.606995
1156,886,1,0,0,0,711.034119
-1553,409,2,0,0,0,750.401123
96,373,1,0,0,0,1093.854004
-76,1770,2,0,0,0,722.244141
1278,1957,1,0,0,0,576.193909
-184,27,2,0,0,0,1371.672241
718,-1244,1,1,0,7,342.897552
-273,-442,2,0,0,0,1075.328125
1039,-1962,1,0,0,0,590.777832
-284,399,2,0,0,0,1092.339966
1386,1563,1,0,0,0,608.066772
-1637,-73,2,1,0,1,175.326584
1666,-830,1,0,0,0,640.927856
-915,-1071,2,0,0,0,788.043335
56,-1365,1,0,0,0,729.382812
-1824,-1946,2,0,0,0,605.414307
1568,171,1,1,0,2,114.701767
-1380,1105,2,0,0,0,722.850342
819,591,1,0,0,0,816.125305
-1234,1494,2,1,0,1,248.933899
133,-257,1,0,0,0,1176.322021
-907,-1183,2,0,0,0,771.782532
-1220,-1020,2,0,0,0,753.226501
-1121,-952,2,0,0,0,775.659424
-1183,1067,2,0,0,0,752.706726
-945,-91,2,0,0,0,901.560425
-382,-676,2,1,0,4,230.892487
-726,198,2,0,0,0,968.506897
-1139,730,2,0,0,0,799.654663
-1726,-1200,2,0,0,0,673.278931
-1269,1379,2,0,0,0,706.145203
-654,1379,2,0,0,0,765.017273
-765,-517,2,0,0,0,909.574707
-1099,-453,2,1,0,4,206.178558
-1426,1723,2,0,0,0,655.575623
-60,260,2,1,0,0,348.748352
-712,-1538,2,0,0,0,734.952637
-1876,416,2,0,0,0,698.973022
-1695,-1625,2,1,0,4,128.293854
-1170,-1556,2,0,0,0,695.238892
-365,565,2,0,0,0,1000.847534
-584,-1637,2,0,0,0,727.729065
-1768,1260,2,1,0,1,211.846161
-1401,-361,2,0,0,0,780.371948
-29,-974,2,1,0,4,175.617050
-1398,975,2,0,0,0,733.332520
-665,1964,2,0,0,0,677.198914
-1074,-654,2,0,0,0,820.678162


each generation good chromosome number
5,9,9,