each times' max average throughput
625.604675,627.925354,628.060791,619.993225,621.411438,618.010925,629.588806,629.877930,628.724731,624.047302,626.134460,632.094543,626.430786,632.385864,632.262939,631.639832,630.225525,632.538635,616.050720,627.189453,632.533447,615.381226,623.420776,626.078247,632.209045,616.609619,629.875793,602.976929,631.589478,619.153809,622.629333,632.839478,619.476807,632.197998,618.787537,628.228699,625.641724,617.966125,627.176758,624.218140,626.436279,631.397339,626.798584,625.400085,625.015869,628.157776,625.026794,625.591980,618.458069,625.201538,632.486938,623.048096,623.669189,626.891418,627.112183,611.940369,632.836792,623.757385,629.331055,619.846741,615.480164,629.331055,629.331055,622.276611,622.276611,629.331055,621.789978,622.276611,629.331055,612.275513,616.766846,629.331055,629.331055,615.805359,629.331055,629.331055,628.445068,622.276611,629.331055,620.370300,622.276611,629.331055,629.331055,615.480164,622.276611,629.331055,627.696960,622.276611,629.331055,618.303223,615.480164,629.331055,629.331055,616.185852,622.276611,629.331055,623.970581,629.331055,629.331055,623.832703,
avg. throughput in all test times
625.056702
avg. BS TX power in all test times
MBS area 1,MBS area 2,MBS area 3,CBSD 1,CBSD 2,CBSD 3,CBSD 4,CBSD 5,CBSD 6,CBSD 7,CBSD 8,
8.475,8.825,9.312,0.170,0.230,0.366,0.350,0.493,0.169,0.296,0.228,
avg. mbs all power,avg. cbsd enable number,avg. mbs area all power,avg. cbsd all power
48.588,2.000,26.612,2.301
avg. max avg. throughput generation number in all test times
0.830000
avg. number of relay UE
225



the max average throughput times

BS TX power
MBS area 1,MBS area 2,MBS area 3,CBSD 1,CBSD 2,CBSD 3,CBSD 4,CBSD 5,CBSD 6,CBSD 7,CBSD 8,
10.000,8.750,10.000,0.000,0.000,0.625,0.000,0.750,0.000,0.000,0.000,
max average throughput
623.832703

x,y,area,be blocked (1 : NLOS / 0 : LOS),be blocked number (>=1 : CBSD(x) / 0 : no),connect bs number (>=1 : CBSD / 0 : MBS),throughput (unit : M bps)
909,367,1,1,0,3,87.878159
526,-1983,2,0,0,0,661.162170
-578,-1092,3,1,0,3,87.878159
1689,235,1,0,0,0,733.188721
1126,-893,2,0,0,0,763.118652
-193,-240,3,0,0,0,1226.142090
1667,1114,1,1,0,3,87.878159
1800,-1835,2,0,0,0,596.942566
-1427,-289,3,0,0,0,778.549622
94,1388,1,1,0,5,74.385254
1532,-777,2,0,0,0,711.958801
-567,-129,3,0,0,0,1042.830200
1147,1372,1,0,0,0,719.561157
873,-1300,2,1,0,3,87.878159
-761,699,3,0,0,0,877.167358
1607,884,1,0,0,0,712.315369
1449,-1048,2,1,0,3,87.878159
-1799,67,3,0,0,0,717.652283
592,1075,1,0,0,0,827.675598
1780,-1348,2,1,0,3,87.878159
-1472,-903,3,0,0,0,729.574158
205,694,1,1,0,5,74.385254
1373,-340,2,0,0,0,767.680176
-457,1674,3,0,0,0,728.190186
165,923,1,0,0,0,905.143860
184,-1473,2,0,0,0,753.818848
-735,-620,3,0,0,0,897.882629
726,1522,1,0,0,0,736.399048
656,-1574,2,0,0,0,714.058716
-1158,1155,3,0,0,0,745.163635
1852,1732,1,0,0,0,619.793518
223,-1745,2,0,0,0,705.135254
-102,1546,3,0,0,0,760.697693
1231,1507,1,0,0,0,695.375916
1347,-1653,2,0,0,0,650.141479
-991,-325,3,0,0,0,874.498169
59,543,1,0,0,0,1060.884766
1546,-804,2,0,0,0,707.854797
-1461,341,3,0,0,0,769.942261
1953,689,1,0,0,0,677.551514
1376,-166,2,0,0,0,773.524048
-47,-1721,3,0,0,0,730.449036
1758,1469,1,0,0,0,648.716370
1675,-738,2,1,0,3,87.878159
-1091,-1929,3,0,0,0,658.193176
9,1950,1,0,0,0,694.765991
1002,-1544,2,0,0,0,692.179871
-1589,1424,3,0,0,0,669.022034
1862,717,1,0,0,0,688.200928
1472,-1463,2,0,0,0,657.869873
-1654,-1464,3,0,0,0,659.135681
1842,9,1,1,0,3,87.878159
1748,-1012,2,0,0,0,665.619019
-280,142,3,0,0,0,1220.600464
780,387,1,0,0,0,926.466125
61,-1128,2,0,0,0,832.302429
-771,-827,3,0,0,0,851.255554
296,1677,1,0,0,0,733.583679
1311,-58,2,0,0,0,789.218872
-1973,1898,3,0,0,0,597.998840
1899,1561,1,0,0,0,628.626343
1781,-1685,2,0,0,0,610.373962
-322,36,3,0,0,0,1211.504395
1472,1789,1,0,0,0,645.524414
1988,-1945,2,1,0,3,87.878159
-1377,605,3,0,0,0,769.219910
316,212,1,1,0,5,74.385254
324,-229,2,0,0,0,1133.815308
-933,240,3,1,0,5,74.385254
788,627,1,0,0,0,884.588013
1371,-205,2,0,0,0,773.469055
-1235,1923,3,0,0,0,649.407593
4,1932,1,0,0,0,697.422913
21,-773,2,0,0,0,941.422974
-150,1224,3,1,0,5,74.385254
10,456,1,0,0,0,1112.864380
686,-1161,2,0,0,0,781.392334
-1823,-100,3,0,0,0,713.623352
1416,1486,1,0,0,0,680.096680
796,-1092,2,0,0,0,780.796143
-962,728,3,0,0,0,832.596252
976,1351,1,0,0,0,739.755676
1654,-1460,2,0,0,0,640.426941
-53,904,3,1,0,5,74.385254
919,1444,1,0,0,0,732.120300
1329,-1349,2,0,0,0,684.051086
-585,1291,3,1,0,5,74.385254
1489,1208,1,0,0,0,699.596375
252,-1841,2,1,0,3,87.878159
-540,-922,3,0,0,0,867.527405
1454,448,1,0,0,0,765.916077
1868,-341,2,0,0,0,683.269043
-247,-1228,3,0,0,0,821.791870
547,653,1,1,0,5,74.385254
1299,-503,2,1,0,3,87.878159
-1094,1870,3,0,0,0,664.663757
21,475,1,0,0,0,1100.878784
164,-660,2,0,0,0,978.438293
-568,-1179,3,0,0,0,809.195740
1745,1972,1,1,0,5,74.385254
200,-935,2,0,0,0,880.287231
-18,-719,3,1,0,3,87.878159
462,1560,1,0,0,0,746.670105
511,-1512,2,1,0,3,87.878159
-95,776,3,1,0,5,74.385254
664,40,1,0,0,0,1004.053772
698,-1126,2,0,0,0,786.492554
-543,-1126,3,0,0,0,822.367493
396,1423,1,0,0,0,774.416565
834,-368,2,0,0,0,894.031433
-944,-347,3,0,0,0,884.947388
148,217,1,0,0,0,1272.052368
1521,-889,2,0,0,0,704.719238
-30,387,3,0,0,0,1159.391602
1396,452,1,0,0,0,776.313110
1579,-1618,2,0,0,0,633.459412
-1859,-102,3,0,0,0,708.021606
433,1697,1,0,0,0,725.541016
1551,-620,2,0,0,0,719.984070
-674,1558,3,0,0,0,734.491699
1097,901,1,1,0,5,74.385254
733,-1676,2,0,0,0,693.950989
-1952,-1419,3,1,0,5,74.385254
1243,932,1,0,0,0,759.913330
1230,-940,2,0,0,0,741.779297
-869,-557,3,0,0,0,877.479370
1505,1903,1,0,0,0,632.363403
447,-1884,2,0,0,0,677.686890
-301,-410,3,0,0,0,1081.434814
1137,1727,1,0,0,0,678.006592
1064,-1639,2,0,0,0,675.074341
-169,1701,3,1,0,5,74.385254
809,1286,1,0,0,0,766.322327
1122,-1749,2,0,0,0,657.514526
-1977,1041,3,1,0,5,74.385254
768,1925,1,0,0,0,677.334534
1479,-1836,2,0,0,0,621.515869
-1331,-437,3,0,0,0,789.625732
708,891,1,0,0,0,849.379700
989,-1052,2,0,0,0,761.769836
-152,-721,3,1,0,3,87.878159
1560,1813,1,0,0,0,636.436157
371,-407,2,0,0,0,1039.256226
-398,-1715,3,0,0,0,724.038147
1536,1447,1,0,0,0,672.182556
1359,-110,2,0,0,0,778.231445
-930,667,3,1,0,5,74.385254
87,1703,1,0,0,0,733.197021
1571,-1055,2,0,0,0,684.249573
-865,-1904,3,0,0,0,674.762451
305,122,1,0,0,0,1207.535034
1820,-1032,2,0,0,0,655.559570
-838,690,3,0,0,0,862.979065
939,1072,1,0,0,0,784.706177
304,-989,2,1,0,3,87.878159
-1209,915,3,0,0,0,766.906128
690,148,1,0,0,0,987.021851
128,-1355,2,0,0,0,778.740112
-1777,-1195,3,0,0,0,667.988464
375,599,1,0,0,0,986.610718
582,-1034,2,0,0,0,818.171326
-586,465,3,0,0,0,970.211548
1506,1314,1,0,0,0,687.716736
755,-664,2,0,0,0,865.816589
-794,573,3,0,0,0,892.662354
519,1426,1,1,0,5,74.385254
1058,-1870,2,0,0,0,647.978821
-155,-1396,3,0,0,0,788.872864
377,1269,1,1,0,5,74.385254
299,-1058,2,0,0,0,840.099915
-840,1504,3,0,0,0,730.276550
233,541,1,0,0,0,1039.109619
1831,-1640,2,0,0,0,609.643738
-1904,-1526,3,0,0,0,630.740234
673,848,1,0,0,0,863.751892
1748,-1659,2,1,0,3,87.878159
-483,1693,3,1,0,5,74.385254
1242,360,1,0,0,0,812.635864
961,-499,2,0,0,0,844.479004
-419,1434,3,0,0,0,771.151978
1711,531,1,1,0,3,87.878159
816,-822,2,0,0,0,825.111267
-586,-1802,3,0,0,0,702.976257
1372,1949,1,0,0,0,637.426147
1829,-927,2,0,0,0,661.311401
-725,-607,3,0,0,0,902.720520
33,980,1,1,0,5,74.385254
922,-354,2,1,0,3,87.878159
-1418,-67,3,0,0,0,785.820312
577,1265,1,0,0,0,791.792419
216,-1530,2,0,0,0,742.315491
-652,994,3,1,0,5,74.385254
1034,224,1,1,0,3,87.878159
1618,-1470,2,0,0,0,643.042908
-628,1385,3,0,0,0,766.052979
1214,284,1,0,0,0,823.130615
1731,-1885,2,0,0,0,598.186646
-711,-1872,3,0,0,0,687.170898
1231,1276,1,0,0,0,722.022339
1280,-623,2,0,0,0,765.840637
-1137,1586,3,0,0,0,694.556091
1699,135,1,1,0,3,87.878159
1549,-781,2,0,0,0,709.142090
-1706,-485,3,0,0,0,721.925659
16,1743,1,0,0,0,726.902161
468,-802,2,0,0,0,888.716858
-1382,1402,3,0,0,0,692.046936
59,1538,1,0,0,0,762.599426
1297,-452,2,1,0,3,87.878159
-896,-1945,3,1,0,3,87.878159
954,160,1,0,0,0,896.165894
1125,-1547,2,0,0,0,681.177490
-1640,951,3,0,0,0,702.840698
850,753,1,0,0,0,850.007263
2,-477,2,0,0,0,1080.691650
-216,-583,3,1,0,3,87.878159
404,721,1,0,0,0,941.494080
35,-971,2,1,0,3,87.878159
-1494,-559,3,0,0,0,752.337708
1460,898,1,0,0,0,731.714355
103,-314,2,1,0,3,87.878159
-1327,-1755,3,1,0,3,87.878159
1562,852,1,0,0,0,721.013367
1729,-1192,2,0,0,0,654.491638
-939,1606,3,0,0,0,708.241699
190,1701,1,0,0,0,732.129883
634,-134,2,0,0,0,992.358826
-133,1239,3,0,0,0,823.282654
564,854,1,0,0,0,879.931702
1018,-1625,2,0,0,0,680.471436
-431,-768,3,0,0,0,923.194763
1307,303,1,0,0,0,802.042664
738,-301,2,0,0,0,932.712158
-1213,-1023,3,0,0,0,753.846558
447,1559,1,0,0,0,747.580872
1098,-1878,2,0,0,0,644.432312
-1427,-1379,3,0,0,0,689.760315
353,459,1,0,0,0,1044.046021
1344,-350,2,0,0,0,772.934265
-91,1709,3,1,0,5,74.385254
1096,1485,1,0,0,0,710.515564
349,-1737,2,1,0,3,87.878159
-1743,9,3,0,0,0,726.910461
1997,966,1,0,0,0,657.907288
35,-1990,2,0,0,0,669.823669
-1410,1940,3,0,0,0,635.663025
683,818,1,0,0,0,868.294739
362,-890,2,0,0,0,878.889832
-1228,1161,3,0,0,0,735.777832
1897,1920,1,0,0,0,602.037476
814,-111,2,0,0,0,923.986450
-1394,1325,3,0,0,0,698.723816
846,1437,1,0,0,0,739.605469
12,-1039,2,0,0,0,856.349426
-206,1810,3,0,0,0,714.260254
1118,732,1,0,0,0,803.189880
624,-712,2,0,0,0,883.134399
-84,-1209,3,0,0,0,831.287292
1832,1614,1,0,0,0,630.565063
647,-1494,2,1,0,3,87.878159
-1240,1026,3,0,0,0,749.780334
844,26,1,0,0,0,935.311279
1979,-317,2,0,0,0,667.832153
-1536,939,3,0,0,0,717.646484
600,778,1,0,0,0,891.686584
395,-1736,2,0,0,0,701.708496
-1679,463,3,1,0,5,74.385254
1267,1082,1,0,0,0,739.846619
556,-1988,2,0,0,0,659.398560
-1540,503,3,0,0,0,747.891113
78,1599,1,1,0,5,74.385254
1028,-543,2,0,0,0,824.033386
-1119,1312,3,0,0,0,729.992493
945,1833,1,1,0,5,74.385254
167,-1288,2,0,0,0,792.190491
-860,313,3,0,0,0,912.121704
748,1129,1,0,0,0,799.346924
416,-1018,2,0,0,0,840.026855
-1490,-1015,3,0,0,0,717.235718
1607,1981,1,0,0,0,618.097717
1438,-244,2,1,0,3,87.878159
-1077,-1038,3,0,0,0,770.801331
24,167,1,0,0,0,1399.765991
1507,-1093,2,0,0,0,688.933472
-1337,1308,3,0,0,0,706.699646
556,235,1,0,0,0,1032.059082
991,-1236,2,0,0,0,735.156189
-899,637,3,1,0,5,74.385254
1800,254,1,1,0,3,87.878159
1002,-750,2,0,0,0,802.824829
-1766,-658,3,0,0,0,704.535156
1946,1173,1,0,0,0,651.064880
1612,-569,2,0,0,0,713.346558
-1338,1410,3,0,0,0,695.681091
1499,1485,1,1,0,5,74.385254
267,-289,2,0,0,0,1136.223633
-643,1664,3,1,0,5,74.385254
910,959,1,0,0,0,806.278564
396,-529,2,0,0,0,986.723328
-306,166,3,1,0,5,74.385254
1187,1597,1,0,0,0,688.984741
677,-1691,2,0,0,0,695.173035
-1916,-972,3,0,0,0,667.054382
1982,1173,1,0,0,0,647.209778
1441,-1253,2,0,0,0,681.660767
-386,-704,3,0,0,0,949.839722
1574,118,1,0,0,0,755.364624
538,-450,2,1,0,3,87.878159
-946,-542,3,0,0,0,861.722168
519,973,1,0,0,0,858.441711
1872,-1892,2,0,0,0,587.055542
-1507,-1389,3,0,0,0,680.534485
1124,108,1,0,0,0,851.630615
632,-217,2,0,0,0,983.506592
-1392,1066,3,0,0,0,725.227234
1535,533,1,1,0,3,87.878159
1847,-927,2,0,0,0,659.082031
-1868,-352,3,1,0,5,74.385254
61,1435,1,0,0,0,782.457642
624,-972,2,0,0,0,825.904480
-1171,1009,3,0,0,0,761.368652
29,1283,1,0,0,0,814.821899
896,-322,2,0,0,0,881.508606
-1720,1424,3,0,0,0,656.033997
1764,1795,1,1,0,5,74.385254
1128,-422,2,1,0,3,87.878159
-1422,-921,3,1,0,5,74.385254
403,157,1,0,0,0,1128.192627
207,-1160,2,1,0,3,87.878159
-61,-802,3,0,0,0,949.323669
927,602,1,0,0,0,857.775574
156,-1818,2,0,0,0,694.671509
-777,-769,3,0,0,0,860.948364
39,1192,1,1,0,5,74.385254
754,-933,2,0,0,0,815.027466
-1527,-562,3,1,0,5,74.385254
387,1163,1,0,0,0,828.034302
613,-1911,2,0,0,0,667.449890
-938,146,3,1,0,5,74.385254
815,642,1,0,0,0,876.003662
1596,-513,2,0,0,0,718.940979
-911,-648,3,1,0,5,74.385254
1822,536,1,0,0,0,702.324646
1675,-235,2,0,0,0,716.391052
-760,-1052,3,0,0,0,811.596191
799,1962,1,0,0,0,671.072266
3,-239,2,1,0,0,374.812683
-1832,584,3,0,0,0,698.785156
106,1537,1,1,0,5,74.385254
340,-1723,2,1,0,3,87.878159
-1614,972,3,0,0,0,704.613342
66,1119,1,0,0,0,853.736328
1592,-1133,2,0,0,0,675.084351
-1628,-989,3,1,0,5,74.385254
1354,1681,1,0,0,0,665.722656
882,-1040,2,0,0,0,778.189575
-334,438,3,0,0,0,1058.455078
1679,450,1,0,0,0,727.695129
1620,-1525,2,0,0,0,638.024841
-947,-318,3,0,0,0,886.897705
705,633,1,0,0,0,902.135437
1117,-732,2,0,0,0,784.184082
-1085,1147,3,0,0,0,755.282227
1154,241,1,0,0,0,839.232910
1135,-1428,2,0,0,0,694.759705
-117,1006,3,0,0,0,882.943481
152,422,1,0,0,0,1117.691040
282,-1978,2,0,0,0,668.721313
-809,1674,3,0,0,0,708.415527
1061,1549,1,0,0,0,705.611206
350,-1603,2,1,0,3,87.878159
-986,1097,3,1,0,5,74.385254
917,1637,1,0,0,0,705.792786
446,-1273,2,0,0,0,781.318909
-1254,468,3,0,0,0,802.724365
1904,387,1,0,0,0,695.808289
89,-558,2,0,0,0,1031.847412
-301,-698,3,1,0,3,87.878159
1234,509,1,0,0,0,803.505005
1132,-498,2,0,0,0,806.267456
-73,368,3,0,0,0,1169.210205
1328,1398,1,0,0,0,697.985596
931,-1719,2,0,0,0,674.950806
-215,-1020,3,1,0,3,87.878159
1849,114,1,1,0,3,87.878159
683,-1328,2,1,0,3,87.878159
-1303,-1903,3,0,0,0,646.807800
980,182,1,0,0,0,887.535278
487,-697,2,0,0,0,914.079346
-637,625,3,1,0,5,74.385254
1391,1141,1,0,0,0,717.834717
1089,-1631,2,0,0,0,674.042664
-1895,-643,3,0,0,0,687.364685
1087,978,1,1,0,5,74.385254
924,-1648,2,0,0,0,684.705078
-1703,-385,3,1,0,5,74.385254
1080,730,1,1,0,3,87.878159
1125,-1520,2,0,0,0,684.451050
-1880,1681,3,0,0,0,621.341614
667,108,1,1,0,3,87.878159
94,-26,2,0,0,0,1538.632812
-1165,-1873,3,0,0,0,659.535522
1437,1838,1,0,0,0,643.521667
211,-1561,2,0,0,0,736.795776
-948,-614,3,0,0,0,851.556335
1944,872,1,0,0,0,669.436157
801,-1827,2,0,0,0,669.168579
-201,1234,3,0,0,0,822.327576
1487,1660,1,0,0,0,656.590637
962,-1889,2,0,0,0,651.816162
-16,-1820,3,0,0,0,714.514404
1697,1757,1,0,0,0,630.430420
501,-1561,2,1,0,3,87.878159
-1528,47,3,1,0,5,74.385254
581,1798,1,0,0,0,703.785400
1152,-487,2,0,0,0,803.029602
-465,-1150,3,1,0,3,87.878159
1266,365,1,0,0,0,807.252197
121,-566,2,0,0,0,1024.922607
-605,1254,3,0,0,0,791.392639
683,376,1,0,0,0,958.296387
364,-1976,2,1,0,3,87.878159
-1504,1054,3,0,0,0,711.931396
1544,644,1,0,0,0,738.680908
1487,-1459,2,0,0,0,656.790283
-1880,957,3,1,0,5,74.385254
1102,1878,1,0,0,0,663.224060
1813,-1560,2,0,0,0,617.421631
-1547,-1161,3,0,0,0,697.097534
600,614,1,1,0,5,74.385254
831,-551,2,0,0,0,868.222168
-1973,324,3,0,0,0,687.606628
1297,1262,1,0,0,0,716.158508
1674,-764,2,1,0,3,87.878159
-1117,-456,3,0,0,0,832.576782
1673,825,1,0,0,0,707.474426
165,-283,2,0,0,0,1189.072998
-687,509,3,0,0,0,931.712646
252,1121,1,1,0,5,74.385254
612,-1279,2,1,0,3,87.878159
-1589,-827,3,1,0,5,74.385254
885,1315,1,0,0,0,754.157410
1442,-1349,2,0,0,0,672.083618
-1586,325,3,0,0,0,748.087463
604,731,1,0,0,0,901.901184
713,-235,2,0,0,0,949.952637
-596,1622,3,0,0,0,729.386536
1250,1633,1,0,0,0,679.556946
1586,-176,2,1,0,3,87.878159
-1299,-484,3,1,0,5,74.385254
921,725,1,0,0,0,840.891357
337,-1171,2,0,0,0,810.522949
-1463,26,3,0,0,0,777.120911
332,1398,1,1,0,5,74.385254
1938,-303,2,0,0,0,673.984375
-228,-479,3,0,0,0,1069.295410
1396,810,1,0,0,0,748.971558
389,-1843,2,0,0,0,685.577637
-771,677,3,0,0,0,879.197327
251,920,1,0,0,0,900.273193
246,-496,2,0,0,0,1037.723511
-1239,1804,3,1,0,5,74.385254
677,727,1,0,0,0,888.504456
1439,-203,2,0,0,0,759.915833
-869,-1805,3,1,0,3,87.878159
240,1313,1,1,0,5,74.385254
1259,-128,2,1,0,3,87.878159
-1624,227,3,0,0,0,744.419250
1720,1392,1,1,0,5,74.385254
1265,-187,2,0,0,0,796.657715
-779,489,3,1,0,5,74.385254
1957,1427,1,0,0,0,632.854492
1984,-1348,2,0,0,0,616.608887
-99,495,3,0,0,0,1083.610962
1608,504,1,0,0,0,736.594788
1980,-113,2,0,0,0,670.842773
-1646,-403,3,0,0,0,734.985901
1765,546,1,0,0,0,710.225708
407,-176,2,1,0,3,87.878159
-1578,-484,3,0,0,0,742.541504
1245,1073,1,0,0,0,743.756775
1126,-1991,2,0,0,0,630.131897
-1964,1786,3,0,0,0,606.754944
1553,1509,1,0,0,0,664.811279
1518,-1072,2,0,0,0,689.437622
-1912,-1319,3,1,0,5,74.385254
381,895,1,0,0,0,894.563843
477,-812,2,1,0,3,87.878159
-307,1142,3,0,0,0,838.343994
981,776,1,0,0,0,822.200806
1899,-851,2,0,0,0,657.101257
-158,-1019,3,1,0,3,87.878159
1856,477,1,0,0,0,699.756775
1674,-981,2,0,0,0,677.101990
-1790,1358,3,1,0,5,74.385254
1689,1769,1,0,0,0,630.067566
980,-1618,2,0,0,0,684.359070
-1644,6,3,0,0,0,743.681458
1578,457,1,0,0,0,743.885315
366,-1535,2,1,0,3,87.878159
-1417,-859,3,0,0,0,741.417725
1676,1033,1,0,0,0,692.027344
733,-432,2,0,0,0,913.893127
-175,-2000,3,1,0,3,87.878159
1377,622,1,0,0,0,767.902100
1086,-740,2,0,0,0,788.809753
-41,-1282,3,1,0,3,87.878159
1164,1898,1,0,0,0,656.863037
1141,-295,2,1,0,3,87.878159
-1906,983,3,0,0,0,667.572632
1173,519,1,0,0,0,814.965088
564,-1523,2,1,0,3,87.878159
-868,1490,3,0,0,0,729.991455
1997,1909,1,0,0,0,595.424622
982,-1520,2,0,0,0,697.043762
-992,-614,3,0,0,0,842.238525
1778,140,1,0,0,0,720.329956
278,-351,2,0,0,0,1098.940430
-1009,-1964,3,0,0,0,659.242065
1864,1181,1,0,0,0,659.421143
462,-893,2,0,0,0,865.820374
-1140,611,3,1,0,5,74.385254
1205,1515,1,0,0,0,696.863708
1668,-86,2,0,0,0,720.003723
-613,-42,3,1,0,5,74.385254
1447,1901,1,0,0,0,636.759644
241,-1800,2,0,0,0,696.026489
-1146,641,3,0,0,0,808.231140
6,1693,1,0,0,0,735.257690
489,-87,2,0,0,0,1069.036255
-915,355,3,1,0,5,74.385254
1093,366,1,0,0,0,845.710266
1145,-1000,2,0,0,0,746.988892
-245,22,3,1,0,0,381.144470
933,718,1,0,0,0,839.625122
912,-254,2,0,0,0,883.144043
-703,1609,3,0,0,0,724.804749
51,1760,1,0,0,0,724.011719
1715,-586,2,0,0,0,696.611816
-1801,1588,3,1,0,5,74.385254
1077,1478,1,0,0,0,713.147766
1254,-1250,2,1,0,3,87.878159
-483,554,3,0,0,0,975.299744
1133,176,1,0,0,0,847.227661
224,-1646,2,0,0,0,721.559631
-290,1431,3,0,0,0,777.738220
55,1545,1,1,0,5,74.385254
1278,-245,2,0,0,0,791.639771
-1976,-1904,3,1,0,5,74.385254
819,1526,1,1,0,5,74.385254
1571,-757,2,0,0,0,707.639954
-94,-1879,3,0,0,0,705.029419
495,215,1,0,0,0,1064.347656
387,-1037,2,0,0,0,838.164856
-132,-489,3,0,0,0,1082.641602
434,1809,1,1,0,5,74.385254
581,-1116,2,0,0,0,801.317871
-1437,-631,3,0,0,0,757.002319
1926,1231,1,0,0,0,649.362000
763,-669,2,0,0,0,863.163635
-517,1857,3,0,0,0,698.072327
1907,42,1,1,0,3,87.878159
444,-203,2,0,0,0,1073.998047
-1042,857,3,0,0,0,800.442566
681,1238,1,0,0,0,787.167358
1041,-1756,2,0,0,0,662.585815
-319,1032,3,0,0,0,864.397583
861,729,1,0,0,0,851.887939
617,-1631,2,0,0,0,707.651245
-62,-810,3,1,0,3,87.878159
1605,712,1,1,0,3,87.878159
425,-1343,2,0,0,0,768.865784
-1768,-499,3,0,0,0,711.851074
627,1848,1,1,0,5,74.385254
1831,-838,2,0,0,0,666.491516
-880,102,3,0,0,0,921.492920
145,773,1,0,0,0,955.784790
341,-1963,2,0,0,0,669.523743
-61,1460,3,0,0,0,777.505371
221,1873,1,1,0,5,74.385254
55,-1418,2,0,0,0,766.749023
-426,651,3,0,0,0,958.911194
455,1322,1,1,0,5,74.385254
396,-1900,2,1,0,3,87.878159
-260,-671,3,0,0,0,981.392700
1239,908,1,1,0,3,87.878159
1738,-623,2,0,0,0,691.302979
-1123,-357,3,0,0,0,839.359253
910,871,1,0,0,0,820.174561
1525,-227,2,0,0,0,742.941895
-137,623,3,0,0,0,1016.142639
1387,413,1,1,0,3,87.878159
1896,-593,2,0,0,0,670.360596
-723,426,3,0,0,0,937.101624
93,1791,1,1,0,5,74.385254
1458,-186,2,0,0,0,756.661682
-510,813,3,0,0,0,898.437561
1821,397,1,0,0,0,707.717468
1927,-660,2,0,0,0,663.213806
-1919,-1395,3,0,0,0,638.746765
19,168,1,1,0,0,536.316833
1260,-898,2,1,0,3,87.878159
-258,1687,3,1,0,5,74.385254
1459,183,1,0,0,0,775.710938
64,-1615,2,0,0,0,729.415039
-768,1525,3,0,0,0,732.819214
1839,1436,1,0,0,0,643.500610
826,-1812,2,0,0,0,669.668823
-1808,-287,3,0,0,0,712.855835
1739,1845,1,1,0,5,74.385254
493,-150,2,0,0,0,1058.415039
-1563,-289,3,1,0,5,74.385254
74,612,1,0,0,0,1025.993530
311,-861,2,0,0,0,892.813110
-1025,1781,3,0,0,0,679.780212
477,1506,1,0,0,0,755.124939
55,-657,2,1,0,3,87.878159
-1709,-529,3,0,0,0,719.448181
574,258,1,0,0,0,1020.041260
913,-1769,2,0,0,0,669.765686
-325,1073,3,0,0,0,853.686279
641,721,1,0,0,0,896.936340
1473,-1244,2,1,0,3,87.878159
-812,-142,3,0,0,0,942.244446
1489,116,1,1,0,3,87.878159
24,-1181,2,0,0,0,819.457947
-782,-1263,3,1,0,3,87.878159
1673,1130,1,0,0,0,684.838440
780,-69,2,0,0,0,937.809204
-1880,1487,3,0,0,0,635.814758
1092,863,1,0,0,0,791.489563
1182,-862,2,0,0,0,758.009521
-249,-1216,3,0,0,0,824.412537
767,1877,1,0,0,0,683.595093
1947,-1884,2,0,0,0,582.019043
-821,1521,3,1,0,5,74.385254
128,518,1,0,0,0,1067.623169
1474,-1465,2,1,0,3,87.878159
-1487,981,3,0,0,0,720.661682
615,752,1,1,0,5,74.385254
838,-654,2,0,0,0,849.798462
-1253,139,3,0,0,0,819.940125
1173,1030,1,0,0,0,758.542969
1347,-1117,2,1,0,3,87.878159
-153,32,3,0,0,0,1421.800659
1979,765,1,0,0,0,670.632690
1170,-1236,2,0,0,0,714.612305
-150,525,3,0,0,0,1060.983887
1601,1569,1,0,0,0,654.927673
1814,-1532,2,1,0,3,87.878159
-1614,-1715,3,0,0,0,640.848450
588,64,1,0,0,0,1037.922119
1468,-630,2,0,0,0,732.768372
-587,-97,3,0,0,0,1036.226807
15,1935,1,1,0,5,74.385254
491,-61,2,1,0,3,87.878159
-1285,1812,3,0,0,0,657.519043
486,409,1,0,0,0,1017.359619
604,-312,2,0,0,0,978.543152
-1585,1617,3,1,0,5,74.385254
223,1886,1,1,0,5,74.385254
1895,-1895,2,1,0,3,87.878159
-1912,1633,3,0,0,0,622.188232
389,1050,1,0,0,0,854.045227
528,-677,2,0,0,0,911.290894
-1668,998,3,0,0,0,695.685364
395,1642,1,0,0,0,735.964478
571,-1764,2,0,0,0,690.092285
-1982,986,3,0,0,0,658.507690
362,416,1,0,0,0,1058.122803
648,-1943,2,1,0,3,87.878159
-1943,-1827,3,0,0,0,605.428284
1255,1657,1,0,0,0,676.497314
134,-177,2,0,0,0,1301.314087
-1213,1815,3,0,0,0,662.494019
1515,461,1,0,0,0,754.426392
1867,-435,2,0,0,0,680.550537
-956,716,3,1,0,5,74.385254
779,1194,1,1,0,5,74.385254
311,-897,2,1,0,3,87.878159
-838,1543,3,1,0,5,74.385254
1697,1329,1,1,0,5,74.385254
1004,-1972,2,0,0,0,639.565918
-1358,-48,3,0,0,0,798.384583
904,815,1,0,0,0,830.048584
1935,-1800,2,1,0,3,87.878159
-323,-717,3,0,0,0,955.816406
1223,385,1,1,0,3,87.878159
182,-1231,2,1,0,3,87.878159
-689,855,3,0,0,0,859.670959
1576,1053,1,0,0,0,702.897034
849,-1078,2,0,0,0,776.396606
-1125,480,3,0,0,0,828.639893
1940,1704,1,0,0,0,614.632996
1061,-513,2,0,0,0,820.123779
-1454,-923,3,0,0,0,730.352600
1011,459,1,1,0,3,87.878159
1854,-1194,2,0,0,0,640.554688
-1747,1639,3,1,0,5,74.385254
1465,265,1,1,0,3,87.878159
1890,-917,2,0,0,0,654.404663
-1528,642,3,0,0,0,741.356018
1252,449,1,0,0,0,804.535583
618,-1279,2,0,0,0,766.463074
-1445,-1190,3,1,0,5,74.385254
1257,1334,1,0,0,0,712.498535
1090,-877,2,1,0,3,87.878159
-580,-407,3,1,0,5,74.385254
1343,1987,1,0,0,0,635.660034
980,-361,2,0,0,0,854.883362
-1189,140,3,0,0,0,834.797668
1594,929,1,0,0,0,710.623474
85,-432,2,0,0,0,1103.793945
-1195,-1548,3,0,0,0,693.950012
321,1837,1,0,0,0,707.554443
1052,-788,2,1,0,3,87.878159
-1440,-1280,3,1,0,5,74.385254
940,748,1,0,0,0,833.819397
35,-477,2,0,0,0,1079.920166
-753,-621,3,0,0,0,893.583496
208,1956,1,0,0,0,692.280945
263,-435,2,0,0,0,1062.353027
-679,947,3,0,0,5,74.385254
898,348,1,1,0,3,87.878159
957,-1693,2,0,0,0,676.440552
-1031,-1808,3,0,0,0,676.128967
850,207,1,0,0,0,925.108337
692,-877,2,1,0,3,87.878159
-1010,74,3,0,0,0,882.964478
435,648,1,0,0,0,957.996948
21,-1601,2,0,0,0,732.111511
-1186,1592,3,0,0,0,689.648193
170,702,1,0,0,0,980.321533
921,-1174,2,1,0,3,87.878159
-1790,-756,3,1,0,5,74.385254
1314,1724,1,0,0,0,664.510681
672,-1212,2,0,0,0,773.554077
-524,-1084,3,0,0,0,833.170288
1761,744,1,0,0,0,700.444824
927,-100,2,0,0,0,887.536072
-201,-1454,3,0,0,0,776.220032
1961,780,1,0,0,0,672.156433
138,-1758,2,1,0,3,87.878159
-399,-1348,3,1,0,3,87.878159
1317,202,1,0,0,0,804.033691
690,-102,2,0,0,0,971.145874
-222,-85,3,0,0,0,1300.845459
1512,1325,1,1,0,5,74.385254
58,-1030,2,0,0,0,858.416687
-1343,174,3,0,0,0,799.364075
1103,1679,1,0,0,0,686.255554
1943,-1836,2,0,0,0,585.818054
-1374,768,3,0,0,0,756.156006
1519,1809,1,0,0,0,639.986877
1516,-1698,2,0,0,0,631.513245
-1710,92,3,0,0,0,731.980042
729,486,1,0,0,0,924.678467
986,-911,2,0,0,3,87.878159
-937,-1059,3,0,0,0,786.948303
5,1561,1,1,0,5,74.385254
987,-990,2,0,0,0,771.053589
-199,-1781,3,0,0,0,718.954529
1356,968,1,0,0,0,739.859680
1806,-1819,2,0,0,0,597.736145
-1080,1870,3,0,0,0,665.593140
822,358,1,0,0,0,918.039856
111,-858,2,1,0,3,87.878159
-371,40,3,1,0,5,74.385254
1790,869,1,0,0,0,688.989014
1338,-1587,2,0,0,0,657.814697
-1426,1578,3,0,0,0,669.939392
1671,1074,1,0,0,0,689.479065
1528,-938,2,0,0,0,699.694702
-913,1958,3,0,0,0,665.469727
107,462,1,0,0,0,1101.629150
1101,-1840,2,1,0,3,87.878159
-878,-1547,3,0,0,0,721.088379
1096,1224,1,0,0,0,743.861084
188,-1071,2,0,0,0,843.274109
-1963,16,3,1,0,5,74.385254
1316,990,1,1,0,3,87.878159
-1760,1151,3,1,0,5,74.385254
925,1664,1,0,0,0,701.630249
-1462,235,3,0,0,0,773.699402
664,296,1,0,0,0,978.453247
-292,-27,3,0,0,0,1240.280762
1238,978,1,0,0,0,755.495728
-616,-533,3,0,0,0,945.669373
-757,1969,3,1,0,5,74.385254
-575,-1446,3,0,0,0,759.446350
-1290,1765,3,1,0,5,74.385254
-968,1106,3,0,0,0,775.837830
-929,-1137,3,0,0,0,776.133972
-549,-282,3,1,0,5,74.385254
-1153,906,3,1,0,5,74.385254
-1402,1889,3,0,0,0,641.164551
-812,707,3,1,0,5,74.385254
-1275,866,3,0,0,0,762.196472
-583,-1675,3,0,0,0,721.932190
-669,1796,3,0,0,0,699.721313
-821,860,3,0,0,0,836.786194
-1416,920,3,1,0,5,74.385254
-84,1354,3,1,0,5,74.385254
-1486,1459,3,0,0,0,675.962463
-1735,425,3,1,0,5,74.385254
-963,-1714,3,0,0,0,692.430237
-692,628,3,0,0,0,906.114502
-8,1553,3,0,0,0,760.020508
-354,545,3,0,0,0,1010.773132
-626,-1305,3,0,0,0,780.249878
-1950,328,3,0,0,0,690.776917
-1350,-601,3,0,0,0,774.287903
-732,-559,3,0,0,0,910.287598
-1235,-201,3,0,0,0,822.100769
-575,861,3,0,0,0,876.598877
-1640,-1799,3,1,0,5,74.385254
-977,531,3,0,0,0,856.047913
-631,1332,3,0,0,0,775.034119
-1825,1308,3,1,0,5,74.385254
-1833,-235,3,0,0,0,710.151489
-1641,-868,3,0,0,0,708.849304
-360,-1608,3,0,0,0,743.020020
-1661,758,3,0,0,0,713.616516
-1975,-858,3,0,0,0,666.407715
-5,504,3,0,0,0,1084.055786
-492,-1150,3,0,0,0,822.198242
-552,705,3,0,0,0,918.420105
-923,-793,3,0,0,0,830.113037
-1921,-1615,3,0,0,0,622.728821
-452,513,3,0,0,0,996.139648
-481,-654,3,0,0,0,946.642700
-1464,487,3,1,0,5,74.385254
-1825,-1894,3,0,0,0,609.385742
-610,-1135,3,0,0,0,813.657410
-917,-337,3,0,0,0,893.310608
-1824,-93,3,1,0,5,74.385254
-1792,-590,3,0,0,0,704.227295
-1863,922,3,0,0,0,676.491516
-1929,128,3,0,0,0,697.239380
-398,-1641,3,0,0,0,736.010071
-1604,1129,3,0,0,0,693.087280
-798,1286,3,0,0,0,767.425964
-1745,16,3,0,0,0,726.573303
-338,1353,3,0,0,0,790.925720
-92,-645,3,1,0,3,87.878159
-1582,1140,3,0,0,0,694.775818
-26,1151,3,0,0,0,846.049438
-893,1629,3,0,0,0,708.650513
-279,1345,3,0,0,0,795.274658
-1979,1783,3,0,0,0,605.781250
-449,1568,3,0,0,0,745.957397
-776,-294,3,0,0,0,940.327209
-1208,-1504,3,1,0,3,87.878159
-592,-1921,3,1,0,3,87.878159
-976,-312,3,1,0,5,74.385254
-301,-624,3,0,0,0,992.335266
-1103,1884,3,1,0,5,74.385254
-583,1142,3,0,0,0,815.073181
-1123,-852,3,0,0,0,787.843201
-1920,-268,3,0,0,0,696.445129
-1716,1411,3,0,0,0,657.489929
-1581,74,3,0,0,0,754.581421
-64,-836,3,0,0,0,937.350159
-1238,-880,3,0,0,0,766.398987
-1539,-1089,3,0,0,0,704.425232
-836,764,3,0,0,0,850.781128
-1763,1360,3,0,0,0,656.849487
-1127,418,3,1,0,5,74.385254
-313,57,3,0,0,0,1216.767944
-1339,-1015,3,0,0,0,737.432129
-514,-732,3,0,0,0,918.727234
-1452,-699,3,1,0,5,74.385254
-1959,-576,3,0,0,0,681.590698
-1031,-1083,3,1,0,5,74.385254
-1419,-1013,3,0,0,0,726.834961
-670,1387,3,0,0,0,762.372742
-1400,1137,3,1,0,5,74.385254
-1446,506,3,0,0,0,763.936951
-1217,-155,3,0,0,0,827.768799
-233,-669,3,0,0,0,985.912964
-1232,-777,3,0,0,0,778.434326
-331,1093,3,1,0,5,74.385254
-1703,809,3,1,0,5,74.385254
-330,850,3,0,0,0,913.186279
-257,-1636,3,0,0,0,741.586304
-314,-381,3,0,0,0,1090.014282
-1671,-1611,3,0,0,0,644.986755
-1963,-275,3,1,0,5,74.385254
-966,-230,3,0,0,0,888.621521
-838,-278,3,1,0,5,74.385254
-272,-1279,3,0,0,0,809.434387
-1856,1939,3,1,0,5,74.385254
-698,865,3,0,0,0,856.171509
-597,230,3,0,0,0,1015.291077
-655,-28,3,0,0,0,1008.246887
-531,1493,3,0,0,0,754.239563
-1835,-1760,3,1,0,5,74.385254
-670,87,3,0,0,0,999.572937
-230,411,3,0,0,0,1103.612305
-610,-964,3,1,0,3,87.878159
-1443,1090,3,0,0,0,716.355835
-1979,-412,3,1,0,5,74.385254
-502,-1250,3,0,0,0,800.893982
-1423,1877,3,0,0,0,640.801392
-219,1403,3,1,0,5,74.385254
-1086,493,3,0,0,0,835.893250
-1918,-1177,3,0,0,0,653.821960
-1879,-109,3,0,0,0,704.906372
-512,-1466,3,1,0,3,87.878159
-1258,-1142,3,0,0,0,734.238525
-1399,-104,3,0,0,0,789.224670
-1234,-511,3,0,0,0,803.340637
-497,-219,3,0,0,0,1062.517700
-562,-1696,3,0,0,0,719.818420
-1919,-769,3,0,0,0,678.052551
-1079,1546,3,0,0,0,704.428711
-1484,276,3,0,0,0,768.190613
-1316,595,3,0,0,0,780.869568
-779,-1305,3,0,0,0,766.223450
-380,-1211,3,1,0,3,87.878159
-926,309,3,0,0,0,893.537231
-1756,433,3,1,0,5,74.385254
-1785,-1922,3,1,0,5,74.385254
-350,-1477,3,1,0,3,87.878159
-1401,870,3,0,0,0,742.785950
-114,834,3,0,0,0,936.215149
-1607,655,3,0,0,0,728.173523
-791,-1883,3,0,0,0,681.525146
-7,-1014,3,0,0,0,882.590210
-174,-982,3,0,0,0,887.379517
-508,341,3,0,0,0,1028.162231
-1551,1215,3,0,0,0,691.814697
-1135,1366,3,0,0,0,721.537964
-448,1215,3,0,0,0,812.227051
-1049,228,3,1,0,5,74.385254
-572,877,3,0,0,0,873.363647
-807,639,3,1,0,5,74.385254
-365,783,3,0,0,0,928.736084
-704,1363,3,0,0,0,763.544067
-1222,233,3,1,0,5,74.385254
-1406,-440,3,1,0,5,74.385254
-724,-1431,3,1,0,3,87.878159
-611,-1423,3,0,0,0,760.833374
-61,-829,3,0,0,0,939.836487
-376,-980,3,0,0,0,872.648315
-1197,-838,3,1,0,5,74.385254
-925,-744,3,0,0,0,837.242798
-1437,243,3,1,0,5,74.385254
-1434,1223,3,0,0,0,704.520325
-13,1143,3,0,0,0,848.110962
-194,-591,3,1,0,3,87.878159
-671,1034,3,0,0,5,74.385254
-674,598,3,0,0,0,916.607849
-1666,-402,3,0,0,0,731.755371
-967,1573,3,0,0,0,710.390503
-1060,1574,3,1,0,5,74.385254
-1813,826,3,0,0,0,688.628662
-1964,1589,3,0,0,0,620.849060
-1375,1105,3,0,0,0,723.483521
-1404,-1685,3,0,0,0,661.156433
-298,-1888,3,0,0,0,700.496094
-986,1730,3,0,0,0,688.778198
-1340,715,3,0,0,0,766.412598
-60,-1185,3,0,0,0,837.379211
-50,936,3,0,0,0,905.235168
-367,-1298,3,0,0,0,800.499390
-142,1300,3,0,0,0,809.405823
-1482,1800,3,0,0,0,643.702026
-1239,-1032,3,0,0,0,749.234680
-1743,-800,3,0,0,0,699.531494
-528,-1099,3,0,0,0,829.550110
-370,353,3,0,0,0,1079.878052
-163,1150,3,0,0,0,843.511414
-1318,966,3,0,0,0,745.416382
-71,-1755,3,0,0,0,724.713135
-1311,677,3,0,0,0,774.726074
-564,-804,3,0,0,0,891.801880
-970,1010,3,0,0,0,789.737793
-1985,-1745,3,0,0,0,608.007812
-271,-110,3,1,0,0,313.056702
-1907,765,3,0,0,0,679.804321
-521,-1416,3,0,0,0,768.312439
-507,153,3,0,0,0,1069.791626
-1941,-681,3,0,0,0,679.487610
-1253,597,3,0,0,0,792.293945
-1296,696,3,0,0,0,775.587280
-1905,1202,3,0,0,0,653.546692
-75,-408,3,1,0,3,87.878159
-809,1254,3,0,0,0,771.468750
-1542,-1449,3,0,0,0,671.406128
-187,-1239,3,0,0,0,821.691284
-178,194,3,0,0,0,1271.370239
-787,-114,3,0,0,0,952.603271
-1563,1493,3,1,0,5,74.385254
-1261,663,3,0,0,0,784.791992
-1716,496,3,0,0,0,719.889648
-139,-1569,3,1,0,3,87.878159
-1239,-376,3,0,0,0,812.263916
-1536,952,3,0,0,0,716.563965
-1128,-1587,3,1,0,3,87.878159


each generation good chromosome number
10,10,10,