each times' max average throughput
584.613403,598.905212,600.276062,599.912537,588.789612,584.772461,586.080444,590.607300,591.749390,592.158997,593.647888,601.022339,593.208435,591.385010,587.930847,584.666565,593.238220,595.931580,595.064209,592.438538,599.828857,591.128357,598.467163,589.735107,593.449890,594.826111,596.645020,589.781067,598.020813,590.818481,583.051575,586.488953,598.461121,580.611084,591.358521,596.874268,590.772217,597.791809,597.255798,592.404114,591.329712,593.167297,593.857056,594.589722,588.748291,597.113525,596.863098,602.965881,595.877319,593.622803,585.865540,582.865356,599.605164,595.097290,588.058167,593.937012,580.981079,603.090759,592.940796,591.380066,594.684937,592.306396,593.580139,589.327209,598.180786,593.861328,602.978882,591.909424,596.286438,579.943115,598.894348,595.361755,589.073853,589.906494,592.488770,592.551758,601.427063,592.044189,594.966919,600.069641,600.733459,601.861633,600.632507,595.532593,600.780090,598.974182,597.707336,594.110168,592.267029,589.655640,580.153625,598.479309,586.970215,577.609680,590.184082,590.793396,590.580261,592.817871,590.985962,595.070984,
avg. throughput in all test times
593.118591
avg. BS TX power in all test times
MBS area 1,MBS area 2,MBS area 3,MBS area 4,CBSD 1,CBSD 2,CBSD 3,CBSD 4,CBSD 5,CBSD 6,
8.450,8.225,8.175,8.225,0.268,0.255,0.261,0.230,0.154,0.329,
avg. mbs all power,avg. cbsd enable number,avg. mbs area all power,avg. cbsd all power
48.225,2.000,33.075,1.496
avg. max avg. throughput generation number in all test times
0.860000
avg. number of relay UE
232

the max average throughput times

BS TX power
MBS area 1,MBS area 2,MBS area 3,MBS area 4,CBSD 1,CBSD 2,CBSD 3,CBSD 4,CBSD 5,CBSD 6,
7.500,8.750,10.000,7.500,0.000,0.000,0.750,0.000,0.000,0.500,
max average throughput
595.070984

x,y,area,be blocked (1 : NLOS / 0 : LOS),be blocked number (>=1 : CBSD(x) / 0 : no),connect bs number (>=1 : CBSD / 0 : MBS),throughput (unit : M bps)
174,657,1,0,0,0,956.404175
-535,1043,2,0,0,0,821.665771
-1883,-1058,3,1,0,3,90.462814
229,-1843,4,0,0,0,667.583191
488,1434,1,0,0,0,725.913391
-1029,807,2,0,0,0,790.223083
-1905,-621,3,1,0,3,90.462814
278,-1087,4,0,0,0,812.094727
1994,522,1,1,0,6,69.244919
-277,1776,2,0,0,0,698.971741
-1128,-1204,3,0,0,0,742.664734
529,-1153,4,0,0,0,776.811096
1168,862,1,0,0,0,738.117310
-1007,1853,2,0,0,0,653.287964
-161,-1384,3,0,0,0,791.182678
441,-1970,4,0,0,0,643.767151
1386,1829,1,0,0,0,607.268738
-962,284,2,0,0,0,866.504517
-1523,-54,3,0,0,0,765.443970
804,-1814,4,0,0,0,648.694336
1472,992,1,0,0,0,680.508850
-578,583,2,1,0,6,69.244919
-1054,-1547,3,1,0,3,90.462814
532,-457,4,0,0,0,947.353882
1580,1441,1,1,0,6,69.244919
-27,212,2,0,0,0,1312.293701
-451,-136,3,0,0,0,1103.562988
1274,-616,4,0,0,0,745.429260
1216,731,1,0,0,0,744.680298
-1416,292,2,0,0,0,761.391846
-1666,-1865,3,0,0,0,623.742615
1651,-15,4,0,0,0,701.228638
1770,649,1,0,0,0,663.299316
-1880,1695,2,0,0,0,601.303101
-639,-1689,3,0,0,0,716.764038
1231,-1679,4,0,0,0,634.983154
1262,1003,1,0,0,0,708.080200
-1666,93,2,1,0,6,69.244919
-2000,-977,3,0,0,0,656.942749
551,-553,4,1,0,3,90.462814
427,909,1,0,0,0,843.966003
-1495,1053,2,0,0,0,694.054810
-1661,-1382,3,0,0,0,665.423523
942,-1211,4,1,0,3,90.462814
444,84,1,0,0,0,1074.071167
-836,1891,2,0,0,0,658.947083
-571,-1132,3,0,0,0,818.309021
1599,-552,4,0,0,0,694.286621
1643,430,1,0,0,0,693.148865
-142,1619,2,0,0,0,727.832092
-279,-66,3,0,0,0,1246.792847
1819,-375,4,0,0,0,667.571106
1439,1545,1,1,0,6,69.244919
-1971,1109,2,0,0,0,633.360291
-1539,-243,3,0,0,0,759.089355
1763,-470,4,1,0,3,90.462814
1910,613,1,0,0,0,645.581543
-1215,107,2,0,0,0,810.245972
-716,-1587,3,0,0,0,727.236572
634,-362,4,0,0,0,935.786011
1718,1546,1,0,0,0,605.248596
-25,1880,2,1,0,6,69.244919
-1972,-1707,3,0,0,0,611.773987
1694,-1634,4,0,0,0,600.079285
1191,1937,1,0,0,0,609.878235
-909,1048,2,0,0,0,773.251099
-1661,-642,3,1,0,3,90.462814
387,-1645,4,0,0,0,694.572693
215,629,1,0,0,0,962.800903
-1907,396,2,1,0,6,69.244919
-1032,-516,3,1,0,3,90.462814
1754,-1489,4,0,0,0,606.531250
1123,1107,1,0,0,0,714.394104
-1092,1356,2,0,0,0,708.106628
-497,-870,3,0,0,0,886.038391
1908,-1604,4,1,0,3,90.462814
149,331,1,0,0,0,1137.240356
-1089,764,2,1,0,6,69.244919
-1770,-1090,3,0,0,0,676.486755
1569,-561,4,0,0,0,698.603394
974,729,1,0,0,6,69.244919
-1417,1488,2,1,0,6,69.244919
-1298,-982,3,0,0,0,746.557190
1792,-1028,4,0,0,0,637.181763
1292,1173,1,0,0,0,685.385925
-1369,1746,2,0,0,0,638.814636
-293,-1758,3,1,0,3,90.462814
1154,-1973,4,0,0,0,608.401367
945,1239,1,0,0,0,717.800781
-997,359,2,1,0,6,69.244919
-1663,-701,3,0,0,0,716.942993
596,-585,4,1,0,3,90.462814
578,900,1,0,0,0,825.839294
-578,1427,2,1,0,6,69.244919
-298,-530,3,0,0,0,1029.960693
1145,-1966,4,1,0,3,90.462814
335,1465,1,0,0,0,728.183594
-433,1859,2,0,0,0,681.783142
-1147,-1299,3,0,0,0,728.576965
1539,-1464,4,0,0,0,629.267883
1820,42,1,0,0,0,673.285156
-1378,118,2,1,0,6,69.244919
-102,-537,3,0,0,0,1060.670776
1074,-606,4,0,0,0,784.939087
1104,1081,1,1,0,6,69.244919
-1278,1156,2,1,0,6,69.244919
-585,-1735,3,0,0,0,712.804016
867,-1474,4,0,0,0,691.177795
560,840,1,0,0,0,842.463440
-884,819,2,0,0,0,813.713745
-118,-1101,3,0,0,0,857.259155
1331,-1820,4,0,0,0,612.276550
552,550,1,0,0,0,917.012146
-609,1865,2,1,0,6,69.244919
-65,-1910,3,1,0,3,90.462814
127,-1783,4,1,0,3,90.462814
1999,280,1,0,0,0,643.801697
-1757,1413,2,1,0,6,69.244919
-1120,-1381,3,0,0,0,721.203186
1050,-1796,4,1,0,3,90.462814
191,1495,1,0,0,0,727.357178
-629,385,2,0,0,0,955.086243
-600,-1815,3,0,0,0,700.461670
1224,-1242,4,0,0,0,685.595459
1046,1119,1,1,0,6,69.244919
-1712,1852,2,0,0,0,602.339172
-1064,-389,3,1,0,3,90.462814
46,-934,4,0,0,0,864.498962
341,825,1,1,0,6,69.244919
-85,1216,2,0,0,0,810.419434
-1801,-8,3,0,0,0,717.529419
11,-1432,4,0,0,0,742.016907
340,1706,1,0,0,0,686.288452
-1317,318,2,1,0,6,69.244919
-541,-341,3,0,0,0,1015.413086
1077,-1177,4,0,0,0,711.053467
738,1950,1,0,0,0,634.565063
-678,616,2,0,0,0,892.624390
-557,-1056,3,0,0,0,835.596375
1680,-748,4,0,0,0,670.393738
1530,1716,1,0,0,0,606.748413
-508,28,2,1,0,6,69.244919
-1193,-1247,3,0,0,0,729.763550
111,-144,4,0,0,0,1336.690674
1431,590,1,0,0,0,719.718750
-915,37,2,1,0,6,69.244919
-197,-1685,3,1,0,3,90.462814
1515,-1673,4,0,0,0,611.991821
292,528,1,1,0,6,69.244919
-376,1349,2,1,0,6,69.244919
-664,-609,3,0,0,0,916.626282
552,-1611,4,0,0,0,692.373169
784,1815,1,0,0,0,649.717407
-705,477,2,1,0,6,69.244919
-125,-1211,3,0,0,0,829.980103
39,-47,4,0,0,0,1651.449097
1197,747,1,0,0,0,746.270935
-1170,1643,2,0,0,0,666.015259
-1236,-1158,3,0,0,0,735.138794
1448,-941,4,1,0,3,90.462814
1384,180,1,0,0,0,749.400513
-481,1527,2,0,0,0,732.142456
-1345,-828,3,0,0,0,755.179871
1019,-1889,4,0,0,0,626.304565
1357,1565,1,1,0,6,69.244919
-1386,1369,2,1,0,6,69.244919
-1534,-424,3,0,0,0,752.992310
1469,-350,4,0,0,0,726.793152
332,908,1,1,0,6,69.244919
-668,14,2,0,0,0,983.536743
-686,-532,3,0,0,0,927.332764
1240,-1999,4,0,0,0,600.232971
122,1643,1,0,0,0,701.844238
-697,1176,2,0,0,0,777.476135
-1709,-266,3,1,0,3,90.462814
109,-1721,4,1,0,3,90.462814
915,808,1,0,0,0,787.861389
-1508,1064,2,0,0,0,691.412537
-171,-1989,3,0,0,0,688.048889
1360,-1098,4,0,0,0,684.916626
161,721,1,0,0,0,932.377869
-1858,21,2,1,0,6,69.244919
-1644,-1429,3,0,0,0,663.119202
1954,-504,4,0,0,0,643.880859
1619,855,1,0,0,0,671.654846
-1720,1704,2,0,0,0,613.947144
-1290,-259,3,0,0,0,807.650146
959,-1682,4,0,0,0,655.684448
354,912,1,0,0,0,851.513611
-1356,1705,2,1,0,6,69.244919
-1855,-369,3,0,0,0,703.512207
1199,-1755,4,1,0,3,90.462814
116,332,1,0,0,0,1146.369629
-515,1157,2,1,0,6,69.244919
-1125,-618,3,0,0,0,814.767822
1066,-1998,4,0,0,0,611.040100
1557,1517,1,0,0,0,622.677856
-427,255,2,0,0,0,1068.648682
-1373,-1700,3,0,0,0,662.208496
746,-667,4,0,0,0,844.997131
445,827,1,0,0,0,863.273315
-97,446,2,0,0,0,1093.408936
-1595,-1327,3,1,0,3,90.462814
718,-1672,4,0,0,0,673.416748
521,71,1,0,0,0,1030.375000
-149,882,2,0,0,0,899.479187
-1224,-1881,3,1,0,3,90.462814
1147,-1409,4,0,0,0,673.858582
273,1974,1,0,0,0,647.460327
-523,106,2,1,0,6,69.244919
-945,-1219,3,0,0,0,761.990967
410,-748,4,0,0,0,890.964233
167,68,1,0,0,0,1339.083984
-476,589,2,1,0,6,69.244919
-1936,-1223,3,0,0,0,648.844177
1058,-588,4,1,0,3,90.462814
642,1541,1,0,0,0,698.070312
-615,631,2,0,0,0,903.816101
-1954,-1792,3,0,0,0,607.112427
1955,-612,4,0,0,0,639.589233
783,1235,1,0,0,0,736.019958
-613,383,2,1,0,6,69.244919
-1800,-651,3,1,0,3,90.462814
853,-1626,4,0,0,0,670.834534
918,114,1,0,0,0,867.618713
-1047,488,2,0,0,0,825.883789
-88,-1268,3,0,0,0,817.585876
1187,-334,4,0,0,0,784.956726
164,1313,1,0,0,0,764.701538
-124,1767,2,0,0,0,703.163635
-146,-1257,3,0,0,0,818.855591
1100,-1600,4,0,0,0,654.879517
567,541,1,0,0,0,915.369141
-1494,1500,2,0,0,0,652.189148
-607,-1469,3,0,0,0,753.362366
1632,-1999,4,0,0,0,573.972168
1485,1412,1,0,0,0,639.507568
-367,92,2,0,0,0,1147.513672
-1338,-1762,3,1,0,3,90.462814
1815,-254,4,0,0,0,671.375732
1587,647,1,0,0,0,690.551941
-1283,1384,2,0,0,0,685.031433
-1055,-1148,3,0,0,0,758.890930
882,-90,4,0,0,0,879.846497
691,672,1,0,0,0,855.784729
-26,1704,2,0,0,0,714.232056
-149,-1928,3,0,0,0,697.164429
669,-1415,4,0,0,0,716.529785
1954,1123,1,0,0,0,612.408447
-691,1525,2,0,0,0,719.312500
-236,-281,3,1,0,0,230.096390
1301,-1212,4,0,0,0,680.024109
1348,241,1,1,0,6,69.244919
-198,1870,2,0,0,0,686.056824
-422,-1726,3,0,0,0,721.402771
1488,-302,4,1,0,3,90.462814
784,1024,1,0,0,0,772.073120
-1079,389,2,0,0,0,827.923157
-1920,-1551,3,1,0,3,90.462814
638,-1798,4,0,0,0,659.894714
1513,749,1,1,0,6,69.244919
-1413,882,2,1,0,6,69.244919
-1019,-1214,3,0,0,0,754.174011
28,-1037,4,1,0,3,90.462814
1812,812,1,0,0,0,648.488342
-518,396,2,1,0,6,69.244919
-282,-1073,3,0,0,0,856.705627
904,-657,4,1,0,3,90.462814
118,786,1,0,0,0,911.311646
-422,1943,2,0,0,0,670.112366
-1704,-240,3,0,0,0,730.586060
1306,-552,4,0,0,0,744.870789
324,521,1,0,0,0,985.901550
-384,1476,2,1,0,6,69.244919
-551,-648,3,1,0,3,90.462814
1283,-1723,4,0,0,0,626.053406
144,1756,1,0,0,0,682.637939
-1275,1528,2,0,0,0,669.856812
-317,-945,3,1,0,3,90.462814
1164,-1921,4,0,0,0,613.366760
401,1480,1,0,0,0,722.415283
-1950,834,2,0,0,0,651.679993
-392,-1102,3,1,0,3,90.462814
175,-881,4,1,0,3,90.462814
1665,849,1,1,0,6,69.244919
-463,1741,2,0,0,0,698.328796
-592,-522,3,0,0,0,954.765015
1301,-1047,4,0,0,0,697.969238
154,1728,1,0,0,0,687.062866
-135,1169,2,0,0,0,820.549133
-262,-905,3,0,0,0,903.755859
1282,-94,4,0,0,0,773.015015
87,1427,1,0,0,0,742.496155
-541,1850,2,0,0,0,678.992310
-1830,-483,3,0,0,0,703.312012
506,-731,4,1,0,3,90.462814
1582,424,1,0,0,0,703.532837
-581,1203,2,1,0,6,69.244919
-1966,-1738,3,0,0,0,610.046082
112,-1410,4,1,0,3,90.462814
579,1219,1,0,0,0,759.048218
-1179,1092,2,1,0,6,69.244919
-1875,-1197,3,0,0,0,657.118286
190,-1325,4,0,0,0,761.390137
1040,802,1,0,0,0,766.854187
-375,1282,2,1,0,6,69.244919
-224,-1684,3,0,0,0,734.273315
384,-792,4,0,0,0,881.931702
356,1164,1,0,0,0,788.679016
-231,488,2,0,0,0,1044.969971
-279,-769,3,0,0,0,944.446228
1938,-1501,4,0,0,0,588.539124
1477,1009,1,0,0,0,678.313232
-423,1458,2,0,0,0,747.382263
-1278,-123,3,0,0,0,814.692627
263,-426,4,0,0,0,1044.518677
1732,1216,1,1,0,6,69.244919
-961,1336,2,0,0,0,724.237061
-1730,-1187,3,0,0,0,673.836243
669,-969,4,0,0,0,798.211426
801,735,1,0,0,0,821.172241
-883,970,2,0,0,0,789.343811
-1983,-1655,3,1,0,3,90.462814
182,-1365,4,0,0,0,753.245911
877,1962,1,0,0,0,625.937561
-1679,548,2,0,0,0,704.002136
-821,-1631,3,1,0,3,90.462814
1854,-1953,4,0,0,0,561.923584
1551,1234,1,0,0,0,649.008118
-1167,1437,2,0,0,0,690.545715
-1840,-846,3,1,0,3,90.462814
1490,-958,4,1,0,3,90.462814
1056,1845,1,0,0,0,629.036194
-571,485,2,0,0,0,950.548889
-280,-1727,3,0,0,0,725.838867
1033,-534,4,0,0,0,801.808899
695,769,1,0,0,0,834.878784
-1094,1578,2,1,0,6,69.244919
-496,-1962,3,0,0,0,684.151306
254,-779,4,0,0,0,902.548767
1546,1111,1,0,0,0,660.500732
-1132,719,2,0,0,0,782.991333
-92,-1732,3,1,0,3,90.462814
1387,-1202,4,0,0,0,670.958008
24,303,1,1,0,6,69.244919
-1882,985,2,0,0,0,651.233582
-505,-1770,3,0,0,0,711.296326
213,-12,4,1,0,0,399.927307
1791,721,1,0,0,0,656.496887
-84,1119,2,1,0,6,69.244919
-955,-1778,3,0,0,0,684.926880
547,-1815,4,0,0,0,661.727356
1778,1414,1,0,0,0,610.146973
-233,1408,2,1,0,6,69.244919
-1533,-285,3,0,0,0,758.868225
1513,-1246,4,0,0,0,652.191406
242,1619,1,0,0,0,703.681213
-226,923,2,0,0,0,882.064697
-347,-753,3,1,0,3,90.462814
1517,-665,4,0,0,0,700.313293
877,756,1,0,0,0,803.044495
-1212,1770,2,0,0,0,648.425171
-1733,-1417,3,0,0,0,655.319824
709,-1498,4,1,0,3,90.462814
641,895,1,1,0,6,69.244919
-1209,320,2,0,0,0,803.047241
-492,-909,3,0,0,0,877.083374
760,-705,4,0,0,0,834.846436
1460,130,1,0,0,0,735.338806
-1361,554,2,0,0,0,756.736328
-341,-1109,3,0,0,0,843.821716
1334,-1937,4,0,0,0,600.286377
1948,1030,1,0,0,0,618.813599
-759,1898,2,0,0,0,662.200256
-527,-1370,3,0,0,0,776.212463
1754,-33,4,0,0,0,683.871948
561,103,1,0,0,0,1006.923340
-711,356,2,0,0,0,933.391357
-1382,-1835,3,1,0,3,90.462814
1163,-1907,4,0,0,0,614.951843
1878,1272,1,1,0,6,69.244919
-742,757,2,0,0,0,850.608765
-236,-1787,3,0,0,0,717.291321
1297,-1717,4,0,0,0,625.576660
1199,1337,1,0,0,0,677.175598
-1676,1503,2,0,0,0,634.668457
-27,-583,3,0,0,0,1041.773315
97,-61,4,1,0,0,661.106750
609,1332,1,0,0,0,735.565491
-1389,860,2,0,0,0,726.342407
-1289,-257,3,0,0,0,807.950378
1115,-1344,4,0,0,0,685.180908
1983,1672,1,1,0,6,69.244919
-1739,1512,2,0,0,0,628.016174
-682,-1645,3,0,0,0,720.769165
1073,-611,4,0,0,0,784.567627
210,991,1,0,0,0,841.481384
-461,1265,2,0,0,0,781.848755
-494,-689,3,0,0,0,934.155273
521,-1155,4,0,0,0,777.149170
81,1393,1,0,0,0,749.463013
-70,513,2,0,0,0,1057.053223
-801,-1528,3,0,0,0,729.853699
610,-1162,4,0,0,0,767.059509
404,1340,1,1,0,6,69.244919
-666,129,2,1,0,6,69.244919
-1806,-533,3,0,0,0,704.776855
1165,-809,4,0,0,0,744.773560
89,758,1,0,0,0,922.997864
-1151,645,2,0,0,0,787.664001
-1711,-1340,3,0,0,0,663.772522
1485,-1260,4,0,0,0,654.018005
1873,1993,1,0,0,0,557.537231
-658,607,2,0,0,0,899.247742
-1230,-1416,3,0,0,0,705.902710
1889,-37,4,0,0,0,662.674133
502,1528,1,0,0,0,708.735291
-1963,432,2,0,0,0,667.014221
-716,-401,3,0,0,0,943.533142
1391,-545,4,0,0,0,729.878418
1946,638,1,0,0,0,639.677856
-1656,1784,2,1,0,6,69.244919
-1339,-1628,3,0,0,0,672.497375
1019,-935,4,0,0,0,752.022339
154,242,1,0,0,0,1205.152222
-1405,1691,2,0,0,0,641.420776
-1229,-468,3,0,0,0,807.792786
1558,-1479,4,0,0,0,626.053650
1008,1690,1,1,0,6,69.244919
-1861,605,2,1,0,6,69.244919
-831,-1782,3,1,0,3,90.462814
937,-1336,4,0,0,0,704.584717
990,1470,1,1,0,6,69.244919
-76,1862,2,0,0,0,688.639709
-304,-274,3,1,0,6,69.244919
1924,-881,4,0,0,0,630.341614
838,1431,1,1,0,6,69.244919
-329,539,2,0,0,0,999.807129
-1051,-1515,3,0,0,0,710.794067
556,-1811,4,0,0,0,661.909485
1186,1413,1,0,0,0,669.498169
-890,67,2,1,0,6,69.244919
-1970,-1105,3,0,0,0,652.758484
1130,-86,4,0,0,0,809.218445
1957,139,1,1,0,6,69.244919
-1906,126,2,0,0,0,681.573608
-1787,-71,3,0,0,0,719.542542
313,-1148,4,0,0,0,795.201477
1126,148,1,0,0,0,808.605835
-548,356,2,0,0,0,989.932861
-847,-1494,3,0,0,0,731.157227
1101,-1851,4,0,0,0,625.327759
743,1915,1,1,0,6,69.244919
-1130,301,2,0,0,0,822.355103
-615,-142,3,0,0,0,1019.188904
467,-502,4,1,0,3,90.462814
458,698,1,0,0,0,897.157898
-1293,609,2,0,0,0,764.697754
-1360,-998,3,1,0,3,90.462814
663,-214,4,1,0,6,69.244919
1142,1715,1,0,0,0,637.940491
-561,976,2,0,0,0,833.298645
-1853,-2,3,0,0,0,709.377869
551,-1061,4,1,0,3,90.462814
104,1325,1,0,0,0,763.430054
-1167,1265,2,0,0,0,711.408508
-940,-211,3,0,0,0,897.339294
1236,-1793,4,0,0,0,622.166748
779,1404,1,1,0,6,69.244919
-943,588,2,0,0,0,837.012329
-577,-613,3,0,0,0,936.185547
1889,-1951,4,1,0,3,90.462814
959,1651,1,0,0,0,659.673950
-268,655,2,0,0,0,966.958496
-1441,-165,3,0,0,0,779.647644
1607,-1398,4,1,0,3,90.462814
366,839,1,0,0,0,870.651672
-1268,173,2,1,0,6,69.244919
-448,-619,3,0,0,0,964.100464
517,-1185,4,0,0,0,771.360291
1488,946,1,0,0,0,682.417908
-1411,1133,2,0,0,0,697.048767
-905,-1962,3,0,0,0,665.435059
1307,-375,4,0,0,0,756.884094
1961,454,1,0,0,0,644.600403
-1866,1058,2,0,0,0,648.441467
-1474,-1942,3,0,0,0,630.976440
354,-27,4,0,0,0,1143.637939
229,1329,1,0,0,0,759.246948
-1327,1467,2,0,0,0,671.576782
-1899,-735,3,0,0,0,682.382751
915,-564,4,1,0,3,90.462814
521,794,1,0,0,0,860.058777
-856,706,2,0,0,0,837.458069
-1041,-780,3,0,0,0,810.933838
769,-106,4,0,0,0,918.109131
1020,399,1,1,0,6,69.244919
-1428,1049,2,1,0,6,69.244919
-762,-592,3,1,0,3,90.462814
1489,-747,4,0,0,0,698.673279
1808,1537,1,0,0,0,597.749390
-152,605,2,1,0,6,69.244919
-637,-1425,3,0,0,0,758.568726
643,-1581,4,0,0,0,691.734253
1443,77,1,0,0,0,739.422302
-1385,511,2,0,0,0,755.406250
-158,-387,3,0,0,0,1138.022217
39,-851,4,0,0,0,891.337585
102,1289,1,0,0,0,771.325012
-1214,651,2,0,0,0,775.279053
-513,-1503,3,0,0,0,753.602844
1094,-759,4,0,0,0,762.905090
1398,1999,1,1,0,6,69.244919
-1284,1007,2,0,0,0,726.676575
-1321,-1637,3,1,0,3,90.462814
858,-1100,4,1,0,3,90.462814
901,1587,1,0,0,0,672.587708
-186,955,2,0,0,0,875.274902
-946,-622,3,0,0,0,850.869873
1831,-1225,4,0,0,0,618.884583
1126,641,1,1,0,6,69.244919
-1481,1669,2,0,0,0,637.195068
-1996,-432,3,0,0,0,681.549988
365,-57,4,0,0,0,1132.173462
1072,391,1,0,0,0,807.243347
-142,1529,2,0,0,0,744.101990
-98,-1041,3,0,0,0,873.761841
796,-1899,4,0,0,0,638.127747
991,248,1,1,0,6,69.244919
-794,768,2,0,0,0,838.738647
-220,-635,3,1,0,3,90.462814
134,-1367,4,0,0,0,753.981934
1338,674,1,0,0,0,729.070496
-940,1821,2,0,0,0,661.479004
-823,-104,3,0,0,0,940.425110
1726,-1568,4,1,0,3,90.462814
845,607,1,0,0,0,833.799927
-203,151,2,1,0,0,352.188477
-945,-1829,3,0,0,0,679.250244
1292,-600,4,0,0,0,743.527222
1605,1635,1,0,0,0,607.728149
-1693,763,2,0,0,0,689.648438
-347,-1993,3,0,0,0,684.256348
692,-782,4,0,0,0,832.752441
913,416,1,0,0,0,844.249573
-395,1624,2,0,0,0,719.809631
-890,-1695,3,0,0,0,700.035400
1775,-194,4,0,0,0,678.821045
1465,1717,1,0,0,0,611.987305
-1067,1574,2,0,0,0,682.862793
-1923,-814,3,0,0,0,675.185059
200,-1123,4,0,0,0,807.346863
1733,1510,1,0,0,0,606.806885
-1519,1841,2,0,0,0,618.018005
-1179,-1671,3,0,0,0,681.151611
947,-426,4,0,0,0,834.357788
1352,1230,1,0,0,0,672.140869
-1457,1994,2,0,0,0,608.315186
-698,-1927,3,0,0,0,680.528931
1851,-1009,4,0,0,0,631.416138
842,1351,1,1,0,6,69.244919
-354,1749,2,1,0,6,69.244919
-1732,-882,3,1,0,3,90.462814
968,-114,4,0,0,0,852.575684
1497,1645,1,1,0,6,69.244919
-1751,1288,2,0,0,0,644.659790
-388,-391,3,1,0,3,90.462814
157,-1706,4,1,0,3,90.462814
1497,102,1,1,0,6,69.244919
-1501,166,2,0,0,0,748.892700
-1033,-508,3,1,0,3,90.462814
1772,-1704,4,1,0,3,90.462814
956,1836,1,1,0,6,69.244919
-488,1870,2,0,0,0,678.230103
-958,-664,3,0,0,0,842.492493
1349,-1705,4,0,0,0,622.639343
1606,1268,1,0,0,0,639.912781
-916,1305,2,0,0,0,733.322510
-1667,-1125,3,0,0,0,685.941711
125,-915,4,0,0,0,868.102112
1794,1925,1,0,0,0,568.457520
-247,1153,2,0,0,0,819.965637
-232,-939,3,0,0,0,896.192200
1715,-575,4,1,0,3,90.462814
1245,1901,1,0,0,0,610.060547
-160,583,2,0,0,0,1012.365356
-833,-1277,3,1,0,3,90.462814
257,-1820,4,0,0,0,670.539856
721,1453,1,0,0,0,706.305725
-1892,1852,2,0,0,0,588.554810
-698,-636,3,1,0,3,90.462814
1642,-121,4,0,0,0,702.030396
192,17,1,0,0,0,1319.839844
-1104,1370,2,0,0,0,705.090759
-1048,-1744,3,0,0,0,682.610107
470,-252,4,0,0,0,1026.302979
1385,266,1,0,0,0,746.402954
-1425,1573,2,0,0,0,651.461182
-850,-171,3,0,0,0,927.692322
1964,-302,4,0,0,0,648.278320
1054,738,1,0,0,6,69.244919
-329,391,2,0,0,0,1060.838745
-1184,-1440,3,1,0,3,90.462814
1970,-1156,4,0,0,0,608.597595
912,731,1,0,0,0,800.343140
-761,1094,2,0,0,0,784.793762
-281,-770,3,0,0,0,943.875000
1602,-1601,4,0,0,0,611.005676
1295,211,1,0,0,0,767.125549
-1385,802,2,0,0,0,732.235413
-377,-506,3,0,0,0,1019.269958
1791,-528,4,0,0,0,666.043335
382,1058,1,0,0,0,811.361877
-1311,1840,2,1,0,6,69.244919
-1052,-680,3,0,0,0,821.781738
422,-246,4,0,0,0,1051.618652
1531,1594,1,1,0,6,69.244919
-647,103,2,0,0,0,989.199646
-138,-1913,3,0,0,0,699.509583
874,-1687,4,1,0,3,90.462814
1763,65,1,1,0,6,69.244919
-1531,1951,2,0,0,0,607.120667
-1769,-11,3,1,0,6,69.244919
432,-1289,4,0,0,0,756.940552
1918,1531,1,0,0,0,588.212769
-1908,1040,2,1,0,6,69.244919
-280,-629,3,0,0,0,994.128845
1651,-1226,4,0,0,0,638.495850
558,1754,1,1,0,6,69.244919
-1424,1919,2,1,0,6,69.244919
-1410,-1710,3,0,0,0,658.167603
1059,-561,4,0,0,0,793.152893
40,1521,1,0,0,0,724.636353
-1327,1671,2,0,0,0,649.942200
-1115,-1012,3,1,0,3,90.462814
858,-1555,4,0,0,0,680.357117
1981,1240,1,0,0,0,602.083862
-661,1929,2,1,0,6,69.244919
-1389,-188,3,0,0,0,789.469482
1380,-1295,4,0,0,0,662.205505
1560,159,1,0,0,0,715.998718
-432,1321,2,0,0,0,772.723938
-1130,-235,3,1,0,6,69.244919
77,-192,4,0,0,0,1299.452759
498,1331,1,0,0,0,744.214111
-1307,356,2,0,0,0,780.097473
-349,-1151,3,0,0,0,833.471191
1272,-1031,4,0,0,0,703.615845
27,1048,1,0,0,0,831.616516
-1545,706,2,1,0,6,69.244919
-1575,-1426,3,0,0,0,670.238586
1626,-1012,4,0,0,0,658.794067
575,301,1,0,0,0,969.694153
-1490,917,2,0,0,0,706.706177
-161,-393,3,1,0,3,90.462814
1478,-204,4,0,0,0,730.251587
671,1940,1,0,0,0,639.003723
-897,860,2,0,0,0,804.885071
-858,-1300,3,0,0,0,759.172546
0,-549,4,0,0,0,1017.935669
1854,90,1,0,0,0,667.735229
-231,921,2,0,0,0,882.288513
-1591,-818,3,0,0,0,719.453186
10,-449,4,1,0,3,90.462814
1822,890,1,1,0,6,69.244919
-1517,268,2,0,0,0,743.185791
-1603,-1468,3,0,0,0,663.726868
1719,-1318,4,1,0,3,90.462814
554,1021,1,1,0,6,69.244919
-1263,1634,2,0,0,0,659.269653
-1940,-477,3,0,0,0,687.842102
729,-453,4,1,0,3,90.462814
742,785,1,1,0,6,69.244919
-193,1809,2,0,0,0,695.521973
-444,-879,3,0,0,0,891.018127
1072,-1863,4,0,0,0,625.895081
1921,269,1,0,0,0,655.159851
-932,470,2,1,0,6,69.244919
-1200,-749,3,0,0,0,786.837036
827,-1089,4,0,0,0,755.265076
1455,1788,1,0,0,0,605.986450
-254,979,2,0,0,0,864.113159
-1725,-1656,3,0,0,0,636.501282
1253,-513,4,0,0,0,758.107300
936,1215,1,0,0,0,722.346863
-1728,202,2,0,0,0,708.315186
-1677,-1865,3,0,0,0,622.907898
1310,-1068,4,0,0,0,694.525940
1025,1554,1,1,0,6,69.244919
-519,1746,2,0,0,0,695.170227
-763,-700,3,1,0,3,90.462814
1842,-772,4,0,0,0,646.824341
1193,645,1,0,0,6,69.244919
-382,1921,2,0,0,0,674.411682
-601,-1548,3,0,0,0,740.806030
200,-571,4,0,0,0,989.930054
512,1831,1,0,0,0,660.884460
-1457,1880,2,0,0,0,619.005371
-1338,-1032,3,0,0,0,735.809814
1836,-1434,4,1,0,3,90.462814
1340,283,1,1,0,6,69.244919
-1737,92,2,0,0,0,708.369751
-9,-560,3,1,0,3,90.462814
1020,-456,4,0,0,0,813.300842
1567,1564,1,0,0,0,617.472900
-352,1947,2,0,0,0,671.515015
-1792,-1484,3,1,0,3,90.462814
1201,-1999,4,0,0,0,602.697754
613,587,1,0,0,0,892.409424
-1137,1463,2,0,0,0,690.283813
-392,-301,3,0,0,0,1089.714111
1227,-1774,4,0,0,0,624.892090
715,738,1,1,0,6,69.244919
-520,1495,2,0,0,0,735.405029
-1889,-1253,3,1,0,3,90.462814
1346,-321,4,0,0,0,751.859497
395,1684,1,0,0,0,687.912231
-1420,1279,2,0,0,0,681.435486
-1357,-776,3,0,0,0,758.143372
1791,-182,4,0,0,0,676.484497
219,1812,1,0,0,0,672.547546
-1266,1776,2,0,0,0,643.697754
-1437,-1558,3,0,0,0,670.929138
325,-728,4,0,0,0,910.427734
1622,558,1,0,0,0,690.305176
-504,768,2,0,0,0,891.820374
-920,-1056,3,0,0,0,789.698608
1328,-1269,4,0,0,0,670.730103
59,152,1,0,0,0,1368.121948
-1145,1745,2,1,0,6,69.244919
-1530,-1768,3,0,0,0,642.906921
1062,-1995,4,0,0,0,611.609619
239,1979,1,0,0,0,647.375671
-1875,1082,2,0,0,0,645.829834
-1044,-1692,3,0,0,0,689.222473
1043,-1913,4,0,0,0,622.020691
994,660,1,1,0,6,69.244919
-577,1339,2,0,0,0,758.972839
-645,-969,3,1,0,3,90.462814
1860,-1700,4,1,0,3,90.462814
1786,698,1,0,0,0,658.445007
-634,835,2,0,0,0,853.771729
-92,-622,3,0,0,0,1020.293518
881,-1804,4,0,0,0,645.343994
1050,1134,1,0,0,0,720.162292
-1348,1086,2,1,0,6,69.244919
-770,-162,3,0,0,0,955.647339
1017,-816,4,0,0,3,90.462814
227,258,1,0,0,0,1153.035889
-57,1174,2,0,0,0,820.888062
-716,-1269,3,0,0,0,778.335144
734,-1345,4,1,0,3,90.462814
1067,1560,1,1,0,6,69.244919
-1474,631,2,0,0,0,731.709778
-1434,-1886,3,0,0,0,639.132935
95,-1837,4,0,0,0,670.322449
138,1938,1,0,0,0,654.694519
-313,1160,2,0,0,0,814.572144
-546,-686,3,0,0,0,924.476807
1556,-1741,4,1,0,3,90.462814
315,586,1,0,0,0,962.554871
-1523,631,2,0,0,0,723.747070
-684,-921,3,1,0,3,90.462814
622,-1201,4,1,0,3,90.462814
785,941,1,0,0,0,786.745422
-42,974,2,0,0,0,874.695374
-956,-258,3,0,0,0,889.434875
1661,-651,4,0,0,0,679.069702
1753,1575,1,1,0,6,69.244919
-254,800,2,0,0,0,917.804810
-1473,-1395,3,0,0,0,683.444336
1120,-1647,4,1,0,3,90.462814
441,1169,1,0,0,0,781.179382
-1625,1206,2,1,0,6,69.244919
-918,-1256,3,0,0,0,759.522278
650,-978,4,0,0,0,798.994507
827,989,1,1,0,6,69.244919
-975,1860,2,1,0,6,69.244919
-1732,-1381,3,1,0,3,90.462814
1553,-1547,4,0,0,0,620.304016
528,1140,1,1,0,6,69.244919
-1585,455,2,0,0,0,723.664795
-1505,-80,3,0,0,0,768.632751
146,-1673,4,0,0,0,696.365173
1030,890,1,1,0,6,69.244919
-34,1914,2,0,0,0,680.954224
-1882,-764,3,0,0,0,683.101929
355,-1134,4,0,0,0,795.596741
539,1242,1,1,0,6,69.244919
-36,909,2,1,0,6,69.244919
-1093,-1794,3,1,0,3,90.462814
1889,-1219,4,0,0,0,613.108948
1000,362,1,0,0,0,827.487915
-1223,1941,2,0,0,0,629.283630
-48,-1571,3,1,0,3,90.462814
371,-1773,4,0,0,0,674.714783
746,312,1,0,0,0,906.351318
-1068,195,2,0,0,0,843.729248
-225,-183,3,0,0,0,1243.467407
343,-1179,4,0,0,0,786.174072
1839,1737,1,0,0,0,579.619751
-420,880,2,0,0,0,874.640747
-1993,-1998,3,0,0,0,589.386841
829,-830,4,1,0,3,90.462814
699,1270,1,1,0,6,69.244919
-1884,679,2,0,0,0,668.061279
-164,-613,3,0,0,0,1017.649780
1634,-1363,4,0,0,0,628.766479
214,898,1,0,0,0,868.211853
-741,552,2,0,0,0,890.133423
-1600,-370,3,0,0,0,743.993408
201,-201,4,0,0,0,1207.766724
114,1234,1,0,0,0,783.525513
-869,1714,2,0,0,0,679.850281
-1632,-243,3,0,0,0,742.639771
1168,-1171,4,0,0,0,700.733765
1929,1151,1,0,0,0,613.346802
-691,886,2,0,0,0,833.846680
-528,-95,3,0,0,0,1066.061157
158,-1823,4,0,0,0,671.821045
262,1457,1,0,0,0,732.498108
-1291,678,2,0,0,0,758.938049
-827,-84,3,1,0,6,69.244919
1760,-476,4,1,0,3,90.462814
1733,253,1,0,0,0,684.351807
-351,496,2,0,0,0,1010.902527
-1371,-1834,3,1,0,3,90.462814
1932,-289,4,1,0,6,69.244919
709,1350,1,0,0,0,724.009949
-1185,512,2,0,0,0,793.944214
-1168,-1844,3,0,0,0,662.525146
832,-1995,4,1,0,3,90.462814
747,1477,1,0,0,0,700.520996
-648,660,2,1,0,6,69.244919
-397,-1283,3,0,0,0,801.752625
871,-1712,4,0,0,0,657.957397
321,750,1,1,0,6,69.244919
-248,1156,2,0,0,0,819.200073
-1333,-412,3,0,0,0,790.794250
1749,-1469,4,0,0,0,608.605103
1690,1652,1,0,0,0,598.914795
-284,1303,2,0,0,0,784.591125
-925,-1993,3,0,0,0,660.645691
1939,-1639,4,0,0,0,578.583984
1372,100,1,1,0,6,69.244919
-1923,1148,2,0,0,0,636.142456
-1837,-688,3,0,0,0,693.070190
248,-630,4,0,0,0,957.506714
1017,444,1,0,0,0,815.261597
-765,1881,2,0,0,0,664.095947
-1432,-368,3,1,0,3,90.462814
713,-1971,4,0,0,0,633.062683
753,1353,1,0,0,0,719.613525
-1061,1782,2,0,0,0,658.065796
-27,-1011,3,0,0,0,883.347595
107,-869,4,0,0,0,883.446472
1286,118,1,0,0,0,771.686218
-1666,826,2,1,0,6,69.244919
-1421,-1917,3,0,0,0,637.096619
1032,-43,4,1,0,6,69.244919
956,950,1,0,0,0,759.424438
-1271,575,2,0,0,0,771.657410
-1320,-152,3,0,0,0,804.828491
1084,-334,4,0,0,0,808.959412
1691,1060,1,0,0,0,647.034363
-336,395,2,0,0,0,1056.595825
-1742,-1332,3,0,0,0,661.205566
756,-58,4,1,0,6,69.244919
557,643,1,0,0,0,891.739197
-1354,5,2,0,0,0,780.226135
-248,-1880,3,0,0,0,702.765015
1268,-26,4,0,0,0,776.878174
1392,1766,1,0,0,0,613.049011
-1134,1503,2,1,0,6,69.244919
-587,-710,3,0,0,0,910.225891
1106,-1943,4,0,0,0,614.687988
743,721,1,1,0,6,69.244919
-1131,670,2,0,0,0,788.721191
-1344,-759,3,0,0,0,761.784241
144,-1062,4,0,0,0,825.275452
203,472,1,0,0,0,1037.038452
-707,991,2,0,0,0,810.802002
-411,-1468,3,0,0,0,765.351135
1324,-54,4,1,0,6,69.244919
890,1501,1,1,0,6,69.244919
-1142,1147,2,1,0,6,69.244919
-977,-100,3,0,0,0,891.799377
824,-253,4,1,0,3,90.462814
41,1993,1,0,0,0,647.369629
-1733,310,2,0,0,0,704.920959
-631,-1511,3,0,0,0,744.826477
1493,-810,4,0,0,0,693.109192
556,356,1,0,0,0,964.769165
-687,1432,2,0,0,0,734.425720
-1266,-992,3,0,0,0,749.971924
149,-842,4,0,0,0,890.261658
1809,1389,1,0,0,0,609.018616
-1521,1616,2,0,0,0,638.750000
-1967,-675,3,0,0,0,676.363708
758,-1367,4,0,0,0,716.912292
1693,827,1,1,0,6,69.244919
-384,183,2,0,0,0,1113.727661
-374,-407,3,0,0,0,1057.448853
1592,-1352,4,0,0,0,634.066956
885,695,1,0,0,0,811.252747
-1675,154,2,0,0,0,717.977966
-492,-395,3,0,0,0,1019.297546
1371,-91,4,0,0,0,753.884644
1446,1024,1,0,0,0,681.024780
-1526,461,2,0,0,0,733.372314
-1494,-764,3,0,0,0,737.809265
1495,-1667,4,0,0,0,614.249756
1931,1659,1,0,0,0,577.817078
-334,1712,2,1,0,6,69.244919
-375,-1650,3,0,0,0,735.415894
1478,-1633,4,0,0,0,618.943604
51,393,1,0,0,0,1111.922241
-10,1423,2,0,0,0,765.947083
-319,-1924,3,0,0,0,694.730042
1525,-1522,4,0,0,0,625.213745
1027,621,1,0,0,6,69.244919
-1976,399,2,0,0,0,666.175842
-1069,-1475,3,0,0,0,714.266785
421,-329,4,0,0,0,1025.757446
547,1965,1,0,0,0,640.821899
-1401,835,2,1,0,6,69.244919
-1694,-1158,3,1,0,3,90.462814
1059,-419,4,0,0,0,807.798828
1266,1798,1,0,0,0,619.402588
-1405,1953,2,1,0,6,69.244919
-308,-733,3,1,0,3,90.462814
1914,-1359,4,0,0,0,600.832764
1149,261,1,1,0,6,69.244919
-1733,1584,2,0,0,0,622.698608
-1853,-1079,3,0,0,0,667.612305
471,-1579,4,1,0,3,90.462814
728,924,1,1,0,6,69.244919
-590,1256,2,0,0,0,773.172668
-1353,-858,3,0,0,0,751.087952
865,1399,1,0,0,0,702.314575
-1888,1834,2,1,0,6,69.244919
-669,-1650,3,0,0,0,720.818298
400,1771,1,0,0,0,674.051392
-267,1943,2,0,0,0,674.025818
-370,-753,3,0,0,0,937.162354
1116,302,1,0,0,0,803.474670
-319,1303,2,0,0,0,782.896667
-1082,-713,3,0,0,0,812.041687
265,950,1,0,0,0,849.177734
-1201,1356,2,0,0,0,696.763672
-1555,-678,3,0,0,0,734.687378
1079,362,1,1,0,6,69.244919
-1405,186,2,1,0,6,69.244919
-446,-1659,3,0,0,0,731.072083
501,1057,1,0,0,0,800.117920
-293,1773,2,0,0,0,699.039368
-536,-1373,3,0,0,0,775.031311
1496,1835,1,1,0,6,69.244919
-1998,961,2,1,0,6,69.244919
-750,-1952,3,1,0,3,90.462814
752,1369,1,0,0,0,717.122681
-1095,1928,2,0,0,0,639.001953
-1209,-1134,3,1,0,3,90.462814
1120,805,1,0,0,0,752.786621
-1866,160,2,0,0,0,687.216187
-1941,-89,3,1,0,6,69.244919
1504,1423,1,0,0,0,636.552307
-1786,804,2,0,0,0,674.409973
-1195,-258,3,1,0,3,90.462814
888,668,1,0,0,0,814.872131
-1748,1058,2,0,0,0,662.323914
-763,-1890,3,1,0,3,90.462814
1296,1888,1,1,0,6,69.244919
-1758,304,2,0,0,0,701.110962
-1738,-1016,3,0,0,0,685.645508
1714,345,1,0,0,0,684.840698
-182,808,2,0,0,0,921.643250
-440,-741,3,0,0,0,929.438782
144,1065,1,0,0,0,824.478760
-1064,1925,2,0,0,0,641.296509
-1550,-1715,3,0,0,0,646.152344
1297,1785,1,1,0,6,69.244919
-1147,1651,2,0,0,0,666.964294
-1128,-936,3,0,0,0,776.622864
439,935,1,0,0,0,835.878357
-1842,330,2,0,0,0,687.448547
-1378,-640,3,0,0,0,766.309448
350,1979,1,0,0,0,645.048401
-1015,-848,3,1,0,3,90.462814
1335,628,1,0,0,0,733.474854
-1547,-1949,3,0,0,0,625.160217
426,1393,1,0,0,0,737.123291
-1566,-1541,3,1,0,3,90.462814
148,743,1,1,0,6,69.244919
-1731,-1490,3,0,0,0,649.590576
715,1786,1,0,0,0,657.515564
-1165,-1038,3,0,0,0,758.670288
-1908,-297,3,0,0,0,697.575012
-445,-607,3,0,0,0,968.457520
-722,-1561,3,0,0,0,730.741699


each generation good chromosome number
4,4,7,