597.717896,597.717896,597.717896,597.717896,597.717896,597.717896,597.717896,597.717896,597.717896,597.717896,597.717896,597.717896,597.717896,597.717896,597.717896,597.717896,597.717896,597.717896,597.717896,597.717896,597.717896,597.717896,597.717896,597.717896,597.717896,597.717896,597.717896,597.717896,597.717896,597.717896,597.717896,597.717896,597.717896,597.717896,597.717896,597.717896,597.717896,597.717896,597.717896,597.717896,597.717896,597.717896,597.717896,597.717896,597.717896,597.717896,597.717896,597.717896,597.717896,597.717896,597.717896,597.717896,597.717896,597.717896,597.717896,597.717896,597.717896,597.717896,597.717896,597.717896,597.717896,597.717896,597.717896,597.717896,597.717896,597.717896,597.717896,597.717896,597.717896,597.717896,597.717896,597.717896,597.717896,597.717896,597.717896,597.717896,597.717896,597.717896,597.717896,597.717896,597.717896,597.717896,597.717896,597.717896,597.717896,597.717896,597.717896,597.717896,597.717896,597.717896,597.717896,597.717896,597.717896,597.717896,597.717896,597.717896,597.717896,597.717896,597.717896,597.717896,

avg. max avg. throughput in test times
597.718506
avg. BS TX power in all test times
MBS area 1,MBS area 2,MBS area 3,MBS area 4,MBS area 5,CBSD 1,CBSD 2,CBSD 3,CBSD 4,CBSD 5,
10.000,10.000,10.000,10.000,10.000,0.000,0.000,0.000,0.000,0.000,
avg. mbs all power,avg. cbsd enable number,avg. mbs area all power,avg. cbsd all power
50.000,0.000,50.000,0.000
avg. number of relay UE
0

BS TX power
MBS area 1,MBS area 2,MBS area 3,MBS area 4,MBS area 5,CBSD 1,CBSD 2,CBSD 3,CBSD 4,CBSD 5,
10.000,10.000,10.000,10.000,10.000,0.000,0.000,0.000,0.000,0.000,
max average power
465.545929

x,y,area,be blocked (1 : NLOS / 0 : LOS),be blocked number (>=1 : CBSD(x) / 0 : no),connect bs number (>=1 : CBSD / 0 : MBS),throughput (unit : M bps)
24,1130,1,0,0,0,851.356140
1394,524,2,0,0,0,772.062317
-639,1858,3,0,0,0,692.603455
-1103,-297,4,1,0,0,17.660278
1102,-110,5,0,0,0,857.214722
170,360,1,0,0,0,1152.083984
1589,1139,2,0,0,0,694.027954
-711,1002,3,1,0,0,14.358952
-1548,-1430,4,0,0,0,672.564880
647,-1338,5,0,0,0,772.643433
826,859,1,0,0,0,836.124695
1454,344,2,1,0,0,8.159477
-1621,874,3,0,0,0,711.144348
-1089,-1397,4,1,0,0,4.952420
516,-614,5,0,0,0,950.143982
208,1235,1,0,0,0,821.838074
744,182,2,0,0,0,963.412415
-163,1741,3,0,0,0,725.992432
-1172,-1785,4,0,0,0,668.799133
169,-54,5,0,0,0,1385.256104
446,577,1,0,0,0,977.547485
1907,96,2,0,0,0,700.789551
-1651,122,3,0,0,0,741.683594
-1263,-1522,4,0,0,0,690.719604
1272,-834,5,0,0,0,765.995239
706,1904,1,0,0,0,683.170288
1913,422,2,1,0,0,3.677310
-169,896,3,0,0,0,913.190369
-99,-509,4,1,0,0,125.825073
358,-1158,5,0,0,0,831.248901
985,1346,1,1,0,0,5.911849
1587,347,2,0,0,0,747.107849
-1374,1320,3,1,0,0,3.992474
-438,-820,4,1,0,0,31.216726
1128,-1171,5,1,0,0,6.371599
4,1389,1,1,0,0,10.087645
1353,384,2,0,0,0,788.493042
-26,539,3,0,0,0,1064.374023
-406,-850,4,0,0,0,903.809998
463,-34,5,0,0,0,1107.764282
493,1919,1,0,0,0,690.210144
1693,1378,2,0,0,0,662.508057
-1843,1071,3,0,0,0,669.305115
-390,-1209,4,1,0,0,13.050175
307,-1107,5,1,0,0,17.379622
1089,1685,1,0,0,0,686.628174
601,101,2,0,0,0,1029.300049
-808,1261,3,1,0,0,8.103639
-1787,-1661,4,1,0,0,1.915412
416,-220,5,0,0,0,1103.849731
427,1302,1,0,0,0,795.987244
931,679,2,0,0,0,845.797180
-8,1796,3,0,0,0,718.326050
-86,-1999,4,0,0,0,687.403137
2,-60,5,1,0,0,981.067139
768,819,1,1,0,0,18.540054
1665,104,2,0,0,0,739.484070
-1349,1104,3,0,0,0,726.887329
-1442,-1523,4,0,0,0,673.932922
1403,-922,5,0,0,0,737.668640
61,1770,1,1,0,0,4.954531
1348,133,2,0,0,0,799.296204
-1420,524,3,1,0,0,7.857123
-1862,-115,4,0,0,0,707.445007
1767,-345,5,0,0,0,717.633362
93,1290,1,1,0,0,12.394755
1719,1625,2,0,0,0,639.585205
-904,685,3,0,0,0,850.349976
-1564,-1096,4,0,0,0,700.732727
428,-1826,5,0,0,0,705.922852
294,1916,1,1,0,0,3.794051
486,337,2,1,0,0,95.478172
-508,86,3,0,0,0,1077.715942
-648,-298,4,1,0,0,61.817284
836,-878,5,0,0,0,831.185242
293,868,1,0,0,0,911.829041
1051,286,2,0,0,0,861.998962
-1936,1690,3,0,0,0,615.984375
-290,-738,4,1,0,0,47.436237
372,-482,5,0,0,0,1029.569702
682,1968,1,0,0,0,675.920532
1679,827,2,0,0,0,706.513977
-407,1874,3,0,0,0,699.551819
-1071,-787,4,0,0,0,804.754761
1088,-230,5,0,0,0,856.030212
632,1914,1,0,0,0,685.295715
1097,214,2,0,0,0,854.575989
-1649,1459,3,1,0,0,2.599721
-515,-743,4,0,0,0,915.654236
7,-1633,5,0,0,0,745.606873
980,1535,1,0,0,0,714.342773
1703,364,2,0,0,0,727.166565
-1879,691,3,0,0,0,687.234497
-1444,-1310,4,0,0,0,694.816528
769,-1112,5,0,0,0,799.836670
1645,1666,1,0,0,0,642.519653
1214,835,2,1,0,0,8.498157
-629,789,3,1,0,0,24.964935
-282,-830,4,1,0,0,36.528599
1500,-992,5,0,0,0,717.954285
1283,1306,1,0,0,0,712.834961
1813,76,2,0,0,0,715.378113
-1483,1515,3,0,0,0,670.859863
-1986,-703,4,0,0,0,672.655029
936,-1582,5,1,0,0,4.439445
590,1468,1,1,0,0,6.902717
213,151,2,0,0,0,1273.783447
-1059,1583,3,0,0,0,701.517578
-1210,-137,4,0,0,0,829.910156
813,-1802,5,1,0,0,3.579434
1198,1745,1,0,0,0,671.314697
1521,161,2,1,0,0,7.620903
-283,288,3,0,0,0,1148.017334
-917,-1103,4,1,0,0,9.188859
394,-1785,5,0,0,0,713.274292
450,1274,1,1,0,0,10.927545
1369,1230,2,0,0,0,711.332764
-191,647,3,0,0,0,1000.008911
-45,-696,4,0,0,0,990.407288
1270,-620,5,0,0,0,787.102783
745,1837,1,1,0,0,3.550558
1950,1886,2,0,0,0,600.592224
-473,425,3,0,0,0,1017.046631
-475,-623,4,1,0,0,48.918659
137,-750,5,0,0,0,964.742615
1342,1368,1,0,0,0,699.752014
436,369,2,1,0,0,102.963097
-911,1757,3,1,0,0,3.567538
-51,-1295,4,0,0,0,811.995972
630,-1413,5,0,0,0,761.119812
540,1144,1,0,0,0,818.947998
1738,473,2,0,0,0,717.498230
-1871,1574,3,1,0,0,1.903090
-734,-1623,4,0,0,0,720.690674
1024,-879,5,0,0,0,800.363281
1081,1719,1,0,0,0,683.174805
981,590,2,0,0,0,847.688354
-562,107,3,0,0,0,1047.526367
-1467,-940,4,0,0,0,727.025574
1420,-937,5,0,0,0,733.859741
1066,1629,1,0,0,0,695.240356
1474,647,2,1,0,0,6.561286
-1581,1181,3,0,0,0,691.354980
-995,-1670,4,1,0,0,3.762252
1129,-714,5,0,0,0,803.295410
298,774,1,1,0,0,42.244492
1432,698,2,0,0,0,752.715271
-134,533,3,0,0,0,1059.100464
-1837,-1196,4,0,0,0,661.318481
909,-1799,5,0,0,0,685.300476
862,1768,1,0,0,0,692.293274
474,40,2,0,0,0,1100.744995
-480,1509,3,0,0,0,754.441467
-658,-1470,4,0,0,0,749.581726
361,-1597,5,0,0,0,744.856201
45,886,1,0,0,0,921.086609
1981,638,2,1,0,0,3.073246
-836,1390,3,0,0,0,747.542542
-71,-338,4,1,0,0,251.376556
1750,-1454,5,0,0,0,650.684875
625,1862,1,0,0,0,692.708008
1027,686,2,1,0,0,14.146965
-1167,1580,3,1,0,0,3.648202
-357,-1675,4,1,0,0,5.469307
1214,-1447,5,0,0,0,703.895996
567,1019,1,0,0,0,842.366394
1869,380,2,0,0,0,701.115967
-1590,1681,3,0,0,0,645.882202
-1333,-556,4,0,0,0,780.859680
1832,-1328,5,0,0,0,652.259094
10,63,1,1,0,0,954.837952
1216,1100,2,0,0,0,744.432617
-208,1260,3,1,0,0,12.854537
-859,-149,4,0,0,0,926.103027
1946,-608,5,0,0,0,682.033081
344,510,1,1,0,0,87.475929
503,142,2,0,0,0,1073.586426
-1529,208,3,1,0,0,7.426431
-1786,-1540,4,0,0,0,640.458740
29,-1883,5,0,0,0,704.744385
432,1447,1,0,0,0,768.064514
819,135,2,1,0,0,42.156303
-1792,1459,3,0,0,0,646.253052
-846,-1306,4,0,0,0,759.457458
766,-1203,5,0,0,0,784.489929
104,1149,1,0,0,0,845.449463
1358,455,2,0,0,0,783.278442
-998,1779,3,0,0,0,681.886353
-764,-955,4,1,0,0,14.548472
711,-1344,5,0,0,0,766.099915
1074,1309,1,1,0,0,5.655883
1019,690,2,0,0,0,826.878601
-270,124,3,0,0,0,1236.501343
-1773,-1643,4,0,0,0,633.419128
695,-174,5,0,0,0,982.661804
102,254,1,1,0,0,338.744690
556,498,2,1,0,0,55.259007
-1284,417,3,0,0,0,800.258545
-1735,-1062,4,0,0,0,682.671143
1475,-926,5,0,0,0,727.147949
1846,1870,1,0,0,0,609.657959
1793,636,2,0,0,0,701.834717
-1330,342,3,1,0,0,10.426089
-1572,-1891,4,1,0,0,1.870855
1921,-1497,5,0,0,0,631.283264
967,1468,1,0,0,0,724.478699
1489,1227,2,0,0,0,697.806335
-464,1136,3,0,0,0,827.703918
-1973,-335,4,0,0,0,687.347595
1799,-150,5,0,0,0,716.858215
438,821,1,1,0,0,31.136930
1931,1326,2,0,0,0,642.377869
-1514,1489,3,0,0,0,670.390198
-1817,-840,4,1,0,0,3.449288
964,-33,5,1,0,0,28.246943
1604,1797,1,1,0,0,1.989779
1910,26,2,0,0,0,700.675415
-1258,1860,3,0,0,0,654.440247
-1384,-81,4,1,0,0,10.143362
1065,-961,5,0,0,0,782.820251
0,1987,1,0,0,0,689.390381
1862,1280,2,0,0,0,652.660217
-675,989,3,0,0,0,834.755005
-1610,-1520,4,0,0,0,658.449951
355,-1819,5,0,0,0,709.328796
674,998,1,0,0,0,833.105896
1227,243,2,1,0,0,13.642185
-1151,1277,3,0,0,0,730.861572
-1237,-329,4,0,0,0,815.567688
363,-1638,5,1,0,0,5.810654
870,1796,1,0,0,0,688.151184
1618,532,2,1,0,0,5.558679
-1820,1873,3,0,0,0,611.400269
-1006,-227,4,0,0,0,877.728699
1697,-649,5,1,0,0,4.594826
287,1222,1,0,0,0,821.182861
396,382,2,1,0,0,111.449074
-357,1656,3,1,0,0,5.647714
-1895,-1826,4,1,0,0,1.528318
1717,-209,5,0,0,0,729.114624
316,1659,1,0,0,0,735.967285
1895,1609,2,0,0,0,625.434326
-501,1078,3,1,0,0,15.774721
-1337,-1139,4,1,0,0,5.077499
754,-471,5,0,0,0,920.477600
24,720,1,0,0,0,981.077271
1936,365,2,1,0,0,3.616187
-330,264,3,0,0,0,1134.868530
-189,-845,4,1,0,0,37.736862
297,-1171,5,0,0,0,832.199341
440,1820,1,0,0,0,706.390198
1353,577,2,0,0,0,775.620117
-917,850,3,0,0,0,822.306396
-326,-1238,4,0,0,0,815.522705
747,-1952,5,1,0,0,3.034788
81,462,1,1,0,0,152.648773
1590,708,2,1,0,0,5.215226
-109,641,3,0,0,0,1010.629578
-1979,-432,4,0,0,0,683.886047
683,-1187,5,0,0,0,796.146057
1869,1879,1,0,0,0,607.225281
159,138,2,0,0,0,1335.877686
-1077,633,3,0,0,0,822.561462
-884,-898,4,1,0,0,13.356620
34,-293,5,1,0,0,309.808380
1083,1832,1,0,0,0,669.764221
1739,1188,2,0,0,0,672.749695
-860,1181,3,1,0,0,8.711511
-3,-1721,4,0,0,0,730.555359
1820,-1759,5,0,0,0,620.309021
651,916,1,0,0,0,853.012207
1944,1385,2,0,0,0,637.015503
-1303,1007,3,0,0,0,743.200134
-878,-320,4,0,0,0,906.108459
144,-1394,5,0,0,0,789.520203
356,939,1,0,0,0,885.387695
541,102,2,1,0,0,111.316559
-1753,226,3,0,0,0,722.911743
-712,-708,4,0,0,0,885.423096
1323,-695,5,0,0,0,771.059631
390,681,1,1,0,0,48.705788
312,153,2,0,0,0,1191.314697
-976,752,3,0,0,0,826.535278
-35,-1885,4,1,0,0,4.119090
43,-1181,5,0,0,0,838.529724
96,1354,1,0,0,0,798.691345
1164,661,2,0,0,0,802.702087
-1987,837,3,0,0,0,666.039795
-1210,-271,4,0,0,0,824.703552
24,-618,5,0,0,0,1025.055786
1629,1953,1,0,0,0,618.952087
1570,178,2,0,0,0,755.066406
-289,1669,3,0,0,0,735.117859
-1835,-238,4,0,0,0,709.784668
1233,-792,5,0,0,0,776.684937
1166,1978,1,0,0,0,648.078857
901,38,2,0,0,0,916.365967
-823,136,3,1,0,0,41.617798
-469,-965,4,0,0,0,866.334595
185,-1575,5,0,0,0,754.020264
1399,1603,1,0,0,0,669.836731
1833,566,2,0,0,0,699.446228
-1558,1680,3,0,0,0,648.682800
-1957,-912,4,0,0,0,665.645386
525,-913,5,0,0,0,871.682434
1067,421,2,0,0,0,847.111145
-1983,898,3,0,0,0,663.302368
-1620,-470,4,0,0,0,736.311401
526,-1642,5,0,0,0,730.024475
1651,1202,2,0,0,0,681.551270
-28,811,3,0,0,0,946.767761
-1369,-1239,4,0,0,0,710.396301
1478,-32,5,0,0,0,774.169067
1299,586,2,0,0,0,784.713745
-594,516,3,0,0,0,955.659485
-512,-446,4,0,0,0,998.130493
183,-704,5,0,0,0,978.291748
1564,1199,2,0,0,0,691.745850
-530,495,3,0,0,0,979.160339
-60,-1310,4,1,0,0,11.910878
1237,-172,5,0,0,0,822.641052
1974,1514,2,1,0,0,1.807314
-439,309,3,0,0,0,1065.864380
-1213,-1593,4,0,0,0,687.202576
213,-80,5,1,0,0,412.744049
1904,1629,2,0,0,0,623.172974
-1911,1007,3,0,0,0,665.511353
-488,-1537,4,0,0,0,749.214294
1738,-207,5,0,0,0,725.718750
1370,662,2,0,0,0,765.895874
-1336,1146,3,0,0,0,724.103577
-1865,-1289,4,1,0,0,2.383251
302,-23,5,0,0,0,1230.960327
974,645,2,0,0,0,841.854126
-1429,1536,3,0,0,0,673.853577
-555,-1473,4,0,0,0,756.152954
806,-803,5,0,0,0,849.457520
1046,274,2,0,0,0,864.101013
-1559,256,3,0,0,0,755.098938
-1934,-579,4,0,0,0,684.846741
843,-128,5,0,0,0,932.506165
1990,748,2,0,0,0,670.064392
-1836,1311,3,1,0,0,2.418247
-1400,-852,4,0,0,0,744.579529
1184,-509,5,1,0,0,12.521653
1778,740,2,1,0,0,3.867891
-1423,911,3,0,0,0,735.830750
-1089,-1379,4,0,0,0,724.597046
346,-526,5,1,0,0,83.001205
1846,1676,2,0,0,0,624.589417
-109,927,3,1,0,0,30.880270
-1803,-1877,4,1,0,0,1.579547
1704,-1650,5,0,0,0,638.809387
-787,572,3,0,0,0,894.507935
-1314,-825,4,0,0,0,760.297546
1631,-1071,5,0,0,0,694.592285
-1555,1294,3,0,0,0,684.256104
-1378,-805,4,0,0,0,752.202820
295,-428,5,0,0,0,1075.159424
-36,1497,3,0,0,0,770.485291
-718,-1154,4,0,0,0,798.324524
1431,-1851,5,1,0,0,2.169962
-1807,750,3,0,0,0,693.822083
-330,-1937,4,0,0,0,692.589355
1345,-771,5,1,0,0,7.325623
-1245,1085,3,0,0,0,742.388306
-1937,-1893,4,1,0,0,1.402558
1193,-720,5,0,0,0,791.162476
-1963,1711,3,0,0,0,612.229126
-1500,-815,4,0,0,0,732.879456
318,-1216,5,0,0,0,820.806763
-634,864,3,0,0,0,866.676697
-1244,-366,4,1,0,0,12.302241
825,-474,5,0,0,0,900.923767
-501,901,3,0,0,0,877.832092
-1454,-295,4,0,0,0,773.145691
1123,-1002,5,0,0,0,769.031006
-583,1321,3,0,0,0,780.935120
-1368,-1610,4,0,0,0,671.848633
390,-335,5,0,0,0,1078.333740
-666,797,3,0,0,0,875.686340
-1553,-1237,4,0,0,0,689.614807
1889,-656,5,0,0,0,687.572693
-869,896,3,0,0,0,822.804993
-662,-426,4,0,0,0,955.513489
1436,-1024,5,0,0,0,723.528564
-1898,247,3,0,0,0,700.102295
-648,-780,4,0,0,0,882.582092
178,-808,5,0,0,0,941.180054
-1867,204,3,0,0,0,705.522644
-1613,-217,4,0,0,0,746.571838
1854,-1118,5,0,0,0,664.861450
-729,1817,3,0,0,0,693.628479
-298,-1674,4,0,0,0,734.022705
382,-1453,5,0,0,0,769.538940
-44,1331,3,0,0,0,804.179138
-846,-1988,4,1,0,0,2.750126
708,-1382,5,0,0,0,760.061340
-1252,439,3,0,0,0,805.258728
-110,-1217,4,0,0,0,828.912720
208,-75,5,0,0,0,1321.740234
-740,426,3,0,0,0,932.102051
-841,-666,4,0,0,0,866.378113
659,-746,5,0,0,0,887.930847
-1281,999,3,0,0,0,747.108887
-1290,-1140,4,0,0,0,730.465942
1450,-889,5,0,0,0,733.936279
-530,267,3,1,0,0,94.756485
-439,-734,4,0,0,0,931.628357
1916,-1815,5,0,0,0,608.414307
-1342,1010,3,0,0,0,737.537903
-1284,-1112,4,0,0,0,734.314636
643,-742,5,0,0,0,891.876282
-821,321,3,1,0,0,35.989697
-695,-1830,4,0,0,0,693.665955
1690,-1403,5,0,0,0,660.739502
-491,316,3,0,0,0,1041.638306
-1627,-1774,4,0,0,0,634.613647
404,-1424,5,0,0,0,773.809387
-726,1551,3,0,0,0,731.974487
-1225,-766,4,1,0,0,8.998251
878,-896,5,0,0,0,821.361206
-1229,990,3,1,0,0,6.953844
-882,-454,4,1,0,0,26.162596
1304,-1831,5,0,0,0,654.134399
-1923,1921,3,0,0,0,600.039856
-980,-1372,4,0,0,0,736.438049
1268,-634,5,0,0,0,786.208130
-1289,1408,3,1,0,0,3.970273
-1509,-1600,4,1,0,0,2.608352
246,-1215,5,1,0,0,13.997018
-861,1055,3,0,0,0,797.772705
-1859,-115,4,0,0,0,707.905090
1050,-117,5,0,0,0,870.777832
-900,874,3,1,0,0,13.526934
-1206,-1121,4,1,0,0,6.140251
482,-1921,5,1,0,0,3.560005
-817,1124,3,1,0,0,10.076081
-1475,-1939,4,0,0,0,631.184631
903,-881,5,0,0,0,819.737549
-514,67,3,0,0,0,1075.974976
-1778,-337,4,0,0,0,716.158508
340,-15,5,1,0,0,256.651337
-800,232,3,0,0,0,939.241028
-933,-280,4,1,0,0,27.498251
1152,-1066,5,0,0,0,756.983154
-1787,117,3,0,0,0,719.155701
-1961,-996,4,1,0,0,2.607997
863,-540,5,0,0,0,881.457275
-1271,537,3,1,0,0,10.284154
1390,-1156,5,0,0,0,716.439636
-1297,1728,3,0,0,0,665.443115
1431,-1448,5,1,0,0,3.281136
-1700,404,3,1,0,0,5.155315
228,-454,5,0,0,0,1081.770264
-1426,1032,3,1,0,0,5.044653
838,-1297,5,0,0,0,761.661682
-1989,1282,3,0,0,0,639.481506
1147,-935,5,0,0,0,773.885315
-1012,1400,3,0,0,0,729.480469
1973,-402,5,0,0,0,685.594727
-299,1095,3,1,0,0,17.978125
1549,-1670,5,0,0,0,650.363037
-1496,1171,3,0,0,0,702.234314
592,-178,5,0,0,0,1025.188477
-1739,1640,3,0,0,0,636.606934
1222,-423,5,1,0,0,12.400469
-665,1620,3,0,0,0,725.572449
392,-1291,5,0,0,0,800.432251
-1078,1024,3,0,0,0,772.526184
435,-1479,5,1,0,0,7.446718
-1257,1319,3,0,0,0,714.205383
536,-356,5,1,0,0,78.954819
-910,311,3,0,0,0,897.851990
419,-1767,5,0,0,0,715.156128
-1671,979,3,0,0,0,696.732727
1043,-1968,5,0,0,0,656.760193
-1414,796,3,0,0,0,747.432678
1459,-996,5,0,0,0,723.067322
-1706,124,3,0,0,0,732.310486
905,-785,5,0,0,0,834.604126
-832,84,3,0,0,0,938.112610
1601,-491,5,0,0,0,738.393677
-1556,1843,3,0,0,0,634.034912
658,-1353,5,0,0,0,769.129883
-853,1622,3,0,0,0,712.545837
1855,-169,5,1,0,0,4.268905
-941,250,3,1,0,0,27.534248
856,-1992,5,1,0,0,2.721539
-986,1652,3,0,0,0,698.629517
70,-998,5,0,0,0,886.469849
-1171,1346,3,0,0,0,720.236511
841,-945,5,0,0,0,818.950806
-241,1286,3,0,0,0,809.261902
1621,-1539,5,1,0,0,2.485830
-1780,334,3,1,0,0,4.638449
561,-1178,5,0,0,0,810.059570
7,-890,5,1,0,0,35.082497
988,-191,5,0,0,0,884.793884
80,-457,5,0,0,0,1107.949219
