419.883789,419.883789,431.502228,431.502228,432.425812,432.425812,438.855194,417.662323,417.662323,440.205109,

avg. max avg. throughput in test times
428.200867
avg. BS TX power in all test times
MBS area 1,MBS area 2,MBS area 3,MBS area 4,CBSD 1,CBSD 2,CBSD 3,CBSD 4,CBSD 5,CBSD 6,CBSD 7,CBSD 8,CBSD 9,CBSD 10,CBSD 11,CBSD 12,CBSD 13,CBSD 14,CBSD 15,
10.000,10.000,10.000,10.000,0.300,0.200,0.500,0.100,0.200,0.300,0.000,0.500,0.200,0.300,0.300,0.200,0.200,0.100,0.600,
avg. mbs all power,avg. cbsd enable number,avg. mbs area all power,avg. cbsd all power
70.000,4.000,40.000,4.000
avg. number of relay UE
635

BS TX power
MBS area 1,MBS area 2,MBS area 3,MBS area 4,CBSD 1,CBSD 2,CBSD 3,CBSD 4,CBSD 5,CBSD 6,CBSD 7,CBSD 8,CBSD 9,CBSD 10,CBSD 11,CBSD 12,CBSD 13,CBSD 14,CBSD 15,
10.000,10.000,10.000,10.000,0.000,0.000,1.000,1.000,0.000,1.000,0.000,0.000,0.000,1.000,0.000,0.000,0.000,0.000,0.000,
max average power
440.205109

x,y,area,be blocked (1 : NLOS / 0 : LOS),be blocked number (>=1 : CBSD(x) / 0 : no),connect bs number (>=1 : CBSD / 0 : MBS),throughput (unit : M bps)
967,478,1,0,0,0,864.794250
-1620,1398,2,1,0,4,34.801704
-267,-1127,3,0,0,0,844.329651
1424,-1999,4,0,0,3,63.200047
796,1416,1,0,0,0,747.124451
-218,1657,2,0,0,0,738.962830
-1422,-1886,3,1,0,4,34.801704
1307,-524,4,0,0,0,788.147827
555,44,1,1,0,10,124.008606
-388,1929,2,0,0,10,124.008606
-1336,-941,3,1,0,4,34.801704
1806,-1823,4,0,0,3,63.200047
144,1821,1,0,0,6,72.416443
-1686,1043,2,0,0,4,34.801704
-1175,-1974,3,0,0,4,34.801704
634,-823,4,1,0,3,63.200047
877,315,1,0,0,0,906.923767
-636,609,2,0,0,0,923.233459
-446,-1594,3,0,0,0,741.732422
168,-171,4,0,0,0,1298.425415
1718,1555,1,0,0,6,72.416443
-1422,1335,2,0,0,4,34.801704
-483,-712,3,1,0,4,34.801704
81,-1387,4,1,0,4,34.801704
867,556,1,0,0,0,878.100159
-1688,642,2,1,0,4,34.801704
-80,-133,3,0,0,0,1423.846069
752,-1073,4,1,0,3,63.200047
432,1324,1,1,0,6,72.416443
-1751,1954,2,1,0,4,34.801704
-1615,-948,3,0,0,4,34.801704
977,-567,4,1,0,3,63.200047
1079,832,1,0,0,0,797.608643
-1661,450,2,0,0,0,730.576233
-1001,-1055,3,0,0,0,778.876831
363,-861,4,0,0,0,906.140564
1646,213,1,0,0,0,740.952637
-1962,927,2,0,0,4,34.801704
-1348,-230,3,0,0,0,796.564514
1855,-687,4,0,0,3,63.200047
978,539,1,0,0,0,854.829529
-76,782,2,0,0,0,956.077148
-740,-1088,3,1,0,4,34.801704
590,-137,4,0,0,0,1031.070435
955,641,1,1,0,6,72.416443
-1685,141,2,1,0,4,34.801704
-1156,-382,3,1,0,4,34.801704
132,-799,4,0,0,0,947.355164
1001,447,1,0,0,0,860.141418
-273,1312,2,0,0,0,802.377197
-1523,-1531,3,0,0,4,34.801704
1093,-416,4,0,0,0,841.537781
1292,387,1,0,0,0,800.535706
-1910,314,2,1,0,4,34.801704
-1844,-1136,3,0,0,4,34.801704
452,-1954,4,0,0,3,63.200047
418,243,1,0,0,0,1096.044678
-1170,722,2,0,0,0,795.022217
-101,-1807,3,0,0,4,34.801704
1056,-1640,4,0,0,3,63.200047
1590,556,1,0,0,0,736.718201
-1565,1344,2,1,0,4,34.801704
-1181,-1557,3,1,0,4,34.801704
662,-1946,4,0,0,3,63.200047
272,1735,1,1,0,6,72.416443
-1319,438,2,0,0,0,791.907776
-676,-857,3,0,0,0,861.390198
879,-140,4,0,0,0,920.134521
1510,1734,1,0,0,6,72.416443
-195,812,2,1,0,10,124.008606
-1311,-1758,3,0,0,4,34.801704
1315,-1116,4,1,0,3,63.200047
846,276,1,0,0,0,920.197998
-1027,817,2,1,0,4,34.801704
-197,-1410,3,0,0,0,784.989075
823,-717,4,0,0,0,861.391235
630,1908,1,0,0,6,72.416443
-806,1450,2,0,0,0,741.085449
-977,-1403,3,0,0,0,732.451294
1584,-1678,4,0,0,3,63.200047
211,1530,1,0,0,0,761.603149
-329,435,2,0,0,0,1061.302979
-1720,-735,3,1,0,4,34.801704
884,-792,4,0,0,0,837.287781
1204,1885,1,0,0,6,72.416443
-1564,78,2,0,0,0,757.641663
-986,-716,3,0,0,0,829.717896
1011,-1912,4,0,0,3,63.200047
1143,1558,1,0,0,6,72.416443
-1094,161,2,0,0,0,857.655029
-1851,-273,3,0,0,4,34.801704
1102,-806,4,0,0,0,797.023499
1469,194,1,0,0,0,773.507935
-573,298,2,0,0,0,1012.561584
-654,-206,3,0,0,0,995.316040
1129,-1400,4,0,0,3,63.200047
303,1231,1,0,0,0,818.335266
-642,1836,2,0,0,10,124.008606
-1122,-1433,3,0,0,4,34.801704
1786,-497,4,0,0,3,63.200047
1390,898,1,0,0,0,741.797729
-1200,1186,2,0,0,0,736.246155
-1863,-67,3,1,0,4,34.801704
1841,-755,4,0,0,3,63.200047
1646,1334,1,1,0,6,72.416443
-330,483,2,0,0,0,1041.109741
-128,-1354,3,1,0,4,34.801704
1200,-980,4,0,0,0,760.704773
1000,509,1,0,0,0,853.442871
-394,156,2,0,0,0,1134.082642
-102,-869,3,0,0,0,925.067871
68,-1898,4,1,0,4,34.801704
943,1767,1,1,0,6,72.416443
-931,1464,2,1,0,10,124.008606
-869,-1109,3,0,0,0,787.987305
1448,-116,4,1,0,10,124.008606
1642,1199,1,0,0,6,72.416443
-1985,665,2,0,0,4,34.801704
-1852,-1757,3,1,0,4,34.801704
513,-1098,4,0,0,0,831.283752
1966,640,1,0,0,6,72.416443
-1536,1428,2,1,0,4,34.801704
-218,-1110,3,0,0,0,851.114258
866,-594,4,0,0,0,872.515564
522,632,1,0,0,0,943.864868
-1340,1310,2,0,0,4,34.801704
-1728,-1981,3,1,0,4,34.801704
389,-1110,4,0,0,0,839.894470
587,1784,1,0,0,6,72.416443
-77,758,2,0,0,0,964.934998
-1044,-622,3,0,0,0,830.497803
601,-214,4,0,0,0,1016.107422
1305,302,1,1,0,6,72.416443
-269,1057,2,1,0,10,124.008606
-115,-841,3,1,0,4,34.801704
1057,-1650,4,1,0,3,63.200047
504,153,1,0,0,0,1071.359497
-642,866,2,0,0,0,864.974243
-1496,-648,3,0,0,0,746.081909
1928,-668,4,0,0,3,63.200047
918,1885,1,0,0,6,72.416443
-541,269,2,0,0,0,1031.789917
-1924,-1283,3,0,0,4,34.801704
952,-1638,4,0,0,3,63.200047
31,1655,1,0,0,0,741.720093
-592,1357,2,0,0,0,773.749084
-1868,-981,3,0,0,4,34.801704
632,-571,4,0,0,0,932.817200
1989,397,1,0,0,6,72.416443
-891,1328,2,0,0,0,751.609192
-1638,-592,3,0,0,0,727.128540
80,-624,4,1,0,4,34.801704
782,998,1,0,0,0,818.303223
-351,279,2,0,0,0,1117.795654
-457,-674,3,0,0,0,945.760498
1852,-1123,4,0,0,3,63.200047
1575,1698,1,0,0,6,72.416443
-1064,632,2,0,0,0,825.267883
-297,-290,3,0,0,0,1140.036865
1266,-455,4,0,0,0,801.268616
1181,72,1,0,0,0,838.186584
-122,109,2,0,0,0,1408.649658
-748,-132,3,0,0,0,965.822693
840,-346,4,1,0,3,63.200047
413,734,1,0,0,0,936.058289
-35,1551,2,1,0,10,124.008606
-796,-1129,3,0,0,0,793.654907
1385,-575,4,0,0,0,770.066895
454,206,1,0,0,0,1087.205444
-1975,936,2,0,0,4,34.801704
-697,-810,3,0,0,0,867.499084
1864,-95,4,0,0,6,72.416443
1914,894,1,0,0,6,72.416443
-221,319,2,1,0,10,124.008606
-793,-1492,3,0,0,0,735.827698
109,-1102,4,0,0,0,857.240479
1504,427,1,0,0,0,758.101013
-1272,1741,2,0,0,10,124.008606
-1514,-13,3,1,0,4,34.801704
926,-1569,4,1,0,3,63.200047
920,1273,1,1,0,6,72.416443
-348,667,2,0,0,0,968.580078
-1743,-432,3,1,0,4,34.801704
1645,-404,4,1,0,3,63.200047
1037,1543,1,0,0,6,72.416443
-145,514,2,1,0,10,124.008606
-325,-368,3,0,0,0,1091.625122
1839,-1833,4,0,0,3,63.200047
1204,1999,1,0,0,6,72.416443
-1434,1243,2,0,0,4,34.801704
-474,-1546,3,0,0,0,748.428711
1937,-1751,4,0,0,3,63.200047
112,595,1,0,0,0,1031.188232
-1831,1929,2,1,0,4,34.801704
-1839,-1775,3,0,0,4,34.801704
1329,-203,4,0,0,0,801.453918
1150,1294,1,0,0,0,728.867310
-1318,1288,2,0,0,4,34.801704
-843,-1911,3,1,0,4,34.801704
1806,-1085,4,0,0,3,63.200047
412,106,1,1,0,10,124.008606
-617,1075,2,0,0,0,824.818237
-207,-1433,3,0,0,0,780.151489
925,-505,4,0,0,0,871.493835
368,446,1,1,0,10,124.008606
-1087,1858,2,1,0,10,124.008606
-997,-1548,3,1,0,4,34.801704
389,-1360,4,0,0,0,786.842590
225,1913,1,1,0,6,72.416443
-1129,1617,2,0,0,10,124.008606
-87,-38,3,0,0,0,1565.670898
1677,-411,4,0,0,0,729.619507
726,1939,1,0,0,6,72.416443
-1669,624,2,0,0,4,34.801704
-477,-569,3,1,0,4,34.801704
388,-128,4,0,0,0,1144.612305
1026,1224,1,0,0,0,751.980774
-1117,940,2,0,0,0,777.776611
-221,-56,3,0,0,0,1312.904663
1209,-1499,4,1,0,3,63.200047
244,1245,1,0,0,0,818.121582
-288,435,2,0,0,0,1074.117310
-1014,-410,3,0,0,0,860.803223
1423,-598,4,0,0,0,761.777161
1057,771,1,0,0,0,809.277832
-75,1257,2,0,0,0,820.271240
-756,-753,3,0,0,0,867.923584
35,-1724,4,0,0,0,729.997498
1244,1351,1,1,0,6,72.416443
-1967,418,2,1,0,4,34.801704
-608,-893,3,0,0,0,864.357117
619,-1040,4,0,0,0,831.677124
1482,61,1,0,0,0,773.217346
-288,875,2,1,0,10,124.008606
-758,-1180,3,1,0,4,34.801704
1125,-260,4,0,0,0,845.210876
1428,1657,1,0,0,6,72.416443
-967,850,2,1,0,4,34.801704
-28,-1936,3,1,0,4,34.801704
1175,-946,4,0,0,0,768.372986
393,1066,1,0,0,0,849.862671
-1562,1175,2,0,0,4,34.801704
-404,-902,3,0,0,0,889.976379
1614,-1885,4,0,0,3,63.200047
1141,396,1,1,0,10,124.008606
-1894,1093,2,0,0,4,34.801704
-179,-1624,3,0,0,0,745.462769
597,-1287,4,0,0,0,785.993896
1114,917,1,0,0,0,781.145081
-1416,1723,2,0,0,4,34.801704
-466,-826,3,0,0,0,901.860168
336,-48,4,0,0,0,1198.104980
1247,1287,1,1,0,6,72.416443
-1931,1457,2,0,0,4,34.801704
-1665,-289,3,0,0,0,735.785889
1480,-434,4,0,0,0,762.004883
829,32,1,0,0,0,940.399841
-995,1074,2,0,0,0,776.956177
-1898,-947,3,0,0,4,34.801704
274,-955,4,0,0,0,888.469055
820,23,1,1,0,10,124.008606
-956,821,2,0,0,0,820.062622
-1589,-671,3,0,0,0,729.912659
152,-570,4,0,0,0,1038.680542
186,1538,1,0,0,0,760.726440
-1826,640,2,0,0,4,34.801704
-1270,-627,3,0,0,0,786.476440
1908,-391,4,0,0,3,63.200047
180,1941,1,0,0,6,72.416443
-1008,1997,2,0,0,10,124.008606
-1097,-1314,3,0,0,0,732.105225
753,-1354,4,0,0,0,760.709351
1061,1348,1,1,0,6,72.416443
-11,897,2,0,0,0,917.881958
-1457,-551,3,0,0,0,759.155640
1060,-1522,4,0,0,3,63.200047
790,1451,1,0,0,0,742.269897
-433,1938,2,0,0,10,124.008606
-1178,-1342,3,0,0,4,34.801704
1932,-1084,4,0,0,3,63.200047
982,751,1,0,0,0,825.567993
-1920,270,2,0,0,4,34.801704
-252,-485,3,0,0,0,1060.692017
831,-853,4,0,0,0,836.326111
152,425,1,0,0,0,1115.881226
-96,1957,2,0,0,6,72.416443
-391,-1953,3,0,0,4,34.801704
811,-1747,4,1,0,3,63.200047
1973,1491,1,1,0,6,72.416443
-1006,1678,2,0,0,10,124.008606
-359,-1840,3,0,0,4,34.801704
1364,-1990,4,0,0,3,63.200047
1826,1893,1,0,0,6,72.416443
-626,1694,2,1,0,10,124.008606
-1702,-1297,3,0,0,4,34.801704
275,-371,4,0,0,0,1109.283813
95,1017,1,0,0,0,880.496094
-1139,209,2,0,0,0,844.374146
-1717,-474,3,0,0,4,34.801704
1476,-1959,4,1,0,3,63.200047
1100,1443,1,0,0,6,72.416443
-1967,1556,2,0,0,4,34.801704
-878,-997,3,0,0,0,804.878235
396,-1888,4,1,0,3,63.200047
667,1321,1,0,0,0,773.878967
-1690,1503,2,1,0,4,34.801704
-1732,-515,3,1,0,4,34.801704
691,-1741,4,0,0,3,63.200047
496,995,1,1,0,10,124.008606
-386,115,2,1,0,4,34.801704
-398,-217,3,0,0,0,1114.637939
75,-1431,4,1,0,4,34.801704
862,1359,1,0,0,0,749.799744
-619,1304,2,0,0,0,781.028259
-1238,-176,3,1,0,4,34.801704
1947,-570,4,0,0,3,63.200047
1594,1465,1,1,0,6,72.416443
-469,1530,2,0,0,0,751.418884
-1789,-1671,3,1,0,4,34.801704
612,-1065,4,1,0,3,63.200047
1343,525,1,0,0,0,781.325195
-938,1628,2,0,0,10,124.008606
-1822,-1565,3,0,0,4,34.801704
35,-632,4,0,0,0,1018.373535
295,809,1,0,0,0,929.666992
-1682,194,2,1,0,4,34.801704
-1705,-1632,3,0,0,4,34.801704
80,-1941,4,0,0,4,34.801704
1512,35,1,1,0,6,72.416443
-866,21,2,0,0,0,927.950134
-63,-944,3,1,0,4,34.801704
1736,-257,4,0,0,0,724.960388
1521,1620,1,0,0,6,72.416443
-702,1916,2,0,0,10,124.008606
-361,-47,3,0,0,0,1177.892456
153,-1830,4,0,0,3,63.200047
1218,1361,1,1,0,6,72.416443
-1508,544,2,1,0,4,34.801704
-1393,-864,3,1,0,4,34.801704
1356,-1202,4,0,0,3,63.200047
1368,1732,1,1,0,6,72.416443
-868,1486,2,0,0,0,730.566650
-1165,-675,3,0,0,0,801.025024
1827,-1140,4,1,0,3,63.200047
1625,1605,1,0,0,6,72.416443
-270,1351,2,0,0,0,794.421753
-1848,-319,3,0,0,4,34.801704
1969,-499,4,0,0,3,63.200047
692,1434,1,0,0,0,752.862732
-852,526,2,0,0,0,886.229065
-480,-1243,3,0,0,0,804.021057
534,-106,4,0,0,0,1061.824463
1505,195,1,1,0,6,72.416443
-417,1410,2,1,0,10,124.008606
-1925,-1730,3,1,0,4,34.801704
46,-1022,4,0,0,0,880.043213
1635,1980,1,0,0,6,72.416443
-1875,1351,2,0,0,4,34.801704
-1639,-895,3,1,0,4,34.801704
451,-1260,4,0,0,0,802.767761
1793,1001,1,1,0,6,72.416443
-1846,1334,2,1,0,4,34.801704
-248,-1325,3,1,0,4,34.801704
1020,-590,4,0,0,0,839.367371
39,965,1,1,0,10,124.008606
-71,564,2,0,0,0,1049.368652
-1600,-50,3,0,0,0,751.327148
823,-1650,4,0,0,3,63.200047
1237,583,1,0,0,0,796.560486
-1188,1545,2,1,0,10,124.008606
-886,-1497,3,0,0,0,727.483582
1981,-705,4,0,0,3,63.200047
1198,826,1,0,0,0,778.710327
-1328,1543,2,1,0,4,34.801704
-29,-1690,3,0,0,0,735.725952
967,-946,4,1,0,3,63.200047
1505,1941,1,0,0,6,72.416443
-1441,1065,2,0,0,4,34.801704
-1315,-938,3,0,0,0,748.743225
68,-483,4,0,0,0,1093.513550
100,186,1,0,0,0,1334.998291
-1863,1730,2,1,0,4,34.801704
-1673,-1835,3,1,0,4,34.801704
457,-258,4,1,0,3,63.200047
1409,1955,1,0,0,6,72.416443
-615,1354,2,0,0,0,772.468872
-114,-1450,3,0,0,0,778.844788
761,-1215,4,1,0,3,63.200047
1883,608,1,0,0,6,72.416443
-251,617,2,0,0,0,1003.665344
-546,-780,3,0,0,0,900.730530
1941,-1430,4,0,0,3,63.200047
460,929,1,0,0,0,876.237549
-549,1687,2,0,0,10,124.008606
-1407,-923,3,0,0,0,737.004639
1320,-1074,4,0,0,0,733.784912
765,1991,1,0,0,6,72.416443
-1996,107,2,0,0,4,34.801704
-652,-618,3,1,0,4,34.801704
558,-1426,4,0,0,0,764.066284
619,637,1,1,0,10,124.008606
-1303,597,2,0,0,0,783.066528
-568,-822,3,0,0,0,886.843872
524,-1420,4,0,0,0,767.402222
1982,859,1,0,0,6,72.416443
-1994,1762,2,1,0,4,34.801704
-401,-661,3,0,0,0,960.720764
1631,-745,4,1,0,3,63.200047
137,508,1,0,0,0,1071.667480
-951,223,2,0,0,0,893.359924
-114,-965,3,0,0,0,894.863037
90,-1959,4,0,0,4,34.801704
1582,1981,1,0,0,6,72.416443
-941,1119,2,0,0,0,777.349243
-1444,-1708,3,1,0,4,34.801704
1562,-1691,4,0,0,3,63.200047
44,911,1,1,0,10,124.008606
-1703,1185,2,1,0,4,34.801704
-109,-991,3,0,0,0,887.471802
640,-1498,4,1,0,3,63.200047
1615,1036,1,1,0,6,72.416443
-1782,810,2,0,0,4,34.801704
-812,-133,3,1,0,4,34.801704
1616,-493,4,0,0,0,735.848145
704,384,1,0,0,0,950.184204
-666,944,2,0,0,0,845.052673
-407,-584,3,1,0,4,34.801704
1362,-275,4,0,0,0,791.977478
1710,1685,1,0,0,6,72.416443
-1235,1797,2,0,0,10,124.008606
-1052,-390,3,0,0,0,853.474487
1303,-659,4,0,0,0,777.722595
188,127,1,1,0,10,124.008606
-978,1712,2,0,0,10,124.008606
-1333,-212,3,0,0,0,800.314819
1596,-252,4,0,0,0,748.652222
78,414,1,1,0,10,124.008606
-1500,1825,2,0,0,4,34.801704
-139,-630,3,0,0,0,1012.877136
1561,-1612,4,0,0,3,63.200047
109,1913,1,0,0,6,72.416443
-1832,839,2,0,0,4,34.801704
-1412,-864,3,1,0,4,34.801704
1263,-955,4,0,0,0,754.457886
795,327,1,0,0,0,930.163452
-1581,1861,2,0,0,4,34.801704
-992,-1503,3,0,0,4,34.801704
1905,-1652,4,0,0,3,63.200047
1736,1594,1,1,0,6,72.416443
-673,898,2,0,0,0,853.414062
-138,-1676,3,1,0,4,34.801704
990,-800,4,1,0,3,63.200047
1748,25,1,1,0,6,72.416443
-460,306,2,1,0,4,34.801704
-1079,-24,3,0,0,0,864.640503
1460,-1642,4,0,0,3,63.200047
1615,442,1,0,0,0,738.428955
-1528,678,2,0,0,0,738.896301
-100,-1263,3,0,0,0,818.514343
1114,-764,4,0,0,0,800.089417
132,955,1,0,0,0,897.133423
-577,138,2,0,0,0,1037.045776
-642,-1526,3,0,0,0,741.675476
1951,-1934,4,0,0,3,63.200047
745,378,1,1,0,10,124.008606
-516,269,2,0,0,0,1042.622803
-156,-18,3,1,0,4,34.801704
700,-1477,4,0,0,0,745.349365
1706,1670,1,0,0,6,72.416443
-39,415,2,1,0,10,124.008606
-571,-1804,3,0,0,4,34.801704
732,-1842,4,0,0,3,63.200047
1897,785,1,1,0,6,72.416443
-78,1685,2,0,0,0,736.310852
-1487,-804,3,0,0,0,735.693481
1713,-601,4,1,0,3,63.200047
1856,400,1,0,0,6,72.416443
-941,115,2,1,0,4,34.801704
-917,-1132,3,1,0,4,34.801704
811,-750,4,0,0,0,857.953796
879,563,1,0,0,0,874.246582
-972,66,2,0,0,0,894.114929
-1888,-211,3,0,0,4,34.801704
1543,-867,4,0,0,3,63.200047
351,550,1,0,0,0,1009.630920
-1643,1499,2,1,0,4,34.801704
-1147,-249,3,1,0,4,34.801704
710,-1782,4,0,0,3,63.200047
24,1211,1,0,0,0,831.447998
-1762,393,2,0,0,4,34.801704
-854,-619,3,0,0,0,871.257202
1816,-1121,4,0,0,3,63.200047
1518,87,1,0,0,0,766.097595
-635,1376,2,0,0,0,767.050171
-429,-1610,3,0,0,0,739.840027
31,-1079,4,0,0,0,864.592957
1694,1582,1,0,0,6,72.416443
-1585,230,2,0,0,0,751.180237
-147,-1991,3,0,0,4,34.801704
1998,-1869,4,0,0,3,63.200047
272,414,1,0,0,0,1089.057617
-821,458,2,1,0,4,34.801704
-332,-278,3,0,0,0,1127.846069
413,-988,4,0,0,0,866.894836
295,231,1,0,0,0,1169.586792
-1657,626,2,0,0,4,34.801704
-668,-286,3,1,0,4,34.801704
1163,-1416,4,1,0,3,63.200047
1089,1481,1,0,0,6,72.416443
-779,672,2,0,0,0,878.426086
-217,-317,3,1,0,4,34.801704
980,-1066,4,1,0,3,63.200047
173,1229,1,0,0,0,824.439331
-999,911,2,0,0,0,799.835144
-970,-1203,3,0,0,0,761.441528
354,-566,4,0,0,0,1003.023010
195,872,1,0,0,0,919.017700
-147,999,2,0,0,0,883.804321
-203,-998,3,0,0,0,881.340210
816,-1497,4,0,0,0,733.241882
1076,1011,1,0,0,0,774.538391
-358,928,2,1,0,10,124.008606
-1082,-352,3,1,0,4,34.801704
700,-1485,4,1,0,3,63.200047
654,179,1,1,0,10,124.008606
-1988,312,2,1,0,4,34.801704
-1516,-1685,3,1,0,4,34.801704
1505,-1970,4,0,0,3,63.200047
664,1191,1,0,0,0,797.383423
-1075,1289,2,0,0,0,737.737183
-957,-67,3,0,0,0,898.551636
779,-464,4,0,0,0,914.799927
1383,1254,1,0,0,6,72.416443
-583,1890,2,0,0,10,124.008606
-1239,-1370,3,0,0,4,34.801704
702,-1345,4,0,0,0,766.723816
783,449,1,0,0,0,916.110413
-1186,1957,2,1,0,10,124.008606
-1093,-739,3,1,0,4,34.801704
1195,-1625,4,1,0,3,63.200047
386,473,1,0,0,0,1028.787476
-1705,1107,2,0,0,4,34.801704
-405,-1026,3,0,0,0,858.369385
766,-108,4,0,0,0,960.552673
602,557,1,0,0,0,943.705200
-1684,1422,2,0,0,4,34.801704
-342,-1230,3,0,0,0,816.319275
333,-1572,4,1,0,3,63.200047
1918,87,1,0,0,6,72.416443
-736,1965,2,0,0,10,124.008606
-507,-1687,3,0,0,4,34.801704
1469,-1147,4,0,0,3,63.200047
116,994,1,0,0,0,886.385376
-859,1289,2,0,0,0,760.764526
-252,-1717,3,0,0,0,728.168030
743,-1919,4,0,0,3,63.200047
317,1456,1,0,0,0,771.893311
-1170,895,2,1,0,4,34.801704
-1518,-251,3,1,0,4,34.801704
359,-536,4,0,0,0,1012.892334
241,1990,1,1,0,6,72.416443
-1947,1772,2,0,0,4,34.801704
-412,-293,3,0,0,0,1083.177612
564,-303,4,0,0,0,1015.081116
696,198,1,0,0,0,979.793457
-254,726,2,0,0,0,962.206055
-722,-1719,3,0,0,4,34.801704
1625,-1290,4,0,0,3,63.200047
1001,1813,1,0,0,6,72.416443
-1800,1811,2,0,0,4,34.801704
-1587,-1124,3,1,0,4,34.801704
887,-1436,4,0,0,0,736.131775
227,1366,1,1,0,10,124.008606
-705,1339,2,0,0,0,767.466797
-1753,-770,3,0,0,4,34.801704
73,-1303,4,0,0,0,809.997742
1857,992,1,0,0,6,72.416443
-482,1313,2,0,0,0,790.083008
-1828,-68,3,0,0,4,34.801704
1962,-1747,4,0,0,3,63.200047
584,1192,1,0,0,0,805.120605
-952,1705,2,0,0,10,124.008606
-820,-251,3,0,0,0,930.857849
1944,-166,4,1,0,6,72.416443
1634,1369,1,0,0,6,72.416443
-1946,1906,2,1,0,4,34.801704
-1470,-1174,3,0,0,4,34.801704
970,-1351,4,0,0,0,740.359558
1569,286,1,0,0,0,752.391602
-1734,649,2,0,0,4,34.801704
-1320,-626,3,1,0,4,34.801704
1368,-38,4,0,0,0,796.344666
1526,1637,1,0,0,6,72.416443
-858,345,2,0,0,0,909.123596
-787,-1400,3,0,0,0,750.385742
1247,-1302,4,0,0,3,63.200047
1797,199,1,0,0,6,72.416443
-1526,938,2,0,0,4,34.801704
-592,-535,3,0,0,0,951.621521
1493,-480,4,1,0,3,63.200047
1407,1769,1,0,0,6,72.416443
-1557,697,2,0,0,0,733.084473
-1113,-1769,3,0,0,4,34.801704
1167,-909,4,0,0,0,773.994263
1153,1147,1,0,0,0,746.779968
-1867,751,2,0,0,4,34.801704
-1118,-589,3,0,0,0,819.261963
1843,-802,4,0,0,3,63.200047
1226,1899,1,0,0,6,72.416443
-298,495,2,0,0,0,1044.675659
-1093,-59,3,1,0,4,34.801704
393,-191,4,0,0,0,1125.237915
452,1070,1,0,0,0,843.497009
-836,574,2,0,0,0,882.572510
-781,-1860,3,0,0,4,34.801704
855,-1426,4,0,0,0,740.442688
1219,41,1,1,0,10,124.008606
-257,674,2,0,0,0,980.703064
-1791,-1962,3,0,0,4,34.801704
1624,-1906,4,0,0,3,63.200047
687,1924,1,0,0,6,72.416443
-1895,308,2,0,0,4,34.801704
-1878,-1492,3,0,0,4,34.801704
434,-1711,4,0,0,3,63.200047
936,1523,1,0,0,6,72.416443
-224,998,2,0,0,0,880.101135
-1153,-1005,3,0,0,0,764.397644
449,-1071,4,0,0,0,843.556885
1889,1986,1,0,0,6,72.416443
-355,1537,2,0,0,0,755.537842
-905,-703,3,0,0,0,847.384338
600,-1792,4,0,0,3,63.200047
60,1675,1,0,0,0,738.140991
-1805,1480,2,0,0,4,34.801704
-483,-1316,3,0,0,0,789.434387
1725,-1528,4,1,0,3,63.200047
731,876,1,0,0,0,848.649536
-1608,1442,2,0,0,4,34.801704
-407,-1110,3,0,0,0,838.412476
1013,-623,4,0,0,0,836.719238
1440,765,1,0,0,0,746.033020
-1444,1843,2,0,0,10,124.008606
-829,-28,3,0,0,0,940.450195
535,-852,4,0,0,0,884.864441
1731,1626,1,1,0,6,72.416443
-441,1406,2,0,0,0,775.104736
-1288,-523,3,0,0,0,791.843201
1692,-337,4,1,0,3,63.200047
195,1869,1,0,0,6,72.416443
-1939,1954,2,0,0,4,34.801704
-1893,-1962,3,1,0,4,34.801704
929,-1310,4,0,0,0,750.398376
1310,1076,1,0,0,0,734.878296
-928,3,2,1,0,4,34.801704
-1214,-1520,3,0,0,4,34.801704
497,-461,4,0,0,0,998.609497
532,939,1,0,0,0,864.649353
-1291,715,2,0,0,0,774.669556
-8,-1628,3,0,0,0,746.485657
1692,-769,4,0,0,3,63.200047
1866,732,1,0,0,6,72.416443
-1592,1109,2,0,0,4,34.801704
-491,-919,3,0,0,0,874.771484
1063,-1189,4,1,0,3,63.200047
1436,1191,1,1,0,6,72.416443
-1057,770,2,0,0,0,809.407104
-718,-950,3,1,0,4,34.801704
624,-85,4,0,0,0,1019.837158
1759,149,1,0,0,6,72.416443
-1905,948,2,0,0,4,34.801704
-38,-238,3,0,0,0,1296.869995
980,-299,4,0,0,0,879.603699
1580,1537,1,0,0,6,72.416443
-405,1770,2,1,0,10,124.008606
-868,-759,3,0,0,0,845.612976
1046,-41,4,0,0,0,873.431396
281,183,1,1,0,10,124.008606
-1667,1623,2,1,0,4,34.801704
-1624,-434,3,0,0,0,737.300903
1098,-1932,4,0,0,3,63.200047
1447,333,1,0,0,0,772.913879
-228,830,2,0,0,0,929.787720
-753,-779,3,0,0,0,863.528931
1558,-1381,4,0,0,3,63.200047
1259,1003,1,0,0,0,749.735229
-1270,807,2,0,0,0,769.093323
-1535,-7,3,1,0,4,34.801704
1774,-1737,4,0,0,3,63.200047
539,160,1,0,0,0,1052.533569
-641,1536,2,0,0,0,740.148438
-288,-1562,3,0,0,0,753.568054
1596,-217,4,0,0,0,749.557312
414,1760,1,1,0,6,72.416443
-1166,1108,2,0,0,0,749.949707
-1729,-1655,3,0,0,4,34.801704
1429,-1320,4,0,0,3,63.200047
1041,823,1,0,0,0,805.194824
-150,1073,2,0,0,0,863.531433
-1593,-1190,3,0,0,4,34.801704
385,-1926,4,0,0,3,63.200047
573,815,1,0,0,0,887.675903
-126,1010,2,0,0,0,881.511902
-432,-43,3,1,0,4,34.801704
366,-548,4,0,0,0,1006.761780
55,266,1,0,0,0,1262.373901
-848,798,2,0,0,0,842.784119
-1837,-176,3,0,0,4,34.801704
394,-4,4,0,0,0,1155.070068
153,1984,1,0,0,6,72.416443
-1682,1227,2,0,0,4,34.801704
-1943,-1489,3,0,0,4,34.801704
180,-1334,4,0,0,0,801.095947
1758,1686,1,0,0,6,72.416443
-1541,967,2,1,0,4,34.801704
-1465,-1730,3,0,0,4,34.801704
1772,-662,4,0,0,3,63.200047
421,833,1,0,0,0,906.464111
-1333,1068,2,0,0,0,732.717712
-1451,-1107,3,0,0,4,34.801704
1662,-1449,4,0,0,3,63.200047
95,1705,1,1,0,6,72.416443
-884,1596,2,0,0,10,124.008606
-1216,-700,3,0,0,0,789.177979
1623,-1058,4,0,0,3,63.200047
825,136,1,0,0,0,938.145508
-1583,1244,2,0,0,4,34.801704
-178,-901,3,0,0,0,911.108032
1537,-948,4,0,0,3,63.200047
470,25,1,0,0,0,1103.804932
-1817,259,2,0,0,4,34.801704
-1199,-366,3,1,0,4,34.801704
122,-1333,4,0,0,0,802.705627
154,656,1,1,0,10,124.008606
-155,946,2,0,0,0,898.770447
-556,-1907,3,1,0,4,34.801704
1057,-1621,4,0,0,3,63.200047
1331,936,1,1,0,6,72.416443
-755,1415,2,1,0,10,124.008606
-718,-429,3,0,0,0,938.053894
466,-1231,4,0,0,0,807.539307
89,660,1,0,0,0,1003.720337
-1962,433,2,0,0,4,34.801704
-258,-819,3,0,0,0,930.481567
577,-910,4,0,0,0,865.109192
394,121,1,1,0,10,124.008606
-1976,557,2,0,0,4,34.801704
-1506,-422,3,0,0,0,757.996887
1119,-1733,4,1,0,3,63.200047
946,800,1,1,0,6,72.416443
-525,512,2,0,0,0,975.951111
-4,-408,3,0,0,0,1145.000000
1492,-756,4,1,0,3,63.200047
1619,1414,1,0,0,6,72.416443
-316,1615,2,0,0,0,743.399963
-1756,-1553,3,0,0,4,34.801704
1616,-660,4,1,0,3,63.200047
1687,807,1,0,0,6,72.416443
-1396,1090,2,0,0,4,34.801704
-1369,-765,3,0,0,0,757.220642
1860,-1602,4,0,0,3,63.200047
523,363,1,0,0,0,1016.710327
-1885,864,2,1,0,4,34.801704
-1875,-1988,3,1,0,4,34.801704
1156,-1725,4,0,0,3,63.200047
804,151,1,0,0,0,944.442932
-534,56,2,0,0,0,1065.819458
-1653,-1347,3,0,0,4,34.801704
1709,-1993,4,1,0,3,63.200047
1074,113,1,0,0,0,864.464294
-1263,152,2,1,0,4,34.801704
-1904,-1746,3,0,0,4,34.801704
710,-44,4,0,0,0,984.716003
715,1069,1,0,0,0,814.207214
-1696,333,2,1,0,4,34.801704
-941,-1206,3,0,0,0,764.367920
1147,-1727,4,0,0,3,63.200047
1471,611,1,0,0,0,752.752808
-330,1123,2,0,0,0,841.293640
-657,-507,3,1,0,4,34.801704
1967,-1869,4,1,0,3,63.200047
622,837,1,1,0,10,124.008606
-660,1100,2,0,0,0,814.938049
-894,-29,3,0,0,0,918.717102
1874,-660,4,0,0,3,63.200047
1482,1314,1,0,0,6,72.416443
-455,1863,2,0,0,10,124.008606
-598,-506,3,1,0,4,34.801704
227,-445,4,0,0,0,1086.625366
613,1526,1,0,0,0,743.592712
-586,957,2,0,0,0,853.424194
-1044,-551,3,0,0,0,838.846558
611,-287,4,0,0,0,999.819031
720,1501,1,0,0,0,740.085205
-954,1222,2,0,0,0,760.525513
-28,-1841,3,1,0,4,34.801704
1479,-1,4,0,0,0,774.042175
367,1766,1,0,0,6,72.416443
-1552,1349,2,1,0,4,34.801704
-1714,-199,3,0,0,0,729.804871
1809,-1845,4,0,0,3,63.200047
1305,1413,1,0,0,6,72.416443
-1143,179,2,0,0,0,844.644043
-1388,-160,3,0,0,0,790.388123
1733,-917,4,0,0,3,63.200047
1316,1281,1,1,0,6,72.416443
-120,1109,2,0,0,0,855.144226
-491,-607,3,0,0,0,957.902283
1284,-1954,4,0,0,3,63.200047
759,939,1,0,0,0,832.362061
-494,1123,2,0,0,0,827.763794
-305,-1266,3,0,0,0,810.619934
574,-1199,4,0,0,0,804.700500
1411,1400,1,1,0,6,72.416443
-1384,1697,2,1,0,4,34.801704
-1278,-920,3,0,0,0,756.041016
1573,-1596,4,1,0,3,63.200047
1029,974,1,0,0,0,786.369934
-1714,1157,2,0,0,4,34.801704
-1877,-28,3,0,0,4,34.801704
1608,-597,4,0,0,0,731.515869
1018,246,1,0,0,0,873.294617
-215,1611,2,0,0,0,746.968506
-510,-1981,3,0,0,4,34.801704
1800,-1168,4,0,0,3,63.200047
340,537,1,1,0,10,124.008606
-548,1763,2,0,0,10,124.008606
-143,-1424,3,0,0,0,783.486389
1939,-1415,4,0,0,3,63.200047
1065,1505,1,0,0,6,72.416443
-1731,688,2,0,0,4,34.801704
-1696,-1615,3,0,0,4,34.801704
896,-539,4,0,0,0,873.755066
1082,402,1,0,0,0,845.307678
-339,651,2,0,0,0,975.695923
-1135,-569,3,1,0,4,34.801704
522,-1418,4,0,0,0,767.890015
285,1777,1,0,0,6,72.416443
-172,484,2,0,0,0,1078.598633
-1153,-483,3,0,0,0,822.370056
541,-111,4,0,0,0,1057.695801
604,1613,1,1,0,6,72.416443
-1918,1259,2,0,0,4,34.801704
-1842,-1434,3,1,0,4,34.801704
380,-1806,4,0,0,3,63.200047
462,945,1,0,0,0,872.036438
-167,693,2,0,0,0,984.118530
-1087,-1311,3,0,0,0,733.566528
1415,-400,4,0,0,0,775.707153
264,742,1,0,0,0,955.387939
-955,1315,2,0,0,0,746.984375
-465,-749,3,0,0,0,922.890381
727,-1948,4,0,0,3,63.200047
1199,1390,1,0,0,6,72.416443
-1419,445,2,0,0,0,772.465881
-1115,-1722,3,0,0,4,34.801704
313,-1226,4,0,0,0,818.884338
1801,807,1,0,0,6,72.416443
-1665,1148,2,0,0,4,34.801704
-313,-523,3,0,0,0,1029.262817
254,-443,4,0,0,0,1080.288940
67,662,1,0,0,0,1003.976562
-693,1172,2,0,0,0,797.812561
-1524,-1454,3,0,0,4,34.801704
898,-1564,4,0,0,3,63.200047
518,1775,1,0,0,6,72.416443
-1921,136,2,0,0,4,34.801704
-236,-829,3,0,0,0,929.389160
221,-1651,4,0,0,0,739.917358
174,591,1,0,0,0,1026.169189
-366,471,2,0,0,0,1035.488037
-656,-1524,3,1,0,4,34.801704
685,-1567,4,0,0,0,732.364380
948,479,1,0,0,0,869.244385
-1068,343,2,0,0,0,853.535400
-338,-639,3,0,0,0,980.084106
635,-1766,4,1,0,3,63.200047
1053,1142,1,0,0,0,759.954895
-1536,997,2,1,0,4,34.801704
-1663,-1500,3,1,0,4,34.801704
199,-798,4,0,0,0,942.903992
613,369,1,0,0,0,983.047119
-1722,812,2,0,0,4,34.801704
-207,-1023,3,0,0,0,874.277161
1227,-1856,4,0,0,3,63.200047
759,1302,1,0,0,0,768.641602
-1541,1826,2,0,0,4,34.801704
-911,-1181,3,0,0,0,771.618347
1067,-828,4,1,0,3,63.200047
1516,657,1,0,0,0,742.248718
-746,1709,2,0,0,10,124.008606
-1406,-1547,3,0,0,4,34.801704
1924,-1418,4,1,0,3,63.200047
1224,449,1,0,0,0,810.281555
-698,1931,2,0,0,10,124.008606
-1562,-1563,3,0,0,4,34.801704
941,-11,4,1,0,10,124.008606
1378,1513,1,1,0,6,72.416443
-1384,1913,2,1,0,10,124.008606
-384,-146,3,0,0,0,1143.027832
880,-142,4,0,0,0,919.713013
1599,794,1,0,0,6,72.416443
-294,878,2,0,0,0,908.765137
-834,-878,3,0,0,0,831.512390
340,-1528,4,0,0,0,757.747070
345,88,1,0,0,0,1184.302246
-1138,342,2,0,0,0,836.952454
-715,-1797,3,0,0,4,34.801704
1222,-912,4,0,0,0,765.284302
1323,384,1,0,0,0,794.445740
-1730,1437,2,1,0,4,34.801704
-1384,-466,3,0,0,0,777.687561
1033,-829,4,0,0,0,805.740967
543,1599,1,0,0,0,735.991699
-527,479,2,0,0,0,984.393433
-1603,-1074,3,0,0,4,34.801704
347,-1254,4,1,0,3,63.200047
1061,209,1,1,0,10,124.008606
-1068,479,2,0,0,0,841.289856
-689,-1301,3,0,0,0,775.369080
1449,-1465,4,1,0,3,63.200047
1987,1596,1,0,0,6,72.416443
-1967,1042,2,0,0,4,34.801704
-700,-1750,3,0,0,4,34.801704
1704,-1812,4,0,0,3,63.200047
353,190,1,0,0,0,1150.087769
-1567,1814,2,0,0,4,34.801704
-217,-158,3,1,0,4,34.801704
7,-1573,4,0,0,0,756.348572
444,960,1,0,0,0,870.449646
-1230,709,2,0,0,0,785.794067
-85,-1165,3,0,0,0,841.880676
1491,-1613,4,0,0,3,63.200047
487,410,1,0,0,0,1016.720764
-1065,1913,2,0,0,10,124.008606
-1671,-843,3,0,0,4,34.801704
832,-1976,4,1,0,3,63.200047
444,1492,1,1,0,6,72.416443
-401,261,2,0,0,0,1099.068604
-1476,-786,3,1,0,4,34.801704
1838,-1819,4,1,0,3,63.200047
1446,378,1,0,0,0,771.030884
-639,749,2,0,0,0,891.085632
-726,-1606,3,0,0,4,34.801704
466,-13,4,0,0,0,1106.565063
258,740,1,0,0,0,956.810913
-370,82,2,0,0,0,1166.298096
-1701,-1174,3,0,0,4,34.801704
773,-815,4,0,0,0,853.137817
843,541,1,0,0,0,886.121338
-1136,1389,2,0,0,4,34.801704
-65,-1710,3,0,0,0,732.187317
1901,-1881,4,1,0,3,63.200047
523,935,1,0,0,0,866.764404
-1651,1969,2,1,0,4,34.801704
-1318,-1140,3,0,0,0,726.976685
12,-833,4,0,0,0,939.197754
276,875,1,0,0,0,911.395935
-1571,1662,2,0,0,4,34.801704
-1280,-1264,3,0,0,4,34.801704
1446,-684,4,0,0,0,751.535889
603,350,1,0,0,0,990.505798
-954,1225,2,1,0,10,124.008606
-1255,-336,3,0,0,0,811.287842
854,-522,4,0,0,0,886.341125
1018,1396,1,0,0,0,729.432678
-414,995,2,0,0,0,865.060669
-425,-1303,3,0,0,0,795.918335
377,-669,4,0,0,0,962.670288
1769,1319,1,1,0,6,72.416443
-1944,1201,2,0,0,4,34.801704
-1168,-1861,3,0,0,4,34.801704
1067,-1910,4,0,0,3,63.200047
1537,589,1,0,0,0,743.335999
-1656,876,2,0,0,4,34.801704
-1258,-1120,3,0,0,0,736.732056
1690,-1214,4,0,0,3,63.200047
87,1037,1,1,0,10,124.008606
-537,11,2,0,0,0,1065.720459
-1045,-1427,3,0,0,4,34.801704
1124,-113,4,1,0,10,124.008606
659,1351,1,0,0,0,769.389648
-892,1158,2,0,0,0,777.417297
-1354,-243,3,0,0,0,794.856689
373,-659,4,0,0,0,966.704102
115,764,1,1,0,10,124.008606
-1858,1914,2,0,0,4,34.801704
-810,-463,3,0,0,0,906.573364
1418,-1532,4,1,0,3,63.200047
1505,1227,1,0,0,6,72.416443
-601,1008,2,0,0,0,840.535828
-639,-615,3,1,0,4,34.801704
1740,-932,4,0,0,3,63.200047
1895,998,1,0,0,6,72.416443
-891,1592,2,0,0,10,124.008606
-231,-1323,3,0,0,0,801.753113
152,-172,4,0,0,0,1310.945068
1073,458,1,0,0,0,842.234985
-1869,251,2,0,0,4,34.801704
-180,-1523,3,1,0,4,34.801704
1795,-1893,4,0,0,3,63.200047
765,845,1,1,0,6,72.416443
-132,745,2,1,0,10,124.008606
-552,-977,3,0,0,0,853.425415
484,-1271,4,1,0,3,63.200047
58,923,1,0,0,0,909.106201
-1522,1444,2,1,0,4,34.801704
-432,-1138,3,0,0,0,830.026611
1392,-559,4,0,0,0,769.984131
693,251,1,0,0,0,974.489929
-1613,937,2,0,0,4,34.801704
-467,-1943,3,0,0,4,34.801704
1319,-1054,4,0,0,0,736.040588
1201,76,1,0,0,0,833.314575
-1640,348,2,1,0,4,34.801704
-1673,-52,3,0,0,0,738.529236
605,-807,4,0,0,0,884.134338
1685,347,1,1,0,6,72.416443
-946,1178,2,1,0,10,124.008606
-197,-521,3,0,0,0,1055.236206
712,-1012,4,1,0,3,63.200047
1555,1693,1,0,0,6,72.416443
-1452,1539,2,0,0,4,34.801704
-1553,-620,3,0,0,0,738.807129
219,-338,4,0,0,0,1148.751587
1412,539,1,1,0,6,72.416443
-238,1055,2,0,0,0,864.042358
-1789,-619,3,0,0,4,34.801704
1774,-1221,4,0,0,3,63.200047
1326,92,1,1,0,10,124.008606
-833,1092,2,0,0,0,795.313782
-1665,-1172,3,0,0,4,34.801704
668,-1486,4,1,0,3,63.200047
418,1798,1,0,0,6,72.416443
-1797,1396,2,0,0,4,34.801704
-328,-1116,3,1,0,4,34.801704
495,-1901,4,0,0,3,63.200047
1197,1805,1,0,0,6,72.416443
-983,1440,2,1,0,10,124.008606
-627,-1751,3,0,0,4,34.801704
252,-1353,4,0,0,0,794.723877
998,1681,1,0,0,6,72.416443
-1725,1500,2,1,0,4,34.801704
-1728,-78,3,0,0,0,729.100220
1524,-1613,4,0,0,3,63.200047
1604,963,1,0,0,6,72.416443
-1491,75,2,1,0,4,34.801704
-48,-969,3,1,0,4,34.801704
1084,-1456,4,0,0,3,63.200047
1924,990,1,0,0,6,72.416443
-615,1944,2,1,0,10,124.008606
-1240,-1079,3,1,0,4,34.801704
1265,-55,4,0,0,0,818.686340
869,1114,1,0,0,0,787.184998
-1802,721,2,1,0,4,34.801704
-1014,-1882,3,0,0,4,34.801704
968,-291,4,0,0,0,883.508667
396,1669,1,0,0,0,731.501038
-1123,1051,2,1,0,4,34.801704
-1067,-1610,3,0,0,4,34.801704
868,-556,4,0,0,0,877.864746
760,1829,1,0,0,6,72.416443
-1782,93,2,0,0,4,34.801704
-418,-1410,3,0,0,0,775.667542
688,-851,4,0,0,0,860.653076
1822,478,1,1,0,6,72.416443
-1964,1059,2,1,0,4,34.801704
-1907,-482,3,1,0,4,34.801704
223,-1767,4,0,0,3,63.200047
534,676,1,0,0,0,929.545288
-1263,598,2,0,0,0,790.341675
-168,-1089,3,0,0,0,858.671997
405,-1542,4,0,0,0,752.491455
806,1484,1,0,0,0,735.979614
-71,211,2,0,0,0,1319.767944
-600,-1418,3,0,0,0,762.490234
633,-1924,4,0,0,3,63.200047
414,1074,1,0,0,0,846.115112
-1276,430,2,0,0,0,801.007080
-350,-1690,3,1,0,4,34.801704
981,-12,4,0,0,0,892.101868
1950,183,1,1,0,6,72.416443
-730,649,2,1,0,4,34.801704
-804,-978,3,1,0,4,34.801704
777,-1144,4,0,0,0,793.338379
1371,701,1,0,0,0,762.471130
-730,1441,2,0,0,0,748.725830
-646,-1705,3,1,0,4,34.801704
1983,-1313,4,0,0,3,63.200047
198,1830,1,0,0,6,72.416443
-336,1240,2,0,0,0,814.510986
-1764,-1931,3,0,0,4,34.801704
606,-1389,4,1,0,3,63.200047
1588,982,1,0,0,6,72.416443
-199,178,2,1,0,4,34.801704
-154,-657,3,1,0,4,34.801704
1423,-201,4,0,0,0,782.291870
398,1964,1,0,0,6,72.416443
-1588,1338,2,1,0,4,34.801704
-166,-61,3,0,0,0,1386.175537
1098,-1260,4,0,0,0,738.961304
550,1278,1,1,0,6,72.416443
-206,845,2,0,0,0,926.790771
-1775,-1901,3,0,0,4,34.801704
1539,-1785,4,0,0,3,63.200047
834,1882,1,0,0,6,72.416443
-50,1750,2,0,0,0,725.648254
-1956,-965,3,1,0,4,34.801704
784,-1572,4,0,0,0,724.677124
1099,632,1,0,0,0,818.330444
-283,1591,2,0,0,0,748.616699
-372,-1188,3,0,0,0,823.568359
630,-694,4,0,0,0,905.245056
1490,1671,1,0,0,6,72.416443
-1674,1042,2,1,0,4,34.801704
-360,-1519,3,1,0,4,34.801704
1534,-456,4,0,0,0,751.405823
176,91,1,0,0,0,1353.393311
-1589,350,2,0,0,0,746.649658
-1193,-1299,3,0,0,4,34.801704
609,-1433,4,0,0,0,759.278687
14,149,1,1,0,10,124.008606
-104,674,2,1,0,10,124.008606
-1621,-1024,3,0,0,4,34.801704
588,-737,4,0,0,0,903.554260
598,568,1,0,0,0,942.092102
-1851,144,2,0,0,4,34.801704
-899,-163,3,0,0,0,912.603699
278,-1092,4,0,0,0,852.229126
233,1246,1,0,0,0,818.367859
-515,1420,2,0,0,0,767.989624
-636,-218,3,1,0,4,34.801704
1411,-134,4,1,0,10,124.008606
47,1009,1,0,0,0,883.708252
-813,131,2,0,0,0,942.536987
-1876,-332,3,1,0,4,34.801704
1369,-51,4,0,0,0,796.046326
214,645,1,0,0,0,997.893005
-1199,1695,2,0,0,10,124.008606
-763,-1271,3,0,0,0,773.376221
1972,-321,4,1,0,3,63.200047
137,527,1,0,0,0,1061.772827
-1147,643,2,0,0,0,807.826660
-1835,-634,3,0,0,4,34.801704
701,-1243,4,0,0,0,784.314575
1857,1200,1,0,0,6,72.416443
-122,252,2,0,0,0,1253.637085
-1260,-1747,3,0,0,4,34.801704
898,-812,4,1,0,3,63.200047
296,389,1,0,0,0,1092.894287
-1824,109,2,0,0,4,34.801704
-23,-1159,3,0,0,0,844.073425
1409,-1322,4,0,0,3,63.200047
1112,1821,1,0,0,6,72.416443
-1857,712,2,0,0,4,34.801704
-1787,-414,3,0,0,4,34.801704
1197,-1150,4,0,0,0,740.920105
578,1439,1,0,0,0,760.441528
-810,1207,2,0,0,0,779.017883
-1527,-464,3,0,0,0,752.196289
866,-1122,4,1,0,3,63.200047
1353,1763,1,0,0,6,72.416443
-1741,619,2,0,0,4,34.801704
-423,-1624,3,0,0,0,737.780029
1265,-972,4,0,0,0,752.309692
1834,452,1,0,0,6,72.416443
-979,1428,2,0,0,0,728.834290
-1053,-1006,3,0,0,0,778.482239
1119,-958,4,0,0,0,775.196777
371,796,1,0,0,0,924.000854
-108,1674,2,1,0,10,124.008606
-896,-1600,3,0,0,4,34.801704
199,-764,4,0,0,0,954.684265
1683,1291,1,0,0,6,72.416443
-1512,510,2,0,0,0,752.240112
-1890,-798,3,0,0,4,34.801704
1244,-1397,4,0,0,3,63.200047
1401,1262,1,0,0,6,72.416443
-225,1936,2,0,0,10,124.008606
-737,-447,3,0,0,0,929.381348
594,-1089,4,0,0,0,824.589905
1727,1537,1,0,0,6,72.416443
-990,1798,2,1,0,10,124.008606
-1680,-331,3,0,0,0,732.009521
1289,-1505,4,0,0,3,63.200047
1984,519,1,0,0,6,72.416443
-906,530,2,1,0,4,34.801704
-1503,-1854,3,0,0,4,34.801704
836,-964,4,0,0,0,816.467041
1700,202,1,0,0,0,732.066162
-1749,-1261,3,0,0,4,34.801704
736,-1616,4,0,0,3,63.200047
243,610,1,0,0,0,1007.798157
-1811,-1708,3,0,0,4,34.801704
730,-1852,4,1,0,3,63.200047
-878,-84,3,0,0,0,922.758301
1660,-938,4,0,0,3,63.200047
-974,-1611,3,1,0,4,34.801704
-266,-115,3,0,0,0,1243.695801
-886,-691,3,1,0,4,34.801704
-1372,-310,3,0,0,0,788.462769
