each times' max average throughput
428.942230,417.954803,0.000000,0.000000,0.000000,0.000000,426.341461,431.975464,430.723450,427.001099,404.993347,427.837677,425.545288,429.526367,431.616272,432.484528,433.385040,432.267609,429.444366,428.861755,0.000000,0.000000,0.000000,0.000000,0.000000,0.000000,0.000000,428.021057,423.957703,422.400452,427.290558,428.352173,434.572357,427.683807,426.813263,403.887695,407.067841,424.746948,429.315430,432.842407,429.949615,429.562134,429.670441,426.320038,430.333221,435.295319,430.847443,423.104706,432.420502,432.868713,404.845093,0.000000,0.000000,0.000000,409.658142,425.138947,421.386993,435.594208,430.190399,422.474670,426.553406,424.671692,427.883209,424.757416,427.770660,432.672150,426.314026,409.587830,409.169739,428.974731,435.256439,427.600677,428.632538,428.919678,428.345795,0.000000,0.000000,0.000000,0.000000,0.000000,0.000000,418.820068,422.629883,427.357147,427.241455,417.888947,425.999054,0.000000,0.000000,0.000000,0.000000,0.000000,429.568359,426.013916,425.102081,431.945251,431.800201,407.331482,0.000000,431.089874,
avg. throughput in all test times
315.154144
avg. BS TX power in all test times
MBS area 1,MBS area 2,MBS area 3,MBS area 4,CBSD 1,CBSD 2,CBSD 3,CBSD 4,CBSD 5,CBSD 6,CBSD 7,CBSD 8,CBSD 9,CBSD 10,CBSD 11,CBSD 12,CBSD 13,CBSD 14,CBSD 15,CBSD 16,CBSD 17,CBSD 18,CBSD 19,CBSD 20,CBSD 21,CBSD 22,CBSD 23,CBSD 24,CBSD 25,CBSD 26,
8.538,8.900,8.975,8.325,0.199,0.112,0.068,0.218,0.140,0.094,0.094,0.162,0.119,0.211,0.222,0.100,0.169,0.215,0.145,0.114,0.146,0.278,0.078,0.150,0.065,0.169,0.056,0.094,0.252,0.215,
avg. mbs all power,avg. cbsd enable number,avg. mbs area all power,avg. cbsd all power
72.912,5.000,34.737,3.884
avg. max avg. throughput generation number in all test times
53.970001
avg. number of relay UE
577

the max average throughput times

BS TX power
MBS area 1,MBS area 2,MBS area 3,MBS area 4,CBSD 1,CBSD 2,CBSD 3,CBSD 4,CBSD 5,CBSD 6,CBSD 7,CBSD 8,CBSD 9,CBSD 10,CBSD 11,CBSD 12,CBSD 13,CBSD 14,CBSD 15,CBSD 16,CBSD 17,CBSD 18,CBSD 19,CBSD 20,CBSD 21,CBSD 22,CBSD 23,CBSD 24,CBSD 25,CBSD 26,
10.000,7.500,10.000,8.750,0.000,0.000,0.000,0.625,0.000,0.000,0.500,0.000,0.000,0.000,0.000,0.500,0.000,0.000,0.000,0.000,0.000,0.875,1.000,0.000,0.000,0.000,0.000,0.000,0.000,0.000,
max average throughput
431.089874

x,y,area,be blocked (1 : NLOS / 0 : LOS),be blocked number (>=1 : CBSD(x) / 0 : no),connect bs number (>=1 : CBSD / 0 : MBS),throughput (unit : M bps)
373,1760,1,0,0,0,717.836243
-402,829,2,0,0,0,868.779663
-1883,-68,3,1,0,4,85.172592
1324,-1809,4,1,0,7,102.814354
911,986,1,1,0,18,34.544445
-876,592,2,1,0,18,34.544445
-1488,-111,3,1,0,12,125.710686
1683,-1325,4,1,0,19,127.212196
1554,53,1,0,0,0,759.672485
-72,1090,2,0,0,0,819.785034
-1174,-727,3,1,0,12,156.063736
1621,-1066,4,0,0,0,677.126343
272,1780,1,0,0,0,717.586060
-250,551,2,0,0,0,989.906799
-874,-698,3,0,0,0,854.360168
1461,-99,4,0,0,0,757.731140
893,977,1,0,0,0,805.933899
-1603,45,2,0,0,0,709.576599
-1174,-1071,3,1,0,4,85.172592
1186,-1567,4,0,0,0,673.449097
269,792,1,0,0,0,938.041748
-1045,1050,2,1,0,18,34.544445
-1680,-900,3,1,0,4,85.172592
315,-397,4,0,0,0,1063.226074
1181,1430,1,1,0,18,34.544445
-933,1061,2,1,0,18,34.544445
-446,-1730,3,1,0,4,85.172592
830,-1872,4,1,0,7,89.341423
1030,240,1,1,0,18,34.544445
-1262,1679,2,1,0,18,34.544445
-220,-251,3,1,0,0,263.690247
620,-1204,4,0,0,0,780.173401
1101,1501,1,0,0,0,708.066345
-175,1011,2,0,0,0,837.805237
-1775,-451,3,0,0,0,712.736572
539,-1809,4,1,0,7,103.287163
257,933,1,1,0,18,34.544445
-600,1200,2,0,0,0,760.729004
-140,-346,3,1,0,0,224.259811
235,-1007,4,1,0,7,135.213333
838,724,1,0,0,0,857.224548
-1729,1273,2,1,0,18,34.544445
-1838,-1322,3,1,0,4,85.172592
1023,-1810,4,0,0,0,657.357788
986,390,1,1,0,18,34.544445
-227,207,2,1,0,0,258.990723
-1382,-1204,3,0,0,0,712.501282
1839,-1444,4,1,0,19,127.212196
1104,1603,1,0,0,0,695.299683
-1784,1447,2,1,0,18,34.544445
-1799,-590,3,1,0,12,112.610756
1992,-412,4,0,0,0,663.597168
1363,1997,1,1,0,18,34.544445
-1886,770,2,1,0,18,34.544445
-1172,-759,3,0,0,0,790.570618
1534,-918,4,0,0,0,700.532043
806,147,1,0,0,0,944.007141
-956,1382,2,0,0,0,696.181641
-625,-1360,3,0,0,0,770.618469
1548,-1131,4,0,0,0,680.528931
1493,854,1,1,0,18,34.544445
-1460,1337,2,0,0,0,649.341919
-1756,-1523,3,0,0,0,644.577332
645,-791,4,1,0,7,153.193344
588,1461,1,0,0,0,756.007507
-1835,882,2,1,0,18,34.544445
-343,-1790,3,1,0,4,85.172592
412,-1943,4,0,0,0,670.414062
1971,1499,1,1,0,18,34.544445
-1240,1402,2,1,0,18,34.544445
-1541,-1258,3,1,0,4,85.172592
763,-617,4,0,0,0,872.827087
1829,417,1,0,0,0,705.854919
-1328,1130,2,0,0,0,685.607544
-1655,-1724,3,0,0,0,636.669983
358,-1302,4,0,0,0,781.009583
677,1408,1,1,0,18,34.544445
-225,388,2,0,0,0,1076.221680
-507,-1749,3,1,0,4,85.172592
1068,-868,4,1,0,7,155.855667
889,105,1,1,0,18,34.544445
-610,74,2,1,0,18,34.544445
-408,-1960,3,1,0,4,85.172592
1110,-1604,4,1,0,7,109.742569
672,1927,1,0,0,0,681.746704
-678,1443,2,0,0,0,711.240662
-1887,-1516,3,1,0,4,85.172592
1594,-1903,4,0,0,0,606.846069
1445,955,1,0,0,0,728.718506
-871,1486,2,0,0,0,689.114929
-134,-226,3,1,0,0,354.856079
1594,-1999,4,1,0,19,127.212196
1252,1143,1,1,0,18,34.544445
-915,1825,2,1,0,18,34.544445
-627,-159,3,0,0,0,1012.121033
1655,-1239,4,1,0,19,127.212196
1745,389,1,0,0,0,719.635193
-342,335,2,1,0,18,34.544445
-1451,-1065,3,0,0,0,717.708130
1810,-1983,4,0,0,0,584.588745
1050,848,1,0,0,0,800.332764
-1835,235,2,1,0,12,99.132675
-1538,-909,3,1,0,4,85.172592
340,-1438,4,0,0,0,755.136536
1101,1936,1,1,0,18,34.544445
-20,658,2,1,0,18,34.544445
-1773,-969,3,1,0,4,85.172592
802,-334,4,1,0,19,127.212196
394,347,1,1,0,18,34.544445
-808,46,2,0,0,0,906.104919
-1788,-929,3,1,0,4,85.172592
899,-1557,4,1,0,7,137.510391
327,961,1,1,0,18,34.544445
-1864,1831,2,1,0,18,34.544445
-1670,-1635,3,1,0,4,85.172592
527,-297,4,0,0,0,1012.188354
558,420,1,0,0,0,990.015869
-1009,47,2,1,0,12,146.676254
-330,-619,3,0,0,0,988.751770
196,-826,4,0,0,0,914.535522
321,847,1,1,0,18,34.544445
-1310,58,2,1,0,12,159.869705
-530,-922,3,1,0,4,85.172592
834,-1643,4,0,0,0,691.881775
1931,1942,1,0,0,0,597.904541
-801,1125,2,1,0,18,34.544445
-367,-1459,3,0,0,0,769.142700
207,-1717,4,0,0,0,710.021423
994,1170,1,1,0,18,34.544445
-1817,1517,2,0,0,0,598.468750
-1106,-1250,3,0,0,0,739.345215
1942,-596,4,1,0,19,127.212196
167,1120,1,0,0,0,850.815002
-929,348,2,0,0,0,847.498535
-928,-1142,3,0,0,0,775.500000
1287,-518,4,1,0,19,127.212196
1960,951,1,1,0,18,34.544445
-1740,960,2,0,0,0,648.253235
-1124,-91,3,0,0,0,852.013062
1980,-4,4,1,0,19,127.212196
1493,465,1,0,0,0,758.046570
-653,347,2,0,0,0,932.098999
-438,-1566,3,1,0,4,85.172592
833,-275,4,0,0,0,905.096313
9,1345,1,0,0,0,801.322144
-496,791,2,1,0,18,34.544445
-1776,-1409,3,1,0,4,85.172592
1907,-177,4,1,0,19,127.212196
1428,844,1,1,0,18,34.544445
-411,1332,2,0,0,0,749.747803
-1057,-1653,3,1,0,4,85.172592
1443,-1346,4,0,0,0,672.274414
1396,1597,1,1,0,18,34.544445
-578,1804,2,1,0,18,34.544445
-1428,-454,3,1,0,12,165.929703
518,-1486,4,0,0,0,737.068848
876,438,1,0,0,0,892.594055
-1013,1711,2,1,0,18,34.544445
-807,-1391,3,1,0,4,85.172592
1589,-331,4,0,0,0,728.203979
1978,580,1,0,0,0,678.892578
-3,1107,2,1,0,18,34.544445
-1136,-273,3,1,0,12,324.706635
1114,-34,4,0,0,0,836.181030
895,818,1,0,0,0,831.149109
-1062,389,2,0,0,0,809.794189
-1059,-223,3,1,0,12,210.961121
1881,-1176,4,1,0,19,127.212196
1396,667,1,0,0,0,761.105713
-1020,821,2,1,0,18,34.544445
-1084,-35,3,0,0,0,863.231140
671,-370,4,0,0,0,944.055725
516,1701,1,1,0,18,34.544445
-1489,411,2,1,0,12,113.689743
-1953,-960,3,1,0,4,85.172592
589,-642,4,1,0,19,127.212196
1286,831,1,0,0,0,764.095825
-1557,1176,2,0,0,0,653.476990
-545,-67,3,0,0,0,1059.354248
58,-850,4,0,0,0,913.505554
1360,397,1,1,0,18,34.544445
-451,771,2,1,0,18,34.544445
-1552,-273,3,0,0,0,755.835815
245,-1301,4,0,0,0,786.693420
236,1171,1,0,0,0,835.439697
-274,828,2,1,0,18,34.544445
-1669,-1704,3,1,0,4,85.172592
490,-1267,4,1,0,7,151.747253
1519,495,1,0,0,0,751.894531
-1432,1097,2,0,0,0,675.901917
-632,-401,3,0,0,0,970.056091
604,-43,4,0,0,0,1011.902222
413,585,1,0,0,0,982.804077
-1549,933,2,0,0,0,675.207397
-1244,-540,3,0,0,0,798.956421
830,-1208,4,1,0,7,280.589691
323,755,1,0,0,0,943.341553
-33,1948,2,0,0,0,653.906189
-1092,-1939,3,0,0,0,657.010437
104,-1361,4,1,0,7,118.212769
1046,638,1,1,0,18,34.544445
-1362,519,2,1,0,18,34.544445
-433,-1533,3,0,0,0,752.729370
1504,-31,4,1,0,19,127.212196
71,839,1,0,0,0,936.131897
-668,271,2,1,0,12,114.425713
-131,-87,3,0,0,0,1420.057495
376,-949,4,1,0,7,150.480591
1417,1814,1,0,0,0,647.365112
-1847,1085,2,0,0,0,626.863647
-1661,-338,3,0,0,0,734.913879
610,-1692,4,1,0,7,108.370506
531,726,1,0,0,0,917.113098
-1528,533,2,0,0,0,706.970276
-1179,-645,3,0,0,0,801.564026
1921,-914,4,1,0,19,127.212196
667,1570,1,0,0,0,733.097778
-1477,1435,2,1,0,18,34.544445
-221,-683,3,0,0,0,982.093201
51,-1527,4,0,0,0,745.549438
583,1509,1,0,0,0,748.309204
-1791,1344,2,0,0,0,614.246704
-1062,-453,3,0,0,0,845.229614
41,-807,4,1,0,4,85.172592
850,1074,1,0,0,0,796.106384
-24,899,2,0,0,0,875.738892
-1522,-966,3,0,0,0,717.265930
1909,-396,4,0,0,0,675.724182
992,643,1,0,0,0,838.436707
-1693,1120,2,1,0,18,34.544445
-1271,-359,3,0,0,0,806.563354
347,-78,4,0,0,0,1165.357788
107,709,1,0,0,0,982.429138
-1137,1626,2,0,0,0,648.707336
-1478,-395,3,1,0,12,189.013901
426,-130,4,1,0,0,154.700165
449,1328,1,1,0,18,34.544445
-893,1523,2,0,0,0,682.054138
-139,-732,3,1,0,4,85.172592
842,-1133,4,0,0,0,768.260742
1269,621,1,1,0,18,34.544445
-679,391,2,0,0,0,915.427307
-723,-1772,3,1,0,4,85.172592
1717,-117,4,0,0,0,711.424622
1971,68,1,1,0,19,127.212196
-447,837,2,1,0,18,34.544445
-1326,-1980,3,0,0,0,637.483765
1845,-964,4,0,0,0,657.005188
715,1694,1,1,0,18,34.544445
-32,795,2,1,0,18,34.544445
-1226,-1927,3,0,0,0,649.592102
1073,-1053,4,0,0,0,750.183105
1830,1150,1,0,0,0,665.345276
-1771,1437,2,0,0,0,609.029602
-944,-1504,3,0,0,0,721.584778
18,-1787,4,1,0,7,77.544083
233,1715,1,1,0,18,34.544445
-1020,984,2,0,0,0,744.991272
-1677,-1840,3,1,0,4,85.172592
1597,-1741,4,0,0,0,620.924316
1493,1316,1,0,0,0,688.929443
-1363,1264,2,0,0,0,667.319153
-1466,-478,3,1,0,12,153.648483
1146,-1593,4,0,0,0,673.861389
1900,963,1,0,0,0,669.503906
-950,1486,2,1,0,18,34.544445
-8,-1127,3,0,0,0,852.178589
808,-1318,4,0,0,0,742.169617
679,1759,1,0,0,0,704.397827
-1440,919,2,1,0,18,34.544445
-210,-1908,3,1,0,4,85.172592
8,-230,4,0,0,0,1290.928955
1101,1723,1,1,0,18,34.544445
-277,1567,2,0,0,0,711.789185
-1707,-46,3,0,0,0,732.793823
1227,-257,4,0,0,0,802.360046
450,857,1,1,0,18,34.544445
-1983,1653,2,1,0,18,34.544445
-193,-1833,3,0,0,0,710.907288
735,-891,4,0,0,0,825.910278
532,1849,1,1,0,18,34.544445
-671,1930,2,1,0,18,34.544445
-1827,-966,3,1,0,12,83.598862
1123,-643,4,1,0,19,127.212196
1103,1922,1,0,0,0,658.211243
-723,1500,2,1,0,18,34.544445
-943,-1410,3,1,0,4,85.172592
464,-106,4,0,0,0,1081.327393
693,56,1,1,0,18,34.544445
-1938,885,2,0,0,0,628.410217
-890,-1614,3,0,0,0,710.909058
1710,-1447,4,1,0,19,127.212196
1496,1385,1,1,0,18,34.544445
-692,273,2,1,0,18,34.544445
-1177,-1242,3,0,0,0,732.208496
669,-1037,4,0,0,0,806.879211
1947,1877,1,1,0,18,34.544445
-1516,1924,2,0,0,0,588.747437
-1887,-1715,3,0,0,0,618.203247
534,-1975,4,0,0,0,661.951111
275,583,1,1,0,18,34.544445
-40,213,2,0,0,0,1286.020996
-1989,-1010,3,0,0,0,656.319336
1783,-589,4,0,0,0,686.465576
530,719,1,0,0,0,919.116394
-597,1505,2,0,0,0,706.829956
-1635,-909,3,1,0,4,85.172592
127,-864,4,1,0,7,102.002777
1688,512,1,0,0,0,723.490784
-1889,1339,2,0,0,0,604.727844
-1493,-539,3,0,0,0,753.751282
493,-18,4,0,0,0,1070.988159
725,1920,1,1,0,18,34.544445
-571,235,2,0,0,0,984.057007
-238,-372,3,0,0,0,1122.175659
824,-1671,4,0,0,0,688.705811
1836,811,1,1,0,18,34.544445
-889,728,2,1,0,18,34.544445
-995,-1139,3,1,0,4,85.172592
678,-1249,4,0,0,0,766.326355
1330,523,1,1,0,18,34.544445
-482,827,2,1,0,18,34.544445
-1246,-916,3,0,0,0,761.233765
1300,-1986,4,1,0,7,84.475983
988,983,1,1,0,18,34.544445
-568,604,2,1,0,18,34.544445
-359,-204,3,1,0,0,190.955170
339,-1919,4,0,0,0,675.860229
790,1777,1,0,0,0,695.549133
-848,1973,2,1,0,18,34.544445
-1023,-1774,3,0,0,0,680.765076
466,-489,4,1,0,19,127.212196
520,1711,1,1,0,18,34.544445
-1451,379,2,1,0,12,98.905991
-1703,-134,3,1,0,12,127.602905
744,-175,4,0,0,0,944.788879
1662,1159,1,1,0,18,34.544445
-1823,1767,2,1,0,18,34.544445
-390,-649,3,1,0,4,85.172592
1907,-729,4,1,0,19,127.212196
390,1284,1,0,0,0,801.987122
-51,1947,2,0,0,0,653.995972
-151,-856,3,0,0,0,926.966858
525,-1051,4,1,0,7,208.844940
846,408,1,0,0,0,904.649048
-570,348,2,0,0,0,961.457825
-984,-1720,3,0,0,0,690.171936
312,-1792,4,0,0,0,695.570435
471,1845,1,1,0,18,34.544445
-942,1128,2,0,0,0,734.590210
-1723,-577,3,0,0,0,714.990784
693,-1420,4,0,0,0,735.908081
1285,1370,1,1,0,18,34.544445
-1684,0,2,1,0,12,136.477798
-940,-1239,3,0,0,0,759.613525
1857,-1468,4,0,0,0,620.364807
162,1852,1,0,0,0,708.440979
-1102,113,2,0,0,0,815.759094
-1516,-960,3,1,0,4,85.172592
899,-302,4,0,0,0,882.639771
565,677,1,1,0,18,34.544445
-985,97,2,1,0,12,164.184219
-1796,-959,3,0,0,0,682.421692
1361,-703,4,0,0,0,744.801758
1957,912,1,0,0,0,665.645386
-1269,199,2,1,0,12,149.532913
-1253,-1629,3,0,0,0,679.744263
1628,-211,4,0,0,0,724.953796
162,884,1,1,0,18,34.544445
-1779,335,2,1,0,12,95.087051
-580,-1110,3,1,0,4,85.172592
777,-1731,4,1,0,7,120.893440
1324,1736,1,1,0,18,34.544445
-421,1178,2,1,0,18,34.544445
-1768,-1319,3,0,0,0,659.528992
1750,-151,4,1,0,19,127.212196
693,1521,1,0,0,0,738.936340
-125,1676,2,1,0,18,34.544445
-1856,-1457,3,0,0,0,640.300476
460,-1616,4,0,0,0,718.296326
182,779,1,1,0,18,34.544445
-1594,1149,2,1,0,18,34.544445
-410,-1787,3,0,0,0,712.419006
971,-936,4,0,0,0,781.359009
433,696,1,1,0,18,34.544445
-1932,812,2,1,0,18,34.544445
-171,-1714,3,0,0,0,730.304504
1525,-327,4,0,0,0,739.637756
282,1831,1,1,0,18,34.544445
-763,1504,2,1,0,18,34.544445
-973,-1328,3,1,0,4,85.172592
213,-1181,4,1,0,7,121.313416
282,1823,1,1,0,18,34.544445
-617,1177,2,1,0,18,34.544445
-420,-636,3,0,0,0,964.835022
1138,-1723,4,1,0,7,107.726883
1990,289,1,1,0,18,34.544445
-1389,1785,2,1,0,18,34.544445
-595,-1971,3,0,0,0,679.230164
912,-1677,4,0,0,0,681.755493
423,1290,1,0,0,0,798.652466
-537,287,2,0,0,0,988.092529
-1558,-954,3,1,0,4,85.172592
138,-521,4,1,0,0,105.986259
825,250,1,1,0,18,34.544445
-1196,543,2,1,0,12,96.169388
-756,-1289,3,0,0,0,771.078796
325,-963,4,1,0,7,159.710770
259,1017,1,1,0,18,34.544445
-1299,1052,2,0,0,0,697.697693
-28,-1049,3,1,0,4,85.172592
303,-573,4,0,0,0,992.281128
675,794,1,0,0,0,874.716125
-1518,1066,2,1,0,18,34.544445
-1115,-747,3,0,0,0,801.949036
1214,-50,4,1,0,19,127.212196
866,418,1,1,0,18,34.544445
-1287,1720,2,1,0,18,34.544445
-88,-724,3,0,0,0,977.526978
1808,-726,4,1,0,19,127.212196
1230,1138,1,0,0,0,738.206482
-1271,449,2,0,0,0,759.376526
-526,-1394,3,0,0,0,771.926331
1100,-1336,4,1,0,7,158.404144
282,1222,1,0,0,0,821.442749
-1325,1786,2,1,0,18,34.544445
-778,-787,3,0,0,0,857.432068
845,-176,4,1,0,19,127.212196
1358,1950,1,1,0,18,34.544445
-739,1068,2,0,0,0,770.057800
-136,-1974,3,0,0,0,690.590942
1903,-343,4,0,0,0,678.076660
306,679,1,0,0,0,971.490173
-1742,86,2,0,0,0,685.538208
-154,-1399,3,0,0,0,788.286072
966,-536,4,1,0,19,127.212196
1006,1624,1,1,0,18,34.544445
-136,171,2,1,0,0,390.270752
-48,-1259,3,1,0,4,85.172592
932,-1532,4,1,0,7,130.437149
545,601,1,1,0,18,34.544445
-1495,1995,2,0,0,0,583.755249
-856,-1205,3,1,0,4,85.172592
1446,-1213,4,1,0,19,127.212196
1799,424,1,1,0,18,34.544445
-708,724,2,1,0,18,34.544445
-340,-159,3,1,0,0,222.356659
1158,-1151,4,0,0,0,726.511902
676,93,1,1,0,18,34.544445
-1505,321,2,0,0,0,721.390686
-516,-1812,3,0,0,0,704.620422
1874,-1342,4,1,0,19,127.212196
1816,984,1,0,0,0,678.314209
-957,327,2,0,0,0,841.959534
-915,-1826,3,1,0,4,85.172592
552,-1315,4,1,0,7,198.744827
1594,707,1,1,0,18,34.544445
-261,1375,2,1,0,18,34.544445
-1052,-599,3,1,0,12,166.077988
1127,-239,4,1,0,19,127.212196
468,853,1,1,0,18,34.544445
-922,457,2,0,0,0,836.962341
-1882,-1207,3,0,0,0,655.673889
777,-1900,4,1,0,7,85.260323
312,1783,1,1,0,18,34.544445
-309,1000,2,1,0,18,34.544445
-1418,-963,3,1,0,4,85.172592
1019,-1274,4,1,0,7,173.284607
1595,89,1,1,0,19,127.212196
-1152,217,2,1,0,12,149.446426
-1558,-37,3,1,0,12,151.610214
1350,-915,4,0,0,0,726.837219
1464,1107,1,1,0,18,34.544445
-426,1095,2,1,0,18,34.544445
-1713,-2,3,0,0,0,731.891663
424,-1289,4,0,0,0,779.604248
550,1453,1,1,0,18,34.544445
-1892,1085,2,0,0,0,621.736633
-1011,-862,3,0,0,0,804.856018
1135,-1997,4,0,0,0,628.931396
1807,802,1,1,0,18,34.544445
-1002,195,2,0,0,0,839.276917
-1206,-260,3,1,0,12,305.859314
367,-1243,4,1,0,7,154.501724
662,956,1,0,0,0,843.180115
-1859,1251,2,0,0,0,614.052368
-452,-864,3,0,0,0,893.863220
201,-1851,4,0,0,0,688.896301
102,465,1,1,0,18,34.544445
-1123,553,2,0,0,0,780.637939
-445,-1124,3,1,0,4,85.172592
630,-1099,4,0,0,0,799.362549
1312,1164,1,0,0,0,725.123779
-269,1903,2,0,0,0,657.795410
-1671,-257,3,1,0,12,146.493790
1639,-725,4,1,0,19,127.212196
1078,1016,1,1,0,18,34.544445
-907,406,2,0,0,0,847.011292
-508,-1103,3,0,0,0,830.707214
1468,-3,4,0,0,0,757.016174
270,1319,1,1,0,18,34.544445
-1715,605,2,0,0,0,673.583435
-1306,-1226,3,0,0,0,719.081909
1140,-27,4,1,0,19,127.212196
1495,96,1,0,0,0,770.361450
-1203,1629,2,1,0,18,34.544445
-210,-1492,3,0,0,0,768.712463
398,-1413,4,0,0,0,757.020203
669,137,1,1,0,18,34.544445
-1409,574,2,1,0,12,108.987770
-1075,-277,3,0,0,0,856.530151
770,-734,4,1,0,19,127.212196
64,1670,1,0,0,0,738.971863
-969,1813,2,0,0,0,638.595520
-293,-1886,3,1,0,4,85.172592
296,-473,4,0,0,0,1035.477661
1109,1937,1,1,0,18,34.544445
-1027,1566,2,0,0,0,665.201233
-1717,-304,3,1,0,12,104.738388
675,-735,4,0,0,0,867.978210
1032,1616,1,1,0,18,34.544445
-1766,252,2,0,0,0,679.090271
-556,-175,3,0,0,0,1042.136475
105,-1477,4,0,0,0,754.539062
808,291,1,0,0,0,930.438538
-525,273,2,1,0,18,34.544445
-1653,-1079,3,0,0,0,691.269287
1006,-1211,4,0,0,0,736.950989
1709,85,1,1,0,19,127.212196
-1976,1874,2,0,0,0,558.745728
-225,-962,3,1,0,4,85.172592
1676,-936,4,1,0,19,127.212196
902,1514,1,1,0,18,34.544445
-1734,1882,2,0,0,0,576.346619
-1687,-358,3,1,0,12,106.088295
213,-773,4,1,0,7,111.853485
611,1838,1,0,0,0,696.699036
-1581,933,2,1,0,18,34.544445
-154,-1070,3,0,0,0,864.172058
645,-1116,4,0,0,0,794.366211
664,128,1,0,0,0,999.317200
-210,1448,2,0,0,0,735.853149
-835,-1004,3,0,0,0,809.820190
1465,-448,4,1,0,19,127.212196
1589,1274,1,0,0,0,682.328491
-192,1056,2,0,0,0,824.848083
-1248,-460,3,1,0,12,206.442184
1445,-1254,4,0,0,0,681.110657
258,989,1,0,0,0,880.306946
-511,1035,2,0,0,0,803.939270
-1008,-915,3,1,0,4,85.172592
1105,-431,4,0,0,0,818.282959
429,999,1,1,0,18,34.544445
-1820,27,2,0,0,0,673.329834
-50,-1756,3,1,0,4,85.172592
725,-177,4,1,0,19,127.212196
526,1979,1,0,0,0,680.781616
-506,1108,2,1,0,18,34.544445
-670,-584,3,1,0,4,85.172592
859,-1500,4,1,0,7,142.646835
1124,1656,1,0,0,0,687.320435
-817,1655,2,0,0,0,669.357605
-871,-1672,3,0,0,0,704.434021
539,-728,4,1,0,7,145.119354
732,1572,1,1,0,18,34.544445
-1425,109,2,1,0,12,163.598434
-51,-61,3,0,0,0,1616.832520
874,-1213,4,1,0,7,261.918243
1320,1022,1,1,0,18,34.544445
-97,1018,2,1,0,18,34.544445
-577,-336,3,1,0,4,85.172592
513,-1196,4,0,0,0,791.616516
1046,509,1,1,0,18,34.544445
-1178,1846,2,0,0,0,620.589050
-1608,-1820,3,1,0,4,85.172592
1837,-1364,4,1,0,19,127.212196
1384,834,1,0,0,0,748.636353
-377,1051,2,0,0,0,813.486206
-840,-1643,3,0,0,0,710.574158
921,-1433,4,1,0,7,186.023972
467,540,1,1,0,18,34.544445
-456,1693,2,1,0,18,34.544445
-988,-1006,3,1,0,4,85.172592
1667,-1087,4,0,0,0,669.855103
1488,1821,1,1,0,18,34.544445
-451,1460,2,0,0,0,723.405701
-696,-87,3,1,0,12,114.949440
927,-795,4,0,0,0,809.890930
1516,1150,1,1,0,18,34.544445
-984,1898,2,1,0,18,34.544445
-1859,-608,3,1,0,12,105.075798
1375,-772,4,0,0,0,736.485962
1931,795,1,0,0,0,675.176514
-1040,1361,2,1,0,18,34.544445
-1729,-628,3,1,0,12,122.893875
889,-776,4,0,0,0,819.750671
169,271,1,0,0,0,1215.655151
-612,1274,2,0,0,0,745.781555
-1434,-89,3,0,0,0,782.365051
602,-1799,4,0,0,0,683.543091
1282,292,1,0,0,0,807.849121
-1626,1660,2,0,0,0,603.718506
-1361,-1254,3,1,0,4,85.172592
462,-1060,4,1,0,7,159.835800
481,369,1,0,0,0,1030.813965
-311,1451,2,1,0,18,34.544445
-1400,-140,3,0,0,0,788.381714
1257,-618,4,0,0,0,770.488586
240,206,1,0,0,0,1218.462402
-723,890,2,1,0,18,34.544445
-1204,-1355,3,1,0,4,85.172592
1165,-1373,4,0,0,0,698.465576
1583,1167,1,0,0,0,692.333496
-1587,855,2,1,0,18,34.544445
-1709,-768,3,1,0,4,85.172592
853,-684,4,1,0,19,127.212196
1643,800,1,1,0,18,34.544445
-361,1790,2,1,0,18,34.544445
-1856,-1685,3,0,0,0,623.056946
1411,-216,4,0,0,0,765.060364
766,629,1,1,0,18,34.544445
-887,642,2,1,0,18,34.544445
-1801,-1210,3,1,0,4,85.172592
1438,-1769,4,0,0,0,631.081299
627,473,1,0,0,0,956.180420
-1414,114,2,0,0,0,744.724670
-57,-342,3,1,0,0,249.994385
385,-983,4,0,0,0,851.778748
533,31,1,0,0,0,1067.449951
-899,682,2,1,0,18,34.544445
-983,-1988,3,1,0,4,85.172592
249,-17,4,0,0,0,1267.533691
552,778,1,1,0,18,34.544445
-671,1652,2,0,0,0,679.221375
-1350,-656,3,1,0,12,142.374619
1233,-1026,4,1,0,7,144.915970
971,252,1,1,0,18,34.544445
-1570,1010,2,1,0,18,34.544445
-571,-1842,3,0,0,0,697.946594
1488,-1585,4,1,0,19,127.212196
1253,1033,1,1,0,18,34.544445
-1344,1539,2,1,0,18,34.544445
-590,-284,3,0,0,0,1008.600342
1884,-407,4,0,0,0,678.995361
685,802,1,1,0,18,34.544445
-1383,366,2,0,0,0,742.303650
-1564,-1482,3,1,0,4,85.172592
574,-450,4,1,0,19,127.212196
1243,1693,1,0,0,0,673.530457
-1818,1726,2,0,0,0,582.187134
-1090,-1517,3,1,0,4,85.172592
1318,-1636,4,1,0,7,108.173866
26,1310,1,0,0,0,808.851318
-1661,1139,2,1,0,18,34.544445
-1079,-706,3,1,0,4,85.172592
1141,-1794,4,1,0,7,114.872208
701,491,1,0,0,0,931.430725
-172,1685,2,1,0,18,34.544445
-1091,-1396,3,1,0,4,85.172592
1363,-1282,4,1,0,7,123.183792
1320,459,1,0,0,0,790.319214
-1271,1501,2,0,0,0,651.200745
-1434,-1017,3,0,0,0,724.454041
1851,-914,4,0,0,0,659.387756
1059,1688,1,1,0,18,34.544445
-343,930,2,0,0,0,847.732117
-235,-1504,3,0,0,0,765.765747
1042,-1660,4,1,0,7,104.591316
1850,1753,1,0,0,0,618.345215
-391,213,2,0,0,0,1078.329102
-278,-419,3,1,0,0,133.718353
1246,-1769,4,1,0,19,127.212196
1046,1815,1,0,0,0,674.276367
-1420,1117,2,0,0,0,675.460999
-1117,-1800,3,0,0,0,671.077026
1818,-362,4,0,0,0,690.157593
1721,711,1,0,0,0,707.977051
-119,1943,2,0,0,0,654.146423
-1493,-1705,3,1,0,4,85.172592
881,-1937,4,0,0,0,650.729004
1643,1142,1,1,0,18,34.544445
-1281,207,2,1,0,12,134.886200
-217,-1370,3,0,0,0,792.475220
625,-1932,4,0,0,0,664.100708
1273,1928,1,1,0,18,34.544445
-1497,1099,2,1,0,18,34.544445
-587,-503,3,1,0,4,85.172592
709,-1565,4,1,0,7,166.400726
845,1877,1,0,0,0,679.287903
-1315,1586,2,1,0,18,34.544445
-188,-1147,3,0,0,0,843.310730
1106,-1393,4,0,0,0,701.981323
1471,255,1,1,0,18,34.544445
-1264,1035,2,1,0,18,34.544445
-78,-1238,3,1,0,4,85.172592
1540,-615,4,1,0,19,127.212196
1900,1657,1,0,0,0,621.442627
-1245,1407,2,0,0,0,664.284363
-1183,-383,3,0,0,0,823.898010
1862,-1273,4,1,0,19,127.212196
1399,1261,1,1,0,18,34.544445
-284,1398,2,0,0,0,743.118042
-1665,-1768,3,0,0,0,632.082581
1465,-528,4,0,0,0,740.083191
1234,1203,1,0,0,0,730.163208
-1268,233,2,0,0,0,772.169983
-1148,-1111,3,0,0,0,751.903625
147,-1232,4,1,0,7,119.434021
1766,1342,1,1,0,18,34.544445
-1638,547,2,1,0,18,34.544445
-1912,-1923,3,1,0,4,85.172592
171,-1610,4,0,0,0,728.920715
1776,892,1,0,0,0,689.329773
-436,405,2,1,0,18,34.544445
-176,-521,3,0,0,0,1058.922852
641,-906,4,1,0,7,190.516525
551,1915,1,1,0,18,34.544445
-667,818,2,0,0,0,829.669617
-1415,-254,3,1,0,12,193.656647
1748,-801,4,1,0,19,127.212196
1029,455,1,0,0,0,852.669678
-1531,1441,2,1,0,18,34.544445
-1625,-219,3,0,0,0,744.436340
1934,-1828,4,0,0,0,587.097900
1235,1047,1,0,0,0,748.064758
-89,882,2,0,0,0,879.879333
-1464,-718,3,1,0,12,122.438484
1180,-1501,4,1,0,7,128.441727
1633,201,1,1,0,19,127.212196
-732,1530,2,0,0,0,693.527466
-1821,-1988,3,1,0,4,85.172592
1785,-1494,4,0,0,0,625.148926
267,1320,1,0,0,0,800.958618
-506,705,2,0,0,0,886.013855
-228,-79,3,0,0,0,1296.530151
1490,-1672,4,1,0,7,97.364937
753,116,1,1,0,18,34.544445
-619,1757,2,0,0,0,666.710815
-1369,-958,3,0,0,0,739.027039
1787,-29,4,1,0,19,127.212196
1716,245,1,1,0,19,127.212196
-1308,470,2,1,0,12,106.763031
-1076,-1248,3,0,0,0,743.019226
1959,-1522,4,1,0,19,127.212196
1207,704,1,1,0,18,34.544445
-1009,203,2,0,0,0,836.913818
-640,-616,3,0,0,0,920.714661
1324,-315,4,1,0,19,127.212196
470,992,1,1,0,18,34.544445
-973,9,2,0,0,0,853.062500
-1167,-979,3,0,0,0,765.574585
1301,-532,4,0,0,0,769.493042
1114,1952,1,0,0,0,654.181519
-28,562,2,1,0,18,34.544445
-405,-62,3,1,0,0,193.429672
1181,-456,4,1,0,19,127.212196
1104,1426,1,0,0,0,717.148865
-944,316,2,0,0,0,846.500793
-1114,-1485,3,0,0,0,708.852783
654,-1416,4,1,0,7,167.038422
1894,332,1,0,0,0,698.778137
-1700,1594,2,1,0,18,34.544445
-1613,-240,3,1,0,12,136.643265
1814,-133,4,1,0,19,127.212196
1460,692,1,1,0,18,34.544445
-72,1588,2,1,0,18,34.544445
-747,-934,3,1,0,4,85.172592
1249,-972,4,1,0,19,127.212196
107,1806,1,1,0,18,34.544445
-78,1209,2,1,0,18,34.544445
-147,-1060,3,1,0,4,85.172592
883,-1653,4,0,0,0,687.030945
455,1029,1,0,0,0,852.669678
-1247,761,2,0,0,0,736.301025
-106,-677,3,1,0,4,85.172592
108,-1804,4,0,0,0,697.421875
1350,1511,1,0,0,0,683.797058
-1324,614,2,0,0,0,736.580688
-716,-432,3,0,0,0,938.112610
1829,-763,4,0,0,0,671.052429
1909,149,1,0,0,0,699.982361
-914,48,2,0,0,0,870.681946
-342,-1245,3,0,0,0,813.081604
295,-1072,4,1,0,7,151.112000
1443,1414,1,0,0,0,684.634705
-1589,1596,2,0,0,0,612.607788
-1077,-1634,3,1,0,4,85.172592
590,-1305,4,0,0,0,764.108887
1339,6,1,1,0,19,127.212196
-1450,1503,2,0,0,0,634.094971
-989,-1987,3,0,0,0,657.758789
972,-1184,4,0,0,0,744.794983
745,1457,1,0,0,0,745.008911
-1248,861,2,1,0,18,34.544445
-1107,-1430,3,0,0,0,716.355835
1210,-1316,4,0,0,0,700.528503
524,1059,1,0,0,0,838.586548
-1492,169,2,0,0,0,728.426392
-1434,-391,3,0,0,0,772.618469
774,-1110,4,1,0,7,410.054688
1555,67,1,0,0,0,759.388611
-1989,218,2,0,0,0,646.300171
-411,-1983,3,1,0,4,85.172592
698,-454,4,0,0,0,920.112000
703,1816,1,0,0,0,695.162170
-1761,1295,2,0,0,0,621.102051
-1507,-1027,3,1,0,4,85.172592
737,-362,4,1,0,19,127.212196
580,220,1,1,0,18,34.544445
-1912,1823,2,0,0,0,567.337830
-497,-30,3,1,0,0,136.311234
946,-777,4,1,0,7,161.770538
1167,246,1,1,0,18,34.544445
-36,1045,2,1,0,18,34.544445
-910,-1739,3,1,0,4,85.172592
401,-570,4,1,0,19,127.212196
1168,949,1,1,0,18,34.544445
-1595,1525,2,0,0,0,618.402649
-1084,-624,3,1,0,12,150.507614
781,-239,4,0,0,0,925.668335
656,977,1,1,0,18,34.544445
-1333,1545,2,1,0,18,34.544445
-246,-651,3,0,0,0,991.037964
257,-841,4,0,0,0,904.383972
1185,1924,1,1,0,18,34.544445
-161,1287,2,1,0,18,34.544445
-542,-851,3,0,0,0,884.036743
1588,-366,4,0,0,0,727.054260
1515,1279,1,1,0,18,34.544445
-1453,747,2,0,0,0,704.243652
-1576,-215,3,0,0,0,753.158447
118,-758,4,0,0,0,943.725708
712,217,1,1,0,18,34.544445
-1517,1895,2,0,0,0,591.317200
-15,-540,3,1,0,0,115.779732
814,-752,4,0,0,0,837.817383
1507,1365,1,1,0,18,34.544445
-1196,1060,2,0,0,0,710.561340
-1003,-1948,3,1,0,4,85.172592
1396,-1631,4,0,0,0,648.204407
399,1091,1,1,0,18,34.544445
-1812,611,2,0,0,0,659.237000
-942,-526,3,1,0,4,85.172592
1318,-3,4,1,0,19,127.212196
1244,684,1,1,0,18,34.544445
-919,578,2,1,0,18,34.544445
-798,-2000,3,0,0,0,666.407227
1387,-581,4,1,0,19,127.212196
1869,1115,1,0,0,0,663.372070
-1977,1172,2,1,0,18,34.544445
-1351,-788,3,1,0,4,85.172592
1434,-128,4,1,0,19,127.212196
1093,1435,1,1,0,18,34.544445
-829,1795,2,1,0,18,34.544445
-385,-1574,3,0,0,0,747.831421
1380,-846,4,1,0,19,127.212196
1959,1441,1,1,0,18,34.544445
-933,251,2,1,0,12,111.002113
-1550,-1059,3,0,0,0,705.657715
368,-1893,4,1,0,7,84.998810
1377,69,1,0,0,0,794.210693
-1011,108,2,1,0,12,161.033157
-883,-1239,3,0,0,0,765.916565
840,-1843,4,0,0,0,664.829834
474,1968,1,0,0,0,684.073181
-1789,58,2,0,0,0,678.122375
-830,-1094,3,0,0,0,795.360718
166,-1805,4,1,0,7,96.344711
1042,1339,1,0,0,0,734.638794
-1795,1943,2,0,0,0,566.969604
-242,-885,3,1,0,4,85.172592
1768,-1411,4,1,0,19,127.212196
147,19,1,0,0,0,1437.129395
-1434,1944,2,0,0,0,592.692078
-602,-1422,3,0,0,0,761.659424
262,-619,4,0,0,0,981.808594
945,860,1,1,0,18,34.544445
-1972,1925,2,0,0,0,555.396729
-639,-709,3,0,0,0,900.019714
422,-602,4,0,0,0,955.983765
582,1941,1,0,0,0,683.776733
-330,728,2,0,0,0,909.687988
-814,-1289,3,1,0,4,85.172592
1676,-1485,4,0,0,0,636.189026
524,489,1,0,0,0,982.550659
-1310,1177,2,1,0,18,34.544445
-1629,-1107,3,0,0,0,691.915710
399,-648,4,1,0,7,118.417580
188,847,1,0,0,0,927.498718
-918,1471,2,0,0,0,687.212097
-757,-1968,3,0,0,0,672.408508
1432,-1599,4,0,0,0,648.252502
1659,1859,1,1,0,18,34.544445
-601,1,2,0,0,0,991.848145
-1271,-1927,3,0,0,0,646.552246
1697,-1422,4,0,0,0,639.417664
1569,1105,1,1,0,18,34.544445
-66,954,2,0,0,0,858.062744
-1811,-538,3,1,0,4,85.172592
1309,-1355,4,0,0,0,685.515564
1959,1103,1,1,0,18,34.544445
-488,1882,2,0,0,0,654.498901
-173,-1658,3,1,0,4,85.172592
1026,-78,4,0,0,0,859.162842
935,1656,1,1,0,18,34.544445
-340,302,2,1,0,0,134.926956
-172,-1860,3,1,0,4,85.172592
1745,-1411,4,0,0,0,635.572205
853,1848,1,1,0,18,34.544445
-1013,1402,2,0,0,0,687.917236
-1598,-1851,3,1,0,4,85.172592
1203,-1998,4,1,0,7,92.082687
1765,621,1,0,0,0,706.600037
-1736,59,2,1,0,12,125.878532
-1680,-1103,3,0,0,0,686.136414
1050,-226,4,0,0,0,846.822510
1031,1480,1,1,0,18,34.544445
-344,434,2,1,0,18,34.544445
-674,-756,3,1,0,4,85.172592
1446,-1055,4,1,0,19,127.212196
1560,784,1,1,0,18,34.544445
-750,518,2,1,0,18,34.544445
-182,-720,3,0,0,0,972.311584
1283,-854,4,0,0,0,743.047485
1422,1522,1,0,0,0,675.906738
-1772,450,2,1,0,12,85.262955
-241,-570,3,0,0,0,1024.874390
1982,-1425,4,0,0,0,611.615356
1171,1598,1,0,0,0,690.237793
-1959,769,2,0,0,0,631.905396
-1046,-410,3,0,0,0,853.085205
944,-1353,4,1,0,7,203.179245
1850,1258,1,0,0,0,655.494324
-1368,1736,2,0,0,0,617.951294
-1414,-1891,3,1,0,4,85.172592
855,-1540,4,0,0,0,704.771545
1070,745,1,1,0,18,34.544445
-1145,1164,2,0,0,0,704.420715
-866,-498,3,0,0,0,886.893921
1278,-572,4,1,0,19,127.212196
1408,1464,1,0,0,0,683.097168
-76,814,2,0,0,0,903.190247
-1964,-1621,3,1,0,4,85.172592
1111,-1043,4,1,0,7,180.643631
370,1972,1,1,0,18,34.544445
-198,1203,2,0,0,0,788.216187
-1285,-1504,3,1,0,4,85.172592
1021,-1954,4,1,0,7,93.178665
1036,635,1,0,0,0,830.527100
-892,862,2,1,0,18,34.544445
-1209,-67,3,1,0,12,188.985855
1667,-1583,4,0,0,0,628.701172
1828,1166,1,1,0,18,34.544445
-1175,1540,2,1,0,18,34.544445
-955,-1021,3,1,0,4,85.172592
1880,-8,4,0,0,0,686.123108
1440,233,1,1,0,18,34.544445
-530,57,2,1,0,12,114.183823
-81,-617,3,1,0,4,85.172592
613,-446,4,1,0,19,127.212196
387,1218,1,1,0,18,34.544445
-1497,292,2,1,0,12,119.696442
-1194,-1578,3,0,0,0,690.570801
569,-1597,4,0,0,0,715.725647
1935,1564,1,0,0,0,625.194702
-283,1070,2,0,0,0,816.015198
-177,-1491,3,1,0,4,85.172592
1351,-1117,4,1,0,19,127.212196
1724,1920,1,1,0,18,34.544445
-1100,340,2,0,0,0,804.668945
-837,-100,3,1,0,4,85.172592
850,-503,4,0,0,0,870.948242
1310,517,1,1,0,18,34.544445
-1210,378,2,1,0,12,132.087585
-1069,-1475,3,1,0,4,85.172592
1368,-1990,4,0,0,0,614.689270
858,22,1,0,0,0,930.613892
-1291,27,2,0,0,0,771.712952
-1723,-591,3,0,0,0,714.283142
226,-1709,4,0,0,0,710.943054
19,408,1,1,0,0,194.427536
-1821,677,2,1,0,18,34.544445
-408,-455,3,0,0,0,1028.492432
159,-515,4,1,0,0,105.978096
1532,1338,1,0,0,0,682.699036
-484,1357,2,1,0,18,34.544445
-1574,-917,3,0,0,0,714.267822
1871,-70,4,0,0,0,687.298340
684,1048,1,1,0,18,34.544445
-509,1390,2,1,0,18,34.544445
-1241,-612,3,1,0,12,144.958832
864,-1883,4,0,0,0,658.366699
292,671,1,1,0,18,34.544445
-349,835,2,1,0,18,34.544445
-3,-1786,3,1,0,4,85.172592
1409,-1037,4,0,0,0,706.722046
1566,1679,1,0,0,0,648.095886
-1907,1466,2,0,0,0,593.905640
-1905,-1295,3,0,0,0,647.161621
1961,-1082,4,0,0,0,636.130981
131,1451,1,1,0,18,34.544445
-1595,1836,2,0,0,0,590.773865
-92,-1745,3,0,0,0,726.187561
661,-1872,4,1,0,7,115.861542
1410,349,1,0,0,0,779.225281
-564,650,2,0,0,0,888.416443
-427,-612,3,1,0,4,85.172592
1433,-567,4,1,0,19,127.212196
507,456,1,1,0,18,34.544445
-727,297,2,0,0,0,914.768555
-403,-787,3,0,0,0,922.049316
1241,-648,4,1,0,19,127.212196
575,865,1,0,0,0,875.674927
-1563,573,2,0,0,0,698.870911
-543,-1905,3,0,0,0,690.273254
160,-1212,4,1,0,7,134.232605
68,44,1,0,0,0,1611.501221
-1078,1047,2,1,0,18,34.544445
-1372,-982,3,1,0,4,85.172592
1217,-201,4,0,0,0,807.015320
1118,600,1,1,0,18,34.544445
-671,792,2,1,0,18,34.544445
-1852,-545,3,1,0,12,83.707008
1768,-544,4,0,0,0,690.758789
961,734,1,1,0,18,34.544445
-1820,1143,2,0,0,0,625.929077
-1850,-1322,3,0,0,0,650.861877
754,-685,4,1,0,19,127.212196
1834,256,1,0,0,0,709.566528
-1142,1736,2,0,0,0,635.527893
-131,-423,3,0,0,0,1121.392334
905,-300,4,1,0,19,127.212196
1375,197,1,0,0,0,792.069336
-530,417,2,1,0,18,34.544445
-24,-403,3,1,0,0,198.174347
1681,-769,4,1,0,19,127.212196
754,1179,1,0,0,0,789.916931
-1110,904,2,0,0,0,742.116699
-1305,-1501,3,0,0,0,689.105896
852,-326,4,0,0,0,893.823486
73,266,1,1,0,0,335.728241
-1860,917,2,1,0,18,34.544445
-1855,-1060,3,0,0,0,668.648315
1977,-791,4,1,0,19,127.212196
433,609,1,0,0,0,970.534058
-538,720,2,1,0,18,34.544445
-576,-92,3,0,0,0,1041.933350
1591,-1747,4,1,0,19,127.212196
259,1833,1,0,0,0,709.655090
-1346,565,2,1,0,12,94.829834
-989,-1045,3,0,0,0,781.957275
1247,-332,4,1,0,19,127.212196
261,1294,1,0,0,0,806.708801
-869,915,2,1,0,18,34.544445
-1908,-1862,3,0,0,0,605.541626
862,-1465,4,1,0,7,120.209198
991,854,1,0,0,0,809.302307
-1561,932,2,1,0,18,34.544445
-1175,-1397,3,0,0,0,713.670410
1931,-400,4,1,0,19,127.212196
1794,838,1,1,0,18,34.544445
-479,355,2,0,0,0,994.155151
-1889,-225,3,0,0,0,701.850586
24,-935,4,0,0,0,886.632690
95,646,1,0,0,0,1009.414429
-643,1406,2,0,0,0,720.052551
-1958,-563,3,1,0,12,87.436188
1937,-592,4,0,0,0,664.823608
352,1544,1,0,0,0,754.420837
-1093,1997,2,1,0,18,34.544445
-1423,-1796,3,1,0,4,85.172592
1009,-602,4,1,0,19,127.212196
1686,1029,1,1,0,18,34.544445
-1129,885,2,0,0,0,741.519531
-101,-1883,3,1,0,4,85.172592
272,-811,4,1,0,19,127.212196
1732,1899,1,0,0,0,615.944885
-453,1401,2,0,0,0,734.042603
-798,-49,3,1,0,4,85.172592
909,573,1,1,0,18,34.544445
-414,536,2,0,0,0,957.416077
-1981,-54,3,1,0,12,89.572098
1186,678,1,1,0,18,34.544445
-1739,1070,2,1,0,18,34.544445
-1866,-1493,3,1,0,4,85.172592
554,1164,1,0,0,0,813.528625
-62,87,2,1,0,0,691.155151
-1371,-910,3,0,0,0,743.418152
715,120,1,1,0,18,34.544445
-1253,216,2,0,0,0,776.151123
-1766,-71,3,1,0,12,97.331520
1830,373,1,1,0,18,34.544445
-1785,91,2,1,0,12,124.275566
-614,-1995,3,1,0,4,85.172592
1904,820,1,1,0,18,34.544445
-1878,1555,2,1,0,18,34.544445
-380,-400,3,0,0,0,1057.980713
573,375,1,0,0,0,995.683899
-1833,639,2,0,0,0,654.947266
-1466,-1631,3,1,0,4,85.172592
797,217,1,1,0,18,34.544445
-235,1488,2,1,0,18,34.544445
-950,-841,3,0,0,0,818.101868
1046,126,1,0,0,0,871.579041
-657,1422,2,0,0,0,716.299194
-470,-1978,3,1,0,4,85.172592
740,1865,1,0,0,0,686.604065
-329,366,2,1,0,18,34.544445
-995,-992,3,1,0,4,85.172592
1711,1199,1,1,0,18,34.544445
-1590,1288,2,0,0,0,639.913269
-526,-1477,3,1,0,4,85.172592
691,766,1,0,0,0,877.637878
-1090,1294,2,1,0,18,34.544445
-568,-1767,3,0,0,0,708.907166
1060,1476,1,0,0,0,714.968445
-79,21,2,0,0,0,1567.339722
-106,-1456,3,0,0,0,777.784668
73,1338,1,0,0,0,802.401428
-1583,1029,2,1,0,18,34.544445
-702,-719,3,1,0,4,85.172592
103,1303,1,0,0,0,809.552795
-653,1339,2,1,0,18,34.544445
-463,-327,3,1,0,4,85.172592
770,1217,1,1,0,18,34.544445
-1836,341,2,1,0,12,99.948982
-502,-975,3,0,0,0,860.043335
302,1475,1,0,0,0,768.923584
-1907,1603,2,1,0,18,34.544445
-763,-625,3,0,0,0,890.570984
1353,1834,1,1,0,18,34.544445
-1776,1497,2,1,0,18,34.544445
-1683,-1539,3,0,0,0,650.014160
264,566,1,0,0,0,1022.237305
-1296,1171,2,1,0,18,34.544445
-1287,-1539,3,0,0,0,686.637207
314,611,1,0,0,0,994.776001
-1553,1995,2,1,0,18,34.544445
-1560,-1071,3,1,0,4,85.172592
1756,1224,1,1,0,18,34.544445
-1289,75,2,1,0,12,163.183838
-1401,-1281,3,1,0,4,85.172592
1182,1455,1,1,0,18,34.544445
-668,1741,2,0,0,0,666.419250
-1120,-1709,3,0,0,0,681.398010
845,47,1,1,0,18,34.544445
-1421,1858,2,1,0,18,34.544445
-840,-1452,3,0,0,0,737.902466
1920,1069,1,1,0,18,34.544445
-513,167,2,0,0,0,1022.968872
-110,-1519,3,1,0,4,85.172592
1012,1744,1,0,0,0,685.195007
-701,486,2,1,0,18,34.544445
-619,-358,3,1,0,4,85.172592
1152,1163,1,1,0,18,34.544445
-630,769,2,0,0,0,846.898071
-1727,-1656,3,1,0,4,85.172592
97,303,1,0,0,0,1216.767944
-879,779,2,1,0,18,34.544445
-33,-1020,3,0,0,0,880.747986
1623,1711,1,1,0,18,34.544445
-1307,196,2,1,0,12,134.820984
-1562,-190,3,0,0,0,756.257812
1757,527,1,0,0,0,712.278137
-1485,1813,2,0,0,0,601.299866
-835,-137,3,1,0,4,85.172592
543,1093,1,0,0,0,829.268677
-1008,1151,2,1,0,18,34.544445
-1410,-504,3,0,0,0,770.497437
1583,1481,1,1,0,18,34.544445
-1446,326,2,1,0,12,131.230621
-153,-28,3,1,0,0,571.638977
841,902,1,1,0,18,34.544445
-1898,1976,2,1,0,18,34.544445
-1664,-1355,3,1,0,4,85.172592
747,1786,1,0,0,0,696.842590
-320,1365,2,1,0,18,34.544445
-5,-1263,3,0,0,0,819.410706
-487,919,2,0,0,0,833.898987
-1723,-1257,3,1,0,4,85.172592
-855,55,2,0,0,0,889.694641
-61,-862,3,0,0,0,928.649048
-533,1546,2,1,0,18,34.544445
-1151,-13,3,1,0,12,145.525024
-1766,1420,2,0,0,0,610.851746
-1235,-9,3,0,0,0,825.852478
-1530,1931,2,1,0,18,34.544445
-1231,-168,3,1,0,12,236.857254
-708,1433,2,0,0,0,710.520081
-32,-1010,3,1,0,4,85.172592
-16,1399,2,0,0,0,748.695312
-1629,-1375,3,0,0,0,669.287048
-1885,65,2,1,0,4,85.172592
-1193,-1903,3,0,0,0,654.369568
-532,652,2,1,0,18,34.544445
-540,-629,3,1,0,4,85.172592
-644,312,2,0,0,0,941.553833
-1880,-79,3,0,0,0,704.982361
-872,-1848,3,1,0,4,85.172592
-212,-641,3,1,0,4,85.172592


each generation good chromosome number
0,2,2,2,2,2,2,2,2,2,2,2,2,2,2,2,2,2,2,2,2,2,2,2,2,2,2,2,2,2,2,2,2,2,2,2,2,2,2,2,2,2,2,2,2,2,2,2,2,4,6,8,10,11,12,15,18,19,20,20,20,20,20,20,20,20,20,20,19,19,20,20,21,22,22,22,21,21,21,22,23,24,25,26,27,25,26,26,27,26,26,26,29,32,33,34,34,33,36,38,