each times' max average throughput
384.014862,0.000000,0.000000,0.000000,0.000000,0.000000,418.734650,423.507782,434.914673,0.000000,0.000000,0.000000,0.000000,0.000000,403.823425,0.000000,0.000000,0.000000,0.000000,410.019257,434.024780,427.039825,435.147278,429.301758,428.279694,432.169830,422.530609,427.664093,0.000000,0.000000,0.000000,0.000000,0.000000,426.171417,0.000000,0.000000,0.000000,0.000000,0.000000,0.000000,0.000000,0.000000,0.000000,423.625000,435.970093,431.118469,0.000000,0.000000,424.543823,431.418549,425.376831,424.567169,432.923737,430.579193,427.336823,0.000000,0.000000,0.000000,405.868195,428.521698,429.361542,0.000000,0.000000,418.164673,434.193634,397.562592,398.720825,421.359314,421.064697,429.265717,428.521454,429.926025,424.904785,0.000000,0.000000,0.000000,425.782013,430.326691,423.435760,425.262115,429.465729,428.296906,427.280273,430.491486,420.838806,428.732544,422.703125,424.673615,431.715820,428.302246,427.829651,426.452454,422.009674,423.726807,422.892120,425.935181,424.182770,427.043579,420.399078,426.038483,
avg. throughput in all test times
263.160553
avg. BS TX power in all test times
MBS area 1,MBS area 2,MBS area 3,MBS area 4,CBSD 1,CBSD 2,CBSD 3,CBSD 4,CBSD 5,CBSD 6,CBSD 7,CBSD 8,CBSD 9,CBSD 10,CBSD 11,CBSD 12,CBSD 13,CBSD 14,CBSD 15,CBSD 16,CBSD 17,CBSD 18,CBSD 19,CBSD 20,CBSD 21,CBSD 22,CBSD 23,CBSD 24,CBSD 25,CBSD 26,
8.725,8.488,8.775,7.812,0.180,0.199,0.078,0.191,0.134,0.106,0.069,0.239,0.050,0.214,0.169,0.120,0.207,0.071,0.180,0.105,0.156,0.236,0.211,0.240,0.140,0.039,0.083,0.144,0.169,0.177,
avg. mbs all power,avg. cbsd enable number,avg. mbs area all power,avg. cbsd all power
72.575,5.000,33.800,3.906
avg. max avg. throughput generation number in all test times
40.119999
avg. number of relay UE
578

the max average throughput times

BS TX power
MBS area 1,MBS area 2,MBS area 3,MBS area 4,CBSD 1,CBSD 2,CBSD 3,CBSD 4,CBSD 5,CBSD 6,CBSD 7,CBSD 8,CBSD 9,CBSD 10,CBSD 11,CBSD 12,CBSD 13,CBSD 14,CBSD 15,CBSD 16,CBSD 17,CBSD 18,CBSD 19,CBSD 20,CBSD 21,CBSD 22,CBSD 23,CBSD 24,CBSD 25,CBSD 26,
8.750,10.000,7.500,7.500,0.000,0.000,1.000,0.000,0.000,0.000,0.000,0.000,0.000,0.000,0.625,0.000,0.875,0.625,0.000,0.000,0.000,0.000,0.000,0.000,0.625,0.000,0.000,0.000,0.000,0.000,
max average throughput
426.038483

x,y,area,be blocked (1 : NLOS / 0 : LOS),be blocked number (>=1 : CBSD(x) / 0 : no),connect bs number (>=1 : CBSD / 0 : MBS),throughput (unit : M bps)
373,1760,1,0,0,0,698.713989
-402,829,2,0,0,0,910.195984
-1883,-68,3,1,0,21,53.536564
1324,-1809,4,1,0,3,99.217278
911,986,1,1,0,14,65.764076
-876,592,2,1,0,21,53.536564
-1488,-111,3,1,0,21,53.536564
1683,-1325,4,1,0,3,99.217278
1554,53,1,0,0,0,740.514526
-72,1090,2,0,0,0,861.165955
-1174,-727,3,1,0,21,53.536564
1621,-1066,4,0,0,0,655.107239
272,1780,1,0,0,0,698.464111
-250,551,2,0,0,0,1031.372559
-874,-698,3,0,0,0,812.985168
1461,-99,4,0,0,0,735.617859
893,977,1,0,0,0,786.746704
-1603,45,2,0,0,0,750.816528
-1174,-1071,3,1,0,13,96.474030
1186,-1567,4,0,0,0,651.435364
269,792,1,0,0,0,918.808228
-1045,1050,2,1,0,21,53.536564
-1680,-900,3,1,0,21,53.536564
315,-397,4,0,0,0,1041.001953
1181,1430,1,1,0,14,65.764076
-933,1061,2,1,0,21,53.536564
-446,-1730,3,1,0,11,76.185112
830,-1872,4,1,0,3,99.217278
1030,240,1,1,0,14,65.764076
-1262,1679,2,1,0,21,53.536564
-220,-251,3,1,0,0,229.718140
620,-1204,4,0,0,0,758.041748
1101,1501,1,0,0,0,688.954102
-175,1011,2,0,0,0,879.200623
-1775,-451,3,0,0,0,671.576538
539,-1809,4,1,0,11,101.354622
257,933,1,1,0,13,96.474030
-600,1200,2,0,0,0,802.047485
-140,-346,3,1,0,0,192.575943
235,-1007,4,1,0,11,162.490662
838,724,1,0,0,0,838.014221
-1729,1273,2,1,0,21,53.536564
-1838,-1322,3,1,0,13,96.474030
1023,-1810,4,0,0,0,635.370667
986,390,1,1,0,14,65.764076
-227,207,2,1,0,0,294.375732
-1382,-1204,3,0,0,0,671.341614
1839,-1444,4,1,0,3,99.217278
1104,1603,1,0,0,0,676.201477
-1784,1447,2,1,0,21,53.536564
-1799,-590,3,1,0,21,53.536564
1992,-412,4,0,0,0,641.599365
1363,1997,1,1,0,14,65.764076
-1886,770,2,1,0,21,53.536564
-1172,-759,3,0,0,0,749.267456
1534,-918,4,0,0,0,678.479980
806,147,1,0,0,0,924.772339
-956,1382,2,0,0,0,737.395813
-625,-1360,3,0,0,0,729.345032
1548,-1131,4,0,0,0,658.504639
1493,854,1,1,0,14,65.764076
-1460,1337,2,0,0,0,690.444885
-1756,-1523,3,0,0,0,603.624146
645,-791,4,1,0,11,179.311798
588,1461,1,0,0,0,736.852234
-1835,882,2,1,0,21,53.536564
-343,-1790,3,1,0,11,78.244484
412,-1943,4,0,0,0,648.405151
1971,1499,1,1,0,14,65.764076
-1240,1402,2,1,0,21,53.536564
-1541,-1258,3,1,0,13,96.474030
763,-617,4,0,0,0,850.644653
1829,417,1,0,0,0,686.744995
-1328,1130,2,0,0,0,726.799438
-1655,-1724,3,0,0,0,595.747742
358,-1302,4,0,0,0,758.877319
677,1408,1,1,0,14,65.764076
-225,388,2,0,0,0,1117.704712
-507,-1749,3,1,0,11,73.358337
1068,-868,4,1,0,3,99.217278
889,105,1,1,0,14,65.764076
-610,74,2,1,0,21,53.536564
-408,-1960,3,1,0,11,70.624893
1110,-1604,4,1,0,3,99.217278
672,1927,1,0,0,0,662.664856
-678,1443,2,0,0,0,752.483398
-1887,-1516,3,1,0,13,96.474030
1594,-1903,4,0,0,0,584.964539
1445,955,1,0,0,0,709.585938
-871,1486,2,0,0,0,730.314331
-134,-226,3,1,0,0,317.404907
1594,-1999,4,1,0,3,99.217278
1252,1143,1,1,0,14,65.764076
-915,1825,2,1,0,13,96.474030
-627,-159,3,0,0,0,970.660645
1655,-1239,4,1,0,3,99.217278
1745,389,1,0,0,0,700.511169
-342,335,2,1,0,21,53.536564
-1451,-1065,3,0,0,0,676.536255
1810,-1983,4,0,0,0,562.766785
1050,848,1,0,0,0,781.148621
-1835,235,2,1,0,21,53.536564
-1538,-909,3,1,0,21,53.536564
340,-1438,4,0,0,0,733.025513
1101,1936,1,1,0,14,65.764076
-20,658,2,1,0,13,96.474030
-1773,-969,3,1,0,21,53.536564
802,-334,4,1,0,3,99.217278
394,347,1,1,0,13,96.474030
-808,46,2,0,0,0,947.540955
-1788,-929,3,1,0,21,53.536564
899,-1557,4,1,0,3,99.217278
327,961,1,1,0,13,96.474030
-1864,1831,2,1,0,21,53.536564
-1670,-1635,3,1,0,13,96.474030
527,-297,4,0,0,0,989.970581
558,420,1,0,0,0,970.773010
-1009,47,2,1,0,21,53.536564
-330,-619,3,0,0,0,947.298706
196,-826,4,0,0,0,892.338623
321,847,1,1,0,13,96.474030
-1310,58,2,1,0,21,53.536564
-530,-922,3,1,0,11,84.168045
834,-1643,4,0,0,0,669.841003
1931,1942,1,0,0,0,578.966431
-801,1125,2,1,0,21,53.536564
-367,-1459,3,0,0,0,727.871399
207,-1717,4,0,0,0,687.957458
994,1170,1,1,0,14,65.764076
-1817,1517,2,0,0,0,639.401855
-1106,-1250,3,0,0,0,698.127136
1942,-596,4,1,0,3,99.217278
167,1120,1,0,0,0,831.607117
-929,348,2,0,0,0,888.900757
-928,-1142,3,0,0,0,734.218933
1287,-518,4,1,0,3,99.217278
1960,951,1,1,0,14,65.764076
-1740,960,2,0,0,0,689.352905
-1124,-91,3,0,0,0,810.640137
1980,-4,4,1,0,14,65.764076
1493,465,1,0,0,0,738.889771
-653,347,2,0,0,0,973.546448
-438,-1566,3,1,0,11,81.062569
833,-275,4,0,0,0,882.902283
9,1345,1,0,0,0,782.137451
-496,791,2,1,0,21,53.536564
-1776,-1409,3,1,0,13,96.474030
1907,-177,4,1,0,3,99.217278
1428,844,1,1,0,14,65.764076
-411,1332,2,0,0,0,791.051941
-1057,-1653,3,1,0,11,56.751846
1443,-1346,4,0,0,0,650.262817
1396,1597,1,1,0,14,65.764076
-578,1804,2,1,0,13,96.474030
-1428,-454,3,1,0,21,53.536564
518,-1486,4,0,0,0,714.974976
876,438,1,0,0,0,873.371948
-1013,1711,2,1,0,21,53.536564
-807,-1391,3,1,0,11,68.381958
1589,-331,4,0,0,0,706.119080
1978,580,1,0,0,0,659.814392
-3,1107,2,1,0,13,96.474030
-1136,-273,3,1,0,21,53.536564
1114,-34,4,0,0,0,814.015015
895,818,1,0,0,0,811.949524
-1062,389,2,0,0,0,851.166077
-1059,-223,3,1,0,21,53.536564
1881,-1176,4,1,0,3,99.217278
1396,667,1,0,0,0,741.946594
-1020,821,2,1,0,21,53.536564
-1084,-35,3,0,0,0,821.848694
671,-370,4,0,0,0,921.851196
516,1701,1,1,0,14,65.764076
-1489,411,2,1,0,21,53.536564
-1953,-960,3,1,0,21,53.536564
589,-642,4,1,0,11,151.794266
1286,831,1,0,0,0,744.934570
-1557,1176,2,0,0,0,694.591309
-545,-67,3,0,0,0,1017.881531
58,-850,4,0,0,0,891.309204
1360,397,1,1,0,14,65.764076
-451,771,2,1,0,21,53.536564
-1552,-273,3,0,0,0,714.586914
245,-1301,4,0,0,0,764.557251
236,1171,1,0,0,0,816.238220
-274,828,2,1,0,13,96.474030
-1669,-1704,3,1,0,13,96.474030
490,-1267,4,1,0,11,169.836716
1519,495,1,0,0,0,732.742432
-1432,1097,2,0,0,0,717.072388
-632,-401,3,0,0,0,928.610046
604,-43,4,0,0,0,989.684509
413,585,1,0,0,0,963.562256
-1549,933,2,0,0,0,716.375977
-1244,-540,3,0,0,0,757.641907
830,-1208,4,1,0,3,99.217278
323,755,1,0,0,0,924.106873
-33,1948,2,0,0,0,695.021667
-1092,-1939,3,0,0,0,616.011841
104,-1361,4,1,0,11,123.551460
1046,638,1,1,0,14,65.764076
-1362,519,2,1,0,21,53.536564
-433,-1533,3,0,0,0,711.486267
1504,-31,4,1,0,3,99.217278
71,839,1,0,0,0,916.898804
-668,271,2,1,0,21,53.536564
-131,-87,3,0,0,0,1378.556519
376,-949,4,1,0,11,198.888199
1417,1814,1,0,0,0,628.332397
-1847,1085,2,0,0,0,667.898865
-1661,-338,3,0,0,0,693.704895
610,-1692,4,1,0,11,110.703362
531,726,1,0,0,0,897.884399
-1528,533,2,0,0,0,748.205139
-1179,-645,3,0,0,0,760.245911
1921,-914,4,1,0,3,99.217278
667,1570,1,0,0,0,713.961304
-1477,1435,2,1,0,21,53.536564
-221,-683,3,0,0,0,940.642761
51,-1527,4,0,0,0,723.447021
583,1509,1,0,0,0,729.159912
-1791,1344,2,0,0,0,655.239075
-1062,-453,3,0,0,0,803.862976
41,-807,4,1,0,11,127.083794
850,1074,1,0,0,0,776.924622
-24,899,2,0,0,0,917.159363
-1522,-966,3,0,0,0,676.095276
1909,-396,4,0,0,0,653.707153
992,643,1,0,0,0,819.233948
-1693,1120,2,1,0,21,53.536564
-1271,-359,3,0,0,0,765.239197
347,-78,4,0,0,0,1143.126221
107,709,1,0,0,0,963.187439
-1137,1626,2,0,0,0,689.808533
-1478,-395,3,1,0,21,53.536564
426,-130,4,1,0,0,140.463531
449,1328,1,1,0,14,65.764076
-893,1523,2,0,0,0,723.238281
-139,-732,3,1,0,11,107.704803
842,-1133,4,0,0,0,746.138367
1269,621,1,1,0,14,65.764076
-679,391,2,0,0,0,956.867859
-723,-1772,3,1,0,11,65.298859
1717,-117,4,0,0,0,689.358704
1971,68,1,1,0,14,65.764076
-447,837,2,1,0,21,53.536564
-1326,-1980,3,0,0,0,596.558228
1845,-964,4,0,0,0,635.018677
715,1694,1,1,0,14,65.764076
-32,795,2,1,0,13,96.474030
-1226,-1927,3,0,0,0,608.620117
1073,-1053,4,0,0,0,728.076355
1830,1150,1,0,0,0,646.285400
-1771,1437,2,0,0,0,650.003113
-944,-1504,3,0,0,0,680.404358
18,-1787,4,1,0,11,91.879425
233,1715,1,1,0,13,96.474030
-1020,984,2,0,0,0,786.288391
-1677,-1840,3,1,0,13,96.474030
1597,-1741,4,0,0,0,599.009521
1493,1316,1,0,0,0,669.838745
-1363,1264,2,0,0,0,708.469116
-1466,-478,3,1,0,21,53.536564
1146,-1593,4,0,0,0,651.846985
1900,963,1,0,0,0,650.438232
-950,1486,2,1,0,21,53.536564
-8,-1127,3,0,0,0,810.805786
808,-1318,4,0,0,0,720.070679
679,1759,1,0,0,0,685.289429
-1440,919,2,1,0,21,53.536564
-210,-1908,3,1,0,11,78.601921
8,-230,4,0,0,0,1268.692993
1101,1723,1,1,0,14,65.764076
-277,1567,2,0,0,0,753.032898
-1707,-46,3,0,0,0,691.588989
1227,-257,4,0,0,0,780.213013
450,857,1,1,0,14,65.764076
-1983,1653,2,1,0,21,53.536564
-193,-1833,3,0,0,0,669.751648
735,-891,4,0,0,0,803.749390
532,1849,1,1,0,14,65.764076
-671,1930,2,1,0,13,96.474030
-1827,-966,3,1,0,21,53.536564
1123,-643,4,1,0,3,99.217278
1103,1922,1,0,0,0,639.161743
-723,1500,2,1,0,21,53.536564
-943,-1410,3,1,0,11,63.108936
464,-106,4,0,0,0,1059.101440
693,56,1,1,0,14,65.764076
-1938,885,2,0,0,0,669.450439
-890,-1614,3,0,0,0,669.753174
1710,-1447,4,1,0,3,99.217278
1496,1385,1,1,0,14,65.764076
-692,273,2,1,0,21,53.536564
-1177,-1242,3,0,0,0,691.004883
669,-1037,4,0,0,0,784.729614
1947,1877,1,1,0,14,65.764076
-1516,1924,2,0,0,0,629.640686
-1887,-1715,3,0,0,0,577.360229
534,-1975,4,0,0,0,639.956360
275,583,1,1,0,13,96.474030
-40,213,2,0,0,0,1327.519653
-1989,-1010,3,0,0,0,615.323181
1783,-589,4,0,0,0,664.432434
530,719,1,0,0,0,899.887207
-597,1505,2,0,0,0,748.064758
-1635,-909,3,1,0,21,53.536564
127,-864,4,1,0,11,140.118942
1688,512,1,0,0,0,704.363098
-1889,1339,2,0,0,0,645.685242
-1493,-539,3,0,0,0,712.506348
493,-18,4,0,0,0,1048.763306
725,1920,1,1,0,14,65.764076
-571,235,2,0,0,0,1025.521484
-238,-372,3,0,0,0,1080.691895
824,-1671,4,0,0,0,666.669678
1836,811,1,1,0,14,65.764076
-889,728,2,1,0,21,53.536564
-995,-1139,3,1,0,13,96.474030
678,-1249,4,0,0,0,744.205566
1330,523,1,1,0,14,65.764076
-482,827,2,1,0,21,53.536564
-1246,-916,3,0,0,0,719.975525
1300,-1986,4,1,0,3,99.217278
988,983,1,1,0,14,65.764076
-568,604,2,1,0,21,53.536564
-359,-204,3,1,0,0,161.715500
339,-1919,4,0,0,0,653.843018
790,1777,1,0,0,0,676.450623
-848,1973,2,1,0,13,96.474030
-1023,-1774,3,0,0,0,639.689880
466,-489,4,1,0,3,99.217278
520,1711,1,1,0,14,65.764076
-1451,379,2,1,0,21,53.536564
-1703,-134,3,1,0,21,53.536564
744,-175,4,0,0,0,922.583923
1662,1159,1,1,0,14,65.764076
-1823,1767,2,1,0,21,53.536564
-390,-649,3,1,0,13,96.474030
1907,-729,4,1,0,3,99.217278
390,1284,1,0,0,0,782.802063
-51,1947,2,0,0,0,695.111633
-151,-856,3,0,0,0,885.540955
525,-1051,4,1,0,11,273.303253
846,408,1,0,0,0,885.423584
-570,348,2,0,0,0,1002.915649
-984,-1720,3,0,0,0,649.069763
312,-1792,4,0,0,0,673.524658
471,1845,1,1,0,14,65.764076
-942,1128,2,0,0,0,775.871887
-1723,-577,3,0,0,0,673.825439
693,-1420,4,0,0,0,713.815308
1285,1370,1,1,0,14,65.764076
-1684,0,2,1,0,21,53.536564
-940,-1239,3,0,0,0,718.358032
1857,-1468,4,0,0,0,598.451294
162,1852,1,0,0,0,689.328308
-1102,113,2,0,0,0,857.136353
-1516,-960,3,1,0,21,53.536564
899,-302,4,0,0,0,860.453613
565,677,1,1,0,14,65.764076
-985,97,2,1,0,21,53.536564
-1796,-959,3,0,0,0,641.341858
1361,-703,4,0,0,0,722.700317
1957,912,1,0,0,0,646.585083
-1269,199,2,1,0,21,53.536564
-1253,-1629,3,0,0,0,638.672180
1628,-211,4,0,0,0,702.872375
162,884,1,1,0,13,96.474030
-1779,335,2,1,0,21,53.536564
-580,-1110,3,1,0,11,81.305145
777,-1731,4,1,0,3,99.217278
1324,1736,1,1,0,14,65.764076
-421,1178,2,1,0,13,96.474030
-1768,-1319,3,0,0,0,618.521667
1750,-151,4,1,0,3,99.217278
693,1521,1,0,0,0,719.794739
-125,1676,2,1,0,13,96.474030
-1856,-1457,3,0,0,0,599.363770
460,-1616,4,0,0,0,696.222351
182,779,1,1,0,13,96.474030
-1594,1149,2,1,0,21,53.536564
-410,-1787,3,0,0,0,671.259766
971,-936,4,0,0,0,759.226746
433,696,1,1,0,13,96.474030
-1932,812,2,1,0,21,53.536564
-171,-1714,3,0,0,0,689.104858
1525,-327,4,0,0,0,717.541016
282,1831,1,1,0,13,96.474030
-763,1504,2,1,0,21,53.536564
-973,-1328,3,1,0,13,96.474030
213,-1181,4,1,0,11,149.661636
282,1823,1,1,0,13,96.474030
-617,1177,2,1,0,21,53.536564
-420,-636,3,0,0,0,923.391113
1138,-1723,4,1,0,3,99.217278
1990,289,1,1,0,14,65.764076
-1389,1785,2,1,0,21,53.536564
-595,-1971,3,0,0,0,638.159790
912,-1677,4,0,0,0,659.729126
423,1290,1,0,0,0,779.469238
-537,287,2,0,0,0,1029.558105
-1558,-954,3,1,0,21,53.536564
138,-521,4,1,0,11,117.326515
825,250,1,1,0,14,65.764076
-1196,543,2,1,0,21,53.536564
-756,-1289,3,0,0,0,729.804382
325,-963,4,1,0,11,183.723801
259,1017,1,1,0,13,96.474030
-1299,1052,2,0,0,0,738.914917
-28,-1049,3,1,0,11,123.104561
303,-573,4,0,0,0,970.066772
675,794,1,0,0,0,855.499634
-1518,1066,2,1,0,21,53.536564
-1115,-747,3,0,0,0,760.630676
1214,-50,4,1,0,3,99.217278
866,418,1,1,0,14,65.764076
-1287,1720,2,1,0,21,53.536564
-88,-724,3,0,0,0,936.078003
1808,-726,4,1,0,3,99.217278
1230,1138,1,0,0,0,719.065552
-1271,449,2,0,0,0,800.693237
-526,-1394,3,0,0,0,730.650513
1100,-1336,4,1,0,3,99.217278
282,1222,1,0,0,0,802.247681
-1325,1786,2,1,0,21,53.536564
-778,-787,3,0,0,0,816.054626
845,-176,4,1,0,3,99.217278
1358,1950,1,1,0,14,65.764076
-739,1068,2,0,0,0,811.387878
-136,-1974,3,0,0,0,649.487793
1903,-343,4,0,0,0,656.056030
306,679,1,0,0,0,952.250244
-1742,86,2,0,0,0,726.729919
-154,-1399,3,0,0,0,746.986145
966,-536,4,1,0,3,99.217278
1006,1624,1,1,0,14,65.764076
-136,171,2,1,0,0,429.342499
-48,-1259,3,1,0,11,115.636566
932,-1532,4,1,0,3,99.217278
545,601,1,1,0,14,65.764076
-1495,1995,2,0,0,0,624.626953
-856,-1205,3,1,0,13,96.474030
1446,-1213,4,1,0,3,99.217278
1799,424,1,1,0,14,65.764076
-708,724,2,1,0,21,53.536564
-340,-159,3,1,0,0,190.798782
1158,-1151,4,0,0,0,704.428711
676,93,1,1,0,14,65.764076
-1505,321,2,0,0,0,762.651367
-516,-1812,3,0,0,0,663.479980
1874,-1342,4,1,0,3,99.217278
1816,984,1,0,0,0,659.236755
-957,327,2,0,0,0,883.357727
-915,-1826,3,1,0,11,58.438168
552,-1315,4,1,0,11,160.421158
1594,707,1,1,0,14,65.764076
-261,1375,2,1,0,13,96.474030
-1052,-599,3,1,0,21,53.536564
1127,-239,4,1,0,3,99.217278
468,853,1,1,0,14,65.764076
-922,457,2,0,0,0,878.357056
-1882,-1207,3,0,0,0,614.679993
777,-1900,4,1,0,3,99.217278
312,1783,1,1,0,13,96.474030
-309,1000,2,1,0,13,96.474030
-1418,-963,3,1,0,21,53.536564
1019,-1274,4,1,0,3,99.217278
1595,89,1,1,0,14,65.764076
-1152,217,2,1,0,21,53.536564
-1558,-37,3,1,0,21,53.536564
1350,-915,4,0,0,0,704.753723
1464,1107,1,1,0,14,65.764076
-426,1095,2,1,0,13,96.474030
-1713,-2,3,0,0,0,690.688721
424,-1289,4,0,0,0,757.472961
550,1453,1,1,0,14,65.764076
-1892,1085,2,0,0,0,662.754944
-1011,-862,3,0,0,0,763.533936
1135,-1997,4,0,0,0,606.999084
1807,802,1,1,0,14,65.764076
-1002,195,2,0,0,0,880.673401
-1206,-260,3,1,0,21,53.536564
367,-1243,4,1,0,11,163.914124
662,956,1,0,0,0,823.975281
-1859,1251,2,0,0,0,655.044006
-452,-864,3,0,0,0,852.457397
201,-1851,4,0,0,0,666.859924
102,465,1,1,0,13,96.474030
-1123,553,2,0,0,0,821.980286
-445,-1124,3,1,0,11,88.845596
630,-1099,4,0,0,0,777.217773
1312,1164,1,0,0,0,705.994568
-269,1903,2,0,0,0,698.920959
-1671,-257,3,1,0,21,53.536564
1639,-725,4,1,0,3,99.217278
1078,1016,1,1,0,14,65.764076
-907,406,2,0,0,0,888.413147
-508,-1103,3,0,0,0,789.355408
1468,-3,4,0,0,0,734.903503
270,1319,1,1,0,13,96.474030
-1715,605,2,0,0,0,714.748474
-1306,-1226,3,0,0,0,677.906860
1140,-27,4,1,0,3,99.217278
1495,96,1,0,0,0,751.195862
-1203,1629,2,1,0,21,53.536564
-210,-1492,3,0,0,0,727.441772
398,-1413,4,0,0,0,734.907532
669,137,1,1,0,14,65.764076
-1409,574,2,1,0,21,53.536564
-1075,-277,3,0,0,0,815.153503
770,-734,4,1,0,3,99.217278
64,1670,1,0,0,0,719.830261
-969,1813,2,0,0,0,679.667175
-293,-1886,3,1,0,11,76.703316
296,-473,4,0,0,0,1013.256714
1109,1937,1,1,0,14,65.764076
-1027,1566,2,0,0,0,706.345703
-1717,-304,3,1,0,21,53.536564
675,-735,4,0,0,0,845.797729
1032,1616,1,1,0,14,65.764076
-1766,252,2,0,0,0,720.268005
-556,-175,3,0,0,0,1000.667725
105,-1477,4,0,0,0,732.428589
808,291,1,0,0,0,911.206665
-525,273,2,1,0,21,53.536564
-1653,-1079,3,0,0,0,650.164001
1006,-1211,4,0,0,0,714.857178
1709,85,1,1,0,14,65.764076
-1976,1874,2,0,0,0,599.497498
-225,-962,3,1,0,11,104.728683
1676,-936,4,1,0,3,99.217278
902,1514,1,1,0,14,65.764076
-1734,1882,2,0,0,0,617.184937
-1687,-358,3,1,0,21,53.536564
213,-773,4,1,0,11,145.684464
611,1838,1,0,0,0,677.599243
-1581,933,2,1,0,21,53.536564
-154,-1070,3,0,0,0,822.788818
645,-1116,4,0,0,0,772.224487
664,128,1,0,0,0,980.072937
-210,1448,2,0,0,0,777.137024
-835,-1004,3,0,0,0,768.492004
1465,-448,4,1,0,3,99.217278
1589,1274,1,0,0,0,663.245911
-192,1056,2,0,0,0,866.232971
-1248,-460,3,1,0,21,53.536564
1445,-1254,4,0,0,0,659.085510
258,989,1,0,0,0,861.088623
-511,1035,2,0,0,0,845.305664
-1008,-915,3,1,0,13,96.474030
1105,-431,4,0,0,0,796.126343
429,999,1,1,0,14,65.764076
-1820,27,2,0,0,0,714.494019
-50,-1756,3,1,0,11,90.946770
725,-177,4,1,0,3,99.217278
526,1979,1,0,0,0,661.700989
-506,1108,2,1,0,21,53.536564
-670,-584,3,1,0,13,96.474030
859,-1500,4,1,0,3,99.217278
1124,1656,1,0,0,0,668.231689
-817,1655,2,0,0,0,710.512512
-871,-1672,3,0,0,0,663.294312
539,-728,4,1,0,11,169.752747
732,1572,1,1,0,14,65.764076
-1425,109,2,1,0,21,53.536564
-51,-61,3,0,0,0,1575.329590
874,-1213,4,1,0,3,99.217278
1320,1022,1,1,0,14,65.764076
-97,1018,2,1,0,13,96.474030
-577,-336,3,1,0,21,53.536564
513,-1196,4,0,0,0,769.476685
1046,509,1,1,0,14,65.764076
-1178,1846,2,0,0,0,661.603455
-1608,-1820,3,1,0,13,96.474030
1837,-1364,4,1,0,3,99.217278
1384,834,1,0,0,0,729.486816
-377,1051,2,0,0,0,854.861389
-840,-1643,3,0,0,0,669.419312
921,-1433,4,1,0,3,99.217278
467,540,1,1,0,13,96.474030
-456,1693,2,1,0,13,96.474030
-988,-1006,3,1,0,13,96.474030
1667,-1087,4,0,0,0,647.847290
1488,1821,1,1,0,14,65.764076
-451,1460,2,0,0,0,764.669739
-696,-87,3,1,0,21,53.536564
927,-795,4,0,0,0,787.739197
1516,1150,1,1,0,14,65.764076
-984,1898,2,1,0,13,96.474030
-1859,-608,3,1,0,21,53.536564
1375,-772,4,0,0,0,714.392639
1931,795,1,0,0,0,656.103210
-1040,1361,2,1,0,21,53.536564
-1729,-628,3,1,0,21,53.536564
889,-776,4,0,0,0,797.593445
169,271,1,0,0,0,1196.395142
-612,1274,2,0,0,0,787.079834
-1434,-89,3,0,0,0,741.073547
602,-1799,4,0,0,0,661.514099
1282,292,1,0,0,0,788.660889
-1626,1660,2,0,0,0,644.672058
-1361,-1254,3,1,0,13,96.474030
462,-1060,4,1,0,11,234.219162
481,369,1,0,0,0,1011.565735
-311,1451,2,1,0,13,96.474030
-1400,-140,3,0,0,0,747.081360
1257,-618,4,0,0,0,748.364685
240,206,1,0,0,0,1199.202393
-723,890,2,1,0,21,53.536564
-1204,-1355,3,1,0,13,96.474030
1165,-1373,4,0,0,0,676.416199
1583,1167,1,0,0,0,673.238708
-1587,855,2,1,0,21,53.536564
-1709,-768,3,1,0,21,53.536564
853,-684,4,1,0,3,99.217278
1643,800,1,1,0,14,65.764076
-361,1790,2,1,0,13,96.474030
-1856,-1685,3,0,0,0,582.192139
1411,-216,4,0,0,0,742.940613
766,629,1,1,0,14,65.764076
-887,642,2,1,0,21,53.536564
-1801,-1210,3,1,0,13,96.474030
1438,-1769,4,0,0,0,609.144531
627,473,1,0,0,0,936.943237
-1414,114,2,0,0,0,786.021423
-57,-342,3,1,0,0,216.751205
385,-983,4,0,0,0,829.604980
533,31,1,0,0,0,1048.198120
-899,682,2,1,0,21,53.536564
-983,-1988,3,1,0,11,53.996368
249,-17,4,0,0,0,1245.297974
552,778,1,1,0,14,65.764076
-671,1652,2,0,0,0,720.399414
-1350,-656,3,1,0,21,53.536564
1233,-1026,4,1,0,3,99.217278
971,252,1,1,0,14,65.764076
-1570,1010,2,1,0,21,53.536564
-571,-1842,3,0,0,0,656.823364
1488,-1585,4,1,0,3,99.217278
1253,1033,1,1,0,14,65.764076
-1344,1539,2,1,0,21,53.536564
-590,-284,3,0,0,0,967.140991
1884,-407,4,0,0,0,656.973328
685,802,1,1,0,14,65.764076
-1383,366,2,0,0,0,783.597168
-1564,-1482,3,1,0,13,96.474030
574,-450,4,1,0,3,99.217278
1243,1693,1,0,0,0,654.459290
-1818,1726,2,0,0,0,623.051941
-1090,-1517,3,1,0,13,96.474030
1318,-1636,4,1,0,3,99.217278
26,1310,1,0,0,0,789.662537
-1661,1139,2,1,0,21,53.536564
-1079,-706,3,1,0,21,53.536564
1141,-1794,4,1,0,3,99.217278
701,491,1,0,0,0,912.198608
-172,1685,2,1,0,13,96.474030
-1091,-1396,3,1,0,13,96.474030
1363,-1282,4,1,0,3,99.217278
1320,459,1,0,0,0,771.140869
-1271,1501,2,0,0,0,692.308838
-1434,-1017,3,0,0,0,683.267029
1851,-914,4,0,0,0,637.397095
1059,1688,1,1,0,14,65.764076
-343,930,2,0,0,0,889.134399
-235,-1504,3,0,0,0,724.499878
1042,-1660,4,1,0,3,99.217278
1850,1753,1,0,0,0,599.364014
-391,213,2,0,0,0,1119.812500
-278,-419,3,1,0,0,110.093292
1246,-1769,4,1,0,3,99.217278
1046,1815,1,0,0,0,655.204224
-1420,1117,2,0,0,0,716.630188
-1117,-1800,3,0,0,0,630.031555
1818,-362,4,0,0,0,668.119263
1721,711,1,0,0,0,688.864868
-119,1943,2,0,0,0,695.262512
-1493,-1705,3,1,0,13,96.474030
881,-1937,4,0,0,0,628.753723
1643,1142,1,1,0,14,65.764076
-1281,207,2,1,0,21,53.536564
-217,-1370,3,0,0,0,751.169373
625,-1932,4,0,0,0,642.102295
1273,1928,1,1,0,14,65.764076
-1497,1099,2,1,0,21,53.536564
-587,-503,3,1,0,13,96.474030
709,-1565,4,1,0,11,120.987556
845,1877,1,0,0,0,660.209229
-1315,1586,2,1,0,21,53.536564
-188,-1147,3,0,0,0,801.946228
1106,-1393,4,0,0,0,679.927124
1471,255,1,1,0,14,65.764076
-1264,1035,2,1,0,21,53.536564
-78,-1238,3,1,0,11,113.752693
1540,-615,4,1,0,3,99.217278
1900,1657,1,0,0,0,602.455444
-1245,1407,2,0,0,0,705.426575
-1183,-383,3,0,0,0,782.553528
1862,-1273,4,1,0,3,99.217278
1399,1261,1,1,0,14,65.764076
-284,1398,2,0,0,0,784.412476
-1665,-1768,3,0,0,0,591.179077
1465,-528,4,0,0,0,717.986023
1234,1203,1,0,0,0,711.029358
-1268,233,2,0,0,0,813.502625
-1148,-1111,3,0,0,0,710.661987
147,-1232,4,1,0,11,137.073059
1766,1342,1,1,0,14,65.764076
-1638,547,2,1,0,21,53.536564
-1912,-1923,3,1,0,13,96.474030
171,-1610,4,0,0,0,706.834961
1776,892,1,0,0,0,670.238586
-436,405,2,1,0,21,53.536564
-176,-521,3,0,0,0,1017.450500
641,-906,4,1,0,11,212.775772
551,1915,1,1,0,14,65.764076
-667,818,2,0,0,0,871.058716
-1415,-254,3,1,0,21,53.536564
1748,-801,4,1,0,3,99.217278
1029,455,1,0,0,0,833.461121
-1531,1441,2,1,0,21,53.536564
-1625,-219,3,0,0,0,703.208374
1934,-1828,4,0,0,0,565.268799
1235,1047,1,0,0,0,728.915649
-89,882,2,0,0,0,921.302185
-1464,-718,3,1,0,21,53.536564
1180,-1501,4,1,0,3,99.217278
1633,201,1,1,0,14,65.764076
-732,1530,2,0,0,0,734.736267
-1821,-1988,3,1,0,13,96.474030
1785,-1494,4,0,0,0,603.224854
267,1320,1,0,0,0,781.774109
-506,705,2,0,0,0,927.439819
-228,-79,3,0,0,0,1255.032593
1490,-1672,4,1,0,3,99.217278
753,116,1,1,0,14,65.764076
-619,1757,2,0,0,0,707.859314
-1369,-958,3,0,0,0,697.809814
1787,-29,4,1,0,3,99.217278
1716,245,1,1,0,14,65.764076
-1308,470,2,1,0,21,53.536564
-1076,-1248,3,0,0,0,701.794006
1959,-1522,4,1,0,3,99.217278
1207,704,1,1,0,14,65.764076
-1009,203,2,0,0,0,878.308533
-640,-616,3,0,0,0,879.292175
1324,-315,4,1,0,3,99.217278
470,992,1,1,0,14,65.764076
-973,9,2,0,0,0,894.468750
-1167,-979,3,0,0,0,724.309021
1301,-532,4,0,0,0,747.369690
1114,1952,1,0,0,0,635.138062
-28,562,2,1,0,13,96.474030
-405,-62,3,1,0,0,163.989914
1181,-456,4,1,0,3,99.217278
1104,1426,1,0,0,0,698.027344
-944,316,2,0,0,0,887.902527
-1114,-1485,3,0,0,0,667.702148
654,-1416,4,1,0,11,140.624878
1894,332,1,0,0,0,679.675964
-1700,1594,2,1,0,21,53.536564
-1613,-240,3,1,0,21,53.536564
1814,-133,4,1,0,3,99.217278
1460,692,1,1,0,14,65.764076
-72,1588,2,1,0,13,96.474030
-747,-934,3,1,0,13,96.474030
1249,-972,4,1,0,3,99.217278
107,1806,1,1,0,13,96.474030
-78,1209,2,1,0,13,96.474030
-147,-1060,3,1,0,11,111.234039
883,-1653,4,0,0,0,664.996948
455,1029,1,0,0,0,833.461121
-1247,761,2,0,0,0,777.585388
-106,-677,3,1,0,11,108.364258
108,-1804,4,0,0,0,675.373596
1350,1511,1,0,0,0,664.712708
-1324,614,2,0,0,0,777.865417
-716,-432,3,0,0,0,896.680908
1829,-763,4,0,0,0,649.042725
1909,149,1,0,0,0,680.878845
-914,48,2,0,0,0,912.099182
-342,-1245,3,0,0,0,771.749268
295,-1072,4,1,0,11,173.749924
1443,1414,1,0,0,0,665.549255
-1589,1596,2,0,0,0,653.594299
-1077,-1634,3,1,0,11,56.389442
590,-1305,4,0,0,0,741.990234
1339,6,1,1,0,14,65.764076
-1450,1503,2,0,0,0,675.152954
-989,-1987,3,0,0,0,616.757629
972,-1184,4,0,0,0,722.693237
745,1457,1,0,0,0,725.862244
-1248,861,2,1,0,21,53.536564
-1107,-1430,3,0,0,0,675.187317
1210,-1316,4,0,0,0,678.476440
524,1059,1,0,0,0,819.383667
-1492,169,2,0,0,0,769.698608
-1434,-391,3,0,0,0,731.341614
774,-1110,4,1,0,11,172.960159
1555,67,1,0,0,0,740.230835
-1989,218,2,0,0,0,687.394287
-411,-1983,3,1,0,11,69.834312
698,-454,4,0,0,0,897.913696
703,1816,1,0,0,0,676.064148
-1761,1295,2,0,0,0,662.118225
-1507,-1027,3,1,0,21,53.536564
737,-362,4,1,0,3,99.217278
580,220,1,1,0,13,96.474030
-1912,1823,2,0,0,0,608.133179
-497,-30,3,1,0,21,53.536564
946,-777,4,1,0,3,99.217278
1167,246,1,1,0,14,65.764076
-36,1045,2,1,0,13,96.474030
-910,-1739,3,1,0,11,59.968624
401,-570,4,1,0,11,137.691299
1168,949,1,1,0,14,65.764076
-1595,1525,2,0,0,0,659.409607
-1084,-624,3,1,0,21,53.536564
781,-239,4,0,0,0,903.468506
656,977,1,1,0,14,65.764076
-1333,1545,2,1,0,21,53.536564
-246,-651,3,0,0,0,949.584106
257,-841,4,0,0,0,882.190125
1185,1924,1,1,0,14,65.764076
-161,1287,2,1,0,13,96.474030
-542,-851,3,0,0,0,842.637756
1588,-366,4,0,0,0,704.970520
1515,1279,1,1,0,14,65.764076
-1453,747,2,0,0,0,745.473328
-1576,-215,3,0,0,0,711.914490
118,-758,4,0,0,0,921.521301
712,217,1,1,0,14,65.764076
-1517,1895,2,0,0,0,632.221252
-15,-540,3,1,0,11,108.484505
814,-752,4,0,0,0,815.650513
1507,1365,1,1,0,14,65.764076
-1196,1060,2,0,0,0,751.802795
-1003,-1948,3,1,0,11,54.128086
1396,-1631,4,0,0,0,626.233765
399,1091,1,1,0,14,65.764076
-1812,611,2,0,0,0,700.366333
-942,-526,3,1,0,21,53.536564
1318,-3,4,1,0,3,99.217278
1244,684,1,1,0,14,65.764076
-919,578,2,1,0,21,53.536564
-798,-2000,3,0,0,0,625.376831
1387,-581,4,1,0,3,99.217278
1869,1115,1,0,0,0,644.315063
-1977,1172,2,1,0,21,53.536564
-1351,-788,3,1,0,21,53.536564
1434,-128,4,1,0,3,99.217278
1093,1435,1,1,0,14,65.764076
-829,1795,2,1,0,13,96.474030
-385,-1574,3,0,0,0,706.596985
1380,-846,4,1,0,3,99.217278
1959,1441,1,1,0,14,65.764076
-933,251,2,1,0,21,53.536564
-1550,-1059,3,0,0,0,664.514709
368,-1893,4,1,0,11,94.179085
1377,69,1,0,0,0,775.030029
-1011,108,2,1,0,21,53.536564
-883,-1239,3,0,0,0,724.650452
840,-1843,4,0,0,0,642.830261
474,1968,1,0,0,0,664.988464
-1789,58,2,0,0,0,719.297668
-830,-1094,3,0,0,0,754.051025
166,-1805,4,1,0,11,95.660194
1042,1339,1,0,0,0,715.500916
-1795,1943,2,0,0,0,607.763123
-242,-885,3,1,0,11,102.787392
1768,-1411,4,1,0,3,99.217278
147,19,1,0,0,0,1417.865845
-1434,1944,2,0,0,0,633.601868
-602,-1422,3,0,0,0,720.400391
262,-619,4,0,0,0,959.595886
945,860,1,1,0,14,65.764076
-1972,1925,2,0,0,0,596.130798
-639,-709,3,0,0,0,858.609802
422,-602,4,0,0,0,933.776245
582,1941,1,0,0,0,664.692322
-330,728,2,0,0,0,951.125732
-814,-1289,3,1,0,11,69.130463
1676,-1485,4,0,0,0,614.241760
524,489,1,0,0,0,963.308899
-1310,1177,2,1,0,21,53.536564
-1629,-1107,3,0,0,0,650.808716
399,-648,4,1,0,11,148.749847
188,847,1,0,0,0,908.267578
-918,1471,2,0,0,0,728.407471
-757,-1968,3,0,0,0,631.358826
1432,-1599,4,0,0,0,626.281799
1659,1859,1,1,0,14,65.764076
-601,1,2,0,0,0,1033.314453
-1271,-1927,3,0,0,0,605.591553
1697,-1422,4,0,0,0,617.463867
1569,1105,1,1,0,14,65.764076
-66,954,2,0,0,0,899.472351
-1811,-538,3,1,0,21,53.536564
1309,-1355,4,0,0,0,663.484009
1959,1103,1,1,0,14,65.764076
-488,1882,2,0,0,0,695.615723
-173,-1658,3,1,0,11,90.238663
1026,-78,4,0,0,0,836.986084
935,1656,1,1,0,14,65.764076
-340,302,2,1,0,0,161.530899
-172,-1860,3,1,0,11,81.779373
1745,-1411,4,0,0,0,613.626160
853,1848,1,1,0,14,65.764076
-1013,1402,2,0,0,0,729.114319
-1598,-1851,3,1,0,13,96.474030
1203,-1998,4,1,0,3,99.217278
1765,621,1,0,0,0,687.489319
-1736,59,2,1,0,21,53.536564
-1680,-1103,3,0,0,0,645.045837
1050,-226,4,0,0,0,824.651001
1031,1480,1,1,0,14,65.764076
-344,434,2,1,0,21,53.536564
-674,-756,3,1,0,13,96.474030
1446,-1055,4,1,0,3,99.217278
1560,784,1,1,0,14,65.764076
-750,518,2,1,0,21,53.536564
-182,-720,3,0,0,0,930.864685
1283,-854,4,0,0,0,720.947693
1422,1522,1,0,0,0,656.832397
-1772,450,2,1,0,21,53.536564
-241,-570,3,0,0,0,983.410400
1982,-1425,4,0,0,0,589.722229
1171,1598,1,0,0,0,671.145508
-1959,769,2,0,0,0,672.956787
-1046,-410,3,0,0,0,811.711365
944,-1353,4,1,0,3,99.217278
1850,1258,1,0,0,0,636.448914
-1368,1736,2,0,0,0,658.956604
-1414,-1891,3,1,0,13,96.474030
855,-1540,4,0,0,0,682.713806
1070,745,1,1,0,14,65.764076
-1145,1164,2,0,0,0,745.650757
-866,-498,3,0,0,0,845.492920
1278,-572,4,1,0,3,99.217278
1408,1464,1,0,0,0,664.013672
-76,814,2,0,0,0,944.625122
-1964,-1621,3,1,0,13,96.474030
1111,-1043,4,1,0,3,99.217278
370,1972,1,1,0,13,96.474030
-198,1203,2,0,0,0,829.566833
-1285,-1504,3,1,0,13,96.474030
1021,-1954,4,1,0,3,99.217278
1036,635,1,0,0,0,811.327759
-892,862,2,1,0,21,53.536564
-1209,-67,3,1,0,21,53.536564
1667,-1583,4,0,0,0,606.769409
1828,1166,1,1,0,14,65.764076
-1175,1540,2,1,0,21,53.536564
-955,-1021,3,1,0,13,96.474030
1880,-8,4,0,0,0,664.090698
1440,233,1,1,0,14,65.764076
-530,57,2,1,0,21,53.536564
-81,-617,3,1,0,11,107.735924
613,-446,4,1,0,3,99.217278
387,1218,1,1,0,14,65.764076
-1497,292,2,1,0,21,53.536564
-1194,-1578,3,0,0,0,649.467773
569,-1597,4,0,0,0,693.654663
1935,1564,1,0,0,0,606.200439
-283,1070,2,0,0,0,857.392639
-177,-1491,3,1,0,11,96.959061
1351,-1117,4,1,0,3,99.217278
1724,1920,1,1,0,14,65.764076
-1100,340,2,0,0,0,846.036011
-837,-100,3,1,0,21,53.536564
850,-503,4,0,0,0,848.766296
1310,517,1,1,0,14,65.764076
-1210,378,2,1,0,21,53.536564
-1069,-1475,3,1,0,13,96.474030
1368,-1990,4,0,0,0,592.788818
858,22,1,0,0,0,911.382019
-1291,27,2,0,0,0,813.045227
-1723,-591,3,0,0,0,673.119446
226,-1709,4,0,0,0,688.877686
19,408,1,1,0,0,180.421448
-1821,677,2,1,0,21,53.536564
-408,-455,3,0,0,0,987.027161
159,-515,4,1,0,11,118.188866
1532,1338,1,0,0,0,663.615967
-484,1357,2,1,0,13,96.474030
-1574,-917,3,0,0,0,673.103882
1871,-70,4,0,0,0,665.263916
684,1048,1,1,0,14,65.764076
-509,1390,2,1,0,13,96.474030
-1241,-612,3,1,0,21,53.536564
864,-1883,4,0,0,0,636.378052
292,671,1,1,0,13,96.474030
-349,835,2,1,0,13,96.474030
-3,-1786,3,1,0,11,91.178642
1409,-1037,4,0,0,0,684.661865
1566,1679,1,0,0,0,629.061951
-1907,1466,2,0,0,0,634.820435
-1905,-1295,3,0,0,0,606.198669
1961,-1082,4,0,0,0,614.183777
131,1451,1,1,0,13,96.474030
-1595,1836,2,0,0,0,631.675659
-92,-1745,3,0,0,0,684.997009
661,-1872,4,1,0,3,99.217278
1410,349,1,0,0,0,760.053772
-564,650,2,0,0,0,929.843872
-427,-612,3,1,0,13,96.474030
1433,-567,4,1,0,3,99.217278
507,456,1,1,0,14,65.764076
-727,297,2,0,0,0,956.208496
-403,-787,3,0,0,0,880.626343
1241,-648,4,1,0,3,99.217278
575,865,1,0,0,0,856.458130
-1563,573,2,0,0,0,740.090454
-543,-1905,3,0,0,0,649.171021
160,-1212,4,1,0,11,140.072510
68,44,1,0,0,0,1592.237061
-1078,1047,2,1,0,21,53.536564
-1372,-982,3,1,0,21,53.536564
1217,-201,4,0,0,0,784.865417
1118,600,1,1,0,14,65.764076
-671,792,2,1,0,21,53.536564
-1852,-545,3,1,0,21,53.536564
1768,-544,4,0,0,0,668.719543
961,734,1,1,0,14,65.764076
-1820,1143,2,0,0,0,666.961304
-1850,-1322,3,0,0,0,609.885254
754,-685,4,1,0,3,99.217278
1834,256,1,0,0,0,690.452698
-1142,1736,2,0,0,0,676.590454
-131,-423,3,0,0,0,1079.908691
905,-300,4,1,0,3,99.217278
1375,197,1,0,0,0,772.889893
-530,417,2,1,0,21,53.536564
-24,-403,3,1,0,0,168.359695
1681,-769,4,1,0,3,99.217278
754,1179,1,0,0,0,770.738831
-1110,904,2,0,0,0,783.409668
-1305,-1501,3,0,0,0,648.006653
852,-326,4,0,0,0,871.633179
73,266,1,1,0,0,318.460999
-1860,917,2,1,0,21,53.536564
-1855,-1060,3,0,0,0,627.610596
1977,-791,4,1,0,3,99.217278
433,609,1,0,0,0,951.294250
-538,720,2,1,0,21,53.536564
-576,-92,3,0,0,0,1000.464661
1591,-1747,4,1,0,3,99.217278
259,1833,1,0,0,0,690.541138
-1346,565,2,1,0,21,53.536564
-989,-1045,3,0,0,0,740.666443
1247,-332,4,1,0,3,99.217278
261,1294,1,0,0,0,787.521179
-869,915,2,1,0,21,53.536564
-1908,-1862,3,0,0,0,564.759094
862,-1465,4,1,0,3,99.217278
991,854,1,0,0,0,790.113281
-1561,932,2,1,0,21,53.536564
-1175,-1397,3,0,0,0,672.507874
1931,-400,4,1,0,3,99.217278
1794,838,1,1,0,14,65.764076
-479,355,2,0,0,0,1035.622070
-1889,-225,3,0,0,0,660.717407
24,-935,4,0,0,0,864.444824
95,646,1,0,0,0,990.168823
-643,1406,2,0,0,0,761.310913
-1958,-563,3,1,0,21,53.536564
1937,-592,4,0,0,0,642.823730
352,1544,1,0,0,0,735.266724
-1093,1997,2,1,0,13,96.474030
-1423,-1796,3,1,0,13,96.474030
1009,-602,4,1,0,3,99.217278
1686,1029,1,1,0,14,65.764076
-1129,885,2,0,0,0,782.811646
-101,-1883,3,1,0,11,83.153908
272,-811,4,1,0,11,157.921661
1732,1899,1,0,0,0,596.968506
-453,1401,2,0,0,0,775.323425
-798,-49,3,1,0,21,53.536564
909,573,1,1,0,14,65.764076
-414,536,2,0,0,0,998.872559
-1981,-54,3,1,0,21,53.536564
1186,678,1,1,0,14,65.764076
-1739,1070,2,1,0,21,53.536564
-1866,-1493,3,1,0,13,96.474030
554,1164,1,0,0,0,794.337463
-62,87,2,1,0,0,732.359070
-1371,-910,3,0,0,0,702.192322
715,120,1,1,0,14,65.764076
-1253,216,2,0,0,0,817.488403
-1766,-71,3,1,0,21,53.536564
1830,373,1,1,0,14,65.764076
-1785,91,2,1,0,21,53.536564
-614,-1995,3,1,0,11,63.658184
1904,820,1,1,0,14,65.764076
-1878,1555,2,1,0,21,53.536564
-380,-400,3,0,0,0,1016.508545
573,375,1,0,0,0,976.440186
-1833,639,2,0,0,0,696.065491
-1466,-1631,3,1,0,13,96.474030
797,217,1,1,0,14,65.764076
-235,1488,2,1,0,13,96.474030
-950,-841,3,0,0,0,776.763672
1046,126,1,0,0,0,852.363586
-657,1422,2,0,0,0,757.550903
-470,-1978,3,1,0,11,68.246346
740,1865,1,0,0,0,667.516174
-329,366,2,1,0,21,53.536564
-995,-992,3,1,0,13,96.474030
1711,1199,1,1,0,14,65.764076
-1590,1288,2,0,0,0,680.988831
-526,-1477,3,1,0,11,79.099869
691,766,1,0,0,0,858.420471
-1090,1294,2,1,0,21,53.536564
-568,-1767,3,0,0,0,667.756348
1060,1476,1,0,0,0,695.849060
-79,21,2,0,0,0,1608.842896
-106,-1456,3,0,0,0,736.500061
73,1338,1,0,0,0,783.216125
-1583,1029,2,1,0,21,53.536564
-702,-719,3,1,0,13,96.474030
103,1303,1,0,0,0,790.363647
-653,1339,2,1,0,21,53.536564
-463,-327,3,1,0,13,96.474030
770,1217,1,1,0,14,65.764076
-1836,341,2,1,0,21,53.536564
-502,-975,3,0,0,0,818.663635
302,1475,1,0,0,0,749.758911
-1907,1603,2,1,0,21,53.536564
-763,-625,3,0,0,0,849.167603
1353,1834,1,1,0,14,65.764076
-1776,1497,2,1,0,21,53.536564
-1683,-1539,3,0,0,0,609.040649
264,566,1,0,0,0,1002.990051
-1296,1171,2,1,0,21,53.536564
-1287,-1539,3,0,0,0,645.544983
314,611,1,0,0,0,975.532349
-1553,1995,2,1,0,21,53.536564
-1560,-1071,3,1,0,21,53.536564
1756,1224,1,1,0,14,65.764076
-1289,75,2,1,0,21,53.536564
-1401,-1281,3,1,0,13,96.474030
1182,1455,1,1,0,14,65.764076
-668,1741,2,0,0,0,707.567017
-1120,-1709,3,0,0,0,640.320984
845,47,1,1,0,14,65.764076
-1421,1858,2,1,0,21,53.536564
-840,-1452,3,0,0,0,696.687500
1920,1069,1,1,0,14,65.764076
-513,167,2,0,0,0,1064.442627
-110,-1519,3,1,0,11,99.645920
1012,1744,1,0,0,0,666.108826
-701,486,2,1,0,21,53.536564
-619,-358,3,1,0,21,53.536564
1152,1163,1,1,0,14,65.764076
-630,769,2,0,0,0,888.299805
-1727,-1656,3,1,0,13,96.474030
97,303,1,0,0,0,1197.507935
-879,779,2,1,0,21,53.536564
-33,-1020,3,0,0,0,839.351685
1623,1711,1,1,0,14,65.764076
-1307,196,2,1,0,21,53.536564
-1562,-190,3,0,0,0,715.008179
1757,527,1,0,0,0,693.161438
-1485,1813,2,0,0,0,642.244080
-835,-137,3,1,0,21,53.536564
543,1093,1,0,0,0,810.069946
-1008,1151,2,1,0,21,53.536564
-1410,-504,3,0,0,0,729.224121
1583,1481,1,1,0,14,65.764076
-1446,326,2,1,0,21,53.536564
-153,-28,3,1,0,0,531.047119
841,902,1,1,0,14,65.764076
-1898,1976,2,1,0,21,53.536564
-1664,-1355,3,1,0,13,96.474030
747,1786,1,0,0,0,677.742615
-320,1365,2,1,0,13,96.474030
-5,-1263,3,0,0,0,778.070984
-487,919,2,0,0,0,875.291138
-1723,-1257,3,1,0,13,96.474030
-855,55,2,0,0,0,931.122742
-61,-862,3,0,0,0,887.222229
-533,1546,2,1,0,13,96.474030
-1151,-13,3,1,0,21,53.536564
-1766,1420,2,0,0,0,651.831909
-1235,-9,3,0,0,0,784.505554
-1530,1931,2,1,0,21,53.536564
-1231,-168,3,1,0,21,53.536564
-708,1433,2,0,0,0,751.761475
-32,-1010,3,1,0,11,122.887825
-16,1399,2,0,0,0,789.997681
-1629,-1375,3,0,0,0,628.247314
-1885,65,2,1,0,21,53.536564
-1193,-1903,3,0,0,0,613.380249
-532,652,2,1,0,21,53.536564
-540,-629,3,1,0,13,96.474030
-644,312,2,0,0,0,983.004822
-1880,-79,3,0,0,0,663.841248
-872,-1848,3,1,0,11,59.304409
-212,-641,3,1,0,11,99.534012


each generation good chromosome number
0,1,1,1,1,1,1,1,1,1,1,1,1,1,1,1,1,1,1,1,1,1,1,1,1,1,1,1,1,1,1,1,1,1,1,1,1,1,1,1,1,1,1,1,1,1,1,1,1,1,1,1,1,1,1,1,1,1,1,1,1,1,3,5,7,9,11,13,17,19,20,20,19,19,20,20,22,23,24,22,23,25,27,26,28,29,28,28,28,27,27,30,31,32,33,32,31,31,30,29,