each times' max average throughput
632.114563,635.305603,627.994019,638.120667,634.151001,636.077026,636.116028,635.194092,637.485535,635.273987,634.182861,634.518127,597.696960,0.000000,0.000000,0.000000,631.113647,633.250122,639.200623,632.294556,625.041931,637.954712,631.627075,634.562317,633.403503,627.779053,632.265564,635.279114,633.891113,631.619995,634.341431,632.805237,638.175598,625.685181,629.140076,634.244507,629.244629,631.094849,632.139771,636.909424,630.356873,629.343140,639.003845,633.924561,634.728027,638.359863,635.208740,633.096680,637.455627,630.864441,631.516724,631.906006,634.460205,632.330872,635.447632,637.258179,630.029297,630.731628,637.022278,636.973938,634.719177,638.185669,631.435791,633.805908,631.941467,628.043640,628.247498,632.065674,635.943970,632.703430,0.000000,0.000000,626.401611,637.156067,635.331848,636.520935,640.089355,633.969116,634.079712,623.746704,634.964905,635.850342,632.571533,632.995789,633.333618,634.275085,0.000000,0.000000,0.000000,630.346008,632.258545,633.569214,634.653625,633.721252,634.393616,629.311279,632.500488,637.777954,634.836914,630.849609,
avg. throughput in all test times
582.399170
avg. BS TX power in all test times
MBS area 1,MBS area 2,MBS area 3,MBS area 4,CBSD 1,CBSD 2,CBSD 3,CBSD 4,CBSD 5,CBSD 6,CBSD 7,CBSD 8,CBSD 9,CBSD 10,CBSD 11,CBSD 12,CBSD 13,CBSD 14,CBSD 15,CBSD 16,CBSD 17,CBSD 18,CBSD 19,CBSD 20,CBSD 21,CBSD 22,CBSD 23,CBSD 24,CBSD 25,
9.525,9.500,9.363,9.350,0.116,0.117,0.111,0.190,0.177,0.160,0.169,0.156,0.085,0.099,0.112,0.129,0.161,0.153,0.161,0.090,0.044,0.164,0.105,0.139,0.095,0.203,0.115,0.186,0.166,
avg. mbs all power,avg. cbsd enable number,avg. mbs area all power,avg. cbsd all power
71.338,4.000,37.737,3.404
avg. max avg. throughput generation number in all test times
73.169998
avg. number of relay UE
266

the max average throughput times

BS TX power
MBS area 1,MBS area 2,MBS area 3,MBS area 4,CBSD 1,CBSD 2,CBSD 3,CBSD 4,CBSD 5,CBSD 6,CBSD 7,CBSD 8,CBSD 9,CBSD 10,CBSD 11,CBSD 12,CBSD 13,CBSD 14,CBSD 15,CBSD 16,CBSD 17,CBSD 18,CBSD 19,CBSD 20,CBSD 21,CBSD 22,CBSD 23,CBSD 24,CBSD 25,
8.750,10.000,8.750,10.000,0.000,0.875,0.000,0.750,0.000,0.000,0.000,0.000,0.000,0.000,0.000,0.000,0.000,0.000,0.000,1.000,0.000,0.000,0.000,0.000,0.000,0.500,0.000,0.000,0.500,
max average throughput
630.849609

x,y,area,be blocked (1 : NLOS / 0 : LOS),be blocked number (>=1 : CBSD(x) / 0 : no),connect bs number (>=1 : CBSD / 0 : MBS),throughput (unit : M bps)
967,478,1,0,0,0,845.581116
-1620,1398,2,1,0,25,102.760651
-267,-1127,3,0,0,0,825.124390
1424,-1999,4,0,0,0,629.078247
796,1416,1,0,0,0,727.976135
-218,1657,2,0,0,0,738.962830
-1422,-1886,3,1,0,4,116.984047
1307,-524,4,0,0,0,788.147827
555,44,1,1,0,2,105.900604
-388,1929,2,0,0,0,692.192688
-1336,-941,3,1,0,16,121.088692
1806,-1823,4,0,0,0,616.399231
144,1821,1,0,0,0,694.357239
-1686,1043,2,0,0,0,690.033997
-1175,-1974,3,0,0,0,628.902832
634,-823,4,1,0,4,116.984047
877,315,1,0,0,0,887.697693
-636,609,2,0,0,0,923.233459
-446,-1594,3,0,0,0,722.588501
168,-171,4,0,0,0,1298.425415
1718,1555,1,0,0,0,626.435120
-1422,1335,2,0,0,0,694.700928
-483,-712,3,1,0,4,116.984047
81,-1387,4,1,0,4,116.984047
867,556,1,0,0,0,858.882507
-1688,642,2,1,0,16,121.088692
-80,-133,3,0,0,0,1404.582642
752,-1073,4,1,0,4,116.984047
432,1324,1,1,0,2,137.994278
-1751,1954,2,1,0,16,121.088692
-1615,-948,3,0,0,0,687.241760
977,-567,4,1,0,4,116.984047
1079,832,1,0,0,0,778.425964
-1661,450,2,0,0,0,730.576233
-1001,-1055,3,0,0,0,759.705566
363,-861,4,0,0,0,906.140564
1646,213,1,0,0,0,721.809387
-1962,927,2,0,0,0,664.207092
-1348,-230,3,0,0,0,777.382507
1855,-687,4,0,0,0,690.670593
978,539,1,0,0,0,835.620117
-76,782,2,0,0,0,956.077148
-740,-1088,3,1,0,4,116.984047
590,-137,4,0,0,0,1031.070435
955,641,1,1,0,2,165.944443
-1685,141,2,1,0,16,121.088692
-1156,-382,3,1,0,16,121.088692
132,-799,4,0,0,0,947.355164
1001,447,1,0,0,0,840.929993
-273,1312,2,0,0,0,802.377197
-1523,-1531,3,0,0,0,646.526917
1093,-416,4,0,0,0,841.537781
1292,387,1,0,0,0,781.351440
-1910,314,2,1,0,16,121.088692
-1844,-1136,3,0,0,0,645.693054
452,-1954,4,0,0,0,686.725159
418,243,1,0,0,0,1076.790649
-1170,722,2,0,0,0,795.022217
-101,-1807,3,0,0,0,697.012085
1056,-1640,4,0,0,0,694.685059
1590,556,1,0,0,0,717.578552
-1565,1344,2,1,0,25,109.708710
-1181,-1557,3,1,0,4,116.984047
662,-1946,4,0,0,0,679.693054
272,1735,1,1,0,2,100.414040
-1319,438,2,0,0,0,791.907776
-676,-857,3,0,0,0,842.178345
879,-140,4,0,0,0,920.134521
1510,1734,1,0,0,0,628.645142
-195,812,2,1,0,16,121.088692
-1311,-1758,3,0,0,0,642.136658
1315,-1116,4,1,0,4,116.984047
846,276,1,0,0,0,900.968567
-1027,817,2,1,0,25,191.986511
-197,-1410,3,0,0,0,765.813904
823,-717,4,0,0,0,861.391235
630,1908,1,0,0,0,667.107361
-806,1450,2,0,0,0,741.085449
-977,-1403,3,0,0,0,713.315308
1584,-1678,4,0,0,0,646.659973
211,1530,1,0,0,0,742.443726
-329,435,2,0,0,0,1061.302979
-1720,-735,3,1,0,16,121.088692
884,-792,4,0,0,0,837.287781
1204,1885,1,0,0,0,636.512024
-1564,78,2,0,0,0,757.641663
-986,-716,3,0,0,0,810.518921
1011,-1912,4,0,0,0,665.147522
1143,1558,1,0,0,0,678.277283
-1094,161,2,0,0,0,857.655029
-1851,-273,3,0,0,0,687.494812
1102,-806,4,0,0,0,797.023499
1469,194,1,0,0,0,754.340149
-573,298,2,0,0,0,1012.561584
-654,-206,3,0,0,0,976.072388
1129,-1400,4,0,0,0,717.928650
303,1231,1,0,0,0,799.141663
-642,1836,2,0,0,0,695.502563
-1122,-1433,3,0,0,0,695.407837
1786,-497,4,0,0,0,709.244751
1390,898,1,0,0,0,722.653687
-1200,1186,2,0,0,0,736.246155
-1863,-67,3,1,0,16,121.088692
1841,-755,4,0,0,0,688.987244
1646,1334,1,1,0,2,97.446976
-330,483,2,0,0,0,1041.109741
-128,-1354,3,1,0,4,116.984047
1200,-980,4,0,0,0,760.704773
1000,509,1,0,0,0,834.234009
-394,156,2,0,0,0,1134.082642
-102,-869,3,0,0,0,905.837219
68,-1898,4,1,0,4,116.984047
943,1767,1,1,0,2,104.872330
-931,1464,2,1,0,25,104.207840
-869,-1109,3,0,0,0,768.810303
1448,-116,4,1,0,22,110.921303
1642,1199,1,0,0,0,663.736877
-1985,665,2,0,0,0,674.468201
-1852,-1757,3,1,0,16,121.088692
513,-1098,4,0,0,0,831.283752
1966,640,1,0,0,0,658.947571
-1536,1428,2,1,0,25,104.496895
-218,-1110,3,0,0,0,831.906311
866,-594,4,0,0,0,872.515564
522,632,1,0,0,0,924.630127
-1340,1310,2,0,0,0,706.157532
-1728,-1981,3,1,0,16,121.088692
389,-1110,4,0,0,0,839.894470
587,1784,1,0,0,0,686.416321
-77,758,2,0,0,0,964.934998
-1044,-622,3,0,0,0,811.298462
601,-214,4,0,0,0,1016.107422
1305,302,1,1,0,22,184.824417
-269,1057,2,1,0,16,121.088692
-115,-841,3,1,0,4,116.984047
1057,-1650,4,1,0,4,116.984047
504,153,1,0,0,0,1052.107300
-642,866,2,0,0,0,864.974243
-1496,-648,3,0,0,0,726.934387
1928,-668,4,0,0,0,681.798218
918,1885,1,0,0,0,654.957031
-541,269,2,0,0,0,1031.789917
-1924,-1283,3,0,0,0,627.010986
952,-1638,4,0,0,0,703.026306
31,1655,1,0,0,0,722.576172
-592,1357,2,0,0,0,773.749084
-1868,-981,3,0,0,0,653.155579
632,-571,4,0,0,0,932.817200
1989,397,1,0,0,0,664.430664
-891,1328,2,0,0,0,751.609192
-1638,-592,3,0,0,0,707.997437
80,-624,4,1,0,4,116.984047
782,998,1,0,0,0,799.109619
-351,279,2,0,0,0,1117.795654
-457,-674,3,0,0,0,926.525330
1852,-1123,4,0,0,0,664.746033
1575,1698,1,0,0,0,626.586731
-1064,632,2,0,0,0,825.267883
-297,-290,3,0,0,0,1120.780029
1266,-455,4,0,0,0,801.268616
1181,72,1,0,0,0,818.983887
-122,109,2,0,0,0,1408.649658
-748,-132,3,0,0,0,946.583740
840,-346,4,1,0,4,116.984047
413,734,1,0,0,0,916.825134
-35,1551,2,1,0,2,96.987831
-796,-1129,3,0,0,0,774.474548
1385,-575,4,0,0,0,770.066895
454,206,1,0,0,0,1067.951904
-1975,936,2,0,0,0,662.160828
-697,-810,3,0,0,0,848.285095
1864,-95,4,0,0,0,707.311157
1914,894,1,0,0,0,652.808350
-221,319,2,1,0,0,211.132614
-793,-1492,3,0,0,0,716.688843
109,-1102,4,0,0,0,857.240479
1504,427,1,0,0,0,738.944153
-1272,1741,2,0,0,0,666.029785
-1514,-13,3,1,0,16,121.088692
926,-1569,4,1,0,4,116.984047
920,1273,1,1,0,2,152.836411
-348,667,2,0,0,0,968.580078
-1743,-432,3,1,0,16,121.088692
1645,-404,4,1,0,22,83.980659
1037,1543,1,0,0,0,689.325256
-145,514,2,1,0,16,121.088692
-325,-368,3,0,0,0,1072.371338
1839,-1833,4,0,0,0,613.051025
1204,1999,1,0,0,0,624.432129
-1434,1243,2,0,0,0,702.546204
-474,-1546,3,0,0,0,729.279297
1937,-1751,4,0,0,0,611.453735
112,595,1,0,0,0,1011.939941
-1831,1929,2,1,0,16,121.088692
-1839,-1775,3,0,0,0,598.556335
1329,-203,4,0,0,0,801.453918
1150,1294,1,0,0,0,709.734619
-1318,1288,2,0,0,0,710.952332
-843,-1911,3,1,0,4,116.984047
1806,-1085,4,0,0,0,672.640442
412,106,1,1,0,0,168.067642
-617,1075,2,0,0,0,824.818237
-207,-1433,3,0,0,0,760.979370
925,-505,4,0,0,0,871.493835
368,446,1,1,0,2,130.869446
-1087,1858,2,1,0,25,79.727036
-997,-1548,3,1,0,4,116.984047
389,-1360,4,0,0,0,786.842590
225,1913,1,1,0,2,89.926270
-1129,1617,2,0,0,0,691.538452
-87,-38,3,0,0,0,1546.406860
1677,-411,4,0,0,0,729.619507
726,1939,1,0,0,0,658.546021
-1669,624,2,0,0,0,720.598022
-477,-569,3,1,0,4,116.984047
388,-128,4,0,0,0,1144.612305
1026,1224,1,0,0,0,732.828552
-1117,940,2,0,0,0,777.776611
-221,-56,3,0,0,0,1293.642578
1209,-1499,4,1,0,4,116.984047
244,1245,1,0,0,0,798.928101
-288,435,2,0,0,0,1074.117310
-1014,-410,3,0,0,0,841.591553
1423,-598,4,0,0,0,761.777161
1057,771,1,0,0,0,790.088806
-75,1257,2,0,0,0,820.271240
-756,-753,3,0,0,0,848.709412
35,-1724,4,0,0,0,729.997498
1244,1351,1,1,0,2,121.984291
-1967,418,2,1,0,16,121.088692
-608,-893,3,0,0,0,845.144165
619,-1040,4,0,0,0,831.677124
1482,61,1,0,0,0,754.049744
-288,875,2,1,0,16,121.088692
-758,-1180,3,1,0,4,116.984047
1125,-260,4,0,0,0,845.210876
1428,1657,1,0,0,0,642.863586
-967,850,2,1,0,25,172.609360
-28,-1936,3,1,0,4,116.984047
1175,-946,4,0,0,0,768.372986
393,1066,1,0,0,0,830.655151
-1562,1175,2,0,0,0,694.094543
-404,-902,3,0,0,0,870.755066
1614,-1885,4,0,0,0,625.934570
1141,396,1,1,0,22,252.548920
-1894,1093,2,0,0,0,662.006836
-179,-1624,3,0,0,0,726.315735
597,-1287,4,0,0,0,785.993896
1114,917,1,0,0,0,761.972351
-1416,1723,2,0,0,0,656.389038
-466,-826,3,0,0,0,882.635498
336,-48,4,0,0,0,1198.104980
1247,1287,1,1,0,2,125.654068
-1931,1457,2,0,0,0,633.208862
-1665,-289,3,0,0,0,716.647034
1480,-434,4,0,0,0,762.004883
829,32,1,0,0,0,921.165771
-995,1074,2,0,0,0,776.956177
-1898,-947,3,0,0,0,651.643188
274,-955,4,0,0,0,888.469055
820,23,1,1,0,22,118.050056
-956,821,2,0,0,0,820.062622
-1589,-671,3,0,0,0,710.778992
152,-570,4,0,0,0,1038.680542
186,1538,1,0,0,0,741.567688
-1826,640,2,0,0,0,696.992737
-1270,-627,3,0,0,0,767.300354
1908,-391,4,0,0,0,695.113953
180,1941,1,0,0,0,675.769836
-1008,1997,2,0,0,0,655.522461
-1097,-1314,3,0,0,0,712.969604
753,-1354,4,0,0,0,760.709351
1061,1348,1,1,0,2,134.825546
-11,897,2,0,0,0,917.881958
-1457,-551,3,0,0,0,739.997986
1060,-1522,4,0,0,0,709.108154
790,1451,1,0,0,0,723.125488
-433,1938,2,0,0,0,689.565552
-1178,-1342,3,0,0,0,700.856201
1932,-1084,4,0,0,0,658.299011
982,751,1,0,0,0,806.370972
-1920,270,2,0,0,0,696.404114
-252,-485,3,0,0,0,1041.440796
831,-853,4,0,0,0,836.326111
152,425,1,0,0,0,1096.625854
-96,1957,2,0,0,0,693.399780
-391,-1953,3,0,0,0,669.615845
811,-1747,4,1,0,4,116.984047
1973,1491,1,1,0,2,78.818283
-1006,1678,2,0,0,0,693.823059
-359,-1840,3,0,0,0,686.933960
1364,-1990,4,0,0,0,633.966309
1826,1893,1,0,0,0,590.425232
-626,1694,2,1,0,16,121.088692
-1702,-1297,3,0,0,0,649.134949
275,-371,4,0,0,0,1109.283813
95,1017,1,0,0,0,861.277710
-1139,209,2,0,0,0,844.374146
-1717,-474,3,0,0,0,701.571167
1476,-1959,4,1,0,4,116.984047
1100,1443,1,0,0,0,696.279968
-1967,1556,2,0,0,0,622.915405
-878,-997,3,0,0,0,785.691589
396,-1888,4,1,0,4,116.984047
667,1321,1,0,0,0,754.710999
-1690,1503,2,1,0,25,92.792656
-1732,-515,3,1,0,16,121.088692
691,-1741,4,0,0,0,706.285583
496,995,1,1,0,2,181.850281
-386,115,2,1,0,0,198.934402
-398,-217,3,0,0,0,1095.382568
75,-1431,4,1,0,4,116.984047
862,1359,1,0,0,0,730.649292
-619,1304,2,0,0,0,781.028259
-1238,-176,3,1,0,16,121.088692
1947,-570,4,0,0,0,683.446106
1594,1465,1,1,0,2,96.275284
-469,1530,2,0,0,0,751.418884
-1789,-1671,3,1,0,16,121.088692
612,-1065,4,1,0,4,116.984047
1343,525,1,0,0,0,762.152344
-938,1628,2,0,0,0,705.403931
-1822,-1565,3,0,0,0,616.224548
35,-632,4,0,0,0,1018.373535
295,809,1,0,0,0,910.435364
-1682,194,2,1,0,16,121.088692
-1705,-1632,3,0,0,0,621.205811
80,-1941,4,0,0,0,695.850281
1512,35,1,1,0,22,121.151115
-866,21,2,0,0,0,927.950134
-63,-944,3,1,0,4,116.984047
1736,-257,4,0,0,0,724.960388
1521,1620,1,0,0,0,638.375916
-702,1916,2,0,0,0,681.782898
-361,-47,3,0,0,0,1158.633789
153,-1830,4,0,0,0,711.958069
1218,1361,1,1,0,2,123.127403
-1508,544,2,1,0,16,121.088692
-1393,-864,3,1,0,16,121.088692
1356,-1202,4,0,0,0,715.778992
1368,1732,1,1,0,2,95.184425
-868,1486,2,0,0,0,730.566650
-1165,-675,3,0,0,0,781.840454
1827,-1140,4,1,0,4,116.984047
1625,1605,1,0,0,0,630.549255
-270,1351,2,0,0,0,794.421753
-1848,-319,3,0,0,0,686.836975
1969,-499,4,0,0,0,683.090149
692,1434,1,0,0,0,733.709839
-852,526,2,0,0,0,886.229065
-480,-1243,3,0,0,0,784.834900
534,-106,4,0,0,0,1061.824463
1505,195,1,1,0,22,136.959106
-417,1410,2,1,0,16,121.088692
-1925,-1730,3,1,0,16,121.088692
46,-1022,4,0,0,0,880.043213
1635,1980,1,0,0,0,597.235352
-1875,1351,2,0,0,0,646.229492
-1639,-895,3,1,0,16,121.088692
451,-1260,4,0,0,0,802.767761
1793,1001,1,1,0,2,94.286781
-1846,1334,2,1,0,25,93.894386
-248,-1325,3,1,0,4,116.984047
1020,-590,4,0,0,0,839.367371
39,965,1,1,0,2,119.476753
-71,564,2,0,0,0,1049.368652
-1600,-50,3,0,0,0,732.175476
823,-1650,4,0,0,0,710.793823
1237,583,1,0,0,0,777.378479
-1188,1545,2,1,0,25,101.851242
-886,-1497,3,0,0,0,708.352173
1981,-705,4,0,0,0,673.204041
1198,826,1,0,0,0,759.539124
-1328,1543,2,1,0,25,101.079414
-29,-1690,3,0,0,0,716.587158
967,-946,4,1,0,4,116.984047
1505,1941,1,0,0,0,609.870972
-1441,1065,2,0,0,0,718.992798
-1315,-938,3,0,0,0,729.593567
68,-483,4,0,0,0,1093.513550
100,186,1,0,0,0,1315.735840
-1863,1730,2,1,0,16,121.088692
-1673,-1835,3,1,0,16,121.088692
457,-258,4,1,0,0,122.825470
1409,1955,1,0,0,0,615.280945
-615,1354,2,0,0,0,772.468872
-114,-1450,3,0,0,0,759.673523
761,-1215,4,1,0,4,116.984047
1883,608,1,0,0,0,671.491699
-251,617,2,0,0,0,1003.665344
-546,-780,3,0,0,0,881.506104
1941,-1430,4,0,0,0,634.167542
460,929,1,0,0,0,857.020569
-549,1687,2,0,0,0,721.847656
-1407,-923,3,0,0,0,717.864685
1320,-1074,4,0,0,0,733.784912
765,1991,1,0,0,0,650.063538
-1996,107,2,0,0,0,687.686829
-652,-618,3,1,0,4,116.984047
558,-1426,4,0,0,0,764.066284
619,637,1,1,0,2,175.489197
-1303,597,2,0,0,0,783.066528
-568,-822,3,0,0,0,867.623535
524,-1420,4,0,0,0,767.402222
1982,859,1,0,0,0,646.444214
-1994,1762,2,1,0,16,121.088692
-401,-661,3,0,0,0,941.482727
1631,-745,4,1,0,22,67.931870
137,508,1,0,0,0,1052.415283
-951,223,2,0,0,0,893.359924
-114,-965,3,0,0,0,875.640320
90,-1959,4,0,0,0,693.149658
1582,1981,1,0,0,0,600.867920
-941,1119,2,0,0,0,777.349243
-1444,-1708,3,1,0,16,121.088692
1562,-1691,4,0,0,0,647.342590
44,911,1,1,0,2,120.183670
-1703,1185,2,1,0,25,111.395897
-109,-991,3,0,0,0,868.251282
640,-1498,4,1,0,4,116.984047
1615,1036,1,1,0,2,105.216362
-1782,810,2,0,0,0,693.677246
-812,-133,3,1,0,16,121.088692
1616,-493,4,0,0,0,735.848145
704,384,1,0,0,0,930.948181
-666,944,2,0,0,0,845.052673
-407,-584,3,1,0,4,116.984047
1362,-275,4,0,0,0,791.977478
1710,1685,1,0,0,0,616.362488
-1235,1797,2,0,0,0,662.828674
-1052,-390,3,0,0,0,834.265564
1303,-659,4,0,0,0,777.722595
188,127,1,1,0,0,395.814697
-978,1712,2,0,0,0,691.608337
-1333,-212,3,0,0,0,781.130676
1596,-252,4,0,0,0,748.652222
78,414,1,1,0,0,170.988571
-1500,1825,2,0,0,0,639.966858
-139,-630,3,0,0,0,993.631042
1561,-1612,4,0,0,0,654.635315
109,1913,1,0,0,0,680.685425
-1832,839,2,0,0,0,685.389954
-1412,-864,3,1,0,16,121.088692
1263,-955,4,0,0,0,754.457886
795,327,1,0,0,0,910.931702
-1581,1861,2,0,0,0,630.525513
-992,-1503,3,0,0,0,698.433655
1905,-1652,4,0,0,0,621.387085
1736,1594,1,1,0,2,85.935127
-673,898,2,0,0,0,853.414062
-138,-1676,3,1,0,4,116.984047
990,-800,4,1,0,4,116.984047
1748,25,1,1,0,22,103.200928
-460,306,2,1,0,16,121.088692
-1079,-24,3,0,0,0,845.427490
1460,-1642,4,0,0,0,660.643188
1615,442,1,0,0,0,719.287842
-1528,678,2,0,0,0,738.896301
-100,-1263,3,0,0,0,799.320679
1114,-764,4,0,0,0,800.089417
132,955,1,0,0,0,877.909973
-577,138,2,0,0,0,1037.045776
-642,-1526,3,0,0,0,722.531616
1951,-1934,4,0,0,0,597.024597
745,378,1,1,0,2,138.239426
-516,269,2,0,0,0,1042.622803
-156,-18,3,1,0,0,548.719482
700,-1477,4,0,0,0,745.349365
1706,1670,1,0,0,0,617.951050
-39,415,2,1,0,0,187.968842
-571,-1804,3,0,0,0,684.273926
732,-1842,4,0,0,0,690.094299
1897,785,1,1,0,22,96.476135
-78,1685,2,0,0,0,736.310852
-1487,-804,3,0,0,0,716.554688
1713,-601,4,1,0,22,72.596443
1856,400,1,0,0,0,683.307434
-941,115,2,1,0,16,121.088692
-917,-1132,3,1,0,4,116.984047
811,-750,4,0,0,0,857.953796
879,563,1,0,0,0,855.030212
-972,66,2,0,0,0,894.114929
-1888,-211,3,0,0,0,683.135864
1543,-867,4,0,0,0,722.524597
351,550,1,0,0,0,990.385315
-1643,1499,2,1,0,25,94.999481
-1147,-249,3,1,0,16,121.088692
710,-1782,4,0,0,0,699.470398
24,1211,1,0,0,0,812.248230
-1762,393,2,0,0,0,716.849670
-854,-619,3,0,0,0,852.041870
1816,-1121,4,0,0,0,668.965820
1518,87,1,0,0,0,746.934998
-635,1376,2,0,0,0,767.050171
-429,-1610,3,0,0,0,720.697693
31,-1079,4,0,0,0,864.592957
1694,1582,1,0,0,0,626.360596
-1585,230,2,0,0,0,751.180237
-147,-1991,3,0,0,0,668.947693
1998,-1869,4,0,0,0,598.187866
272,414,1,0,0,0,1069.803955
-821,458,2,1,0,16,121.088692
-332,-278,3,0,0,0,1108.589966
413,-988,4,0,0,0,866.894836
295,231,1,0,0,0,1150.328491
-1657,626,2,0,0,0,722.296753
-668,-286,3,1,0,16,121.088692
1163,-1416,4,1,0,4,116.984047
1089,1481,1,0,0,0,692.546143
-779,672,2,0,0,0,878.426086
-217,-317,3,1,0,0,199.839233
980,-1066,4,1,0,4,116.984047
173,1229,1,0,0,0,805.242798
-999,911,2,0,0,0,799.835144
-970,-1203,3,0,0,0,742.282227
354,-566,4,0,0,0,1003.023010
195,872,1,0,0,0,899.788513
-147,999,2,0,0,0,883.804321
-203,-998,3,0,0,0,862.121582
816,-1497,4,0,0,0,733.241882
1076,1011,1,0,0,0,755.369934
-358,928,2,1,0,16,121.088692
-1082,-352,3,1,0,16,121.088692
700,-1485,4,1,0,4,116.984047
654,179,1,1,0,2,117.546631
-1988,312,2,1,0,16,121.088692
-1516,-1685,3,1,0,16,121.088692
1505,-1970,4,0,0,0,626.219238
664,1191,1,0,0,0,778.200928
-1075,1289,2,0,0,0,737.737183
-957,-67,3,0,0,0,879.327820
779,-464,4,0,0,0,914.799927
1383,1254,1,0,0,0,688.130554
-583,1890,2,0,0,0,690.707275
-1239,-1370,3,0,0,0,691.166504
702,-1345,4,0,0,0,766.723816
783,449,1,0,0,0,896.881958
-1186,1957,2,1,0,25,74.686729
-1093,-739,3,1,0,16,121.088692
1195,-1625,4,1,0,4,116.984047
386,473,1,0,0,0,1009.539490
-1705,1107,2,0,0,0,682.864807
-405,-1026,3,0,0,0,839.158630
766,-108,4,0,0,0,960.552673
602,557,1,0,0,0,924.470459
-1684,1422,2,0,0,0,659.753235
-342,-1230,3,0,0,0,797.126709
333,-1572,4,1,0,4,116.984047
1918,87,1,0,0,0,680.108459
-736,1965,2,0,0,0,673.802124
-507,-1687,3,0,0,0,704.753479
1469,-1147,4,0,0,0,707.720947
116,994,1,0,0,0,867.165161
-859,1289,2,0,0,0,760.764526
-252,-1717,3,0,0,0,709.035950
743,-1919,4,0,0,0,679.373840
317,1456,1,0,0,0,752.726624
-1170,895,2,1,0,25,240.310699
-1518,-251,3,1,0,16,121.088692
359,-536,4,0,0,0,1012.892334
241,1990,1,1,0,2,86.692268
-1947,1772,2,0,0,0,609.120056
-412,-293,3,0,0,0,1063.924438
564,-303,4,0,0,0,1015.081116
696,198,1,0,0,0,960.552185
-254,726,2,0,0,0,962.206055
-722,-1719,3,0,0,0,688.498718
1625,-1290,4,0,0,0,677.026184
1001,1813,1,0,0,0,658.473816
-1800,1811,2,0,0,0,617.815796
-1587,-1124,3,1,0,16,121.088692
887,-1436,4,0,0,0,736.131775
227,1366,1,1,0,2,120.456505
-705,1339,2,0,0,0,767.466797
-1753,-770,3,0,0,0,680.901184
73,-1303,4,0,0,0,809.997742
1857,992,1,0,0,0,653.774597
-482,1313,2,0,0,0,790.083008
-1828,-68,3,0,0,0,693.953552
1962,-1747,4,0,0,0,609.723389
584,1192,1,0,0,0,785.933838
-952,1705,2,0,0,0,694.362000
-820,-251,3,0,0,0,911.625854
1944,-166,4,1,0,22,83.427147
1634,1369,1,0,0,0,650.226196
-1946,1906,2,1,0,16,121.088692
-1470,-1174,3,0,0,0,685.932434
970,-1351,4,0,0,0,740.359558
1569,286,1,0,0,0,733.239075
-1734,649,2,0,0,0,709.613831
-1320,-626,3,1,0,16,121.088692
1368,-38,4,0,0,0,796.344666
1526,1637,1,0,0,0,636.352295
-858,345,2,0,0,0,909.123596
-787,-1400,3,0,0,0,731.234802
1247,-1302,4,0,0,0,717.240479
1797,199,1,0,0,0,697.302490
-1526,938,2,0,0,0,719.090454
-592,-535,3,0,0,0,932.385193
1493,-480,4,1,0,22,83.435959
1407,1769,1,0,0,0,633.519531
-1557,697,2,0,0,0,733.084473
-1113,-1769,3,0,0,0,655.862976
1167,-909,4,0,0,0,773.994263
1153,1147,1,0,0,0,727.631897
-1867,751,2,0,0,0,685.758789
-1118,-589,3,0,0,0,800.067932
1843,-802,4,0,0,0,686.106506
1226,1899,1,0,0,0,633.511963
-298,495,2,0,0,0,1044.675659
-1093,-59,3,1,0,16,121.088692
393,-191,4,0,0,0,1125.237915
452,1070,1,0,0,0,824.292053
-836,574,2,0,0,0,882.572510
-781,-1860,3,0,0,0,665.972595
855,-1426,4,0,0,0,740.442688
1219,41,1,1,0,22,137.301666
-257,674,2,0,0,0,980.703064
-1791,-1962,3,0,0,0,587.595642
1624,-1906,4,0,0,0,623.369019
687,1924,1,0,0,0,662.362305
-1895,308,2,0,0,0,699.226746
-1878,-1492,3,0,0,0,616.618896
434,-1711,4,0,0,0,723.288879
936,1523,1,0,0,0,700.543396
-224,998,2,0,0,0,880.101135
-1153,-1005,3,0,0,0,745.236206
449,-1071,4,0,0,0,843.556885
1889,1986,1,0,0,0,578.732483
-355,1537,2,0,0,0,755.537842
-905,-703,3,0,0,0,828.177856
600,-1792,4,0,0,0,703.749390
60,1675,1,0,0,0,719.000122
-1805,1480,2,0,0,0,643.384888
-483,-1316,3,0,0,0,770.256531
1725,-1528,4,1,0,4,116.984047
731,876,1,0,0,0,829.442505
-1608,1442,2,0,0,0,665.539978
-407,-1110,3,0,0,0,819.209656
1013,-623,4,0,0,0,836.719238
1440,765,1,0,0,0,726.885559
-1444,1843,2,0,0,0,642.514587
-829,-28,3,0,0,0,921.216125
535,-852,4,0,0,0,884.864441
1731,1626,1,1,0,2,85.218437
-441,1406,2,0,0,0,775.104736
-1288,-523,3,0,0,0,772.663879
1692,-337,4,1,0,22,86.089294
195,1869,1,0,0,0,686.255798
-1939,1954,2,0,0,0,596.441040
-1893,-1962,3,1,0,16,121.088692
929,-1310,4,0,0,0,750.398376
1310,1076,1,0,0,0,715.740234
-928,3,2,1,0,16,121.088692
-1214,-1520,3,0,0,0,676.361206
497,-461,4,0,0,0,998.609497
532,939,1,0,0,0,845.436340
-1291,715,2,0,0,0,774.669556
-8,-1628,3,0,0,0,727.337769
1692,-769,4,0,0,0,708.520691
1866,732,1,0,0,0,667.802002
-1592,1109,2,0,0,0,696.212280
-491,-919,3,0,0,0,855.554993
1063,-1189,4,1,0,4,116.984047
1436,1191,1,1,0,2,115.164742
-1057,770,2,0,0,0,809.407104
-718,-950,3,1,0,4,116.984047
624,-85,4,0,0,0,1019.837158
1759,149,1,0,0,0,704.142761
-1905,948,2,0,0,0,669.807922
-38,-238,3,0,0,0,1277.608032
980,-299,4,0,0,0,879.603699
1580,1537,1,0,0,0,640.677368
-405,1770,2,1,0,16,121.088692
-868,-759,3,0,0,0,826.407166
1046,-41,4,0,0,0,873.431396
281,183,1,1,0,0,246.040146
-1667,1623,2,1,0,25,86.732841
-1624,-434,3,0,0,0,718.160706
1098,-1932,4,0,0,0,657.413208
1447,333,1,0,0,0,753.746521
-228,830,2,0,0,0,929.787720
-753,-779,3,0,0,0,844.316284
1558,-1381,4,0,0,0,676.040039
1259,1003,1,0,0,0,730.584778
-1270,807,2,0,0,0,769.093323
-1535,-7,3,1,0,16,121.088692
1774,-1737,4,0,0,0,625.795532
539,160,1,0,0,0,1033.283081
-641,1536,2,0,0,0,740.148438
-288,-1562,3,0,0,0,734.414612
1596,-217,4,0,0,0,749.557312
414,1760,1,1,0,2,102.875595
-1166,1108,2,0,0,0,749.949707
-1729,-1655,3,0,0,0,617.225708
1429,-1320,4,0,0,0,695.450317
1041,823,1,0,0,0,786.008057
-150,1073,2,0,0,0,863.531433
-1593,-1190,3,0,0,0,670.097290
385,-1926,4,0,0,0,692.706726
573,815,1,0,0,0,868.455261
-126,1010,2,0,0,0,881.511902
-432,-43,3,1,0,16,121.088692
366,-548,4,0,0,0,1006.761780
55,266,1,0,0,0,1243.112671
-848,798,2,0,0,0,842.784119
-1837,-176,3,0,0,0,691.438416
394,-4,4,0,0,0,1155.070068
153,1984,1,0,0,0,669.883667
-1682,1227,2,0,0,0,676.035767
-1943,-1489,3,0,0,0,610.820068
180,-1334,4,0,0,0,801.095947
1758,1686,1,0,0,0,612.231873
-1541,967,2,1,0,25,143.672150
-1465,-1730,3,0,0,0,632.682007
1772,-662,4,0,0,0,703.470459
421,833,1,0,0,0,887.238159
-1333,1068,2,0,0,0,732.717712
-1451,-1107,3,0,0,0,694.611633
1662,-1449,4,0,0,0,659.638855
95,1705,1,1,0,2,95.825951
-884,1596,2,0,0,0,713.823425
-1216,-700,3,0,0,0,770.000305
1623,-1058,4,0,0,0,696.625366
825,136,1,0,0,0,918.911987
-1583,1244,2,0,0,0,685.626892
-178,-901,3,0,0,0,891.880859
1537,-948,4,0,0,0,716.762817
470,25,1,0,0,0,1084.550293
-1817,259,2,0,0,0,712.116821
-1199,-366,3,1,0,16,121.088692
122,-1333,4,0,0,0,802.705627
154,656,1,1,0,2,125.954811
-155,946,2,0,0,0,898.770447
-556,-1907,3,1,0,4,116.984047
1057,-1621,4,0,0,0,696.953735
1331,936,1,1,0,2,130.320419
-755,1415,2,1,0,25,100.349686
-718,-429,3,0,0,0,918.820374
466,-1231,4,0,0,0,807.539307
89,660,1,0,0,0,984.475464
-1962,433,2,0,0,0,686.210022
-258,-819,3,0,0,0,911.249695
577,-910,4,0,0,0,865.109192
394,121,1,1,0,0,177.632477
-1976,557,2,0,0,0,680.043152
-1506,-422,3,0,0,0,738.840088
1119,-1733,4,1,0,4,116.984047
946,800,1,1,0,2,190.347031
-525,512,2,0,0,0,975.951111
-4,-408,3,0,0,0,1125.742798
1492,-756,4,1,0,4,116.984047
1619,1414,1,0,0,0,647.846252
-316,1615,2,0,0,0,743.399963
-1756,-1553,3,0,0,0,623.138184
1616,-660,4,1,0,22,71.901634
1687,807,1,0,0,0,687.638306
-1396,1090,2,0,0,0,722.324402
-1369,-765,3,0,0,0,738.064453
1860,-1602,4,0,0,0,629.025696
523,363,1,0,0,0,997.463806
-1885,864,2,1,0,16,121.088692
-1875,-1988,3,1,0,16,121.088692
1156,-1725,4,0,0,0,676.786072
804,151,1,0,0,0,925.208069
-534,56,2,0,0,0,1065.819458
-1653,-1347,3,0,0,0,650.141479
1709,-1993,4,1,0,4,116.984047
1074,113,1,0,0,0,845.251343
-1263,152,2,1,0,16,121.088692
-1904,-1746,3,0,0,0,595.520569
710,-44,4,0,0,0,984.716003
715,1069,1,0,0,0,795.015686
-1696,333,2,1,0,16,121.088692
-941,-1206,3,0,0,0,745.206482
1147,-1727,4,0,0,0,677.244873
1471,611,1,0,0,0,733.600037
-330,1123,2,0,0,0,841.293640
-657,-507,3,1,0,4,116.984047
1967,-1869,4,1,0,4,116.984047
622,837,1,1,0,2,224.445312
-660,1100,2,0,0,0,814.938049
-894,-29,3,0,0,0,899.488037
1874,-660,4,0,0,0,689.415527
1482,1314,1,0,0,0,671.215820
-455,1863,2,0,0,0,699.541565
-598,-506,3,1,0,4,116.984047
227,-445,4,0,0,0,1086.625366
613,1526,1,0,0,0,724.447266
-586,957,2,0,0,0,853.424194
-1044,-551,3,0,0,0,819.643616
611,-287,4,0,0,0,999.819031
720,1501,1,0,0,0,720.942627
-954,1222,2,0,0,0,760.525513
-28,-1841,3,1,0,4,116.984047
1479,-1,4,0,0,0,774.042175
367,1766,1,0,0,0,697.976807
-1552,1349,2,1,0,25,110.018929
-1714,-199,3,0,0,0,710.671326
1809,-1845,4,0,0,0,614.435120
1305,1413,1,0,0,0,679.593567
-1143,179,2,0,0,0,844.644043
-1388,-160,3,0,0,0,771.209717
1733,-917,4,0,0,0,693.209229
1316,1281,1,1,0,2,120.677711
-120,1109,2,0,0,0,855.144226
-491,-607,3,0,0,0,938.664795
1284,-1954,4,0,0,0,642.905396
759,939,1,0,0,0,813.161926
-494,1123,2,0,0,0,827.763794
-305,-1266,3,0,0,0,791.430237
574,-1199,4,0,0,0,804.700500
1411,1400,1,1,0,2,108.719147
-1384,1697,2,1,0,25,88.907928
-1278,-920,3,0,0,0,736.885742
1573,-1596,4,1,0,4,116.984047
1029,974,1,0,0,0,767.193909
-1714,1157,2,0,0,0,677.968384
-1877,-28,3,0,0,0,686.550781
1608,-597,4,0,0,0,731.515869
1018,246,1,0,0,0,854.078552
-215,1611,2,0,0,0,746.968506
-510,-1981,3,0,0,0,661.996033
1800,-1168,4,0,0,0,667.414307
340,537,1,1,0,2,136.090622
-548,1763,2,0,0,0,710.430237
-143,-1424,3,0,0,0,764.312134
1939,-1415,4,0,0,0,635.409180
1065,1505,1,0,0,0,691.703064
-1731,688,2,0,0,0,707.880188
-1696,-1615,3,0,0,0,623.415771
896,-539,4,0,0,0,873.755066
1082,402,1,0,0,0,826.102051
-339,651,2,0,0,0,975.695923
-1135,-569,3,1,0,16,121.088692
522,-1418,4,0,0,0,767.890015
285,1777,1,0,0,0,698.615723
-172,484,2,0,0,0,1078.598633
-1153,-483,3,0,0,0,803.174500
541,-111,4,0,0,0,1057.695801
604,1613,1,1,0,2,117.568657
-1918,1259,2,0,0,0,648.301880
-1842,-1434,3,1,0,16,121.088692
380,-1806,4,0,0,0,710.532654
462,945,1,0,0,0,852.820862
-167,693,2,0,0,0,984.118530
-1087,-1311,3,0,0,0,714.429626
1415,-400,4,0,0,0,775.707153
264,742,1,0,0,0,936.150879
-955,1315,2,0,0,0,746.984375
-465,-749,3,0,0,0,903.660217
727,-1948,4,0,0,0,676.412720
1199,1390,1,0,0,0,692.952332
-1419,445,2,0,0,0,772.465881
-1115,-1722,3,0,0,0,661.177734
313,-1226,4,0,0,0,818.884338
1801,807,1,0,0,0,672.241821
-1665,1148,2,0,0,0,684.337769
-313,-523,3,0,0,0,1010.014771
254,-443,4,0,0,0,1080.288940
67,662,1,0,0,0,984.731689
-693,1172,2,0,0,0,797.812561
-1524,-1454,3,0,0,0,653.640198
898,-1564,4,0,0,0,717.139832
518,1775,1,0,0,0,690.876404
-1921,136,2,0,0,0,698.342407
-236,-829,3,0,0,0,910.157532
221,-1651,4,0,0,0,739.917358
174,591,1,0,0,0,1006.921570
-366,471,2,0,0,0,1035.488037
-656,-1524,3,1,0,4,116.984047
685,-1567,4,0,0,0,732.364380
948,479,1,0,0,0,850.029724
-1068,343,2,0,0,0,853.535400
-338,-639,3,0,0,0,960.842712
635,-1766,4,1,0,4,116.984047
1053,1142,1,0,0,0,740.796692
-1536,997,2,1,0,25,142.256546
-1663,-1500,3,1,0,16,121.088692
199,-798,4,0,0,0,942.903992
613,369,1,0,0,0,963.805298
-1722,812,2,0,0,0,701.625977
-207,-1023,3,0,0,0,855.060791
1227,-1856,4,0,0,0,657.065613
759,1302,1,0,0,0,749.477173
-1541,1826,2,0,0,0,636.726074
-911,-1181,3,0,0,0,752.451843
1067,-828,4,1,0,4,116.984047
1516,657,1,0,0,0,723.104370
-746,1709,2,0,0,0,707.571289
-1406,-1547,3,0,0,0,655.800537
1924,-1418,4,1,0,4,116.984047
1224,449,1,0,0,0,791.092041
-698,1931,2,0,0,0,680.004761
-1562,-1563,3,0,0,0,639.973633
941,-11,4,1,0,22,122.602356
1378,1513,1,1,0,2,105.267998
-1384,1913,2,1,0,25,76.191040
-384,-146,3,0,0,0,1123.770874
880,-142,4,0,0,0,919.713013
1599,794,1,0,0,0,700.919556
-294,878,2,0,0,0,908.765137
-834,-878,3,0,0,0,812.312622
340,-1528,4,0,0,0,757.747070
345,88,1,0,0,0,1165.043457
-1138,342,2,0,0,0,836.952454
-715,-1797,3,0,0,0,678.023926
1222,-912,4,0,0,0,765.284302
1323,384,1,0,0,0,775.264893
-1730,1437,2,1,0,25,94.800285
-1384,-466,3,0,0,0,758.517029
1033,-829,4,0,0,0,805.740967
543,1599,1,0,0,0,716.852661
-527,479,2,0,0,0,984.393433
-1603,-1074,3,0,0,0,678.688660
347,-1254,4,1,0,4,116.984047
1061,209,1,1,0,22,164.088348
-1068,479,2,0,0,0,841.289856
-689,-1301,3,0,0,0,756.200134
1449,-1465,4,1,0,4,116.984047
1987,1596,1,0,0,0,599.366516
-1967,1042,2,0,0,0,656.933228
-700,-1750,3,0,0,0,685.394958
1704,-1812,4,0,0,0,625.271729
353,190,1,0,0,0,1130.830444
-1567,1814,2,0,0,0,635.802246
-217,-158,3,1,0,0,328.993744
7,-1573,4,0,0,0,756.348572
444,960,1,0,0,0,851.234558
-1230,709,2,0,0,0,785.794067
-85,-1165,3,0,0,0,822.676453
1491,-1613,4,0,0,0,660.729492
487,410,1,0,0,0,997.474182
-1065,1913,2,0,0,0,661.651611
-1671,-843,3,0,0,0,687.406616
832,-1976,4,1,0,4,116.984047
444,1492,1,1,0,2,123.335678
-401,261,2,0,0,0,1099.068604
-1476,-786,3,1,0,16,121.088692
1838,-1819,4,1,0,4,116.984047
1446,378,1,0,0,0,751.864807
-639,749,2,0,0,0,891.085632
-726,-1606,3,0,0,0,704.601562
466,-13,4,0,0,0,1106.565063
258,740,1,0,0,0,937.573608
-370,82,2,0,0,0,1166.298096
-1701,-1174,3,0,0,0,659.050659
773,-815,4,0,0,0,853.137817
843,541,1,0,0,0,866.901184
-1136,1389,2,0,0,0,718.586792
-65,-1710,3,0,0,0,713.051636
1901,-1881,4,1,0,4,116.984047
523,935,1,0,0,0,847.550598
-1651,1969,2,1,0,16,121.088692
-1318,-1140,3,0,0,0,707.845764
12,-833,4,0,0,0,939.197754
276,875,1,0,0,0,892.168640
-1571,1662,2,0,0,0,649.213135
-1280,-1264,3,0,0,0,698.741943
1446,-684,4,0,0,0,751.535889
603,350,1,0,0,0,971.262817
-954,1225,2,1,0,25,128.336548
-1255,-336,3,0,0,0,792.097839
854,-522,4,0,0,0,886.341125
1018,1396,1,0,0,0,710.299438
-414,995,2,0,0,0,865.060669
-425,-1303,3,0,0,0,776.736694
377,-669,4,0,0,0,962.670288
1769,1319,1,1,0,2,91.296844
-1944,1201,2,0,0,0,649.451721
-1168,-1861,3,0,0,0,641.596619
1067,-1910,4,0,0,0,661.866333
1537,589,1,0,0,0,724.190735
-1656,876,2,0,0,0,706.238525
-1258,-1120,3,0,0,0,717.592346
1690,-1214,4,0,0,0,676.192749
87,1037,1,1,0,2,122.832710
-537,11,2,0,0,0,1065.720459
-1045,-1427,3,0,0,0,703.589172
1124,-113,4,1,0,22,117.242767
659,1351,1,0,0,0,750.224731
-892,1158,2,0,0,0,777.417297
-1354,-243,3,0,0,0,775.675598
373,-659,4,0,0,0,966.704102
115,764,1,1,0,2,125.477242
-1858,1914,2,0,0,0,605.380859
-810,-463,3,0,0,0,887.347412
1418,-1532,4,1,0,4,116.984047
1505,1227,1,0,0,0,676.877502
-601,1008,2,0,0,0,840.535828
-639,-615,3,1,0,4,116.984047
1740,-932,4,0,0,0,691.285095
1895,998,1,0,0,0,648.885315
-891,1592,2,0,0,0,713.837463
-231,-1323,3,0,0,0,782.568176
152,-172,4,0,0,0,1310.945068
1073,458,1,0,0,0,823.030579
-1869,251,2,0,0,0,704.356079
-180,-1523,3,1,0,4,116.984047
1795,-1893,4,0,0,0,611.714539
765,845,1,1,0,2,274.890717
-132,745,2,1,0,16,121.088692
-552,-977,3,0,0,0,834.216553
484,-1271,4,1,0,4,116.984047
58,923,1,0,0,0,889.879517
-1522,1444,2,1,0,25,103.832146
-432,-1138,3,0,0,0,810.827515
1392,-559,4,0,0,0,769.984131
693,251,1,0,0,0,955.249512
-1613,937,2,0,0,0,707.466858
-467,-1943,3,0,0,0,668.673645
1319,-1054,4,0,0,0,736.040588
1201,76,1,0,0,0,814.114014
-1640,348,2,1,0,16,121.088692
-1673,-52,3,0,0,0,719.388000
605,-807,4,0,0,0,884.134338
1685,347,1,1,0,22,123.070930
-946,1178,2,1,0,25,133.141174
-197,-521,3,0,0,0,1035.985474
712,-1012,4,1,0,4,116.984047
1555,1693,1,0,0,0,628.714661
-1452,1539,2,0,0,0,671.423401
-1553,-620,3,0,0,0,719.665649
219,-338,4,0,0,0,1148.751587
1412,539,1,1,0,22,169.056183
-238,1055,2,0,0,0,864.042358
-1789,-619,3,0,0,0,684.145264
1774,-1221,4,0,0,0,666.372559
1326,92,1,1,0,22,141.129028
-833,1092,2,0,0,0,795.313782
-1665,-1172,3,0,0,0,663.321411
668,-1486,4,1,0,4,116.984047
418,1798,1,0,0,0,691.354980
-1797,1396,2,0,0,0,650.645813
-328,-1116,3,1,0,4,116.984047
495,-1901,4,0,0,0,692.665039
1197,1805,1,0,0,0,645.693054
-983,1440,2,1,0,25,107.957855
-627,-1751,3,0,0,0,689.204895
252,-1353,4,0,0,0,794.723877
998,1681,1,0,0,0,674.949036
-1725,1500,2,1,0,25,91.467796
-1728,-78,3,0,0,0,709.967346
1524,-1613,4,0,0,0,657.814941
1604,963,1,0,0,0,687.517151
-1491,75,2,1,0,16,121.088692
-48,-969,3,1,0,4,116.984047
1084,-1456,4,0,0,0,715.280212
1924,990,1,0,0,0,645.965637
-615,1944,2,1,0,16,121.088692
-1240,-1079,3,1,0,16,121.088692
1265,-55,4,0,0,0,818.686340
869,1114,1,0,0,0,768.008545
-1802,721,2,1,0,16,121.088692
-1014,-1882,3,0,0,0,649.412109
968,-291,4,0,0,0,883.508667
396,1669,1,0,0,0,712.365906
-1123,1051,2,1,0,25,170.340332
-1067,-1610,3,0,0,0,678.400635
868,-556,4,0,0,0,877.864746
760,1829,1,0,0,0,671.218567
-1782,93,2,0,0,0,720.181885
-418,-1410,3,0,0,0,756.498352
688,-851,4,0,0,0,860.653076
1822,478,1,1,0,22,109.319595
-1964,1059,2,1,0,16,121.088692
-1907,-482,3,1,0,16,121.088692
223,-1767,4,0,0,0,720.729919
534,676,1,0,0,0,910.313660
-1263,598,2,0,0,0,790.341675
-168,-1089,3,0,0,0,839.461121
405,-1542,4,0,0,0,752.491455
806,1484,1,0,0,0,716.840576
-71,211,2,0,0,0,1319.767944
-600,-1418,3,0,0,0,743.330200
633,-1924,4,0,0,0,683.906860
414,1074,1,0,0,0,826.909180
-1276,430,2,0,0,0,801.007080
-350,-1690,3,1,0,4,116.984047
981,-12,4,0,0,0,892.101868
1950,183,1,1,0,22,94.680458
-730,649,2,1,0,16,121.088692
-804,-978,3,1,0,4,116.984047
777,-1144,4,0,0,0,793.338379
1371,701,1,0,0,0,743.311035
-730,1441,2,0,0,0,748.725830
-646,-1705,3,1,0,4,116.984047
1983,-1313,4,0,0,0,638.047668
198,1830,1,0,0,0,692.173096
-336,1240,2,0,0,0,814.510986
-1764,-1931,3,0,0,0,592.018799
606,-1389,4,1,0,4,116.984047
1588,982,1,0,0,0,688.095154
-199,178,2,1,0,0,348.512909
-154,-657,3,1,0,4,116.984047
1423,-201,4,0,0,0,782.291870
398,1964,1,0,0,0,667.876038
-1588,1338,2,1,0,25,108.878113
-166,-61,3,0,0,0,1366.912354
1098,-1260,4,0,0,0,738.961304
550,1278,1,1,0,2,151.492981
-206,845,2,0,0,0,926.790771
-1775,-1901,3,0,0,0,593.605225
1539,-1785,4,0,0,0,640.629517
834,1882,1,0,0,0,660.198181
-50,1750,2,0,0,0,725.648254
-1956,-965,3,1,0,16,121.088692
784,-1572,4,0,0,0,724.677124
1099,632,1,0,0,0,799.136902
-283,1591,2,0,0,0,748.616699
-372,-1188,3,0,0,0,804.372253
630,-694,4,0,0,0,905.245056
1490,1671,1,0,0,0,636.241638
-1674,1042,2,1,0,25,122.105370
-360,-1519,3,1,0,4,116.984047
1534,-456,4,0,0,0,751.405823
176,91,1,0,0,0,1334.130615
-1589,350,2,0,0,0,746.649658
-1193,-1299,3,0,0,0,704.401855
609,-1433,4,0,0,0,759.278687
14,149,1,1,0,0,569.116394
-104,674,2,1,0,16,121.088692
-1621,-1024,3,0,0,0,680.499817
588,-737,4,0,0,0,903.554260
598,568,1,0,0,0,922.857727
-1851,144,2,0,0,0,708.823120
-899,-163,3,0,0,0,893.376099
278,-1092,4,0,0,0,852.229126
233,1246,1,0,0,0,799.174255
-515,1420,2,0,0,0,767.989624
-636,-218,3,1,0,16,121.088692
1411,-134,4,1,0,22,110.744675
47,1009,1,0,0,0,864.488831
-813,131,2,0,0,0,942.536987
-1876,-332,3,1,0,16,121.088692
1369,-51,4,0,0,0,796.046326
214,645,1,0,0,0,978.648926
-1199,1695,2,0,0,0,676.830322
-763,-1271,3,0,0,0,754.208557
1972,-321,4,1,0,22,76.354660
137,527,1,0,0,0,1042.521484
-1147,643,2,0,0,0,807.826660
-1835,-634,3,0,0,0,676.929504
701,-1243,4,0,0,0,784.314575
1857,1200,1,0,0,0,639.809326
-122,252,2,0,0,0,1253.637085
-1260,-1747,3,0,0,0,647.259644
898,-812,4,1,0,4,116.984047
296,389,1,0,0,0,1073.640381
-1824,109,2,0,0,0,713.385803
-23,-1159,3,0,0,0,824.868286
1409,-1322,4,0,0,0,697.410339
1112,1821,1,0,0,0,649.960754
-1857,712,2,0,0,0,689.128723
-1787,-414,3,0,0,0,693.161987
1197,-1150,4,0,0,0,740.920105
578,1439,1,0,0,0,741.282959
-810,1207,2,0,0,0,779.017883
-1527,-464,3,0,0,0,733.043884
866,-1122,4,1,0,4,116.984047
1353,1763,1,0,0,0,638.348877
-1741,619,2,0,0,0,710.187988
-423,-1624,3,0,0,0,718.639404
1265,-972,4,0,0,0,752.309692
1834,452,1,0,0,0,684.778137
-979,1428,2,0,0,0,728.834290
-1053,-1006,3,0,0,0,759.311218
1119,-958,4,0,0,0,775.196777
371,796,1,0,0,0,904.770508
-108,1674,2,1,0,2,89.303856
-896,-1600,3,0,0,0,693.244934
199,-764,4,0,0,0,954.684265
1683,1291,1,0,0,0,651.644653
-1512,510,2,0,0,0,752.240112
-1890,-798,3,0,0,0,661.164429
1244,-1397,4,0,0,0,706.670471
1401,1262,1,0,0,0,685.276611
-225,1936,2,0,0,0,694.911316
-737,-447,3,0,0,0,910.149719
594,-1089,4,0,0,0,824.589905
1727,1537,1,0,0,0,627.090027
-990,1798,2,1,0,25,82.285522
-1680,-331,3,0,0,0,712.873962
1289,-1505,4,0,0,0,690.175964
1984,519,1,0,0,0,661.275818
-906,530,2,1,0,16,121.088692
-1503,-1854,3,0,0,0,618.026001
836,-964,4,0,0,0,816.467041
1700,202,1,0,0,0,712.930603
-1749,-1261,3,0,0,0,646.967468
736,-1616,4,0,0,0,721.584778
243,610,1,0,0,0,988.552795
-1811,-1708,3,0,0,0,606.047119
730,-1852,4,1,0,4,116.984047
-878,-84,3,0,0,0,903.528198
1660,-938,4,0,0,0,701.199463
-974,-1611,3,1,0,4,116.984047
-266,-115,3,0,0,0,1224.435059
-886,-691,3,1,0,4,116.984047
-1372,-310,3,0,0,0,769.285461


each generation good chromosome number
1,3,4,5,6,7,8,9,10,11,13,15,16,16,17,22,26,26,29,27,27,26,27,28,29,31,31,31,31,29,31,32,32,33,33,34,35,35,35,35,39,43,43,43,45,44,43,44,47,50,50,50,50,51,52,52,52,56,60,62,61,61,62,62,64,66,66,65,67,68,67,69,70,71,72,71,70,69,69,69,68,69,68,67,69,68,67,68,70,73,74,79,83,83,83,82,83,82,84,86,