each times' max average throughput
587.076172,591.995667,596.703308,594.524658,594.390015,594.039124,593.561890,587.727295,597.363342,587.140503,589.292786,599.435547,593.480164,597.291443,590.995911,591.746582,591.239014,593.468994,596.272217,593.335266,599.519287,587.111328,587.587158,588.794556,587.753967,594.398560,594.994629,590.635010,592.545410,581.997864,597.633850,597.647766,591.893799,590.741943,596.560364,597.271912,594.114441,587.889832,598.999390,599.398926,586.033752,585.002014,589.923950,591.043457,596.437744,596.856628,587.070374,596.151611,585.098022,593.748474,588.371948,597.270386,596.984619,594.262817,599.052429,586.338257,589.975647,592.634216,594.444275,593.755249,590.267456,594.444275,594.444275,589.503845,594.444275,594.444275,597.124695,594.444275,594.444275,592.958008,589.503845,594.444275,594.444275,597.654663,594.444275,594.444275,595.327454,594.444275,594.444275,601.245300,594.444275,594.444275,594.444275,589.503845,594.444275,594.444275,596.943726,594.444275,594.444275,594.254883,589.503845,594.444275,594.444275,589.503845,594.444275,594.444275,599.067749,594.444275,594.444275,596.453552,
avg. throughput in all test times
593.289795
avg. BS TX power in all test times
MBS area 1,MBS area 2,MBS area 3,MBS area 4,CBSD 1,CBSD 2,CBSD 3,CBSD 4,CBSD 5,CBSD 6,CBSD 7,CBSD 8,CBSD 9,CBSD 10,
8.812,8.300,8.812,8.113,0.100,0.125,0.123,0.079,0.377,0.110,0.121,0.112,0.219,0.159,
avg. mbs all power,avg. cbsd enable number,avg. mbs area all power,avg. cbsd all power
49.263,2.000,34.037,1.525
avg. max avg. throughput generation number in all test times
0.610000
avg. number of relay UE
130



the max average throughput times

BS TX power
MBS area 1,MBS area 2,MBS area 3,MBS area 4,CBSD 1,CBSD 2,CBSD 3,CBSD 4,CBSD 5,CBSD 6,CBSD 7,CBSD 8,CBSD 9,CBSD 10,
10.000,7.500,7.500,10.000,0.000,0.000,0.000,0.000,1.000,0.000,0.000,0.500,0.000,0.000,
max average throughput
596.453552

x,y,area,be blocked (1 : NLOS / 0 : LOS),be blocked number (>=1 : CBSD(x) / 0 : no),connect bs number (>=1 : CBSD / 0 : MBS),throughput (unit : M bps)
1962,690,1,0,0,0,676.336365
-1910,454,2,0,0,0,651.726624
-183,-1373,3,0,0,0,751.570618
1444,-1040,4,1,0,5,105.309464
1748,1058,1,0,0,0,681.405334
-1109,1844,2,1,0,5,105.309464
-198,-380,3,1,0,8,213.715652
1376,-1931,4,1,0,8,213.715652
1387,1268,1,0,0,0,705.348572
-506,1710,2,0,0,0,679.185730
-388,-42,3,0,0,0,1116.343384
1561,-1948,4,0,0,0,624.252319
669,1163,1,0,0,0,802.037109
-157,1450,2,0,0,0,736.770630
-999,-1702,3,0,0,0,650.231689
1709,-884,4,0,0,0,698.597107
713,324,1,0,0,0,957.003235
-263,1267,2,0,0,0,771.107544
-186,-1576,3,0,0,0,712.574280
1196,-939,4,0,0,0,766.082520
1513,279,1,0,0,0,762.715454
-1060,1706,2,1,0,5,105.309464
-357,-616,3,1,0,8,213.715652
848,-457,4,0,0,0,897.365356
1734,75,1,0,0,0,728.130493
-1154,490,2,1,0,5,105.309464
-58,-595,3,0,0,0,993.377380
1620,-1937,4,0,0,0,620.979553
1228,861,1,1,0,5,105.309464
-1207,940,2,1,0,5,105.309464
-1865,-1600,3,1,0,8,213.715652
919,-270,4,0,0,0,899.002625
1716,519,1,0,0,0,718.845032
-1831,95,2,0,0,0,671.254761
-244,-1228,3,1,0,8,213.715652
1601,-962,4,0,0,0,707.100586
236,1620,1,1,0,5,105.309464
-473,608,2,1,0,5,105.309464
-438,-1597,3,0,0,0,700.379150
522,-1580,4,1,0,8,213.715652
1316,534,1,0,0,0,785.692078
-796,1438,2,0,0,0,702.524780
-54,-1502,3,0,0,0,728.153870
887,-1777,4,0,0,0,689.523315
1390,441,1,1,0,5,105.309464
-1489,182,2,0,0,0,728.705383
-468,-1311,3,0,0,0,750.147095
970,-1395,4,0,0,0,734.228943
1953,782,1,1,0,5,105.309464
-1489,875,2,1,0,5,105.309464
-199,-1392,3,0,0,0,747.250732
1938,-236,4,1,0,5,105.309464
526,913,1,0,0,0,871.546204
-205,1233,2,0,0,0,781.062317
-883,-550,3,0,0,0,833.837830
873,-421,4,0,0,0,895.604675
1454,1485,1,1,0,5,105.309464
-197,839,2,1,0,5,105.309464
-44,-1142,3,0,0,0,806.798950
257,-327,4,1,0,5,105.309464
1832,1796,1,0,0,0,616.466675
-662,981,2,1,0,5,105.309464
-1009,-1272,3,0,0,0,706.033020
1577,-164,4,0,0,0,754.078735
679,653,1,1,0,5,105.309464
-141,207,2,1,0,5,105.309464
-915,-377,3,0,0,0,848.200684
1202,-710,4,0,0,0,790.626648
271,770,1,1,0,5,105.309464
-393,822,2,0,0,0,871.987671
-558,-875,3,0,0,0,834.530640
806,-1248,4,0,0,0,772.754944
1844,915,1,0,0,0,679.274109
-332,312,2,1,0,5,105.309464
-892,-1298,3,0,0,0,714.746460
1678,-979,4,0,0,0,695.841003
13,549,1,1,0,5,105.309464
-359,879,2,0,0,0,860.115356
-1970,-141,3,0,0,0,650.013184
190,-271,4,0,0,0,1205.370117
720,1577,1,1,0,5,105.309464
-854,1677,2,0,0,0,663.800659
-276,-1151,3,1,0,8,213.715652
280,-1532,4,0,0,0,759.216431
1323,523,1,1,0,5,105.309464
-642,1705,2,0,0,0,673.068237
-953,-1890,3,0,0,0,630.265991
1398,-1806,4,0,0,0,649.602112
391,245,1,0,0,0,1109.527466
-325,815,2,0,0,0,882.839539
-541,-576,3,0,0,0,912.976807
1218,-215,4,1,0,5,105.309464
807,916,1,0,0,0,829.190613
-219,319,2,1,0,5,105.309464
-1590,-784,3,0,0,0,680.876038
1754,-1440,4,0,0,0,651.416809
1900,1095,1,1,0,5,105.309464
-931,575,2,0,0,0,819.291504
-1205,-1278,3,0,0,0,683.514221
716,-1769,4,1,0,8,213.715652
215,323,1,0,0,0,1159.501831
-1338,1693,2,0,0,0,624.773499
-1341,-1329,3,0,0,0,662.880859
343,-744,4,0,0,0,944.020020
1007,728,1,0,0,0,824.097839
-1798,1430,2,0,0,0,606.959656
-1618,-732,3,0,0,0,680.377197
677,-680,4,0,0,0,898.490662
910,1472,1,1,0,5,105.309464
-1992,1187,2,0,0,0,604.309998
-669,-708,3,0,0,0,852.756653
1871,-107,4,0,0,0,706.141724
1153,333,1,0,0,0,834.099304
-513,1501,2,0,0,0,712.699585
-472,-822,3,0,0,0,860.603760
1830,-1692,4,0,0,0,624.702026
385,206,1,1,0,5,105.309464
-926,1050,2,0,0,0,748.510864
-1010,-1442,3,0,0,0,682.859558
1220,-324,4,0,0,0,819.574646
1423,321,1,0,0,0,778.000610
-1213,421,2,0,0,0,773.341431
-1388,-427,3,1,0,8,213.715652
1402,-924,4,0,0,0,737.623596
1114,931,1,0,0,0,779.371094
-803,206,2,1,0,5,105.309464
-1636,-696,3,0,0,0,680.052734
1087,-719,4,0,0,0,810.387146
1390,1492,1,1,0,5,105.309464
-653,419,2,0,0,0,918.258911
-1752,-712,3,0,0,0,662.404175
805,-1755,4,0,0,0,697.598877
119,719,1,0,0,0,977.743408
-1891,1184,2,0,0,0,615.279724
-1246,-873,3,0,0,0,724.661011
1812,-1070,4,0,0,0,672.982666
1249,1885,1,1,0,5,105.309464
-1800,517,2,1,0,5,105.309464
-131,-1449,3,1,0,8,213.715652
1651,-1128,4,0,0,0,687.589539
887,1461,1,1,0,5,105.309464
-244,1465,2,0,0,0,731.567749
-152,-1680,3,0,0,0,695.089050
1878,-1702,4,0,0,0,619.927063
1740,1427,1,0,0,0,653.825500
-806,1413,2,0,0,0,705.483154
-337,-520,3,0,0,0,983.039246
250,-47,4,0,0,0,1281.299438
1231,1763,1,0,0,0,666.816528
-242,666,2,0,0,0,944.383728
-1417,-171,3,0,0,0,742.971863
839,-1633,4,1,0,8,213.715652
587,1827,1,0,0,0,699.358521
-66,1160,2,0,0,0,802.052246
-1114,-1826,3,0,0,0,627.278870
1692,-1534,4,1,0,5,105.309464
1861,491,1,0,0,0,698.509583
-1610,66,2,1,0,5,105.309464
-1956,-256,3,1,0,5,105.309464
1431,-1065,4,0,0,0,720.280334
302,792,1,0,0,0,934.213257
-94,1076,2,1,0,5,105.309464
-698,-193,3,0,0,0,938.114624
419,-337,4,0,0,0,1065.401123
1496,1010,1,0,0,0,716.892700
-864,557,2,1,0,5,105.309464
-215,-285,3,0,0,0,1142.038818
507,-112,4,0,0,0,1075.488403
364,644,1,0,0,0,973.437317
-776,1667,2,0,0,0,670.429382
-1800,-91,3,1,0,5,105.309464
1441,-1631,4,0,0,0,663.364075
725,45,1,0,0,0,978.688477
-613,615,2,0,0,0,885.835327
-193,-1478,3,0,0,0,730.533142
1584,-1946,4,0,0,0,622.785339
1378,1103,1,0,0,0,723.306519
-461,317,2,0,0,0,1012.487915
-264,-938,3,0,0,0,852.648438
292,-189,4,0,0,0,1191.037964
1387,1441,1,0,0,0,687.515686
-1478,502,2,1,0,5,105.309464
-1303,-888,3,0,0,0,714.407227
169,-1347,4,0,0,0,798.656982
195,1926,1,0,0,0,696.854187
-1808,737,2,0,0,0,653.296997
-574,-72,3,0,0,0,1002.848267
1275,-1726,4,0,0,0,667.399475
1443,1353,1,0,0,0,690.675598
-1426,1400,2,1,0,5,105.309464
-283,-1311,3,0,0,0,760.823792
896,-1734,4,0,0,0,694.503052
979,199,1,0,0,0,886.882080
-1808,958,2,0,0,0,639.927307
-433,-316,3,1,0,8,213.715652
1385,-549,4,0,0,0,771.945007
1010,57,1,0,0,0,883.277283
-1835,1586,2,0,0,0,591.550964
-545,-1535,3,0,0,0,705.102844
100,-582,4,1,0,8,213.715652
1165,1095,1,0,0,0,751.677551
-1067,926,2,0,0,0,745.900452
-98,-165,3,0,0,0,1321.103394
811,-1833,4,0,0,0,686.896301
763,1679,1,0,0,0,710.735718
-1539,1466,2,1,0,5,105.309464
-19,-2000,3,0,0,0,646.416931
1706,-897,4,0,0,0,698.098999
1654,79,1,0,0,0,741.617065
-801,757,2,0,0,0,817.233582
-914,-1501,3,1,0,8,213.715652
1729,-1810,4,0,0,0,623.475037
644,853,1,0,0,0,867.443970
-213,1883,2,0,0,0,661.821655
-1135,-1552,3,0,0,0,657.673523
1495,-1087,4,0,0,0,710.089355
273,741,1,0,0,0,954.611877
-687,1650,2,1,0,5,105.309464
-532,-1217,3,0,0,0,763.619202
743,-1826,4,0,0,0,691.649048
1601,386,1,1,0,5,105.309464
-486,1752,2,0,0,0,673.650696
-567,-839,3,0,0,0,841.589539
1880,-979,4,1,0,5,105.309464
713,577,1,0,0,0,911.481934
-1852,1126,2,0,0,0,623.516541
-625,-222,3,1,0,5,105.309464
346,-915,4,0,0,0,892.936523
465,1337,1,0,0,0,786.636658
-368,1203,2,0,0,0,779.206360
-915,-1125,3,0,0,8,213.715652
1735,-1277,4,1,0,5,105.309464
165,1158,1,1,0,5,105.309464
-324,133,2,0,0,0,1147.557861
-1896,-1132,3,0,0,0,618.210205
648,-1029,4,0,0,0,830.310547
655,1951,1,1,0,5,105.309464
-954,1722,2,0,0,0,650.944580
-654,-11,3,0,0,0,967.449829
1628,-1875,4,0,0,0,625.755005
1283,1765,1,0,0,0,662.622437
-1153,1948,2,0,0,0,611.158020
-238,-869,3,1,0,8,213.715652
162,-1646,4,0,0,0,741.951904
428,900,1,0,0,0,887.584595
-1706,1110,2,1,0,5,105.309464
-319,-1820,3,0,0,0,669.037354
324,-77,4,0,0,0,1203.585083
1504,755,1,0,0,0,736.981201
-998,716,2,1,0,5,105.309464
-1949,-335,3,0,0,0,649.646240
272,-1687,4,0,0,0,732.597839
1913,488,1,0,0,0,691.230286
-1583,1319,2,0,0,0,637.931458
-837,-510,3,0,0,0,850.971680
1344,-768,4,1,0,5,105.309464
1588,409,1,0,0,0,744.412964
-1569,1901,2,0,0,0,586.973572
-1164,-997,3,0,0,0,722.555298
192,-1879,4,1,0,8,213.715652
254,1283,1,0,0,0,809.368713
-1126,849,2,1,0,5,105.309464
-1119,-807,3,0,0,0,752.712524
1573,-1889,4,0,0,0,628.632874
1419,252,1,0,0,0,781.477844
-1874,160,2,0,0,0,663.968750
-793,-112,3,1,0,5,105.309464
1203,-1048,4,0,0,0,752.281433
1918,1047,1,0,0,0,662.214539
-1253,648,2,1,0,5,105.309464
-1953,-762,3,1,0,8,213.715652
1817,-921,4,1,0,5,105.309464
1187,31,1,0,0,0,837.164185
-1894,1152,2,0,0,0,617.102966
-1239,-497,3,0,0,0,762.160706
1612,-354,4,0,0,0,742.566711
1901,1593,1,1,0,5,105.309464
-341,1884,2,0,0,0,658.882874
-656,-843,3,1,0,8,213.715652
1758,-854,4,0,0,0,694.116455
1958,1990,1,0,0,0,592.451782
-932,1631,2,0,0,0,664.320007
-1930,-1652,3,0,0,0,578.409241
1199,-994,4,1,0,5,105.309464
1973,1265,1,1,0,5,105.309464
-1998,729,2,1,0,5,105.309464
-82,-890,3,0,0,0,877.521606
1763,-329,4,0,0,0,718.738586
1540,310,1,0,0,0,756.736328
-988,480,2,0,0,0,818.196350
-832,-1914,3,0,0,0,634.287231
719,-5,4,0,0,0,981.630920
1995,1282,1,0,0,0,638.874451
-1672,1459,2,1,0,5,105.309464
-1144,-1830,3,0,0,0,624.738525
1793,-1951,4,0,0,0,607.277222
1932,1397,1,0,0,0,637.344543
-1231,146,2,0,0,0,783.438721
-1483,-1091,3,0,0,0,670.069946
1214,-1993,4,1,0,8,213.715652
328,1624,1,0,0,0,741.460083
-723,289,2,1,0,5,105.309464
-1980,-402,3,0,0,0,643.535706
1583,-1140,4,0,0,0,694.656677
489,948,1,1,0,5,105.309464
-1025,1250,2,0,0,0,707.284729
-361,-1016,3,0,0,0,823.533508
980,-1736,4,0,0,0,688.453979
174,1873,1,0,0,0,705.072876
-1275,1043,2,1,0,5,105.309464
-745,-389,3,1,0,8,213.715652
1278,-1563,4,0,0,0,684.823608
1901,1222,1,0,0,0,652.614075
-384,235,2,0,0,0,1075.142090
-132,-1672,3,0,0,0,696.732727
1139,-924,4,0,0,0,776.448059
1663,1441,1,1,0,5,105.309464
-661,146,2,0,0,0,957.559326
-87,-1779,3,0,0,0,679.533325
1096,-72,4,0,0,0,859.592834
1723,69,1,0,0,0,729.993225
-1131,663,2,0,0,0,767.360596
-734,-532,3,0,0,0,873.443542
1746,-303,4,0,0,0,722.168823
589,557,1,0,0,0,947.060059
-1193,1221,2,0,0,0,691.680969
-1891,-1847,3,0,0,0,567.171814
1931,-128,4,0,0,0,696.944153
995,1339,1,0,0,0,739.488831
-1319,76,2,0,0,0,765.138794
-859,-906,3,0,0,0,781.393372
1994,-1309,4,0,0,0,637.212341
1851,1489,1,1,0,5,105.309464
-1599,914,2,0,0,0,669.959473
-8,-1843,3,0,0,0,669.769226
1070,-401,4,0,0,0,848.212036
1311,1983,1,0,0,0,638.179871
-1507,168,2,1,0,5,105.309464
-1914,-787,3,1,0,8,213.715652
1986,-1661,4,0,0,0,613.869446
482,1063,1,0,0,0,842.108093
-1659,1346,2,0,0,0,627.630127
-1344,-1381,3,0,0,0,657.035034
1361,-1883,4,1,0,8,213.715652
78,329,1,1,0,5,105.309464
-1257,1434,2,0,0,0,660.030151
-416,-33,3,0,0,0,1097.022705
1861,-1951,4,0,0,0,602.335388
1355,1468,1,0,0,0,687.845093
-1699,963,2,1,0,5,105.309464
-255,-1755,3,1,0,8,213.715652
881,-1955,4,1,0,8,213.715652
350,1365,1,0,0,0,787.937805
-913,714,2,0,0,0,802.755615
-1165,-146,3,0,0,0,799.040955
1329,-160,4,0,0,0,802.700378
611,1499,1,0,0,0,748.125732
-1672,1296,2,0,0,0,630.428650
-1933,-1898,3,0,0,0,560.230957
928,-612,4,0,0,0,856.136597
59,271,1,1,0,5,105.309464
-784,1452,2,0,0,0,701.389587
-953,-311,3,0,0,0,844.491638
983,-1320,4,0,0,0,743.367737
976,1921,1,0,0,0,666.221985
-933,12,2,0,0,0,865.132507
-861,-1692,3,1,0,8,213.715652
1016,-1491,4,1,0,8,213.715652
1766,1499,1,1,0,5,105.309464
-1381,185,2,0,0,0,749.877869
-1905,-969,3,1,0,8,213.715652
1578,-1838,4,0,0,0,632.802429
167,770,1,0,0,0,955.265198
-1793,1236,2,0,0,0,622.166748
-1502,-201,3,0,0,0,725.794556
1633,-864,4,0,0,0,710.232239
768,1046,1,1,0,5,105.309464
-1404,1026,2,0,0,0,686.389954
-1672,-1678,3,0,0,0,598.253723
934,-812,4,0,0,0,825.250977
38,1415,1,0,0,0,786.645508
-1745,1200,2,0,0,0,630.116150
-1212,-1765,3,1,0,8,213.715652
601,-649,4,1,0,8,213.715652
550,1771,1,0,0,0,709.155701
-630,524,2,1,0,5,105.309464
-1090,-1663,3,1,0,8,213.715652
994,-613,4,0,0,0,841.948669
1022,424,1,0,0,0,857.478333
-1446,1033,2,0,0,0,680.184326
-772,-1709,3,0,0,0,664.811768
1197,-1195,4,0,0,0,735.530457
1680,490,1,0,0,0,725.765320
-532,1610,2,0,0,0,693.607422
-766,-1620,3,1,0,8,213.715652
1510,-1517,4,0,0,0,668.124512
1712,1646,1,0,0,0,638.451294
-1819,1157,2,0,0,0,625.051147
-305,-1186,3,0,0,0,786.945312
419,-1603,4,0,0,0,741.448975
120,499,1,0,0,0,1078.838745
-1678,796,2,1,0,5,105.309464
-924,-511,3,0,0,0,829.555420
1372,-242,4,0,0,0,791.214478
608,1628,1,0,0,0,727.766113
-1904,397,2,0,0,0,654.394592
-384,-1889,3,0,0,0,656.947266
1214,-874,4,0,0,0,770.782166
259,1343,1,0,0,0,796.508789
-1231,743,2,0,0,0,740.855896
-1613,-723,3,0,0,0,681.709534
1578,-1326,4,0,0,0,678.910217
640,799,1,0,0,0,879.850769
-1902,959,2,0,0,0,628.466248
-1438,-1279,3,1,0,8,213.715652
1111,-394,4,0,0,0,839.257935
1105,1401,1,0,0,0,720.197510
-1410,114,2,1,0,5,105.309464
-763,-1986,3,0,0,0,628.809265
611,-514,4,0,0,0,951.434265
579,1837,1,0,0,0,698.300903
-1618,1794,2,1,0,5,105.309464
-677,-704,3,1,0,8,213.715652
853,-1653,4,1,0,8,213.715652
85,683,1,0,0,0,994.228333
-1270,113,2,0,0,0,775.353455
-1311,-337,3,0,0,0,758.176880
1626,-38,4,0,0,0,746.763611
857,317,1,0,0,0,912.574829
-190,578,2,0,0,0,988.308228
-397,-1449,3,0,0,0,728.262207
1501,-673,4,1,0,5,105.309464
1224,14,1,0,0,0,828.414307
-1559,1260,2,1,0,5,105.309464
-683,-765,3,0,0,0,837.946289
820,-1957,4,1,0,8,213.715652
479,1896,1,0,0,0,693.952515
-1044,228,2,0,0,0,826.111633
-1317,-903,3,0,0,0,710.792297
1193,-1073,4,0,0,0,750.652405
427,1541,1,1,0,5,105.309464
-117,1310,2,1,0,5,105.309464
-754,-920,3,0,0,0,795.298401
1861,-1859,4,1,0,5,105.309464
167,1368,1,0,0,0,794.329834
-895,88,2,0,0,0,875.740417
-528,-810,3,0,0,0,854.886414
1194,-1193,4,0,0,0,736.130737
284,953,1,0,0,0,888.212097
-1195,1947,2,0,0,0,608.554138
-234,-984,3,0,0,0,841.926697
96,-1313,4,1,0,8,213.715652
1688,979,1,0,0,0,694.570435
-1724,1087,2,1,0,5,105.309464
-378,-1534,3,0,0,0,713.850098
858,-361,4,1,0,5,105.309464
1121,1347,1,0,0,0,725.365723
-1065,1822,2,1,0,5,105.309464
-1561,-393,3,0,0,0,708.492798
1454,-973,4,0,0,0,725.842896
190,1445,1,0,0,0,778.260254
-913,1294,2,0,0,0,713.165100
-1612,-100,3,0,0,0,707.535828
597,-625,4,0,0,0,928.597168
840,905,1,0,0,0,825.916626
-1983,1297,2,0,0,0,598.171936
-472,-1772,3,1,0,8,213.715652
611,-1517,4,1,0,8,213.715652
727,200,1,1,0,5,105.309464
-723,1955,2,0,0,0,634.643188
-1128,-648,3,0,0,0,769.586670
39,-532,4,0,0,0,1067.705688
-1411,1090,2,0,0,0,679.235962
-979,-1917,3,1,0,8,213.715652
539,-1016,4,0,0,0,846.342834
-1716,1462,2,0,0,0,612.328552
-855,-1052,3,1,0,8,213.715652
1353,-138,4,0,0,0,798.136963
-83,217,2,1,0,0,365.620148
-1879,-82,3,1,0,5,105.309464
1503,-379,4,0,0,0,760.570374
-1726,92,2,1,0,5,105.309464
-66,-1807,3,0,0,0,675.219482
-1274,1822,2,0,0,0,616.282776
-641,-1605,3,0,0,0,688.150452
-1017,822,2,0,0,0,768.094055
-1737,-552,3,0,0,0,672.952759
-1315,491,2,1,0,5,105.309464
-418,-1439,3,0,0,0,729.011108
-524,-1013,3,0,0,0,807.389282
-248,-1419,3,0,0,0,740.325806
-1809,-136,3,0,0,0,674.288452
-1396,-163,3,1,0,5,105.309464
-1309,-1112,3,0,0,0,689.927673
-1934,-732,3,0,0,0,636.910339
-898,-1940,3,0,0,0,627.442993
-1965,-631,3,0,0,0,637.471252
-1154,-476,3,0,0,0,781.432739
-179,-1986,3,0,0,0,647.279907
-1313,-1516,3,1,0,8,213.715652


each generation good chromosome number
10,10,10,