338.874847,338.874847,338.874847,338.874847,338.874847,338.874847,338.874847,338.874847,338.874847,338.874847,338.874847,338.874847,338.874847,338.874847,338.874847,338.874847,338.874847,338.874847,338.874847,338.874847,338.874847,338.874847,338.874847,338.874847,338.874847,338.874847,338.874847,338.874847,338.874847,338.874847,338.874847,338.874847,338.874847,338.874847,338.874847,338.874847,338.874847,338.874847,338.874847,338.874847,338.874847,338.874847,338.874847,338.874847,338.874847,338.874847,338.874847,338.874847,338.874847,338.874847,338.874847,338.874847,338.874847,338.874847,338.874847,338.874847,338.874847,338.874847,338.874847,338.874847,338.874847,338.874847,338.874847,338.874847,338.874847,338.874847,338.874847,338.874847,338.874847,338.874847,338.874847,338.874847,338.874847,338.874847,338.874847,338.874847,338.874847,338.874847,338.874847,338.874847,338.874847,338.874847,338.874847,338.874847,338.874847,338.874847,338.874847,338.874847,338.874847,338.874847,338.874847,338.874847,338.874847,338.874847,338.874847,338.874847,338.874847,338.874847,338.874847,338.874847,

avg. max avg. throughput in test times
338.874969
avg. BS TX power in all test times
MBS area 1,MBS area 2,MBS area 3,MBS area 4,CBSD 1,CBSD 2,CBSD 3,CBSD 4,CBSD 5,CBSD 6,CBSD 7,CBSD 8,CBSD 9,CBSD 10,
10.000,10.000,10.000,10.000,0.000,0.000,0.000,0.000,1.000,0.000,0.000,0.000,0.000,0.000,
avg. mbs all power,avg. cbsd enable number,avg. mbs area all power,avg. cbsd all power
47.500,1.000,40.000,1.000
avg. number of relay UE
313

BS TX power
MBS area 1,MBS area 2,MBS area 3,MBS area 4,CBSD 1,CBSD 2,CBSD 3,CBSD 4,CBSD 5,CBSD 6,CBSD 7,CBSD 8,CBSD 9,CBSD 10,
10.000,10.000,10.000,10.000,0.000,0.000,0.000,0.000,1.000,0.000,0.000,0.000,0.000,0.000,
max average power
580.963867

x,y,area,be blocked (1 : NLOS / 0 : LOS),be blocked number (>=1 : CBSD(x) / 0 : no),connect bs number (>=1 : CBSD / 0 : MBS),throughput (unit : M bps)
1962,690,1,0,0,5,29.944223
-1910,454,2,0,0,5,29.944223
-183,-1373,3,0,0,0,792.877014
1444,-1040,4,1,0,5,29.944223
1748,1058,1,0,0,5,29.944223
-1109,1844,2,1,0,5,29.944223
-198,-380,3,1,0,5,29.944223
1376,-1931,4,1,0,5,29.944223
1387,1268,1,0,0,5,29.944223
-506,1710,2,0,0,5,29.944223
-388,-42,3,0,0,0,1157.831177
1561,-1948,4,0,0,5,29.944223
669,1163,1,0,0,0,802.037109
-157,1450,2,0,0,5,29.944223
-999,-1702,3,0,0,5,29.944223
1709,-884,4,0,0,5,29.944223
713,324,1,0,0,0,957.003235
-263,1267,2,0,0,5,29.944223
-186,-1576,3,0,0,0,753.819641
1196,-939,4,0,0,0,766.082520
1513,279,1,0,0,0,762.715454
-1060,1706,2,1,0,5,29.944223
-357,-616,3,1,0,5,29.944223
848,-457,4,0,0,0,897.365356
1734,75,1,0,0,0,728.130493
-1154,490,2,1,0,5,29.944223
-58,-595,3,0,0,0,1034.844360
1620,-1937,4,0,0,5,29.944223
1228,861,1,1,0,5,29.944223
-1207,940,2,1,0,5,29.944223
-1865,-1600,3,1,0,5,29.944223
919,-270,4,0,0,0,899.002625
1716,519,1,0,0,5,29.944223
-1831,95,2,0,0,5,29.944223
-244,-1228,3,1,0,5,29.944223
1601,-962,4,0,0,5,29.944223
236,1620,1,1,0,5,29.944223
-473,608,2,1,0,5,29.944223
-438,-1597,3,0,0,0,741.601440
522,-1580,4,1,0,5,29.944223
1316,534,1,0,0,0,785.692078
-796,1438,2,0,0,5,29.944223
-54,-1502,3,0,0,0,769.425476
887,-1777,4,0,0,5,29.944223
1390,441,1,1,0,5,29.944223
-1489,182,2,0,0,0,769.977844
-468,-1311,3,0,0,0,791.451721
970,-1395,4,0,0,0,734.228943
1953,782,1,1,0,5,29.944223
-1489,875,2,1,0,5,29.944223
-199,-1392,3,0,0,0,788.551086
1938,-236,4,1,0,5,29.944223
526,913,1,0,0,0,871.546204
-205,1233,2,0,0,5,29.944223
-883,-550,3,0,0,0,875.230164
873,-421,4,0,0,0,895.604675
1454,1485,1,1,0,5,29.944223
-197,839,2,1,0,5,29.944223
-44,-1142,3,0,0,0,848.168030
257,-327,4,1,0,5,29.944223
1832,1796,1,0,0,5,29.944223
-662,981,2,1,0,5,29.944223
-1009,-1272,3,0,0,0,747.266357
1577,-164,4,0,0,0,754.078735
679,653,1,1,0,5,29.944223
-141,207,2,1,0,5,29.944223
-915,-377,3,0,0,0,889.603333
1202,-710,4,0,0,0,790.626648
271,770,1,1,0,5,29.944223
-393,822,2,0,0,5,29.944223
-558,-875,3,0,0,0,875.923523
806,-1248,4,0,0,0,772.754944
1844,915,1,0,0,5,29.944223
-332,312,2,1,0,5,29.944223
-892,-1298,3,0,0,0,755.995667
1678,-979,4,0,0,5,29.944223
13,549,1,1,0,5,29.944223
-359,879,2,0,0,5,29.944223
-1970,-141,3,0,0,5,29.944223
190,-271,4,0,0,0,1205.370117
720,1577,1,1,0,5,29.944223
-854,1677,2,0,0,5,29.944223
-276,-1151,3,1,0,5,29.944223
280,-1532,4,0,0,0,759.216431
1323,523,1,1,0,5,29.944223
-642,1705,2,0,0,5,29.944223
-953,-1890,3,0,0,5,29.944223
1398,-1806,4,0,0,5,29.944223
391,245,1,0,0,0,1109.527466
-325,815,2,0,0,5,29.944223
-541,-576,3,0,0,0,954.416260
1218,-215,4,1,0,5,29.944223
807,916,1,0,0,0,829.190613
-219,319,2,1,0,5,29.944223
-1590,-784,3,0,0,5,29.944223
1754,-1440,4,0,0,5,29.944223
1900,1095,1,1,0,5,29.944223
-931,575,2,0,0,5,29.944223
-1205,-1278,3,0,0,0,724.701782
716,-1769,4,1,0,5,29.944223
215,323,1,0,0,0,1159.501831
-1338,1693,2,0,0,5,29.944223
-1341,-1329,3,0,0,5,29.944223
343,-744,4,0,0,0,944.020020
1007,728,1,0,0,0,824.097839
-1798,1430,2,0,0,5,29.944223
-1618,-732,3,0,0,5,29.944223
677,-680,4,0,0,0,898.490662
910,1472,1,1,0,5,29.944223
-1992,1187,2,0,0,5,29.944223
-669,-708,3,0,0,0,894.162720
1871,-107,4,0,0,5,29.944223
1153,333,1,0,0,0,834.099304
-513,1501,2,0,0,5,29.944223
-472,-822,3,0,0,0,902.014771
1830,-1692,4,0,0,5,29.944223
385,206,1,1,0,5,29.944223
-926,1050,2,0,0,5,29.944223
-1010,-1442,3,0,0,0,724.045715
1220,-324,4,0,0,0,819.574646
1423,321,1,0,0,0,778.000610
-1213,421,2,0,0,5,29.944223
-1388,-427,3,1,0,5,29.944223
1402,-924,4,0,0,0,737.623596
1114,931,1,0,0,0,779.371094
-803,206,2,1,0,5,29.944223
-1636,-696,3,0,0,5,29.944223
1087,-719,4,0,0,0,810.387146
1390,1492,1,1,0,5,29.944223
-653,419,2,0,0,5,29.944223
-1752,-712,3,0,0,5,29.944223
805,-1755,4,0,0,5,29.944223
119,719,1,0,0,0,977.743408
-1891,1184,2,0,0,5,29.944223
-1246,-873,3,0,0,0,765.926880
1812,-1070,4,0,0,5,29.944223
1249,1885,1,1,0,5,29.944223
-1800,517,2,1,0,5,29.944223
-131,-1449,3,1,0,5,29.944223
1651,-1128,4,0,0,5,29.944223
887,1461,1,1,0,5,29.944223
-244,1465,2,0,0,5,29.944223
-152,-1680,3,0,0,0,736.301025
1878,-1702,4,0,0,5,29.944223
1740,1427,1,0,0,5,29.944223
-806,1413,2,0,0,5,29.944223
-337,-520,3,0,0,0,1024.503174
250,-47,4,0,0,0,1281.299438
1231,1763,1,0,0,5,29.944223
-242,666,2,0,0,5,29.944223
-1417,-171,3,0,0,0,784.266357
839,-1633,4,1,0,5,29.944223
587,1827,1,0,0,5,29.944223
-66,1160,2,0,0,5,29.944223
-1114,-1826,3,0,0,5,29.944223
1692,-1534,4,1,0,5,29.944223
1861,491,1,0,0,5,29.944223
-1610,66,2,1,0,5,29.944223
-1956,-256,3,1,0,5,29.944223
1431,-1065,4,0,0,5,29.944223
302,792,1,0,0,0,934.213257
-94,1076,2,1,0,5,29.944223
-698,-193,3,0,0,0,979.564392
419,-337,4,0,0,0,1065.401123
1496,1010,1,0,0,5,29.944223
-864,557,2,1,0,5,29.944223
-215,-285,3,0,0,0,1183.529419
507,-112,4,0,0,0,1075.488403
364,644,1,0,0,0,973.437317
-776,1667,2,0,0,5,29.944223
-1800,-91,3,1,0,5,29.944223
1441,-1631,4,0,0,5,29.944223
725,45,1,0,0,0,978.688477
-613,615,2,0,0,5,29.944223
-193,-1478,3,0,0,0,771.808777
1584,-1946,4,0,0,5,29.944223
1378,1103,1,0,0,5,29.944223
-461,317,2,0,0,0,1053.959229
-264,-938,3,0,0,0,894.054199
292,-189,4,0,0,0,1191.037964
1387,1441,1,0,0,5,29.944223
-1478,502,2,1,0,5,29.944223
-1303,-888,3,0,0,0,755.655579
169,-1347,4,0,0,0,798.656982
195,1926,1,0,0,5,29.944223
-1808,737,2,0,0,5,29.944223
-574,-72,3,0,0,0,1044.317261
1275,-1726,4,0,0,5,29.944223
1443,1353,1,0,0,5,29.944223
-1426,1400,2,1,0,5,29.944223
-283,-1311,3,0,0,0,802.142395
896,-1734,4,0,0,5,29.944223
979,199,1,0,0,0,886.882080
-1808,958,2,0,0,5,29.944223
-433,-316,3,1,0,5,29.944223
1385,-549,4,0,0,0,771.945007
1010,57,1,0,0,0,883.277283
-1835,1586,2,0,0,5,29.944223
-545,-1535,3,0,0,0,746.334167
100,-582,4,1,0,5,29.944223
1165,1095,1,0,0,0,751.677551
-1067,926,2,0,0,5,29.944223
-98,-165,3,0,0,0,1362.603149
811,-1833,4,0,0,5,29.944223
763,1679,1,0,0,5,29.944223
-1539,1466,2,1,0,5,29.944223
-19,-2000,3,0,0,5,29.944223
1706,-897,4,0,0,5,29.944223
1654,79,1,0,0,0,741.617065
-801,757,2,0,0,5,29.944223
-914,-1501,3,1,0,5,29.944223
1729,-1810,4,0,0,5,29.944223
644,853,1,0,0,0,867.443970
-213,1883,2,0,0,5,29.944223
-1135,-1552,3,0,0,5,29.944223
1495,-1087,4,0,0,5,29.944223
273,741,1,0,0,0,954.611877
-687,1650,2,1,0,5,29.944223
-532,-1217,3,0,0,0,804.941589
743,-1826,4,0,0,5,29.944223
1601,386,1,1,0,5,29.944223
-486,1752,2,0,0,5,29.944223
-567,-839,3,0,0,0,882.987732
1880,-979,4,1,0,5,29.944223
713,577,1,0,0,0,911.481934
-1852,1126,2,0,0,5,29.944223
-625,-222,3,1,0,5,29.944223
346,-915,4,0,0,0,892.936523
465,1337,1,0,0,0,786.636658
-368,1203,2,0,0,5,29.944223
-915,-1125,3,0,0,0,779.705872
1735,-1277,4,1,0,5,29.944223
165,1158,1,1,0,5,29.944223
-324,133,2,0,0,0,1189.048950
-1896,-1132,3,0,0,5,29.944223
648,-1029,4,0,0,0,830.310547
655,1951,1,1,0,5,29.944223
-954,1722,2,0,0,5,29.944223
-654,-11,3,0,0,0,1008.909485
1628,-1875,4,0,0,5,29.944223
1283,1765,1,0,0,5,29.944223
-1153,1948,2,0,0,5,29.944223
-238,-869,3,1,0,5,29.944223
162,-1646,4,0,0,0,741.951904
428,900,1,0,0,0,887.584595
-1706,1110,2,1,0,5,29.944223
-319,-1820,3,0,0,5,29.944223
324,-77,4,0,0,0,1203.585083
1504,755,1,0,0,0,736.981201
-998,716,2,1,0,5,29.944223
-1949,-335,3,0,0,5,29.944223
272,-1687,4,0,0,0,732.597839
1913,488,1,0,0,5,29.944223
-1583,1319,2,0,0,5,29.944223
-837,-510,3,0,0,0,892.376526
1344,-768,4,1,0,5,29.944223
1588,409,1,0,0,0,744.412964
-1569,1901,2,0,0,5,29.944223
-1164,-997,3,0,0,0,763.817688
192,-1879,4,1,0,5,29.944223
254,1283,1,0,0,0,809.368713
-1126,849,2,1,0,5,29.944223
-1119,-807,3,0,0,0,794.020386
1573,-1889,4,0,0,5,29.944223
1419,252,1,0,0,0,781.477844
-1874,160,2,0,0,5,29.944223
-793,-112,3,1,0,5,29.944223
1203,-1048,4,0,0,0,752.281433
1918,1047,1,0,0,5,29.944223
-1253,648,2,1,0,5,29.944223
-1953,-762,3,1,0,5,29.944223
1817,-921,4,1,0,5,29.944223
1187,31,1,0,0,0,837.164185
-1894,1152,2,0,0,5,29.944223
-1239,-497,3,0,0,0,803.481262
1612,-354,4,0,0,0,742.566711
1901,1593,1,1,0,5,29.944223
-341,1884,2,0,0,5,29.944223
-656,-843,3,1,0,5,29.944223
1758,-854,4,0,0,5,29.944223
1958,1990,1,0,0,5,29.944223
-932,1631,2,0,0,5,29.944223
-1930,-1652,3,0,0,5,29.944223
1199,-994,4,1,0,5,29.944223
1973,1265,1,1,0,5,29.944223
-1998,729,2,1,0,5,29.944223
-82,-890,3,0,0,0,918.942810
1763,-329,4,0,0,5,29.944223
1540,310,1,0,0,0,756.736328
-988,480,2,0,0,5,29.944223
-832,-1914,3,0,0,5,29.944223
719,-5,4,0,0,0,981.630920
1995,1282,1,0,0,5,29.944223
-1672,1459,2,1,0,5,29.944223
-1144,-1830,3,0,0,5,29.944223
1793,-1951,4,0,0,5,29.944223
1932,1397,1,0,0,5,29.944223
-1231,146,2,0,0,0,824.784424
-1483,-1091,3,0,0,5,29.944223
1214,-1993,4,1,0,5,29.944223
328,1624,1,0,0,0,741.460083
-723,289,2,1,0,5,29.944223
-1980,-402,3,0,0,5,29.944223
1583,-1140,4,0,0,5,29.944223
489,948,1,1,0,5,29.944223
-1025,1250,2,0,0,5,29.944223
-361,-1016,3,0,0,0,864.917603
980,-1736,4,0,0,5,29.944223
174,1873,1,0,0,5,29.944223
-1275,1043,2,1,0,5,29.944223
-745,-389,3,1,0,5,29.944223
1278,-1563,4,0,0,5,29.944223
1901,1222,1,0,0,5,29.944223
-384,235,2,0,0,0,1116.624756
-132,-1672,3,0,0,0,737.948059
1139,-924,4,0,0,0,776.448059
1663,1441,1,1,0,5,29.944223
-661,146,2,0,0,0,999.015625
-87,-1779,3,0,0,5,29.944223
1096,-72,4,0,0,0,859.592834
1723,69,1,0,0,0,729.993225
-1131,663,2,0,0,5,29.944223
-734,-532,3,0,0,0,914.862427
1746,-303,4,0,0,5,29.944223
589,557,1,0,0,0,947.060059
-1193,1221,2,0,0,5,29.944223
-1891,-1847,3,0,0,5,29.944223
1931,-128,4,0,0,5,29.944223
995,1339,1,0,0,0,739.488831
-1319,76,2,0,0,0,806.463135
-859,-906,3,0,0,0,822.736816
1994,-1309,4,0,0,5,29.944223
1851,1489,1,1,0,5,29.944223
-1599,914,2,0,0,5,29.944223
-8,-1843,3,0,0,5,29.944223
1070,-401,4,0,0,0,848.212036
1311,1983,1,0,0,5,29.944223
-1507,168,2,1,0,5,29.944223
-1914,-787,3,1,0,5,29.944223
1986,-1661,4,0,0,5,29.944223
482,1063,1,0,0,0,842.108093
-1659,1346,2,0,0,5,29.944223
-1344,-1381,3,0,0,5,29.944223
1361,-1883,4,1,0,5,29.944223
78,329,1,1,0,5,29.944223
-1257,1434,2,0,0,5,29.944223
-416,-33,3,0,0,0,1138.508423
1861,-1951,4,0,0,5,29.944223
1355,1468,1,0,0,5,29.944223
-1699,963,2,1,0,5,29.944223
-255,-1755,3,1,0,5,29.944223
881,-1955,4,1,0,5,29.944223
350,1365,1,0,0,0,787.937805
-913,714,2,0,0,5,29.944223
-1165,-146,3,0,0,0,840.402649
1329,-160,4,0,0,0,802.700378
611,1499,1,0,0,0,748.125732
-1672,1296,2,0,0,5,29.944223
-1933,-1898,3,0,0,5,29.944223
928,-612,4,0,0,0,856.136597
59,271,1,1,0,5,29.944223
-784,1452,2,0,0,5,29.944223
-953,-311,3,0,0,0,885.891968
983,-1320,4,0,0,0,743.367737
976,1921,1,0,0,5,29.944223
-933,12,2,0,0,0,906.546326
-861,-1692,3,1,0,5,29.944223
1016,-1491,4,1,0,5,29.944223
1766,1499,1,1,0,5,29.944223
-1381,185,2,0,0,0,791.181885
-1905,-969,3,1,0,5,29.944223
1578,-1838,4,0,0,5,29.944223
167,770,1,0,0,0,955.265198
-1793,1236,2,0,0,5,29.944223
-1502,-201,3,0,0,0,767.062500
1633,-864,4,0,0,5,29.944223
768,1046,1,1,0,5,29.944223
-1404,1026,2,0,0,5,29.944223
-1672,-1678,3,0,0,5,29.944223
934,-812,4,0,0,0,825.250977
38,1415,1,0,0,5,29.944223
-1745,1200,2,0,0,5,29.944223
-1212,-1765,3,1,0,5,29.944223
601,-649,4,1,0,5,29.944223
550,1771,1,0,0,5,29.944223
-630,524,2,1,0,5,29.944223
-1090,-1663,3,1,0,5,29.944223
994,-613,4,0,0,0,841.948669
1022,424,1,0,0,0,857.478333
-1446,1033,2,0,0,5,29.944223
-772,-1709,3,0,0,5,29.944223
1197,-1195,4,0,0,0,735.530457
1680,490,1,0,0,0,725.765320
-532,1610,2,0,0,5,29.944223
-766,-1620,3,1,0,5,29.944223
1510,-1517,4,0,0,5,29.944223
1712,1646,1,0,0,5,29.944223
-1819,1157,2,0,0,5,29.944223
-305,-1186,3,0,0,0,828.294556
419,-1603,4,0,0,0,741.448975
120,499,1,0,0,0,1078.838745
-1678,796,2,1,0,5,29.944223
-924,-511,3,0,0,0,870.944458
1372,-242,4,0,0,0,791.214478
608,1628,1,0,0,0,727.766113
-1904,397,2,0,0,5,29.944223
-384,-1889,3,0,0,5,29.944223
1214,-874,4,0,0,0,770.782166
259,1343,1,0,0,0,796.508789
-1231,743,2,0,0,5,29.944223
-1613,-723,3,0,0,5,29.944223
1578,-1326,4,0,0,5,29.944223
640,799,1,0,0,0,879.850769
-1902,959,2,0,0,5,29.944223
-1438,-1279,3,1,0,5,29.944223
1111,-394,4,0,0,0,839.257935
1105,1401,1,0,0,5,29.944223
-1410,114,2,1,0,5,29.944223
-763,-1986,3,0,0,5,29.944223
611,-514,4,0,0,0,951.434265
579,1837,1,0,0,5,29.944223
-1618,1794,2,1,0,5,29.944223
-677,-704,3,1,0,5,29.944223
853,-1653,4,1,0,5,29.944223
85,683,1,0,0,0,994.228333
-1270,113,2,0,0,0,816.690063
-1311,-337,3,0,0,0,799.492371
1626,-38,4,0,0,0,746.763611
857,317,1,0,0,0,912.574829
-190,578,2,0,0,0,1029.773560
-397,-1449,3,0,0,0,769.534180
1501,-673,4,1,0,5,29.944223
1224,14,1,0,0,0,828.414307
-1559,1260,2,1,0,5,29.944223
-683,-765,3,0,0,0,879.341736
820,-1957,4,1,0,5,29.944223
479,1896,1,0,0,5,29.944223
-1044,228,2,0,0,0,867.497620
-1317,-903,3,0,0,0,752.034424
1193,-1073,4,0,0,0,750.652405
427,1541,1,1,0,5,29.944223
-117,1310,2,1,0,5,29.944223
-754,-920,3,0,0,0,836.656555
1861,-1859,4,1,0,5,29.944223
167,1368,1,0,0,0,794.329834
-895,88,2,0,0,0,917.160889
-528,-810,3,0,0,0,896.293884
1194,-1193,4,0,0,0,736.130737
284,953,1,0,0,0,888.212097
-1195,1947,2,0,0,5,29.944223
-234,-984,3,0,0,0,883.324829
96,-1313,4,1,0,5,29.944223
1688,979,1,0,0,5,29.944223
-1724,1087,2,1,0,5,29.944223
-378,-1534,3,0,0,0,755.097717
858,-361,4,1,0,5,29.944223
1121,1347,1,0,0,0,725.365723
-1065,1822,2,1,0,5,29.944223
-1561,-393,3,0,0,0,749.730713
1454,-973,4,0,0,0,725.842896
190,1445,1,0,0,0,778.260254
-913,1294,2,0,0,5,29.944223
-1612,-100,3,0,0,0,748.771973
597,-625,4,0,0,0,928.597168
840,905,1,0,0,0,825.916626
-1983,1297,2,0,0,5,29.944223
-472,-1772,3,1,0,5,29.944223
611,-1517,4,1,0,5,29.944223
727,200,1,1,0,5,29.944223
-723,1955,2,0,0,5,29.944223
-1128,-648,3,0,0,0,810.916443
39,-532,4,0,0,0,1067.705688
-1411,1090,2,0,0,5,29.944223
-979,-1917,3,1,0,5,29.944223
539,-1016,4,0,0,0,846.342834
-1716,1462,2,0,0,5,29.944223
-855,-1052,3,1,0,5,29.944223
1353,-138,4,0,0,0,798.136963
-83,217,2,1,0,5,29.944223
-1879,-82,3,1,0,5,29.944223
1503,-379,4,0,0,0,760.570374
-1726,92,2,1,0,5,29.944223
-66,-1807,3,0,0,5,29.944223
-1274,1822,2,0,0,5,29.944223
-641,-1605,3,0,0,0,729.347778
-1017,822,2,0,0,5,29.944223
-1737,-552,3,0,0,5,29.944223
-1315,491,2,1,0,5,29.944223
-418,-1439,3,0,0,0,770.284302
-524,-1013,3,0,0,0,848.759216
-248,-1419,3,0,0,0,781.616394
-1809,-136,3,0,0,5,29.944223
-1396,-163,3,1,0,5,29.944223
-1309,-1112,3,0,0,0,731.129028
-1934,-732,3,0,0,5,29.944223
-898,-1940,3,0,0,5,29.944223
-1965,-631,3,0,0,5,29.944223
-1154,-476,3,0,0,0,822.775940
-179,-1986,3,0,0,5,29.944223
-1313,-1516,3,1,0,5,29.944223
