331.237274,331.237274,331.237274,331.237274,331.237274,331.237274,331.237274,331.237274,331.237274,331.237274,331.237274,331.237274,331.237274,331.237274,331.237274,331.237274,331.237274,331.237274,331.237274,331.237274,331.237274,331.237274,331.237274,331.237274,331.237274,331.237274,331.237274,331.237274,331.237274,331.237274,331.237274,331.237274,331.237274,331.237274,331.237274,331.237274,331.237274,331.237274,331.237274,331.237274,331.237274,331.237274,331.237274,331.237274,331.237274,331.237274,331.237274,331.237274,331.237274,331.237274,331.237274,331.237274,331.237274,331.237274,331.237274,331.237274,331.237274,331.237274,331.237274,331.237274,331.237274,331.237274,331.237274,331.237274,331.237274,331.237274,331.237274,331.237274,331.237274,331.237274,331.237274,331.237274,331.237274,331.237274,331.237274,331.237274,331.237274,331.237274,331.237274,331.237274,331.237274,331.237274,331.237274,331.237274,331.237274,331.237274,331.237274,331.237274,331.237274,331.237274,331.237274,331.237274,331.237274,331.237274,331.237274,331.237274,331.237274,331.237274,331.237274,331.237274,

avg. max avg. throughput in test times
331.236847
avg. BS TX power in all test times
MBS area 1,MBS area 2,MBS area 3,MBS area 4,CBSD 1,CBSD 2,CBSD 3,CBSD 4,CBSD 5,CBSD 6,CBSD 7,CBSD 8,
10.000,10.000,10.000,10.000,1.000,0.000,0.000,0.000,0.000,0.000,0.000,0.000,
avg. mbs all power,avg. cbsd enable number,avg. mbs area all power,avg. cbsd all power
47.500,1.000,40.000,1.000
avg. number of relay UE
629

BS TX power
MBS area 1,MBS area 2,MBS area 3,MBS area 4,CBSD 1,CBSD 2,CBSD 3,CBSD 4,CBSD 5,CBSD 6,CBSD 7,CBSD 8,
10.000,10.000,10.000,10.000,1.000,0.000,0.000,0.000,0.000,0.000,0.000,0.000,
max average power
579.645081

x,y,area,be blocked (1 : NLOS / 0 : LOS),be blocked number (>=1 : CBSD(x) / 0 : no),connect bs number (>=1 : CBSD / 0 : MBS),throughput (unit : M bps)
174,657,1,0,0,0,997.860291
-535,1043,2,0,0,1,14.588842
-1883,-1058,3,1,0,1,14.588842
229,-1843,4,0,0,1,14.588842
488,1434,1,0,0,0,767.181580
-1029,807,2,0,0,1,14.588842
-1905,-621,3,1,0,1,14.588842
278,-1087,4,0,0,0,853.468933
1994,522,1,1,0,1,14.588842
-277,1776,2,0,0,1,14.588842
-1128,-1204,3,0,0,0,742.664734
529,-1153,4,0,0,0,818.149353
1168,862,1,0,0,0,779.404663
-1007,1853,2,0,0,1,14.588842
-161,-1384,3,0,0,0,791.182678
441,-1970,4,0,0,1,14.588842
1386,1829,1,0,0,1,14.588842
-962,284,2,0,0,1,14.588842
-1523,-54,3,0,0,0,765.443970
804,-1814,4,0,0,1,14.588842
1472,992,1,0,0,1,14.588842
-578,583,2,1,0,1,14.588842
-1054,-1547,3,1,0,1,14.588842
532,-457,4,0,0,0,988.807007
1580,1441,1,1,0,1,14.588842
-27,212,2,0,0,0,1331.556152
-451,-136,3,0,0,0,1103.562988
1274,-616,4,0,0,0,786.726990
1216,731,1,0,0,0,785.976990
-1416,292,2,0,0,1,14.588842
-1666,-1865,3,0,0,1,14.588842
1651,-15,4,0,0,0,742.452820
1770,649,1,0,0,1,14.588842
-1880,1695,2,0,0,1,14.588842
-639,-1689,3,0,0,1,14.588842
1231,-1679,4,0,0,1,14.588842
1262,1003,1,0,0,0,749.317078
-1666,93,2,1,0,1,14.588842
-2000,-977,3,0,0,1,14.588842
551,-553,4,1,0,1,14.588842
427,909,1,0,0,0,885.365662
-1495,1053,2,0,0,1,14.588842
-1661,-1382,3,0,0,1,14.588842
942,-1211,4,1,0,1,14.588842
444,84,1,0,0,0,1115.553955
-836,1891,2,0,0,1,14.588842
-571,-1132,3,0,0,0,818.309021
1599,-552,4,0,0,0,735.496948
1643,430,1,0,0,0,734.356934
-142,1619,2,0,0,0,746.980347
-279,-66,3,0,0,0,1246.792847
1819,-375,4,0,0,1,14.588842
1439,1545,1,1,0,1,14.588842
-1971,1109,2,0,0,1,14.588842
-1539,-243,3,0,0,0,759.089355
1763,-470,4,1,0,1,14.588842
1910,613,1,0,0,1,14.588842
-1215,107,2,0,0,1,14.588842
-716,-1587,3,0,0,0,727.236572
634,-362,4,0,0,0,977.234802
1718,1546,1,0,0,1,14.588842
-25,1880,2,1,0,1,14.588842
-1972,-1707,3,0,0,1,14.588842
1694,-1634,4,0,0,1,14.588842
1191,1937,1,0,0,1,14.588842
-909,1048,2,0,0,1,14.588842
-1661,-642,3,1,0,1,14.588842
387,-1645,4,0,0,0,735.783386
215,629,1,0,0,0,1004.259094
-1907,396,2,1,0,1,14.588842
-1032,-516,3,1,0,1,14.588842
1754,-1489,4,0,0,1,14.588842
1123,1107,1,0,0,0,755.642700
-1092,1356,2,0,0,1,14.588842
-497,-870,3,0,0,0,886.038391
1908,-1604,4,1,0,1,14.588842
149,331,1,0,0,0,1178.730591
-1089,764,2,1,0,1,14.588842
-1770,-1090,3,0,0,1,14.588842
1569,-561,4,0,0,0,739.822388
974,729,1,0,0,0,830.177185
-1417,1488,2,1,0,1,14.588842
-1298,-982,3,0,0,0,746.557190
1792,-1028,4,0,0,1,14.588842
1292,1173,1,0,0,0,726.577576
-1369,1746,2,0,0,1,14.588842
-293,-1758,3,1,0,1,14.588842
1154,-1973,4,0,0,1,14.588842
945,1239,1,0,0,0,759.055298
-997,359,2,1,0,1,14.588842
-1663,-701,3,0,0,1,14.588842
596,-585,4,1,0,1,14.588842
578,900,1,0,0,0,867.225281
-578,1427,2,1,0,1,14.588842
-298,-530,3,0,0,0,1029.960693
1145,-1966,4,1,0,1,14.588842
335,1465,1,0,0,0,769.455200
-433,1859,2,0,0,1,14.588842
-1147,-1299,3,0,0,0,728.576965
1539,-1464,4,0,0,1,14.588842
1820,42,1,0,0,1,14.588842
-1378,118,2,1,0,1,14.588842
-102,-537,3,0,0,0,1060.670776
1074,-606,4,0,0,0,826.286194
1104,1081,1,1,0,1,14.588842
-1278,1156,2,1,0,1,14.588842
-585,-1735,3,0,0,1,14.588842
867,-1474,4,0,0,0,732.381531
560,840,1,0,0,0,883.862244
-884,819,2,0,0,1,14.588842
-118,-1101,3,0,0,0,857.259155
1331,-1820,4,0,0,1,14.588842
552,550,1,0,0,0,958.453064
-609,1865,2,1,0,1,14.588842
-65,-1910,3,1,0,1,14.588842
127,-1783,4,1,0,1,14.588842
1999,280,1,0,0,1,14.588842
-1757,1413,2,1,0,1,14.588842
-1120,-1381,3,0,0,1,14.588842
1050,-1796,4,1,0,1,14.588842
191,1495,1,0,0,0,768.627686
-629,385,2,0,0,1,14.588842
-600,-1815,3,0,0,1,14.588842
1224,-1242,4,0,0,0,726.787354
1046,1119,1,1,0,1,14.588842
-1712,1852,2,0,0,1,14.588842
-1064,-389,3,1,0,1,14.588842
46,-934,4,0,0,0,905.912659
341,825,1,1,0,1,14.588842
-85,1216,2,0,0,0,829.618347
-1801,-8,3,0,0,1,14.588842
11,-1432,4,0,0,0,783.309753
340,1706,1,0,0,0,727.482056
-1317,318,2,1,0,1,14.588842
-541,-341,3,0,0,0,1015.413086
1077,-1177,4,0,0,0,752.295837
738,1950,1,0,0,1,14.588842
-678,616,2,0,0,1,14.588842
-557,-1056,3,0,0,0,835.596375
1680,-748,4,0,0,1,14.588842
1530,1716,1,0,0,1,14.588842
-508,28,2,1,0,1,14.588842
-1193,-1247,3,0,0,0,729.763550
111,-144,4,0,0,0,1378.190796
1431,590,1,0,0,0,760.976562
-915,37,2,1,0,1,14.588842
-197,-1685,3,1,0,1,14.588842
1515,-1673,4,0,0,1,14.588842
292,528,1,1,0,1,14.588842
-376,1349,2,1,0,1,14.588842
-664,-609,3,0,0,0,916.626282
552,-1611,4,0,0,0,733.579651
784,1815,1,0,0,1,14.588842
-705,477,2,1,0,1,14.588842
-125,-1211,3,0,0,0,829.980103
39,-47,4,0,0,0,1692.952393
1197,747,1,0,0,0,787.569885
-1170,1643,2,0,0,1,14.588842
-1236,-1158,3,0,0,0,735.138794
1448,-941,4,1,0,1,14.588842
1384,180,1,0,0,0,790.704163
-481,1527,2,0,0,1,14.588842
-1345,-828,3,0,0,0,755.179871
1019,-1889,4,0,0,1,14.588842
1357,1565,1,1,0,1,14.588842
-1386,1369,2,1,0,1,14.588842
-1534,-424,3,0,0,0,752.992310
1469,-350,4,0,0,0,768.062744
332,908,1,1,0,1,14.588842
-668,14,2,0,0,0,1002.781433
-686,-532,3,0,0,0,927.332764
1240,-1999,4,0,0,1,14.588842
122,1643,1,0,0,0,743.069397
-697,1176,2,0,0,1,14.588842
-1709,-266,3,1,0,1,14.588842
109,-1721,4,1,0,1,14.588842
915,808,1,0,0,0,829.211609
-1508,1064,2,0,0,1,14.588842
-171,-1989,3,0,0,1,14.588842
1360,-1098,4,0,0,0,726.107239
161,721,1,0,0,0,973.825134
-1858,21,2,1,0,1,14.588842
-1644,-1429,3,0,0,1,14.588842
1954,-504,4,0,0,1,14.588842
1619,855,1,0,0,1,14.588842
-1720,1704,2,0,0,1,14.588842
-1290,-259,3,0,0,0,807.650146
959,-1682,4,0,0,1,14.588842
354,912,1,0,0,0,892.918579
-1356,1705,2,1,0,1,14.588842
-1855,-369,3,0,0,1,14.588842
1199,-1755,4,1,0,1,14.588842
116,332,1,0,0,0,1187.860352
-515,1157,2,1,0,1,14.588842
-1125,-618,3,0,0,0,814.767822
1066,-1998,4,0,0,1,14.588842
1557,1517,1,0,0,1,14.588842
-427,255,2,0,0,0,1087.902222
-1373,-1700,3,0,0,1,14.588842
746,-667,4,0,0,0,886.397766
445,827,1,0,0,0,904.686035
-97,446,2,0,0,0,1112.664185
-1595,-1327,3,1,0,1,14.588842
718,-1672,4,0,0,1,14.588842
521,71,1,0,0,0,1071.850342
-149,882,2,0,0,0,918.708313
-1224,-1881,3,1,0,1,14.588842
1147,-1409,4,0,0,1,14.588842
273,1974,1,0,0,1,14.588842
-523,106,2,1,0,1,14.588842
-945,-1219,3,0,0,0,761.990967
410,-748,4,0,0,0,932.393066
167,68,1,0,0,0,1380.584351
-476,589,2,1,0,1,14.588842
-1936,-1223,3,0,0,1,14.588842
1058,-588,4,1,0,1,14.588842
642,1541,1,0,0,0,739.288025
-615,631,2,0,0,1,14.588842
-1954,-1792,3,0,0,1,14.588842
1955,-612,4,0,0,1,14.588842
783,1235,1,0,0,0,777.304077
-613,383,2,1,0,1,14.588842
-1800,-651,3,1,0,1,14.588842
853,-1626,4,0,0,1,14.588842
918,114,1,0,0,0,909.034302
-1047,488,2,0,0,1,14.588842
-88,-1268,3,0,0,0,817.585876
1187,-334,4,0,0,0,826.303894
164,1313,1,0,0,0,806.025024
-124,1767,2,0,0,1,14.588842
-146,-1257,3,0,0,0,818.855591
1100,-1600,4,0,0,1,14.588842
567,541,1,0,0,0,956.809631
-1494,1500,2,0,0,1,14.588842
-607,-1469,3,0,0,0,753.362366
1632,-1999,4,0,0,1,14.588842
1485,1412,1,0,0,1,14.588842
-367,92,2,0,0,0,1166.771851
-1338,-1762,3,1,0,1,14.588842
1815,-254,4,0,0,1,14.588842
1587,647,1,0,0,0,731.754639
-1283,1384,2,0,0,1,14.588842
-1055,-1148,3,0,0,0,758.890930
882,-90,4,0,0,0,921.269287
691,672,1,0,0,0,897.192810
-26,1704,2,0,0,0,733.368835
-149,-1928,3,0,0,1,14.588842
669,-1415,4,0,0,0,757.781860
1954,1123,1,0,0,1,14.588842
-691,1525,2,0,0,1,14.588842
-236,-281,3,1,0,1,14.588842
1301,-1212,4,0,0,1,14.588842
1348,241,1,1,0,1,14.588842
-198,1870,2,0,0,1,14.588842
-422,-1726,3,0,0,1,14.588842
1488,-302,4,1,0,1,14.588842
784,1024,1,0,0,0,813.405884
-1079,389,2,0,0,1,14.588842
-1920,-1551,3,1,0,1,14.588842
638,-1798,4,0,0,1,14.588842
1513,749,1,1,0,1,14.588842
-1413,882,2,1,0,1,14.588842
-1019,-1214,3,0,0,0,754.174011
28,-1037,4,1,0,1,14.588842
1812,812,1,0,0,1,14.588842
-518,396,2,1,0,1,14.588842
-282,-1073,3,0,0,0,856.705627
904,-657,4,1,0,1,14.588842
118,786,1,0,0,0,952.750366
-422,1943,2,0,0,1,14.588842
-1704,-240,3,0,0,0,730.586060
1306,-552,4,0,0,0,786.168030
324,521,1,0,0,0,1027.366577
-384,1476,2,1,0,1,14.588842
-551,-648,3,1,0,1,14.588842
1283,-1723,4,0,0,1,14.588842
144,1756,1,0,0,1,14.588842
-1275,1528,2,0,0,1,14.588842
-317,-945,3,1,0,1,14.588842
1164,-1921,4,0,0,1,14.588842
401,1480,1,0,0,0,763.677429
-1950,834,2,0,0,1,14.588842
-392,-1102,3,1,0,1,14.588842
175,-881,4,1,0,1,14.588842
1665,849,1,1,0,1,14.588842
-463,1741,2,0,0,1,14.588842
-592,-522,3,0,0,0,954.765015
1301,-1047,4,0,0,0,739.187012
154,1728,1,0,0,0,728.258179
-135,1169,2,0,0,0,839.752441
-262,-905,3,0,0,0,903.755859
1282,-94,4,0,0,0,814.348633
87,1427,1,0,0,0,783.789917
-541,1850,2,0,0,1,14.588842
-1830,-483,3,0,0,1,14.588842
506,-731,4,1,0,1,14.588842
1582,424,1,0,0,0,744.761475
-581,1203,2,1,0,1,14.588842
-1966,-1738,3,0,0,1,14.588842
112,-1410,4,1,0,1,14.588842
579,1219,1,0,0,0,800.364563
-1179,1092,2,1,0,1,14.588842
-1875,-1197,3,0,0,1,14.588842
190,-1325,4,0,0,0,802.709717
1040,802,1,0,0,0,808.180664
-375,1282,2,1,0,1,14.588842
-224,-1684,3,0,0,0,734.273315
384,-792,4,0,0,0,923.355652
356,1164,1,0,0,0,830.030151
-231,488,2,0,0,0,1064.221558
-279,-769,3,0,0,0,944.446228
1938,-1501,4,0,0,1,14.588842
1477,1009,1,0,0,1,14.588842
-423,1458,2,0,0,1,14.588842
-1278,-123,3,0,0,0,814.692627
263,-426,4,0,0,0,1085.996338
1732,1216,1,1,0,1,14.588842
-961,1336,2,0,0,1,14.588842
-1730,-1187,3,0,0,1,14.588842
669,-969,4,0,0,0,839.572266
801,735,1,0,0,0,862.554382
-883,970,2,0,0,1,14.588842
-1983,-1655,3,1,0,1,14.588842
182,-1365,4,0,0,0,794.554504
877,1962,1,0,0,1,14.588842
-1679,548,2,0,0,1,14.588842
-821,-1631,3,1,0,1,14.588842
1854,-1953,4,0,0,1,14.588842
1551,1234,1,0,0,1,14.588842
-1167,1437,2,0,0,1,14.588842
-1840,-846,3,1,0,1,14.588842
1490,-958,4,1,0,1,14.588842
1056,1845,1,0,0,1,14.588842
-571,485,2,0,0,1,14.588842
-280,-1727,3,0,0,0,725.838867
1033,-534,4,0,0,0,843.173279
695,769,1,0,0,0,876.271729
-1094,1578,2,1,0,1,14.588842
-496,-1962,3,0,0,1,14.588842
254,-779,4,0,0,0,943.983093
1546,1111,1,0,0,1,14.588842
-1132,719,2,0,0,1,14.588842
-92,-1732,3,1,0,1,14.588842
1387,-1202,4,0,0,1,14.588842
24,303,1,1,0,1,14.588842
-1882,985,2,0,0,1,14.588842
-505,-1770,3,0,0,1,14.588842
213,-12,4,1,0,1,14.588842
1791,721,1,0,0,1,14.588842
-84,1119,2,1,0,1,14.588842
-955,-1778,3,0,0,1,14.588842
547,-1815,4,0,0,1,14.588842
1778,1414,1,0,0,1,14.588842
-233,1408,2,1,0,1,14.588842
-1533,-285,3,0,0,0,758.868225
1513,-1246,4,0,0,1,14.588842
242,1619,1,0,0,0,744.909851
-226,923,2,0,0,0,901.289307
-347,-753,3,1,0,1,14.588842
1517,-665,4,0,0,0,741.535645
877,756,1,0,0,0,844.410278
-1212,1770,2,0,0,1,14.588842
-1733,-1417,3,0,0,1,14.588842
709,-1498,4,1,0,1,14.588842
641,895,1,1,0,1,14.588842
-1209,320,2,0,0,1,14.588842
-492,-909,3,0,0,0,877.083374
760,-705,4,0,0,0,876.239563
1460,130,1,0,0,0,776.621643
-1361,554,2,0,0,1,14.588842
-341,-1109,3,0,0,0,843.821716
1334,-1937,4,0,0,1,14.588842
1948,1030,1,0,0,1,14.588842
-759,1898,2,0,0,1,14.588842
-527,-1370,3,0,0,0,776.212463
1754,-33,4,0,0,0,725.060059
561,103,1,0,0,0,1048.393555
-711,356,2,0,0,1,14.588842
-1382,-1835,3,1,0,1,14.588842
1163,-1907,4,0,0,1,14.588842
1878,1272,1,1,0,1,14.588842
-742,757,2,0,0,1,14.588842
-236,-1787,3,0,0,1,14.588842
1297,-1717,4,0,0,1,14.588842
1199,1337,1,0,0,1,14.588842
-1676,1503,2,0,0,1,14.588842
-27,-583,3,0,0,0,1041.773315
97,-61,4,1,0,1,14.588842
609,1332,1,0,0,0,776.848694
-1389,860,2,0,0,1,14.588842
-1289,-257,3,0,0,0,807.950378
1115,-1344,4,0,0,0,726.372131
1983,1672,1,1,0,1,14.588842
-1739,1512,2,0,0,1,14.588842
-682,-1645,3,0,0,1,14.588842
1073,-611,4,0,0,0,825.914368
210,991,1,0,0,0,882.879517
-461,1265,2,0,0,1,14.588842
-494,-689,3,0,0,0,934.155273
521,-1155,4,0,0,0,818.487793
81,1393,1,0,0,0,790.766479
-70,513,2,0,0,0,1076.305786
-801,-1528,3,0,0,0,729.853699
610,-1162,4,0,0,0,808.385925
404,1340,1,1,0,1,14.588842
-666,129,2,1,0,1,14.588842
-1806,-533,3,0,0,1,14.588842
1165,-809,4,0,0,0,786.070374
89,758,1,0,0,0,964.441650
-1151,645,2,0,0,1,14.588842
-1711,-1340,3,0,0,1,14.588842
1485,-1260,4,0,0,1,14.588842
1873,1993,1,0,0,1,14.588842
-658,607,2,0,0,1,14.588842
-1230,-1416,3,0,0,1,14.588842
1889,-37,4,0,0,1,14.588842
502,1528,1,0,0,0,749.973694
-1963,432,2,0,0,1,14.588842
-716,-401,3,0,0,0,943.533142
1391,-545,4,0,0,0,771.152710
1946,638,1,0,0,1,14.588842
-1656,1784,2,1,0,1,14.588842
-1339,-1628,3,0,0,1,14.588842
1019,-935,4,0,0,0,793.329346
154,242,1,0,0,0,1246.647339
-1405,1691,2,0,0,1,14.588842
-1229,-468,3,0,0,0,807.792786
1558,-1479,4,0,0,1,14.588842
1008,1690,1,1,0,1,14.588842
-1861,605,2,1,0,1,14.588842
-831,-1782,3,1,0,1,14.588842
937,-1336,4,0,0,0,745.815308
990,1470,1,1,0,1,14.588842
-76,1862,2,0,0,1,14.588842
-304,-274,3,1,0,1,14.588842
1924,-881,4,0,0,1,14.588842
838,1431,1,1,0,1,14.588842
-329,539,2,0,0,0,1019.053955
-1051,-1515,3,0,0,1,14.588842
556,-1811,4,0,0,1,14.588842
1186,1413,1,0,0,1,14.588842
-890,67,2,1,0,1,14.588842
-1970,-1105,3,0,0,1,14.588842
1130,-86,4,0,0,0,850.590088
1957,139,1,1,0,1,14.588842
-1906,126,2,0,0,1,14.588842
-1787,-71,3,0,0,1,14.588842
313,-1148,4,0,0,0,836.559326
1126,148,1,0,0,0,849.976929
-548,356,2,0,0,0,1009.178406
-847,-1494,3,0,0,0,731.157227
1101,-1851,4,0,0,1,14.588842
743,1915,1,1,0,1,14.588842
-1130,301,2,0,0,1,14.588842
-615,-142,3,0,0,0,1019.188904
467,-502,4,1,0,1,14.588842
458,698,1,0,0,0,938.589905
-1293,609,2,0,0,1,14.588842
-1360,-998,3,1,0,1,14.588842
663,-214,4,1,0,1,14.588842
1142,1715,1,0,0,1,14.588842
-561,976,2,0,0,1,14.588842
-1853,-2,3,0,0,1,14.588842
551,-1061,4,1,0,1,14.588842
104,1325,1,0,0,0,804.752258
-1167,1265,2,0,0,1,14.588842
-940,-211,3,0,0,0,897.339294
1236,-1793,4,0,0,1,14.588842
779,1404,1,1,0,1,14.588842
-943,588,2,0,0,1,14.588842
-577,-613,3,0,0,0,936.185547
1889,-1951,4,1,0,1,14.588842
959,1651,1,0,0,1,14.588842
-268,655,2,0,0,0,986.200806
-1441,-165,3,0,0,0,779.647644
1607,-1398,4,1,0,1,14.588842
366,839,1,0,0,0,912.068848
-1268,173,2,1,0,1,14.588842
-448,-619,3,0,0,0,964.100464
517,-1185,4,0,0,0,812.691956
1488,946,1,0,0,1,14.588842
-1411,1133,2,0,0,1,14.588842
-905,-1962,3,0,0,1,14.588842
1307,-375,4,0,0,0,798.197571
1961,454,1,0,0,1,14.588842
-1866,1058,2,0,0,1,14.588842
-1474,-1942,3,0,0,1,14.588842
354,-27,4,0,0,0,1185.128540
229,1329,1,0,0,0,800.563477
-1327,1467,2,0,0,1,14.588842
-1899,-735,3,0,0,1,14.588842
915,-564,4,1,0,1,14.588842
521,794,1,0,0,0,901.469421
-856,706,2,0,0,1,14.588842
-1041,-780,3,0,0,0,810.933838
769,-106,4,0,0,0,959.550598
1020,399,1,1,0,1,14.588842
-1428,1049,2,1,0,1,14.588842
-762,-592,3,1,0,1,14.588842
1489,-747,4,0,0,0,739.892212
1808,1537,1,0,0,1,14.588842
-152,605,2,1,0,1,14.588842
-637,-1425,3,0,0,0,758.568726
643,-1581,4,0,0,0,732.939148
1443,77,1,0,0,0,780.711609
-1385,511,2,0,0,1,14.588842
-158,-387,3,0,0,0,1138.022217
39,-851,4,0,0,0,932.766296
102,1289,1,0,0,0,812.656616
-1214,651,2,0,0,1,14.588842
-513,-1503,3,0,0,0,753.602844
1094,-759,4,0,0,0,804.226318
1398,1999,1,1,0,1,14.588842
-1284,1007,2,0,0,1,14.588842
-1321,-1637,3,1,0,1,14.588842
858,-1100,4,1,0,1,14.588842
901,1587,1,0,0,1,14.588842
-186,955,2,0,0,0,894.497559
-946,-622,3,0,0,0,850.869873
1831,-1225,4,0,0,1,14.588842
1126,641,1,1,0,1,14.588842
-1481,1669,2,0,0,1,14.588842
-1996,-432,3,0,0,1,14.588842
365,-57,4,0,0,0,1173.662964
1072,391,1,0,0,0,848.613098
-142,1529,2,0,0,0,763.262634
-98,-1041,3,0,0,0,873.761841
796,-1899,4,0,0,1,14.588842
991,248,1,1,0,1,14.588842
-794,768,2,0,0,1,14.588842
-220,-635,3,1,0,1,14.588842
134,-1367,4,0,0,0,795.291565
1338,674,1,0,0,0,770.343567
-940,1821,2,0,0,1,14.588842
-823,-104,3,0,0,0,940.425110
1726,-1568,4,1,0,1,14.588842
845,607,1,0,0,0,875.192261
-203,151,2,1,0,1,14.588842
-945,-1829,3,0,0,1,14.588842
1292,-600,4,0,0,0,784.822266
1605,1635,1,0,0,1,14.588842
-1693,763,2,0,0,1,14.588842
-347,-1993,3,0,0,1,14.588842
692,-782,4,0,0,0,874.143677
913,416,1,0,0,0,885.649414
-395,1624,2,0,0,1,14.588842
-890,-1695,3,0,0,1,14.588842
1775,-194,4,0,0,1,14.588842
1465,1717,1,0,0,1,14.588842
-1067,1574,2,0,0,1,14.588842
-1923,-814,3,0,0,1,14.588842
200,-1123,4,0,0,0,848.716736
1733,1510,1,0,0,1,14.588842
-1519,1841,2,0,0,1,14.588842
-1179,-1671,3,0,0,1,14.588842
947,-426,4,0,0,0,875.750305
1352,1230,1,0,0,1,14.588842
-1457,1994,2,0,0,1,14.588842
-698,-1927,3,0,0,1,14.588842
1851,-1009,4,0,0,1,14.588842
842,1351,1,1,0,1,14.588842
-354,1749,2,1,0,1,14.588842
-1732,-882,3,1,0,1,14.588842
968,-114,4,0,0,0,893.981567
1497,1645,1,1,0,1,14.588842
-1751,1288,2,0,0,1,14.588842
-388,-391,3,1,0,1,14.588842
157,-1706,4,1,0,1,14.588842
1497,102,1,1,0,1,14.588842
-1501,166,2,0,0,1,14.588842
-1033,-508,3,1,0,1,14.588842
1772,-1704,4,1,0,1,14.588842
956,1836,1,1,0,1,14.588842
-488,1870,2,0,0,1,14.588842
-958,-664,3,0,0,0,842.492493
1349,-1705,4,0,0,1,14.588842
1606,1268,1,0,0,1,14.588842
-916,1305,2,0,0,1,14.588842
-1667,-1125,3,0,0,1,14.588842
125,-915,4,0,0,0,909.518005
1794,1925,1,0,0,1,14.588842
-247,1153,2,0,0,1,14.588842
-232,-939,3,0,0,0,896.192200
1715,-575,4,1,0,1,14.588842
1245,1901,1,0,0,1,14.588842
-160,583,2,0,0,0,1031.613647
-833,-1277,3,1,0,1,14.588842
257,-1820,4,0,0,1,14.588842
721,1453,1,0,0,0,747.539551
-1892,1852,2,0,0,1,14.588842
-698,-636,3,1,0,1,14.588842
1642,-121,4,0,0,0,743.255859
192,17,1,0,0,0,1361.339600
-1104,1370,2,0,0,1,14.588842
-1048,-1744,3,0,0,1,14.588842
470,-252,4,0,0,0,1067.777222
1385,266,1,0,0,0,787.702393
-1425,1573,2,0,0,1,14.588842
-850,-171,3,0,0,0,927.692322
1964,-302,4,0,0,1,14.588842
1054,738,1,0,0,0,814.070557
-329,391,2,0,0,0,1080.091553
-1184,-1440,3,1,0,1,14.588842
1970,-1156,4,0,0,1,14.588842
912,731,1,0,0,0,841.706299
-761,1094,2,0,0,1,14.588842
-281,-770,3,0,0,0,943.875000
1602,-1601,4,0,0,1,14.588842
1295,211,1,0,0,0,808.452332
-1385,802,2,0,0,1,14.588842
-377,-506,3,0,0,0,1019.269958
1791,-528,4,0,0,1,14.588842
382,1058,1,0,0,0,852.735413
-1311,1840,2,1,0,1,14.588842
-1052,-680,3,0,0,0,821.781738
422,-246,4,0,0,0,1093.097656
1531,1594,1,1,0,1,14.588842
-647,103,2,0,0,0,1008.445129
-138,-1913,3,0,0,1,14.588842
874,-1687,4,1,0,1,14.588842
1763,65,1,1,0,1,14.588842
-1531,1951,2,0,0,1,14.588842
-1769,-11,3,1,0,1,14.588842
432,-1289,4,0,0,0,798.254089
1918,1531,1,0,0,1,14.588842
-1908,1040,2,1,0,1,14.588842
-280,-629,3,0,0,0,994.128845
1651,-1226,4,0,0,1,14.588842
558,1754,1,1,0,1,14.588842
-1424,1919,2,1,0,1,14.588842
-1410,-1710,3,0,0,1,14.588842
1059,-561,4,0,0,0,834.508911
40,1521,1,0,0,0,765.902161
-1327,1671,2,0,0,1,14.588842
-1115,-1012,3,1,0,1,14.588842
858,-1555,4,0,0,1,14.588842
1981,1240,1,0,0,1,14.588842
-661,1929,2,1,0,1,14.588842
-1389,-188,3,0,0,0,789.469482
1380,-1295,4,0,0,1,14.588842
1560,159,1,0,0,0,757.250122
-432,1321,2,0,0,1,14.588842
-1130,-235,3,1,0,1,14.588842
77,-192,4,0,0,0,1340.951904
498,1331,1,0,0,0,785.510376
-1307,356,2,0,0,1,14.588842
-349,-1151,3,0,0,0,833.471191
1272,-1031,4,0,0,0,744.844604
27,1048,1,0,0,0,873.007141
-1545,706,2,1,0,1,14.588842
-1575,-1426,3,0,0,1,14.588842
1626,-1012,4,0,0,1,14.588842
575,301,1,0,0,0,1011.154236
-1490,917,2,0,0,1,14.588842
-161,-393,3,1,0,1,14.588842
1478,-204,4,0,0,0,771.526794
671,1940,1,0,0,1,14.588842
-897,860,2,0,0,1,14.588842
-858,-1300,3,0,0,0,759.172546
0,-549,4,0,0,0,1059.408203
1854,90,1,0,0,1,14.588842
-231,921,2,0,0,1,14.588842
-1591,-818,3,0,0,1,14.588842
10,-449,4,1,0,1,14.588842
1822,890,1,1,0,1,14.588842
-1517,268,2,0,0,1,14.588842
-1603,-1468,3,0,0,1,14.588842
1719,-1318,4,1,0,1,14.588842
554,1021,1,1,0,1,14.588842
-1263,1634,2,0,0,1,14.588842
-1940,-477,3,0,0,1,14.588842
729,-453,4,1,0,1,14.588842
742,785,1,1,0,1,14.588842
-193,1809,2,0,0,1,14.588842
-444,-879,3,0,0,0,891.018127
1072,-1863,4,0,0,1,14.588842
1921,269,1,0,0,1,14.588842
-932,470,2,1,0,1,14.588842
-1200,-749,3,0,0,0,786.837036
827,-1089,4,0,0,0,796.576416
1455,1788,1,0,0,1,14.588842
-254,979,2,0,0,1,14.588842
-1725,-1656,3,0,0,1,14.588842
1253,-513,4,0,0,0,799.422668
936,1215,1,0,0,0,763.609131
-1728,202,2,0,0,1,14.588842
-1677,-1865,3,0,0,1,14.588842
1310,-1068,4,0,0,0,735.736755
1025,1554,1,1,0,1,14.588842
-519,1746,2,0,0,1,14.588842
-763,-700,3,1,0,1,14.588842
1842,-772,4,0,0,1,14.588842
1193,645,1,0,0,0,798.945557
-382,1921,2,0,0,1,14.588842
-601,-1548,3,0,0,0,740.806030
200,-571,4,0,0,0,1031.396118
512,1831,1,0,0,1,14.588842
-1457,1880,2,0,0,1,14.588842
-1338,-1032,3,0,0,0,735.809814
1836,-1434,4,1,0,1,14.588842
1340,283,1,1,0,1,14.588842
-1737,92,2,0,0,0,727.501221
-9,-560,3,1,0,1,14.588842
1020,-456,4,0,0,0,854.676086
1567,1564,1,0,0,1,14.588842
-352,1947,2,0,0,1,14.588842
-1792,-1484,3,1,0,1,14.588842
1201,-1999,4,0,0,1,14.588842
613,587,1,0,0,0,933.838745
-1137,1463,2,0,0,1,14.588842
-392,-301,3,0,0,0,1089.714111
1227,-1774,4,0,0,1,14.588842
715,738,1,1,0,1,14.588842
-520,1495,2,0,0,1,14.588842
-1889,-1253,3,1,0,1,14.588842
1346,-321,4,0,0,0,793.166504
395,1684,1,0,0,0,729.109314
-1420,1279,2,0,0,1,14.588842
-1357,-776,3,0,0,0,758.143372
1791,-182,4,0,0,1,14.588842
219,1812,1,0,0,1,14.588842
-1266,1776,2,0,0,1,14.588842
-1437,-1558,3,0,0,1,14.588842
325,-728,4,0,0,0,951.866028
1622,558,1,0,0,0,731.507324
-504,768,2,0,0,1,14.588842
-920,-1056,3,0,0,0,789.698608
1328,-1269,4,0,0,1,14.588842
59,152,1,0,0,0,1409.623047
-1145,1745,2,1,0,1,14.588842
-1530,-1768,3,0,0,1,14.588842
1062,-1995,4,0,0,1,14.588842
239,1979,1,0,0,1,14.588842
-1875,1082,2,0,0,1,14.588842
-1044,-1692,3,0,0,1,14.588842
1043,-1913,4,0,0,1,14.588842
994,660,1,1,0,1,14.588842
-577,1339,2,0,0,1,14.588842
-645,-969,3,1,0,1,14.588842
1860,-1700,4,1,0,1,14.588842
1786,698,1,0,0,1,14.588842
-634,835,2,0,0,1,14.588842
-92,-622,3,0,0,0,1020.293518
881,-1804,4,0,0,1,14.588842
1050,1134,1,0,0,0,761.420898
-1348,1086,2,1,0,1,14.588842
-770,-162,3,0,0,0,955.647339
1017,-816,4,0,0,0,810.250488
227,258,1,0,0,0,1194.527466
-57,1174,2,0,0,0,840.091553
-716,-1269,3,0,0,0,778.335144
734,-1345,4,1,0,1,14.588842
1067,1560,1,1,0,1,14.588842
-1474,631,2,0,0,1,14.588842
-1434,-1886,3,0,0,1,14.588842
95,-1837,4,0,0,1,14.588842
138,1938,1,0,0,1,14.588842
-313,1160,2,0,0,1,14.588842
-546,-686,3,0,0,0,924.476807
1556,-1741,4,1,0,1,14.588842
315,586,1,0,0,0,1004.013000
-1523,631,2,0,0,1,14.588842
-684,-921,3,1,0,1,14.588842
622,-1201,4,1,0,1,14.588842
785,941,1,0,0,0,828.094727
-42,974,2,0,0,0,893.917847
-956,-258,3,0,0,0,889.434875
1661,-651,4,0,0,1,14.588842
1753,1575,1,1,0,1,14.588842
-254,800,2,0,0,0,937.038147
-1473,-1395,3,0,0,1,14.588842
1120,-1647,4,1,0,1,14.588842
441,1169,1,0,0,0,822.522339
-1625,1206,2,1,0,1,14.588842
-918,-1256,3,0,0,0,759.522278
650,-978,4,0,0,0,840.356384
827,989,1,1,0,1,14.588842
-975,1860,2,1,0,1,14.588842
-1732,-1381,3,1,0,1,14.588842
1553,-1547,4,0,0,1,14.588842
528,1140,1,1,0,1,14.588842
-1585,455,2,0,0,1,14.588842
-1505,-80,3,0,0,0,768.632751
146,-1673,4,0,0,0,737.579712
1030,890,1,1,0,1,14.588842
-34,1914,2,0,0,1,14.588842
-1882,-764,3,0,0,1,14.588842
355,-1134,4,0,0,0,836.955261
539,1242,1,1,0,1,14.588842
-36,909,2,1,0,1,14.588842
-1093,-1794,3,1,0,1,14.588842
1889,-1219,4,0,0,1,14.588842
1000,362,1,0,0,0,868.875000
-1223,1941,2,0,0,1,14.588842
-48,-1571,3,1,0,1,14.588842
371,-1773,4,0,0,1,14.588842
746,312,1,0,0,0,947.787415
-1068,195,2,0,0,1,14.588842
-225,-183,3,0,0,0,1243.467407
343,-1179,4,0,0,0,827.522766
1839,1737,1,0,0,1,14.588842
-420,880,2,0,0,1,14.588842
-1993,-1998,3,0,0,1,14.588842
829,-830,4,1,0,1,14.588842
699,1270,1,1,0,1,14.588842
-1884,679,2,0,0,1,14.588842
-164,-613,3,0,0,0,1017.649780
1634,-1363,4,0,0,1,14.588842
214,898,1,0,0,0,909.627808
-741,552,2,0,0,1,14.588842
-1600,-370,3,0,0,0,743.993408
201,-201,4,0,0,0,1249.261963
114,1234,1,0,0,0,824.871033
-869,1714,2,0,0,1,14.588842
-1632,-243,3,0,0,0,742.639771
1168,-1171,4,0,0,0,741.956970
1929,1151,1,0,0,1,14.588842
-691,886,2,0,0,1,14.588842
-528,-95,3,0,0,0,1066.061157
158,-1823,4,0,0,1,14.588842
262,1457,1,0,0,0,773.776550
-1291,678,2,0,0,1,14.588842
-827,-84,3,1,0,1,14.588842
1760,-476,4,1,0,1,14.588842
1733,253,1,0,0,0,725.541016
-351,496,2,0,0,0,1030.150635
-1371,-1834,3,1,0,1,14.588842
1932,-289,4,1,0,1,14.588842
709,1350,1,0,0,0,765.274719
-1185,512,2,0,0,1,14.588842
-1168,-1844,3,0,0,1,14.588842
832,-1995,4,1,0,1,14.588842
747,1477,1,0,0,0,741.743530
-648,660,2,1,0,1,14.588842
-397,-1283,3,0,0,0,801.752625
871,-1712,4,0,0,1,14.588842
321,750,1,1,0,1,14.588842
-248,1156,2,0,0,1,14.588842
-1333,-412,3,0,0,0,790.794250
1749,-1469,4,0,0,1,14.588842
1690,1652,1,0,0,1,14.588842
-284,1303,2,0,0,1,14.588842
-925,-1993,3,0,0,1,14.588842
1939,-1639,4,0,0,1,14.588842
1372,100,1,1,0,1,14.588842
-1923,1148,2,0,0,1,14.588842
-1837,-688,3,0,0,1,14.588842
248,-630,4,0,0,0,998.963257
1017,444,1,0,0,0,856.638611
-765,1881,2,0,0,1,14.588842
-1432,-368,3,1,0,1,14.588842
713,-1971,4,0,0,1,14.588842
753,1353,1,0,0,0,760.871216
-1061,1782,2,0,0,1,14.588842
-27,-1011,3,0,0,0,883.347595
107,-869,4,0,0,0,924.871277
1286,118,1,0,0,0,813.018494
-1666,826,2,1,0,1,14.588842
-1421,-1917,3,0,0,1,14.588842
1032,-43,4,1,0,1,14.588842
956,950,1,0,0,0,800.741211
-1271,575,2,0,0,1,14.588842
-1320,-152,3,0,0,0,804.828491
1084,-334,4,0,0,0,850.330750
1691,1060,1,0,0,1,14.588842
-336,395,2,0,0,0,1075.848389
-1742,-1332,3,0,0,1,14.588842
756,-58,4,1,0,1,14.588842
557,643,1,0,0,0,933.168396
-1354,5,2,0,0,0,799.409790
-248,-1880,3,0,0,1,14.588842
1268,-26,4,0,0,0,818.216309
1392,1766,1,0,0,1,14.588842
-1134,1503,2,1,0,1,14.588842
-587,-710,3,0,0,0,910.225891
1106,-1943,4,0,0,1,14.588842
743,721,1,1,0,1,14.588842
-1131,670,2,0,0,1,14.588842
-1344,-759,3,0,0,0,761.784241
144,-1062,4,0,0,0,866.660767
203,472,1,0,0,0,1078.515015
-707,991,2,0,0,1,14.588842
-411,-1468,3,0,0,0,765.351135
1324,-54,4,1,0,1,14.588842
890,1501,1,1,0,1,14.588842
-1142,1147,2,1,0,1,14.588842
-977,-100,3,0,0,0,891.799377
824,-253,4,1,0,1,14.588842
41,1993,1,0,0,1,14.588842
-1733,310,2,0,0,1,14.588842
-631,-1511,3,0,0,0,744.826477
1493,-810,4,0,0,0,734.317139
556,356,1,0,0,0,1006.227783
-687,1432,2,0,0,1,14.588842
-1266,-992,3,0,0,0,749.971924
149,-842,4,0,0,0,931.689819
1809,1389,1,0,0,1,14.588842
-1521,1616,2,0,0,1,14.588842
-1967,-675,3,0,0,1,14.588842
758,-1367,4,0,0,0,758.165283
1693,827,1,1,0,1,14.588842
-384,183,2,0,0,0,1132.984131
-374,-407,3,0,0,0,1057.448853
1592,-1352,4,0,0,1,14.588842
885,695,1,0,0,0,852.625977
-1675,154,2,0,0,1,14.588842
-492,-395,3,0,0,0,1019.297546
1371,-91,4,0,0,0,795.194397
1446,1024,1,0,0,1,14.588842
-1526,461,2,0,0,1,14.588842
-1494,-764,3,0,0,0,737.809265
1495,-1667,4,0,0,1,14.588842
1931,1659,1,0,0,1,14.588842
-334,1712,2,1,0,1,14.588842
-375,-1650,3,0,0,0,735.415894
1478,-1633,4,0,0,1,14.588842
51,393,1,0,0,0,1153.409546
-10,1423,2,0,0,0,785.122314
-319,-1924,3,0,0,1,14.588842
1525,-1522,4,0,0,1,14.588842
1027,621,1,0,0,0,834.091980
-1976,399,2,0,0,1,14.588842
-1069,-1475,3,0,0,1,14.588842
421,-329,4,0,0,0,1067.231567
547,1965,1,0,0,1,14.588842
-1401,835,2,1,0,1,14.588842
-1694,-1158,3,1,0,1,14.588842
1059,-419,4,0,0,0,849.169128
1266,1798,1,0,0,1,14.588842
-1405,1953,2,1,0,1,14.588842
-308,-733,3,1,0,1,14.588842
1914,-1359,4,0,0,1,14.588842
1149,261,1,1,0,1,14.588842
-1733,1584,2,0,0,1,14.588842
-1853,-1079,3,0,0,1,14.588842
471,-1579,4,1,0,1,14.588842
728,924,1,1,0,1,14.588842
-590,1256,2,0,0,1,14.588842
-1353,-858,3,0,0,0,751.087952
865,1399,1,0,0,0,743.540833
-1888,1834,2,1,0,1,14.588842
-669,-1650,3,0,0,1,14.588842
400,1771,1,0,0,1,14.588842
-267,1943,2,0,0,1,14.588842
-370,-753,3,0,0,0,937.162354
1116,302,1,0,0,0,844.840637
-319,1303,2,0,0,1,14.588842
-1082,-713,3,0,0,0,812.041687
265,950,1,0,0,0,890.581055
-1201,1356,2,0,0,1,14.588842
-1555,-678,3,0,0,0,734.687378
1079,362,1,1,0,1,14.588842
-1405,186,2,1,0,1,14.588842
-446,-1659,3,0,0,0,731.072083
501,1057,1,0,0,0,841.480652
-293,1773,2,0,0,1,14.588842
-536,-1373,3,0,0,0,775.031311
1496,1835,1,1,0,1,14.588842
-1998,961,2,1,0,1,14.588842
-750,-1952,3,1,0,1,14.588842
752,1369,1,0,0,0,758.376099
-1095,1928,2,0,0,1,14.588842
-1209,-1134,3,1,0,1,14.588842
1120,805,1,0,0,0,794.094849
-1866,160,2,0,0,1,14.588842
-1941,-89,3,1,0,1,14.588842
1504,1423,1,0,0,1,14.588842
-1786,804,2,0,0,1,14.588842
-1195,-258,3,1,0,1,14.588842
888,668,1,0,0,0,856.248596
-1748,1058,2,0,0,1,14.588842
-763,-1890,3,1,0,1,14.588842
1296,1888,1,1,0,1,14.588842
-1758,304,2,0,0,1,14.588842
-1738,-1016,3,0,0,1,14.588842
1714,345,1,0,0,0,726.031189
-182,808,2,0,0,0,940.877380
-440,-741,3,0,0,0,929.438782
144,1065,1,0,0,0,865.863342
-1064,1925,2,0,0,1,14.588842
-1550,-1715,3,0,0,1,14.588842
1297,1785,1,1,0,1,14.588842
-1147,1651,2,0,0,1,14.588842
-1128,-936,3,0,0,0,776.622864
439,935,1,0,0,0,877.272034
-1842,330,2,0,0,1,14.588842
-1378,-640,3,0,0,0,766.309448
350,1979,1,0,0,1,14.588842
-1015,-848,3,1,0,1,14.588842
1335,628,1,0,0,0,774.755066
-1547,-1949,3,0,0,1,14.588842
426,1393,1,0,0,0,778.409058
-1566,-1541,3,1,0,1,14.588842
148,743,1,1,0,1,14.588842
-1731,-1490,3,0,0,1,14.588842
715,1786,1,0,0,1,14.588842
-1165,-1038,3,0,0,0,758.670288
-1908,-297,3,0,0,1,14.588842
-445,-607,3,0,0,0,968.457520
-722,-1561,3,0,0,0,730.741699
