mbs coordinate
0,0

cbsd coordinate and channel
-970,900,2
740,900,1
980,-860,1
-750,-850,5
-750,1000,4
1050,600,2
760,-1135,3
-870,-1100,1
-1080,450,1
970,530,3
540,-1000,2
-1200,-300,3
-200,1170,7
820,1255,4
930,-1080,6
-1115,-505,2
-180,1230,3
500,1150,8
1200,-450,10
-500,-1100,7
-650,980,9
1180,450,9
700,-1160,7
-1050,-900,8
-1200,820,10
1200,1000,11
1340,-1120,12
-1440,-1280,10
-1160,1350,13
1420,960,14

building coordinate
-885,985
-1055,815
830,810
650,990
1060,-860
900,-860
-830,-770
-670,-930
-668,1070
-832,930
965,675
1135,525
832,-1059
688,-1211
-965,-1035
-775,-1165
-1135,365
-1025,535
907,591
1033,469
638,-906
442,-1094
-1275,-390
-1125,-210
-298,1123
-102,1217
910,1206
730,1304
1005,-1005
855,-1155
-1178,-407
-1052,-603
-120,1290
-240,1170
410,1240
590,1060
1275,-375
1125,-525
-577,-1023
-423,-1177
-600,1070
-710,890
1135,535
1225,365
743,-1077
657,-1243
-1138,-855
-962,-945
-1100,866
-1300,774
1100,1100
1300,900
1440,-1020
1240,-1220
-1540,-1180
-1340,-1380
-1060,1450
-1260,1250
1320,1060
1520,860

area numbers
855,947,882,916

x , y , block , block number
area 1
1099,199,0,0
797,298,0,0
388,560,0,0
1014,1859,0,0
1486,454,0,0
226,1008,1,0
996,1383,0,0
462,1456,0,0
168,1743,0,0
245,1895,0,0
1274,897,0,0
1482,640,0,0
299,911,0,0
1958,1778,0,0
270,459,0,0
403,59,0,0
1367,381,1,0
1542,1576,1,0
673,324,0,0
518,955,0,0
1340,1090,0,0
1823,527,0,0
1710,246,1,0
441,1960,0,0
684,985,0,0
1885,238,0,0
1887,158,1,0
1733,1434,0,0
590,1617,0,0
1338,205,1,0
48,1390,1,0
1705,1654,0,0
1666,1631,0,0
287,915,0,0
1221,1669,0,0
367,791,0,0
284,616,0,0
962,780,1,0
963,1593,0,0
362,1166,0,0
1879,1074,0,0
142,446,0,0
1668,1160,0,0
1615,603,0,0
360,1736,0,0
436,357,1,0
892,1138,0,0
707,242,0,0
1482,1530,0,0
403,1312,1,0
1346,1194,0,0
148,1313,0,0
1686,1343,1,0
208,1042,0,0
579,1929,0,0
774,673,0,0
402,1580,0,0
702,1947,0,0
1670,1101,1,0
594,748,0,0
288,1599,0,0
710,1183,1,0
442,1717,0,0
1680,1402,0,0
638,1827,1,0
1191,979,0,0
1937,4,0,0
846,1838,0,0
1651,1413,0,0
1685,614,1,0
1638,872,0,0
1722,1161,0,0
529,1941,0,0
272,950,0,0
295,940,0,0
97,662,0,0
1851,9,1,0
874,713,1,0
1260,121,1,0
1479,1980,0,0
1849,1146,0,0
215,314,0,0
553,662,1,0
787,1463,0,0
952,1757,0,0
286,557,0,0
542,1293,1,0
408,873,1,0
411,1598,0,0
484,1832,1,0
1983,595,0,0
381,1732,0,0
580,1149,1,0
1639,362,0,0
158,158,0,0
1963,1153,1,0
536,151,0,0
1022,784,1,0
1410,151,0,0
1413,249,0,0
1475,235,0,0
1917,1859,1,0
1742,41,0,0
961,579,0,0
267,1755,0,0
1025,922,0,0
1069,1402,0,0
1347,259,0,0
154,187,1,0
1864,287,0,0
441,1100,0,0
76,1853,0,0
1038,1552,0,0
1321,1600,0,0
393,866,1,0
914,1735,0,0
1614,827,0,0
325,964,0,0
1605,331,1,0
1436,1681,0,0
1151,263,0,0
1657,1253,0,0
466,1570,0,0
1192,1302,1,0
975,84,1,0
376,1753,0,0
1514,945,0,0
226,1640,0,0
514,1320,0,0
1350,1320,0,0
1894,72,1,0
935,1951,1,0
1080,985,0,0
1831,1231,0,0
882,1863,0,0
988,445,1,0
1123,64,1,0
1520,411,0,0
621,502,0,0
1279,1606,1,0
1796,1990,0,0
361,1989,0,0
675,1064,0,0
16,76,0,0
1830,1317,1,0
1108,629,0,0
1351,1652,0,0
1565,1568,1,0
1617,335,1,0
1108,1848,0,0
1592,812,0,0
1241,1457,0,0
1082,1367,1,0
708,654,0,0
949,1614,1,0
704,518,0,0
1241,1508,0,0
638,1426,0,0
1183,1007,0,0
206,988,0,0
1703,1672,0,0
1082,265,0,0
503,1414,0,0
1193,1539,1,0
1542,478,0,0
58,1445,0,0
1976,1660,0,0
5,904,0,0
1563,1503,0,0
216,451,0,0
1296,1327,0,0
733,1565,0,0
466,955,0,0
704,873,0,0
412,1470,1,0
484,565,0,0
1381,454,0,0
1565,939,0,0
562,1235,0,0
1081,1425,0,0
26,1451,1,0
1351,159,1,0
512,512,0,0
1629,1843,0,0
1158,1195,1,0
1547,1039,1,0
914,1723,0,0
906,1174,0,0
1606,1225,1,0
1497,239,1,0
299,1434,0,0
1179,969,0,0
656,1579,0,0
1011,1843,0,0
83,1031,0,0
1727,39,0,0
1119,1768,0,0
1891,203,1,0
249,1784,0,0
983,286,0,0
1380,1529,0,0
1762,519,0,0
1882,621,0,0
577,1764,1,0
799,1527,0,0
1964,933,0,0
1183,1336,0,0
1220,911,0,0
475,1701,0,0
506,1961,0,0
227,1042,0,0
835,1228,0,0
156,55,0,0
1866,240,0,0
1437,908,1,0
1849,356,0,0
1181,289,0,0
1210,1688,0,0
506,1692,1,0
370,102,0,0
122,1651,0,0
141,1851,1,0
1278,1531,0,0
1348,65,1,0
190,883,0,0
570,11,0,0
823,1048,0,0
292,1083,0,0
1559,1231,0,0
1989,966,0,0
355,987,1,0
540,765,0,0
1750,868,0,0
774,1963,0,0
185,1299,0,0
2,1442,1,0
748,875,0,0
1571,765,0,0
71,1831,1,0
1706,1887,0,0
996,1966,0,0
1505,1943,1,0
283,417,0,0
1683,778,0,0
1356,1393,0,0
995,1503,0,0
1931,1175,1,0
114,857,0,0
393,265,0,0
308,196,1,0
1369,1111,0,0
1608,745,1,0
96,1797,0,0
390,507,0,0
268,1411,1,0
1904,384,0,0
1610,1281,1,0
587,945,1,0
184,791,0,0
1566,1300,0,0
1456,1759,0,0
454,1891,0,0
1724,999,0,0
1760,1977,1,0
374,1191,0,0
101,883,0,0
779,1475,0,0
477,201,0,0
672,1746,1,0
461,660,0,0
739,1706,0,0
618,485,0,0
1467,1480,1,0
291,656,0,0
627,1198,1,0
612,728,1,0
1209,724,1,0
761,366,0,0
1800,1558,0,0
587,924,0,0
1940,566,0,0
1844,325,0,0
535,1439,0,0
927,1763,0,0
1102,1483,1,0
1219,504,0,0
1142,889,1,0
1326,1926,1,0
1541,1618,1,0
750,721,0,0
1655,1409,1,0
1035,295,1,0
923,129,1,0
1630,298,1,0
592,1685,0,0
1008,1494,0,0
1166,769,0,0
594,1449,0,0
1336,1193,0,0
1417,1811,1,0
1519,1979,0,0
1039,1902,0,0
977,1830,0,0
1126,230,0,0
628,1234,0,0
205,350,1,0
1885,274,1,0
1277,1869,0,0
661,1105,0,0
45,1993,0,0
414,1823,0,0
1961,1617,0,0
1921,383,0,0
450,1893,1,0
1805,1515,0,0
1381,878,0,0
1322,1713,1,0
1979,1290,0,0
1649,627,0,0
1875,1736,1,0
1139,1599,0,0
247,161,0,0
1119,299,1,0
497,773,0,0
1620,1548,0,0
1601,1862,0,0
797,1483,0,0
591,942,0,0
279,626,0,0
654,1648,0,0
712,16,0,0
94,1238,0,0
1803,1104,0,0
119,696,0,0
352,140,0,0
1474,1611,0,0
1356,492,0,0
448,1498,0,0
731,436,0,0
217,322,0,0
1433,567,0,0
994,539,0,0
1828,1629,1,0
660,794,1,0
1457,722,0,0
789,68,0,0
982,1564,0,0
543,1187,0,0
729,996,0,0
938,766,1,0
1483,113,1,0
1019,543,0,0
1685,540,1,0
1357,198,1,0
1007,402,1,0
306,1244,0,0
485,1616,1,0
892,1749,0,0
1723,1929,0,0
818,1045,0,0
207,584,0,0
1530,1669,0,0
1320,1025,0,0
763,1791,0,0
256,1440,0,0
1369,703,0,0
852,1157,0,0
918,1982,0,0
43,239,0,0
1488,139,0,0
1890,823,0,0
768,748,1,0
1901,1752,0,0
414,252,0,0
1569,748,1,0
303,1403,0,0
260,1789,0,0
967,943,0,0
1909,242,0,0
705,1551,0,0
115,1127,0,0
730,1465,0,0
1794,44,0,0
526,367,0,0
1500,1477,0,0
142,19,0,0
199,1332,0,0
1282,1309,0,0
1496,590,0,0
138,517,0,0
322,994,1,0
1237,29,0,0
808,1427,1,0
977,84,0,0
1425,758,0,0
1396,1570,0,0
654,112,0,0
6,1501,0,0
1910,1983,0,0
462,1940,1,0
509,1278,0,0
913,1658,0,0
1733,984,0,0
1819,579,0,0
1556,1448,0,0
147,1567,0,0
205,817,0,0
665,726,0,0
1049,747,0,0
1798,988,0,0
139,450,0,0
1293,1095,0,0
66,691,1,0
717,1085,0,0
235,845,0,0
721,1445,1,0
1084,1118,1,0
182,138,1,0
1088,1239,0,0
1980,312,0,0
1979,676,1,0
242,400,1,0
815,1286,0,0
907,774,0,0
1002,863,0,0
344,1837,0,0
966,302,0,0
1889,826,1,0
523,1834,0,0
572,1782,0,0
1927,876,0,0
942,738,0,0
641,460,0,0
178,733,0,0
915,1044,0,0
252,1324,0,0
759,1887,0,0
1262,529,0,0
1907,1240,0,0
1241,1780,1,0
1777,818,1,0
362,1778,0,0
333,1654,0,0
1019,1882,0,0
644,509,0,0
1531,1467,0,0
716,111,0,0
13,1749,1,0
50,1988,0,0
777,1217,0,0
146,1809,1,0
475,1724,0,0
704,1304,0,0
170,81,1,0
1583,107,1,0
1728,398,0,0
1976,502,0,0
362,549,0,0
1275,277,0,0
1592,1568,1,0
1768,273,0,0
556,1028,0,0
736,1697,1,0
837,1231,0,0
527,523,0,0
741,1405,0,0
1334,1976,0,0
1457,1236,0,0
1965,1389,0,0
699,1379,0,0
40,796,0,0
585,1843,0,0
1498,419,0,0
1665,1823,0,0
558,1373,0,0
1446,695,0,0
97,141,0,0
839,1836,0,0
1580,646,0,0
650,820,0,0
362,759,0,0
1090,1414,0,0
326,1037,0,0
1654,844,1,0
1667,1640,0,0
1381,688,1,0
1890,1720,0,0
715,370,0,0
74,414,0,0
770,82,0,0
385,1860,1,0
355,698,1,0
562,126,0,0
2,1740,1,0
684,1078,0,0
1901,1549,1,0
265,365,1,0
380,881,1,0
994,641,0,0
342,993,0,0
1872,419,1,0
634,429,1,0
226,1799,0,0
1693,493,1,0
616,1414,0,0
822,1449,0,0
954,27,0,0
174,1424,1,0
1754,1308,1,0
722,1348,1,0
881,104,0,0
594,867,0,0
1255,1702,0,0
1558,297,0,0
1162,992,0,0
337,35,0,0
1278,1271,0,0
1361,1211,0,0
19,128,1,0
1741,1108,0,0
1199,473,0,0
755,1249,0,0
445,647,0,0
915,1587,0,0
1058,1986,0,0
1986,1349,0,0
156,132,0,0
1030,904,0,0
1343,1196,0,0
206,1298,0,0
1516,23,1,0
1803,220,0,0
1494,982,0,0
915,1797,0,0
735,1210,1,0
122,1995,0,0
1202,174,1,0
257,1786,0,0
105,647,0,0
1862,56,1,0
407,1810,0,0
50,854,1,0
1642,1828,0,0
1354,1039,1,0
1176,1104,0,0
504,722,0,0
271,365,0,0
969,1185,0,0
779,892,0,0
1938,1809,0,0
1861,1060,1,0
635,1910,0,0
1473,129,1,0
1845,1165,0,0
1813,777,0,0
1773,752,0,0
1034,1162,0,0
737,864,0,0
261,1233,0,0
848,346,0,0
202,53,1,0
1568,1528,1,0
1292,1069,0,0
1229,1725,1,0
1161,1313,0,0
134,1712,1,0
480,188,0,0
318,38,0,0
17,1648,0,0
238,788,0,0
1484,190,1,0
540,1140,1,0
817,1091,0,0
1420,9,0,0
662,1347,0,0
88,628,0,0
1179,112,0,0
1217,395,0,0
1184,774,0,0
1834,1297,0,0
239,572,0,0
468,141,0,0
1667,107,0,0
985,628,0,0
407,671,1,0
1493,1248,1,0
818,1676,0,0
193,1827,0,0
584,977,1,0
995,1402,0,0
492,437,0,0
1506,1178,0,0
1639,1386,0,0
912,1344,1,0
597,842,0,0
1692,1485,1,0
129,1382,0,0
1074,531,0,0
944,1752,0,0
1552,780,1,0
1339,95,0,0
680,258,0,0
1484,735,1,0
1405,1544,0,0
812,717,0,0
548,808,0,0
1399,1593,0,0
207,772,1,0
1976,1106,0,0
1291,696,0,0
1493,170,0,0
1445,276,0,0
368,1443,0,0
991,1516,1,0
1228,1361,0,0
976,1944,0,0
1382,940,0,0
92,204,0,0
1382,1101,0,0
521,885,1,0
722,814,1,0
1485,1463,0,0
205,1952,0,0
156,1504,0,0
1357,588,0,0
626,53,0,0
235,1592,0,0
968,548,0,0
161,1554,1,0
1251,1762,1,0
77,279,0,0
689,1747,0,0
778,655,1,0
432,960,1,0
488,1547,0,0
1402,1378,0,0
1181,107,1,0
501,1037,0,0
1624,14,1,0
1109,537,1,0
1619,909,0,0
967,1767,0,0
1102,563,0,0
705,220,0,0
1094,256,0,0
20,304,0,0
690,454,0,0
22,1954,0,0
877,105,0,0
1199,1221,0,0
951,1465,0,0
1419,842,0,0
1658,1589,0,0
1212,1587,0,0
91,461,0,0
1905,247,0,0
996,1679,1,0
137,1275,0,0
395,251,0,0
1558,335,1,0
431,1961,0,0
1519,25,0,0
1719,475,0,0
1316,844,0,0
1687,1442,0,0
1047,1000,1,0
248,887,0,0
642,835,0,0
1215,305,0,0
368,402,0,0
808,1669,0,0
750,1499,0,0
1530,115,1,0
566,1684,0,0
813,1415,0,0
328,644,0,0
862,526,0,0
1743,1163,0,0
982,194,0,0
273,1476,1,0
552,437,0,0
1672,72,0,0
1664,1953,0,0
1210,505,0,0
1967,1476,0,0
1509,1629,0,0
865,778,1,0
1185,173,0,0
704,217,1,0
1643,782,0,0
1778,1720,0,0
1660,424,0,0
406,554,1,0
238,1331,0,0
511,772,0,0
846,344,1,0
1780,130,0,0
1524,1912,1,0
1753,448,0,0
257,1906,0,0
1302,613,0,0
1942,527,0,0
1950,80,0,0
897,350,0,0
1619,1992,0,0
370,1705,0,0
964,1554,0,0
146,1745,0,0
1567,91,1,0
1744,1071,1,0
1750,679,1,0
1581,1322,0,0
488,251,0,0
1670,337,0,0
1508,1921,0,0
1145,1573,0,0
1102,224,0,0
757,351,1,0
1440,1235,0,0
813,1007,0,0
1916,1609,0,0
1247,214,0,0
1545,1951,0,0
45,614,0,0
945,964,0,0
1848,393,1,0
1509,40,0,0
1739,1590,1,0
1572,1911,0,0
1031,1666,0,0
1496,310,1,0
1292,1421,0,0
1653,1932,0,0
1841,441,0,0
8,896,0,0
1631,1346,0,0
269,1132,0,0
1742,469,1,0
1569,609,0,0
374,977,0,0
1155,102,0,0
1929,1395,1,0
170,53,1,0
495,1071,1,0
1841,758,0,0
1964,1677,0,0
1894,1663,0,0
1072,866,0,0
1483,395,0,0
935,1886,0,0
1202,227,0,0
462,715,0,0
716,885,0,0
946,1774,1,0
789,1257,0,0
673,544,0,0
626,202,0,0
1867,885,0,0
1686,41,1,0
1802,1518,1,0
556,195,0,0
532,1841,0,0
812,1553,0,0
628,25,0,0
3,1976,0,0
711,27,0,0
172,361,1,0
642,1653,1,0
1580,500,0,0
1587,1151,1,0
407,580,0,0
162,789,0,0
807,370,0,0
165,309,0,0
221,682,0,0
1525,586,0,0
825,764,1,0
1398,1067,0,0
1187,714,1,0
1668,356,0,0
570,1323,0,0
1147,1758,1,0
1661,1026,1,0
1633,789,1,0
869,803,0,0
602,991,0,0
1487,1006,1,0
1871,623,0,0
543,1945,1,0
425,580,0,0
98,15,0,0
1651,1747,1,0
1250,1915,1,0
1726,551,0,0
535,11,1,0
505,1112,0,0
1529,1190,0,0
1847,167,1,0
1260,539,0,0
607,1495,0,0
1537,929,0,0
1999,395,0,0
413,1502,1,0
906,109,1,0
1954,1550,0,0
1273,1425,0,0
733,331,1,0
1601,613,0,0
794,1704,0,0
1488,424,0,0
967,682,0,0
1479,1038,0,0
1108,1189,0,0
1322,110,1,0
563,1296,0,0
270,1152,0,0
1160,1429,0,0
1920,1145,0,0
1987,1164,1,0
576,210,1,0
500,705,0,0
1747,1925,0,0
1054,1196,0,0
1264,1115,0,0
43,271,0,0
1341,1478,1,0
865,533,1,0
439,764,0,0
5,1330,0,0
457,1648,1,0
46,480,0,0
816,601,0,0
1121,1598,0,0
1724,982,0,0
729,810,0,0
1468,1578,0,0
1840,592,0,0
200,316,0,0
1041,1577,0,0
1528,512,0,0
976,1262,0,0
1919,655,0,0
1212,365,0,0
12,610,0,0
111,1953,0,0
1772,1680,0,0
1742,1973,0,0
1457,262,1,0
148,356,0,0
1968,1728,0,0
752,977,1,0
1899,1183,1,0
1588,854,0,0
1973,1413,0,0
1132,172,0,0
area 2
-36,1453,1,0
-319,321,0,0
-1683,18,0,0
-483,1463,0,0
-1065,41,1,0
-1977,237,0,0
-99,634,1,0
-1146,1793,0,0
-971,471,0,0
-1030,924,0,0
-566,762,1,0
-881,169,0,0
-226,87,1,0
-1005,900,0,0
-1935,450,0,0
-1792,65,1,0
-1208,223,1,0
-1307,1200,0,0
-118,1404,0,0
-806,136,0,0
-1364,1280,1,0
-592,1114,0,0
-1369,1807,0,0
-1505,460,0,0
-169,140,0,0
-443,1068,0,0
-624,987,0,0
-1461,858,0,0
-1912,798,0,0
-1007,1905,0,0
-957,1650,0,0
-1409,1739,0,0
-1058,833,1,0
-1367,1072,0,0
-1867,290,1,0
-1493,1387,0,0
-502,1020,0,0
-809,1097,0,0
-1380,1390,0,0
-483,1839,1,0
-425,1653,0,0
-1542,418,0,0
-497,1760,0,0
-1926,1483,0,0
-230,188,0,0
-1614,998,1,0
-204,294,0,0
-756,368,1,0
-1832,1129,1,0
-1443,1381,0,0
-1026,1829,0,0
-29,826,0,0
-1021,382,0,0
-344,761,0,0
-712,1318,1,0
-1309,1254,0,0
-1658,114,1,0
-373,1463,0,0
-318,942,0,0
-217,1137,1,0
-1694,971,0,0
-1852,267,0,0
-1769,774,0,0
-1016,1433,0,0
-1545,490,0,0
-475,1990,1,0
-111,172,0,0
-1706,527,1,0
-418,982,0,0
-1819,499,1,0
-1457,1914,0,0
-1663,316,1,0
-1222,1014,1,0
-721,322,0,0
-183,1426,0,0
-1727,206,1,0
-638,604,0,0
-767,1786,1,0
-1011,633,1,0
-201,1185,1,0
-1303,929,1,0
-565,19,0,0
-1917,680,0,0
-495,184,0,0
-1836,1972,0,0
-22,855,0,0
-166,602,0,0
-872,1857,0,0
-573,145,1,0
-748,499,0,0
-1243,700,0,0
-1009,1548,1,0
-188,1548,0,0
-64,201,1,0
-682,246,1,0
-923,512,0,0
-1691,1077,0,0
-665,491,1,0
-1152,1792,0,0
-760,551,0,0
-819,733,0,0
-826,1000,0,0
-802,640,1,0
-183,1840,0,0
-700,1238,0,0
-1423,1804,0,0
-1050,772,0,0
-1669,275,0,0
-621,262,0,0
-1380,1398,0,0
-402,1845,0,0
-1803,1266,1,0
-265,566,0,0
-1479,661,0,0
-1661,573,0,0
-1449,1405,1,0
-1900,1471,0,0
-214,810,0,0
-1160,1658,0,0
-1618,1938,0,0
-133,1845,0,0
-1566,1709,0,0
-853,773,0,0
-707,1567,0,0
-1010,1970,1,0
-581,305,0,0
-138,966,0,0
-24,1739,1,0
-898,1176,0,0
-907,1873,0,0
-1033,1882,0,0
-1082,299,0,0
-1167,496,0,0
-839,1942,0,0
-404,424,1,0
-700,1970,1,0
-1917,316,1,0
-1939,420,0,0
-121,1479,0,0
-776,151,0,0
-1462,224,0,0
-701,1902,0,0
-1704,1011,1,0
-1412,1307,0,0
-892,626,0,0
-1953,261,0,0
-735,568,1,0
-1252,1973,0,0
-1859,1451,1,0
-1417,1499,1,0
-64,974,0,0
-189,364,0,0
-912,776,0,0
-634,590,0,0
-1437,222,1,0
-1113,1503,0,0
-473,795,0,0
-1343,1359,1,0
-1781,1507,0,0
-1743,861,0,0
-759,1141,0,0
-487,754,1,0
-1,135,0,0
-1326,238,0,0
-1191,206,0,0
-1877,120,1,0
-882,754,0,0
-218,602,1,0
-924,168,0,0
-651,1194,0,0
-1955,1935,0,0
-1306,653,0,0
-262,1128,1,0
-633,380,0,0
-703,1412,0,0
-1578,714,0,0
-246,1760,1,0
-1803,95,0,0
-1608,427,0,0
-901,179,0,0
-1899,600,0,0
-1366,14,0,0
-183,758,0,0
-1449,1774,0,0
-339,577,0,0
-804,1645,0,0
-1383,219,0,0
-721,1619,1,0
-671,1053,0,0
-929,106,0,0
-1327,975,1,0
-533,1411,1,0
-1413,455,0,0
-1316,132,0,0
-1708,1071,0,0
-1520,1045,0,0
-984,474,1,0
-1107,1641,0,0
-1641,1034,0,0
-1312,890,0,0
-1762,1723,0,0
-1834,1314,1,0
-1298,962,0,0
-776,506,0,0
-1855,1391,0,0
-900,586,0,0
-1746,1433,1,0
-412,1398,1,0
-1872,951,0,0
-1458,1220,0,0
-590,1171,0,0
-194,1544,0,0
-1041,563,0,0
-1911,163,0,0
-1419,1573,0,0
-1749,1738,0,0
-589,1517,0,0
-923,784,0,0
-1316,220,0,0
-1319,1798,1,0
-858,1700,0,0
-998,892,1,0
-498,1353,0,0
-1735,511,0,0
-460,1544,0,0
-1477,191,0,0
-1702,1545,1,0
-244,426,0,0
-1277,1502,0,0
-1931,138,0,0
-1353,1428,0,0
-1972,961,1,0
-1707,1852,1,0
-146,686,0,0
-1689,254,1,0
-1406,1475,1,0
-1002,356,0,0
-874,667,0,0
-470,48,1,0
-554,1536,1,0
-1903,1848,0,0
-1949,318,0,0
-340,1761,0,0
-1070,154,0,0
-376,37,1,0
-1552,725,0,0
-1386,76,1,0
-1990,1553,0,0
-546,614,0,0
-1491,603,1,0
-141,756,0,0
-1569,1045,0,0
-1846,1120,0,0
-131,50,1,0
-429,347,1,0
-953,339,1,0
-1387,928,1,0
-1926,1501,0,0
-1100,643,0,0
-690,573,0,0
-1052,999,0,0
-1113,437,0,0
-355,1489,0,0
-383,1911,0,0
-1959,1896,0,0
-1419,818,0,0
-835,1554,0,0
-299,372,0,0
-1498,1699,0,0
-1172,1258,0,0
-484,394,0,0
-429,1912,0,0
-1052,1461,0,0
-220,228,0,0
-1709,1800,1,0
-1725,1590,0,0
-264,744,0,0
-1227,806,0,0
-694,0,0,0
-1876,1803,0,0
-1013,665,0,0
-1432,1606,0,0
-1389,1523,0,0
-535,516,0,0
-1344,1855,0,0
-1055,1398,0,0
-1158,1889,1,0
-958,924,0,0
-1987,126,0,0
-1698,1321,0,0
-1536,417,0,0
-1106,510,1,0
-1823,1468,0,0
-85,1517,0,0
-1198,1819,0,0
-1037,1673,0,0
-427,424,0,0
-1401,1319,1,0
-600,1496,0,0
-1614,843,0,0
-1718,1711,0,0
-1995,1375,0,0
-820,360,0,0
-1915,218,0,0
-863,1309,0,0
-1171,889,1,0
-1227,978,0,0
-68,1063,0,0
-996,452,1,0
-1491,1281,0,0
-544,1424,1,0
-671,129,0,0
-776,1911,0,0
-855,340,0,0
-490,310,0,0
-597,22,1,0
-1111,1777,0,0
-70,423,1,0
-51,1963,0,0
-105,1687,0,0
-303,596,0,0
-375,1279,0,0
-14,1941,0,0
-511,42,0,0
-879,1647,1,0
-355,1987,0,0
-802,532,1,0
-543,359,0,0
-302,1254,0,0
-456,648,1,0
-1525,1745,0,0
-709,1631,0,0
-886,1444,0,0
-1186,1356,0,0
-310,525,0,0
-1280,1729,0,0
-1905,669,0,0
-147,1776,0,0
-1967,745,0,0
-1407,1518,0,0
-1255,1821,1,0
-1127,980,0,0
-430,454,1,0
-486,1553,0,0
-640,309,0,0
-1470,1236,0,0
-1664,104,1,0
-1484,551,0,0
-1894,706,0,0
-228,1914,1,0
-1312,1550,0,0
-770,956,0,0
-1676,1123,0,0
-1472,1908,0,0
-984,1538,0,0
-427,1077,0,0
-1150,809,1,0
-600,328,0,0
-1920,652,0,0
-975,581,0,0
-1882,1013,0,0
-1221,1481,0,0
-1371,1352,0,0
-1938,713,0,0
-563,1831,1,0
-208,1827,0,0
-365,1218,0,0
-1735,413,0,0
-617,1224,0,0
-612,26,0,0
-757,1819,1,0
-313,605,0,0
-1464,619,0,0
-1549,1247,0,0
-847,1135,0,0
-1775,1369,0,0
-1377,8,0,0
-1256,429,0,0
-729,1233,0,0
-1569,966,0,0
-53,1168,0,0
-665,1578,0,0
-1131,23,0,0
-297,388,1,0
-323,1757,0,0
-585,647,0,0
-485,950,0,0
-1331,1646,0,0
-616,1085,1,0
-1829,713,1,0
-214,245,0,0
-171,1574,0,0
-1795,1628,1,0
-1389,438,0,0
-725,172,0,0
-994,1504,0,0
-403,1456,0,0
-104,19,0,0
-1090,939,0,0
-1637,1995,1,0
-1988,137,0,0
-1571,224,0,0
-1094,1048,0,0
-877,779,0,0
-844,1816,0,0
-1366,1798,0,0
-666,1558,0,0
-1397,1820,0,0
-1267,90,0,0
-582,1084,0,0
-1564,1176,1,0
-1889,1448,0,0
-732,1946,0,0
-1546,1924,0,0
-1541,1329,0,0
-972,829,0,0
-28,1171,1,0
-1383,1810,1,0
-402,93,0,0
-1102,1222,0,0
-1358,1185,0,0
-1869,1792,0,0
-568,1281,0,0
-1284,889,0,0
-453,1531,0,0
-1948,777,0,0
-1708,1799,0,0
-293,936,0,0
-1368,834,1,0
-1663,1124,1,0
-418,286,0,0
-912,888,0,0
-1092,878,0,0
-552,711,0,0
-1270,1994,0,0
-1209,1865,1,0
-1604,1566,0,0
-418,479,0,0
-115,707,0,0
-1925,691,0,0
-1532,1385,1,0
-807,380,1,0
-1037,964,0,0
-507,1944,0,0
-835,150,0,0
-120,1579,0,0
-819,709,0,0
-1523,561,0,0
-773,772,0,0
-746,817,0,0
-137,1517,0,0
-868,1981,0,0
-523,1786,0,0
-1620,1291,1,0
-712,17,0,0
-166,1899,0,0
-586,1515,1,0
-1120,1162,0,0
-508,1944,0,0
-1944,1459,0,0
-145,1715,1,0
-1160,1396,1,0
-1038,1975,0,0
-549,148,0,0
-1914,566,0,0
-894,1694,0,0
-354,1279,0,0
-300,646,1,0
-258,1732,1,0
-1474,1467,0,0
-1144,1194,0,0
-99,381,0,0
-95,22,1,0
-748,204,1,0
-1732,205,0,0
-1242,1944,0,0
-896,759,0,0
-1816,529,0,0
-586,1781,0,0
-680,688,1,0
-1356,805,0,0
-494,1073,0,0
-1305,679,1,0
-1245,605,0,0
-1695,1300,0,0
-521,1755,0,0
-509,1536,0,0
-1312,1977,0,0
-1692,298,0,0
-1977,187,1,0
-1798,1024,0,0
-1311,1535,0,0
-1728,748,0,0
-1405,477,0,0
-1943,696,0,0
-229,239,0,0
-782,507,1,0
-268,612,1,0
-1928,210,1,0
-708,681,0,0
-1392,79,0,0
-1361,802,0,0
-500,1221,1,0
-5,1779,0,0
-465,1138,0,0
-1871,1460,0,0
-415,1248,1,0
-1839,77,0,0
-1396,197,0,0
-1866,1970,1,0
-166,1386,0,0
-1567,1369,1,0
-13,643,0,0
-890,968,0,0
-1331,1772,1,0
-1973,1298,0,0
-1853,532,0,0
-226,415,1,0
-463,1069,0,0
-200,1187,0,0
-938,514,0,0
-1904,542,0,0
-795,913,0,0
-1656,1741,0,0
-1062,955,0,0
-119,1051,0,0
-1449,874,1,0
-1849,1929,0,0
-1545,99,0,0
-350,1673,0,0
-994,1726,0,0
-1037,838,1,0
-618,319,0,0
-702,1325,0,0
-944,1983,1,0
-1261,594,0,0
-1115,1852,1,0
-67,116,0,0
-942,815,0,0
-1309,1580,0,0
-359,1189,0,0
-719,1382,0,0
-553,726,0,0
-187,828,0,0
-1448,793,1,0
-941,973,0,0
-1496,588,0,0
-949,938,0,0
-1226,857,0,0
-1282,1711,0,0
-86,1612,0,0
-405,1200,0,0
-1622,795,0,0
-918,1822,1,0
-164,546,0,0
-1414,340,0,0
-495,763,1,0
-1490,144,0,0
-1270,607,0,0
-294,1172,0,0
-850,1682,0,0
-731,591,0,0
-1463,934,1,0
-720,1475,0,0
-1568,1392,0,0
-1863,742,1,0
-1907,1750,0,0
-387,898,0,0
-960,1612,1,0
-122,382,0,0
-1881,83,0,0
-398,1518,1,0
-1280,819,0,0
-45,425,0,0
-384,1235,0,0
-1021,1107,0,0
-950,400,1,0
-48,634,0,0
-1802,1688,1,0
-1625,1476,0,0
-284,809,1,0
-1063,343,0,0
-1272,101,0,0
-1361,337,0,0
-1698,298,0,0
-1074,125,0,0
-175,602,0,0
-281,412,0,0
-1997,1238,0,0
-960,1847,0,0
-635,1803,1,0
-1317,370,1,0
-1222,1,0,0
-869,1394,0,0
-1476,812,0,0
-360,1415,0,0
-181,1532,1,0
-1933,1085,1,0
-1341,115,1,0
-1426,1662,0,0
-334,64,0,0
-7,813,0,0
-108,307,0,0
-1061,1823,0,0
-210,1234,1,0
-1101,1463,1,0
-869,840,0,0
-1074,1140,0,0
-721,407,0,0
-743,1546,0,0
-1205,153,0,0
-867,384,1,0
-1449,418,0,0
-31,1972,0,0
-402,1944,0,0
-1603,1963,0,0
-1588,1064,0,0
-1793,1314,0,0
-393,1586,0,0
-1942,572,0,0
-1197,1570,1,0
-614,47,0,0
-1173,724,0,0
-1023,825,1,0
-1856,978,1,0
-803,1805,0,0
-817,961,0,0
-815,605,1,0
-752,1317,0,0
-1477,1814,0,0
-263,1504,1,0
-310,1969,1,0
-1273,1482,0,0
-898,1213,0,0
-872,1317,0,0
-1353,1574,0,0
-654,797,0,0
-880,263,0,0
-554,817,0,0
-495,719,0,0
-1971,547,0,0
-106,828,0,0
-926,1063,0,0
-76,247,1,0
-471,505,1,0
-473,1013,0,0
-48,1302,1,0
-1934,934,1,0
-288,427,1,0
-1575,1491,0,0
-1568,1063,0,0
-366,1408,0,0
-1836,543,0,0
-1494,1658,0,0
-213,527,0,0
-306,394,0,0
-1048,753,0,0
-1806,1345,0,0
-528,1477,0,0
-619,850,0,0
-1175,349,0,0
-1451,938,1,0
-779,833,0,0
-1454,1426,0,0
-790,1257,1,0
-1564,1305,1,0
-245,810,0,0
-970,757,0,0
-1143,1043,1,0
-428,1548,1,0
-2000,975,0,0
-109,605,0,0
-1779,1859,0,0
-1910,884,1,0
-469,1447,1,0
-876,307,0,0
-1145,144,1,0
-1023,540,0,0
-296,1911,0,0
-1173,642,0,0
-1097,970,0,0
-596,775,0,0
-1659,110,0,0
-917,1806,0,0
-833,1292,0,0
-779,136,0,0
-1727,937,0,0
-1582,1708,0,0
-451,1877,0,0
-1550,807,0,0
-1819,50,0,0
-1299,793,0,0
-739,1651,0,0
-1045,1249,0,0
-1369,1390,0,0
-813,1036,0,0
-1792,728,0,0
-76,1007,0,0
-389,1373,0,0
-877,1421,0,0
-717,256,0,0
-190,1891,0,0
-27,1414,0,0
-734,1601,0,0
-1766,1666,0,0
-1383,491,0,0
-1859,1341,0,0
-1015,531,0,0
-1311,471,0,0
-1456,1497,0,0
-1723,1618,1,0
-249,1283,0,0
-1998,893,0,0
-381,869,1,0
-614,939,1,0
-921,1765,1,0
-341,659,0,0
-1693,463,0,0
-328,280,0,0
-775,919,0,0
-1523,1808,0,0
-949,926,0,0
-143,759,0,0
-685,941,1,0
-631,827,0,0
-1814,1704,0,0
-996,1186,0,0
-697,1951,0,0
-1084,1619,1,0
-1131,574,1,0
-348,977,0,0
-257,947,1,0
-1351,1471,0,0
-740,955,0,0
-1913,414,0,0
-852,1890,0,0
-1641,765,1,0
-820,721,1,0
-270,1219,0,0
-1393,1134,0,0
-1200,1341,0,0
-1531,83,0,0
-738,439,1,0
-312,1153,0,0
-632,505,0,0
-1617,209,0,0
-620,837,0,0
-170,264,0,0
-1842,1123,0,0
-1075,1044,1,0
-307,737,0,0
-1062,355,0,0
-242,735,0,0
-58,669,0,0
-1412,774,0,0
-690,1360,1,0
-346,340,0,0
-461,118,0,0
-720,1460,0,0
-465,373,0,0
-1925,1850,1,0
-494,1983,0,0
-400,1859,0,0
-1232,1981,1,0
-1538,1288,1,0
-1361,543,0,0
-422,4,0,0
-491,127,1,0
-390,1071,1,0
-113,1022,0,0
-3,27,0,0
-369,503,0,0
-1062,1686,0,0
-1992,1853,0,0
-1020,787,0,0
-1524,467,0,0
-1833,468,1,0
-934,144,0,0
-141,944,0,0
-363,1155,0,0
-699,1669,1,0
-1680,1237,1,0
-1163,1333,0,0
-1433,743,1,0
-432,412,0,0
-508,732,1,0
-943,838,0,0
-1370,1330,0,0
-1243,251,0,0
-263,934,0,0
-1912,321,0,0
-1716,1353,0,0
-1799,1025,1,0
-1598,1465,0,0
-1852,1103,0,0
-1040,1473,0,0
-181,795,0,0
-1283,1738,0,0
-1555,1767,0,0
-880,1736,0,0
-1573,1827,1,0
-872,868,1,0
-956,290,0,0
-1103,1497,1,0
-1110,196,1,0
-1897,1240,1,0
-779,226,0,0
-63,964,1,0
-595,1291,0,0
-984,1396,0,0
-755,486,0,0
-730,50,0,0
-603,1807,0,0
-1511,76,0,0
-737,1118,0,0
-912,1137,0,0
-406,706,0,0
-1780,567,1,0
-379,64,0,0
-1204,538,0,0
-627,1432,0,0
-1716,508,1,0
-1195,349,0,0
-1641,1729,0,0
-350,1260,0,0
-1290,1689,1,0
-396,166,1,0
-1041,971,0,0
-283,1143,0,0
-978,1682,0,0
-1524,802,0,0
-58,1944,0,0
-1209,644,0,0
-925,1473,0,0
-1670,675,0,0
-523,1431,0,0
-1354,872,0,0
-1077,170,1,0
-1217,1901,0,0
-1812,534,0,0
-1807,680,0,0
-808,976,0,0
-301,1805,1,0
-564,1546,1,0
-1874,725,0,0
-1321,1587,0,0
-1258,939,0,0
-1930,626,0,0
-1627,1203,0,0
-1941,1035,1,0
-1844,798,0,0
-1284,603,1,0
-181,1501,1,0
-178,139,0,0
-1188,1999,1,0
-1,773,0,0
-85,1628,0,0
-335,962,0,0
-1011,630,0,0
-813,1109,0,0
-445,256,0,0
-839,694,0,0
-57,1020,0,0
-1143,1048,1,0
-125,706,1,0
-875,1024,0,0
-501,675,0,0
-1164,1912,0,0
-910,479,0,0
-1167,1694,0,0
-335,1583,1,0
-890,1392,0,0
-1580,1295,0,0
-59,583,0,0
-312,751,0,0
-1663,1204,0,0
-1392,1868,0,0
-1840,306,1,0
-1307,307,0,0
-268,1330,1,0
-1476,63,1,0
-574,1752,1,0
-672,1815,0,0
-809,176,1,0
-1373,1426,0,0
-1287,54,1,0
-1255,356,1,0
-1246,488,0,0
-1057,973,1,0
-1864,1718,1,0
-1053,254,1,0
-1716,33,0,0
-91,808,0,0
-75,404,0,0
-1685,1026,1,0
-602,1992,0,0
-1814,1102,1,0
-564,1417,0,0
-912,982,0,0
-175,820,0,0
-615,369,0,0
-783,907,0,0
-1265,1088,0,0
-785,217,0,0
-536,636,0,0
-1784,1177,1,0
-213,10,0,0
-684,226,0,0
-625,9,0,0
-792,986,0,0
-1486,1661,0,0
-1815,446,0,0
-1145,330,0,0
-301,149,0,0
-137,1850,0,0
-916,349,0,0
-718,1270,0,0
-249,1931,1,0
-200,1846,0,0
-903,565,1,0
-750,1398,0,0
-1598,1384,1,0
-1141,126,0,0
-520,987,0,0
-1535,306,1,0
-1779,1374,0,0
-649,842,1,0
-558,1388,0,0
-690,1472,1,0
-489,514,0,0
-1956,1088,0,0
-1366,1118,1,0
-1411,94,0,0
-588,1675,0,0
-607,315,0,0
-856,1506,0,0
-1984,1129,0,0
-1539,1764,0,0
-257,5,0,0
-1813,1061,1,0
-1480,391,1,0
-503,515,0,0
-104,896,0,0
-26,290,0,0
-1393,810,0,0
-546,434,1,0
-526,1744,0,0
area 3
-1188,-389,1,0
-1232,-265,0,0
-1040,-108,0,0
-175,-626,0,0
-692,-1477,0,0
-1899,-833,0,0
-1983,-1803,0,0
-863,-460,0,0
-1708,-200,0,0
-494,-1665,0,0
-1528,-1021,0,0
-1746,-249,0,0
-1999,-491,1,0
-180,-1436,0,0
-788,-774,0,0
-1327,-422,0,0
-1842,-1258,1,0
-600,-1196,0,0
-721,-571,1,0
-253,-1535,0,0
-36,-1348,1,0
-200,-1113,0,0
-213,-1204,0,0
-901,-250,1,0
-945,-535,0,0
-247,-1583,1,0
-1385,-1203,1,0
-361,-1217,0,0
-1930,-593,1,0
-1308,-902,0,0
-1903,-894,0,0
-1837,-1954,0,0
-1479,-1936,0,0
-198,-618,0,0
-1467,-67,1,0
-973,-467,1,0
-1290,-525,1,0
-507,-1532,0,0
-55,-840,0,0
-713,-1940,0,0
-1629,-1070,0,0
-1308,-885,0,0
-970,-468,0,0
-1792,-15,0,0
-1974,-716,0,0
-1004,-787,1,0
-773,-717,0,0
-656,-788,0,0
-500,-1276,1,0
-279,-1361,0,0
-734,-419,1,0
-1985,-1757,0,0
-1128,-1254,0,0
-585,-39,0,0
-1,-124,0,0
-1964,-336,0,0
-1533,-114,0,0
-1924,-1763,0,0
-538,-309,1,0
-1798,-107,1,0
-1415,-616,0,0
-343,-1225,0,0
-404,-946,1,0
-181,-345,0,0
-1561,-308,0,0
-1786,-999,1,0
-1733,-764,0,0
-1530,-1697,1,0
-110,-205,0,0
-1305,-622,1,0
-1794,-719,0,0
-1992,-1830,0,0
-40,-1194,1,0
-901,-574,0,0
-1152,-1755,0,0
-274,-202,0,0
-1542,-1524,1,0
-399,-811,1,0
-1725,-816,0,0
-69,-6,0,0
-94,-200,0,0
-5,-1196,0,0
-864,-496,0,0
-672,-468,1,0
-1006,-1984,0,0
-887,-1649,0,0
-48,-1382,0,0
-405,-1847,0,0
-912,-1532,0,0
-1189,-691,0,0
-1891,-1134,1,0
-1280,-1760,0,0
-75,-1804,0,0
-1176,-1421,0,0
-1132,-1090,0,0
-1521,-424,0,0
-629,-793,0,0
-577,-178,0,0
-1247,-81,1,0
-361,-652,1,0
-1466,-1782,0,0
-1501,-83,0,0
-227,-817,0,0
-383,-1635,0,0
-851,-1530,1,0
-837,-255,0,0
-111,-1449,0,0
-831,-1677,1,0
-737,-1191,1,0
-276,-272,0,0
-76,-1544,1,0
-1670,-845,0,0
-79,-295,0,0
-5,-697,1,0
-659,-1697,0,0
-1249,-1425,0,0
-559,-54,1,0
-898,-239,1,0
-698,-1428,0,0
-100,-537,1,0
-1445,-1161,0,0
-332,-657,0,0
-1689,-291,0,0
-1415,-737,0,0
-533,-34,0,0
-957,-973,0,0
-1734,-541,0,0
-232,-1172,1,0
-1379,-1758,0,0
-1500,-1265,0,0
-137,-583,1,0
-1720,-536,0,0
-1342,-1777,0,0
-1558,-282,1,0
-3,-961,0,0
-1008,-166,0,0
-244,-1805,1,0
-1343,-752,1,0
-835,-533,0,0
-1642,-523,0,0
-1790,-332,0,0
-1718,-502,1,0
-337,-1794,1,0
-444,-91,0,0
-1197,-1754,0,0
-1317,-1194,0,0
-1285,-1250,0,0
-1005,-501,0,0
-1109,-1351,0,0
-24,-1554,0,0
-44,-1376,0,0
-754,-1321,0,0
-867,-1991,1,0
-940,-34,0,0
-1284,-418,0,0
-1587,-145,0,0
-1844,-501,0,0
-1094,-1592,1,0
-514,-1941,0,0
-1313,-865,0,0
-1390,-709,0,0
-1759,-1239,1,0
-871,-688,0,0
-1281,-1908,0,0
-1139,-1298,0,0
-1366,-1993,0,0
-620,-1986,0,0
-1033,-1953,1,0
-51,-1603,0,0
-251,-1390,0,0
-1921,-547,1,0
-1334,-159,1,0
-215,-845,0,0
-1275,-544,1,0
-86,-1200,1,0
-1978,-1542,0,0
-812,-106,0,0
-1132,-1967,0,0
-1732,-1907,1,0
-468,-954,0,0
-961,-1665,0,0
-863,-986,0,0
-1064,-1125,0,0
-337,-583,1,0
-1239,-1370,0,0
-1398,-1417,0,0
-368,-7,1,0
-421,-926,0,0
-377,-1825,0,0
-1071,-951,1,0
-717,-361,1,0
-478,-537,1,0
-52,-244,0,0
-1031,-1331,1,0
-1723,-191,0,0
-842,-1454,0,0
-1156,-1422,0,0
-736,-1492,0,0
-1391,-1869,0,0
-400,-979,0,0
-88,-1100,0,0
-936,-972,0,0
-1762,-549,1,0
-1649,-597,0,0
-84,-1473,0,0
-1798,-347,0,0
-1535,-1250,0,0
-1477,-546,0,0
-947,-1768,0,0
-1104,-236,0,0
-141,-1774,0,0
-1307,-899,1,0
-1592,-87,1,0
-1184,-936,0,0
-1815,-1983,0,0
-1586,-871,0,0
-1899,-1368,0,0
-1160,-891,0,0
-166,-1471,0,0
-463,-72,0,0
-1763,-84,1,0
-546,-1755,0,0
-1193,-274,1,0
-1340,-73,0,0
-1411,-1530,1,0
-1963,-1149,1,0
-271,-1841,1,0
-1144,-488,1,0
-1468,-1885,0,0
-786,-267,1,0
-264,-1761,0,0
-152,-1813,1,0
-509,-599,0,0
-508,-1259,0,0
-1247,-1807,0,0
-582,-507,0,0
-63,-877,0,0
-1940,-289,0,0
-624,-1812,0,0
-1399,-800,1,0
-1677,-1747,0,0
-1681,-1488,0,0
-1649,-1288,0,0
-1637,-1383,0,0
-931,-83,1,0
-1460,-1308,0,0
-1938,-1185,0,0
-763,-315,0,0
-1291,-1581,0,0
-1243,-260,0,0
-1068,-1677,0,0
-1334,-1693,0,0
-1928,-1499,0,0
-228,-592,0,0
-542,-226,0,0
-1043,-167,1,0
-67,-1213,0,0
-955,-1356,0,0
-31,-244,1,0
-656,-1648,0,0
-294,-348,0,0
-1990,-627,0,0
-909,-344,0,0
-510,-286,0,0
-262,-1337,0,0
-1097,-1636,0,0
-743,-1578,0,0
-733,-1520,0,0
-1536,-1800,0,0
-1541,-451,1,0
-1227,-195,0,0
-455,-807,1,0
-1136,-119,0,0
-1071,-358,1,0
-395,-1187,0,0
-53,-1929,1,0
-903,-252,0,0
-516,-1282,0,0
-1887,-1101,0,0
-1920,-1903,0,0
-1155,-670,1,0
-92,-1011,0,0
-417,-301,0,0
-1069,-1565,0,0
-901,-1620,1,0
-161,-899,0,0
-1436,-804,0,0
-780,-255,0,0
-304,-1666,0,0
-119,-1466,0,0
-365,-1169,0,0
-588,-831,0,0
-525,-99,0,0
-728,-1074,1,0
-1342,-1067,1,0
-1623,-961,0,0
-696,-1070,0,0
-1646,-223,0,0
-1628,-1893,1,0
-518,-1935,0,0
-1111,-1055,0,0
-752,-175,0,0
-1651,-1171,1,0
-228,-498,1,0
-1235,-1161,1,0
-1999,-1086,0,0
-1643,-1669,0,0
-1719,-1947,0,0
-1189,-51,0,0
-1299,-1497,0,0
-326,-992,0,0
-804,-1408,0,0
-1941,-401,0,0
-652,-1114,0,0
-843,-1374,0,0
-1854,-241,1,0
-753,-820,1,0
-1933,-1477,1,0
-1397,-1617,0,0
-717,-370,0,0
-395,-409,0,0
-1944,-1460,0,0
-357,-1302,0,0
-658,-679,0,0
-347,-526,0,0
-389,-24,0,0
-1577,-365,0,0
-1791,-364,0,0
-332,-409,0,0
-424,-1664,0,0
-985,-562,0,0
-1665,-987,1,0
-356,-573,0,0
-671,-1665,1,0
-206,-1712,0,0
-551,-850,0,0
-1260,-820,1,0
-660,-615,0,0
-168,-1532,0,0
-49,-1519,0,0
-1765,-318,0,0
-1187,-583,0,0
-947,-1457,0,0
-616,-1867,0,0
-523,-76,0,0
-742,-1628,0,0
-1456,-1041,0,0
-1702,-227,0,0
-30,-1333,0,0
-22,-280,0,0
-1129,-1243,0,0
-390,-1826,0,0
-574,-1176,0,0
-1389,-876,0,0
-999,-253,0,0
-350,-1825,0,0
-1451,-1599,0,0
-1266,-1236,0,0
-651,-914,0,0
-1477,-1301,0,0
-1154,-1277,0,0
-1994,-319,0,0
-1782,-1300,0,0
-584,-1770,0,0
-490,-1251,1,0
-380,-483,1,0
-1854,-556,0,0
-240,-1246,0,0
-429,-940,1,0
-871,-455,0,0
-30,-490,1,0
-1025,-1959,1,0
-569,-361,1,0
-1711,-1167,0,0
-1889,-816,0,0
-1100,-79,1,0
-780,-178,0,0
-823,-656,0,0
-717,-1965,1,0
-795,-1276,0,0
-898,-1592,0,0
-165,-1047,0,0
-1409,-202,0,0
-1416,-1839,0,0
-1372,-391,0,0
-327,-780,0,0
-1699,-1858,0,0
-1266,-1629,0,0
-1242,-899,0,0
-1926,-402,1,0
-1543,-690,0,0
-545,-1086,0,0
-236,-492,0,0
-797,-1290,0,0
-1326,-665,0,0
-17,-1427,0,0
-1944,-752,0,0
-351,-447,0,0
-1386,-1644,0,0
-676,-44,0,0
-856,-774,0,0
-1954,-1962,0,0
-1150,-1384,0,0
-1131,-844,0,0
-1128,-651,0,0
-745,-1740,0,0
-576,-1830,1,0
-401,-642,1,0
-1854,-1668,0,0
-1864,-61,0,0
-802,-48,0,0
-1413,-258,0,0
-1128,-769,0,0
-216,-1453,0,0
-537,-584,0,0
-1701,-1291,1,0
-1470,-854,0,0
-597,-1419,0,0
-1465,-1768,0,0
-1974,-458,0,0
-1430,-1142,0,0
-12,-1701,0,0
-610,-1201,0,0
-1052,-1536,0,0
-1610,-1184,0,0
-326,-426,0,0
-82,-403,1,0
-850,-1421,0,0
-1844,-163,1,0
-507,-963,0,0
-1203,-1489,0,0
-1238,-821,0,0
-1547,-1495,0,0
-957,-1991,0,0
-1007,-1729,1,0
-1995,-941,0,0
-411,-784,0,0
-967,-679,0,0
-1043,-1060,0,0
-765,-1564,0,0
-1439,-1657,0,0
-672,-1487,0,0
-330,-26,0,0
-1675,-143,0,0
-933,-1029,1,0
-1663,-24,0,0
-291,-792,0,0
-600,-717,0,0
-1760,-868,0,0
-433,-640,0,0
-1173,-1179,1,0
-1327,-1056,0,0
-1234,-107,0,0
-1949,-1420,0,0
-1294,-1836,0,0
-709,-1127,0,0
-1283,-645,0,0
-1310,-1061,0,0
-1245,-510,1,0
-892,-1145,0,0
-1430,-258,0,0
-1971,-1038,0,0
-169,-1053,0,0
-1904,-263,0,0
-540,-529,1,0
-1398,-432,0,0
-1049,-1299,0,0
-1787,-1062,1,0
-892,-111,0,0
-1384,-1945,0,0
-880,-981,1,0
-23,-726,0,0
-1653,-1846,0,0
-1021,-438,0,0
-644,-1196,0,0
-872,-1373,0,0
-1151,-215,0,0
-1437,-1386,0,0
-1869,-1045,1,0
-280,-861,1,0
-650,-1301,0,0
-627,-1467,0,0
-1929,-905,0,0
-182,-14,0,0
-1435,-235,0,0
-294,-1686,0,0
-977,-1836,1,0
-446,-898,0,0
-1907,-612,0,0
-977,-1170,1,0
-193,-772,0,0
-1320,-1564,0,0
-30,-1983,0,0
-172,-1229,0,0
-1016,-916,0,0
-2000,-1896,0,0
-929,-912,0,0
-622,-1073,0,0
-1611,-1584,1,0
-764,-545,0,0
-1767,-1305,1,0
-1918,-1304,1,0
-77,-1059,0,0
-273,-280,0,0
-1960,-547,0,0
-1154,-1478,0,0
-1944,-445,0,0
-1141,-1120,1,0
-1785,-63,0,0
-1875,-1481,1,0
-1307,-278,0,0
-1485,-87,0,0
-323,-1143,0,0
-272,-1018,0,0
-1999,-59,0,0
-312,-1979,0,0
-939,-430,1,0
-1253,-1633,0,0
-380,-1288,1,0
-52,-1152,0,0
-1260,-497,1,0
-345,-738,0,0
-768,-616,0,0
-1836,-613,0,0
-1488,-1156,0,0
-1573,-116,0,0
-1084,-937,0,0
-159,-1705,1,0
-1228,-1612,0,0
-640,-1549,0,0
-972,-1709,0,0
-530,-182,0,0
-1141,-796,0,0
-1877,-1423,1,0
-361,-521,0,0
-880,-1734,0,0
-285,-636,0,0
-346,-551,0,0
-267,-789,0,0
-1450,-1303,1,0
-957,-1434,0,0
-1668,-1942,0,0
-1057,-1747,0,0
-475,-1743,0,0
-94,-1493,0,0
-52,-559,1,0
-876,-292,1,0
-1805,-1893,0,0
-1026,-717,0,0
-69,-1487,0,0
-1532,-893,0,0
-761,-554,0,0
-29,-710,0,0
-342,-1854,1,0
-807,-956,0,0
-541,-1842,0,0
-1728,-1310,0,0
-443,-433,1,0
-1955,-1023,0,0
-574,-1665,0,0
-588,-1581,0,0
-169,-1116,0,0
-166,-1071,1,0
-4,-1766,1,0
-1361,-1207,0,0
-1084,-953,0,0
-1418,-419,0,0
-424,-56,0,0
-1360,-1021,0,0
-549,-863,0,0
-1810,-1686,1,0
-95,-693,0,0
-752,-268,1,0
-612,-622,1,0
-485,-892,0,0
-626,-1400,1,0
-117,-637,0,0
-33,-1407,0,0
-69,-224,0,0
-525,-1122,0,0
-382,-688,0,0
-1171,-615,0,0
-1328,-1244,0,0
-1799,-142,0,0
-1039,-1816,0,0
-215,-335,0,0
-1402,-1794,0,0
-1869,-19,0,0
-662,-1870,0,0
-286,-1514,1,0
-1397,-1967,0,0
-1958,-791,0,0
-1288,-161,0,0
-1351,-1341,0,0
-267,-119,1,0
-284,-1153,1,0
-578,-735,0,0
-755,-536,1,0
-1906,-1558,0,0
-1173,-252,0,0
-1946,-1796,1,0
-610,-1662,0,0
-235,-835,0,0
-1807,-586,0,0
-203,-844,0,0
-1805,-1999,0,0
-296,-1211,1,0
-376,-1042,0,0
-498,-1778,0,0
-272,-872,1,0
-1847,-1549,0,0
-1228,-222,1,0
-55,-1986,0,0
-341,-1470,0,0
-121,-1470,0,0
-1371,-1562,0,0
-297,-84,0,0
-1895,-1137,0,0
-487,-1928,0,0
-1826,-435,1,0
-1341,-1515,0,0
-1125,-1410,0,0
-1041,-142,0,0
-875,-1582,0,0
-1538,-1243,0,0
-1350,-368,0,0
-7,-1914,0,0
-1501,-789,0,0
-223,-1354,1,0
-1007,-892,0,0
-1368,-1837,1,0
-202,-1367,1,0
-1228,-741,0,0
-458,-1350,1,0
-389,-54,0,0
-348,-1852,0,0
-1908,-453,0,0
-879,-862,0,0
-296,-895,0,0
-1045,-714,0,0
-1917,-1386,0,0
-1786,-1652,0,0
-1790,-1003,0,0
-530,-1228,1,0
-1044,-1484,1,0
-1093,-435,1,0
-229,-1189,1,0
-880,-654,0,0
-257,-864,0,0
-1503,-72,0,0
-78,-821,0,0
-1481,-142,0,0
-1923,-763,0,0
-553,-172,0,0
-975,-1088,1,0
-1176,-654,0,0
-272,-1652,1,0
-1766,-1061,0,0
-541,-530,1,0
-985,-1099,1,0
-724,-961,0,0
-582,-605,1,0
-1496,-566,0,0
-1952,-34,0,0
-1599,-824,0,0
-14,-245,1,0
-676,-1149,0,0
-1567,-1875,0,0
-200,-1103,0,0
-529,-1099,0,0
-232,-1734,0,0
-1417,-735,0,0
-288,-1544,0,0
-1550,-1885,0,0
-149,-1064,1,0
-212,-30,0,0
-1181,-511,0,0
-990,-440,0,0
-683,-932,1,0
-1085,-1235,1,0
-1508,-64,0,0
-179,-1736,0,0
-1925,-433,0,0
-1595,-916,0,0
-885,-1250,0,0
-431,-1838,0,0
-180,-95,1,0
-32,-1414,0,0
-1656,-944,0,0
-1805,-617,1,0
-1864,-1018,0,0
-517,-1275,1,0
-1716,-1915,0,0
-763,-250,0,0
-264,-1135,0,0
-1688,-1036,1,0
-538,-748,0,0
-1810,-1291,0,0
-504,-535,0,0
-1431,-662,0,0
-294,-38,0,0
-1141,-1881,0,0
-1415,-360,0,0
-656,-1734,1,0
-1437,-1105,0,0
-1482,-1636,1,0
-1283,-1526,0,0
-509,-922,0,0
-1223,-457,0,0
-1762,-698,0,0
-1788,-1790,0,0
-25,-1281,1,0
-414,-1955,0,0
-1501,-1933,0,0
-1001,-1586,0,0
-1304,-1880,0,0
-1837,-203,0,0
-1143,-1427,0,0
-670,-1020,1,0
-1253,-219,0,0
-1096,-597,0,0
-564,-1924,0,0
-290,-1019,0,0
-338,-906,0,0
-1169,-1661,0,0
-1064,-1075,0,0
-2000,-685,0,0
-1285,-1230,0,0
-764,-1875,0,0
-450,-1862,0,0
-145,-1820,0,0
-1859,-1116,0,0
-687,-1300,0,0
-1857,-82,1,0
-702,-1938,0,0
-1200,-652,0,0
-1468,-630,0,0
-1192,-661,0,0
-921,-1185,0,0
-672,-1135,1,0
-149,-1680,0,0
-909,-1799,0,0
-1669,-991,1,0
-424,-1430,1,0
-824,-1328,0,0
-1988,-271,1,0
-1602,-558,1,0
-1944,-1137,0,0
-1408,-1761,1,0
-1654,-442,1,0
-795,-1641,1,0
-1630,-1132,1,0
-270,-1949,0,0
-1153,-139,0,0
-1849,-160,0,0
-240,-1160,0,0
-29,-950,0,0
-1146,-1882,0,0
-274,-1981,0,0
-1053,-1451,0,0
-1566,-278,0,0
-359,-1734,0,0
-1379,-786,1,0
-1099,-508,0,0
-202,-274,0,0
-226,-1058,0,0
-1180,-1551,0,0
-1278,-983,0,0
-442,-1612,0,0
-1038,-1468,0,0
-588,-296,0,0
-14,-153,1,0
-194,-1063,0,0
-1923,-1846,0,0
-160,-288,0,0
-890,-257,0,0
-861,-118,0,0
-1464,-316,0,0
-1900,-157,0,0
-1628,-489,0,0
-1597,-1844,0,0
-1812,-873,0,0
-90,-920,1,0
-1127,-1326,0,0
-839,-1902,1,0
-1899,-138,0,0
-1490,-1201,1,0
-1612,-1007,0,0
-368,-1574,1,0
-832,-700,0,0
-1818,-1720,0,0
-1701,-1655,0,0
-1949,-219,0,0
-736,-92,0,0
-981,-1058,0,0
-1873,-1854,0,0
-1335,-1672,0,0
-1647,-1181,0,0
-620,-426,0,0
-555,-228,1,0
-682,-608,0,0
-954,-1063,0,0
-1385,-1434,0,0
-47,-1505,1,0
-443,-548,1,0
-87,-1430,0,0
-157,-1436,0,0
-827,-852,0,0
-327,-1399,0,0
-1341,-125,1,0
-371,-1605,0,0
-140,-1864,1,0
-87,-1396,0,0
-1913,-186,0,0
-1879,-114,1,0
-948,-628,0,0
-1546,-172,0,0
-1318,-46,0,0
-1940,-1737,0,0
-776,-1471,1,0
-341,-436,1,0
-266,-730,1,0
-657,-1327,0,0
-1899,-971,0,0
-1689,-1081,0,0
-292,-1721,1,0
-909,-1340,0,0
-378,-1559,1,0
-303,-86,0,0
-536,-1274,0,0
-1481,-101,0,0
-1212,-1798,1,0
-849,-623,0,0
-1701,-466,0,0
-1192,-458,0,0
-770,-1775,0,0
-1555,-321,0,0
-1381,-159,0,0
-975,-1349,0,0
-457,-730,0,0
-1099,-445,1,0
-201,-285,0,0
-707,-44,0,0
-605,-221,1,0
-1934,-11,1,0
-26,-1866,0,0
-791,-1299,0,0
-1391,-164,0,0
-81,-375,0,0
-513,-1512,1,0
-1577,-1087,0,0
-18,-478,0,0
-1414,-1041,0,0
-804,-1652,0,0
-299,-385,0,0
-1431,-862,1,0
-694,-1277,0,0
-108,-627,0,0
-1782,-17,1,0
-1003,-717,0,0
-860,-597,0,0
-1238,-1417,0,0
-557,-1366,1,0
-739,-1904,1,0
-1124,-224,0,0
-985,-939,0,0
-1620,-1561,0,0
-1705,-1681,0,0
-1457,-239,0,0
-33,-1295,0,0
-1775,-1726,1,0
-221,-332,0,0
-166,-1965,1,0
-916,-1048,0,0
-1118,-1482,1,0
-85,-107,0,0
-1092,-1341,0,0
-758,-257,0,0
-1156,-1648,0,0
-479,-394,0,0
-961,-73,0,0
-1538,-173,0,0
area 4
460,-1782,0,0
1851,-742,0,0
362,-1115,0,0
1576,-573,0,0
1347,-1122,0,0
180,-628,0,0
1085,-777,0,0
1048,-1394,0,0
173,-31,0,0
1217,-683,0,0
459,-1943,1,0
157,-678,0,0
1663,-318,1,0
1038,-1372,0,0
1615,-1253,0,0
1310,-1119,0,0
872,-1451,0,0
4,-70,0,0
1711,-1415,0,0
1024,-331,1,0
1245,-1107,1,0
478,-1756,0,0
936,-1467,0,0
88,-118,0,0
614,-251,0,0
1436,-1707,0,0
1170,-279,0,0
988,-1313,0,0
41,-497,0,0
1210,-1081,0,0
638,-1233,1,0
1714,-675,0,0
1681,-954,0,0
1094,-1474,0,0
1817,-274,0,0
462,-417,0,0
973,-1402,0,0
1122,-1235,0,0
1142,-1530,1,0
234,-1460,0,0
96,-416,0,0
705,-1480,0,0
1819,-1727,0,0
662,-209,0,0
654,-1351,1,0
709,-437,0,0
1099,-205,0,0
621,-1551,1,0
484,-1138,0,0
608,-684,1,0
97,-336,0,0
789,-35,0,0
1556,-683,1,0
651,-1575,1,0
1582,-1832,0,0
918,-1312,1,0
1892,-1963,0,0
584,-31,0,0
1497,-853,0,0
1882,-1583,0,0
1396,-609,1,0
865,-1414,1,0
1494,-1831,0,0
372,-1571,0,0
310,-1060,1,0
182,-1430,0,0
1399,-1023,1,0
264,-1140,0,0
65,-630,0,0
1383,-137,0,0
1152,-1740,0,0
175,-1051,0,0
226,-574,0,0
1657,-846,0,0
792,-68,0,0
1296,-36,0,0
957,-594,1,0
1067,-1710,0,0
1903,-1753,0,0
190,-996,1,0
1571,-1366,0,0
1504,-451,0,0
1395,-1397,0,0
231,-1271,0,0
1837,-1085,0,0
434,-1708,1,0
652,-1324,0,0
441,-1452,0,0
269,-660,0,0
1065,-1857,0,0
1342,-45,1,0
1871,-1757,0,0
98,-593,0,0
628,-515,1,0
1397,-110,0,0
1106,-687,1,0
191,-1522,1,0
1205,-390,0,0
35,-1666,1,0
1634,-5,1,0
935,-315,0,0
947,-715,0,0
1517,-1011,1,0
165,-1025,0,0
1928,-699,0,0
317,-865,0,0
317,-638,0,0
913,-1969,1,0
574,-661,1,0
473,-1451,0,0
70,-717,0,0
953,-693,0,0
1134,-1998,0,0
1753,-1103,0,0
1713,-736,0,0
634,-1250,0,0
316,-996,0,0
1774,-1820,1,0
1987,-47,0,0
1420,-929,0,0
1551,-1278,0,0
1752,-1091,0,0
758,-249,0,0
1921,-1632,0,0
1782,-604,0,0
1024,-1028,0,0
1462,-262,0,0
1376,-910,0,0
1024,-1127,0,0
254,-1385,0,0
750,-122,0,0
1451,-182,1,0
1407,-1300,0,0
696,-1042,0,0
1586,-1284,0,0
83,-325,0,0
1390,-529,0,0
1608,-1965,0,0
1414,-632,0,0
386,-116,1,0
1813,-1880,0,0
1632,-1920,0,0
759,-682,0,0
270,-1845,0,0
1354,-1389,0,0
517,-923,0,0
960,-1848,1,0
371,-1409,0,0
609,-1374,0,0
318,-30,0,0
1745,-1922,0,0
1848,-1394,0,0
265,-80,1,0
1302,-1256,0,0
1527,-1627,1,0
28,-636,0,0
1861,-381,0,0
1229,-1442,0,0
1413,-1601,0,0
472,-1596,0,0
1920,-1047,0,0
869,-1600,0,0
1414,-1511,0,0
712,-942,0,0
472,-1768,1,0
1084,-220,0,0
789,-864,0,0
1761,-1422,0,0
997,-706,1,0
395,-1092,1,0
876,-1277,0,0
1053,-390,0,0
1180,-144,0,0
145,-2,1,0
1387,-184,0,0
1054,-1967,0,0
1957,-1998,0,0
1068,-1760,0,0
1626,-700,1,0
1965,-1945,0,0
1719,-1598,0,0
943,-297,0,0
1600,-1605,0,0
835,-665,0,0
1267,-886,0,0
1375,-1699,1,0
775,-585,0,0
972,-861,0,0
1630,-1273,0,0
506,-507,1,0
1930,-607,0,0
993,-1693,0,0
782,-1681,0,0
762,-579,0,0
181,-281,0,0
1247,-1021,1,0
231,-1722,0,0
1656,-106,0,0
152,-1373,1,0
817,-1303,0,0
660,-740,0,0
220,-1898,0,0
1029,-577,0,0
699,-1889,0,0
1281,-70,0,0
1750,-663,0,0
129,-69,0,0
426,-706,0,0
1883,-1073,0,0
1434,-1885,1,0
813,-412,1,0
702,-1064,0,0
58,-371,0,0
201,-70,0,0
1436,-125,1,0
1096,-1924,0,0
1514,-1790,0,0
1425,-447,1,0
120,-581,1,0
543,-1810,0,0
485,-227,0,0
1016,-218,0,0
1584,-858,0,0
51,-1148,0,0
554,-1496,0,0
1275,-1933,0,0
1178,-597,0,0
1060,-1460,0,0
1385,-41,0,0
183,-1622,1,0
1907,-741,0,0
1216,-1789,0,0
1369,-1079,0,0
1771,-857,0,0
356,-1525,1,0
1387,-854,1,0
382,-1104,0,0
842,-833,0,0
629,-54,0,0
1049,-1217,1,0
662,-148,0,0
551,-1463,0,0
377,-1187,1,0
807,-969,0,0
1956,-859,0,0
209,-461,0,0
1511,-748,0,0
1357,-861,0,0
751,-1300,0,0
1560,-540,0,0
150,-890,0,0
416,-1777,0,0
1508,-462,0,0
1706,-537,0,0
949,-150,0,0
43,-594,0,0
1427,-209,0,0
85,-32,0,0
621,-1631,1,0
145,-145,0,0
251,-1201,0,0
879,-1109,0,0
289,-1803,0,0
1506,-1699,0,0
1108,-1468,0,0
1663,-1019,0,0
421,-751,0,0
1533,-1245,0,0
1448,-20,0,0
645,-1484,0,0
733,-1917,0,0
1151,-1503,1,0
2,-1840,0,0
933,-1556,0,0
113,-492,0,0
81,-420,0,0
1731,-204,0,0
1176,-727,0,0
536,-1037,1,0
331,-1482,0,0
1289,-1603,0,0
228,-1463,1,0
1886,-1995,0,0
1464,-419,1,0
63,-184,0,0
1966,-367,1,0
617,-673,0,0
807,-1369,0,0
176,-899,0,0
213,-1702,0,0
1817,-1125,0,0
110,-1906,0,0
1297,-793,0,0
1478,-809,1,0
1024,-287,0,0
1890,-1060,0,0
1248,-724,1,0
1482,-1353,0,0
1296,-837,0,0
1117,-1470,0,0
1744,-975,0,0
660,-1010,1,0
293,-1836,0,0
783,-879,0,0
1723,-24,1,0
797,-616,0,0
742,-922,0,0
1531,-451,0,0
972,-1412,0,0
226,-1811,0,0
826,-1032,1,0
623,-1028,0,0
786,-1759,0,0
1081,-1027,0,0
1771,-136,0,0
1784,-196,0,0
848,-443,0,0
436,-1948,0,0
1124,-1589,0,0
141,-356,0,0
162,-727,1,0
355,-1878,1,0
331,-135,1,0
880,-1685,0,0
685,-259,0,0
1080,-330,1,0
808,-1647,0,0
56,-715,0,0
1603,-688,1,0
1786,-1938,0,0
714,-574,1,0
1082,-1106,0,0
1684,-1474,0,0
1628,-488,0,0
447,-1422,1,0
858,-7,0,0
1068,-839,0,0
1390,-1629,0,0
928,-1393,0,0
885,-280,0,0
1715,-1922,0,0
165,-1689,1,0
1578,-623,1,0
1382,-83,0,0
948,-16,0,0
1590,-223,0,0
1886,-1941,0,0
1893,-849,0,0
542,-1283,0,0
808,-1458,1,0
724,-214,0,0
511,-567,1,0
1926,-895,0,0
161,-1537,0,0
176,-1822,0,0
1740,-1892,1,0
1408,-558,0,0
1101,-779,0,0
1537,-172,0,0
716,-1204,0,0
510,-768,1,0
329,-1410,0,0
1963,-1593,0,0
381,-139,0,0
27,-1287,1,0
1089,-1220,0,0
1676,-338,0,0
785,-147,0,0
1546,-1057,1,0
1624,-1036,0,0
242,-484,0,0
1935,-948,0,0
313,-1706,0,0
561,-639,1,0
1198,-800,0,0
119,-31,0,0
1970,-1719,0,0
302,-1697,1,0
658,-1043,0,0
1859,-407,0,0
395,-1679,0,0
849,-1151,0,0
1875,-1963,0,0
518,-1817,0,0
862,-689,0,0
439,-1018,1,0
918,-1522,1,0
674,-858,0,0
1905,-1796,1,0
254,-564,0,0
1605,-1538,0,0
985,-924,1,0
911,-624,0,0
1185,-1491,0,0
152,-506,1,0
0,-1241,0,0
470,-1695,0,0
1049,-203,0,0
940,-1878,0,0
266,-1390,1,0
110,-1724,0,0
1503,-512,1,0
1367,-1991,0,0
73,-1655,1,0
110,-1800,1,0
551,-1691,0,0
318,-730,1,0
1006,-201,0,0
348,-1785,1,0
1417,-768,0,0
985,-1022,0,0
586,-202,0,0
80,-255,0,0
1674,-1167,0,0
1067,-834,0,0
793,-615,0,0
1417,-128,0,0
699,-794,1,0
724,-1120,0,0
85,-260,1,0
1182,-1723,0,0
1429,-1965,0,0
146,-665,0,0
95,-21,0,0
1595,-318,0,0
516,-1870,1,0
303,-1268,0,0
1713,-1997,0,0
861,-9,0,0
1963,-728,0,0
1191,-1804,0,0
197,-1120,0,0
767,-840,1,0
1315,-78,0,0
1616,-229,1,0
709,-759,0,0
1144,-532,0,0
683,-431,1,0
1765,-1065,0,0
478,-438,1,0
1088,-1403,0,0
1856,-1378,0,0
97,-1306,1,0
1359,-156,0,0
1330,-1611,1,0
1842,-698,0,0
1768,-1279,0,0
398,-1252,0,0
361,-1429,0,0
1903,-1300,1,0
119,-1513,0,0
1723,-318,0,0
114,-63,0,0
879,-809,1,0
544,-1004,0,0
1876,-1902,0,0
1327,-1581,0,0
1227,-909,1,0
1626,-624,0,0
1064,-1794,1,0
1437,-589,0,0
1658,-434,1,0
1633,-1928,0,0
1330,-1473,0,0
1819,-1135,1,0
1088,-417,1,0
1101,-630,0,0
1562,-1723,0,0
781,-92,0,0
1737,-1004,0,0
48,-883,0,0
742,-1404,0,0
1197,-91,0,0
166,-1210,1,0
34,-1512,0,0
1434,-225,1,0
752,-1028,0,0
1810,-1935,0,0
485,-1862,0,0
707,-1854,1,0
1988,-1455,0,0
551,-333,0,0
880,-1727,0,0
1550,-1861,0,0
196,-48,0,0
1093,-263,1,0
1588,-431,0,0
1975,-749,0,0
1362,-461,0,0
121,-963,1,0
372,-1298,1,0
1100,-652,1,0
412,-1188,0,0
14,-1151,0,0
1693,-551,1,0
106,-477,0,0
1457,-432,0,0
544,-1855,0,0
1672,-1119,0,0
977,-95,1,0
49,-89,0,0
40,-904,0,0
45,-201,1,0
1970,-1978,0,0
1964,-1521,0,0
588,-1817,0,0
1247,-922,1,0
440,-785,1,0
3,-463,0,0
300,-471,0,0
1337,-1883,1,0
1270,-670,0,0
1193,-1877,1,0
1760,-604,0,0
718,-291,0,0
155,-1195,0,0
734,-981,0,0
802,-1931,0,0
1273,-528,0,0
121,-300,1,0
582,-246,0,0
1991,-1160,0,0
424,-1965,0,0
1837,-166,0,0
554,-1692,0,0
565,-846,0,0
376,-471,0,0
1724,-1138,0,0
1468,-1502,1,0
313,-1396,1,0
629,-1558,1,0
1182,-1358,0,0
1884,-942,1,0
758,-428,0,0
1022,-1763,0,0
1909,-1672,0,0
1458,-696,0,0
1724,-1928,1,0
24,-710,0,0
1956,-425,1,0
567,-349,0,0
1031,-1451,0,0
1365,-1697,0,0
1010,-1715,0,0
286,-769,0,0
1637,-1383,0,0
1012,-181,0,0
1005,-772,0,0
1789,-785,0,0
1577,-880,0,0
179,-1875,0,0
1761,-875,0,0
1020,-1179,0,0
398,-1056,0,0
564,-202,1,0
1495,-1671,0,0
663,-1417,0,0
1651,-508,0,0
1738,-705,1,0
1475,-1789,1,0
1150,-322,0,0
1024,-1587,0,0
1948,-292,0,0
945,-1447,0,0
974,-1687,0,0
1742,-1642,0,0
1603,-1780,0,0
697,-1555,0,0
167,-72,0,0
1677,-460,0,0
223,-505,1,0
230,-1328,0,0
1101,-1869,0,0
548,-88,1,0
920,-261,0,0
749,-1482,0,0
511,-1861,0,0
1319,-966,1,0
358,-1979,1,0
1305,-1198,0,0
984,-1252,0,0
124,-1313,0,0
1246,-1822,0,0
239,-1425,0,0
477,-1612,1,0
754,-751,0,0
200,-1844,0,0
1236,-734,0,0
916,-728,0,0
1235,-538,1,0
1491,-1432,1,0
323,-479,1,0
481,-71,0,0
1813,-363,1,0
320,-1929,1,0
326,-653,0,0
1600,-203,1,0
237,-1883,0,0
1184,-1522,1,0
259,-795,0,0
1922,-383,1,0
1590,-1408,0,0
531,-761,1,0
928,-84,0,0
1676,-1382,0,0
468,-1792,0,0
741,-1789,0,0
239,-996,0,0
1614,-1136,1,0
496,-933,0,0
1279,-1248,0,0
1334,-1674,0,0
883,-248,1,0
1135,-227,1,0
62,-1859,1,0
1156,-1838,0,0
1538,-1322,0,0
1856,-1831,0,0
1742,-1350,0,0
1476,-407,0,0
1867,-868,1,0
247,-640,0,0
1982,-1768,0,0
1416,-1404,0,0
512,-397,0,0
1052,-1447,0,0
1330,-1465,1,0
1594,-640,0,0
1315,-598,0,0
1153,-231,1,0
1946,-826,0,0
1934,-1496,0,0
1603,-118,1,0
1556,-81,1,0
297,-126,0,0
1025,-530,1,0
1331,-604,0,0
973,-1787,0,0
595,-213,0,0
1664,-674,0,0
1569,-1812,0,0
578,-1912,0,0
1328,-415,0,0
1007,-1840,0,0
1946,-759,0,0
1804,-316,0,0
1435,-1902,0,0
52,-1009,0,0
1753,-464,1,0
1913,-363,0,0
596,-1734,0,0
1706,-48,0,0
535,-1980,0,0
202,-1071,0,0
996,-1644,0,0
912,-1019,0,0
1560,-473,0,0
112,-873,0,0
302,-423,0,0
855,-1845,0,0
538,-141,0,0
956,-109,0,0
1827,-1218,0,0
352,-1703,0,0
1282,-395,0,0
317,-1207,0,0
1307,-764,0,0
1438,-289,0,0
1671,-1297,0,0
1856,-1,0,0
1315,-1414,1,0
851,-655,0,0
32,-1482,0,0
1219,-385,0,0
411,-1607,0,0
1821,-1511,0,0
1489,-1940,1,0
258,-1166,0,0
1770,-882,0,0
1687,-1572,0,0
1054,-1376,1,0
289,-1566,0,0
1173,-839,0,0
1086,-76,0,0
1305,-772,0,0
1683,-1662,0,0
1099,-861,0,0
677,-262,1,0
1464,-625,0,0
997,-579,1,0
902,-1902,0,0
298,-1030,1,0
689,-1681,0,0
1565,-1069,0,0
1998,-1758,0,0
7,-776,0,0
1596,-590,0,0
1218,-1180,0,0
1731,-108,0,0
531,-282,0,0
1507,-176,0,0
883,-1687,0,0
915,-1305,0,0
93,-27,1,0
1984,-1922,0,0
1215,-1495,1,0
256,-1744,0,0
1538,-143,1,0
1809,-159,0,0
798,-1842,1,0
1418,-908,0,0
759,-1209,0,0
164,-513,0,0
74,-1715,0,0
1740,-20,0,0
770,-113,0,0
160,-1002,1,0
382,-763,0,0
393,-1779,0,0
1373,-1494,0,0
1096,-1395,0,0
674,-398,1,0
914,-473,1,0
635,-229,0,0
1361,-507,0,0
1569,-33,0,0
61,-1751,1,0
522,-1559,1,0
164,-1081,0,0
1725,-48,1,0
1088,-919,0,0
984,-1062,0,0
1172,-1466,0,0
1400,-1389,0,0
1783,-1298,0,0
150,-302,0,0
1706,-480,0,0
775,-1717,0,0
834,-301,1,0
1206,-928,1,0
102,-324,0,0
551,-760,0,0
335,-181,0,0
588,-804,1,0
444,-933,0,0
1361,-639,0,0
1946,-1987,0,0
65,-453,1,0
1947,-150,0,0
454,-292,0,0
929,-216,1,0
701,-1402,0,0
1787,-1242,1,0
875,-1019,0,0
1747,-1966,0,0
1771,-135,0,0
332,-347,0,0
1979,-935,0,0
1698,-1075,0,0
1391,-901,1,0
423,-802,1,0
1561,-1164,1,0
787,-1937,0,0
1361,-405,0,0
1365,-964,1,0
746,-351,1,0
1791,-467,1,0
784,-841,0,0
133,-1618,0,0
974,-78,1,0
797,-543,1,0
1787,-1724,1,0
253,-593,1,0
364,-1891,0,0
1473,-1355,1,0
624,-1730,0,0
461,-63,0,0
1885,-1951,0,0
1050,-1455,1,0
1476,-232,1,0
126,-1023,1,0
1911,-1026,0,0
469,-1133,0,0
1787,-1433,1,0
1441,-998,0,0
773,-597,0,0
680,-1983,0,0
1989,-202,0,0
1019,-1672,0,0
737,-18,1,0
1925,-573,0,0
13,-113,0,0
418,-1395,1,0
796,-684,0,0
1156,-1031,0,0
885,-689,1,0
1593,-1664,0,0
633,-1727,0,0
976,-1080,0,0
28,-786,0,0
157,-1940,1,0
886,-1230,0,0
120,-66,0,0
555,-1534,0,0
1067,-1863,0,0
982,-728,0,0
768,-540,0,0
1179,-87,0,0
1684,-75,0,0
1236,-1520,0,0
81,-908,0,0
620,-288,1,0
1410,-439,0,0
381,-356,0,0
1193,-795,1,0
1862,-681,0,0
286,-1074,0,0
427,-1915,1,0
508,-1176,1,0
1504,-765,0,0
1706,-1538,0,0
1588,-1676,1,0
129,-366,0,0
706,-331,0,0
45,-1467,1,0
345,-623,0,0
805,-800,0,0
419,-1478,0,0
745,-992,0,0
1421,-2,0,0
454,-845,0,0
785,-350,0,0
1435,-1831,1,0
607,-190,0,0
314,-1895,0,0
1408,-1401,0,0
1534,-85,0,0
366,-324,0,0
848,-1899,1,0
10,-1098,0,0
1812,-795,1,0
215,-103,0,0
569,-1332,0,0
1114,-624,0,0
1106,-956,0,0
1757,-1426,0,0
919,-1714,0,0
438,-1082,0,0
459,-1401,0,0
1200,-598,0,0
1815,-581,0,0
796,-980,0,0
1113,-757,0,0
198,-590,0,0
1942,-1794,0,0
1935,-623,0,0
1118,-178,0,0
569,-1980,0,0
1792,-1685,0,0
35,-1034,0,0
1840,-545,0,0
778,-1711,0,0
495,-1266,1,0
984,-488,1,0
1110,-273,0,0
187,-196,0,0
67,-1109,0,0
321,-1475,1,0
854,-1802,1,0
1957,-1381,0,0
1129,-1304,0,0
905,-250,0,0
843,-1,0,0
1008,-1823,1,0
1358,-481,0,0
1669,-204,0,0
1626,-1027,0,0
1822,-1832,0,0
1430,-497,0,0
1616,-787,0,0
524,-51,0,0
498,-1020,0,0
646,-999,0,0
1983,-1851,0,0
1918,-15,0,0
1566,-1022,0,0
936,-1376,0,0
1300,-1993,0,0
146,-1449,0,0
1494,-677,1,0
907,-1024,1,0
42,-329,0,0
480,-934,1,0
336,-996,0,0
714,-1199,0,0
126,-952,0,0
1253,-1065,1,0
533,-21,0,0
183,-548,0,0
1318,-1667,0,0
1042,-1161,0,0
1989,-779,0,0
1271,-249,0,0
271,-462,1,0
1969,-66,1,0
1088,-1730,1,0
863,-318,0,0
436,-824,0,0
1214,-808,0,0
997,-76,1,0
210,-1388,0,0
514,-1066,1,0
1993,-550,0,0
716,-582,0,0
958,-388,1,0
1696,-760,0,0

near cbsd peopel number
199
172
167
177
198
142
179
175
199
146
171
173
165
177
179
173
171
174
190
177
207
153
177
172
191
158
176
164
192
150
