each times' max average throughput
497.537781,559.190125,517.253113,559.176819,577.419189,574.179749,542.041199,471.272003,572.844727,568.846924,575.000488,511.021667,460.549622,574.316833,457.637115,0.000000,487.728088,580.711365,570.014404,591.706421,490.837006,546.061523,480.809479,557.220154,574.085754,579.795776,551.559692,571.212708,577.889709,558.592834,563.209351,480.701904,581.422974,570.300842,587.760498,466.101074,574.633240,542.883667,475.987244,569.216919,528.309875,583.797302,568.879761,577.920349,536.528625,445.554321,559.091370,580.826782,530.657349,515.899414,567.307861,564.478027,567.779175,574.591858,519.689941,574.400574,571.916382,574.768738,580.545532,580.894409,568.866211,571.136780,578.711060,567.007629,466.745148,562.990356,573.028931,480.716400,574.457214,585.716125,559.896545,562.844177,577.286682,471.974182,571.158936,552.080261,576.647522,577.758423,582.631104,583.408203,582.810730,584.282593,578.749817,565.892822,577.800537,448.514038,462.345337,581.825073,554.523987,559.557251,583.917053,480.862762,578.576233,570.422424,557.843628,444.272156,566.931396,583.443054,572.620605,571.283752,
avg. throughput in all test times
544.041077
avg. BS TX power in all test times
MBS area 1,MBS area 2,MBS area 3,MBS area 4,MBS area 5,CBSD 1,CBSD 2,CBSD 3,CBSD 4,CBSD 5,CBSD 6,CBSD 7,
7.025,6.588,6.912,7.050,7.025,0.114,0.160,0.211,0.229,0.174,0.200,0.136,
avg. mbs all power,avg. cbsd enable number,avg. mbs area all power,avg. cbsd all power
47.125,1.000,34.600,1.224
avg. max avg. throughput generation number in all test times
0.710000
avg. number of relay UE
139

the max average throughput times

BS TX power
MBS area 1,MBS area 2,MBS area 3,MBS area 4,MBS area 5,CBSD 1,CBSD 2,CBSD 3,CBSD 4,CBSD 5,CBSD 6,CBSD 7,
5.000,6.250,8.750,6.250,7.500,0.000,0.000,0.875,0.000,0.750,0.000,0.000,
max average throughput
571.283752

x,y,area,be blocked (1 : NLOS / 0 : LOS),be blocked number (>=1 : CBSD(x) / 0 : no),connect bs number (>=1 : CBSD / 0 : MBS),throughput (unit : M bps)
24,1130,1,0,0,0,751.750366
1394,524,2,0,0,0,704.664917
-639,1858,3,0,0,0,673.508362
-1103,-297,4,1,0,5,217.966095
1102,-110,5,0,0,0,815.837402
170,360,1,0,0,0,1052.133057
1589,1139,2,0,0,0,626.923889
-711,1002,3,1,0,5,217.966095
-1548,-1430,4,0,0,0,605.573364
647,-1338,5,0,0,0,731.366760
826,859,1,0,0,0,736.562744
1454,344,2,1,0,3,98.161774
-1621,874,3,0,0,0,692.028870
-1089,-1397,4,1,0,3,98.161774
516,-614,5,0,0,0,908.706482
208,1235,1,0,0,0,722.321655
744,182,2,0,0,0,895.714172
-163,1741,3,0,0,0,706.862427
-1172,-1785,4,0,0,0,601.829102
169,-54,5,0,0,0,1343.755493
446,577,1,0,0,0,877.711975
1907,96,2,0,0,0,633.653442
-1651,122,3,0,0,0,722.539673
-1263,-1522,4,0,0,0,623.631836
1272,-834,5,0,0,0,724.729004
706,1904,1,0,0,0,584.431335
1913,422,2,1,0,3,98.161774
-169,896,3,0,0,0,893.962646
-99,-509,4,1,0,3,98.161774
358,-1158,5,0,0,0,789.896484
985,1346,1,1,0,3,98.161774
1587,347,2,0,0,0,679.787720
-1374,1320,3,1,0,5,217.966095
-438,-820,4,1,0,3,98.161774
1128,-1171,5,1,0,3,98.161774
4,1389,1,1,0,5,217.966095
1353,384,2,0,0,0,721.051636
-26,539,3,0,0,0,1045.122437
-406,-850,4,0,0,0,836.167419
463,-34,5,0,0,0,1066.283081
493,1919,1,0,0,0,591.411377
1693,1378,2,0,0,0,595.575195
-1843,1071,3,0,0,0,650.239746
-390,-1209,4,1,0,3,98.161774
307,-1107,5,1,0,3,98.161774
1089,1685,1,0,0,0,587.859497
601,101,2,0,0,0,961.561829
-808,1261,3,1,0,5,217.966095
-1787,-1661,4,1,0,3,98.161774
416,-220,5,0,0,0,1062.368774
427,1302,1,0,0,0,696.565552
931,679,2,0,0,0,778.236023
-8,1796,3,0,0,0,699.203369
-86,-1999,4,0,0,0,620.332031
2,-60,5,1,0,0,939.616821
768,819,1,1,0,3,98.161774
1665,104,2,0,0,0,672.190308
-1349,1104,3,0,0,0,707.756409
-1442,-1523,4,0,0,0,606.933655
1403,-922,5,0,0,0,696.454163
61,1770,1,1,0,5,217.966095
1348,133,2,0,0,0,731.828430
-1420,524,3,1,0,5,217.966095
-1862,-115,4,0,0,0,640.278687
1767,-345,5,0,0,0,676.461914
93,1290,1,1,0,5,217.966095
1719,1625,2,0,0,0,572.802368
-904,685,3,0,0,0,831.142273
-1564,-1096,4,0,0,0,633.596863
428,-1826,5,0,0,0,664.779175
294,1916,1,1,0,5,217.966095
486,337,2,1,0,3,98.161774
-508,86,3,0,0,0,1058.463135
-648,-298,4,1,0,3,98.161774
836,-878,5,0,0,3,98.161774
293,868,1,0,0,0,812.088379
1051,286,2,0,0,0,794.411621
-1936,1690,3,0,0,0,597.007874
-290,-738,4,1,0,3,98.161774
372,-482,5,0,0,0,988.104187
682,1968,1,0,0,0,577.246277
1679,827,2,0,0,0,639.351807
-407,1874,3,0,0,0,680.448853
-1071,-787,4,0,0,0,737.274414
1088,-230,5,0,0,0,814.653931
632,1914,1,0,0,0,586.538391
1097,214,2,0,0,0,787.000305
-1649,1459,3,1,0,5,217.966095
-515,-743,4,0,0,0,847.998718
7,-1633,5,0,0,0,704.376953
980,1535,1,0,0,0,615.359680
1703,364,2,0,0,0,659.918518
-1879,691,3,0,0,0,668.145874
-1444,-1310,4,0,0,0,627.708679
769,-1112,5,0,0,0,758.520813
1645,1666,1,0,0,0,544.188721
1214,835,2,1,0,3,98.161774
-629,789,3,1,0,5,217.966095
-282,-830,4,1,0,3,98.161774
1500,-992,5,0,0,0,676.781860
1283,1306,1,0,0,0,613.862488
1813,76,2,0,0,0,648.177551
-1483,1515,3,0,0,0,651.792358
-1986,-703,4,0,0,0,605.662964
936,-1582,5,1,0,3,98.161774
590,1468,1,1,0,5,217.966095
213,151,2,0,0,0,1205.988892
-1059,1583,3,0,0,0,682.412354
-1210,-137,4,0,0,0,762.377563
813,-1802,5,1,0,3,98.161774
1198,1745,1,0,0,0,572.683228
1521,161,2,1,0,3,98.161774
-283,288,3,0,0,0,1128.760132
-917,-1103,4,1,0,3,98.161774
394,-1785,5,0,0,0,672.112732
450,1274,1,1,0,5,217.966095
1369,1230,2,0,0,0,644.149475
-191,647,3,0,0,0,980.764587
-45,-696,4,0,0,0,922.690491
1270,-620,5,0,0,0,745.804199
745,1837,1,1,0,5,217.966095
1950,1886,2,0,0,0,534.125793
-473,425,3,0,0,0,997.800049
-475,-623,4,1,0,3,98.161774
137,-750,5,0,0,0,923.299011
1342,1368,1,0,0,0,600.876648
436,369,2,1,0,3,98.161774
-911,1757,3,1,0,5,217.966095
-51,-1295,4,0,0,0,744.499634
630,-1413,5,0,0,0,719.861694
540,1144,1,0,0,0,719.441345
1738,473,2,0,0,0,650.288879
-1871,1574,3,1,0,5,217.966095
-734,-1623,4,0,0,0,653.468201
1024,-879,5,0,0,3,98.161774
1081,1719,1,0,0,0,584.435791
981,590,2,0,0,0,780.123962
-562,107,3,0,0,0,1028.276489
-1467,-940,4,0,0,0,659.778076
1420,-937,5,0,0,0,692.652710
1066,1629,1,0,0,0,596.400635
1474,647,2,1,0,3,98.161774
-1581,1181,3,0,0,0,672.261353
-995,-1670,4,1,0,3,98.161774
1129,-714,5,0,0,3,98.161774
298,774,1,1,0,5,217.966095
1432,698,2,0,0,0,685.376648
-134,533,3,0,0,0,1039.849365
-1837,-1196,4,0,0,0,594.392822
909,-1799,5,0,0,0,644.212097
862,1768,1,0,0,0,593.477356
474,40,2,0,0,0,1032.979858
-480,1509,3,0,0,0,735.287415
-658,-1470,4,0,0,0,682.253357
361,-1597,5,0,0,0,703.627380
45,886,1,0,0,0,821.329834
1981,638,2,1,0,3,98.161774
-836,1390,3,0,0,0,728.393860
-71,-338,4,1,0,3,98.161774
1750,-1454,5,0,0,0,609.708923
625,1862,1,0,0,0,593.888672
1027,686,2,1,0,3,98.161774
-1167,1580,3,1,0,5,217.966095
-357,-1675,4,1,0,3,98.161774
1214,-1447,5,0,0,0,662.757446
567,1019,1,0,0,0,742.785950
1869,380,2,0,0,0,633.978333
-1590,1681,3,0,0,0,626.851868
-1333,-556,4,0,0,0,713.438110
1832,-1328,5,0,0,0,611.277405
10,63,1,1,0,0,855.030457
1216,1100,2,0,0,0,677.121582
-208,1260,3,1,0,5,217.966095
-859,-149,4,0,0,0,858.436890
1946,-608,5,0,0,0,640.954163
344,510,1,1,0,3,98.161774
503,142,2,0,0,0,1005.830017
-1529,208,3,1,0,5,217.966095
-1786,-1540,4,0,0,0,573.669739
29,-1883,5,0,0,0,663.603943
432,1447,1,0,0,0,668.765991
819,135,2,1,0,3,98.161774
-1792,1459,3,0,0,0,627.222107
-846,-1306,4,0,0,0,692.097473
766,-1203,5,0,0,0,743.195129
104,1149,1,0,0,0,745.860168
1358,455,2,0,0,0,715.850464
-998,1779,3,0,0,0,662.804382
-764,-955,4,1,0,3,98.161774
711,-1344,5,0,0,0,724.833740
1074,1309,1,1,0,3,98.161774
1019,690,2,0,0,0,759.351807
-270,124,3,0,0,0,1217.240845
-1773,-1643,4,0,0,0,566.680847
695,-174,5,0,0,0,941.211182
102,254,1,1,0,3,98.161774
556,498,2,1,0,3,98.161774
-1284,417,3,0,0,0,781.074402
-1735,-1062,4,0,0,0,615.624573
1475,-926,5,0,0,0,685.955261
1846,1870,1,0,0,0,511.750946
1793,636,2,0,0,0,634.693726
-1330,342,3,1,0,5,217.966095
-1572,-1891,4,1,0,3,98.161774
1921,-1497,5,0,0,0,590.383118
967,1468,1,0,0,0,625.426819
1489,1227,2,0,0,0,630.684143
-464,1136,3,0,0,0,808.505859
-1973,-335,4,0,0,0,620.276794
1799,-150,5,0,0,0,675.688477
438,821,1,1,0,3,98.161774
1931,1326,2,0,0,0,575.575439
-1514,1489,3,0,0,0,651.323303
-1817,-840,4,1,0,3,98.161774
964,-33,5,1,0,3,98.161774
1604,1797,1,1,0,3,98.161774
1910,26,2,0,0,0,633.539795
-1258,1860,3,0,0,0,635.396423
-1384,-81,4,1,0,5,217.966095
1065,-961,5,0,0,3,98.161774
0,1987,1,0,0,0,590.598389
1862,1280,2,0,0,0,585.788940
-675,989,3,0,0,0,815.553772
-1610,-1520,4,0,0,0,591.541992
355,-1819,5,0,0,0,668.176941
674,998,1,0,0,0,733.553162
1227,243,2,1,0,3,98.161774
-1151,1277,3,0,0,0,711.727051
-1237,-329,4,0,0,0,748.063721
363,-1638,5,1,0,3,98.161774
870,1796,1,0,0,0,589.369629
1618,532,2,1,0,3,98.161774
-1820,1873,3,0,0,0,592.433105
-1006,-227,4,0,0,0,810.118713
1697,-649,5,1,0,3,98.161774
287,1222,1,0,0,0,721.668640
396,382,2,1,0,3,98.161774
-357,1656,3,1,0,5,217.966095
-1895,-1826,4,1,0,3,98.161774
1717,-209,5,0,0,0,687.917725
316,1659,1,0,0,0,636.843018
1895,1609,2,0,0,0,558.756653
-501,1078,3,1,0,5,217.966095
-1337,-1139,4,1,0,3,98.161774
754,-471,5,0,0,0,879.055481
24,720,1,0,0,0,881.237793
1936,365,2,1,0,3,98.161774
-330,264,3,0,0,0,1115.611938
-189,-845,4,1,0,3,98.161774
297,-1171,5,0,0,0,790.845947
440,1820,1,0,0,0,607.464478
1353,577,2,0,0,0,708.212769
-917,850,3,0,0,0,803.110840
-326,-1238,4,0,0,0,748.018921
747,-1952,5,1,0,3,98.161774
81,462,1,1,0,5,217.966095
1590,708,2,1,0,3,98.161774
-109,641,3,0,0,0,991.383789
-1979,-432,4,0,0,0,616.833069
683,-1187,5,0,0,0,754.835022
1869,1879,1,0,0,0,509.353638
159,138,2,0,0,0,1268.078735
-1077,633,3,0,0,0,803.365845
-884,-898,4,1,0,3,98.161774
34,-293,5,1,0,3,98.161774
1083,1832,1,0,0,0,571.147461
1739,1188,2,0,0,0,605.757080
-860,1181,3,1,0,5,217.966095
-3,-1721,4,0,0,0,663.294312
1820,-1759,5,0,0,0,579.456482
651,916,1,0,0,0,753.401917
1944,1385,2,0,0,0,570.251038
-1303,1007,3,0,0,0,724.054993
-878,-320,4,0,0,0,838.463257
144,-1394,5,0,0,0,748.218506
356,939,1,0,0,0,785.699158
541,102,2,1,0,3,98.161774
-1753,226,3,0,0,0,703.784607
-712,-708,4,0,0,0,817.802856
1323,-695,5,0,0,0,729.785217
390,681,1,1,0,3,98.161774
312,153,2,0,0,0,1123.529907
-976,752,3,0,0,0,807.337769
-35,-1885,4,1,0,3,98.161774
43,-1181,5,0,0,0,797.169861
96,1354,1,0,0,0,699.258911
1164,661,2,0,0,0,735.226440
-1987,837,3,0,0,0,646.978943
-1210,-271,4,0,0,0,757.181030
24,-618,5,0,0,0,983.591675
1629,1953,1,0,0,0,520.915405
1570,178,2,0,0,0,687.720215
-289,1669,3,0,0,0,715.979614
-1835,-238,4,0,0,0,642.608032
1233,-792,5,0,0,0,735.401794
1166,1978,1,0,0,0,549.685181
901,38,2,0,0,0,848.709656
-823,136,3,1,0,5,217.966095
-469,-965,4,0,0,0,798.740784
185,-1575,5,0,0,0,712.774597
1399,1603,1,0,0,0,571.219299
1833,566,2,0,0,0,632.316345
-1558,1680,3,0,0,0,629.647949
-1957,-912,4,0,0,0,598.693726
525,-913,5,0,0,0,830.293152
1067,421,2,0,0,0,779.547729
-1983,898,3,0,0,0,644.245422
-1620,-470,4,0,0,0,669.029053
526,-1642,5,0,0,0,688.825439
1651,1202,2,0,0,0,614.510620
-28,811,3,0,0,0,927.532410
-1369,-1239,4,0,0,0,643.217041
1478,-32,5,0,0,0,732.890015
1299,586,2,0,0,0,717.282043
-594,516,3,0,0,0,936.422424
-512,-446,4,0,0,0,930.408936
183,-704,5,0,0,0,936.842773
1564,1199,2,0,0,0,624.652954
-530,495,3,0,0,0,959.919128
-60,-1310,4,1,0,3,98.161774
1237,-172,5,0,0,0,781.297974
1974,1514,2,1,0,3,98.161774
-439,309,3,0,0,0,1046.612671
-1213,-1593,4,0,0,0,620.132507
213,-80,5,1,0,0,373.966064
1904,1629,2,0,0,0,556.513062
-1911,1007,3,0,0,0,646.451233
-488,-1537,4,0,0,0,681.887085
1738,-207,5,0,0,0,684.529175
1370,662,2,0,0,0,698.516357
-1336,1146,3,0,0,0,704.975342
-1865,-1289,4,1,0,3,98.161774
302,-23,5,0,0,0,1189.466064
974,645,2,0,0,0,774.299744
-1429,1536,3,0,0,0,654.781982
-555,-1473,4,0,0,0,688.803284
806,-803,5,0,0,3,98.161774
1046,274,2,0,0,0,796.510559
-1559,256,3,0,0,0,735.944336
-1934,-579,4,0,0,0,617.788818
843,-128,5,0,0,0,891.077576
1990,748,2,0,0,0,603.087097
-1836,1311,3,1,0,5,217.966095
-1400,-852,4,0,0,0,677.268005
1184,-509,5,1,0,3,98.161774
1778,740,2,1,0,3,98.161774
-1423,911,3,0,0,0,716.691833
-1089,-1379,4,0,0,0,657.359070
346,-526,5,1,0,3,98.161774
1846,1676,2,0,0,0,557.918396
-109,927,3,1,0,5,217.966095
-1803,-1877,4,1,0,3,98.161774
1704,-1650,5,0,0,0,597.878601
-787,572,3,0,0,0,875.285278
-1314,-825,4,0,0,0,692.934998
1631,-1071,5,0,0,0,653.477966
-1555,1294,3,0,0,0,665.171082
-1378,-805,4,0,0,0,684.865845
295,-428,5,0,0,0,1033.683472
-36,1497,3,0,0,0,751.319580
-718,-1154,4,0,0,0,730.859070
1431,-1851,5,1,0,3,98.161774
-1807,750,3,0,0,0,674.725586
-330,-1937,4,0,0,0,625.492371
1345,-771,5,1,0,3,98.161774
-1245,1085,3,0,0,0,723.243835
-1937,-1893,4,1,0,3,98.161774
1193,-720,5,0,0,0,749.858215
-1963,1711,3,0,0,0,593.260193
-1500,-815,4,0,0,0,665.609741
318,-1216,5,0,0,0,779.465698
-634,864,3,0,0,0,847.462952
-1244,-366,4,1,0,5,217.966095
825,-474,5,0,0,0,859.513245
-501,901,3,0,0,0,858.614563
-1454,-295,4,0,0,0,705.745300
1123,-1002,5,0,0,3,98.161774
-583,1321,3,0,0,0,761.762512
-1368,-1610,4,0,0,0,604.861145
390,-335,5,0,0,0,1036.857178
-666,797,3,0,0,0,856.469482
-1553,-1237,4,0,0,0,622.532532
1889,-656,5,0,0,0,646.478088
-869,896,3,0,0,0,803.609253
-662,-426,4,0,0,0,887.821350
1436,-1024,5,0,0,0,682.343567
-1898,247,3,0,0,0,680.998657
-648,-780,4,0,0,0,814.965576
178,-808,5,0,0,0,899.747070
-1867,204,3,0,0,0,686.413086
-1613,-217,4,0,0,0,679.253540
1854,-1118,5,0,0,0,623.836182
-729,1817,3,0,0,0,674.532227
-298,-1674,4,0,0,0,666.748718
382,-1453,5,0,0,0,728.267212
-44,1331,3,0,0,0,784.992859
-846,-1988,4,1,0,3,98.161774
708,-1382,5,0,0,0,718.805054
-1252,439,3,0,0,0,786.071899
-110,-1217,4,0,0,0,761.382019
208,-75,5,0,0,0,1280.241699
-740,426,3,0,0,0,912.869812
-841,-666,4,0,0,0,798.784241
659,-746,5,0,0,0,846.529114
-1281,999,3,0,0,0,727.960510
-1290,-1140,4,0,0,0,663.205261
1450,-889,5,0,0,0,692.729126
-530,267,3,1,0,5,217.966095
-439,-734,4,0,0,0,863.956909
1916,-1815,5,0,0,0,567.617615
-1342,1010,3,0,0,0,718.397522
-1284,-1112,4,0,0,0,667.039612
643,-742,5,0,0,0,850.471802
-821,321,3,1,0,5,217.966095
-695,-1830,4,0,0,0,626.563721
1690,-1403,5,0,0,0,619.728027
-491,316,3,0,0,0,1022.388977
-1627,-1774,4,0,0,0,567.866577
404,-1424,5,0,0,0,732.530884
-726,1551,3,0,0,0,712.838989
-1225,-766,4,1,0,3,98.161774
878,-896,5,0,0,3,98.161774
-1229,990,3,1,0,5,217.966095
-882,-454,4,1,0,3,98.161774
1304,-1831,5,0,0,0,613.145935
-1923,1921,3,0,0,0,581.096985
-980,-1372,4,0,0,0,669.155273
1268,-634,5,0,0,0,744.911133
-1289,1408,3,1,0,5,217.966095
-1509,-1600,4,1,0,3,98.161774
246,-1215,5,1,0,3,98.161774
-861,1055,3,0,0,0,778.589966
-1859,-115,4,0,0,0,640.736755
1050,-117,5,0,0,0,829.389221
-900,874,3,1,0,5,217.966095
-1206,-1121,4,1,0,3,98.161774
482,-1921,5,1,0,3,98.161774
-817,1124,3,1,0,5,217.966095
-1475,-1939,4,0,0,0,564.463013
903,-881,5,0,0,3,98.161774
-514,67,3,0,0,0,1056.722412
-1778,-337,4,0,0,0,648.954712
340,-15,5,1,0,3,98.161774
-800,232,3,0,0,0,920.007263
-933,-280,4,1,0,5,217.966095
1152,-1066,5,0,0,3,98.161774
-1787,117,3,0,0,0,700.032166
-1961,-996,4,1,0,3,98.161774
863,-540,5,0,0,0,840.060242
-1271,537,3,1,0,5,217.966095
1390,-1156,5,0,0,0,675.270691
-1297,1728,3,0,0,0,646.383118
1431,-1448,5,1,0,3,98.161774
-1700,404,3,1,0,5,217.966095
228,-454,5,0,0,0,1040.293335
-1426,1032,3,1,0,5,217.966095
838,-1297,5,0,0,0,720.402954
-1989,1282,3,0,0,0,620.461792
1147,-935,5,0,0,3,98.161774
-1012,1400,3,0,0,0,710.347229
1973,-402,5,0,0,0,644.505676
-299,1095,3,1,0,5,217.966095
1549,-1670,5,0,0,0,609.388245
-1496,1171,3,0,0,0,683.128357
592,-178,5,0,0,0,983.724304
-1739,1640,3,0,0,0,617.592102
1222,-423,5,1,0,3,98.161774
-665,1620,3,0,0,0,706.442810
392,-1291,5,0,0,0,759.115845
-1078,1024,3,0,0,0,753.359070
435,-1479,5,1,0,3,98.161774
-1257,1319,3,0,0,0,695.086792
536,-356,5,1,0,3,98.161774
-910,311,3,0,0,0,878.628418
419,-1767,5,0,0,0,673.990173
-1671,979,3,0,0,0,677.632874
1043,-1968,5,0,0,0,615.762451
-1414,796,3,0,0,0,728.284119
1459,-996,5,0,0,0,681.883362
-1706,124,3,0,0,0,713.174683
905,-785,5,0,0,3,98.161774
-832,84,3,0,0,0,918.879089
1601,-491,5,0,0,0,697.177734
-1556,1843,3,0,0,0,615.024536
658,-1353,5,0,0,0,727.858765
-853,1622,3,0,0,0,693.428894
1855,-169,5,1,0,3,98.161774
-941,250,3,1,0,5,217.966095
856,-1992,5,1,0,3,98.161774
-986,1652,3,0,0,0,679.527527
70,-998,5,0,0,0,845.069397
-1171,1346,3,0,0,0,701.111938
841,-945,5,0,0,3,98.161774
-241,1286,3,0,0,0,790.072937
1621,-1539,5,1,0,3,98.161774
-1780,334,3,1,0,5,217.966095
561,-1178,5,0,0,0,768.731140
7,-890,5,1,0,3,98.161774
988,-191,5,0,0,0,843.394409
80,-457,5,0,0,0,1066.467896


each generation good chromosome number
2,3,3,