each times' max average throughput
581.079102,585.978455,579.353455,578.807800,585.796448,577.552368,585.539734,587.785767,593.724609,578.536438,581.532776,582.733643,581.482483,587.104919,581.654053,584.924438,584.635742,587.364441,581.043701,582.840576,581.682373,593.724609,583.344849,584.635742,591.615723,587.734192,578.124146,579.584717,578.000732,583.092529,576.020142,586.634338,578.643433,577.616638,579.807983,593.440308,580.424805,575.682373,578.935120,574.137573,590.457947,579.932007,584.667725,583.862183,578.131958,589.550476,589.132629,580.385010,582.820129,589.578369,583.821899,589.429688,589.919067,577.017944,585.599731,588.412842,585.251038,580.272705,581.827637,583.473267,581.817078,581.827637,581.827637,584.273499,581.827637,581.827637,575.277710,581.827637,581.827637,589.808411,581.827637,581.827637,581.827637,581.817078,581.827637,581.827637,581.320496,581.827637,581.827637,581.737549,581.817078,581.827637,581.827637,581.817078,581.827637,581.827637,578.452332,590.181030,581.827637,583.231873,585.966919,581.827637,581.827637,581.817078,581.827637,581.827637,585.425049,581.827637,581.827637,572.404846,
avg. throughput in all test times
582.869324
avg. BS TX power in all test times
MBS area 1,MBS area 2,MBS area 3,MBS area 4,MBS area 5,CBSD 1,CBSD 2,CBSD 3,CBSD 4,CBSD 5,CBSD 6,CBSD 7,
7.637,7.412,7.825,7.600,8.050,0.083,0.339,0.023,0.251,0.079,0.075,0.011,
avg. mbs all power,avg. cbsd enable number,avg. mbs area all power,avg. cbsd all power
47.225,1.000,38.525,0.860
avg. max avg. throughput generation number in all test times
0.630000
avg. number of relay UE
74



the max average throughput times

BS TX power
MBS area 1,MBS area 2,MBS area 3,MBS area 4,MBS area 5,CBSD 1,CBSD 2,CBSD 3,CBSD 4,CBSD 5,CBSD 6,CBSD 7,
10.000,5.000,6.250,8.750,5.000,0.000,0.000,0.000,0.000,0.500,0.625,0.000,
max average throughput
572.404846

x,y,area,be blocked (1 : NLOS / 0 : LOS),be blocked number (>=1 : CBSD(x) / 0 : no),connect bs number (>=1 : CBSD / 0 : MBS),throughput (unit : M bps)
24,1130,1,0,0,0,851.356140
1394,524,2,0,0,0,672.744629
-639,1858,3,0,0,0,625.506348
-1103,-297,4,1,0,5,156.209030
1102,-110,5,0,0,0,757.593262
170,360,1,0,0,0,1152.083984
1589,1139,2,0,0,0,595.197937
-711,1002,3,1,0,5,156.209030
-1548,-1430,4,0,0,0,653.495056
647,-1338,5,0,0,0,673.323059
826,859,1,0,0,0,836.124695
1454,344,2,1,0,6,137.486282
-1621,874,3,0,0,0,643.961792
-1089,-1397,4,1,0,5,156.209030
516,-614,5,0,0,0,850.342896
208,1235,1,0,0,0,821.838074
744,182,2,0,0,0,863.593872
-163,1741,3,0,0,0,658.748962
-1172,-1785,4,0,0,0,649.734436
169,-54,5,0,0,0,1285.265869
446,577,1,0,0,0,977.547485
1907,96,2,0,0,0,601.906189
-1651,122,3,0,0,0,674.382080
-1263,-1522,4,0,0,0,671.626770
1272,-834,5,0,0,0,666.706848
706,1904,1,0,0,0,683.170288
1913,422,2,1,0,6,137.486282
-169,896,3,0,0,0,845.537415
-99,-509,4,1,0,6,137.486282
358,-1158,5,0,0,0,731.701965
985,1346,1,1,0,6,137.486282
1587,347,2,0,0,0,647.918701
-1374,1320,3,1,0,5,156.209030
-438,-820,4,1,0,5,156.209030
1128,-1171,5,1,0,6,137.486282
4,1389,1,1,0,5,156.209030
1353,384,2,0,0,0,689.102112
-26,539,3,0,0,0,996.620972
-406,-850,4,0,0,0,884.584778
463,-34,5,0,0,0,1007.831116
493,1919,1,0,0,0,690.210144
1693,1378,2,0,0,0,563.962341
-1843,1071,3,0,0,0,602.332153
-390,-1209,4,1,0,6,137.486282
307,-1107,5,1,0,6,137.486282
1089,1685,1,0,0,0,686.628174
601,101,2,0,0,0,929.414978
-808,1261,3,1,0,5,156.209030
-1787,-1661,4,1,0,5,156.209030
416,-220,5,0,0,0,1003.918335
427,1302,1,0,0,0,795.987244
931,679,2,0,0,0,746.206909
-8,1796,3,0,0,0,651.113281
-86,-1999,4,0,0,0,668.314270
2,-60,5,1,0,0,881.227661
768,819,1,1,0,6,137.486282
1665,104,2,0,0,0,640.338745
-1349,1104,3,0,0,0,659.640320
-1442,-1523,4,0,0,0,654.861206
1403,-922,5,0,0,0,638.534180
61,1770,1,1,0,5,156.209030
1348,133,2,0,0,0,699.861389
-1420,524,3,1,0,5,156.209030
-1862,-115,4,0,0,0,688.333374
1767,-345,5,0,0,0,618.627380
93,1290,1,1,0,5,156.209030
1719,1625,2,0,0,0,541.288391
-904,685,3,0,0,0,782.781128
-1564,-1096,4,0,0,0,681.628357
428,-1826,5,0,0,0,607.000610
294,1916,1,1,0,6,137.486282
486,337,2,1,0,6,137.486282
-508,86,3,0,0,0,1009.958069
-648,-298,4,1,0,5,156.209030
836,-878,5,0,0,0,731.638550
293,868,1,0,0,0,911.829041
1051,286,2,0,0,0,762.365173
-1936,1690,3,0,0,0,549.382874
-290,-738,4,1,0,6,137.486282
372,-482,5,0,0,0,929.684509
682,1968,1,0,0,0,675.920532
1679,827,2,0,0,0,607.587341
-407,1874,3,0,0,0,632.421448
-1071,-787,4,0,0,0,785.568176
1088,-230,5,0,0,0,756.411865
632,1914,1,0,0,0,685.295715
1097,214,2,0,0,0,754.961548
-1649,1459,3,1,0,5,156.209030
-515,-743,4,0,0,0,896.425903
7,-1633,5,0,0,0,646.426208
980,1535,1,0,0,0,714.342773
1703,364,2,0,0,0,628.097229
-1879,691,3,0,0,0,620.164307
-1444,-1310,4,0,0,0,675.718872
769,-1112,5,0,0,0,700.399780
1645,1666,1,0,0,0,642.519653
1214,835,2,1,0,6,137.486282
-629,789,3,1,0,5,156.209030
-282,-830,4,1,0,6,137.486282
1500,-992,5,0,0,0,618.946106
1283,1306,1,0,0,0,712.834961
1813,76,2,0,0,0,616.387695
-1483,1515,3,0,0,0,603.877991
-1986,-703,4,0,0,0,653.585022
936,-1582,5,1,0,6,137.486282
590,1468,1,1,0,6,137.486282
213,151,2,0,0,0,1173.804565
-1059,1583,3,0,0,0,634.378052
-1210,-137,4,0,0,0,810.711121
813,-1802,5,1,0,6,137.486282
1198,1745,1,0,0,0,671.314697
1521,161,2,1,0,6,137.486282
-283,288,3,0,0,0,1080.240479
-917,-1103,4,1,0,5,156.209030
394,-1785,5,0,0,0,614.298706
450,1274,1,1,0,6,137.486282
1369,1230,2,0,0,0,612.370972
-191,647,3,0,0,0,932.286255
-45,-696,4,0,0,0,971.164368
1270,-620,5,0,0,0,687.717712
745,1837,1,1,0,6,137.486282
1950,1886,2,0,0,0,502.819946
-473,425,3,0,0,0,949.314575
-475,-623,4,1,0,5,156.209030
137,-750,5,0,0,0,864.922363
1342,1368,1,0,0,0,699.752014
436,369,2,1,0,6,137.486282
-911,1757,3,1,0,5,156.209030
-51,-1295,4,0,0,0,792.805542
630,-1413,5,0,0,0,661.855774
540,1144,1,0,0,0,818.947998
1738,473,2,0,0,0,618.493164
-1871,1574,3,1,0,5,156.209030
-734,-1623,4,0,0,0,701.565613
1024,-879,5,0,0,0,700.924377
1081,1719,1,0,0,0,683.174805
981,590,2,0,0,6,137.486282
-562,107,3,0,0,0,979.780029
-1467,-940,4,0,0,0,707.894531
1420,-937,5,0,0,0,634.748291
1066,1629,1,0,0,0,695.240356
1474,647,2,1,0,6,137.486282
-1581,1181,3,0,0,0,624.264038
-995,-1670,4,1,0,5,156.209030
1129,-714,5,0,0,0,703.845215
298,774,1,1,0,6,137.486282
1432,698,2,0,0,0,653.495300
-134,533,3,0,0,0,991.349365
-1837,-1196,4,0,0,0,642.264404
909,-1799,5,0,0,0,586.543152
862,1768,1,0,0,0,692.293274
474,40,2,0,0,0,1000.815063
-480,1509,3,0,0,0,687.097290
-658,-1470,4,0,0,0,730.431458
361,-1597,5,0,0,0,645.679749
45,886,1,0,0,0,921.086609
1981,638,2,1,0,6,137.486282
-836,1390,3,0,0,0,680.221008
-71,-338,4,1,0,0,235.676453
1750,-1454,5,0,0,0,552.262634
625,1862,1,0,0,0,692.708008
1027,686,2,1,0,6,137.486282
-1167,1580,3,1,0,5,156.209030
-357,-1675,4,1,0,6,137.486282
1214,-1447,5,0,0,0,604.988953
567,1019,1,0,0,0,842.366394
1869,380,2,0,0,0,602.230103
-1590,1681,3,0,0,0,579.055786
-1333,-556,4,0,0,0,761.687134
1832,-1328,5,0,0,0,553.819824
10,63,1,1,0,0,954.837952
1216,1100,2,0,0,0,645.258545
-208,1260,3,1,0,5,156.209030
-859,-149,4,0,0,0,906.872131
1946,-608,5,0,0,0,583.304016
344,510,1,1,0,6,137.486282
503,142,2,0,0,0,973.670959
-1529,208,3,1,0,5,156.209030
-1786,-1540,4,0,0,0,621.437378
29,-1883,5,0,0,0,605.830933
432,1447,1,0,0,0,768.064514
819,135,2,1,0,6,137.486282
-1792,1459,3,0,0,0,579.424133
-846,-1306,4,0,0,0,740.299561
766,-1203,5,0,0,0,685.116089
104,1149,1,0,0,0,845.449463
1358,455,2,0,0,0,683.909912
-998,1779,3,0,0,0,614.843933
-764,-955,4,1,0,5,156.209030
711,-1344,5,0,0,0,666.810974
1074,1309,1,1,0,6,137.486282
1019,690,2,0,0,6,137.486282
-270,124,3,0,0,0,1168.710571
-1773,-1643,4,0,0,0,614.409912
695,-174,5,0,0,0,882.820618
102,254,1,1,0,0,338.744690
556,498,2,1,0,6,137.486282
-1284,417,3,0,0,0,732.788513
-1735,-1062,4,0,0,0,663.588135
1475,-926,5,0,0,0,628.078735
1846,1870,1,0,0,0,609.657959
1793,636,2,0,0,0,602.943298
-1330,342,3,1,0,5,156.209030
-1572,-1891,4,1,0,5,156.209030
1921,-1497,5,0,0,0,533.086731
967,1468,1,0,0,0,724.478699
1489,1227,2,0,0,0,598.946167
-464,1136,3,0,0,0,760.175537
-1973,-335,4,0,0,0,668.258789
1799,-150,5,0,0,0,617.857544
438,821,1,1,0,6,137.486282
1931,1326,2,0,0,0,544.048584
-1514,1489,3,0,0,0,603.411011
-1817,-840,4,1,0,5,156.209030
964,-33,5,1,0,6,137.486282
1604,1797,1,1,0,6,137.486282
1910,26,2,0,0,0,601.792908
-1258,1860,3,0,0,0,587.557495
-1384,-81,4,1,0,5,156.209030
1065,-961,5,0,0,0,683.453674
0,1987,1,0,0,0,689.390381
1862,1280,2,0,0,0,554.216614
-675,989,3,0,0,5,156.209030
-1610,-1520,4,0,0,0,639.400146
355,-1819,5,0,0,0,610.381470
674,998,1,0,0,0,833.105896
1227,243,2,1,0,6,137.486282
-1151,1277,3,0,0,0,663.599426
-1237,-329,4,0,0,0,796.375488
363,-1638,5,1,0,6,137.486282
870,1796,1,0,0,0,688.151184
1618,532,2,1,0,6,137.486282
-1820,1873,3,0,0,0,544.837524
-1006,-227,4,0,0,0,858.511230
1697,-649,5,1,0,6,137.486282
287,1222,1,0,0,0,821.182861
396,382,2,1,0,6,137.486282
-357,1656,3,1,0,5,156.209030
-1895,-1826,4,1,0,5,156.209030
1717,-209,5,0,0,0,630.032837
316,1659,1,0,0,0,735.967285
1895,1609,2,0,0,0,527.311951
-501,1078,3,1,0,5,156.209030
-1337,-1139,4,1,0,5,156.209030
754,-471,5,0,0,0,820.721863
24,720,1,0,0,0,981.077271
1936,365,2,1,0,6,137.486282
-330,264,3,0,0,0,1067.094604
-189,-845,4,1,0,6,137.486282
297,-1171,5,0,0,0,732.649475
440,1820,1,0,0,0,706.390198
1353,577,2,0,0,0,676.285889
-917,850,3,0,0,0,754.788635
-326,-1238,4,0,0,0,796.330566
747,-1952,5,1,0,6,137.486282
81,462,1,1,0,6,137.486282
1590,708,2,1,0,6,137.486282
-109,641,3,0,0,0,942.900940
-1979,-432,4,0,0,0,664.801514
683,-1187,5,0,0,0,696.723694
1869,1879,1,0,0,0,607.225281
159,138,2,0,0,0,1235.891479
-1077,633,3,0,0,0,755.043213
-884,-898,4,1,0,5,156.209030
34,-293,5,1,0,6,137.486282
1083,1832,1,0,0,0,669.764221
1739,1188,2,0,0,0,574.104736
-860,1181,3,1,0,5,156.209030
-3,-1721,4,0,0,0,711.421082
1820,-1759,5,0,0,0,522.254089
651,916,1,0,0,0,853.012207
1944,1385,2,0,0,0,538.749146
-1303,1007,3,0,0,0,675.893372
-878,-320,4,0,0,0,886.882568
144,-1394,5,0,0,0,690.124939
356,939,1,0,0,0,885.387695
541,102,2,1,0,6,137.486282
-1753,226,3,0,0,0,655.680420
-712,-708,4,0,0,0,866.203186
1323,-695,5,0,0,0,671.746765
390,681,1,1,0,6,137.486282
312,153,2,0,0,0,1091.352051
-976,752,3,0,0,0,759.009155
-35,-1885,4,1,0,6,137.486282
43,-1181,5,0,0,0,738.960510
96,1354,1,0,0,0,798.691345
1164,661,2,0,0,6,137.486282
-1987,837,3,0,0,0,599.085876
-1210,-271,4,0,0,0,805.506958
24,-618,5,0,0,0,925.174133
1629,1953,1,0,0,0,618.952087
1570,178,2,0,0,0,655.833862
-289,1669,3,0,0,0,667.839905
-1835,-238,4,0,0,0,690.670593
1233,-792,5,0,0,0,677.345825
1166,1978,1,0,0,0,648.078857
901,38,2,0,0,0,816.617310
-823,136,3,1,0,5,156.209030
-469,-965,4,0,0,0,847.120972
185,-1575,5,0,0,0,654.793274
1399,1603,1,0,0,0,669.836731
1833,566,2,0,0,0,600.573303
-1558,1680,3,0,0,0,581.837585
-1957,-912,4,0,0,0,646.585083
525,-913,5,0,0,0,772.024963
1067,421,2,0,0,0,747.517151
-1983,898,3,0,0,0,596.364685
-1620,-470,4,0,0,0,717.172058
526,-1642,5,0,0,0,630.936890
1651,1202,2,0,0,0,582.826477
-28,811,3,0,0,0,879.082764
-1369,-1239,4,0,0,0,691.281555
1478,-32,5,0,0,0,674.841553
1299,586,2,0,0,0,685.338928
-594,516,3,0,0,0,887.967285
-512,-446,4,0,0,0,978.886414
183,-704,5,0,0,0,878.455444
1564,1199,2,0,0,0,592.934387
-530,495,3,0,0,0,911.450806
-60,-1310,4,1,0,6,137.486282
1237,-172,5,0,0,0,723.121948
1974,1514,2,1,0,6,137.486282
-439,309,3,0,0,0,998.110718
-1213,-1593,4,0,0,0,668.113953
213,-80,5,1,0,0,320.771057
1904,1629,2,0,0,0,525.080017
-1911,1007,3,0,0,0,598.560547
-488,-1537,4,0,0,0,730.064270
1738,-207,5,0,0,0,626.658752
1370,662,2,0,0,0,666.607971
-1336,1146,3,0,0,0,656.867493
-1865,-1289,4,1,0,5,156.209030
302,-23,5,0,0,0,1130.988770
974,645,2,0,0,6,137.486282
-1429,1536,3,0,0,0,606.854797
-555,-1473,4,0,0,0,736.997559
806,-803,5,0,0,0,749.856934
1046,274,2,0,0,0,764.461975
-1559,256,3,0,0,0,687.752625
-1934,-579,4,0,0,0,665.761047
843,-128,5,0,0,0,832.730957
1990,748,2,0,0,0,571.444824
-1836,1311,3,1,0,5,156.209030
-1400,-852,4,0,0,0,725.433228
1184,-509,5,1,0,6,137.486282
1778,740,2,1,0,6,137.486282
-1423,911,3,0,0,0,668.550171
-1089,-1379,4,0,0,0,705.468323
346,-526,5,1,0,6,137.486282
1846,1676,2,0,0,0,526.478027
-109,927,3,1,0,5,156.209030
-1803,-1877,4,1,0,5,156.209030
1704,-1650,5,0,0,0,540.521729
-787,572,3,0,0,0,826.876343
-1314,-825,4,0,0,0,741.139099
1631,-1071,5,0,0,0,595.757751
-1555,1294,3,0,0,0,617.201233
-1378,-805,4,0,0,0,733.050476
295,-428,5,0,0,0,975.243042
-36,1497,3,0,0,0,703.092468
-718,-1154,4,0,0,0,779.141479
1431,-1851,5,1,0,6,137.486282
-1807,750,3,0,0,0,626.719055
-330,-1937,4,0,0,0,673.494324
1345,-771,5,1,0,6,137.486282
-1245,1085,3,0,0,0,675.084351
-1937,-1893,4,1,0,5,156.209030
1193,-720,5,0,0,0,691.760376
-1963,1711,3,0,0,0,545.659241
-1500,-815,4,0,0,0,713.743103
318,-1216,5,0,0,0,721.293823
-634,864,3,0,0,0,799.082336
-1244,-366,4,1,0,5,156.209030
825,-474,5,0,0,0,801.203491
-501,901,3,0,0,0,810.221985
-1454,-295,4,0,0,0,753.978149
1123,-1002,5,0,0,0,669.727783
-583,1321,3,0,0,0,713.513367
-1368,-1610,4,0,0,0,652.779785
390,-335,5,0,0,0,978.415527
-666,797,3,0,0,0,808.079163
-1553,-1237,4,0,0,0,670.523254
1889,-656,5,0,0,0,588.796021
-869,896,3,0,0,0,755.286255
-662,-426,4,0,0,0,936.276428
1436,-1024,5,0,0,0,624.482910
-1898,247,3,0,0,0,632.969360
-648,-780,4,0,0,0,863.363098
178,-808,5,0,0,0,841.391724
-1867,204,3,0,0,0,638.364868
-1613,-217,4,0,0,0,727.423889
1854,-1118,5,0,0,0,566.292297
-729,1817,3,0,0,0,626.526428
-298,-1674,4,0,0,0,714.885376
382,-1453,5,0,0,0,670.233337
-44,1331,3,0,0,0,736.700073
-846,-1988,4,1,0,6,137.486282
708,-1382,5,0,0,0,660.802734
-1252,439,3,0,0,0,737.777222
-110,-1217,4,0,0,0,809.714172
208,-75,5,0,0,0,1221.755371
-740,426,3,0,0,0,864.430176
-841,-666,4,0,0,0,847.164429
659,-746,5,0,0,0,788.236877
-1281,999,3,0,0,0,679.788757
-1290,-1140,4,0,0,0,711.331787
1450,-889,5,0,0,0,634.824402
-530,267,3,1,0,5,156.209030
-439,-734,4,0,0,0,912.396240
1916,-1815,5,0,0,0,510.525299
-1342,1010,3,0,0,0,670.251160
-1284,-1112,4,0,0,0,715.177063
643,-742,5,0,0,0,792.174072
-821,321,3,1,0,5,156.209030
-695,-1830,4,0,0,0,674.569641
1690,-1403,5,0,0,0,562.211609
-491,316,3,0,0,0,973.894531
-1627,-1774,4,0,0,0,615.602295
404,-1424,5,0,0,0,674.483521
-726,1551,3,0,0,0,664.708130
-1225,-766,4,1,0,5,156.209030
878,-896,5,0,0,0,721.846375
-1229,990,3,1,0,5,156.209030
-882,-454,4,1,0,5,156.209030
1304,-1831,5,0,0,0,555.675049
-1923,1921,3,0,0,0,533.578552
-980,-1372,4,0,0,0,717.298645
1268,-634,5,0,0,0,686.826904
-1289,1408,3,1,0,5,156.209030
-1509,-1600,4,1,0,5,156.209030
246,-1215,5,1,0,6,137.486282
-861,1055,3,0,0,5,156.209030
-1859,-115,4,0,0,0,688.793030
1050,-117,5,0,0,0,771.122437
-900,874,3,1,0,5,156.209030
-1206,-1121,4,1,0,5,156.209030
482,-1921,5,1,0,6,137.486282
-817,1124,3,1,0,5,156.209030
-1475,-1939,4,0,0,0,612.179382
903,-881,5,0,0,0,720.228271
-514,67,3,0,0,0,1008.217773
-1778,-337,4,0,0,0,697.037964
340,-15,5,1,0,6,137.486282
-800,232,3,0,0,0,871.562622
-933,-280,4,1,0,5,156.209030
1152,-1066,5,0,0,0,657.740479
-1787,117,3,0,0,0,651.939514
-1961,-996,4,1,0,5,156.209030
863,-540,5,0,0,0,781.777405
-1271,537,3,1,0,5,156.209030
1390,-1156,5,0,0,0,617.441895
-1297,1728,3,0,0,0,598.492676
1431,-1448,5,1,0,6,137.486282
-1700,404,3,1,0,5,156.209030
228,-454,5,0,0,0,981.850159
-1426,1032,3,1,0,5,156.209030
838,-1297,5,0,0,0,662.394897
-1989,1282,3,0,0,0,572.699463
1147,-935,5,0,0,0,674.559082
-1012,1400,3,0,0,0,662.223572
1973,-402,5,0,0,0,586.834839
-299,1095,3,1,0,5,156.209030
1549,-1670,5,0,0,0,551.944336
-1496,1171,3,0,0,0,635.091492
592,-178,5,0,0,0,925.306763
-1739,1640,3,0,0,0,569.845398
1222,-423,5,1,0,6,137.486282
-665,1620,3,0,0,0,658.330627
392,-1291,5,0,0,0,700.992981
-1078,1024,3,0,0,0,705.127502
435,-1479,5,1,0,6,137.486282
-1257,1319,3,0,0,0,647.009766
536,-356,5,1,0,6,137.486282
-910,311,3,0,0,0,830.216309
419,-1767,5,0,0,0,616.167297
-1671,979,3,0,0,0,629.615662
1043,-1968,5,0,0,0,558.273254
-1414,796,3,0,0,0,680.111511
1459,-996,5,0,0,0,624.024719
-1706,124,3,0,0,0,665.042908
905,-785,5,0,0,0,735.046875
-832,84,3,0,0,0,870.435242
1601,-491,5,0,0,0,639.254883
-1556,1843,3,0,0,0,567.292114
658,-1353,5,0,0,0,669.826172
-853,1622,3,0,0,0,645.357300
1855,-169,5,1,0,6,137.486282
-941,250,3,1,0,5,156.209030
856,-1992,5,1,0,6,137.486282
-986,1652,3,0,0,0,631.503479
70,-998,5,0,0,0,786.778992
-1171,1346,3,0,0,0,653.015930
841,-945,5,0,0,0,719.444153
-241,1286,3,0,0,0,741.771484
1621,-1539,5,1,0,6,137.486282
-1780,334,3,1,0,5,156.209030
561,-1178,5,0,0,0,710.584229
7,-890,5,1,0,6,137.486282
988,-191,5,0,0,0,785.106628
80,-457,5,0,0,0,1008.015930


each generation good chromosome number
10,10,10,