each times' max average throughput
0.000000,0.000000,0.000000,0.000000,0.000000,0.000000,0.000000,0.000000,0.000000,463.517883,0.000000,0.000000,439.820465,0.000000,0.000000,451.088776,501.501587,0.000000,0.000000,0.000000,0.000000,0.000000,0.000000,0.000000,552.936768,0.000000,0.000000,0.000000,0.000000,0.000000,0.000000,0.000000,0.000000,493.815399,563.646729,0.000000,0.000000,0.000000,0.000000,0.000000,0.000000,0.000000,0.000000,0.000000,478.424011,0.000000,0.000000,0.000000,0.000000,0.000000,0.000000,0.000000,0.000000,0.000000,0.000000,0.000000,0.000000,0.000000,0.000000,450.191681,0.000000,449.435699,458.473785,0.000000,0.000000,0.000000,0.000000,0.000000,0.000000,0.000000,487.003296,0.000000,0.000000,0.000000,0.000000,0.000000,0.000000,562.987976,0.000000,0.000000,0.000000,0.000000,0.000000,0.000000,0.000000,0.000000,548.525879,0.000000,0.000000,0.000000,0.000000,0.000000,0.000000,559.925415,0.000000,562.690857,0.000000,574.900696,0.000000,0.000000,
avg. throughput in all test times
85.988869
avg. BS TX power in all test times
MBS area 1,MBS area 2,MBS area 3,MBS area 4,MBS area 5,MBS area 6,CBSD 1,CBSD 2,CBSD 3,CBSD 4,CBSD 5,CBSD 6,CBSD 7,CBSD 8,CBSD 9,CBSD 10,
6.188,6.075,5.637,6.050,5.850,5.787,0.195,0.119,0.006,0.000,0.111,0.135,0.013,0.015,0.101,0.000,
avg. mbs all power,avg. cbsd enable number,avg. mbs area all power,avg. cbsd all power
43.463,1.000,35.588,0.695
avg. max avg. throughput generation number in all test times
0.200000
avg. number of relay UE
128

the max average throughput times

BS TX power
MBS area 1,MBS area 2,MBS area 3,MBS area 4,MBS area 5,MBS area 6,CBSD 1,CBSD 2,CBSD 3,CBSD 4,CBSD 5,CBSD 6,CBSD 7,CBSD 8,CBSD 9,CBSD 10,
5.000,10.000,7.500,6.250,8.750,10.000,0.000,0.000,0.000,0.000,0.000,0.000,0.000,0.000,0.000,0.000,
max average throughput
574.900696

x,y,area,be blocked (1 : NLOS / 0 : LOS),be blocked number (>=1 : CBSD(x) / 0 : no),connect bs number (>=1 : CBSD / 0 : MBS),throughput (unit : M bps)
24,1130,1,0,0,0,751.750366
1394,524,2,0,0,0,772.062317
-1621,874,3,0,0,0,669.988098
-639,1858,4,0,0,0,625.506348
-1103,-297,5,1,0,0,15.567400
1102,-110,6,0,0,0,857.214722
170,360,1,0,0,0,1052.133057
1589,1139,2,0,0,0,694.027954
-1651,122,3,0,0,0,700.461121
-711,1002,4,1,0,0,9.140375
-1548,-1430,5,0,0,0,653.495056
647,-1338,6,0,0,0,772.643433
826,859,1,0,0,0,736.562744
1454,344,2,1,0,0,8.159477
-1374,1320,3,1,0,0,3.004658
-163,1741,4,0,0,0,658.748962
-1089,-1397,5,1,0,0,4.342586
516,-614,6,0,0,0,950.143982
208,1235,1,0,0,0,722.321655
744,182,2,0,0,0,963.412415
-1843,1071,3,0,0,0,628.265320
-169,896,4,0,0,0,845.537415
-1172,-1785,5,0,0,0,649.734436
169,-54,6,0,0,0,1385.256104
446,577,1,0,0,0,877.711975
1907,96,2,0,0,0,700.789551
-1349,1104,3,0,0,0,685.694946
-26,539,4,0,0,0,996.620972
-1263,-1522,5,0,0,0,671.626770
1272,-834,6,0,0,0,765.995239
706,1904,1,0,0,0,584.431335
1913,422,2,1,0,0,3.677310
-1420,524,3,1,0,0,5.932598
-808,1261,4,1,0,0,5.117857
-99,-509,5,1,0,0,114.929108
358,-1158,6,0,0,0,831.248901
985,1346,1,1,0,0,2.986212
1587,347,2,0,0,0,747.107849
-904,685,3,0,0,0,808.978577
-8,1796,4,0,0,0,651.113281
-438,-820,5,1,0,0,27.664555
1128,-1171,6,1,0,0,6.371599
4,1389,1,1,0,0,5.131981
1353,384,2,0,0,0,788.493042
-508,86,3,0,0,0,1036.239746
-407,1874,4,0,0,0,632.421448
-406,-850,5,0,0,0,884.584778
463,-34,6,0,0,0,1107.764282
493,1919,1,0,0,0,591.411377
1693,1378,2,0,0,0,662.508057
-1936,1690,3,0,0,0,575.151611
-629,789,4,1,0,0,16.101545
-390,-1209,5,1,0,0,11.482020
307,-1107,6,1,0,0,17.379622
1089,1685,1,0,0,0,587.859497
601,101,2,0,0,0,1029.300049
-1649,1459,3,1,0,0,1.954170
-1483,1515,4,0,0,0,603.877991
-1787,-1661,5,1,0,0,1.677378
416,-220,6,0,0,0,1103.849731
427,1302,1,0,0,0,696.565552
931,679,2,0,0,0,845.797180
-1879,691,3,0,0,0,646.140808
-1059,1583,4,0,0,0,634.378052
-86,-1999,5,0,0,0,668.314270
2,-60,6,1,0,0,981.067139
768,819,1,1,0,0,9.567645
1665,104,2,0,0,0,739.484070
-473,425,3,0,0,0,975.584778
-283,288,4,0,0,0,1080.240479
-1442,-1523,5,0,0,0,654.861206
1403,-922,6,0,0,0,737.668640
61,1770,1,1,0,0,2.498542
1348,133,2,0,0,0,799.296204
-1871,1574,3,1,0,0,1.429670
-191,647,4,0,0,0,932.286255
-1862,-115,5,0,0,0,688.333374
1767,-345,6,0,0,0,717.633362
93,1290,1,1,0,0,6.330455
1719,1625,2,0,0,0,639.585205
-562,107,3,0,0,0,1006.056396
-911,1757,4,1,0,0,2.240032
-1564,-1096,5,0,0,0,681.628357
428,-1826,6,0,0,0,705.922852
294,1916,1,1,0,0,1.909506
486,337,2,1,0,0,95.478172
-1581,1181,3,0,0,0,650.249756
-134,533,4,0,0,0,991.349365
-648,-298,5,1,0,0,55.391483
836,-878,6,0,0,0,831.185242
293,868,1,0,0,0,812.088379
1051,286,2,0,0,0,861.998962
-1529,208,3,1,0,0,5.605354
-480,1509,4,0,0,0,687.097290
-290,-738,5,1,0,0,42.292313
372,-482,6,0,0,0,1029.569702
682,1968,1,0,0,0,577.246277
1679,827,2,0,0,0,706.513977
-1792,1459,3,0,0,0,605.293518
-836,1390,4,0,0,0,680.221008
-1071,-787,5,0,0,0,785.568176
1088,-230,6,0,0,0,856.030212
632,1914,1,0,0,0,586.538391
1097,214,2,0,0,0,854.575989
-270,124,3,0,0,0,1195.006836
-1167,1580,4,1,0,0,2.290908
-515,-743,5,0,0,0,896.425903
7,-1633,6,0,0,0,745.606873
980,1535,1,0,0,0,615.359680
1703,364,2,0,0,0,727.166565
-1284,417,3,0,0,0,758.942383
-1590,1681,4,0,0,0,579.055786
-1444,-1310,5,0,0,0,675.718872
769,-1112,6,0,0,0,799.836670
1645,1666,1,0,0,0,544.188721
1214,835,2,1,0,0,8.498157
-1330,342,3,1,0,0,7.889350
-208,1260,4,1,0,0,8.167278
-282,-830,5,1,0,0,32.437271
1500,-992,6,0,0,0,717.954285
1283,1306,1,0,0,0,613.862488
1813,76,2,0,0,0,715.378113
-1514,1489,3,0,0,0,629.346985
-998,1779,4,0,0,0,614.843933
-1986,-703,5,0,0,0,653.585022
936,-1582,6,1,0,0,4.439445
590,1468,1,1,0,0,3.492638
213,151,2,0,0,0,1273.783447
-330,264,3,0,0,0,1093.383179
-464,1136,4,0,0,0,760.175537
-1210,-137,5,0,0,0,810.711121
813,-1802,6,1,0,0,3.579434
1198,1745,1,0,0,0,572.683228
1521,161,2,1,0,0,7.620903
-917,850,3,0,0,0,780.963379
-1258,1860,4,0,0,0,587.557495
-917,-1103,5,1,0,0,8.071752
394,-1785,6,0,0,0,713.274292
450,1274,1,1,0,0,5.567217
1369,1230,2,0,0,0,711.332764
-1077,633,3,0,0,0,781.218262
-675,989,4,0,0,0,767.213318
-45,-696,5,0,0,0,971.164368
1270,-620,6,0,0,0,787.102783
745,1837,1,1,0,0,1.786201
1950,1886,2,0,0,0,600.592224
-1303,1007,3,0,0,0,701.974548
-1151,1277,4,0,0,0,663.599426
-475,-623,5,1,0,0,43.637161
137,-750,6,0,0,0,964.742615
1342,1368,1,0,0,0,600.876648
436,369,2,1,0,0,102.963097
-1753,226,3,0,0,0,681.728088
-1820,1873,4,0,0,0,544.837524
-51,-1295,5,0,0,0,792.805542
630,-1413,6,0,0,0,761.119812
540,1144,1,0,0,0,719.441345
1738,473,2,0,0,0,717.498230
-976,752,3,0,0,0,785.187927
-357,1656,4,1,0,0,3.555642
-734,-1623,5,0,0,0,701.565613
1024,-879,6,0,0,0,800.363281
1081,1719,1,0,0,0,584.435791
981,590,2,0,0,0,847.688354
-1987,837,3,0,0,0,625.010620
-501,1078,4,1,0,0,10.059417
-1467,-940,5,0,0,0,707.894531
1420,-937,6,0,0,0,733.859741
1066,1629,1,0,0,0,596.400635
1474,647,2,1,0,0,6.561286
-823,136,3,1,0,0,32.284084
-109,641,4,0,0,0,942.900940
-995,-1670,5,1,0,0,3.297308
1129,-714,6,0,0,0,803.295410
298,774,1,1,0,0,22.662989
1432,698,2,0,0,0,752.715271
-1983,898,3,0,0,0,622.282227
-860,1181,4,1,0,0,5.506030
-1837,-1196,5,0,0,0,642.264404
909,-1799,6,0,0,0,685.300476
862,1768,1,0,0,0,593.477356
474,40,2,0,0,0,1100.744995
-594,516,3,0,0,0,914.219543
-289,1669,4,0,0,0,667.839905
-658,-1470,5,0,0,0,730.431458
361,-1597,6,0,0,0,744.856201
45,886,1,0,0,0,821.329834
1981,638,2,1,0,0,3.073246
-530,495,3,0,0,0,937.710754
-1558,1680,4,0,0,0,581.837585
-71,-338,5,1,0,0,235.676453
1750,-1454,6,0,0,0,650.684875
625,1862,1,0,0,0,593.888672
1027,686,2,1,0,0,14.146965
-439,309,3,0,0,0,1024.390503
-28,811,4,0,0,0,879.082764
-357,-1675,5,1,0,0,4.796876
1214,-1447,6,0,0,0,703.895996
567,1019,1,0,0,0,742.785950
1869,380,2,0,0,0,701.115967
-1911,1007,3,0,0,0,624.483887
-1429,1536,4,0,0,0,606.854797
-1333,-556,5,0,0,0,761.687134
1832,-1328,6,0,0,0,652.259094
10,63,1,1,0,0,855.030457
1216,1100,2,0,0,0,744.432617
-1336,1146,3,0,0,0,682.917297
-109,927,4,1,0,0,20.059797
-859,-149,5,0,0,0,906.872131
1946,-608,6,0,0,0,682.033081
344,510,1,1,0,0,50.268810
503,142,2,0,0,0,1073.586426
-1559,256,3,0,0,0,713.851562
-36,1497,4,0,0,0,703.092468
-1786,-1540,5,0,0,0,621.437378
29,-1883,6,0,0,0,704.744385
432,1447,1,0,0,0,668.765991
819,135,2,1,0,0,42.156303
-1836,1311,3,1,0,0,1.817487
-634,864,4,0,0,0,799.082336
-846,-1306,5,0,0,0,740.299561
766,-1203,6,0,0,0,784.489929
104,1149,1,0,0,0,745.860168
1358,455,2,0,0,0,783.278442
-1423,911,3,0,0,0,694.619934
-501,901,4,0,0,0,810.221985
-764,-955,5,1,0,0,12.808151
711,-1344,6,0,0,0,766.099915
1074,1309,1,1,0,0,2.855665
1019,690,2,0,0,0,826.878601
-787,572,3,0,0,0,853.101929
-583,1321,4,0,0,0,713.513367
-1773,-1643,5,0,0,0,614.409912
695,-174,6,0,0,0,982.661804
102,254,1,1,0,0,251.911560
556,498,2,1,0,0,55.259007
-1555,1294,3,0,0,0,643.170898
-666,797,4,0,0,0,808.079163
-1735,-1062,5,0,0,0,663.588135
1475,-926,6,0,0,0,727.147949
1846,1870,1,0,0,0,511.750946
1793,636,2,0,0,0,701.834717
-1807,750,3,0,0,0,652.709839
-869,896,4,0,0,0,755.286255
-1572,-1891,5,1,0,0,1.638325
1921,-1497,6,0,0,0,631.283264
967,1468,1,0,0,0,625.426819
1489,1227,2,0,0,0,697.806335
-1245,1085,3,0,0,0,701.164246
-729,1817,4,0,0,0,626.526428
-1973,-335,5,0,0,0,668.258789
1799,-150,6,0,0,0,716.858215
438,821,1,1,0,0,16.406847
1931,1326,2,0,0,0,642.377869
-1963,1711,3,0,0,0,571.413940
-44,1331,4,0,0,0,736.700073
-1817,-840,5,1,0,0,3.022595
964,-33,6,1,0,0,28.246943
1604,1797,1,1,0,0,0.998320
1910,26,2,0,0,0,700.675415
-1898,247,3,0,0,0,658.973694
-726,1551,4,0,0,0,664.708130
-1384,-81,5,1,0,0,8.913767
1065,-961,6,0,0,0,782.820251
0,1987,1,0,0,0,590.598389
1862,1280,2,0,0,0,652.660217
-1867,204,3,0,0,0,664.380188
-1289,1408,4,1,0,0,2.494197
-1610,-1520,5,0,0,0,639.400146
355,-1819,6,0,0,0,709.328796
674,998,1,0,0,0,733.553162
1227,243,2,1,0,0,13.642185
-1252,439,3,0,0,0,763.935913
-861,1055,4,0,0,0,730.308533
-1237,-329,5,0,0,0,796.375488
363,-1638,6,1,0,0,5.810654
870,1796,1,0,0,0,589.369629
1618,532,2,1,0,0,5.558679
-740,426,3,0,0,0,890.673401
-817,1124,4,1,0,0,6.379530
-1006,-227,5,0,0,0,858.511230
1697,-649,6,1,0,0,4.594826
287,1222,1,0,0,0,721.668640
396,382,2,1,0,0,111.449074
-1281,999,3,0,0,0,705.876038
-1297,1728,4,0,0,0,598.492676
-1895,-1826,5,1,0,0,1.338163
1717,-209,6,0,0,0,729.114624
316,1659,1,0,0,0,636.843018
1895,1609,2,0,0,0,625.434326
-530,267,3,1,0,0,76.252907
-1012,1400,4,0,0,0,662.223572
-1337,-1139,5,1,0,0,4.452519
754,-471,6,0,0,0,920.477600
24,720,1,0,0,0,881.237793
1936,365,2,1,0,0,3.616187
-1342,1010,3,0,0,0,696.323425
-299,1095,4,1,0,0,11.496012
-189,-845,5,1,0,0,33.525364
297,-1171,6,0,0,0,832.199341
440,1820,1,0,0,0,607.464478
1353,577,2,0,0,0,775.620117
-821,321,3,1,0,0,27.798586
-665,1620,4,0,0,0,658.330627
-326,-1238,5,0,0,0,796.330566
747,-1952,6,1,0,0,3.034788
81,462,1,1,0,0,95.636765
1590,708,2,1,0,0,5.215226
-491,316,3,0,0,0,1000.169983
-1257,1319,4,0,0,0,647.009766
-1979,-432,5,0,0,0,664.801514
683,-1187,6,0,0,0,796.146057
1869,1879,1,0,0,0,509.353638
159,138,2,0,0,0,1335.877686
-1229,990,3,1,0,0,5.246556
-1556,1843,4,0,0,0,567.292114
-884,-898,5,1,0,0,11.753119
34,-293,6,1,0,0,309.808380
1083,1832,1,0,0,0,571.147461
1739,1188,2,0,0,0,672.749695
-1923,1921,3,0,0,0,559.285278
-853,1622,4,0,0,0,645.357300
-3,-1721,5,0,0,0,711.421082
1820,-1759,6,0,0,0,620.309021
651,916,1,0,0,0,753.401917
1944,1385,2,0,0,0,637.015503
-900,874,3,1,0,0,10.262259
-986,1652,4,0,0,0,631.503479
-878,-320,5,0,0,0,886.882568
144,-1394,6,0,0,0,789.520203
356,939,1,0,0,0,785.699158
541,102,2,1,0,0,111.316559
-514,67,3,0,0,0,1034.498901
-1171,1346,4,0,0,0,653.015930
-712,-708,5,0,0,0,866.203186
1323,-695,6,0,0,0,771.059631
390,681,1,1,0,0,26.398607
312,153,2,0,0,0,1191.314697
-800,232,3,0,0,0,897.809021
-241,1286,4,0,0,0,741.771484
-35,-1885,5,1,0,0,3.610585
43,-1181,6,0,0,0,838.529724
96,1354,1,0,0,0,699.258911
1164,661,2,0,0,0,802.702087
-1787,117,3,0,0,0,677.980713
-1210,-271,5,0,0,0,805.506958
24,-618,6,0,0,0,1025.055786
1629,1953,1,0,0,0,520.915405
1570,178,2,0,0,0,755.066406
-1271,537,3,1,0,0,7.781028
-1835,-238,5,0,0,0,690.670593
1233,-792,6,0,0,0,776.684937
1166,1978,1,0,0,0,549.685181
901,38,2,0,0,0,916.365967
-1700,404,3,1,0,0,3.883662
-469,-965,5,0,0,0,847.120972
185,-1575,6,0,0,0,754.020264
1399,1603,1,0,0,0,571.219299
1833,566,2,0,0,0,699.446228
-1426,1032,3,1,0,0,3.799948
-1957,-912,5,0,0,0,646.585083
525,-913,6,0,0,0,871.682434
1067,421,2,0,0,0,847.111145
-1989,1282,3,0,0,0,598.548096
-1620,-470,5,0,0,0,717.172058
526,-1642,6,0,0,0,730.024475
1651,1202,2,0,0,0,681.551270
-1496,1171,3,0,0,0,661.100220
-1369,-1239,5,0,0,0,691.281555
1478,-32,6,0,0,0,774.169067
1299,586,2,0,0,0,784.713745
-1739,1640,3,0,0,0,595.684937
-512,-446,5,0,0,0,978.886414
183,-704,6,0,0,0,978.291748
1564,1199,2,0,0,0,691.745850
-1078,1024,3,0,0,0,731.249390
-60,-1310,5,1,0,0,10.474703
1237,-172,6,0,0,0,822.641052
1974,1514,2,1,0,0,1.807314
-910,311,3,0,0,0,856.443481
-1213,-1593,5,0,0,0,668.113953
213,-80,6,1,0,0,412.744049
1904,1629,2,0,0,0,623.172974
-1671,979,3,0,0,0,655.612671
-488,-1537,5,0,0,0,730.064270
1738,-207,6,0,0,0,725.718750
1370,662,2,0,0,0,765.895874
-1414,796,3,0,0,0,706.199036
-1865,-1289,5,1,0,0,2.087502
302,-23,6,0,0,0,1230.960327
974,645,2,0,0,0,841.854126
-1706,124,3,0,0,0,691.106934
-555,-1473,5,0,0,0,736.997559
806,-803,6,0,0,0,849.457520
1046,274,2,0,0,0,864.101013
-832,84,3,0,0,0,896.680908
-1934,-579,5,0,0,0,665.761047
843,-128,6,0,0,0,932.506165
1990,748,2,0,0,0,670.064392
-941,250,3,1,0,0,21.127548
-1400,-852,5,0,0,0,725.433228
1184,-509,6,1,0,0,12.521653
1778,740,2,1,0,0,3.867891
-1780,334,3,1,0,0,3.492739
-1089,-1379,5,0,0,0,705.468323
346,-526,6,1,0,0,83.001205
1846,1676,2,0,0,0,624.589417
-1803,-1877,5,1,0,0,1.383055
1704,-1650,6,0,0,0,638.809387
-1314,-825,5,0,0,0,741.139099
1631,-1071,6,0,0,0,694.592285
-1378,-805,5,0,0,0,733.050476
295,-428,6,0,0,0,1075.159424
-718,-1154,5,0,0,0,779.141479
1431,-1851,6,1,0,0,2.169962
-330,-1937,5,0,0,0,673.494324
1345,-771,6,1,0,0,7.325623
-1937,-1893,5,1,0,0,1.227995
1193,-720,6,0,0,0,791.162476
-1500,-815,5,0,0,0,713.743103
318,-1216,6,0,0,0,820.806763
-1244,-366,5,1,0,0,10.820618
825,-474,6,0,0,0,900.923767
-1454,-295,5,0,0,0,753.978149
1123,-1002,6,0,0,0,769.031006
-1368,-1610,5,0,0,0,652.779785
390,-335,6,0,0,0,1078.333740
-1553,-1237,5,0,0,0,670.523254
1889,-656,6,0,0,0,687.572693
-662,-426,5,0,0,0,936.276428
1436,-1024,6,0,0,0,723.528564
-648,-780,5,0,0,0,863.363098
178,-808,6,0,0,0,941.180054
-1613,-217,5,0,0,0,727.423889
1854,-1118,6,0,0,0,664.861450
-298,-1674,5,0,0,0,714.885376
382,-1453,6,0,0,0,769.538940
-846,-1988,5,1,0,0,2.409215
708,-1382,6,0,0,0,760.061340
-110,-1217,5,0,0,0,809.714172
208,-75,6,0,0,0,1321.740234
-841,-666,5,0,0,0,847.164429
659,-746,6,0,0,0,887.930847
-1290,-1140,5,0,0,0,711.331787
1450,-889,6,0,0,0,733.936279
-439,-734,5,0,0,0,912.396240
1916,-1815,6,0,0,0,608.414307
-1284,-1112,5,0,0,0,715.177063
643,-742,6,0,0,0,891.876282
-695,-1830,5,0,0,0,674.569641
1690,-1403,6,0,0,0,660.739502
-1627,-1774,5,0,0,0,615.602295
404,-1424,6,0,0,0,773.809387
-1225,-766,5,1,0,0,7.903695
878,-896,6,0,0,0,821.361206
-882,-454,5,1,0,0,23.140226
1304,-1831,6,0,0,0,654.134399
-980,-1372,5,0,0,0,717.298645
1268,-634,6,0,0,0,786.208130
-1509,-1600,5,1,0,0,2.284882
246,-1215,6,1,0,0,13.997018
-1859,-115,5,0,0,0,688.793030
1050,-117,6,0,0,0,870.777832
-1206,-1121,5,1,0,0,5.386872
482,-1921,6,1,0,0,3.560005
-1475,-1939,5,0,0,0,612.179382
903,-881,6,0,0,0,819.737549
-1778,-337,5,0,0,0,697.037964
340,-15,6,1,0,0,256.651337
-933,-280,5,1,0,0,24.334253
1152,-1066,6,0,0,0,756.983154
-1961,-996,5,1,0,0,2.284560
863,-540,6,0,0,0,881.457275
1390,-1156,6,0,0,0,716.439636
1431,-1448,6,1,0,0,3.281136
228,-454,6,0,0,0,1081.770264
838,-1297,6,0,0,0,761.661682
1147,-935,6,0,0,0,773.885315
1973,-402,6,0,0,0,685.594727
1549,-1670,6,0,0,0,650.363037
592,-178,6,0,0,0,1025.188477
1222,-423,6,1,0,0,12.400469
392,-1291,6,0,0,0,800.432251
435,-1479,6,1,0,0,7.446718
536,-356,6,1,0,0,78.954819
419,-1767,6,0,0,0,715.156128
1043,-1968,6,0,0,0,656.760193
1459,-996,6,0,0,0,723.067322
905,-785,6,0,0,0,834.604126
1601,-491,6,0,0,0,738.393677
658,-1353,6,0,0,0,769.129883
1855,-169,6,1,0,0,4.268905
856,-1992,6,1,0,0,2.721539
70,-998,6,0,0,0,886.469849
841,-945,6,0,0,0,818.950806
1621,-1539,6,1,0,0,2.485830
561,-1178,6,0,0,0,810.059570
7,-890,6,1,0,0,35.082497
988,-191,6,0,0,0,884.793884
80,-457,6,0,0,0,1107.949219


each generation good chromosome number
0,0,0,