538.476807,538.476807,538.476807,538.476807,538.476807,538.476807,538.476807,538.476807,538.476807,538.476807,538.476807,538.476807,538.476807,538.476807,538.476807,538.476807,538.476807,538.476807,538.476807,538.476807,538.476807,538.476807,538.476807,538.476807,538.476807,538.476807,538.476807,538.476807,538.476807,538.476807,538.476807,538.476807,516.239685,516.239685,516.239685,516.239685,516.239685,516.239685,516.239685,516.239685,516.239685,516.239685,516.239685,516.239685,516.239685,516.239685,516.239685,516.239685,516.239685,516.239685,516.239685,516.239685,516.239685,516.239685,516.239685,516.239685,516.239685,516.239685,516.239685,516.239685,516.239685,516.239685,516.239685,516.239685,516.239685,516.239685,516.239685,516.239685,516.239685,516.239685,516.239685,516.239685,516.239685,516.239685,516.239685,516.239685,516.239685,516.239685,516.239685,516.239685,516.239685,516.239685,516.239685,516.239685,516.239685,516.239685,516.239685,516.239685,516.239685,516.239685,516.239685,516.239685,516.239685,516.239685,516.239685,516.239685,516.239685,516.239685,516.239685,516.239685,

avg. max avg. throughput in test times
523.355164
avg. BS TX power in all test times
MBS area 1,MBS area 2,MBS area 3,MBS area 4,MBS area 5,MBS area 6,MBS area 7,MBS area 8,CBSD 1,CBSD 2,CBSD 3,CBSD 4,CBSD 5,CBSD 6,CBSD 7,CBSD 8,CBSD 9,
5.000,5.000,5.000,5.000,5.000,5.000,5.000,5.000,0.000,0.000,0.000,0.000,0.000,0.680,0.000,0.320,0.000,
avg. mbs all power,avg. cbsd enable number,avg. mbs area all power,avg. cbsd all power
47.500,1.000,40.000,1.000
avg. number of relay UE
38

BS TX power
MBS area 1,MBS area 2,MBS area 3,MBS area 4,MBS area 5,MBS area 6,MBS area 7,MBS area 8,CBSD 1,CBSD 2,CBSD 3,CBSD 4,CBSD 5,CBSD 6,CBSD 7,CBSD 8,CBSD 9,
5.000,5.000,5.000,5.000,5.000,5.000,5.000,5.000,0.000,0.000,0.000,0.000,0.000,1.000,0.000,0.000,0.000,
max average power
0.000000

x,y,area,be blocked (1 : NLOS / 0 : LOS),be blocked number (>=1 : CBSD(x) / 0 : no),connect bs number (>=1 : CBSD / 0 : MBS),throughput (unit : M bps)
131,1729,1,0,0,0,629.328430
692,98,2,0,0,6,237.163849
-1856,1067,3,1,0,6,237.163849
-316,1500,4,0,0,0,664.482056
-733,-1607,5,0,0,0,624.068481
-1548,-1074,6,0,0,0,605.700928
1552,-496,7,1,0,6,237.163849
200,-1274,8,0,0,0,713.932129
999,1441,1,1,0,6,237.163849
1997,1099,2,0,0,6,237.163849
-1921,1477,3,0,0,0,534.504517
-1858,1858,4,0,0,0,511.756866
-1423,-1993,5,1,0,6,237.163849
-1803,-673,6,1,0,6,237.163849
1248,-994,7,0,0,0,653.062317
1224,-1791,8,0,0,0,565.731812
326,587,1,1,0,6,237.163849
1107,1046,2,0,0,6,237.163849
-1178,233,3,0,0,0,734.376831
-473,747,4,0,0,0,822.298279
-525,-783,5,0,0,0,803.861023
-1159,-1049,6,0,0,0,658.891418
1608,-938,7,0,0,0,609.115540
861,-1552,8,1,0,6,237.163849
195,785,1,0,0,0,847.903931
1584,430,2,0,0,6,237.163849
-1274,138,3,0,0,0,715.748535
-1007,1029,4,1,0,6,237.163849
-883,-1365,5,0,0,0,647.706177
-463,-34,6,0,0,0,1007.831116
1280,-1273,7,1,0,6,237.163849
820,-1800,8,0,0,0,591.889465
1805,1873,1,1,0,6,237.163849
1881,407,2,0,0,6,237.163849
-675,86,3,0,0,0,897.662048
-1853,1908,4,1,0,6,237.163849
-1656,-1894,5,1,0,6,237.163849
-1221,-1165,6,0,0,0,637.046570
1840,-968,7,0,0,0,577.754089
1365,-1435,8,0,0,0,591.525574
553,608,1,0,0,6,237.163849
864,338,2,0,0,6,237.163849
-1860,1039,3,0,0,0,570.835205
-606,934,4,1,0,6,237.163849
-371,-906,5,0,0,0,793.001709
-183,-176,6,0,0,0,1181.864258
1413,-1240,7,0,0,0,606.327026
1049,-1791,8,0,0,0,578.231323
1247,1389,1,0,0,6,237.163849
824,151,2,0,0,6,237.163849
-1274,719,3,0,0,0,677.847107
-399,1059,4,0,0,0,751.390686
-1157,-1537,5,0,0,0,599.773926
1494,-453,7,0,0,6,237.163849
1192,-1199,8,0,0,0,636.527039
219,1570,1,0,0,0,654.906372
-753,460,3,0,0,0,822.875000
-905,1237,4,0,0,0,664.522461
-968,-1096,5,0,0,0,677.967163
429,-354,7,0,0,0,955.747620
1001,-1656,8,0,0,0,598.121521
250,1047,1,0,0,6,237.163849
-1701,478,3,0,0,0,623.970459
-421,725,4,0,0,0,837.593262
-301,-1480,5,0,0,0,668.730408
1758,-946,7,1,0,6,237.163849
559,-830,8,1,0,6,237.163849
903,1318,1,1,0,6,237.163849
-1699,1100,3,1,0,6,237.163849
-1851,1883,4,0,0,0,510.392944
-544,-1164,5,1,0,6,237.163849
1588,-1018,7,0,0,0,605.369385
865,-878,8,1,0,6,237.163849
733,1173,1,0,0,6,237.163849
-1460,523,3,0,0,0,661.161926
-1167,-1949,5,1,0,6,237.163849
1675,-218,7,0,0,6,237.163849
1929,-2000,8,0,0,0,496.118469
1374,1548,1,0,0,6,237.163849
-1391,882,3,0,0,0,643.983337
-190,-1292,5,0,0,0,710.335388
1305,-768,7,1,0,6,237.163849
1200,1824,1,0,0,6,237.163849
-1158,801,3,0,0,0,688.777161
-410,-1952,5,1,0,6,237.163849
812,-405,7,0,0,0,814.838562
22,594,1,0,0,0,936.604370
-1810,487,3,0,0,0,607.170105
-264,-632,5,1,0,6,237.163849
443,-311,7,0,0,0,963.589355
202,1802,1,0,0,0,616.592407
-1330,421,3,0,0,0,691.429871
-108,-679,5,0,0,0,894.681946
488,-175,7,0,0,0,976.013123
900,1924,1,0,0,6,237.163849
-191,-927,5,0,0,0,802.718018
896,-498,7,0,0,0,779.788635
1688,-1546,7,0,0,0,550.559570
1500,-723,7,0,0,0,640.867981
1064,-315,7,0,0,6,237.163849
