each times' max average throughput
447.328064,465.512848,0.000000,454.227264,575.326050,469.924225,0.000000,0.000000,472.663483,0.000000,0.000000,0.000000,0.000000,0.000000,0.000000,579.219177,0.000000,0.000000,0.000000,0.000000,0.000000,554.373474,0.000000,0.000000,0.000000,0.000000,450.715698,0.000000,569.767761,0.000000,0.000000,0.000000,0.000000,0.000000,578.794800,551.587158,0.000000,0.000000,0.000000,552.074524,0.000000,0.000000,0.000000,0.000000,0.000000,0.000000,0.000000,0.000000,555.277283,446.303009,0.000000,486.504333,448.045471,0.000000,0.000000,0.000000,0.000000,0.000000,0.000000,459.959351,0.000000,0.000000,0.000000,0.000000,0.000000,0.000000,0.000000,0.000000,0.000000,553.508118,0.000000,0.000000,0.000000,0.000000,475.371887,558.077087,473.996429,0.000000,0.000000,0.000000,0.000000,0.000000,0.000000,0.000000,495.398132,0.000000,0.000000,0.000000,0.000000,557.174683,438.118378,446.593597,0.000000,0.000000,0.000000,0.000000,0.000000,464.832794,0.000000,453.525757,
avg. throughput in all test times
140.342010
avg. BS TX power in all test times
MBS area 1,MBS area 2,MBS area 3,MBS area 4,MBS area 5,MBS area 6,CBSD 1,CBSD 2,CBSD 3,CBSD 4,CBSD 5,CBSD 6,CBSD 7,CBSD 8,
8.512,6.363,6.287,6.887,6.425,6.600,0.097,0.069,0.075,0.009,0.020,0.015,0.055,0.119,
avg. mbs all power,avg. cbsd enable number,avg. mbs area all power,avg. cbsd all power
45.725,0.000,41.075,0.459
avg. max avg. throughput generation number in all test times
0.190000
avg. number of relay UE
229

the max average throughput times

BS TX power
MBS area 1,MBS area 2,MBS area 3,MBS area 4,MBS area 5,MBS area 6,CBSD 1,CBSD 2,CBSD 3,CBSD 4,CBSD 5,CBSD 6,CBSD 7,CBSD 8,
5.000,10.000,7.500,5.000,5.000,10.000,0.000,0.000,0.000,0.000,0.750,0.000,0.000,0.000,
max average throughput
453.525757

x,y,area,be blocked (1 : NLOS / 0 : LOS),be blocked number (>=1 : CBSD(x) / 0 : no),connect bs number (>=1 : CBSD / 0 : MBS),throughput (unit : M bps)
174,657,1,0,0,0,898.003235
1994,522,2,1,0,5,23.431355
-1029,807,3,0,0,5,23.431355
-535,1043,4,0,0,5,23.431355
-1883,-1058,5,1,0,5,23.431355
229,-1843,6,0,0,0,708.733521
488,1434,1,0,0,0,667.887329
1168,862,2,0,0,0,779.404663
-962,284,3,0,0,0,844.324341
-277,1776,4,0,0,5,23.431355
-1905,-621,5,1,0,5,23.431355
278,-1087,6,0,0,0,853.468933
1386,1829,1,0,0,0,549.840332
1472,992,2,0,0,0,721.689514
-1416,292,3,0,0,0,739.275208
-1007,1853,4,0,0,5,23.431355
-1128,-1204,5,0,0,0,643.500854
529,-1153,6,0,0,0,818.149353
427,909,1,0,0,0,785.677185
1580,1441,2,1,0,5,23.431355
-1880,1695,3,0,0,0,579.435547
-578,583,4,1,0,5,23.431355
-161,-1384,5,0,0,0,691.780518
441,-1970,6,0,0,0,684.854309
1439,1545,1,1,0,5,23.431355
1216,731,2,0,0,0,785.976990
-1666,93,3,1,0,5,23.431355
-27,212,4,0,0,0,1231.570312
-1523,-54,5,0,0,0,666.158264
804,-1814,6,0,0,0,689.795227
1191,1937,1,0,0,0,552.430786
1770,649,2,0,0,0,704.439087
-1495,1053,3,0,0,5,23.431355
-836,1891,4,0,0,5,23.431355
-1054,-1547,5,1,0,5,23.431355
532,-457,6,0,0,0,988.807007
215,629,1,0,0,0,904.395874
1262,1003,2,0,0,0,749.317078
-1971,1109,3,0,0,0,611.418762
-142,1619,4,0,0,5,23.431355
-451,-136,5,0,0,0,1003.631714
1274,-616,6,0,0,0,786.726990
149,331,1,0,0,0,1078.771362
444,84,2,0,0,0,1115.553955
-1215,107,3,0,0,0,788.094055
-25,1880,4,1,0,5,23.431355
-1666,-1865,5,0,0,0,525.642212
1651,-15,6,0,0,0,742.452820
945,1239,1,0,0,0,659.801880
1643,430,2,0,0,0,734.356934
-1907,396,3,1,0,5,23.431355
-909,1048,4,0,0,5,23.431355
-639,-1689,5,0,0,0,617.764038
1231,-1679,6,0,0,0,676.044067
578,900,1,0,0,0,767.578552
1910,613,2,0,0,0,686.673645
-1089,764,3,1,0,5,23.431355
-1092,1356,4,0,0,5,23.431355
-2000,-977,5,0,0,0,558.453918
551,-553,6,1,0,5,23.431355
335,1465,1,0,0,0,670.150024
1718,1546,2,0,0,0,646.207947
-997,359,3,1,0,5,23.431355
-1417,1488,4,1,0,5,23.431355
-1661,-1382,5,0,0,0,566.848816
942,-1211,6,1,0,5,23.431355
560,840,1,0,0,0,784.177002
1123,1107,2,0,0,0,755.642700
-1378,118,3,1,0,5,23.431355
-1369,1746,4,0,0,5,23.431355
-571,-1132,5,0,0,0,718.804504
1599,-552,6,0,0,0,735.496948
191,1495,1,0,0,5,23.431355
974,729,2,0,0,0,830.177185
-1278,1156,3,1,0,5,23.431355
-578,1427,4,1,0,5,23.431355
-279,-66,5,0,0,0,1146.818237
1819,-375,6,0,0,0,708.721497
1046,1119,1,1,0,5,23.431355
1292,1173,2,0,0,0,726.577576
-884,819,3,0,0,5,23.431355
-433,1859,4,0,0,5,23.431355
-1539,-243,5,0,0,0,659.835754
1763,-470,6,1,0,5,23.431355
341,825,1,1,0,5,23.431355
1820,42,2,0,0,0,714.449280
-1757,1413,3,1,0,5,23.431355
-609,1865,4,1,0,5,23.431355
-716,-1587,5,0,0,0,628.166748
634,-362,6,0,0,0,977.234802
340,1706,1,0,0,0,628.410706
1104,1081,2,1,0,5,23.431355
-629,385,3,0,0,0,932.878906
-1712,1852,4,0,0,5,23.431355
-1972,-1707,5,0,0,0,513.836731
1694,-1634,6,0,0,0,641.018738
738,1950,1,0,0,0,576.952942
552,550,2,0,0,0,958.453064
-1317,318,3,1,0,5,23.431355
-85,1216,4,0,0,5,23.431355
-1661,-642,5,1,0,5,23.431355
387,-1645,6,0,0,0,735.783386
1530,1716,1,0,0,0,549.323853
1999,280,2,0,0,0,684.888733
-678,616,3,0,0,5,23.431355
-376,1349,4,1,0,5,23.431355
-1032,-516,5,1,0,5,23.431355
1754,-1489,6,0,0,0,647.495422
292,528,1,1,0,5,23.431355
1431,590,2,0,0,0,760.976562
-508,28,3,1,0,5,23.431355
-1170,1643,4,0,0,5,23.431355
-497,-870,5,0,0,0,786.348450
1908,-1604,6,1,0,5,23.431355
784,1815,1,0,0,0,592.017334
1197,747,2,0,0,0,787.569885
-915,37,3,1,0,5,23.431355
-481,1527,4,0,0,5,23.431355
-1770,-1090,5,0,0,0,577.807312
1569,-561,6,0,0,0,739.822388
1357,1565,1,1,0,5,23.431355
1384,180,2,0,0,0,790.704163
-705,477,3,1,0,5,23.431355
-697,1176,4,0,0,5,23.431355
-1298,-982,5,0,0,0,647.371155
1792,-1028,6,0,0,0,678.249207
332,908,1,1,0,5,23.431355
915,808,2,0,0,0,829.211609
-1386,1369,3,1,0,5,23.431355
-1356,1705,4,1,0,5,23.431355
-293,-1758,5,1,0,5,23.431355
1154,-1973,6,0,0,0,649.372498
122,1643,1,0,0,5,23.431355
1619,855,2,0,0,0,712.815063
-668,14,3,0,0,0,961.323669
-515,1157,4,1,0,5,23.431355
-1663,-701,5,0,0,0,617.941772
596,-585,6,1,0,5,23.431355
161,721,1,0,0,0,873.993958
1557,1517,2,0,0,0,663.699280
-1508,1064,3,0,0,5,23.431355
-97,446,4,0,0,0,1012.728699
-298,-530,5,0,0,0,930.075195
1145,-1966,6,1,0,5,23.431355
354,912,1,0,0,0,793.214233
521,71,2,0,0,0,1071.850342
-1858,21,3,1,0,5,23.431355
-149,882,4,0,0,5,23.431355
-1147,-1299,5,0,0,0,629.498596
1539,-1464,6,0,0,0,670.310913
116,332,1,0,0,0,1087.898682
167,68,2,0,0,0,1380.584351
-1720,1704,3,0,0,5,23.431355
-476,589,4,1,0,5,23.431355
-102,-537,5,0,0,0,960.763245
1074,-606,6,0,0,0,826.286194
445,827,1,0,0,0,804.958496
918,114,2,0,0,0,909.034302
-427,255,3,0,0,0,1046.424194
-615,631,4,0,0,5,23.431355
-585,-1735,5,0,0,0,613.831726
867,-1474,6,0,0,0,732.381531
273,1974,1,0,0,0,589.773071
567,541,2,0,0,0,956.809631
-523,106,3,1,0,5,23.431355
-124,1767,4,0,0,5,23.431355
-118,-1101,5,0,0,0,757.637634
1331,-1820,6,0,0,0,653.261902
642,1541,1,0,0,0,640.143921
1485,1412,2,0,0,0,680.582214
-613,383,3,1,0,5,23.431355
-1494,1500,4,0,0,5,23.431355
-65,-1910,5,1,0,5,23.431355
127,-1783,6,1,0,5,23.431355
783,1235,1,0,0,0,677.962158
1587,647,2,0,0,0,731.754639
-1047,488,3,0,0,5,23.431355
-1283,1384,4,0,0,5,23.431355
-1120,-1381,5,0,0,0,622.172974
1050,-1796,6,1,0,5,23.431355
164,1313,1,0,0,5,23.431355
691,672,2,0,0,0,897.192810
-367,92,3,0,0,0,1125.283081
-26,1704,4,0,0,5,23.431355
-600,-1815,5,0,0,0,601.580811
1224,-1242,6,0,0,0,726.787354
784,1024,1,0,0,0,713.918518
1954,1123,2,0,0,0,653.394226
-1079,389,3,0,0,5,23.431355
-691,1525,4,0,0,5,23.431355
-1064,-389,5,1,0,5,23.431355
46,-934,6,0,0,0,905.912659
118,786,1,0,0,0,852.945740
1348,241,2,1,0,5,23.431355
-1413,882,3,1,0,5,23.431355
-198,1870,4,0,0,5,23.431355
-1801,-8,5,0,0,0,618.524170
11,-1432,6,0,0,0,783.309753
324,521,1,0,0,0,927.483032
1513,749,2,1,0,5,23.431355
-518,396,3,1,0,5,23.431355
-422,1943,4,0,0,5,23.431355
-541,-341,5,0,0,0,915.539673
1077,-1177,6,0,0,0,752.295837
144,1756,1,0,0,5,23.431355
1812,812,2,0,0,0,689.588928
-1950,834,3,0,0,0,629.703003
-384,1476,4,1,0,5,23.431355
-557,-1056,5,0,0,0,736.036011
1680,-748,6,0,0,0,711.550903
401,1480,1,0,0,0,664.400513
1665,849,2,1,0,5,23.431355
-1179,1092,3,1,0,5,23.431355
-1275,1528,4,0,0,5,23.431355
-1193,-1247,5,0,0,0,630.677673
111,-144,6,0,0,0,1378.190796
154,1728,1,0,0,5,23.431355
1582,424,2,0,0,0,744.761475
-1679,548,3,0,0,5,23.431355
-463,1741,4,0,0,5,23.431355
-197,-1685,5,1,0,5,23.431355
1515,-1673,6,0,0,0,652.976074
87,1427,1,0,0,5,23.431355
1040,802,2,0,0,0,808.180664
-571,485,3,0,0,5,23.431355
-135,1169,4,0,0,5,23.431355
-664,-609,5,0,0,0,816.877197
552,-1611,6,0,0,0,733.579651
579,1219,1,0,0,0,700.925598
1477,1009,2,0,0,0,719.488953
-1132,719,3,0,0,5,23.431355
-541,1850,4,0,0,5,23.431355
-125,-1211,5,0,0,0,730.437195
39,-47,6,0,0,0,1692.952393
356,1164,1,0,0,0,730.487061
1732,1216,2,1,0,5,23.431355
-1882,985,3,0,0,5,23.431355
-581,1203,4,1,0,5,23.431355
-1236,-1158,5,0,0,0,636.019531
1448,-941,6,1,0,5,23.431355
877,1962,1,0,0,0,568.380005
801,735,2,0,0,0,862.554382
-1209,320,3,0,0,5,23.431355
-375,1282,4,1,0,5,23.431355
-1345,-828,5,0,0,0,655.946716
1019,-1889,6,0,0,0,667.337952
1056,1845,1,0,0,0,571.458740
1551,1234,2,0,0,0,690.109863
-1361,554,3,0,0,5,23.431355
-231,488,4,0,0,0,964.311768
-1534,-424,5,0,0,0,653.770813
1469,-350,6,0,0,0,768.062744
695,769,1,0,0,0,776.603455
1546,1111,2,0,0,0,701.633545
-711,356,3,0,0,0,911.189209
-423,1458,4,0,0,5,23.431355
-686,-532,5,0,0,0,827.565735
1240,-1999,6,0,0,0,641.173035
24,303,1,1,0,5,23.431355
1791,721,2,0,0,0,697.619263
-1676,1503,3,0,0,5,23.431355
-961,1336,4,0,0,5,23.431355
-1709,-266,5,1,0,5,23.431355
109,-1721,6,1,0,5,23.431355
242,1619,1,0,0,0,645.733154
1778,1414,2,0,0,0,651.124573
-1389,860,3,0,0,5,23.431355
-883,970,4,0,0,5,23.431355
-171,-1989,5,0,0,0,589.268188
1360,-1098,6,0,0,0,726.107239
641,895,1,1,0,5,23.431355
877,756,2,0,0,0,844.410278
-1739,1512,3,0,0,5,23.431355
-1167,1437,4,0,0,5,23.431355
-1644,-1429,5,0,0,0,564.567322
1954,-504,6,0,0,0,684.968384
1199,1337,1,0,0,0,619.337830
1460,130,2,0,0,0,776.621643
-666,129,3,1,0,5,23.431355
-1094,1578,4,1,0,5,23.431355
-1290,-259,5,0,0,0,708.183594
959,-1682,6,0,0,0,696.804382
609,1332,1,0,0,0,677.508850
1948,1030,2,0,0,0,659.821960
-1151,645,3,0,0,5,23.431355
-84,1119,4,1,0,5,23.431355
-1855,-369,5,0,0,0,604.608032
1199,-1755,6,1,0,5,23.431355
210,991,1,0,0,0,783.196472
561,103,2,0,0,0,1048.393555
-658,607,3,0,0,5,23.431355
-233,1408,4,1,0,5,23.431355
-1125,-618,5,0,0,0,715.275696
1066,-1998,6,0,0,0,652.020935
81,1393,1,0,0,5,23.431355
1878,1272,2,1,0,5,23.431355
-1963,432,3,0,0,0,645.010803
-226,923,4,0,0,5,23.431355
-1373,-1700,5,0,0,0,563.665771
746,-667,6,0,0,0,886.397766
404,1340,1,1,0,5,23.431355
1983,1672,2,1,0,5,23.431355
-1861,605,3,1,0,5,23.431355
-1212,1770,4,0,0,5,23.431355
-1595,-1327,5,1,0,5,23.431355
718,-1672,6,0,0,0,714.581360
89,758,1,0,0,0,864.621826
1946,638,2,0,0,0,680.752747
-890,67,3,1,0,5,23.431355
-759,1898,4,0,0,5,23.431355
-1224,-1881,5,1,0,5,23.431355
1147,-1409,6,0,0,0,715.024048
1873,1993,1,0,0,0,500.546051
1957,139,2,1,0,5,23.431355
-1906,126,3,0,0,0,659.547546
-742,757,4,0,0,5,23.431355
-945,-1219,5,0,0,0,662.722534
410,-748,6,0,0,0,932.393066
502,1528,1,0,0,0,650.768616
1126,148,2,0,0,0,849.976929
-548,356,3,0,0,0,967.718689
-461,1265,4,0,0,5,23.431355
-1936,-1223,5,0,0,0,550.442139
1058,-588,6,1,0,5,23.431355
154,242,1,0,0,0,1146.672852
1488,946,2,0,0,0,723.602844
-1130,301,3,0,0,5,23.431355
-70,513,4,0,0,0,976.388794
-1954,-1792,5,0,0,0,509.242432
1955,-612,6,0,0,0,680.663818
1008,1690,1,1,0,5,23.431355
1961,454,2,0,0,0,685.689941
-1293,609,3,0,0,5,23.431355
-1656,1784,4,1,0,5,23.431355
-1800,-651,5,1,0,5,23.431355
853,-1626,6,0,0,0,711.993042
990,1470,1,1,0,5,23.431355
1020,399,2,1,0,5,23.431355
-943,588,3,0,0,5,23.431355
-1405,1691,4,0,0,5,23.431355
-88,-1268,5,0,0,0,718.083923
1187,-334,6,0,0,0,826.303894
838,1431,1,1,0,5,23.431355
1808,1537,2,0,0,0,638.679688
-1268,173,3,1,0,5,23.431355
-76,1862,4,0,0,5,23.431355
-146,-1257,5,0,0,0,719.349243
1100,-1600,6,0,0,0,695.997375
1186,1413,1,0,0,0,611.696533
1443,77,2,0,0,0,780.711609
-1411,1133,3,0,0,5,23.431355
-329,539,4,0,0,5,23.431355
-607,-1469,5,0,0,0,654.138916
1632,-1999,6,0,0,0,614.799438
743,1915,1,1,0,5,23.431355
1126,641,2,1,0,5,23.431355
-1866,1058,3,0,0,5,23.431355
-561,976,4,0,0,5,23.431355
-1338,-1762,5,1,0,5,23.431355
1815,-254,6,0,0,0,712.535278
458,698,1,0,0,0,838.805359
1072,391,2,0,0,0,848.613098
-856,706,3,0,0,5,23.431355
-1167,1265,4,0,0,5,23.431355
-1055,-1148,5,0,0,0,659.638367
882,-90,6,0,0,0,921.269287
1142,1715,1,0,0,0,580.308167
991,248,2,1,0,5,23.431355
-1428,1049,3,1,0,5,23.431355
-268,655,4,0,0,5,23.431355
-149,-1928,5,0,0,0,598.309387
669,-1415,6,0,0,0,757.781860
104,1325,1,0,0,5,23.431355
1338,674,2,0,0,0,770.343567
-1385,511,3,0,0,5,23.431355
-1327,1467,4,0,0,5,23.431355
-236,-281,5,1,0,5,23.431355
1301,-1212,6,0,0,0,721.203674
779,1404,1,1,0,5,23.431355
845,607,2,0,0,0,875.192261
-1214,651,3,0,0,5,23.431355
-152,605,4,1,0,5,23.431355
-422,-1726,5,0,0,0,622.371277
1488,-302,6,1,0,5,23.431355
959,1651,1,0,0,0,601.921143
913,416,2,0,0,0,885.649414
-1284,1007,3,0,0,5,23.431355
-186,955,4,0,0,5,23.431355
-1920,-1551,5,1,0,5,23.431355
638,-1798,6,0,0,0,701.025940
366,839,1,0,0,0,812.327820
1733,1510,2,0,0,0,647.772095
-794,768,3,0,0,5,23.431355
-1481,1669,4,0,0,5,23.431355
-1019,-1214,5,0,0,0,654.946228
28,-1037,6,1,0,5,23.431355
229,1329,1,0,0,0,701.123779
1352,1230,2,0,0,0,713.302490
-203,151,3,1,0,5,23.431355
-142,1529,4,0,0,5,23.431355
-282,-1073,5,0,0,0,757.085510
904,-657,6,1,0,5,23.431355
521,794,1,0,0,0,801.748047
1497,102,2,1,0,5,23.431355
-1693,763,3,0,0,5,23.431355
-940,1821,4,0,0,5,23.431355
-1704,-240,5,0,0,0,631.494995
1306,-552,6,0,0,0,786.168030
102,1289,1,0,0,5,23.431355
1606,1268,2,0,0,0,680.988342
-1751,1288,3,0,0,5,23.431355
-395,1624,4,0,0,5,23.431355
-551,-648,5,1,0,5,23.431355
1283,-1723,6,0,0,0,667.085999
1398,1999,1,1,0,5,23.431355
192,17,2,0,0,0,1361.339600
-1501,166,3,0,0,0,726.787109
-1067,1574,4,0,0,5,23.431355
-317,-945,5,1,0,5,23.431355
1164,-1921,6,0,0,0,654.356018
901,1587,1,0,0,0,614.771423
1385,266,2,0,0,0,787.702393
-1892,1852,3,0,0,0,566.721619
-1519,1841,4,0,0,5,23.431355
-392,-1102,5,1,0,5,23.431355
175,-881,6,1,0,5,23.431355
1605,1635,1,0,0,0,550.296387
1054,738,2,0,0,0,814.070557
-1385,802,3,0,0,5,23.431355
-1457,1994,4,0,0,5,23.431355
-592,-522,5,0,0,0,854.957703
1301,-1047,6,0,0,0,739.187012
1465,1717,1,0,0,0,554.524658
912,731,2,0,0,0,841.706299
-647,103,3,0,0,0,966.985596
-354,1749,4,1,0,5,23.431355
-262,-905,5,0,0,0,804.030151
1282,-94,6,0,0,0,814.348633
842,1351,1,1,0,5,23.431355
1295,211,2,0,0,0,808.452332
-1908,1040,3,1,0,5,23.431355
-488,1870,4,0,0,5,23.431355
-1830,-483,5,0,0,0,604.409363
506,-731,6,1,0,5,23.431355
1497,1645,1,1,0,5,23.431355
1763,65,2,1,0,5,23.431355
-1307,356,3,0,0,5,23.431355
-916,1305,4,0,0,5,23.431355
-1966,-1738,5,0,0,0,512.133484
112,-1410,6,1,0,5,23.431355
956,1836,1,1,0,5,23.431355
1918,1531,2,0,0,0,629.103760
-1545,706,3,1,0,5,23.431355
-247,1153,4,0,0,5,23.431355
-1875,-1197,5,0,0,0,558.627625
190,-1325,6,0,0,0,802.709717
1794,1925,1,0,0,0,511.357147
1981,1240,2,0,0,0,643.031128
-1490,917,3,0,0,5,23.431355
-160,583,4,0,0,0,931.726807
-224,-1684,5,0,0,0,635.159363
384,-792,6,0,0,0,923.355652
1245,1901,1,0,0,0,552.611755
1560,159,2,0,0,0,757.250122
-897,860,3,0,0,5,23.431355
-1104,1370,4,0,0,5,23.431355
-279,-769,5,0,0,0,844.653137
1938,-1501,6,0,0,0,629.431519
721,1453,1,0,0,0,648.347961
575,301,2,0,0,0,1011.154236
-1517,268,3,0,0,0,721.085632
-1425,1573,4,0,0,5,23.431355
-1278,-123,5,0,0,0,715.200684
263,-426,6,0,0,0,1085.996338
382,1058,1,0,0,0,753.125916
1854,90,2,0,0,0,708.886230
-932,470,3,1,0,5,23.431355
-329,391,4,0,0,0,980.172424
-1730,-1187,5,0,0,0,575.181213
669,-969,6,0,0,0,839.572266
1531,1594,1,1,0,5,23.431355
1822,890,2,1,0,5,23.431355
-1728,202,3,0,0,0,686.253296
-761,1094,4,0,0,5,23.431355
-1983,-1655,5,1,0,5,23.431355
182,-1365,6,0,0,0,794.554504
558,1754,1,1,0,5,23.431355
1921,269,2,0,0,0,696.278687
-1737,92,3,0,0,0,686.307556
-1311,1840,4,1,0,5,23.431355
-821,-1631,5,1,0,5,23.431355
1854,-1953,6,0,0,0,602.691772
40,1521,1,0,0,5,23.431355
1193,645,2,0,0,0,798.945557
-1420,1279,3,0,0,5,23.431355
-1531,1951,4,0,0,5,23.431355
-1840,-846,5,1,0,5,23.431355
1490,-958,6,1,0,5,23.431355
498,1331,1,0,0,0,686.132141
1340,283,2,1,0,5,23.431355
-1875,1082,3,0,0,5,23.431355
-1424,1919,4,1,0,5,23.431355
-280,-1727,5,0,0,0,626.778076
1033,-534,6,0,0,0,843.173279
27,1048,1,0,0,5,23.431355
1567,1564,2,0,0,0,658.476562
-1348,1086,3,1,0,5,23.431355
-1327,1671,4,0,0,5,23.431355
-496,-1962,5,0,0,0,585.403870
254,-779,6,0,0,0,943.983093
671,1940,1,0,0,0,581.364868
613,587,2,0,0,0,933.838745
-1474,631,3,0,0,5,23.431355
-661,1929,4,1,0,5,23.431355
-92,-1732,5,1,0,5,23.431355
1387,-1202,6,0,0,0,712.116821
554,1021,1,1,0,5,23.431355
1622,558,2,0,0,0,731.507324
-1523,631,3,0,0,5,23.431355
-432,1321,4,0,0,5,23.431355
-505,-1770,5,0,0,0,612.334778
213,-12,6,1,0,5,23.431355
742,785,1,1,0,5,23.431355
994,660,2,1,0,5,23.431355
-1625,1206,3,1,0,5,23.431355
-231,921,4,0,0,5,23.431355
-955,-1778,5,0,0,0,586.172729
547,-1815,6,0,0,0,702.863342
1455,1788,1,0,0,0,548.567566
1786,698,2,0,0,0,699.572449
-1585,455,3,0,0,5,23.431355
-1263,1634,4,0,0,5,23.431355
-1533,-285,5,0,0,0,659.615784
1513,-1246,6,0,0,0,693.302002
936,1215,1,0,0,0,664.332520
1753,1575,2,1,0,5,23.431355
-1068,195,3,0,0,0,821.559204
-193,1809,4,0,0,5,23.431355
-347,-753,5,1,0,5,23.431355
1517,-665,6,0,0,0,741.535645
1025,1554,1,1,0,5,23.431355
1030,890,2,1,0,5,23.431355
-1884,679,3,0,0,0,646.056091
-254,979,4,0,0,5,23.431355
-1733,-1417,5,0,0,0,556.847961
709,-1498,6,1,0,5,23.431355
512,1831,1,0,0,0,603.125488
1000,362,2,0,0,0,868.875000
-741,552,3,0,0,5,23.431355
-519,1746,4,0,0,5,23.431355
-492,-909,5,0,0,0,777.413269
760,-705,6,0,0,0,876.239563
715,738,1,1,0,5,23.431355
746,312,2,0,0,0,947.787415
-1291,678,3,0,0,5,23.431355
-382,1921,4,0,0,5,23.431355
-341,-1109,5,0,0,0,744.237061
1334,-1937,6,0,0,0,641.226624
395,1684,1,0,0,0,630.027527
1839,1737,2,0,0,0,620.473022
-1185,512,3,0,0,5,23.431355
-1457,1880,4,0,0,5,23.431355
-527,-1370,5,0,0,0,676.875488
1754,-33,6,0,0,0,725.060059
219,1812,1,0,0,0,614.731445
1929,1151,2,0,0,0,654.335938
-1923,1148,3,0,0,5,23.431355
-352,1947,4,0,0,5,23.431355
-1382,-1835,5,1,0,5,23.431355
1163,-1907,6,0,0,0,655.946716
59,152,1,0,0,0,1309.631348
1733,253,2,0,0,0,725.541016
-1666,826,3,1,0,5,23.431355
-1137,1463,4,0,0,5,23.431355
-236,-1787,5,0,0,0,618.287720
1297,-1717,6,0,0,0,666.607727
239,1979,1,0,0,0,589.688843
1690,1652,2,0,0,0,639.849670
-1271,575,3,0,0,5,23.431355
-520,1495,4,0,0,5,23.431355
-27,-583,5,0,0,0,941.878784
97,-61,6,1,0,0,702.241150
1050,1134,1,0,0,0,662.155334
1372,100,2,1,0,5,23.431355
-1354,5,3,0,0,0,758.094727
-1266,1776,4,0,0,5,23.431355
-1289,-257,5,0,0,0,708.482727
1115,-1344,6,0,0,0,726.372131
227,258,1,0,0,0,1094.564087
1017,444,2,0,0,0,856.638611
-1131,670,3,0,0,5,23.431355
-504,768,4,0,0,5,23.431355
-682,-1645,5,0,0,0,621.741882
1073,-611,6,0,0,0,825.914368
1067,1560,1,1,0,5,23.431355
1286,118,2,0,0,0,813.018494
-1733,310,3,0,0,0,682.863037
-1145,1745,4,1,0,5,23.431355
-494,-689,5,0,0,0,834.377502
521,-1155,6,0,0,0,818.487793
138,1938,1,0,0,0,596.967712
956,950,2,0,0,0,800.741211
-384,183,3,0,0,0,1091.499023
-577,1339,4,0,0,5,23.431355
-801,-1528,5,0,0,0,630.767212
610,-1162,6,0,0,0,808.385925
315,586,1,0,0,0,904.149963
1691,1060,2,0,0,0,688.130859
-1675,154,3,0,0,0,695.904602
-634,835,4,0,0,5,23.431355
-1806,-533,5,0,0,0,605.863159
1165,-809,6,0,0,0,786.070374
785,941,1,0,0,0,728.557800
743,721,2,1,0,5,23.431355
-1526,461,3,0,0,5,23.431355
-57,1174,4,0,0,5,23.431355
-1711,-1340,5,0,0,0,565.214172
1485,-1260,6,0,0,0,695.133545
441,1169,1,0,0,0,723.003662
556,356,2,0,0,0,1006.227783
-1976,399,3,0,0,0,644.174011
-313,1160,4,0,0,5,23.431355
-1230,-1416,5,0,0,0,606.980591
1889,-37,6,0,0,0,703.812500
827,989,1,1,0,5,23.431355
1809,1389,2,0,0,0,649.992065
-1401,835,3,1,0,5,23.431355
-42,974,4,0,0,5,23.431355
-716,-401,5,0,0,0,843.741333
1391,-545,6,0,0,0,771.152710
528,1140,1,1,0,5,23.431355
1693,827,2,1,0,5,23.431355
-1733,1584,3,0,0,5,23.431355
-254,800,4,0,0,5,23.431355
-1339,-1628,5,0,0,0,573.854797
1019,-935,6,0,0,0,793.329346
539,1242,1,1,0,5,23.431355
885,695,2,0,0,0,852.625977
-1888,1834,3,1,0,5,23.431355
-975,1860,4,1,0,5,23.431355
-1229,-468,5,0,0,0,708.325745
1558,-1479,6,0,0,0,667.086243
699,1270,1,1,0,5,23.431355
1446,1024,2,0,0,0,722.206848
-1405,186,3,1,0,5,23.431355
-34,1914,4,0,0,5,23.431355
-831,-1782,5,1,0,5,23.431355
937,-1336,6,0,0,0,745.815308
214,898,1,0,0,0,809.891174
1931,1659,2,0,0,0,618.662170
-1998,961,3,1,0,5,23.431355
-36,909,4,1,0,5,23.431355
-304,-274,5,1,0,5,23.431355
1924,-881,6,0,0,0,671.388000
114,1234,1,0,0,5,23.431355
1027,621,2,0,0,0,834.091980
-1866,160,3,0,0,0,665.182129
-1223,1941,4,0,0,5,23.431355
-1051,-1515,5,0,0,0,611.836182
556,-1811,6,0,0,0,703.045654
262,1457,1,0,0,0,674.450867
1149,261,2,1,0,5,23.431355
-1786,804,3,0,0,5,23.431355
-420,880,4,0,0,5,23.431355
-1970,-1105,5,0,0,0,554.313843
1130,-86,6,0,0,0,850.590088
709,1350,1,0,0,0,665.989868
1116,302,2,0,0,0,844.840637
-1748,1058,3,0,0,5,23.431355
-869,1714,4,0,0,5,23.431355
-1787,-71,5,0,0,0,620.523560
313,-1148,6,0,0,0,836.559326
747,1477,1,0,0,0,642.585022
1079,362,2,1,0,5,23.431355
-1758,304,3,0,0,0,679.058105
-691,886,4,0,0,5,23.431355
-847,-1494,5,0,0,0,632.062561
1101,-1851,6,0,0,0,666.358032
321,750,1,1,0,5,23.431355
1120,805,2,0,0,0,794.094849
-1842,330,3,0,0,0,665.414001
-351,496,4,0,0,0,930.264954
-615,-142,5,0,0,0,919.312195
467,-502,6,1,0,5,23.431355
753,1353,1,0,0,0,661.608459
1504,1423,2,0,0,0,677.617798
-648,660,4,1,0,5,23.431355
-1360,-998,5,1,0,5,23.431355
663,-214,6,1,0,5,23.431355
557,643,1,0,0,0,833.392151
888,668,2,0,0,0,856.248596
-248,1156,4,0,0,5,23.431355
-1853,-2,5,0,0,0,610.430176
551,-1061,6,1,0,5,23.431355
1392,1766,1,0,0,0,555.578796
1714,345,2,0,0,0,726.031189
-284,1303,4,0,0,5,23.431355
-940,-211,5,0,0,0,797.626038
1236,-1793,6,0,0,0,663.186462
203,472,1,0,0,0,978.596802
1335,628,2,0,0,0,774.755066
-765,1881,4,0,0,5,23.431355
-577,-613,5,0,0,0,836.404663
1889,-1951,6,1,0,5,23.431355
890,1501,1,1,0,5,23.431355
-1061,1782,4,0,0,5,23.431355
-1441,-165,5,0,0,0,680.295105
1607,-1398,6,1,0,5,23.431355
41,1993,1,0,0,5,23.431355
-336,395,4,0,0,0,975.931580
-448,-619,5,0,0,0,864.281006
517,-1185,6,0,0,0,812.691956
51,393,1,0,0,0,1053.458252
-1134,1503,4,1,0,5,23.431355
-905,-1962,5,0,0,0,566.860291
1307,-375,6,0,0,0,798.197571
547,1965,1,0,0,0,583.172546
-707,991,4,0,0,5,23.431355
-1474,-1942,5,0,0,0,532.783752
354,-27,6,0,0,0,1185.128540
1266,1798,1,0,0,0,561.888306
-1142,1147,4,1,0,5,23.431355
-1899,-735,5,0,0,0,583.650635
915,-564,6,1,0,5,23.431355
728,924,1,1,0,5,23.431355
-687,1432,4,0,0,5,23.431355
-1041,-780,5,0,0,0,711.455322
769,-106,6,0,0,0,959.550598
865,1399,1,0,0,0,644.371948
-1521,1616,4,0,0,5,23.431355
-762,-592,5,1,0,5,23.431355
1489,-747,6,0,0,0,739.892212
400,1771,1,0,0,0,616.228027
-334,1712,4,1,0,5,23.431355
-637,-1425,5,0,0,0,659.317810
643,-1581,6,0,0,0,732.939148
265,950,1,0,0,0,790.881531
-10,1423,4,0,0,5,23.431355
-158,-387,5,0,0,0,1038.076294
39,-851,6,0,0,0,932.766296
501,1057,1,0,0,0,741.902771
-1405,1953,4,1,0,5,23.431355
-513,-1503,5,0,0,0,654.378052
1094,-759,6,0,0,0,804.226318
1496,1835,1,1,0,5,23.431355
-590,1256,4,0,0,5,23.431355
-1321,-1637,5,1,0,5,23.431355
858,-1100,6,1,0,5,23.431355
752,1369,1,0,0,0,659.126160
-267,1943,4,0,0,5,23.431355
-946,-622,5,0,0,0,751.265381
1831,-1225,6,0,0,0,659.893188
1296,1888,1,1,0,5,23.431355
-319,1303,4,0,0,5,23.431355
-1996,-432,5,0,0,0,582.825256
365,-57,6,0,0,0,1173.662964
144,1065,1,0,0,0,766.219910
-1201,1356,4,0,0,5,23.431355
-98,-1041,5,0,0,0,774.099426
796,-1899,6,0,0,0,679.197998
1297,1785,1,1,0,5,23.431355
-293,1773,4,0,0,5,23.431355
-220,-635,5,1,0,5,23.431355
134,-1367,6,0,0,0,795.291565
439,935,1,0,0,0,777.601501
-1095,1928,4,0,0,5,23.431355
-823,-104,5,0,0,0,840.637878
1726,-1568,6,1,0,5,23.431355
350,1979,1,0,0,0,587.374390
-182,808,4,0,0,5,23.431355
-945,-1829,5,0,0,0,580.545898
1292,-600,6,0,0,0,784.822266
426,1393,1,0,0,0,679.062134
-1064,1925,4,0,0,5,23.431355
-347,-1993,5,0,0,0,585.507996
692,-782,6,0,0,0,874.143677
148,743,1,1,0,5,23.431355
-1147,1651,4,0,0,5,23.431355
-890,-1695,5,0,0,0,601.157898
1775,-194,6,0,0,0,719.997925
715,1786,1,0,0,0,599.773682
-1923,-814,5,0,0,0,576.517517
200,-1123,6,0,0,0,848.716736
-1179,-1671,5,0,0,0,582.430359
947,-426,6,0,0,0,875.750305
-698,-1927,5,0,0,0,581.813171
1851,-1009,6,0,0,0,672.466003
-1732,-882,5,1,0,5,23.431355
968,-114,6,0,0,0,893.981567
-388,-391,5,1,0,5,23.431355
157,-1706,6,1,0,5,23.431355
-1033,-508,5,1,0,5,23.431355
1772,-1704,6,1,0,5,23.431355
-958,-664,5,0,0,0,742.911682
1349,-1705,6,0,0,0,663.660645
-1667,-1125,5,0,0,0,587.178833
125,-915,6,0,0,0,909.518005
-232,-939,5,0,0,0,796.481262
1715,-575,6,1,0,5,23.431355
-833,-1277,5,1,0,5,23.431355
257,-1820,6,0,0,0,711.697388
-698,-636,5,1,0,5,23.431355
1642,-121,6,0,0,0,743.255859
-1048,-1744,5,0,0,0,583.876038
470,-252,6,0,0,0,1067.777222
-850,-171,5,0,0,0,827.924683
1964,-302,6,0,0,0,689.378296
-1184,-1440,5,1,0,5,23.431355
1970,-1156,6,0,0,0,649.569519
-281,-770,5,0,0,0,844.082764
1602,-1601,6,0,0,0,651.986328
-377,-506,5,0,0,0,919.393188
1791,-528,6,0,0,0,707.190186
-1052,-680,5,0,0,0,722.265503
422,-246,6,0,0,0,1093.097656
-138,-1913,5,0,0,0,600.636169
874,-1687,6,1,0,5,23.431355
-1769,-11,5,1,0,5,23.431355
432,-1289,6,0,0,0,798.254089
-280,-629,5,0,0,0,894.275513
1651,-1226,6,0,0,0,679.567444
-1410,-1710,5,0,0,0,559.666016
1059,-561,6,0,0,0,834.508911
-1115,-1012,5,1,0,5,23.431355
858,-1555,6,0,0,0,721.537476
-1389,-188,5,0,0,0,690.074463
1380,-1295,6,0,0,0,703.342468
-1130,-235,5,1,0,5,23.431355
77,-192,6,0,0,0,1340.951904
-349,-1151,5,0,0,0,733.917419
1272,-1031,6,0,0,0,744.844604
-1575,-1426,5,0,0,0,571.617371
1626,-1012,6,0,0,0,699.922485
-161,-393,5,1,0,5,23.431355
1478,-204,6,0,0,0,771.526794
-858,-1300,5,0,0,0,659.918518
0,-549,6,0,0,0,1059.408203
-1591,-818,5,0,0,0,620.434814
10,-449,6,1,0,5,23.431355
-1603,-1468,5,0,0,0,565.168945
1719,-1318,6,1,0,5,23.431355
-1940,-477,5,0,0,0,589.063110
729,-453,6,1,0,5,23.431355
-444,-879,5,0,0,0,791.317688
1072,-1863,6,0,0,0,666.927185
-1200,-749,5,0,0,0,687.453125
827,-1089,6,0,0,0,796.576416
-1725,-1656,5,0,0,0,538.241028
1253,-513,6,0,0,0,799.422668
-1677,-1865,5,0,0,0,524.818420
1310,-1068,6,0,0,0,735.736755
-763,-700,5,1,0,5,23.431355
1842,-772,6,0,0,0,687.920227
-601,-1548,5,0,0,0,641.652954
200,-571,6,0,0,0,1031.396118
-1338,-1032,5,0,0,0,636.686523
1836,-1434,6,1,0,5,23.431355
-9,-560,5,1,0,5,23.431355
1020,-456,6,0,0,0,854.676086
-1792,-1484,5,1,0,5,23.431355
1201,-1999,6,0,0,0,643.647400
-392,-301,5,0,0,0,989.789795
1227,-1774,6,0,0,0,665.920898
-1889,-1253,5,1,0,5,23.431355
1346,-321,6,0,0,0,793.166504
-1357,-776,5,0,0,0,658.894653
1791,-182,6,0,0,0,717.656067
-1437,-1558,5,0,0,0,572.301331
325,-728,6,0,0,0,951.866028
-920,-1056,5,0,0,0,690.302673
1328,-1269,6,0,0,0,711.888367
-1530,-1768,5,0,0,0,544.571533
1062,-1995,6,0,0,0,652.592529
-1044,-1692,5,0,0,0,590.431946
1043,-1913,6,0,0,0,663.039917
-645,-969,5,1,0,5,23.431355
1860,-1700,6,1,0,5,23.431355
-92,-622,5,0,0,0,920.415833
881,-1804,6,0,0,0,686.435425
-770,-162,5,0,0,0,855.838806
1017,-816,6,0,0,0,810.250488
-716,-1269,5,0,0,0,678.988525
734,-1345,6,1,0,5,23.431355
-1434,-1886,5,0,0,0,540.841431
95,-1837,6,0,0,0,711.479492
-546,-686,5,0,0,0,824.714417
1556,-1741,6,1,0,5,23.431355
-684,-921,5,1,0,5,23.431355
622,-1201,6,1,0,5,23.431355
-956,-258,5,0,0,0,789.737793
1661,-651,6,0,0,0,720.247131
-1473,-1395,5,0,0,0,584.703003
1120,-1647,6,1,0,5,23.431355
-918,-1256,5,0,0,0,660.266418
650,-978,6,0,0,0,840.356384
-1732,-1381,5,1,0,5,23.431355
1553,-1547,6,0,0,0,661.317444
-1505,-80,5,0,0,0,669.331482
146,-1673,6,0,0,0,737.579712
-1882,-764,5,0,0,0,584.363586
355,-1134,6,0,0,0,836.955261
-1093,-1794,5,1,0,5,23.431355
1889,-1219,6,0,0,0,654.097290
-48,-1571,5,1,0,5,23.431355
371,-1773,6,0,0,0,715.882446
-225,-183,5,0,0,0,1143.493530
343,-1179,6,0,0,0,827.522766
-1993,-1998,5,0,0,0,491.792938
829,-830,6,1,0,5,23.431355
-164,-613,5,0,0,0,917.774414
1634,-1363,6,0,0,0,669.807922
-1600,-370,5,0,0,0,644.821899
201,-201,6,0,0,0,1249.261963
-1632,-243,5,0,0,0,643.476074
1168,-1171,6,0,0,0,741.956970
-528,-95,5,0,0,0,966.150269
158,-1823,6,0,0,0,712.981689
-827,-84,5,1,0,5,23.431355
1760,-476,6,1,0,5,23.431355
-1371,-1834,5,1,0,5,23.431355
1932,-289,6,1,0,5,23.431355
-1168,-1844,5,0,0,0,563.979187
832,-1995,6,1,0,5,23.431355
-397,-1283,5,0,0,0,702.308289
871,-1712,6,0,0,0,699.083374
-1333,-412,5,0,0,0,691.393677
1749,-1469,6,0,0,0,649.577026
-925,-1993,5,0,0,0,562.118713
1939,-1639,6,0,0,0,619.432556
-1837,-688,5,0,0,0,594.247986
248,-630,6,0,0,0,998.963257
-1432,-368,5,1,0,5,23.431355
713,-1971,6,0,0,0,674.117737
-27,-1011,5,0,0,0,783.663513
107,-869,6,0,0,0,924.871277
-1421,-1917,5,0,0,0,538.829285
1032,-43,6,1,0,5,23.431355
-1320,-152,5,0,0,0,705.372498
1084,-334,6,0,0,0,850.330750
-1742,-1332,5,0,0,0,562.672974
756,-58,6,1,0,5,23.431355
-248,-1880,5,0,0,0,603.866516
1268,-26,6,0,0,0,818.216309
-587,-710,5,0,0,0,810.488159
1106,-1943,6,0,0,0,655.681946
-1344,-759,5,0,0,0,662.516846
144,-1062,6,0,0,0,866.660767
-411,-1468,5,0,0,0,666.065918
1324,-54,6,1,0,5,23.431355
-977,-100,5,0,0,0,792.097351
824,-253,6,1,0,5,23.431355
-631,-1511,5,0,0,0,645.650208
1493,-810,6,0,0,0,734.317139
-1266,-992,5,0,0,0,650.766846
149,-842,6,0,0,0,931.689819
-1967,-675,5,0,0,0,577.685425
758,-1367,6,0,0,0,758.165283
-374,-407,5,0,0,0,957.543396
1592,-1352,6,0,0,0,675.124817
-492,-395,5,0,0,0,919.420776
1371,-91,6,0,0,0,795.194397
-1494,-764,5,0,0,0,638.673889
1495,-1667,6,0,0,0,655.242126
-375,-1650,5,0,0,0,636.294922
1478,-1633,6,0,0,0,659.952393
-319,-1924,5,0,0,0,595.894409
1525,-1522,6,0,0,0,666.243591
-1069,-1475,5,0,0,0,615.284180
421,-329,6,0,0,0,1067.231567
-1694,-1158,5,1,0,5,23.431355
1059,-419,6,0,0,0,849.169128
-308,-733,5,1,0,5,23.431355
1914,-1359,6,0,0,0,641.775208
-1853,-1079,5,0,0,0,569.016235
471,-1579,6,1,0,5,23.431355
-1353,-858,5,0,0,0,651.876831
-669,-1650,5,0,0,0,621.790649
-370,-753,5,0,0,0,837.380005
-1082,-713,5,0,0,0,712.559204
-1555,-678,5,0,0,0,635.570923
-446,-1659,5,0,0,0,631.977966
-536,-1373,5,0,0,0,675.699829
-750,-1952,5,1,0,5,23.431355
-1209,-1134,5,1,0,5,23.431355
-1941,-89,5,1,0,5,23.431355
-1195,-258,5,1,0,5,23.431355
-763,-1890,5,1,0,5,23.431355
-1738,-1016,5,0,0,0,586.885193
-440,-741,5,0,0,0,829.668396
-1550,-1715,5,0,0,0,547.780151
-1128,-936,5,0,0,0,677.284058
-1378,-640,5,0,0,0,667.019531
-1015,-848,5,1,0,5,23.431355
-1547,-1949,5,0,0,0,527.041321
-1566,-1541,5,1,0,5,23.431355
-1731,-1490,5,0,0,0,551.180298
-1165,-1038,5,0,0,0,659.418884
-1908,-297,5,0,0,0,598.716675
-445,-607,5,0,0,0,868.632812
-722,-1561,5,0,0,0,631.649658


each generation good chromosome number
1,1,2,