571.295959,571.295959,571.295959,571.295959,571.295959,571.295959,571.295959,571.295959,571.295959,571.295959,571.295959,571.295959,571.295959,571.295959,571.295959,571.295959,571.295959,571.295959,571.295959,571.295959,571.295959,571.295959,571.295959,571.295959,571.295959,571.295959,571.295959,571.295959,571.295959,571.295959,571.295959,571.295959,571.295959,571.295959,571.295959,571.295959,571.295959,571.295959,571.295959,571.295959,571.295959,571.295959,571.295959,571.295959,571.295959,571.295959,571.295959,571.295959,571.295959,571.295959,571.295959,571.295959,571.295959,571.295959,571.295959,571.295959,571.295959,571.295959,571.295959,571.295959,571.295959,571.295959,571.295959,571.295959,571.295959,571.295959,571.295959,571.295959,571.295959,571.295959,571.295959,571.295959,571.295959,571.295959,571.295959,571.295959,571.295959,571.295959,571.295959,571.295959,571.295959,571.295959,571.295959,571.295959,571.295959,571.295959,571.295959,571.295959,571.295959,571.295959,571.295959,571.295959,571.295959,571.295959,571.295959,571.295959,571.295959,571.295959,571.295959,571.295959,

avg. max avg. throughput in test times
571.296631
avg. BS TX power in all test times
MBS area 1,MBS area 2,MBS area 3,MBS area 4,MBS area 5,MBS area 6,CBSD 1,CBSD 2,CBSD 3,CBSD 4,CBSD 5,CBSD 6,CBSD 7,CBSD 8,
7.500,7.500,7.500,7.500,7.500,7.500,0.000,0.000,0.000,0.000,0.000,0.000,0.000,0.000,
avg. mbs all power,avg. cbsd enable number,avg. mbs area all power,avg. cbsd all power
45.000,0.000,45.000,0.000
avg. number of relay UE
0

BS TX power
MBS area 1,MBS area 2,MBS area 3,MBS area 4,MBS area 5,MBS area 6,CBSD 1,CBSD 2,CBSD 3,CBSD 4,CBSD 5,CBSD 6,CBSD 7,CBSD 8,
7.500,7.500,7.500,7.500,7.500,7.500,0.000,0.000,0.000,0.000,0.000,0.000,0.000,0.000,
max average power
571.295959

x,y,area,be blocked (1 : NLOS / 0 : LOS),be blocked number (>=1 : CBSD(x) / 0 : no),connect bs number (>=1 : CBSD / 0 : MBS),throughput (unit : M bps)
174,657,1,0,0,0,956.404175
1994,522,2,1,0,0,2.378447
-1029,807,3,0,0,0,768.084412
-535,1043,4,0,0,0,799.507507
-1883,-1058,5,1,0,0,2.069345
229,-1843,6,0,0,0,667.583191
488,1434,1,0,0,0,725.913391
1168,862,2,0,0,0,738.117310
-962,284,3,0,0,0,844.324341
-277,1776,4,0,0,0,676.921448
-1905,-621,5,1,0,0,2.587390
278,-1087,6,0,0,0,812.094727
1386,1829,1,0,0,0,607.268738
1472,992,2,0,0,0,680.508850
-1416,292,3,0,0,0,739.275208
-1007,1853,4,0,0,0,631.308044
-1128,-1204,5,0,0,0,701.440369
529,-1153,6,0,0,0,776.811096
427,909,1,0,0,0,843.966003
1580,1441,2,1,0,0,2.131754
-1880,1695,3,0,0,0,579.435547
-578,583,4,1,0,0,33.695282
-161,-1384,5,0,0,0,749.878418
441,-1970,6,0,0,0,643.767151
1439,1545,1,1,0,0,2.214241
1216,731,2,0,0,0,744.680298
-1666,93,3,1,0,0,4.451102
-27,212,4,0,0,0,1290.057251
-1523,-54,5,0,0,0,724.178650
804,-1814,6,0,0,0,648.694336
1191,1937,1,0,0,0,609.878235
1770,649,2,0,0,0,663.299316
-1495,1053,3,0,0,0,672.011353
-836,1891,4,0,0,0,636.957458
-1054,-1547,5,1,0,0,3.166587
532,-457,6,0,0,0,947.353882
215,629,1,0,0,0,962.800903
1262,1003,2,0,0,0,708.080200
-1971,1109,3,0,0,0,611.418762
-142,1619,4,0,0,0,705.747803
-451,-136,5,0,0,0,1062.082031
1274,-616,6,0,0,0,745.429260
149,331,1,0,0,0,1137.240356
444,84,2,0,0,0,1074.071167
-1215,107,3,0,0,0,788.094055
-25,1880,4,1,0,0,3.125613
-1666,-1865,5,0,0,0,582.874756
1651,-15,6,0,0,0,701.228638
945,1239,1,0,0,0,717.800781
1643,430,2,0,0,0,693.148865
-1907,396,3,1,0,0,2.814737
-909,1048,4,0,0,0,751.125000
-639,-1689,5,0,0,0,675.594604
1231,-1679,6,0,0,0,634.983154
578,900,1,0,0,0,825.839294
1910,613,2,0,0,0,645.581543
-1089,764,3,1,0,0,8.656129
-1092,1356,4,0,0,0,686.044739
-2000,-977,5,0,0,0,615.944397
551,-553,6,1,0,0,38.513565
335,1465,1,0,0,0,728.183594
1718,1546,2,0,0,0,605.248596
-997,359,3,1,0,0,16.650499
-1417,1488,4,1,0,0,2.400674
-1661,-1382,5,0,0,0,624.396362
942,-1211,6,1,0,0,5.700973
560,840,1,0,0,0,842.463440
1123,1107,2,0,0,0,714.394104
-1378,118,3,1,0,0,7.727634
-1369,1746,4,0,0,0,616.862061
-571,-1132,5,0,0,0,776.970520
1599,-552,6,0,0,0,694.286621
191,1495,1,0,0,0,727.357178
974,729,2,0,0,0,788.825928
-1278,1156,3,1,0,0,4.046515
-578,1427,4,1,0,0,5.642604
-279,-66,5,0,0,0,1205.297729
1819,-375,6,0,0,0,667.571106
1046,1119,1,1,0,0,5.728182
1292,1173,2,0,0,0,685.385925
-884,819,3,0,0,0,791.559753
-433,1859,4,0,0,0,659.756714
-1539,-243,5,0,0,0,717.835022
1763,-470,6,1,0,0,3.416657
341,825,1,1,0,0,26.858011
1820,42,2,0,0,0,673.285156
-1757,1413,3,1,0,0,1.820680
-609,1865,4,1,0,0,2.754513
-716,-1587,5,0,0,0,686.043701
634,-362,6,0,0,0,935.786011
340,1706,1,0,0,0,686.288452
1104,1081,2,1,0,0,5.583714
-629,385,3,0,0,0,932.878906
-1712,1852,4,0,0,0,580.468994
-1972,-1707,5,0,0,0,570.960999
1694,-1634,6,0,0,0,600.079285
738,1950,1,0,0,0,634.565063
552,550,2,0,0,0,917.012146
-1317,318,3,1,0,0,8.206407
-85,1216,4,0,0,0,788.267700
-1661,-642,5,1,0,0,3.671861
387,-1645,6,0,0,0,694.572693
1530,1716,1,0,0,0,606.748413
1999,280,2,0,0,0,643.801697
-678,616,3,0,0,0,870.434692
-376,1349,4,1,0,0,7.450720
-1032,-516,5,1,0,0,13.062398
1754,-1489,6,0,0,0,606.531250
292,528,1,1,0,0,73.353592
1431,590,2,0,0,0,719.718750
-508,28,3,1,0,0,107.404999
-1170,1643,4,0,0,0,644.013672
-497,-870,5,0,0,0,844.638245
1908,-1604,6,1,0,0,1.349664
784,1815,1,0,0,0,649.717407
1197,747,2,0,0,0,746.270935
-915,37,3,1,0,0,25.042088
-481,1527,4,0,0,0,710.053650
-1770,-1090,5,0,0,0,635.424744
1569,-561,6,0,0,0,698.603394
1357,1565,1,1,0,0,2.343779
1384,180,2,0,0,0,749.400513
-705,477,3,1,0,0,30.570637
-697,1176,4,0,0,0,755.346741
-1298,-982,5,0,0,0,705.325195
1792,-1028,6,0,0,0,637.181763
332,908,1,1,0,0,21.547686
915,808,2,0,0,0,787.861389
-1386,1369,3,1,0,0,2.812882
-1356,1705,4,1,0,0,2.017154
-293,-1758,5,1,0,0,3.662757
1154,-1973,6,0,0,0,608.401367
122,1643,1,0,0,0,701.844238
1619,855,2,0,0,0,671.654846
-668,14,3,0,0,0,961.323669
-515,1157,4,1,0,0,9.985373
-1663,-701,5,0,0,0,675.772888
596,-585,6,1,0,0,32.183510
161,721,1,0,0,0,932.377869
1557,1517,2,0,0,0,622.677856
-1508,1064,3,0,0,0,669.372681
-97,446,4,0,0,0,1071.182129
-298,-530,5,0,0,0,988.495056
1145,-1966,6,1,0,0,1.772357
354,912,1,0,0,0,851.513611
521,71,2,0,0,0,1030.375000
-1858,21,3,1,0,0,3.236948
-149,882,4,0,0,0,877.286926
-1147,-1299,5,0,0,0,687.380981
1539,-1464,6,0,0,0,629.267883
116,332,1,0,0,0,1146.369629
167,68,2,0,0,0,1339.083984
-1720,1704,3,0,0,0,592.048462
-476,589,4,1,0,0,41.702271
-102,-537,5,0,0,0,1019.197754
1074,-606,6,0,0,0,784.939087
445,827,1,0,0,0,863.273315
918,114,2,0,0,0,867.618713
-427,255,3,0,0,0,1046.424194
-615,631,4,0,0,0,881.622681
-585,-1735,5,0,0,0,671.643799
867,-1474,6,0,0,0,691.177795
273,1974,1,0,0,0,647.460327
567,541,2,0,0,0,915.369141
-523,106,3,1,0,0,96.932503
-124,1767,4,0,0,0,681.108154
-118,-1101,5,0,0,0,815.881836
1331,-1820,6,0,0,0,612.276550
642,1541,1,0,0,0,698.070312
1485,1412,2,0,0,0,639.507568
-613,383,3,1,0,0,47.037041
-1494,1500,4,0,0,0,630.211243
-65,-1910,5,1,0,0,2.977789
127,-1783,6,1,0,0,3.630862
783,1235,1,0,0,0,736.019958
1587,647,2,0,0,0,690.551941
-1047,488,3,0,0,0,803.723145
-1283,1384,4,0,0,0,663.000305
-1120,-1381,5,0,0,0,680.023560
1050,-1796,6,1,0,0,2.313673
164,1313,1,0,0,0,764.701538
691,672,2,0,0,0,855.784729
-367,92,3,0,0,0,1125.283081
-26,1704,4,0,0,0,692.163086
-600,-1815,5,0,0,0,659.331848
1224,-1242,6,0,0,0,685.595459
784,1024,1,0,0,0,772.073120
1954,1123,2,0,0,0,612.408447
-1079,389,3,0,0,0,805.761169
-691,1525,4,0,0,0,697.237610
-1064,-389,5,1,0,0,13.765755
46,-934,6,0,0,0,864.498962
118,786,1,0,0,0,911.311646
1348,241,2,1,0,0,7.955005
-1413,882,3,1,0,0,4.474130
-198,1870,4,0,0,0,664.024414
-1801,-8,5,0,0,0,676.357971
11,-1432,6,0,0,0,742.016907
324,521,1,0,0,0,985.901550
1513,749,2,1,0,0,4.299757
-518,396,3,1,0,0,60.892899
-422,1943,4,0,0,0,648.103882
-541,-341,5,0,0,0,973.951477
1077,-1177,6,0,0,0,711.053467
144,1756,1,0,0,0,682.637939
1812,812,2,0,0,0,648.488342
-1950,834,3,0,0,0,629.703003
-384,1476,4,1,0,0,5.801651
-557,-1056,5,0,0,0,794.239258
1680,-748,6,0,0,0,670.393738
401,1480,1,0,0,0,722.415283
1665,849,2,1,0,0,3.181527
-1179,1092,3,1,0,0,4.973557
-1275,1528,4,0,0,0,647.848755
-1193,-1247,5,0,0,0,688.565063
111,-144,6,0,0,0,1336.690674
154,1728,1,0,0,0,687.062866
1582,424,2,0,0,0,703.532837
-1679,548,3,0,0,0,681.945679
-463,1741,4,0,0,0,676.279602
-197,-1685,5,1,0,0,4.238363
1515,-1673,6,0,0,0,611.991821
87,1427,1,0,0,0,742.496155
1040,802,2,0,0,0,766.854187
-571,485,3,0,0,0,928.342896
-135,1169,4,0,0,0,798.391174
-664,-609,5,0,0,0,875.206421
552,-1611,6,0,0,0,692.373169
579,1219,1,0,0,0,759.048218
1477,1009,2,0,0,0,678.313232
-1132,719,3,0,0,0,760.857605
-541,1850,4,0,0,0,656.970337
-125,-1211,5,0,0,0,788.629089
39,-47,6,0,0,0,1651.449097
356,1164,1,0,0,0,788.679016
1732,1216,2,1,0,0,2.198997
-1882,985,3,0,0,0,629.257385
-581,1203,4,1,0,0,8.549304
-1236,-1158,5,0,0,0,693.929138
1448,-941,6,1,0,0,4.021295
877,1962,1,0,0,0,625.937561
801,735,2,0,0,0,821.172241
-1209,320,3,0,0,0,780.899841
-375,1282,4,1,0,0,8.553648
-1345,-828,5,0,0,0,713.932129
1019,-1889,6,0,0,0,626.304565
1056,1845,1,0,0,0,629.036194
1551,1234,2,0,0,0,649.008118
-1361,554,3,0,0,0,734.623901
-231,488,4,0,0,0,1022.748047
-1534,-424,5,0,0,0,711.748413
1469,-350,6,0,0,0,726.793152
695,769,1,0,0,0,834.878784
1546,1111,2,0,0,0,660.500732
-711,356,3,0,0,0,911.189209
-423,1458,4,0,0,0,725.278381
-686,-532,5,0,0,0,885.906616
1240,-1999,6,0,0,0,600.232971
24,303,1,1,0,0,262.852478
1791,721,2,0,0,0,656.496887
-1676,1503,3,0,0,0,612.724243
-961,1336,4,0,0,0,702.156616
-1709,-266,5,1,0,0,4.002913
109,-1721,6,1,0,0,4.038254
242,1619,1,0,0,0,703.681213
1778,1414,2,0,0,0,610.146973
-1389,860,3,0,0,0,704.259705
-883,970,4,0,0,0,767.205750
-171,-1989,5,0,0,0,646.952698
1360,-1098,6,0,0,0,684.916626
641,895,1,1,0,0,14.940060
877,756,2,0,0,0,803.044495
-1739,1512,3,0,0,0,606.085876
-1167,1437,4,0,0,0,668.506775
-1644,-1429,5,0,0,0,622.099731
1954,-504,6,0,0,0,643.880859
1199,1337,1,0,0,0,677.175598
1460,130,2,0,0,0,735.338806
-666,129,3,1,0,0,55.215874
-1094,1578,4,1,0,0,2.936390
-1290,-259,5,0,0,0,766.324585
959,-1682,6,0,0,0,655.684448
609,1332,1,0,0,0,735.565491
1948,1030,2,0,0,0,618.813599
-1151,645,3,0,0,0,765.527161
-84,1119,4,1,0,0,14.145561
-1855,-369,5,0,0,0,662.374573
1199,-1755,6,1,0,0,2.170691
210,991,1,0,0,0,841.481384
561,103,2,0,0,0,1006.923340
-658,607,3,0,0,0,877.055786
-233,1408,4,1,0,0,7.049753
-1125,-618,5,0,0,0,773.433777
1066,-1998,6,0,0,0,611.040100
81,1393,1,0,0,0,749.463013
1878,1272,2,1,0,0,1.788461
-1963,432,3,0,0,0,645.010803
-226,923,4,0,0,0,859.878784
-1373,-1700,5,0,0,0,621.192078
746,-667,6,0,0,0,844.997131
404,1340,1,1,0,0,7.463834
1983,1672,2,1,0,0,1.198440
-1861,605,3,1,0,0,2.775653
-1212,1770,4,0,0,0,626.454102
-1595,-1327,5,1,0,0,2.332205
718,-1672,6,0,0,0,673.416748
89,758,1,0,0,0,922.997864
1946,638,2,0,0,0,639.677856
-890,67,3,1,0,0,26.872559
-759,1898,4,0,0,0,640.204773
-1224,-1881,5,1,0,0,1.846220
1147,-1409,6,0,0,0,673.858582
1873,1993,1,0,0,0,557.537231
1957,139,2,1,0,0,2.754445
-1906,126,3,0,0,0,659.547546
-742,757,4,0,0,0,828.435730
-945,-1219,5,0,0,0,720.731689
410,-748,6,0,0,0,890.964233
502,1528,1,0,0,0,708.735291
1126,148,2,0,0,0,808.605835
-548,356,3,0,0,0,967.718689
-461,1265,4,0,0,0,759.715881
-1936,-1223,5,0,0,0,607.875000
1058,-588,6,1,0,0,11.381210
154,242,1,0,0,0,1205.152222
1488,946,2,0,0,0,682.417908
-1130,301,3,0,0,0,800.196167
-70,513,4,0,0,0,1034.829590
-1954,-1792,5,0,0,0,566.322144
1955,-612,6,0,0,0,639.589233
1008,1690,1,1,0,0,2.730180
1961,454,2,0,0,0,644.600403
-1293,609,3,0,0,0,742.578308
-1656,1784,4,1,0,0,1.448843
-1800,-651,5,1,0,0,2.963940
853,-1626,6,0,0,0,670.834534
990,1470,1,1,0,0,3.724061
1020,399,2,1,0,0,15.158782
-943,588,3,0,0,0,814.845886
-1405,1691,4,0,0,0,619.463074
-88,-1268,5,0,0,0,776.248535
1187,-334,6,0,0,0,784.956726
838,1431,1,1,0,0,4.533090
1808,1537,2,0,0,0,597.749390
-1268,173,3,1,0,0,9.687260
-76,1862,4,0,0,0,666.603455
-146,-1257,5,0,0,0,777.516479
1100,-1600,6,0,0,0,654.879517
1186,1413,1,0,0,0,669.498169
1443,77,2,0,0,0,739.422302
-1411,1133,3,0,0,0,675.001038
-329,539,4,0,0,0,977.591248
-607,-1469,5,0,0,0,712.117798
1632,-1999,6,0,0,0,573.972168
743,1915,1,1,0,0,2.403025
1126,641,2,1,0,0,9.345706
-1866,1058,3,0,0,0,626.470398
-561,976,4,0,0,0,811.134094
-1338,-1762,5,1,0,0,1.926273
1815,-254,6,0,0,0,671.375732
458,698,1,0,0,0,897.157898
1072,391,2,0,0,0,807.243347
-856,706,3,0,0,0,815.291382
-1167,1265,4,0,0,0,689.342590
-1055,-1148,5,0,0,0,717.636658
882,-90,6,0,0,0,879.846497
1142,1715,1,0,0,0,637.940491
991,248,2,1,0,0,18.465231
-1428,1049,3,1,0,0,3.726542
-268,655,4,0,0,0,944.748657
-149,-1928,5,0,0,0,656.043518
669,-1415,6,0,0,0,716.529785
104,1325,1,0,0,0,763.430054
1338,674,2,0,0,0,729.070496
-1385,511,3,0,0,0,733.295044
-1327,1467,4,0,0,0,649.566040
-236,-281,5,1,0,0,198.035629
1301,-1212,6,0,0,0,680.024109
779,1404,1,1,0,0,4.986217
845,607,2,0,0,0,833.799927
-1214,651,3,0,0,0,753.151123
-152,605,4,1,0,0,67.778503
-422,-1726,5,0,0,0,680.222534
1488,-302,6,1,0,0,5.878317
959,1651,1,0,0,0,659.673950
913,416,2,0,0,0,844.249573
-1284,1007,3,0,0,0,704.593262
-186,955,4,0,0,0,853.091309
-1920,-1551,5,1,0,0,1.389954
638,-1798,6,0,0,0,659.894714
366,839,1,0,0,0,870.651672
1733,1510,2,0,0,0,606.806885
-794,768,3,0,0,0,816.571350
-1481,1669,4,0,0,0,615.245728
-1019,-1214,5,0,0,0,712.928040
28,-1037,6,1,0,0,17.682280
229,1329,1,0,0,0,759.246948
1352,1230,2,0,0,0,672.140869
-203,151,3,1,0,0,332.027618
-142,1529,4,0,0,0,722.000916
-282,-1073,5,0,0,0,815.328735
904,-657,6,1,0,0,14.313328
521,794,1,0,0,0,860.058777
1497,102,2,1,0,0,6.086395
-1693,763,3,0,0,0,667.610779
-940,1821,4,0,0,0,639.485046
-1704,-240,5,0,0,0,689.385803
1306,-552,6,0,0,0,744.870789
102,1289,1,0,0,0,771.325012
1606,1268,2,0,0,0,639.912781
-1751,1288,3,0,0,0,622.695801
-395,1624,4,0,0,0,697.733887
-551,-648,5,1,0,0,30.630510
1283,-1723,6,0,0,0,626.053406
1398,1999,1,1,0,0,1.439632
192,17,2,0,0,0,1319.839844
-1501,166,3,0,0,0,726.787109
-1067,1574,4,0,0,0,660.834839
-317,-945,5,1,0,0,19.785830
1164,-1921,6,0,0,0,613.366760
901,1587,1,0,0,0,672.587708
1385,266,2,0,0,0,746.402954
-1892,1852,3,0,0,0,566.721619
-1519,1841,4,0,0,0,596.109863
-392,-1102,5,1,0,0,12.561180
175,-881,6,1,0,0,26.408489
1605,1635,1,0,0,0,607.728149
1054,738,2,0,0,0,772.737061
-1385,802,3,0,0,0,710.146240
-1457,1994,4,0,0,0,586.430054
-592,-522,5,0,0,0,913.325439
1301,-1047,6,0,0,0,697.969238
1465,1717,1,0,0,0,611.987305
912,731,2,0,0,0,800.343140
-647,103,3,0,0,0,966.985596
-354,1749,4,1,0,0,3.649276
-262,-905,5,0,0,0,862.343506
1282,-94,6,0,0,0,773.015015
842,1351,1,1,0,0,5.114039
1295,211,2,0,0,0,767.125549
-1908,1040,3,1,0,0,2.032247
-488,1870,4,0,0,0,656.208984
-1830,-483,5,0,0,0,662.174927
506,-731,6,1,0,0,27.160992
1497,1645,1,1,0,0,1.896097
1763,65,2,1,0,0,3.774852
-1307,356,3,0,0,0,757.966125
-916,1305,4,0,0,0,711.232117
-1966,-1738,5,0,0,0,569.241394
112,-1410,6,1,0,0,7.236751
956,1836,1,1,0,0,2.348534
1918,1531,2,0,0,0,588.212769
-1545,706,3,1,0,0,4.222246
-247,1153,4,0,0,0,797.808044
-1875,-1197,5,0,0,0,616.119324
190,-1325,6,0,0,0,761.390137
1794,1925,1,0,0,0,568.457520
1981,1240,2,0,0,0,602.083862
-1490,917,3,0,0,0,684.646240
-160,583,4,0,0,0,990.147827
-224,-1684,5,0,0,0,693.065430
384,-792,6,0,0,0,881.931702
1245,1901,1,0,0,0,610.060547
1560,159,2,0,0,0,715.998718
-897,860,3,0,0,0,782.736694
-1104,1370,4,0,0,0,683.032837
-279,-769,5,0,0,0,903.011658
1938,-1501,6,0,0,0,588.539124
721,1453,1,0,0,0,706.305725
575,301,2,0,0,0,969.694153
-1517,268,3,0,0,0,721.085632
-1425,1573,4,0,0,0,629.484558
-1278,-123,5,0,0,0,773.358582
263,-426,6,0,0,0,1044.518677
382,1058,1,0,0,0,811.361877
1854,90,2,0,0,0,667.735229
-932,470,3,1,0,0,17.376602
-329,391,4,0,0,0,1038.614746
-1730,-1187,5,0,0,0,632.782166
669,-969,6,0,0,0,798.211426
1531,1594,1,1,0,0,1.932213
1822,890,2,1,0,0,2.497037
-1728,202,3,0,0,0,686.253296
-761,1094,4,0,0,0,762.658936
-1983,-1655,5,1,0,0,1.213636
182,-1365,6,0,0,0,753.245911
558,1754,1,1,0,0,3.329058
1921,269,2,0,0,0,655.159851
-1737,92,3,0,0,0,686.307556
-1311,1840,4,1,0,0,1.809675
-821,-1631,5,1,0,0,3.408847
1854,-1953,6,0,0,0,561.923584
40,1521,1,0,0,0,724.636353
1193,645,2,0,0,0,757.630798
-1420,1279,3,0,0,0,659.409607
-1531,1951,4,0,0,0,585.238464
-1840,-846,5,1,0,0,2.506536
1490,-958,6,1,0,0,3.729575
498,1331,1,0,0,0,744.214111
1340,283,2,1,0,0,7.951913
-1875,1082,3,0,0,0,623.863647
-1424,1919,4,1,0,0,1.530870
-280,-1727,5,0,0,0,684.648804
1033,-534,6,0,0,0,801.808899
27,1048,1,0,0,0,831.616516
1567,1564,2,0,0,0,617.472900
-1348,1086,3,1,0,0,3.992909
-1327,1671,4,0,0,0,627.968384
-496,-1962,5,0,0,0,643.066223
254,-779,6,0,0,0,902.548767
671,1940,1,0,0,0,639.003723
613,587,2,0,0,0,892.409424
-1474,631,3,0,0,0,709.621399
-661,1929,4,1,0,0,2.455906
-92,-1732,5,1,0,0,3.969788
1387,-1202,6,0,0,0,670.958008
554,1021,1,1,0,0,12.812069
1622,558,2,0,0,0,690.305176
-1523,631,3,0,0,0,701.667236
-432,1321,4,0,0,0,750.598206
-505,-1770,5,0,0,0,670.139709
213,-12,6,1,0,0,399.927307
742,785,1,1,0,0,15.768755
994,660,2,1,0,0,11.862065
-1625,1206,3,1,0,0,2.512215
-231,921,4,0,0,0,860.102234
-955,-1778,5,0,0,0,643.839783
547,-1815,6,0,0,0,661.727356
1455,1788,1,0,0,0,605.986450
1786,698,2,0,0,0,658.445007
-1585,455,3,0,0,0,701.584778
-1263,1634,4,0,0,0,637.279419
-1533,-285,5,0,0,0,717.614014
1513,-1246,6,0,0,0,652.191406
936,1215,1,0,0,0,722.346863
1753,1575,2,1,0,0,1.595757
-1068,195,3,0,0,0,821.559204
-193,1809,4,0,0,0,673.476501
-347,-753,5,1,0,0,32.815323
1517,-665,6,0,0,0,700.313293
1025,1554,1,1,0,0,3.219021
1030,890,2,1,0,0,8.094371
-1884,679,3,0,0,0,646.056091
-254,979,4,0,0,0,841.934265
-1733,-1417,5,0,0,0,614.327209
709,-1498,6,1,0,0,4.541190
512,1831,1,0,0,0,660.884460
1000,362,2,0,0,0,827.487915
-741,552,3,0,0,0,867.944336
-519,1746,4,0,0,0,673.125000
-492,-909,5,0,0,0,835.689880
760,-705,6,0,0,0,834.846436
715,738,1,1,0,0,18.163334
746,312,2,0,0,0,906.351318
-1291,678,3,0,0,0,736.823486
-382,1921,4,0,0,0,652.396484
-341,-1109,5,0,0,0,802.456726
1334,-1937,6,0,0,0,600.286377
395,1684,1,0,0,0,687.912231
1839,1737,2,0,0,0,579.619751
-1185,512,3,0,0,0,771.802734
-1457,1880,4,0,0,0,597.094910
-527,-1370,5,0,0,0,734.930237
1754,-33,6,0,0,0,683.871948
219,1812,1,0,0,0,672.547546
1929,1151,2,0,0,0,613.346802
-1923,1148,3,0,0,0,614.195251
-352,1947,4,0,0,0,649.504333
-1382,-1835,5,1,0,0,1.722046
1163,-1907,6,0,0,0,614.951843
59,152,1,0,0,0,1368.121948
1733,253,2,0,0,0,684.351807
-1666,826,3,1,0,0,3.229683
-1137,1463,4,0,0,0,668.245239
-236,-1787,5,0,0,0,676.120422
1297,-1717,6,0,0,0,625.576660
239,1979,1,0,0,0,647.375671
1690,1652,2,0,0,0,598.914795
-1271,575,3,0,0,0,749.532593
-520,1495,4,0,0,0,713.312561
-27,-583,5,0,0,0,1000.304626
97,-61,6,1,0,0,661.106750
1050,1134,1,0,0,0,720.162292
1372,100,2,1,0,0,7.849729
-1354,5,3,0,0,0,758.094727
-1266,1776,4,0,0,0,621.735657
-1289,-257,5,0,0,0,766.624207
1115,-1344,6,0,0,0,685.180908
227,258,1,0,0,0,1153.035889
1017,444,2,0,0,0,815.261597
-1131,670,3,0,0,0,766.583374
-504,768,4,0,0,0,869.630676
-682,-1645,5,0,0,0,679.590576
1073,-611,6,0,0,0,784.567627
1067,1560,1,1,0,0,3.077590
1286,118,2,0,0,0,771.686218
-1733,310,3,0,0,0,682.863037
-1145,1745,4,1,0,0,2.291619
-494,-689,5,0,0,0,892.725586
521,-1155,6,0,0,0,777.149170
138,1938,1,0,0,0,654.694519
956,950,2,0,0,0,759.424438
-384,183,3,0,0,0,1091.499023
-577,1339,4,0,0,0,736.858276
-801,-1528,5,0,0,0,688.655029
610,-1162,6,0,0,0,767.059509
315,586,1,0,0,0,962.554871
1691,1060,2,0,0,0,647.034363
-1675,154,3,0,0,0,695.904602
-634,835,4,0,0,0,831.597290
-1806,-533,5,0,0,0,663.636047
1165,-809,6,0,0,0,744.773560
785,941,1,0,0,0,786.745422
743,721,2,1,0,0,17.781641
-1526,461,3,0,0,0,711.281921
-57,1174,4,0,0,0,798.729980
-1711,-1340,5,0,0,0,622.750854
1485,-1260,6,0,0,0,654.018005
441,1169,1,0,0,0,781.179382
556,356,2,0,0,0,964.769165
-1976,399,3,0,0,0,644.174011
-313,1160,4,0,0,0,792.417908
-1230,-1416,5,0,0,0,664.759094
1889,-37,6,0,0,0,662.674133
827,989,1,1,0,0,9.482431
1809,1389,2,0,0,0,609.018616
-1401,835,3,1,0,0,4.761254
-42,974,4,0,0,0,852.511963
-716,-401,5,0,0,0,902.098999
1391,-545,6,0,0,0,729.878418
528,1140,1,1,0,0,10.219839
1693,827,2,1,0,0,3.105836
-1733,1584,3,0,0,0,600.779846
-254,800,4,0,0,0,895.606934
-1339,-1628,5,0,0,0,631.447449
1019,-935,6,0,0,0,752.022339
539,1242,1,1,0,0,8.222930
885,695,2,0,0,0,811.252747
-1888,1834,3,1,0,0,1.147058
-975,1860,4,1,0,0,2.249854
-1229,-468,5,0,0,0,766.466858
1558,-1479,6,0,0,0,626.053650
699,1270,1,1,0,0,6.733900
1446,1024,2,0,0,0,681.024780
-1405,186,3,1,0,0,7.194740
-34,1914,4,0,0,0,658.929016
-831,-1782,5,1,0,0,2.736559
937,-1336,6,0,0,0,704.584717
214,898,1,0,0,0,868.211853
1931,1659,2,0,0,0,577.817078
-1998,961,3,1,0,0,1.914241
-36,909,4,1,0,0,25.501949
-304,-274,5,1,0,0,164.320572
1924,-881,6,0,0,0,630.341614
114,1234,1,0,0,0,783.525513
1027,621,2,0,0,0,792.736450
-1866,160,3,0,0,0,665.182129
-1223,1941,4,0,0,0,607.350647
-1051,-1515,5,0,0,0,669.638733
556,-1811,6,0,0,0,661.909485
262,1457,1,0,0,0,732.498108
1149,261,2,1,0,0,12.298656
-1786,804,3,0,0,0,652.394958
-420,880,4,0,0,0,852.457397
-1970,-1105,5,0,0,0,611.774963
1130,-86,6,0,0,0,809.218445
709,1350,1,0,0,0,724.009949
1116,302,2,0,0,0,803.474670
-1748,1058,3,0,0,0,640.328491
-869,1714,4,0,0,0,657.827026
-1787,-71,5,0,0,0,678.366455
313,-1148,6,0,0,0,795.201477
747,1477,1,0,0,0,700.520996
1079,362,2,1,0,0,13.585611
-1758,304,3,0,0,0,679.058105
-691,886,4,0,0,0,811.681580
-847,-1494,5,0,0,0,689.955811
1101,-1851,6,0,0,0,625.327759
321,750,1,1,0,0,34.267017
1120,805,2,0,0,0,752.786621
-1842,330,3,0,0,0,665.414001
-351,496,4,0,0,0,988.684937
-615,-142,5,0,0,0,977.726440
467,-502,6,1,0,0,53.767662
753,1353,1,0,0,0,719.613525
1504,1423,2,0,0,0,636.552307
-648,660,4,1,0,0,24.362276
-1360,-998,5,1,0,0,4.309939
663,-214,6,1,0,0,51.650509
557,643,1,0,0,0,891.739197
888,668,2,0,0,0,814.872131
-248,1156,4,0,0,0,797.043152
-1853,-2,5,0,0,0,668.225647
551,-1061,6,1,0,0,11.794203
1392,1766,1,0,0,0,613.049011
1714,345,2,0,0,0,684.840698
-284,1303,4,0,0,0,762.456238
-940,-211,5,0,0,0,855.931335
1236,-1793,6,0,0,0,622.166748
203,472,1,0,0,0,1037.038452
1335,628,2,0,0,0,733.474854
-765,1881,4,0,0,0,642.097290
-577,-613,5,0,0,0,894.755066
1889,-1951,6,1,0,0,1.044820
890,1501,1,1,0,0,3.898997
-1061,1782,4,0,0,0,636.077637
-1441,-165,5,0,0,0,738.360168
1607,-1398,6,1,0,0,2.157019
41,1993,1,0,0,0,647.369629
-336,395,4,0,0,0,1034.372314
-448,-619,5,0,0,0,922.656799
517,-1185,6,0,0,0,771.360291
51,393,1,0,0,0,1111.922241
-1134,1503,4,1,0,0,3.112603
-905,-1962,5,0,0,0,624.407898
1307,-375,6,0,0,0,756.884094
547,1965,1,0,0,0,640.821899
-707,991,4,0,0,0,788.649780
-1474,-1942,5,0,0,0,590.077576
354,-27,6,0,0,0,1143.637939
1266,1798,1,0,0,0,619.402588
-1142,1147,4,1,0,0,4.869573
-1899,-735,5,0,0,0,641.302795
915,-564,6,1,0,0,15.991506
728,924,1,1,0,0,12.356983
-687,1432,4,0,0,0,712.334229
-1041,-780,5,0,0,0,769.604309
769,-106,6,0,0,0,918.109131
865,1399,1,0,0,0,702.314575
-1521,1616,4,0,0,0,616.797607
-762,-592,5,1,0,0,21.663160
1489,-747,6,0,0,0,698.673279
400,1771,1,0,0,0,674.051392
-334,1712,4,1,0,0,3.903918
-637,-1425,5,0,0,0,717.315002
643,-1581,6,0,0,0,691.734253
265,950,1,0,0,0,849.177734
-10,1423,4,0,0,0,743.826599
-158,-387,5,0,0,0,1096.536377
39,-851,6,0,0,0,891.337585
501,1057,1,0,0,0,800.117920
-1405,1953,4,1,0,0,1.500220
-513,-1503,5,0,0,0,712.357910
1094,-759,6,0,0,0,762.905090
1496,1835,1,1,0,0,1.573899
-590,1256,4,0,0,0,751.046387
-1321,-1637,5,1,0,0,2.238830
858,-1100,6,1,0,0,7.534890
752,1369,1,0,0,0,717.122681
-267,1943,4,0,0,0,652.011414
-946,-622,5,0,0,0,809.498230
1831,-1225,6,0,0,0,618.884583
1296,1888,1,1,0,0,1.738206
-319,1303,4,0,0,0,760.763245
-1996,-432,5,0,0,0,640.472778
365,-57,6,0,0,0,1132.173462
144,1065,1,0,0,0,824.478760
-1201,1356,4,0,0,0,674.716248
-98,-1041,5,0,0,0,832.370911
796,-1899,6,0,0,0,638.127747
1297,1785,1,1,0,0,1.941902
-293,1773,4,0,0,0,676.989258
-220,-635,5,1,0,0,56.522400
134,-1367,6,0,0,0,753.981934
439,935,1,0,0,0,835.878357
-1095,1928,4,0,0,0,617.049011
-823,-104,5,0,0,0,898.992249
1726,-1568,6,1,0,0,1.646759
350,1979,1,0,0,0,645.048401
-182,808,4,0,0,0,899.444519
-945,-1829,5,0,0,0,638.179871
1292,-600,6,0,0,0,743.527222
426,1393,1,0,0,0,737.123291
-1064,1925,4,0,0,0,619.339050
-347,-1993,5,0,0,0,643.170898
692,-782,6,0,0,0,832.752441
148,743,1,1,0,0,41.659164
-1147,1651,4,0,0,0,644.961182
-890,-1695,5,0,0,0,658.906982
1775,-194,6,0,0,0,678.821045
715,1786,1,0,0,0,657.515564
-1923,-814,5,0,0,0,634.127014
200,-1123,6,0,0,0,807.346863
-1179,-1671,5,0,0,0,640.075562
947,-426,6,0,0,0,834.357788
-698,-1927,5,0,0,0,639.454468
1851,-1009,6,0,0,0,631.416138
-1732,-882,5,1,0,0,2.832158
968,-114,6,0,0,0,852.575684
-388,-391,5,1,0,0,90.375740
157,-1706,6,1,0,0,4.117134
-1033,-508,5,1,0,0,13.149056
1772,-1704,6,1,0,0,1.406612
-958,-664,5,0,0,0,801.128784
1349,-1705,6,0,0,0,622.639343
-1667,-1125,5,0,0,0,644.851440
125,-915,6,0,0,0,868.102112
-232,-939,5,0,0,0,854.784790
1715,-575,6,1,0,0,3.505563
-833,-1277,5,1,0,0,5.806821
257,-1820,6,0,0,0,670.539856
-698,-636,5,1,0,0,23.005005
1642,-121,6,0,0,0,702.030396
-1048,-1744,5,0,0,0,641.529724
470,-252,6,0,0,0,1026.302979
-850,-171,5,0,0,0,886.266235
1964,-302,6,0,0,0,648.278320
-1184,-1440,5,1,0,0,3.205431
1970,-1156,6,0,0,0,608.597595
-281,-770,5,0,0,0,902.440491
1602,-1601,6,0,0,0,611.005676
-377,-506,5,0,0,0,977.807434
1791,-528,6,0,0,0,666.043335
-1052,-680,5,0,0,0,780.439575
422,-246,6,0,0,0,1051.618652
-138,-1913,5,0,0,0,658.382263
874,-1687,6,1,0,0,3.029955
-1769,-11,5,1,0,0,3.744373
432,-1289,6,0,0,0,756.940552
-280,-629,5,0,0,0,952.673889
1651,-1226,6,0,0,0,638.495850
-1410,-1710,5,0,0,0,617.164978
1059,-561,6,0,0,0,793.152893
-1115,-1012,5,1,0,0,6.023580
858,-1555,6,0,0,0,680.357117
-1389,-188,5,0,0,0,748.167603
1380,-1295,6,0,0,0,662.205505
-1130,-235,5,1,0,0,13.050505
77,-192,6,0,0,0,1299.452759
-349,-1151,5,0,0,0,792.116516
1272,-1031,6,0,0,0,703.615845
-1575,-1426,5,0,0,0,629.195801
1626,-1012,6,0,0,0,658.794067
-161,-393,5,1,0,0,153.618652
1478,-204,6,0,0,0,730.251587
-858,-1300,5,0,0,0,717.918091
0,-549,6,0,0,0,1017.935669
-1591,-818,5,0,0,0,678.277527
10,-449,6,1,0,0,138.235825
-1603,-1468,5,0,0,0,622.705322
1719,-1318,6,1,0,0,2.051611
-1940,-477,5,0,0,0,646.746704
729,-453,6,1,0,0,29.893265
-444,-879,5,0,0,0,849.614441
1072,-1863,6,0,0,0,625.895081
-1200,-749,5,0,0,0,745.539124
827,-1089,6,0,0,0,755.265076
-1725,-1656,5,0,0,0,595.579712
1253,-513,6,0,0,0,758.107300
-1677,-1865,5,0,0,0,582.043701
1310,-1068,6,0,0,0,694.525940
-763,-700,5,1,0,0,17.775120
1842,-772,6,0,0,0,646.824341
-601,-1548,5,0,0,0,699.585022
200,-571,6,0,0,0,989.930054
-1338,-1032,5,0,0,0,694.598816
1836,-1434,6,1,0,0,1.651502
-9,-560,5,1,0,0,87.071587
1020,-456,6,0,0,0,813.300842
-1792,-1484,5,1,0,0,1.657759
1201,-1999,6,0,0,0,602.697754
-392,-301,5,0,0,0,1048.235596
1227,-1774,6,0,0,0,624.892090
-1889,-1253,5,1,0,0,1.791858
1346,-321,6,0,0,0,751.859497
-1357,-776,5,0,0,0,716.890686
1791,-182,6,0,0,0,676.484497
-1437,-1558,5,0,0,0,629.884155
325,-728,6,0,0,0,910.427734
-920,-1056,5,0,0,0,748.396423
1328,-1269,6,0,0,0,670.730103
-1530,-1768,5,0,0,0,601.960083
1062,-1995,6,0,0,0,611.609619
-1044,-1692,5,0,0,0,648.122925
1043,-1913,6,0,0,0,622.020691
-645,-969,5,1,0,0,12.735742
1860,-1700,6,1,0,0,1.306620
-92,-622,5,0,0,0,978.830688
881,-1804,6,0,0,0,645.343994
-770,-162,5,0,0,0,914.207397
1017,-816,6,0,0,0,768.921814
-716,-1269,5,0,0,0,737.049744
734,-1345,6,1,0,0,5.722794
-1434,-1886,5,0,0,0,598.200867
95,-1837,6,0,0,0,670.322449
-546,-686,5,0,0,0,883.052490
1556,-1741,6,1,0,0,1.640229
-684,-921,5,1,0,0,13.278963
622,-1201,6,1,0,0,8.247848
-956,-258,5,0,0,0,848.032349
1661,-651,6,0,0,0,679.069702
-1473,-1395,5,0,0,0,642.361328
1120,-1647,6,1,0,0,2.633736
-918,-1256,5,0,0,0,718.266907
650,-978,6,0,0,0,798.994507
-1732,-1381,5,1,0,0,1.919196
1553,-1547,6,0,0,0,620.304016
-1505,-80,5,0,0,0,727.362244
146,-1673,6,0,0,0,696.365173
-1882,-764,5,0,0,0,642.020142
355,-1134,6,0,0,0,795.596741
-1093,-1794,5,1,0,0,2.247686
1889,-1219,6,0,0,0,613.108948
-48,-1571,5,1,0,0,5.309861
371,-1773,6,0,0,0,674.714783
-225,-183,5,0,0,0,1201.972290
343,-1179,6,0,0,0,786.174072
-1993,-1998,5,0,0,0,548.689514
829,-830,6,1,0,0,12.455474
-164,-613,5,0,0,0,976.187805
1634,-1363,6,0,0,0,628.766479
-1600,-370,5,0,0,0,702.766235
201,-201,6,0,0,0,1207.766724
-1632,-243,5,0,0,0,701.415222
1168,-1171,6,0,0,0,700.733765
-528,-95,5,0,0,0,1024.587036
158,-1823,6,0,0,0,671.821045
-827,-84,5,1,0,0,32.588226
1760,-476,6,1,0,0,3.424114
-1371,-1834,5,1,0,0,1.738699
1932,-289,6,1,0,0,2.789925
-1168,-1844,5,0,0,0,621.507629
832,-1995,6,1,0,0,2.064599
-397,-1283,5,0,0,0,760.434448
871,-1712,6,0,0,0,657.957397
-1333,-412,5,0,0,0,749.490784
1749,-1469,6,0,0,0,608.605103
-925,-1993,5,0,0,0,619.634521
1939,-1639,6,0,0,0,578.583984
-1837,-688,5,0,0,0,651.960266
248,-630,6,0,0,0,957.506714
-1432,-368,5,1,0,0,6.355440
713,-1971,6,0,0,0,633.062683
-27,-1011,5,0,0,0,841.949402
107,-869,6,0,0,0,883.446472
-1421,-1917,5,0,0,0,596.172668
1032,-43,6,1,0,0,17.899744
-1320,-152,5,0,0,0,763.506226
1084,-334,6,0,0,0,808.959412
-1742,-1332,5,0,0,0,620.192505
756,-58,6,1,0,0,41.569740
-248,-1880,5,0,0,0,661.629517
1268,-26,6,0,0,0,776.878174
-587,-710,5,0,0,0,868.809509
1106,-1943,6,0,0,0,614.687988
-1344,-759,5,0,0,0,720.525269
144,-1062,6,0,0,0,825.275452
-411,-1468,5,0,0,0,724.085999
1324,-54,6,1,0,0,8.754798
-977,-100,5,0,0,0,850.394958
824,-253,6,1,0,0,29.548351
-631,-1511,5,0,0,0,703.597717
1493,-810,6,0,0,0,693.109192
-1266,-992,5,0,0,0,708.733765
149,-842,6,0,0,0,890.261658
-1967,-675,5,0,0,0,635.302063
758,-1367,6,0,0,0,716.912292
-374,-407,5,0,0,0,1015.976746
1592,-1352,6,0,0,0,634.066956
-492,-395,5,0,0,0,977.834778
1371,-91,6,0,0,0,753.884644
-1494,-764,5,0,0,0,696.594482
1495,-1667,6,0,0,0,614.249756
-375,-1650,5,0,0,0,694.205688
1478,-1633,6,0,0,0,618.943604
-319,-1924,5,0,0,0,653.615417
1525,-1522,6,0,0,0,625.213745
-1069,-1475,5,0,0,0,673.102905
421,-329,6,0,0,0,1025.757446
-1694,-1158,5,1,0,0,2.410383
1059,-419,6,0,0,0,807.798828
-308,-733,5,1,0,0,36.694515
1914,-1359,6,0,0,0,600.832764
-1853,-1079,5,0,0,0,626.577942
471,-1579,6,1,0,0,4.619446
-1353,-858,5,0,0,0,709.847839
-669,-1650,5,0,0,0,679.639282
-370,-753,5,0,0,0,895.731384
-1082,-713,5,0,0,0,770.710571
-1555,-678,5,0,0,0,693.478699
-446,-1659,5,0,0,0,689.870850
-536,-1373,5,0,0,0,733.750916
-750,-1952,5,1,0,0,2.278568
-1209,-1134,5,1,0,0,4.538857
-1941,-89,5,1,0,0,2.834772
-1195,-258,5,1,0,0,11.058654
-763,-1890,5,1,0,0,2.459169
-1738,-1016,5,0,0,0,644.556274
-440,-741,5,0,0,0,888.011780
-1550,-1715,5,0,0,0,605.193176
-1128,-936,5,0,0,0,735.339783
-1378,-640,5,0,0,0,725.042725
-1015,-848,5,1,0,0,8.802619
-1547,-1949,5,0,0,0,584.286133
-1566,-1541,5,1,0,0,1.966758
-1731,-1490,5,0,0,0,608.618591
-1165,-1038,5,0,0,0,717.416687
-1908,-297,5,0,0,0,656.452759
-445,-607,5,0,0,0,927.012390
-722,-1561,5,0,0,0,689.541138
