Algorithm result
CBSD number,Modified GA,,,DP,,,HA,,,BARSPAA,,ES
24,637.601746,75.139999,267.0,636.101746,76.269997,267.0,643.196045,41.900002,267.0,433.305298,635.0,644.163696
25,513.58667,63.310001,267.0,582.606201,72.010002,266.0,643.158752,36.900002,267.0,433.90152,635.0,644.163696
26,387.375824,47.009998,267.0,462.364502,57.880001,266.0,643.228882,38.599998,266.0,434.330963,635.0,644.163696
""
BS power
CBSD number,Modified GA,,,,DP,,,,HA,,,,BARSPAA,,,
24,69.225,4.0,38.925,0.761,70.175,4.0,38.6,0.8015,70.0,4.0,40.0,0.76875,70.0,4.0,40.0,1.0
25,69.475,4.0,38.125,0.7725,71.25,4.0,37.725,0.8475,70.0,4.0,40.0,0.75,70.0,4.0,40.0,1.0
26,69.7,4.0,35.2,0.86,72.037,4.0,35.588,0.91275,70.0,4.0,40.0,0.73125,70.0,4.0,40.0,1.0
