each times' max average throughput
600.242310,616.136902,600.664612,609.755676,588.773926,610.926025,603.651611,609.491150,609.103455,602.417725,605.713318,619.614929,583.739014,608.281006,606.778931,602.560425,581.671204,610.922485,596.166138,604.125305,618.064392,605.245972,615.662109,607.235779,611.610596,607.164856,611.237366,614.990601,603.089417,595.432251,614.004333,619.024963,617.171814,603.273560,614.467407,612.353210,616.971924,598.671753,596.436096,593.884583,604.059387,595.311157,597.292480,603.639465,617.069153,600.444397,609.636047,613.217590,604.029907,603.112122,597.718018,616.746216,603.676331,607.517700,585.291504,618.028625,612.090942,596.500122,585.819458,605.290894,611.301819,617.594421,611.481873,609.661743,613.617737,603.575073,602.460938,606.835144,602.751953,600.091064,609.855042,602.384216,620.799316,606.296570,606.728210,600.380676,612.541931,598.823120,599.289917,599.602722,602.345520,593.230652,613.757874,603.984558,592.658752,601.597107,609.276855,607.867981,605.048767,599.752625,620.234314,599.934204,607.023926,599.771606,588.489563,595.004089,608.726196,603.763184,612.104126,607.836365,
avg. throughput in all test times
605.316895
avg. BS TX power in all test times
MBS area 1,MBS area 2,MBS area 3,CBSD 1,CBSD 2,CBSD 3,CBSD 4,CBSD 5,CBSD 6,CBSD 7,
8.250,8.300,9.137,0.317,0.270,0.304,0.352,0.324,0.240,0.219,
avg. mbs all power,avg. cbsd enable number,avg. mbs area all power,avg. cbsd all power
46.088,2.000,25.688,2.026
avg. max avg. throughput generation number in all test times
0.880000
avg. number of relay UE
127

the max average throughput times

BS TX power
MBS area 1,MBS area 2,MBS area 3,CBSD 1,CBSD 2,CBSD 3,CBSD 4,CBSD 5,CBSD 6,CBSD 7,
10.000,8.750,8.750,0.000,0.000,0.500,1.000,0.000,0.875,0.000,
max average throughput
607.836365

x,y,area,be blocked (1 : NLOS / 0 : LOS),be blocked number (>=1 : CBSD(x) / 0 : no),connect bs number (>=1 : CBSD / 0 : MBS),throughput (unit : M bps)
1962,690,1,0,0,0,676.336365
1444,-1040,2,1,0,3,313.150024
-1910,454,3,0,0,0,673.740601
1748,1058,1,0,0,0,681.405334
1376,-1931,2,1,0,3,186.101379
-183,-1373,3,0,0,0,773.697083
1387,1268,1,0,0,0,705.348572
1561,-1948,2,0,0,0,605.259827
-198,-380,3,1,0,4,126.099686
669,1163,1,0,0,0,802.037109
1709,-884,2,0,0,0,679.495117
-1109,1844,3,1,0,4,126.099686
713,324,1,0,0,0,957.003235
1196,-939,2,0,0,0,746.919861
-388,-42,3,0,0,0,1138.573486
1513,279,1,0,0,0,762.715454
848,-457,2,0,0,0,878.141846
-999,-1702,3,0,0,0,672.243530
1734,75,1,0,0,0,728.130493
1620,-1937,2,0,0,0,601.993286
-186,-1576,3,0,0,0,734.666016
1228,861,1,1,0,6,254.939087
919,-270,2,0,0,0,879.778687
-506,1710,3,0,0,0,701.238953
1716,519,1,0,0,0,718.845032
1601,-962,2,0,0,0,687.989380
-157,1450,3,0,0,0,758.885132
236,1620,1,1,0,6,122.394447
522,-1580,2,1,0,3,229.692230
-357,-616,3,1,0,4,126.099686
1316,534,1,0,0,0,785.692078
887,-1777,2,0,0,0,670.431885
-58,-595,3,0,0,0,1015.595642
1390,441,1,1,0,6,238.583527
970,-1395,2,0,0,0,715.091492
-1865,-1600,3,1,0,4,126.099686
1953,782,1,1,0,6,154.168304
1938,-236,2,1,0,3,185.916946
-263,1267,3,0,0,0,793.248291
526,913,1,0,0,0,871.546204
873,-421,2,0,0,0,876.381714
-244,-1228,3,1,0,4,126.099686
1454,1485,1,1,0,6,149.125961
257,-327,2,1,0,4,126.099686
-1060,1706,3,1,0,4,126.099686
1832,1796,1,0,0,0,616.466675
1577,-164,2,0,0,0,734.924927
-1154,490,3,1,0,4,126.099686
679,653,1,1,0,6,238.728851
1202,-710,2,0,0,0,771.448059
-438,-1597,3,0,0,0,722.457581
271,770,1,1,0,6,167.578384
806,-1248,2,0,0,0,753.587708
-1207,940,3,1,0,4,126.099686
1844,915,1,0,0,0,679.274109
1678,-979,2,0,0,0,676.742126
-54,-1502,3,0,0,0,750.260498
13,549,1,1,0,4,126.099686
190,-271,2,0,0,0,1186.110596
-468,-1311,3,0,0,0,772.272644
720,1577,1,1,0,6,143.765747
280,-1532,2,0,0,0,740.058716
-199,-1392,3,0,0,0,769.373779
1323,523,1,1,0,6,265.172699
1398,-1806,2,0,0,0,630.565796
-1831,95,3,0,0,0,693.297180
391,245,1,0,0,0,1109.527466
1218,-215,2,1,0,3,262.842102
-883,-550,3,0,0,0,856.013489
807,916,1,0,0,0,829.190613
1754,-1440,2,0,0,0,632.377686
-473,608,3,1,0,4,126.099686
1900,1095,1,1,0,6,148.110855
716,-1769,2,1,0,3,213.997849
-44,-1142,3,0,0,0,828.961243
215,323,1,0,0,0,1159.501831
343,-744,2,0,0,0,924.785278
-1009,-1272,3,0,0,0,728.117859
1007,728,1,0,0,0,824.097839
677,-680,2,0,0,0,879.266907
-915,-377,3,0,0,0,870.382141
910,1472,1,1,0,6,158.069885
1871,-107,2,0,0,0,687.031494
-558,-875,3,0,0,0,856.706604
1153,333,1,0,0,0,834.099304
1830,-1692,2,0,0,0,605.708618
-892,-1298,3,0,0,0,736.840393
385,206,1,1,0,4,126.099686
1220,-324,2,0,0,0,800.380493
-796,1438,3,0,0,0,724.605591
1423,321,1,0,0,0,778.000610
1402,-924,2,0,0,0,718.483093
-1489,182,3,0,0,0,750.812439
1114,931,1,0,0,0,779.371094
1087,-719,2,0,0,0,791.197571
-1489,875,3,1,0,4,126.099686
1390,1492,1,1,0,6,150.872818
805,-1755,2,0,0,0,678.498047
-205,1233,3,0,0,0,803.209839
119,719,1,0,0,0,977.743408
1812,-1070,2,0,0,0,653.912231
-1970,-141,3,0,0,0,672.024414
1249,1885,1,1,0,6,122.715729
1651,-1128,2,0,0,0,668.500488
-197,839,3,1,0,4,126.099686
887,1461,1,1,0,6,158.794739
1878,-1702,2,0,0,0,600.942810
-276,-1151,3,1,0,4,126.099686
1740,1427,1,0,0,0,653.825500
250,-47,2,0,0,0,1262.037842
-953,-1890,3,0,0,0,652.244080
1231,1763,1,0,0,0,666.816528
839,-1633,2,1,0,3,242.286713
-541,-576,3,0,0,0,935.179382
587,1827,1,0,0,0,699.358521
1692,-1534,2,1,0,3,208.718460
-662,981,3,1,0,4,126.099686
1861,491,1,0,0,0,698.509583
1431,-1065,2,0,0,0,701.155701
-141,207,3,1,0,0,356.184509
302,792,1,0,0,0,934.213257
419,-337,2,0,0,0,1046.149414
-393,822,3,0,0,0,894.178162
1496,1010,1,0,0,0,716.892700
507,-112,2,0,0,0,1056.235840
-332,312,3,1,0,4,126.099686
364,644,1,0,0,0,973.437317
1441,-1631,2,0,0,0,644.307007
-1590,-784,3,0,0,0,702.931519
725,45,1,0,0,0,978.688477
1584,-1946,2,0,0,0,603.795593
-359,879,3,0,0,0,882.301392
1378,1103,1,0,0,0,723.306519
292,-189,2,0,0,0,1171.778931
-1205,-1278,3,0,0,0,705.572937
1387,1441,1,0,0,0,687.515686
169,-1347,2,0,0,0,779.473755
-1341,-1329,3,0,0,0,684.911804
195,1926,1,0,0,0,696.854187
1275,-1726,2,0,0,0,648.336731
-1618,-732,3,0,0,0,702.431763
1443,1353,1,0,0,0,690.675598
896,-1734,2,0,0,0,675.405762
-854,1677,3,0,0,0,685.832642
979,199,1,0,0,0,886.882080
1385,-549,2,0,0,0,752.778320
-642,1705,3,0,0,0,695.113403
1010,57,1,0,0,0,883.277283
100,-582,2,1,0,4,126.099686
-669,-708,3,0,0,0,874.940125
1165,1095,1,0,0,0,751.677551
811,-1833,2,0,0,0,667.808044
-325,815,3,0,0,0,905.033325
763,1679,1,0,0,0,710.735718
1706,-897,2,0,0,0,678.997620
-219,319,3,1,0,4,126.099686
1654,79,1,0,0,0,741.617065
1729,-1810,2,0,0,0,604.484009
-472,-822,3,0,0,0,882.789978
644,853,1,0,0,0,867.443970
1495,-1087,2,0,0,0,690.974976
-1010,-1442,3,0,0,0,704.917480
273,741,1,0,0,0,954.611877
743,-1826,2,0,0,0,672.555115
-1388,-427,3,1,0,4,126.099686
1601,386,1,1,0,6,195.639374
1880,-979,2,1,0,3,220.300491
-931,575,3,0,0,0,841.460449
713,577,1,0,0,0,911.481934
346,-915,2,0,0,0,873.714355
-1636,-696,3,0,0,0,702.106812
465,1337,1,0,0,0,786.636658
1735,-1277,2,1,0,3,228.065399
-1338,1693,3,0,0,0,646.741455
165,1158,1,1,0,6,142.441162
648,-1029,2,0,0,0,811.111328
-1798,1430,3,0,0,0,628.891846
655,1951,1,1,0,6,115.651047
1628,-1875,2,0,0,0,606.759644
-1752,-712,3,0,0,0,684.434204
1283,1765,1,0,0,0,662.622437
162,-1646,2,0,0,0,722.807800
-1246,-873,3,0,0,0,746.764343
428,900,1,0,0,0,887.584595
324,-77,2,0,0,0,1184.325562
-131,-1449,3,1,0,4,126.099686
1504,755,1,0,0,0,736.981201
272,-1687,2,0,0,0,713.461792
-152,-1680,3,0,0,0,717.161743
1913,488,1,0,0,0,691.230286
1344,-768,2,1,0,3,357.445312
-1992,1187,3,0,0,0,626.236511
1588,409,1,0,0,0,744.412964
192,-1879,2,1,0,4,126.099686
-337,-520,3,0,0,0,1005.255737
254,1283,1,0,0,0,809.368713
1573,-1889,2,0,0,0,609.632263
-1417,-171,3,0,0,0,765.091675
1419,252,1,0,0,0,781.477844
1203,-1048,2,0,0,0,733.129028
-513,1501,3,0,0,0,734.791443
1918,1047,1,0,0,0,662.214539
1817,-921,2,1,0,3,232.229782
-1114,-1826,3,0,0,0,649.251465
1187,31,1,0,0,0,837.164185
1612,-354,2,0,0,0,723.422058
-1956,-256,3,1,0,4,126.099686
1901,1593,1,1,0,6,122.204048
1758,-854,2,0,0,0,675.019592
-698,-193,3,0,0,0,960.323120
1958,1990,1,0,0,0,592.451782
1199,-994,2,1,0,3,417.467834
-926,1050,3,0,0,0,770.634888
1973,1265,1,1,0,6,134.792267
1763,-329,2,0,0,0,699.615479
-1213,421,3,0,0,0,795.483643
1540,310,1,0,0,0,756.736328
719,-5,2,0,0,0,962.389282
-803,206,3,1,0,4,126.099686
1995,1282,1,0,0,0,638.874451
1793,-1951,2,0,0,0,588.318665
-653,419,3,0,0,0,940.462585
1932,1397,1,0,0,0,637.344543
1214,-1993,2,1,0,3,184.183456
-215,-285,3,0,0,0,1164.270630
328,1624,1,0,0,0,741.460083
1583,-1140,2,0,0,0,675.559204
-1800,-91,3,1,0,4,126.099686
489,948,1,1,0,6,185.245834
980,-1736,2,0,0,0,669.363831
-193,-1478,3,0,0,0,752.642151
174,1873,1,0,0,0,705.072876
1278,-1563,2,0,0,0,665.737915
-1891,1184,3,0,0,0,637.229126
1901,1222,1,0,0,0,652.614075
1139,-924,2,0,0,0,757.278381
-264,-938,3,0,0,0,874.831665
1663,1441,1,1,0,6,142.927048
1096,-72,2,0,0,0,840.381653
-1303,-888,3,0,0,0,736.500549
1723,69,1,0,0,0,729.993225
1746,-303,2,0,0,0,703.042419
-574,-72,3,0,0,0,1025.067627
589,557,1,0,0,0,947.060059
1931,-128,2,0,0,0,677.844055
-283,-1311,3,0,0,0,782.957275
995,1339,1,0,0,0,739.488831
1994,-1309,2,0,0,0,618.196472
-433,-316,3,1,0,4,126.099686
1851,1489,1,1,0,6,130.201736
1070,-401,2,0,0,0,829.005188
-545,-1535,3,0,0,0,727.186462
1311,1983,1,0,0,0,638.179871
1986,-1661,2,0,0,0,594.897217
-1800,517,3,1,0,4,126.099686
482,1063,1,0,0,0,842.108093
1361,-1883,2,1,0,3,192.722244
-98,-165,3,0,0,0,1343.340332
78,329,1,1,0,0,258.999817
1861,-1951,2,0,0,0,583.387451
-19,-2000,3,0,0,0,668.422668
1355,1468,1,0,0,0,687.845093
881,-1955,2,1,0,3,191.668259
-914,-1501,3,1,0,4,126.099686
350,1365,1,0,0,0,787.937805
1329,-160,2,0,0,0,783.514893
-244,1465,3,0,0,0,753.677429
611,1499,1,0,0,0,748.125732
928,-612,2,0,0,0,836.926697
-806,1413,3,0,0,0,727.567444
59,271,1,1,0,0,333.593323
983,-1320,2,0,0,0,724.222412
-1135,-1552,3,0,0,0,679.696594
976,1921,1,0,0,0,666.221985
1016,-1491,2,1,0,3,275.875977
-532,-1217,3,0,0,0,785.754944
1766,1499,1,1,0,6,133.863602
1578,-1838,2,0,0,0,613.794250
-242,666,3,0,0,0,966.593262
167,770,1,0,0,0,955.265198
1633,-864,2,0,0,0,691.117737
-66,1160,3,0,0,0,824.211975
768,1046,1,1,0,6,206.342682
934,-812,2,0,0,0,806.054077
-567,-839,3,0,0,0,863.768555
38,1415,1,0,0,0,786.645508
601,-649,2,1,0,3,334.717316
-1610,66,3,1,0,4,126.099686
550,1771,1,0,0,0,709.155701
994,-613,2,0,0,0,822.744385
-625,-222,3,1,0,4,126.099686
1022,424,1,0,0,0,857.478333
1197,-1195,2,0,0,0,716.391846
-915,-1125,3,0,0,0,760.534058
1680,490,1,0,0,0,725.765320
1510,-1517,2,0,0,0,649.060730
-94,1076,3,1,0,4,126.099686
1712,1646,1,0,0,0,638.451294
419,-1603,2,0,0,0,722.305298
-864,557,3,1,0,4,126.099686
120,499,1,0,0,0,1078.838745
1372,-242,2,0,0,0,772.035583
-776,1667,3,0,0,0,692.470703
608,1628,1,0,0,0,727.766113
1214,-874,2,0,0,0,751.616272
-1896,-1132,3,0,0,0,640.165466
259,1343,1,0,0,0,796.508789
1578,-1326,2,0,0,0,659.831970
-654,-11,3,0,0,0,989.664001
640,799,1,0,0,0,879.850769
1111,-394,2,0,0,0,820.054810
-613,615,3,0,0,0,908.030273
1105,1401,1,0,0,0,720.197510
611,-514,2,0,0,0,932.197937
-238,-869,3,1,0,4,126.099686
579,1837,1,0,0,0,698.300903
853,-1653,2,1,0,3,238.943878
-319,-1820,3,0,0,0,691.077026
85,683,1,0,0,0,994.228333
1626,-38,2,0,0,0,727.615540
-1949,-335,3,0,0,0,671.656860
857,317,1,0,0,0,912.574829
1501,-673,2,1,0,3,296.518188
-461,317,3,0,0,0,1034.708618
1224,14,1,0,0,0,828.414307
820,-1957,2,1,0,3,190.447357
-1478,502,3,1,0,4,126.099686
479,1896,1,0,0,0,693.952515
1193,-1073,2,0,0,0,731.501282
-1808,737,3,0,0,0,675.313599
427,1541,1,1,0,6,135.520569
1861,-1859,2,1,0,3,163.833405
-837,-510,3,0,0,0,873.154541
167,1368,1,0,0,0,794.329834
1194,-1193,2,0,0,0,716.991577
-1164,-997,3,0,0,0,744.656616
284,953,1,0,0,0,888.212097
96,-1313,2,1,0,4,126.099686
-1426,1400,3,1,0,4,126.099686
1688,979,1,0,0,0,694.570435
858,-361,2,1,0,3,308.194122
-1119,-807,3,0,0,0,774.839844
1121,1347,1,0,0,0,725.365723
1454,-973,2,0,0,0,706.712952
-793,-112,3,1,0,4,126.099686
190,1445,1,0,0,0,778.260254
597,-625,2,0,0,0,909.365723
-1808,958,3,0,0,0,661.921997
840,905,1,0,0,0,825.916626
611,-1517,2,1,0,3,248.710739
-1953,-762,3,1,0,4,126.099686
727,200,1,1,0,6,208.798309
39,-532,2,0,0,0,1048.453857
-1835,1586,3,0,0,0,613.448486
539,-1016,2,0,0,0,827.136780
-1067,926,3,0,0,0,768.022400
1353,-138,2,0,0,0,778.954041
-1239,-497,3,0,0,0,784.295349
1503,-379,2,0,0,0,741.411682
-656,-843,3,1,0,4,126.099686
-1539,1466,3,1,0,4,126.099686
-1930,-1652,3,0,0,0,600.274109
-801,757,3,0,0,0,839.401489
-82,-890,3,0,0,0,899.713684
-213,1883,3,0,0,0,683.851135
-687,1650,3,1,0,4,126.099686
-486,1752,3,0,0,0,695.696411
-832,-1914,3,0,0,0,656.272461
-1852,1126,3,0,0,0,645.482056
-368,1203,3,0,0,0,801.352722
-324,133,3,0,0,0,1169.789917
-954,1722,3,0,0,0,672.957275
-1144,-1830,3,0,0,0,646.706360
-1153,1948,3,0,0,0,633.098999
-1483,-1091,3,0,0,0,692.111023
-1980,-402,3,0,0,0,665.536682
-361,-1016,3,0,0,0,845.704468
-745,-389,3,1,0,4,126.099686
-132,-1672,3,0,0,0,718.807312
-87,-1779,3,0,0,0,701.587036
-734,-532,3,0,0,0,895.634216
-1891,-1847,3,0,0,0,589.006348
-1706,1110,3,1,0,4,126.099686
-998,716,3,1,0,4,126.099686
-859,-906,3,0,0,0,803.541077
-8,-1843,3,0,0,0,691.809937
-1914,-787,3,1,0,4,126.099686
-1583,1319,3,0,0,0,659.923035
-1569,1901,3,0,0,0,608.860046
-1344,-1381,3,0,0,0,679.057129
-416,-33,3,0,0,0,1119.251587
-255,-1755,3,1,0,4,126.099686
-1126,849,3,1,0,4,126.099686
-1874,160,3,0,0,0,686.001282
-1253,648,3,1,0,4,126.099686
-1894,1152,3,0,0,0,639.056030
-1165,-146,3,0,0,0,821.199036
-341,1884,3,0,0,0,680.907959
-932,1631,3,0,0,0,686.353027
-1998,729,3,1,0,4,126.099686
-1933,-1898,3,0,0,0,582.045471
-953,-311,3,0,0,0,866.671875
-861,-1692,3,1,0,4,126.099686
-988,480,3,0,0,0,840.364502
-1672,1459,3,1,0,4,126.099686
-1231,146,3,0,0,0,805.587708
-723,289,3,1,0,4,126.099686
-1025,1250,3,0,0,0,729.370667
-1275,1043,3,1,0,4,126.099686
-1905,-969,3,1,0,4,126.099686
-1502,-201,3,0,0,0,747.899170
-384,235,3,0,0,0,1097.369263
-1672,-1678,3,0,0,0,620.166809
-661,146,3,0,0,0,979.771423
-1131,663,3,0,0,0,789.499023
-1212,-1765,3,1,0,4,126.099686
-1090,-1663,3,1,0,4,126.099686
-772,-1709,3,0,0,0,686.845276
-1193,1221,3,0,0,0,713.749695
-766,-1620,3,1,0,4,126.099686
-1319,76,3,0,0,0,787.275635
-1599,914,3,0,0,0,692.000183
-1507,168,3,1,0,4,126.099686
-1659,1346,3,0,0,0,649.603333
-1257,1434,3,0,0,0,682.056702
-305,-1186,3,0,0,0,809.096252
-924,-511,3,0,0,0,851.729187
-384,-1889,3,0,0,0,678.969482
-1613,-723,3,0,0,0,703.765747
-1699,963,3,1,0,4,126.099686
-1438,-1279,3,1,0,4,126.099686
-763,-1986,3,0,0,0,650.784668
-913,714,3,0,0,0,824.915771
-677,-704,3,1,0,4,126.099686
-1311,-337,3,0,0,0,780.308655
-1672,1296,3,0,0,0,652.406982
-784,1452,3,0,0,0,723.469421
-933,12,3,0,0,0,887.320312
-397,-1449,3,0,0,0,750.369141
-683,-765,3,0,0,0,860.123718
-1381,185,3,0,0,0,772.002991
-1317,-903,3,0,0,0,732.882202
-754,-920,3,0,0,0,817.454529
-1793,1236,3,0,0,0,644.129639
-528,-810,3,0,0,0,877.070740
-1404,1026,3,0,0,0,708.452271
-234,-984,3,0,0,0,864.105591
-378,-1534,3,0,0,0,735.943115
-1745,1200,3,0,0,0,652.093872
-1561,-393,3,0,0,0,730.580261
-630,524,3,1,0,4,126.099686
-1446,1033,3,0,0,0,702.238586
-1612,-100,3,0,0,0,729.622253
-532,1610,3,0,0,0,715.678101
-1819,1157,3,0,0,0,647.019592
-1678,796,3,1,0,4,126.099686
-1904,397,3,0,0,0,676.412964
-1231,743,3,0,0,0,762.973877
-1902,959,3,0,0,0,650.441040
-1410,114,3,1,0,4,126.099686
-472,-1772,3,1,0,4,126.099686
-1128,-648,3,0,0,0,791.726562
-979,-1917,3,1,0,4,126.099686
-1618,1794,3,1,0,4,126.099686
-1270,113,3,0,0,0,797.497314
-855,-1052,3,1,0,4,126.099686
-1879,-82,3,1,0,4,126.099686
-66,-1807,3,0,0,0,697.267517
-641,-1605,3,0,0,0,710.214661
-190,578,3,0,0,0,1010.525513
-1559,1260,3,1,0,4,126.099686
-1044,228,3,0,0,0,848.283569
-1737,-552,3,0,0,0,694.997803
-418,-1439,3,0,0,0,751.118713
-524,-1013,3,0,0,0,829.552124
-117,1310,3,1,0,4,126.099686
-248,-1419,3,0,0,0,762.443359
-895,88,3,0,0,0,897.932190
-1195,1947,3,0,0,0,630.489746
-1809,-136,3,0,0,0,696.335266
-1724,1087,3,1,0,4,126.099686
-1065,1822,3,1,0,4,126.099686
-1396,-163,3,1,0,4,126.099686
-913,1294,3,0,0,0,735.257446
-1309,-1112,3,0,0,0,711.994263
-1934,-732,3,0,0,0,658.900208
-898,-1940,3,0,0,0,649.415894
-1983,1297,3,0,0,0,620.084778
-723,1955,3,0,0,0,656.629028
-1411,1090,3,0,0,0,701.289246
-1965,-631,3,0,0,0,659.462036
-1716,1462,3,0,0,0,634.271912
-83,217,3,1,0,0,386.215179
-1154,-476,3,0,0,0,803.580200
-1726,92,3,1,0,4,126.099686
-1274,1822,3,0,0,0,638.234192
-179,-1986,3,0,0,0,669.286804
-1017,822,3,0,0,0,790.232910
-1315,491,3,1,0,4,126.099686
-1313,-1516,3,1,0,4,126.099686


each generation good chromosome number
4,7,9,