599.942139,599.942139,599.942139,599.942139,599.942139,599.942139,599.942139,599.942139,599.942139,599.942139,599.942139,599.942139,599.942139,599.942139,599.942139,599.942139,599.942139,599.942139,599.942139,599.942139,599.942139,599.942139,599.942139,599.942139,599.942139,599.942139,599.942139,599.942139,599.942139,599.942139,599.942139,599.942139,599.942139,599.942139,599.942139,599.942139,599.942139,599.942139,599.942139,599.942139,599.942139,599.942139,599.942139,599.942139,599.942139,599.942139,599.942139,599.942139,599.942139,599.942139,599.942139,599.942139,599.942139,599.942139,599.942139,599.942139,599.942139,599.942139,599.942139,599.942139,599.942139,599.942139,599.942139,599.942139,599.942139,599.942139,599.942139,599.942139,599.942139,599.942139,599.942139,599.942139,599.942139,599.942139,599.942139,599.942139,599.942139,599.942139,599.942139,599.942139,599.942139,599.942139,599.942139,599.942139,599.942139,599.942139,599.942139,599.942139,599.942139,599.942139,599.942139,599.942139,599.942139,599.942139,599.942139,599.942139,599.942139,599.942139,599.942139,599.942139,

avg. max avg. throughput in test times
599.941650
avg. BS TX power in all test times
MBS area 1,MBS area 2,MBS area 3,MBS area 4,MBS area 5,MBS area 6,CBSD 1,CBSD 2,CBSD 3,CBSD 4,CBSD 5,CBSD 6,CBSD 7,CBSD 8,CBSD 9,CBSD 10,
7.500,5.000,7.500,7.500,7.500,7.500,0.000,0.000,0.000,0.000,1.000,0.000,0.000,0.000,0.000,0.000,
avg. mbs all power,avg. cbsd enable number,avg. mbs area all power,avg. cbsd all power
50.000,1.000,42.500,1.000
avg. number of relay UE
36

BS TX power
MBS area 1,MBS area 2,MBS area 3,MBS area 4,MBS area 5,MBS area 6,CBSD 1,CBSD 2,CBSD 3,CBSD 4,CBSD 5,CBSD 6,CBSD 7,CBSD 8,CBSD 9,CBSD 10,
7.500,5.000,7.500,7.500,7.500,7.500,0.000,0.000,0.000,0.000,1.000,0.000,0.000,0.000,0.000,0.000,
max average power
624.614502

x,y,area,be blocked (1 : NLOS / 0 : LOS),be blocked number (>=1 : CBSD(x) / 0 : no),connect bs number (>=1 : CBSD / 0 : MBS),throughput (unit : M bps)
618,1069,1,0,0,0,784.564087
824,280,2,0,0,0,826.850830
-1240,122,3,0,0,0,781.968628
-1023,1133,4,1,0,5,260.348389
-1537,-1972,5,0,0,0,582.934021
172,-864,6,0,0,0,881.679321
1122,1272,1,0,0,0,693.520386
969,247,2,0,0,0,786.913208
-711,698,3,1,0,5,260.348389
-1264,1970,4,0,0,5,260.348389
-64,-1251,5,1,0,5,260.348389
1602,-567,6,0,0,0,692.973450
358,1408,1,0,0,0,737.889099
440,280,2,0,0,0,974.290955
-540,58,3,1,0,5,260.348389
-106,1782,4,0,0,5,260.348389
-1406,-1939,5,0,0,0,595.118896
1603,-572,6,1,0,5,260.348389
826,1095,1,0,0,0,754.388794
1683,363,2,0,0,0,631.348816
-1685,1648,3,0,0,5,260.348389
-575,1397,4,0,0,5,260.348389
-841,-1558,5,0,0,0,681.245850
1192,-1112,6,0,0,0,704.878479
1303,1965,1,1,0,5,260.348389
280,52,2,0,0,0,1148.749023
-1742,210,3,0,0,0,683.822693
-162,628,4,0,0,0,969.898682
-767,-1912,5,0,0,0,637.986023
1784,-1026,6,0,0,0,638.278503
779,1772,1,0,0,0,655.759644
476,168,2,0,0,0,983.704590
-1029,928,3,1,0,5,260.348389
-520,899,4,0,0,5,260.348389
-688,-1100,5,0,0,0,770.347351
1877,-1348,6,0,0,0,605.286011
959,1030,1,0,0,0,747.010315
1206,537,2,0,0,0,707.225403
-1916,98,3,0,0,0,658.303040
-952,1040,4,1,0,5,260.348389
-761,-1044,5,1,0,5,260.348389
1329,-338,6,1,0,5,260.348389
270,1960,1,0,0,0,649.512390
1702,483,2,0,0,0,623.596863
-1381,20,3,0,0,0,752.399902
-333,390,4,0,0,0,1037.588013
-1337,-814,5,0,0,0,716.507629
457,-1995,6,1,0,5,260.348389
857,969,1,0,0,0,771.197388
336,24,2,0,0,0,1100.319946
-1597,1441,3,1,0,5,260.348389
-1262,1863,4,1,0,5,260.348389
-376,-35,5,0,0,0,1125.839844
1538,-1099,6,0,0,0,662.532104
1361,1790,1,0,0,0,613.049011
1073,873,2,0,0,0,693.853210
-1547,1289,3,0,0,5,260.348389
-1246,1842,4,0,0,5,260.348389
-547,-25,5,0,0,0,1018.686768
1373,-696,6,0,0,0,721.301636
45,1797,1,1,0,5,260.348389
-1691,931,3,0,0,5,260.348389
-147,1658,4,1,0,5,260.348389
-941,-96,5,0,0,0,861.208984
672,-1198,6,0,0,0,753.970886
220,946,1,1,0,5,260.348389
-1440,806,3,1,0,5,260.348389
-411,450,4,1,0,5,260.348389
-239,-512,5,0,0,0,1009.635742
1605,-883,6,0,0,0,671.504761
-945,1354,4,0,0,5,260.348389
-1678,-1644,5,1,0,5,260.348389
955,-661,6,0,0,0,802.159790
-1475,-996,5,0,0,0,679.748840
664,-606,6,0,0,0,875.853699
-102,-1227,5,0,0,0,785.391296
1720,-368,6,0,0,0,683.120300
-623,-401,5,0,0,0,931.543823
203,-610,6,0,0,0,972.428040
-1398,-1585,5,1,0,5,260.348389
80,-678,6,0,0,0,955.112793
-1889,-1154,5,0,0,0,617.517883
646,-876,6,0,0,0,820.824158
-433,-1507,5,1,0,5,260.348389
893,-1332,6,0,0,0,709.574585
-1079,-77,5,0,0,0,822.597351
888,-1847,6,1,0,5,260.348389
-1168,-890,5,0,0,0,734.817383
1163,-1467,6,0,0,0,665.300049
-531,-1408,5,0,0,0,727.804871
1136,-636,6,1,0,5,260.348389
-208,-766,5,1,0,5,260.348389
-567,-1485,5,0,0,0,712.100708
-1457,-1033,5,1,0,5,260.348389
-1598,-1467,5,0,0,0,623.276978
-60,-449,5,0,0,0,1073.360474
-561,-781,5,1,0,5,260.348389
-251,-514,5,0,0,0,1006.098938
-180,-62,5,0,0,0,1323.413086
-310,-1367,5,1,0,5,260.348389
