534.136658,534.136658,534.136658,534.136658,534.136658,534.136658,534.136658,534.136658,534.136658,534.136658,534.136658,534.136658,534.136658,534.136658,534.136658,534.136658,534.136658,534.136658,534.136658,534.136658,534.136658,534.136658,534.136658,534.136658,534.136658,534.136658,534.136658,534.136658,534.136658,534.136658,534.136658,534.136658,534.136658,534.136658,534.136658,534.136658,534.136658,534.136658,534.136658,534.136658,534.136658,534.136658,534.136658,534.136658,534.136658,534.136658,534.136658,534.136658,534.136658,534.136658,534.136658,534.136658,534.136658,534.136658,534.136658,534.136658,534.136658,534.136658,534.136658,534.136658,534.136658,534.136658,534.136658,534.136658,534.136658,534.136658,534.136658,534.136658,534.136658,534.136658,534.136658,534.136658,534.136658,534.136658,534.136658,534.136658,534.136658,534.136658,534.136658,534.136658,534.136658,534.136658,534.136658,546.208191,546.208191,546.208191,546.208191,546.208191,546.208191,546.208191,546.208191,546.208191,546.208191,546.208191,546.208191,546.208191,546.208191,546.208191,546.208191,546.208191,

avg. max avg. throughput in test times
536.188660
avg. BS TX power in all test times
MBS area 1,MBS area 2,MBS area 3,MBS area 4,MBS area 5,MBS area 6,MBS area 7,CBSD 1,CBSD 2,CBSD 3,CBSD 4,CBSD 5,CBSD 6,CBSD 7,CBSD 8,CBSD 9,CBSD 10,
5.000,5.000,5.000,5.000,5.000,5.000,5.000,0.000,0.000,0.000,0.000,1.000,0.000,0.170,0.000,0.830,0.000,
avg. mbs all power,avg. cbsd enable number,avg. mbs area all power,avg. cbsd all power
50.000,2.000,35.000,2.000
avg. number of relay UE
33

BS TX power
MBS area 1,MBS area 2,MBS area 3,MBS area 4,MBS area 5,MBS area 6,MBS area 7,CBSD 1,CBSD 2,CBSD 3,CBSD 4,CBSD 5,CBSD 6,CBSD 7,CBSD 8,CBSD 9,CBSD 10,
5.000,5.000,5.000,5.000,5.000,5.000,5.000,0.000,0.000,0.000,0.000,1.000,0.000,1.000,0.000,0.000,0.000,
max average power
0.000000

x,y,area,be blocked (1 : NLOS / 0 : LOS),be blocked number (>=1 : CBSD(x) / 0 : no),connect bs number (>=1 : CBSD / 0 : MBS),throughput (unit : M bps)
742,1770,1,1,0,5,246.163681
1663,754,2,0,0,0,614.613037
-923,255,3,0,0,0,799.365356
-671,1282,4,0,0,0,680.972290
-201,-1314,5,0,0,0,705.251526
-1996,-1609,6,1,0,7,149.621735
1188,-1657,7,1,0,7,440.665802
1216,1383,1,0,0,0,612.191101
1433,794,2,0,0,0,645.509888
-661,77,3,0,0,0,904.075623
-229,1797,4,0,0,0,616.867798
-512,-818,5,0,0,0,797.139587
-1135,-12,6,1,0,5,338.009796
1935,-495,7,1,0,7,293.070618
202,1606,1,0,0,0,648.946228
600,247,2,1,0,7,284.897644
-1820,1461,3,0,0,0,545.083191
-87,1524,4,0,0,0,665.685242
-748,-1745,5,0,0,0,603.526062
-1723,-1384,6,0,0,0,560.474243
1975,-1449,7,0,0,0,531.460266
1308,1423,1,0,0,0,598.445801
1803,971,2,0,0,0,582.045471
-1045,99,3,0,0,0,772.981995
-177,1075,4,0,0,0,762.297607
-1449,-1925,5,0,0,0,536.108643
-1823,-403,6,0,0,0,608.288208
1210,-112,7,0,0,0,730.970337
995,1282,1,0,0,0,648.212646
535,418,2,0,0,0,898.307800
-1212,55,3,1,0,5,344.217163
-768,1192,4,0,0,5,717.815002
-406,-1523,5,1,0,7,311.022888
-1038,-247,6,0,0,0,768.286743
1110,-1817,7,0,0,0,571.007751
947,1325,1,0,0,0,647.193237
1597,795,2,0,0,0,621.236328
-710,66,3,0,0,0,884.185669
-325,1634,4,1,0,5,413.769562
-1079,-1874,5,1,0,7,213.121490
-1658,-409,6,0,0,0,633.675171
1501,-844,7,1,0,7,404.578186
757,1616,1,0,0,0,621.143555
1282,1219,2,1,0,5,207.147583
-1644,1000,3,0,0,0,599.707825
-632,1493,4,0,0,0,648.487793
-602,-1704,5,0,0,0,617.547119
-1450,-1382,6,0,0,0,588.308411
1649,-323,7,1,0,7,315.355804
1236,1302,1,1,0,5,210.493896
1164,44,2,0,0,0,743.104675
-1981,1560,3,0,0,0,523.321228
-1044,1562,4,0,0,0,606.503784
-1295,-1536,5,0,0,0,587.466370
-460,-128,6,0,0,0,999.731201
204,-1287,7,0,0,0,710.956604
652,1349,1,1,0,5,277.025299
1780,847,2,0,0,0,592.857117
-1652,924,3,1,0,5,376.641113
-319,1862,4,1,0,5,363.073944
-569,-1772,5,0,0,0,609.187927
-1606,-780,6,1,0,5,213.792831
1969,-1169,7,0,0,0,550.450562
1529,1946,1,0,0,0,528.571716
1814,851,2,1,0,7,188.938950
-1295,1423,4,0,0,0,599.737976
-974,-1042,5,1,0,7,239.356781
-1954,-1486,6,1,0,7,153.356613
59,-1757,7,0,0,0,625.407593
1689,1754,1,1,0,5,165.610352
1168,1042,2,1,0,5,219.503571
-249,1139,4,0,0,0,742.841614
-1065,-1479,5,1,0,7,225.925522
-2000,-1949,6,1,0,7,144.751083
1690,-435,7,0,0,0,627.505798
876,882,1,0,0,0,724.456299
-933,1108,4,0,0,5,696.276001
-1487,-1812,5,1,0,7,180.946259
-1234,-460,6,0,0,0,707.921204
451,-1656,7,0,0,0,632.241760
55,1156,1,1,0,5,398.133911
-23,1402,4,1,0,5,395.292755
-40,-762,5,1,0,7,382.105865
-1230,-665,6,0,0,0,690.770874
1878,-344,7,0,0,0,601.931396
830,1865,1,1,0,5,232.007034
-696,1708,4,0,0,0,611.758484
-823,-1722,5,0,0,0,602.032959
-745,-623,6,0,0,0,795.317322
1123,-913,7,1,0,7,542.373413
313,742,1,0,0,0,849.166626
-699,-1662,5,1,0,7,262.321930
1571,-1505,7,0,0,0,564.916565
-972,-1525,5,0,0,0,617.355896
168,-737,7,0,0,0,867.388611
1975,-1144,7,0,0,0,551.372681
308,-963,7,0,0,0,783.750061
486,-29,7,0,0,0,994.118713
1980,-1491,7,0,0,0,528.142517
822,-1410,7,1,0,7,633.565308
