mbs coordinate
0,0

cbsd coordinate and channel
-970,900,2
740,900,1
980,-860,1
-750,-850,5
-750,1000,4
1050,600,2
760,-1135,3
-870,-1100,1
-1080,450,1
970,530,3
540,-1000,2
-1200,-300,3
-200,1170,7
820,1255,4
930,-1080,6
-1115,-505,2
-180,1230,3
500,1150,8
1200,-450,10
-500,-1100,7
-650,980,9
1180,450,9
700,-1160,7
-1050,-900,8
-1200,820,10
1200,1000,11
1340,-1120,12
-1440,-1280,10
-1160,1350,13
1420,960,14

building coordinate
-885,985
-1055,815
830,810
650,990
1060,-860
900,-860
-830,-770
-670,-930
-668,1070
-832,930
965,675
1135,525
832,-1059
688,-1211
-965,-1035
-775,-1165
-1135,365
-1025,535
907,591
1033,469
638,-906
442,-1094
-1275,-390
-1125,-210
-298,1123
-102,1217
910,1206
730,1304
1005,-1005
855,-1155
-1178,-407
-1052,-603
-120,1290
-240,1170
410,1240
590,1060
1275,-375
1125,-525
-577,-1023
-423,-1177
-600,1070
-710,890
1135,535
1225,365
743,-1077
657,-1243
-1138,-855
-962,-945
-1100,866
-1300,774
1100,1100
1300,900
1440,-1020
1240,-1220
-1540,-1180
-1340,-1380
-1060,1450
-1260,1250
1320,1060
1520,860

area numbers
299,297,304,300

x , y , block , block number
area 1
967,478,0,0
796,1416,0,0
555,44,1,0
144,1821,0,0
877,315,0,0
1718,1555,0,0
867,556,0,0
432,1324,1,0
1079,832,0,0
1646,213,0,0
978,539,0,0
955,641,1,0
1001,447,0,0
1292,387,0,0
418,243,0,0
1590,556,0,0
272,1735,1,0
1510,1734,0,0
846,276,0,0
630,1908,0,0
211,1530,0,0
1204,1885,0,0
1143,1558,0,0
1469,194,0,0
303,1231,0,0
1390,898,0,0
1646,1334,1,0
1000,509,0,0
943,1767,1,0
1642,1199,0,0
1966,640,0,0
522,632,0,0
587,1784,0,0
1305,302,1,0
504,153,0,0
918,1885,0,0
31,1655,0,0
1989,397,0,0
782,998,0,0
1575,1698,0,0
1181,72,0,0
413,734,0,0
454,206,0,0
1914,894,0,0
1504,427,0,0
920,1273,1,0
1037,1543,0,0
1204,1999,0,0
112,595,0,0
1150,1294,0,0
412,106,1,0
368,446,1,0
225,1913,1,0
726,1939,0,0
1026,1224,0,0
244,1245,0,0
1057,771,0,0
1244,1351,1,0
1482,61,0,0
1428,1657,0,0
393,1066,0,0
1141,396,1,0
1114,917,0,0
1247,1287,1,0
829,32,0,0
820,23,1,0
186,1538,0,0
180,1941,0,0
1061,1348,1,0
790,1451,0,0
982,751,0,0
152,425,0,0
1973,1491,1,0
1826,1893,0,0
95,1017,0,0
1100,1443,0,0
667,1321,0,0
496,995,1,0
862,1359,0,0
1594,1465,1,0
1343,525,0,0
295,809,0,0
1512,35,1,0
1521,1620,0,0
1218,1361,1,0
1368,1732,1,0
1625,1605,0,0
692,1434,0,0
1505,195,1,0
1635,1980,0,0
1793,1001,1,0
39,965,1,0
1237,583,0,0
1198,826,0,0
1505,1941,0,0
100,186,0,0
1409,1955,0,0
1883,608,0,0
460,929,0,0
765,1991,0,0
619,637,1,0
1982,859,0,0
137,508,0,0
1582,1981,0,0
44,911,1,0
1615,1036,1,0
704,384,0,0
1710,1685,0,0
188,127,1,0
78,414,1,0
109,1913,0,0
795,327,0,0
1736,1594,1,0
1748,25,1,0
1615,442,0,0
132,955,0,0
745,378,1,0
1706,1670,0,0
1897,785,1,0
1856,400,0,0
879,563,0,0
351,550,0,0
24,1211,0,0
1518,87,0,0
1694,1582,0,0
272,414,0,0
295,231,0,0
1089,1481,0,0
173,1229,0,0
195,872,0,0
1076,1011,0,0
654,179,1,0
664,1191,0,0
1383,1254,0,0
783,449,0,0
386,473,0,0
602,557,0,0
1918,87,0,0
116,994,0,0
317,1456,0,0
241,1990,1,0
696,198,0,0
1001,1813,0,0
227,1366,1,0
1857,992,0,0
584,1192,0,0
1634,1369,0,0
1569,286,0,0
1526,1637,0,0
1797,199,0,0
1407,1769,0,0
1153,1147,0,0
1226,1899,0,0
452,1070,0,0
1219,41,1,0
687,1924,0,0
936,1523,0,0
1889,1986,0,0
60,1675,0,0
731,876,0,0
1440,765,0,0
1731,1626,1,0
195,1869,0,0
1310,1076,0,0
532,939,0,0
1866,732,0,0
1436,1191,1,0
1759,149,0,0
1580,1537,0,0
281,183,1,0
1447,333,0,0
1259,1003,0,0
539,160,0,0
414,1760,1,0
1041,823,0,0
573,815,0,0
55,266,0,0
153,1984,0,0
1758,1686,0,0
421,833,0,0
95,1705,1,0
825,136,0,0
470,25,0,0
154,656,1,0
1331,936,1,0
89,660,0,0
394,121,1,0
946,800,1,0
1619,1414,0,0
1687,807,0,0
523,363,0,0
804,151,0,0
1074,113,0,0
715,1069,0,0
1471,611,0,0
622,837,1,0
1482,1314,0,0
613,1526,0,0
720,1501,0,0
367,1766,0,0
1305,1413,0,0
1316,1281,1,0
759,939,0,0
1411,1400,1,0
1029,974,0,0
1018,246,0,0
340,537,1,0
1065,1505,0,0
1082,402,0,0
285,1777,0,0
604,1613,1,0
462,945,0,0
264,742,0,0
1199,1390,0,0
1801,807,0,0
67,662,0,0
518,1775,0,0
174,591,0,0
948,479,0,0
1053,1142,0,0
613,369,0,0
759,1302,0,0
1516,657,0,0
1224,449,0,0
1378,1513,1,0
1599,794,0,0
345,88,0,0
1323,384,0,0
543,1599,0,0
1061,209,1,0
1987,1596,0,0
353,190,0,0
444,960,0,0
487,410,0,0
444,1492,1,0
1446,378,0,0
258,740,0,0
843,541,0,0
523,935,0,0
276,875,0,0
603,350,0,0
1018,1396,0,0
1769,1319,1,0
1537,589,0,0
87,1037,1,0
659,1351,0,0
115,764,1,0
1505,1227,0,0
1895,998,0,0
1073,458,0,0
765,845,1,0
58,923,0,0
693,251,0,0
1201,76,0,0
1685,347,1,0
1555,1693,0,0
1412,539,1,0
1326,92,1,0
418,1798,0,0
1197,1805,0,0
998,1681,0,0
1604,963,0,0
1924,990,0,0
869,1114,0,0
396,1669,0,0
760,1829,0,0
1822,478,1,0
534,676,0,0
806,1484,0,0
414,1074,0,0
1950,183,1,0
1371,701,0,0
198,1830,0,0
1588,982,0,0
398,1964,0,0
550,1278,1,0
834,1882,0,0
1099,632,0,0
1490,1671,0,0
176,91,0,0
14,149,1,0
598,568,0,0
233,1246,0,0
47,1009,0,0
214,645,0,0
137,527,0,0
1857,1200,0,0
296,389,0,0
1112,1821,0,0
578,1439,0,0
1353,1763,0,0
1834,452,0,0
371,796,0,0
1683,1291,0,0
1401,1262,0,0
1727,1537,0,0
1984,519,0,0
1700,202,0,0
243,610,0,0
area 2
-1620,1398,1,0
-218,1657,0,0
-388,1929,0,0
-1686,1043,0,0
-636,609,0,0
-1422,1335,0,0
-1688,642,1,0
-1751,1954,1,0
-1661,450,0,0
-1962,927,0,0
-76,782,0,0
-1685,141,1,0
-273,1312,0,0
-1910,314,1,0
-1170,722,0,0
-1565,1344,1,0
-1319,438,0,0
-195,812,1,0
-1027,817,1,0
-806,1450,0,0
-329,435,0,0
-1564,78,0,0
-1094,161,0,0
-573,298,0,0
-642,1836,0,0
-1200,1186,0,0
-330,483,0,0
-394,156,0,0
-931,1464,1,0
-1985,665,0,0
-1536,1428,1,0
-1340,1310,0,0
-77,758,0,0
-269,1057,1,0
-642,866,0,0
-541,269,0,0
-592,1357,0,0
-891,1328,0,0
-351,279,0,0
-1064,632,0,0
-122,109,0,0
-35,1551,1,0
-1975,936,0,0
-221,319,1,0
-1272,1741,0,0
-348,667,0,0
-145,514,1,0
-1434,1243,0,0
-1831,1929,1,0
-1318,1288,0,0
-617,1075,0,0
-1087,1858,1,0
-1129,1617,0,0
-1669,624,0,0
-1117,940,0,0
-288,435,0,0
-75,1257,0,0
-1967,418,1,0
-288,875,1,0
-967,850,1,0
-1562,1175,0,0
-1894,1093,0,0
-1416,1723,0,0
-1931,1457,0,0
-995,1074,0,0
-956,821,0,0
-1826,640,0,0
-1008,1997,0,0
-11,897,0,0
-433,1938,0,0
-1920,270,0,0
-96,1957,0,0
-1006,1678,0,0
-626,1694,1,0
-1139,209,0,0
-1967,1556,0,0
-1690,1503,1,0
-386,115,1,0
-619,1304,0,0
-469,1530,0,0
-938,1628,0,0
-1682,194,1,0
-866,21,0,0
-702,1916,0,0
-1508,544,1,0
-868,1486,0,0
-270,1351,0,0
-852,526,0,0
-417,1410,1,0
-1875,1351,0,0
-1846,1334,1,0
-71,564,0,0
-1188,1545,1,0
-1328,1543,1,0
-1441,1065,0,0
-1863,1730,1,0
-615,1354,0,0
-251,617,0,0
-549,1687,0,0
-1996,107,0,0
-1303,597,0,0
-1994,1762,1,0
-951,223,0,0
-941,1119,0,0
-1703,1185,1,0
-1782,810,0,0
-666,944,0,0
-1235,1797,0,0
-978,1712,0,0
-1500,1825,0,0
-1832,839,0,0
-1581,1861,0,0
-673,898,0,0
-460,306,1,0
-1528,678,0,0
-577,138,0,0
-516,269,0,0
-39,415,1,0
-78,1685,0,0
-941,115,1,0
-972,66,0,0
-1643,1499,1,0
-1762,393,0,0
-635,1376,0,0
-1585,230,0,0
-821,458,1,0
-1657,626,0,0
-779,672,0,0
-999,911,0,0
-147,999,0,0
-358,928,1,0
-1988,312,1,0
-1075,1289,0,0
-583,1890,0,0
-1186,1957,1,0
-1705,1107,0,0
-1684,1422,0,0
-736,1965,0,0
-859,1289,0,0
-1170,895,1,0
-1947,1772,0,0
-254,726,0,0
-1800,1811,0,0
-705,1339,0,0
-482,1313,0,0
-952,1705,0,0
-1946,1906,1,0
-1734,649,0,0
-858,345,0,0
-1526,938,0,0
-1557,697,0,0
-1867,751,0,0
-298,495,0,0
-836,574,0,0
-257,674,0,0
-1895,308,0,0
-224,998,0,0
-355,1537,0,0
-1805,1480,0,0
-1608,1442,0,0
-1444,1843,0,0
-441,1406,0,0
-1939,1954,0,0
-928,3,1,0
-1291,715,0,0
-1592,1109,0,0
-1057,770,0,0
-1905,948,0,0
-405,1770,1,0
-1667,1623,1,0
-228,830,0,0
-1270,807,0,0
-641,1536,0,0
-1166,1108,0,0
-150,1073,0,0
-126,1010,0,0
-848,798,0,0
-1682,1227,0,0
-1541,967,1,0
-1333,1068,0,0
-884,1596,0,0
-1583,1244,0,0
-1817,259,0,0
-155,946,0,0
-755,1415,1,0
-1962,433,0,0
-1976,557,0,0
-525,512,0,0
-316,1615,0,0
-1396,1090,0,0
-1885,864,1,0
-534,56,0,0
-1263,152,1,0
-1696,333,1,0
-330,1123,0,0
-660,1100,0,0
-455,1863,0,0
-586,957,0,0
-954,1222,0,0
-1552,1349,1,0
-1143,179,0,0
-120,1109,0,0
-494,1123,0,0
-1384,1697,1,0
-1714,1157,0,0
-215,1611,0,0
-548,1763,0,0
-1731,688,0,0
-339,651,0,0
-172,484,0,0
-1918,1259,0,0
-167,693,0,0
-955,1315,0,0
-1419,445,0,0
-1665,1148,0,0
-693,1172,0,0
-1921,136,0,0
-366,471,0,0
-1068,343,0,0
-1536,997,1,0
-1722,812,0,0
-1541,1826,0,0
-746,1709,0,0
-698,1931,0,0
-1384,1913,1,0
-294,878,0,0
-1138,342,0,0
-1730,1437,1,0
-527,479,0,0
-1068,479,0,0
-1967,1042,0,0
-1567,1814,0,0
-1230,709,0,0
-1065,1913,0,0
-401,261,0,0
-639,749,0,0
-370,82,0,0
-1136,1389,0,0
-1651,1969,1,0
-1571,1662,0,0
-954,1225,1,0
-414,995,0,0
-1944,1201,0,0
-1656,876,0,0
-537,11,0,0
-892,1158,0,0
-1858,1914,0,0
-601,1008,0,0
-891,1592,0,0
-1869,251,0,0
-132,745,1,0
-1522,1444,1,0
-1613,937,0,0
-1640,348,1,0
-946,1178,1,0
-1452,1539,0,0
-238,1055,0,0
-833,1092,0,0
-1797,1396,0,0
-983,1440,1,0
-1725,1500,1,0
-1491,75,1,0
-615,1944,1,0
-1802,721,1,0
-1123,1051,1,0
-1782,93,0,0
-1964,1059,1,0
-1263,598,0,0
-71,211,0,0
-1276,430,0,0
-730,649,1,0
-730,1441,0,0
-336,1240,0,0
-199,178,1,0
-1588,1338,1,0
-206,845,0,0
-50,1750,0,0
-283,1591,0,0
-1674,1042,1,0
-1589,350,0,0
-104,674,1,0
-1851,144,0,0
-515,1420,0,0
-813,131,0,0
-1199,1695,0,0
-1147,643,0,0
-122,252,0,0
-1824,109,0,0
-1857,712,0,0
-810,1207,0,0
-1741,619,0,0
-979,1428,0,0
-108,1674,1,0
-1512,510,0,0
-225,1936,0,0
-990,1798,1,0
-906,530,1,0
area 3
-267,-1127,0,0
-1422,-1886,1,0
-1336,-941,1,0
-1175,-1974,0,0
-446,-1594,0,0
-483,-712,1,0
-80,-133,0,0
-1615,-948,0,0
-1001,-1055,0,0
-1348,-230,0,0
-740,-1088,1,0
-1156,-382,1,0
-1523,-1531,0,0
-1844,-1136,0,0
-101,-1807,0,0
-1181,-1557,1,0
-676,-857,0,0
-1311,-1758,0,0
-197,-1410,0,0
-977,-1403,0,0
-1720,-735,1,0
-986,-716,0,0
-1851,-273,0,0
-654,-206,0,0
-1122,-1433,0,0
-1863,-67,1,0
-128,-1354,1,0
-102,-869,0,0
-869,-1109,0,0
-1852,-1757,1,0
-218,-1110,0,0
-1728,-1981,1,0
-1044,-622,0,0
-115,-841,1,0
-1496,-648,0,0
-1924,-1283,0,0
-1868,-981,0,0
-1638,-592,0,0
-457,-674,0,0
-297,-290,0,0
-748,-132,0,0
-796,-1129,0,0
-697,-810,0,0
-793,-1492,0,0
-1514,-13,1,0
-1743,-432,1,0
-325,-368,0,0
-474,-1546,0,0
-1839,-1775,0,0
-843,-1911,1,0
-207,-1433,0,0
-997,-1548,1,0
-87,-38,0,0
-477,-569,1,0
-221,-56,0,0
-1014,-410,0,0
-756,-753,0,0
-608,-893,0,0
-758,-1180,1,0
-28,-1936,1,0
-404,-902,0,0
-179,-1624,0,0
-466,-826,0,0
-1665,-289,0,0
-1898,-947,0,0
-1589,-671,0,0
-1270,-627,0,0
-1097,-1314,0,0
-1457,-551,0,0
-1178,-1342,0,0
-252,-485,0,0
-391,-1953,0,0
-359,-1840,0,0
-1702,-1297,0,0
-1717,-474,0,0
-878,-997,0,0
-1732,-515,1,0
-398,-217,0,0
-1238,-176,1,0
-1789,-1671,1,0
-1822,-1565,0,0
-1705,-1632,0,0
-63,-944,1,0
-361,-47,0,0
-1393,-864,1,0
-1165,-675,0,0
-1848,-319,0,0
-480,-1243,0,0
-1925,-1730,1,0
-1639,-895,1,0
-248,-1325,1,0
-1600,-50,0,0
-886,-1497,0,0
-29,-1690,0,0
-1315,-938,0,0
-1673,-1835,1,0
-114,-1450,0,0
-546,-780,0,0
-1407,-923,0,0
-652,-618,1,0
-568,-822,0,0
-401,-661,0,0
-114,-965,0,0
-1444,-1708,1,0
-109,-991,0,0
-812,-133,1,0
-407,-584,1,0
-1052,-390,0,0
-1333,-212,0,0
-139,-630,0,0
-1412,-864,1,0
-992,-1503,0,0
-138,-1676,1,0
-1079,-24,0,0
-100,-1263,0,0
-642,-1526,0,0
-156,-18,1,0
-571,-1804,0,0
-1487,-804,0,0
-917,-1132,1,0
-1888,-211,0,0
-1147,-249,1,0
-854,-619,0,0
-429,-1610,0,0
-147,-1991,0,0
-332,-278,0,0
-668,-286,1,0
-217,-317,1,0
-970,-1203,0,0
-203,-998,0,0
-1082,-352,1,0
-1516,-1685,1,0
-957,-67,0,0
-1239,-1370,0,0
-1093,-739,1,0
-405,-1026,0,0
-342,-1230,0,0
-507,-1687,0,0
-252,-1717,0,0
-1518,-251,1,0
-412,-293,0,0
-722,-1719,0,0
-1587,-1124,1,0
-1753,-770,0,0
-1828,-68,0,0
-820,-251,0,0
-1470,-1174,0,0
-1320,-626,1,0
-787,-1400,0,0
-592,-535,0,0
-1113,-1769,0,0
-1118,-589,0,0
-1093,-59,1,0
-781,-1860,0,0
-1791,-1962,0,0
-1878,-1492,0,0
-1153,-1005,0,0
-905,-703,0,0
-483,-1316,0,0
-407,-1110,0,0
-829,-28,0,0
-1288,-523,0,0
-1893,-1962,1,0
-1214,-1520,0,0
-8,-1628,0,0
-491,-919,0,0
-718,-950,1,0
-38,-238,0,0
-868,-759,0,0
-1624,-434,0,0
-753,-779,0,0
-1535,-7,1,0
-288,-1562,0,0
-1729,-1655,0,0
-1593,-1190,0,0
-432,-43,1,0
-1837,-176,0,0
-1943,-1489,0,0
-1465,-1730,0,0
-1451,-1107,0,0
-1216,-700,0,0
-178,-901,0,0
-1199,-366,1,0
-556,-1907,1,0
-718,-429,0,0
-258,-819,0,0
-1506,-422,0,0
-4,-408,0,0
-1756,-1553,0,0
-1369,-765,0,0
-1875,-1988,1,0
-1653,-1347,0,0
-1904,-1746,0,0
-941,-1206,0,0
-657,-507,1,0
-894,-29,0,0
-598,-506,1,0
-1044,-551,0,0
-28,-1841,1,0
-1714,-199,0,0
-1388,-160,0,0
-491,-607,0,0
-305,-1266,0,0
-1278,-920,0,0
-1877,-28,0,0
-510,-1981,0,0
-143,-1424,0,0
-1696,-1615,0,0
-1135,-569,1,0
-1153,-483,0,0
-1842,-1434,1,0
-1087,-1311,0,0
-465,-749,0,0
-1115,-1722,0,0
-313,-523,0,0
-1524,-1454,0,0
-236,-829,0,0
-656,-1524,1,0
-338,-639,0,0
-1663,-1500,1,0
-207,-1023,0,0
-911,-1181,0,0
-1406,-1547,0,0
-1562,-1563,0,0
-384,-146,0,0
-834,-878,0,0
-715,-1797,0,0
-1384,-466,0,0
-1603,-1074,0,0
-689,-1301,0,0
-700,-1750,0,0
-217,-158,1,0
-85,-1165,0,0
-1671,-843,0,0
-1476,-786,1,0
-726,-1606,0,0
-1701,-1174,0,0
-65,-1710,0,0
-1318,-1140,0,0
-1280,-1264,0,0
-1255,-336,0,0
-425,-1303,0,0
-1168,-1861,0,0
-1258,-1120,0,0
-1045,-1427,0,0
-1354,-243,0,0
-810,-463,0,0
-639,-615,1,0
-231,-1323,0,0
-180,-1523,1,0
-552,-977,0,0
-432,-1138,0,0
-467,-1943,0,0
-1673,-52,0,0
-197,-521,0,0
-1553,-620,0,0
-1789,-619,0,0
-1665,-1172,0,0
-328,-1116,1,0
-627,-1751,0,0
-1728,-78,0,0
-48,-969,1,0
-1240,-1079,1,0
-1014,-1882,0,0
-1067,-1610,0,0
-418,-1410,0,0
-1907,-482,1,0
-168,-1089,0,0
-600,-1418,0,0
-350,-1690,1,0
-804,-978,1,0
-646,-1705,1,0
-1764,-1931,0,0
-154,-657,1,0
-166,-61,0,0
-1775,-1901,0,0
-1956,-965,1,0
-372,-1188,0,0
-360,-1519,1,0
-1193,-1299,0,0
-1621,-1024,0,0
-899,-163,0,0
-636,-218,1,0
-1876,-332,1,0
-763,-1271,0,0
-1835,-634,0,0
-1260,-1747,0,0
-23,-1159,0,0
-1787,-414,0,0
-1527,-464,0,0
-423,-1624,0,0
-1053,-1006,0,0
-896,-1600,0,0
-1890,-798,0,0
-737,-447,0,0
-1680,-331,0,0
-1503,-1854,0,0
-1749,-1261,0,0
-1811,-1708,0,0
-878,-84,0,0
-974,-1611,1,0
-266,-115,0,0
-886,-691,1,0
-1372,-310,0,0
area 4
1424,-1999,0,0
1307,-524,0,0
1806,-1823,0,0
634,-823,1,0
168,-171,0,0
81,-1387,1,0
752,-1073,1,0
977,-567,1,0
363,-861,0,0
1855,-687,0,0
590,-137,0,0
132,-799,0,0
1093,-416,0,0
452,-1954,0,0
1056,-1640,0,0
662,-1946,0,0
879,-140,0,0
1315,-1116,1,0
823,-717,0,0
1584,-1678,0,0
884,-792,0,0
1011,-1912,0,0
1102,-806,0,0
1129,-1400,0,0
1786,-497,0,0
1841,-755,0,0
1200,-980,0,0
68,-1898,1,0
1448,-116,1,0
513,-1098,0,0
866,-594,0,0
389,-1110,0,0
601,-214,0,0
1057,-1650,1,0
1928,-668,0,0
952,-1638,0,0
632,-571,0,0
80,-624,1,0
1852,-1123,0,0
1266,-455,0,0
840,-346,1,0
1385,-575,0,0
1864,-95,0,0
109,-1102,0,0
926,-1569,1,0
1645,-404,1,0
1839,-1833,0,0
1937,-1751,0,0
1329,-203,0,0
1806,-1085,0,0
925,-505,0,0
389,-1360,0,0
1677,-411,0,0
388,-128,0,0
1209,-1499,1,0
1423,-598,0,0
35,-1724,0,0
619,-1040,0,0
1125,-260,0,0
1175,-946,0,0
1614,-1885,0,0
597,-1287,0,0
336,-48,0,0
1480,-434,0,0
274,-955,0,0
152,-570,0,0
1908,-391,0,0
753,-1354,0,0
1060,-1522,0,0
1932,-1084,0,0
831,-853,0,0
811,-1747,1,0
1364,-1990,0,0
275,-371,0,0
1476,-1959,1,0
396,-1888,1,0
691,-1741,0,0
75,-1431,1,0
1947,-570,0,0
612,-1065,1,0
35,-632,0,0
80,-1941,0,0
1736,-257,0,0
153,-1830,0,0
1356,-1202,0,0
1827,-1140,1,0
1969,-499,0,0
534,-106,0,0
46,-1022,0,0
451,-1260,0,0
1020,-590,0,0
823,-1650,0,0
1981,-705,0,0
967,-946,1,0
68,-483,0,0
457,-258,1,0
761,-1215,1,0
1941,-1430,0,0
1320,-1074,0,0
558,-1426,0,0
524,-1420,0,0
1631,-745,1,0
90,-1959,0,0
1562,-1691,0,0
640,-1498,1,0
1616,-493,0,0
1362,-275,0,0
1303,-659,0,0
1596,-252,0,0
1561,-1612,0,0
1263,-955,0,0
1905,-1652,0,0
990,-800,1,0
1460,-1642,0,0
1114,-764,0,0
1951,-1934,0,0
700,-1477,0,0
732,-1842,0,0
1713,-601,1,0
811,-750,0,0
1543,-867,0,0
710,-1782,0,0
1816,-1121,0,0
31,-1079,0,0
1998,-1869,0,0
413,-988,0,0
1163,-1416,1,0
980,-1066,1,0
354,-566,0,0
816,-1497,0,0
700,-1485,1,0
1505,-1970,0,0
779,-464,0,0
702,-1345,0,0
1195,-1625,1,0
766,-108,0,0
333,-1572,1,0
1469,-1147,0,0
743,-1919,0,0
359,-536,0,0
564,-303,0,0
1625,-1290,0,0
887,-1436,0,0
73,-1303,0,0
1962,-1747,0,0
1944,-166,1,0
970,-1351,0,0
1368,-38,0,0
1247,-1302,0,0
1493,-480,1,0
1167,-909,0,0
1843,-802,0,0
393,-191,0,0
855,-1426,0,0
1624,-1906,0,0
434,-1711,0,0
449,-1071,0,0
600,-1792,0,0
1725,-1528,1,0
1013,-623,0,0
535,-852,0,0
1692,-337,1,0
929,-1310,0,0
497,-461,0,0
1692,-769,0,0
1063,-1189,1,0
624,-85,0,0
980,-299,0,0
1046,-41,0,0
1098,-1932,0,0
1558,-1381,0,0
1774,-1737,0,0
1596,-217,0,0
1429,-1320,0,0
385,-1926,0,0
366,-548,0,0
394,-4,0,0
180,-1334,0,0
1772,-662,0,0
1662,-1449,0,0
1623,-1058,0,0
1537,-948,0,0
122,-1333,0,0
1057,-1621,0,0
466,-1231,0,0
577,-910,0,0
1119,-1733,1,0
1492,-756,1,0
1616,-660,1,0
1860,-1602,0,0
1156,-1725,0,0
1709,-1993,1,0
710,-44,0,0
1147,-1727,0,0
1967,-1869,1,0
1874,-660,0,0
227,-445,0,0
611,-287,0,0
1479,-1,0,0
1809,-1845,0,0
1733,-917,0,0
1284,-1954,0,0
574,-1199,0,0
1573,-1596,1,0
1608,-597,0,0
1800,-1168,0,0
1939,-1415,0,0
896,-539,0,0
522,-1418,0,0
541,-111,0,0
380,-1806,0,0
1415,-400,0,0
727,-1948,0,0
313,-1226,0,0
254,-443,0,0
898,-1564,0,0
221,-1651,0,0
685,-1567,0,0
635,-1766,1,0
199,-798,0,0
1227,-1856,0,0
1067,-828,1,0
1924,-1418,1,0
941,-11,1,0
880,-142,0,0
340,-1528,0,0
1222,-912,0,0
1033,-829,0,0
347,-1254,1,0
1449,-1465,1,0
1704,-1812,0,0
7,-1573,0,0
1491,-1613,0,0
832,-1976,1,0
1838,-1819,1,0
466,-13,0,0
773,-815,0,0
1901,-1881,1,0
12,-833,0,0
1446,-684,0,0
854,-522,0,0
377,-669,0,0
1067,-1910,0,0
1690,-1214,0,0
1124,-113,1,0
373,-659,0,0
1418,-1532,1,0
1740,-932,0,0
152,-172,0,0
1795,-1893,0,0
484,-1271,1,0
1392,-559,0,0
1319,-1054,0,0
605,-807,0,0
712,-1012,1,0
219,-338,0,0
1774,-1221,0,0
668,-1486,1,0
495,-1901,0,0
252,-1353,0,0
1524,-1613,0,0
1084,-1456,0,0
1265,-55,0,0
968,-291,0,0
868,-556,0,0
688,-851,0,0
223,-1767,0,0
405,-1542,0,0
633,-1924,0,0
981,-12,0,0
777,-1144,0,0
1983,-1313,0,0
606,-1389,1,0
1423,-201,0,0
1098,-1260,0,0
1539,-1785,0,0
784,-1572,0,0
630,-694,0,0
1534,-456,0,0
609,-1433,0,0
588,-737,0,0
278,-1092,0,0
1411,-134,1,0
1369,-51,0,0
1972,-321,1,0
701,-1243,0,0
898,-812,1,0
1409,-1322,0,0
1197,-1150,0,0
866,-1122,1,0
1265,-972,0,0
1119,-958,0,0
199,-764,0,0
1244,-1397,0,0
594,-1089,0,0
1289,-1505,0,0
836,-964,0,0
736,-1616,0,0
730,-1852,1,0
1660,-938,0,0

near cbsd peopel number
51
57
61
62
60
59
75
62
43
59
62
62
62
59
73
61
63
61
59
73
64
58
72
59
53
54
57
59
61
54
