each times' max average throughput
586.565613,629.996460,563.367065,622.850098,619.566772,580.487915,597.013855,541.188660,625.166443,573.285889,623.213928,593.496033,618.545593,629.262329,633.333618,619.766663,639.365967,615.218018,629.044006,591.562988,623.683960,618.633118,642.991272,615.858826,608.942200,621.344238,627.911926,559.666260,627.504089,624.099426,640.690735,621.650574,527.532715,618.215759,598.539490,563.835754,580.991455,626.661377,617.853455,633.026855,592.131958,583.556458,612.532959,617.708862,623.935242,578.884277,593.929810,620.408569,622.511414,551.251465,626.072449,611.367004,593.188965,562.049988,601.709045,615.902588,619.622253,587.096924,587.229187,538.170776,612.063232,631.126770,626.336182,619.627136,571.948303,615.790955,638.970093,632.478271,620.969910,621.757080,620.003723,620.047119,632.608887,560.443054,615.449158,628.776428,620.059265,551.889038,608.075745,552.202271,609.825195,582.286621,575.803040,633.680908,606.421570,583.487000,637.186890,593.831421,616.924622,511.211029,624.524048,587.476868,632.688965,615.537415,640.814392,632.873901,613.660339,585.784180,568.891235,628.118225,
avg. throughput in all test times
605.528442
avg. BS TX power in all test times
MBS area 1,MBS area 2,MBS area 3,MBS area 4,MBS area 5,CBSD 1,CBSD 2,CBSD 3,CBSD 4,CBSD 5,CBSD 6,
7.012,6.787,6.700,6.812,7.025,0.181,0.211,0.240,0.301,0.236,0.185,
avg. mbs all power,avg. cbsd enable number,avg. mbs area all power,avg. cbsd all power
47.463,1.000,34.338,1.355
avg. max avg. throughput generation number in all test times
0.830000
avg. number of relay UE
30

the max average throughput times

BS TX power
MBS area 1,MBS area 2,MBS area 3,MBS area 4,MBS area 5,CBSD 1,CBSD 2,CBSD 3,CBSD 4,CBSD 5,CBSD 6,
6.250,6.250,6.250,6.250,5.000,0.000,0.000,0.000,1.000,0.000,0.750,
max average throughput
628.118225

x,y,area,be blocked (1 : NLOS / 0 : LOS),be blocked number (>=1 : CBSD(x) / 0 : no),connect bs number (>=1 : CBSD / 0 : MBS),throughput (unit : M bps)
410,456,1,0,0,0,959.775330
1456,1031,2,0,0,0,653.018738
-1318,1461,3,0,0,0,625.095398
-1500,-1055,4,0,0,0,645.165100
246,-1128,5,0,0,0,745.657288
1676,1721,1,1,0,6,352.773010
1275,371,2,0,0,6,740.284912
-80,1947,3,0,0,0,627.859802
-1724,-1737,4,1,0,4,254.002686
1362,-868,5,0,0,0,649.577759
205,210,1,0,0,0,1172.268433
1232,643,2,1,0,6,894.349060
-332,1430,3,1,0,6,293.220093
-1124,-1768,4,1,0,4,305.996887
736,-1907,5,0,0,0,582.563843
358,1229,1,0,0,0,748.046631
1759,508,2,0,0,0,645.627136
-1426,1219,3,0,0,0,638.683167
-709,-1088,4,0,0,0,743.920044
1420,-1069,5,0,0,0,622.281006
1734,1835,1,0,0,0,554.389771
1991,828,2,0,0,0,599.057434
-380,680,3,1,0,6,323.863037
-744,-1652,4,1,0,4,345.393768
74,-1571,5,0,0,0,657.158936
1035,1961,1,1,0,6,337.276947
588,556,2,0,0,0,879.877319
-78,900,3,0,0,0,848.208252
-836,-1220,4,1,0,4,486.409698
1878,-1137,5,0,0,0,562.354126
772,933,1,1,0,6,654.710754
1389,264,2,0,0,0,719.541809
-1918,750,3,0,0,0,612.122681
-1449,-555,4,0,0,0,692.910828
109,-1598,5,1,0,4,280.433289
508,1771,1,1,0,6,351.446106
1007,34,2,0,0,0,816.808472
-1258,6,3,0,0,0,753.036133
-391,-308,4,0,0,0,1019.913147
1062,-1244,5,0,0,0,645.964661
67,150,1,0,0,0,1339.645020
1883,1589,2,0,0,0,561.278076
-455,618,3,0,0,0,895.153442
-1217,-986,4,1,0,4,439.556732
1735,-1186,5,1,0,6,250.412323
303,629,1,0,0,0,922.392151
1804,1475,2,0,0,0,577.054199
-846,346,3,1,0,4,270.937286
-1479,-1932,4,0,0,0,564.827637
198,-775,5,0,0,0,851.110474
991,1681,1,0,0,0,627.461548
1391,87,2,1,0,6,555.509216
-970,1803,3,0,0,0,613.792786
-976,-1974,4,0,0,0,593.091431
981,-395,5,1,0,6,421.205566
672,1537,1,0,0,0,670.611877
644,48,2,0,0,0,944.864075
-1593,1361,3,0,0,0,607.222290
-1053,-974,4,0,0,0,715.411560
518,-358,5,0,0,0,920.000916
729,1729,1,0,0,0,638.624573
1783,1525,2,0,0,0,575.120239
-1619,728,3,0,0,0,654.449524
-1419,-97,4,0,0,0,717.835266
1277,-271,5,1,0,6,449.497711
664,929,1,1,0,6,610.401917
1185,354,2,0,0,6,778.623352
-1504,1824,3,1,0,6,161.907730
-1558,-1051,4,0,0,0,638.176575
409,-1803,5,0,0,0,611.074341
1324,1513,1,0,0,0,618.961365
-1281,1294,3,0,0,0,647.199463
-176,-913,4,1,0,4,407.127899
438,-1220,5,0,0,0,712.460815
673,1687,1,0,0,0,647.911194
-127,480,3,0,0,0,1020.622437
-1295,-1662,4,0,0,0,605.635254
354,-140,5,0,0,0,1065.051270
-1273,1380,3,1,0,6,192.661728
-1999,-1968,4,0,0,0,524.714294
1188,-1931,5,1,0,6,185.254486
-487,1209,3,0,0,0,742.867310
-47,-919,4,1,0,4,369.185211
1612,-405,5,1,0,6,382.040924
-449,493,3,1,0,6,311.313263
-1164,-1254,4,0,0,0,664.964844
1328,-1162,5,0,0,0,624.338379
-544,689,3,0,0,0,856.448792
-1039,-169,4,0,0,0,804.225037
1514,-1698,5,0,0,0,552.295410
-842,545,3,0,0,0,818.119568
-1838,-1283,4,0,0,0,588.059753
1962,-1705,5,1,0,6,190.123138
-211,587,3,0,0,0,954.858459
-389,-425,4,0,0,0,977.745667
802,-522,5,0,0,0,799.564026
-1400,1281,3,0,0,0,635.419434
-606,-1852,4,0,0,0,627.862305
-636,-111,4,1,0,4,358.510315
-163,-1463,4,0,0,0,707.987854


each generation good chromosome number
1,2,5,