514.180969,509.467651,517.167358,517.167358,497.982971,517.411743,512.770081,512.770081,509.706451,515.499512,

avg. max avg. throughput in test times
512.412415
avg. BS TX power in all test times
MBS area 1,MBS area 2,MBS area 3,MBS area 4,CBSD 1,CBSD 2,CBSD 3,CBSD 4,CBSD 5,CBSD 6,CBSD 7,CBSD 8,CBSD 9,CBSD 10,CBSD 11,CBSD 12,CBSD 13,CBSD 14,CBSD 15,CBSD 16,CBSD 17,CBSD 18,CBSD 19,CBSD 20,CBSD 21,
8.750,10.000,10.000,10.000,0.100,0.200,0.100,0.100,0.200,0.200,0.200,0.600,0.000,0.400,0.200,0.200,0.000,0.000,0.300,0.400,0.000,0.400,0.100,0.000,0.300,
avg. mbs all power,avg. cbsd enable number,avg. mbs area all power,avg. cbsd all power
68.750,4.000,38.750,4.000
avg. number of relay UE
506

BS TX power
MBS area 1,MBS area 2,MBS area 3,MBS area 4,CBSD 1,CBSD 2,CBSD 3,CBSD 4,CBSD 5,CBSD 6,CBSD 7,CBSD 8,CBSD 9,CBSD 10,CBSD 11,CBSD 12,CBSD 13,CBSD 14,CBSD 15,CBSD 16,CBSD 17,CBSD 18,CBSD 19,CBSD 20,CBSD 21,
8.750,10.000,10.000,10.000,1.000,0.000,0.000,0.000,0.000,0.000,0.000,1.000,0.000,1.000,0.000,0.000,0.000,0.000,1.000,0.000,0.000,0.000,0.000,0.000,0.000,
max average power
515.499512

x,y,area,be blocked (1 : NLOS / 0 : LOS),be blocked number (>=1 : CBSD(x) / 0 : no),connect bs number (>=1 : CBSD / 0 : MBS),throughput (unit : M bps)
1291,1912,1,0,0,0,627.690430
-1737,857,2,1,0,1,71.134743
-871,-1923,3,0,0,8,62.333733
1400,-823,4,0,0,0,747.197571
1656,498,1,0,0,0,710.050110
-584,1576,2,0,0,0,737.346436
-1692,-230,3,1,0,8,62.333733
1497,-28,4,0,0,0,770.518127
1525,1781,1,0,0,0,623.080200
-1751,135,2,0,0,0,724.752136
-517,-1004,3,1,0,8,62.333733
1296,-721,4,1,0,15,49.014267
168,635,1,0,0,0,988.452515
-610,636,2,0,0,0,923.007263
-1578,-1938,3,1,0,8,62.333733
1913,-1384,4,1,0,15,49.014267
457,1175,1,0,0,0,800.732910
-1137,419,2,0,0,0,831.326965
-1274,-1972,3,0,0,8,62.333733
556,-700,4,0,0,0,918.886414
768,223,1,0,0,0,931.738708
-219,568,2,0,0,0,1029.617554
-1233,-155,3,0,0,0,824.071533
1325,-1833,4,0,0,15,49.014267
1534,1953,1,0,0,0,606.728210
-1743,1475,2,0,0,1,71.134743
-332,-1710,3,0,0,0,727.090027
954,-1040,4,1,0,15,49.014267
1735,1934,1,1,0,10,109.765427
-57,1331,2,1,0,1,71.134743
-1251,-1745,3,1,0,8,62.333733
1086,-1365,4,0,0,0,726.698730
1414,1361,1,0,0,0,673.833496
-662,1153,2,1,0,1,71.134743
-49,-1264,3,0,0,0,818.969482
1633,-1662,4,0,0,15,49.014267
747,754,1,0,0,0,850.236450
-780,978,2,0,0,0,822.168945
-936,-1850,3,0,0,8,62.333733
1305,-1794,4,0,0,15,49.014267
539,42,1,0,0,0,1044.584717
-954,1870,2,1,0,1,71.134743
-1857,-747,3,1,0,8,62.333733
104,-1534,4,1,0,15,49.014267
726,436,1,0,0,0,915.240662
-1054,208,2,0,0,0,865.960693
-1466,-1065,3,0,0,8,62.333733
611,-16,4,1,0,10,191.912750
794,1420,1,0,0,0,727.533447
-1445,898,2,0,0,0,733.856689
-304,-1325,3,0,0,0,798.262207
1514,-1911,4,1,0,15,49.014267
389,87,1,0,0,0,1132.472168
-561,1428,2,0,0,0,763.512268
-1853,-987,3,0,0,8,62.333733
1697,-155,4,0,0,0,733.391479
1368,1394,1,0,0,0,675.215210
-893,897,2,0,0,0,818.793457
-1407,-288,3,0,0,0,782.482117
770,-1189,4,0,0,0,786.434021
674,503,1,0,0,0,917.239807
-1820,780,2,0,0,1,71.134743
-616,-755,3,1,0,8,62.333733
820,-757,4,0,0,0,855.009277
1204,962,1,0,0,0,743.068115
-541,1303,2,0,0,0,787.593628
-1523,-1428,3,0,0,8,62.333733
299,-1409,4,0,0,0,781.642883
241,1160,1,0,0,0,818.600708
-1706,869,2,0,0,1,71.134743
-442,-1550,3,0,0,0,749.360718
673,-314,4,1,0,15,49.014267
137,902,1,0,0,0,893.790161
-1254,558,2,0,0,0,795.502319
-1203,-1233,3,0,0,0,730.282349
1879,-1149,4,0,0,15,49.014267
1128,1654,1,1,0,10,140.536743
-186,1148,2,0,0,0,843.145996
-1409,-203,3,1,0,8,62.333733
1374,-86,4,1,0,15,49.014267
844,1961,1,1,0,10,119.235474
-1599,964,2,0,0,1,71.134743
-1856,-675,3,0,0,8,62.333733
1026,-1166,4,0,0,0,759.999023
1078,723,1,0,0,0,792.362610
-425,941,2,1,0,1,71.134743
-1329,-111,3,1,0,1,71.134743
1343,-502,4,0,0,0,782.966309
1385,621,1,0,0,0,747.433960
-1508,1872,2,0,0,1,71.134743
-1561,-1095,3,0,0,8,62.333733
1482,-1733,4,1,0,15,49.014267
227,92,1,0,0,0,1272.953247
-1007,1281,2,1,0,1,71.134743
-762,-1851,3,0,0,8,62.333733
679,-51,4,0,0,0,997.325562
1960,1262,1,0,0,0,624.729736
-1936,1184,2,0,0,1,71.134743
-1257,-569,3,0,0,0,793.990112
1368,-353,4,0,0,0,787.194153
293,1376,1,0,0,0,769.231506
-206,452,2,0,0,0,1088.260376
-1168,-1645,3,0,0,8,62.333733
917,-1654,4,0,0,15,49.014267
1782,997,1,0,0,0,662.506531
-405,1105,2,1,0,1,71.134743
-1689,-549,3,0,0,8,62.333733
1311,-1515,4,0,0,15,49.014267
859,1973,1,0,0,0,647.536316
-41,940,2,0,0,0,904.143677
-725,-1115,3,1,0,8,62.333733
1493,-987,4,1,0,15,49.014267
305,1039,1,0,0,0,844.476257
-23,600,2,0,0,0,1033.583374
-801,-861,3,1,0,8,62.333733
594,-1310,4,0,0,0,782.041321
1229,1492,1,0,0,0,678.174072
-1767,1845,2,0,0,1,71.134743
-1756,-474,3,0,0,8,62.333733
1299,-286,4,1,0,15,49.014267
1450,1631,1,1,0,10,135.374863
-1276,141,2,0,0,0,814.723633
-1266,-1163,3,0,0,0,730.871643
308,-1013,4,0,0,0,870.154602
545,288,1,0,0,0,1006.765076
-864,457,2,0,0,0,893.176819
-1257,-1538,3,0,0,8,62.333733
638,-204,4,1,0,15,49.014267
1408,1144,1,0,0,0,696.325439
-955,1191,2,0,0,0,764.946411
-654,-990,3,0,0,0,837.380005
689,-317,4,0,0,0,966.252502
566,1057,1,1,0,10,190.400909
-354,14,2,0,0,0,1185.739624
-1536,-1456,3,1,0,8,62.333733
1169,-1338,4,0,0,15,49.014267
1145,450,1,0,0,0,807.769836
-1317,768,2,0,0,0,765.328430
-266,-812,3,0,0,0,931.899841
1597,-1663,4,0,0,15,49.014267
203,1008,1,0,0,0,859.365112
-417,507,2,0,0,0,1007.868530
-559,-601,3,1,0,8,62.333733
162,-692,4,1,0,15,49.014267
1208,588,1,0,0,0,782.463196
-410,69,2,0,0,0,1139.575439
-180,-627,3,0,0,0,1009.689148
1623,-1237,4,1,0,15,49.014267
1552,136,1,0,0,0,739.953674
-1936,1144,2,0,0,1,71.134743
-361,-181,3,0,0,0,1147.974121
1475,-100,4,0,0,0,774.161499
1828,614,1,0,0,0,678.861694
-673,732,2,0,0,0,888.228271
-124,-1042,3,1,0,15,49.014267
206,-1675,4,1,0,15,49.014267
961,354,1,0,0,0,860.517822
-691,132,2,0,0,0,987.921387
-1135,-854,3,0,0,0,785.654480
1597,-1413,4,0,0,15,49.014267
993,976,1,0,0,0,772.207581
-1586,24,2,0,0,0,753.956238
-299,-256,3,0,0,0,1155.362915
955,-229,4,0,0,0,891.808716
1991,214,1,1,0,10,146.055542
-523,71,2,0,0,0,1070.765503
-367,-473,3,0,0,0,1034.430054
572,-1295,4,0,0,0,786.606873
1459,1090,1,0,0,0,695.217529
-728,1480,2,1,0,1,71.134743
-403,-630,3,0,0,0,970.291809
923,-905,4,0,0,0,812.740173
1981,616,1,1,0,10,150.844208
-119,949,2,0,0,0,899.426819
-1813,-328,3,0,0,8,62.333733
1157,-1469,4,0,0,15,49.014267
1576,180,1,1,0,10,185.469589
-200,1813,2,0,0,1,71.134743
-106,-77,3,1,0,15,49.014267
505,-1371,4,0,0,0,777.549255
1952,1172,1,0,0,0,631.446655
-1364,1806,2,1,0,1,71.134743
-728,-692,3,0,0,0,885.331787
1709,-472,4,0,0,15,49.014267
742,1720,1,0,0,0,687.158875
-1865,116,2,0,0,1,71.134743
-371,-877,3,0,0,0,900.690308
1356,-1024,4,1,0,15,49.014267
624,1777,1,0,0,0,685.612549
-610,1175,2,1,0,1,71.134743
-667,-692,3,0,0,0,898.018433
1687,-1772,4,1,0,15,49.014267
1461,408,1,0,0,0,747.613403
-1518,1204,2,0,0,1,71.134743
-1518,-798,3,0,0,0,731.561951
797,-176,4,0,0,0,945.097168
1725,928,1,0,0,0,674.387634
-862,1137,2,0,0,0,784.359436
-792,-701,3,0,0,0,870.458740
651,-161,4,0,0,0,1001.719238
1944,1973,1,0,0,0,575.759766
-371,799,2,0,0,0,923.109985
-1418,-885,3,1,0,8,62.333733
1498,-1204,4,0,0,15,49.014267
951,46,1,0,0,0,881.506104
-245,646,2,0,0,0,993.129028
-94,-1919,3,0,0,15,49.014267
778,-1587,4,1,0,15,49.014267
128,1952,1,1,0,1,71.134743
-1187,1753,2,0,0,1,71.134743
-836,-706,3,0,0,0,860.678589
1877,-176,4,1,0,15,49.014267
1453,1906,1,0,0,0,616.839294
-1390,1236,2,0,0,1,71.134743
-265,-557,3,0,0,0,1025.821289
1476,-1862,4,0,0,15,49.014267
363,743,1,1,0,10,193.387939
-455,1640,2,1,0,1,71.134743
-723,-1204,3,0,0,0,788.909180
475,-263,4,0,0,0,1062.603760
1060,128,1,0,0,0,848.527710
-223,819,2,0,0,0,933.808350
-1103,-1595,3,0,0,8,62.333733
1474,-495,4,0,0,0,759.674011
602,325,1,1,0,10,233.398590
-1299,800,2,0,0,0,765.137817
-350,-1441,3,0,0,0,773.286682
1905,-1180,4,1,0,15,49.014267
370,1424,1,0,0,0,756.375305
-669,1647,2,0,0,1,71.134743
-1285,-828,3,0,0,0,764.558777
1650,-176,4,0,0,0,741.015625
118,1388,1,0,0,0,772.071106
-1666,273,2,0,0,0,736.070312
-600,-1362,3,0,0,0,772.241638
1389,-73,4,0,0,0,791.681396
752,215,1,0,0,0,938.145996
-526,52,2,0,0,0,1070.346802
-1652,-1734,3,1,0,8,62.333733
1387,-21,4,1,0,10,186.658783
1544,1572,1,0,0,0,640.784607
-114,190,2,0,0,0,1321.130859
-1592,-995,3,0,0,8,62.333733
1201,-1680,4,0,0,15,49.014267
1539,953,1,0,0,0,696.955994
-1500,229,2,1,0,1,71.134743
-95,-167,3,1,0,15,49.014267
975,-494,4,0,0,0,860.999878
1195,1040,1,0,0,0,735.164734
-862,1980,2,0,0,1,71.134743
-1065,-300,3,0,0,0,857.482361
1382,-149,4,0,0,0,791.868896
1588,1988,1,0,0,0,599.837524
-1299,493,2,0,0,0,791.993591
-859,-1384,3,0,0,0,746.329407
365,-1584,4,0,0,0,746.928406
472,1724,1,1,0,10,128.637680
-1359,1872,2,1,0,1,71.134743
-1628,-483,3,0,0,0,734.390442
1502,-1267,4,0,0,15,49.014267
1636,154,1,0,0,0,724.671814
-708,159,2,1,0,1,71.134743
-1437,-1474,3,0,0,8,62.333733
1585,-1835,4,0,0,15,49.014267
1895,197,1,0,0,0,682.315430
-1669,252,2,0,0,0,736.121704
-1961,-346,3,0,0,8,62.333733
1833,-1030,4,0,0,15,49.014267
477,12,1,0,0,0,1080.603027
-1610,1053,2,0,0,1,71.134743
-377,-60,3,0,0,0,1164.199463
691,-1081,4,0,0,0,814.899414
456,1821,1,0,0,0,686.548035
-1364,1642,2,0,0,1,71.134743
-1404,-1916,3,0,0,8,62.333733
1968,-327,4,0,0,15,49.014267
510,1940,1,0,0,0,667.591675
-1626,875,2,0,0,1,71.134743
-951,-1500,3,0,0,8,62.333733
803,-1666,4,0,0,15,49.014267
212,1318,1,1,0,10,143.963943
-20,84,2,0,0,0,1593.031128
-927,-538,3,0,0,0,866.636475
938,-56,4,0,0,0,904.518555
678,1296,1,0,0,0,758.067749
-515,1494,2,0,0,0,755.027588
-1469,-961,3,0,0,0,724.879578
1076,-1235,4,1,0,15,49.014267
611,405,1,0,0,0,956.823792
-455,1665,2,0,0,0,729.715698
-310,-951,3,0,0,0,886.527771
618,-63,4,0,0,0,1023.782776
218,1384,1,0,0,0,770.414917
-250,425,2,0,0,0,1090.388794
-1951,-1575,3,0,0,8,62.333733
390,-804,4,1,0,15,49.014267
472,1092,1,0,0,0,817.420715
-385,1389,2,0,0,0,781.444824
-1777,-878,3,0,0,8,62.333733
669,-1353,4,0,0,0,768.207031
1747,1990,1,0,0,0,588.502991
-254,1005,2,0,0,0,876.250977
-380,-1760,3,0,0,8,62.333733
557,-644,4,1,0,15,49.014267
1168,1957,1,0,0,0,631.166870
-1990,1949,2,0,0,1,71.134743
-1489,-1636,3,1,0,8,62.333733
1227,-1731,4,0,0,15,49.014267
1140,1639,1,1,0,10,141.599274
-167,551,2,0,0,0,1045.689209
-497,-1282,3,1,0,8,62.333733
819,-1346,4,1,0,15,49.014267
1065,264,1,1,0,10,271.341766
-1150,882,2,0,0,0,779.871643
-1930,-1831,3,1,0,8,62.333733
268,-648,4,0,0,0,988.849487
856,774,1,0,0,0,826.157837
-1655,362,2,0,0,0,735.068481
-1137,-1511,3,0,0,8,62.333733
409,-672,4,0,0,0,955.712402
1021,1054,1,0,0,0,757.127869
-671,407,2,0,0,0,956.406677
-1585,-783,3,1,0,8,62.333733
1874,-1267,4,0,0,15,49.014267
604,37,1,0,0,0,1012.091125
-336,69,2,0,0,0,1195.060913
-238,-864,3,0,0,0,918.166809
1283,-1656,4,0,0,15,49.014267
421,93,1,0,0,0,1109.839600
-936,114,2,0,0,0,903.525146
-25,-1732,3,0,0,0,728.699341
1839,-789,4,0,0,15,49.014267
1872,1995,1,1,0,10,103.385094
-1128,111,2,0,0,0,850.544312
-553,-1496,3,0,0,0,752.376526
500,-338,4,0,0,0,1032.105469
1093,212,1,0,0,0,836.477661
-1163,27,2,1,0,1,71.134743
-366,-1188,3,0,0,0,823.979858
636,-362,4,0,0,0,976.549561
63,991,1,0,0,0,869.401367
-995,1209,2,0,0,0,757.669373
-215,-386,3,1,0,15,49.014267
1572,-902,4,0,0,15,49.014267
1318,908,1,0,0,0,732.226379
-809,1311,2,0,0,0,762.340454
-1680,-1750,3,0,0,8,62.333733
719,-1474,4,0,0,0,744.380188
347,727,1,0,0,0,929.640442
-811,1130,2,0,0,0,791.683655
-1926,-1781,3,1,0,8,62.333733
1844,-984,4,0,0,15,49.014267
600,870,1,0,0,0,851.470886
-1466,602,2,0,0,0,754.208313
-1064,-1983,3,0,0,8,62.333733
1035,-1724,4,0,0,15,49.014267
1614,413,1,0,0,0,720.727417
-1321,1831,2,1,0,1,71.134743
-214,-513,3,0,0,0,1055.834717
401,-925,4,0,0,0,884.254456
966,1815,1,0,0,0,660.538818
-1137,211,2,0,0,0,844.772949
-1176,-49,3,0,0,0,839.691284
1870,-786,4,1,0,15,49.014267
1270,1441,1,0,0,0,679.988647
-1422,1520,2,0,0,1,71.134743
-68,-1413,3,0,0,0,786.823120
692,-371,4,0,0,0,956.262939
1760,731,1,0,0,0,682.231506
-44,1626,2,0,0,0,746.736877
-483,-1605,3,0,0,0,738.136475
1367,-296,4,1,0,15,49.014267
786,1594,1,0,0,0,702.210205
-1668,627,2,0,0,1,71.134743
-1850,-535,3,0,0,8,62.333733
1446,-827,4,0,0,0,739.907043
1749,620,1,0,0,0,689.856812
-947,1287,2,0,0,0,751.849915
-1851,-1468,3,0,0,8,62.333733
1883,-1986,4,0,0,15,49.014267
404,1457,1,0,0,0,748.546631
-580,223,2,0,0,0,1023.694641
-530,-1884,3,0,0,8,62.333733
1457,-1319,4,0,0,15,49.014267
1491,400,1,1,0,10,210.425095
-1784,1852,2,0,0,1,71.134743
-706,-410,3,1,0,8,62.333733
918,-1502,4,0,0,0,724.079956
987,592,1,0,0,0,826.934937
-702,304,2,1,0,1,71.134743
-1418,-742,3,0,0,0,751.394958
852,-1143,4,0,0,0,784.603699
1343,458,1,1,0,10,243.199234
-1286,904,2,0,0,0,756.543945
-1926,-953,3,0,0,8,62.333733
293,-61,4,0,0,0,1234.402222
1845,82,1,0,0,0,691.220032
-1148,1295,2,0,0,0,728.963257
-1222,-1041,3,0,0,0,750.519348
1198,-368,4,0,0,0,821.642029
1531,1030,1,1,0,10,178.787994
-1649,456,2,0,0,0,732.245483
-449,-1482,3,1,0,8,62.333733
341,-543,4,0,0,0,1014.651184
1514,1469,1,0,0,0,653.207764
-1655,437,2,0,0,0,732.105713
-548,-470,3,0,0,0,980.459778
1033,-580,4,0,0,0,837.822937
1218,237,1,0,0,0,805.305969
-435,1784,2,0,0,1,71.134743
-1682,-1123,3,0,0,8,62.333733
1143,-1553,4,0,0,15,49.014267
1428,383,1,0,0,0,754.976929
-778,21,2,0,0,0,958.804382
-568,-608,3,0,0,0,939.560425
894,-840,4,0,0,0,827.795349
456,1418,1,0,0,0,752.840576
-1174,56,2,0,0,0,840.103455
-215,-1487,3,0,0,0,769.522339
1067,-284,4,1,0,15,49.014267
61,378,1,0,0,0,1144.077271
-1060,263,2,0,0,0,861.228149
-1119,-1200,3,0,0,0,744.245605
974,-1082,4,0,0,0,778.580139
1624,828,1,0,0,0,694.951050
-132,804,2,1,0,1,71.134743
-1174,-1561,3,0,0,8,62.333733
826,-801,4,0,0,0,846.223083
1153,943,1,0,0,0,752.840820
-1101,919,2,0,0,0,782.888855
-750,-1414,3,0,0,0,751.360962
663,-65,4,0,0,0,1003.631714
410,1747,1,0,0,0,699.450745
-606,374,2,0,0,0,984.409912
-1657,-402,3,0,0,0,733.222717
1188,-1289,4,0,0,0,725.280884
957,1104,1,0,0,0,758.378845
-1818,912,2,0,0,1,71.134743
-1013,-1834,3,0,0,8,62.333733
1016,-1844,4,1,0,15,49.014267
125,803,1,0,0,0,927.111084
-693,1868,2,0,0,1,71.134743
-270,-1871,3,0,0,15,49.014267
1174,-1652,4,0,0,15,49.014267
1167,1875,1,0,0,0,640.128418
-1007,1451,2,0,0,1,71.134743
-1679,-1659,3,0,0,8,62.333733
459,-1907,4,0,0,15,49.014267
668,369,1,0,0,0,945.227478
-1076,331,2,0,0,0,852.502625
-87,-1051,3,0,0,0,871.296875
150,-972,4,0,0,0,891.388611
276,592,1,0,0,0,990.067810
-288,429,2,0,0,0,1076.890137
-618,-990,3,0,0,0,842.136658
1325,-1053,4,0,0,0,735.350342
334,1495,1,0,0,0,744.798462
-645,301,2,0,0,0,984.548096
-1086,-1512,3,0,0,8,62.333733
96,-686,4,0,0,0,992.384888
871,1826,1,0,0,0,665.155273
-349,1016,2,0,0,0,865.976135
-378,-1411,3,0,0,0,777.607300
16,-1067,4,0,0,0,867.898315
1144,1709,1,1,0,10,136.083817
-1275,574,2,0,0,0,790.170593
-1350,-553,3,0,0,0,777.977661
1683,-1544,4,0,0,15,49.014267
1432,1907,1,1,0,10,118.254799
-1849,1324,2,1,0,1,71.134743
-549,-1602,3,0,0,0,735.181580
655,-1715,4,0,0,15,49.014267
478,98,1,0,0,0,1074.153564
-1507,101,2,0,0,0,768.013062
-1153,-1691,3,0,0,8,62.333733
1213,-1782,4,0,0,15,49.014267
951,1779,1,0,0,0,665.983887
-1944,1476,2,1,0,1,71.134743
-301,-1936,3,0,0,15,49.014267
288,-1898,4,0,0,15,49.014267
1225,1032,1,1,0,10,205.946243
-31,1346,2,0,0,0,801.038879
-514,-98,3,0,0,0,1073.255859
507,-1091,4,1,0,15,49.014267
1722,1058,1,1,0,10,160.026703
-1353,1164,2,0,0,1,71.134743
-1307,-697,3,0,0,0,773.608582
873,-58,4,0,0,0,925.081299
251,1613,1,0,0,0,726.565491
-896,1321,2,0,0,0,752.149353
-1348,-1090,3,0,0,0,728.472473
1611,-1200,4,0,0,15,49.014267
490,972,1,0,0,0,842.970337
-781,402,2,0,0,0,923.943420
-1162,-473,3,0,0,0,821.336182
1914,-1192,4,0,0,15,49.014267
151,1043,1,0,0,0,852.278442
-1242,140,2,0,0,0,822.419006
-1442,-1434,3,0,0,8,62.333733
587,-1115,4,0,0,0,820.079285
369,477,1,0,0,0,1013.076660
-1843,1435,2,0,0,1,71.134743
-615,-1020,3,0,0,0,836.280090
641,-1054,4,0,0,0,826.183655
1892,1919,1,0,0,0,583.533875
-938,17,2,1,0,1,71.134743
-1945,-895,3,0,0,8,62.333733
1897,-695,4,0,0,15,49.014267
12,546,1,0,0,0,1041.667236
-383,1144,2,0,0,0,832.596802
-1670,-1945,3,1,0,8,62.333733
353,-1273,4,1,0,15,49.014267
631,1057,1,0,0,0,807.590759
-179,1090,2,0,0,0,857.963135
-365,-1579,3,0,0,0,747.789795
266,-1651,4,0,0,0,738.789246
1344,722,1,0,0,0,745.962463
-1554,805,2,0,0,0,725.744690
-1556,-337,3,0,0,0,752.891968
42,-1056,4,0,0,0,870.686035
682,1805,1,0,0,0,678.686157
-136,1781,2,0,0,1,71.134743
-1777,-173,3,0,0,8,62.333733
443,-203,4,0,0,0,1093.789429
1448,1377,1,0,0,0,668.691711
-1968,895,2,1,0,1,71.134743
-1725,-854,3,0,0,8,62.333733
1660,-767,4,1,0,15,49.014267
1853,696,1,1,0,10,162.111084
-780,901,2,0,0,0,836.120422
-731,-1359,3,0,0,0,761.855103
633,-231,4,0,0,0,1000.338867
128,583,1,0,0,0,1016.046692
-1615,1622,2,0,0,1,71.134743
-74,-1834,3,0,0,15,49.014267
870,-1931,4,1,0,15,49.014267
927,1337,1,0,0,0,727.529907
-1539,956,2,0,0,1,71.134743
-1161,-442,3,0,0,0,824.167297
851,-1323,4,0,0,0,756.339783
946,1431,1,1,0,10,161.816467
-1850,710,2,1,0,1,71.134743
-1890,-8,3,0,0,1,71.134743
303,-178,4,0,0,0,1188.078491
157,843,1,0,0,0,911.646118
-896,665,2,1,0,1,71.134743
-445,-496,3,0,0,0,1003.551392
1206,-1278,4,0,0,0,724.589783
1392,1308,1,0,0,0,681.580933
-400,1760,2,0,0,1,71.134743
-1498,-744,3,1,0,8,62.333733
1572,-1334,4,1,0,15,49.014267
1791,881,1,0,0,0,669.013977
-510,1925,2,0,0,1,71.134743
-517,-756,3,0,0,0,911.905945
1745,-1746,4,0,0,15,49.014267
1451,1734,1,1,0,10,128.440109
-1092,1962,2,1,0,1,71.134743
-252,-759,3,1,0,8,62.333733
1526,-1584,4,1,0,15,49.014267
1883,1981,1,0,0,0,579.535339
-1896,354,2,0,0,1,71.134743
-1368,-66,3,0,0,0,796.121521
326,-6,4,0,0,0,1209.685791
106,269,1,0,0,0,1225.096191
-1760,683,2,0,0,1,71.134743
-1158,-931,3,0,0,0,772.716858
1279,-599,4,1,0,15,49.014267
504,568,1,0,0,0,946.655640
-915,539,2,0,0,0,869.295166
-115,-1222,3,0,0,0,827.635437
244,-1753,4,0,0,15,49.014267
137,186,1,0,0,0,1289.841187
-365,159,2,0,0,0,1152.078735
-1623,-1891,3,0,0,8,62.333733
268,-657,4,0,0,0,985.447632
1995,189,1,0,0,0,667.874268
-1658,727,2,0,0,1,71.134743
-1948,-517,3,0,0,8,62.333733
1664,-1,4,0,0,0,740.214661
931,1621,1,0,0,0,687.753662
-33,1635,2,0,0,0,745.199951
-1350,-1740,3,1,0,8,62.333733
1013,-58,4,0,0,0,882.410156
1932,1437,1,0,0,0,615.519348
-1864,985,2,1,0,1,71.134743
-1377,-1314,3,0,0,8,62.333733
1214,-1850,4,1,0,15,49.014267
804,362,1,1,0,10,288.352905
-248,1440,2,1,0,1,71.134743
-46,-939,3,0,0,0,904.378906
276,-1975,4,1,0,15,49.014267
424,375,1,0,0,0,1031.344238
-1774,811,2,0,0,1,71.134743
-499,-1377,3,0,0,0,776.847168
8,-1265,4,0,0,0,818.952271
1193,645,1,0,0,0,779.762146
-1446,420,2,0,0,0,768.892761
-509,-1534,3,0,0,0,748.569092
1673,-82,4,1,0,15,49.014267
1460,1559,1,0,0,0,649.663269
-372,1332,2,0,0,0,793.327820
-234,-1496,3,1,0,8,62.333733
1811,-1019,4,0,0,15,49.014267
1422,1534,1,0,0,0,655.630798
-1977,1130,2,0,0,1,71.134743
-1972,-188,3,0,0,8,62.333733
423,-398,4,0,0,0,1043.170288
836,1846,1,0,0,0,664.678040
-988,700,2,1,0,1,71.134743
-1961,-207,3,1,0,8,62.333733
1475,-383,4,1,0,15,49.014267
1125,1531,1,1,0,10,151.000992
-1117,810,2,1,0,1,71.134743
-659,-595,3,0,0,0,920.851807
609,-540,4,0,0,0,945.900452
1134,342,1,0,0,0,818.678772
-1106,471,2,0,0,0,833.622803
-137,-1418,3,0,0,0,784.805847
1314,-1077,4,0,0,0,734.248596
1603,1797,1,1,0,10,120.500023
-1288,1222,2,1,0,1,71.134743
-153,-1547,3,1,0,15,49.014267
1962,-943,4,0,0,15,49.014267
328,1331,1,1,0,10,149.770264
-1327,91,2,0,0,0,804.527039
-1440,-191,3,0,0,0,779.212891
1853,-510,4,0,0,15,49.014267
1520,786,1,0,0,0,713.057922
-1107,1021,2,0,0,0,768.856445
-1093,-1667,3,0,0,8,62.333733
578,-1480,4,0,0,0,753.471741
1154,223,1,0,0,0,820.896423
-895,190,2,1,0,1,71.134743
-1371,-1469,3,0,0,8,62.333733
300,-284,4,0,0,0,1141.426880
1695,227,1,1,0,10,174.610947
-1248,547,2,0,0,0,797.589417
-559,-61,3,0,0,0,1052.496582
452,-1580,4,0,0,0,743.791321
213,170,1,0,0,0,1242.161987
-1924,602,2,0,0,1,71.134743
-60,-674,3,0,0,0,999.129333
1107,-1126,4,0,0,0,755.253723
124,1198,1,0,0,0,813.875854
-713,1433,2,1,0,1,71.134743
-608,-1716,3,1,0,8,62.333733
1634,-981,4,0,0,15,49.014267
62,1957,1,0,0,0,674.503845
-282,1063,2,1,0,1,71.134743
-1081,-1981,3,1,0,8,62.333733
711,-528,4,0,0,0,921.584534
1160,345,1,0,0,0,812.490662
-470,1793,2,0,0,1,71.134743
-242,-1629,3,0,0,0,743.181763
564,-1984,4,0,0,15,49.014267
732,1553,1,0,0,0,712.110291
-400,1996,2,1,0,1,71.134743
-143,-263,3,0,0,0,1234.324951
625,-778,4,0,0,0,887.190063
1277,253,1,0,0,0,791.518616
-1596,1141,2,0,0,1,71.134743
-1147,-580,3,0,0,0,814.379150
1808,-346,4,0,0,15,49.014267
1721,1127,1,1,0,10,156.023560
-1211,1547,2,0,0,1,71.134743
-636,-892,3,0,0,0,860.339111
1521,-105,4,0,0,0,765.318848
1011,737,1,0,0,0,802.936157
-1324,1283,2,1,0,1,71.134743
-1587,-1766,3,0,0,8,62.333733
1985,-1325,4,0,0,15,49.014267
172,1164,1,0,0,0,820.580933
-581,916,2,0,0,0,863.190125
-1374,-1775,3,0,0,8,62.333733
641,-1566,4,0,0,0,735.410339
981,525,1,0,0,0,836.664185
-521,577,2,0,0,0,959.127136
-1854,-1864,3,0,0,8,62.333733
1658,-593,4,0,0,15,49.014267
835,722,1,0,0,0,838.945129
-819,1375,2,0,0,0,751.389404
-515,-1826,3,1,0,8,62.333733
1565,-805,4,0,0,0,724.148132
947,560,1,0,0,0,839.904602
-833,759,2,0,0,0,852.203857
-1391,-1550,3,0,0,8,62.333733
501,-1690,4,1,0,15,49.014267
1930,204,1,1,0,10,150.917847
-286,1210,2,0,0,0,823.924255
-864,-925,3,0,0,0,818.787598
1837,-662,4,0,0,15,49.014267
490,1320,1,0,0,0,768.994141
-1607,1547,2,0,0,1,71.134743
-209,-1924,3,1,0,15,49.014267
1485,-1641,4,0,0,15,49.014267
926,395,1,0,0,0,865.449768
-1102,1176,2,0,0,0,749.387390
-1515,-569,3,0,0,0,748.198853
1270,-1028,4,0,0,0,745.448364
1710,252,1,0,0,0,710.181213
-1123,956,2,0,0,0,774.856995
-1564,-1763,3,0,0,8,62.333733
677,-1680,4,1,0,15,49.014267
1505,466,1,0,0,0,736.741394
-53,670,2,0,0,0,1001.083740
-1243,-689,3,0,0,0,785.495789
901,-1360,4,1,0,15,49.014267
284,1389,1,0,0,0,767.018127
-1186,916,2,1,0,1,71.134743
-1471,-1218,3,0,0,8,62.333733
1803,-40,4,0,0,15,49.014267
116,1461,1,0,0,0,757.486877
-6,615,2,0,0,0,1026.662231
-236,-902,3,0,0,0,906.766907
1839,-1143,4,1,0,15,49.014267
987,1123,1,0,0,0,751.768799
-1142,348,2,0,0,0,835.607971
-316,-588,3,0,0,0,1003.046265
902,-1555,4,0,0,15,49.014267
1146,1165,1,0,0,0,726.255310
-1188,1283,2,1,0,1,71.134743
-459,-1972,3,1,0,8,62.333733
1047,-1273,4,0,0,0,742.942139
1954,1373,1,0,0,0,617.853516
-252,1246,2,0,0,0,817.545715
-986,-510,3,0,0,0,856.536987
835,-1235,4,0,0,0,771.762390
1647,1924,1,0,0,0,601.148865
-831,1690,2,0,0,1,71.134743
-1161,-1676,3,0,0,8,62.333733
519,-295,4,0,0,0,1035.249512
604,1305,1,0,0,0,762.943909
-1408,1869,2,0,0,1,71.134743
-1546,-1377,3,0,0,8,62.333733
1661,-1460,4,0,0,15,49.014267
173,219,1,1,0,0,313.953918
-1430,157,2,0,0,0,781.998657
-396,-948,3,0,0,0,878.821838
1075,-1306,4,0,0,0,735.509094
147,1612,1,0,0,0,728.985657
-900,1193,2,0,0,0,771.066467
-1988,-1449,3,0,0,8,62.333733
951,-1552,4,0,0,15,49.014267
74,1682,1,0,0,0,717.711670
-1008,1021,2,0,0,0,782.767273
-17,-743,3,1,0,15,49.014267
809,-809,4,0,0,0,847.853149
993,996,1,0,0,0,769.315735
-1590,150,2,0,0,0,751.994873
-1,-1883,3,0,0,15,49.014267
135,-204,4,0,0,0,1292.581299
1973,118,1,0,0,0,671.809509
-940,847,2,0,0,0,818.887634
-270,-902,3,0,0,0,903.944824
1354,-1254,4,0,0,15,49.014267
1312,702,1,0,0,0,753.132690
-1462,1971,2,0,0,1,71.134743
-226,-1667,3,0,0,0,737.086243
82,-292,4,0,0,0,1230.560059
491,1045,1,0,0,0,826.018188
-1945,1455,2,0,0,1,71.134743
-43,-380,3,1,0,15,49.014267
1007,-814,4,1,0,15,49.014267
116,1362,1,1,0,1,71.134743
-1991,600,2,0,0,1,71.134743
-724,-1262,3,1,0,8,62.333733
292,-267,4,0,0,0,1153.866577
737,583,1,0,0,0,885.280457
-268,920,2,0,0,0,898.882751
-161,-366,3,0,0,0,1150.836426
1840,-957,4,0,0,15,49.014267
1304,1561,1,0,0,0,663.620483
-852,280,2,1,0,1,71.134743
-1360,-1482,3,0,0,8,62.333733
1829,-310,4,0,0,15,49.014267
1531,709,1,1,0,10,201.716827
-987,1271,2,0,0,0,749.817139
-1451,-1794,3,0,0,8,62.333733
1174,-661,4,0,0,0,800.839172
1101,1382,1,0,0,0,703.874634
-1282,70,2,0,0,0,814.691589
-1224,-1447,3,1,0,8,62.333733
1831,-1478,4,0,0,15,49.014267
1604,915,1,1,0,10,180.010162
-844,421,2,0,0,0,903.446777
-1706,-514,3,1,0,8,62.333733
216,-1330,4,0,0,0,800.810669
1316,527,1,0,0,0,767.046143
-1534,1368,2,0,0,1,71.134743
-338,-1429,3,0,0,0,776.102234
190,-1399,4,1,0,15,49.014267
1776,1583,1,1,0,10,126.408081
-18,162,2,0,0,0,1409.715332
-702,-832,3,0,0,0,862.165039
402,-821,4,0,0,0,912.452881
569,345,1,0,0,0,984.714478
-189,45,2,0,0,0,1359.055298
-1714,-1358,3,0,0,8,62.333733
778,-1101,4,1,0,15,49.014267
927,587,1,0,0,0,840.680359
-1582,91,2,0,0,0,754.239868
-1268,-190,3,0,0,0,815.084534
579,-163,4,0,0,0,1033.072144
677,1902,1,0,0,0,665.749207
-289,1038,2,0,0,0,865.117310
-1903,-254,3,0,0,8,62.333733
156,-308,4,1,0,15,49.014267
1113,1512,1,1,0,10,152.896362
-759,1554,2,0,0,0,729.151611
-1521,-563,3,1,0,8,62.333733
697,-830,4,0,0,0,863.423462
875,549,1,0,0,0,858.043823
-1023,1457,2,0,0,1,71.134743
-1884,-380,3,1,0,8,62.333733
1609,-1513,4,0,0,15,49.014267
1941,1199,1,0,0,0,630.865601
-1467,839,2,0,0,0,735.772583
-228,-422,3,0,0,0,1098.348389
322,-1426,4,0,0,0,777.381775
1901,265,1,0,0,0,680.196411
-451,1995,2,0,0,1,71.134743
-286,-404,3,1,0,15,49.014267
1857,-115,4,0,0,15,49.014267
1754,131,1,0,0,0,705.185059
-613,1915,2,0,0,1,71.134743
-1338,-781,3,0,0,0,760.716370
200,-641,4,1,0,15,49.014267
1357,326,1,0,0,0,771.535095
-588,1577,2,0,0,0,736.949219
-704,-1897,3,0,0,8,62.333733
850,-1501,4,0,0,0,729.896240
1737,263,1,0,0,0,705.525146
-1169,1492,2,0,0,1,71.134743
-1185,-705,3,0,0,0,794.183472
1169,-20,4,0,0,0,841.616089
821,1016,1,0,0,0,790.542114
-361,1716,2,1,0,1,71.134743
-380,-1365,3,1,0,8,62.333733
1961,-1023,4,0,0,15,49.014267
319,966,1,0,0,0,862.440613
-1969,1948,2,0,0,1,71.134743
-378,-345,3,1,0,8,62.333733
710,-311,4,0,0,0,959.975830
1227,1277,1,0,0,0,703.228027
-1376,1204,2,0,0,1,71.134743
-1598,-1853,3,1,0,8,62.333733
798,-1742,4,1,0,15,49.014267
1215,1859,1,0,0,0,638.541687
-1635,1437,2,0,0,1,71.134743
-1192,-1420,3,0,0,8,62.333733
489,-647,4,1,0,15,49.014267
215,268,1,0,0,0,1175.322021
-1805,1280,2,1,0,1,71.134743
-1984,-1150,3,0,0,8,62.333733
71,-471,4,0,0,0,1100.359253
1239,795,1,0,0,0,756.211731
-998,329,2,0,0,0,872.326172
-1866,-172,3,0,0,8,62.333733
498,-466,4,0,0,0,996.854614
88,158,1,0,0,0,1360.458740
-1175,778,2,0,0,0,787.924438
-1167,-661,3,1,0,8,62.333733
217,-686,4,0,0,0,981.435974
149,368,1,0,0,0,1133.624878
-788,1986,2,0,0,1,71.134743
-1768,-1958,3,0,0,8,62.333733
513,-1746,4,0,0,15,49.014267
1938,322,1,0,0,0,673.543762
-1345,1319,2,0,0,1,71.134743
-385,-1933,3,0,0,8,62.333733
633,-1232,4,0,0,0,792.884827
1152,95,1,0,0,0,825.692261
-873,933,2,0,0,0,816.076599
-1989,-1861,3,0,0,8,62.333733
1964,-1531,4,0,0,15,49.014267
440,1086,1,0,0,0,821.778687
-916,261,2,1,0,1,71.134743
-1062,-1057,3,0,0,0,770.307007
1485,-1975,4,0,0,15,49.014267
8,498,1,0,0,0,1068.233032
-873,1970,2,0,0,1,71.134743
-973,-1247,3,1,0,8,62.333733
1525,-1494,4,0,0,15,49.014267
465,704,1,1,0,10,210.925858
-1046,1709,2,0,0,1,71.134743
-681,-145,3,0,0,0,990.898499
464,-1386,4,0,0,0,777.440002
843,490,1,0,0,0,874.648621
-808,546,2,0,0,0,893.836182
-74,-305,3,0,0,0,1220.692749
336,-106,4,0,0,0,1187.334106
923,1929,1,0,0,0,649.323120
-1004,925,2,0,0,0,797.054260
-982,-1505,3,1,0,8,62.333733
1189,-211,4,0,0,0,832.318604
1777,1733,1,0,0,0,606.874512
-195,785,2,0,0,0,947.701660
-728,-1963,3,0,0,8,62.333733
27,-935,4,0,0,0,905.833435
320,979,1,0,0,0,858.880249
-422,1452,2,0,0,0,767.690247
-1935,-571,3,0,0,8,62.333733
1719,-718,4,0,0,15,49.014267
1253,1922,1,1,0,10,120.238625
-1157,189,2,0,0,0,840.838562
-853,-484,3,0,0,0,892.197449
965,-1984,4,0,0,15,49.014267
751,1256,1,0,0,0,757.917725
-1405,1754,2,0,0,1,71.134743
-849,-401,3,0,0,0,904.743408
810,-1254,4,0,0,0,771.364563
360,1267,1,0,0,0,788.154602
-145,9,2,0,0,0,1442.917236
-456,-1290,3,0,0,0,796.408569
858,-422,4,0,0,0,899.507751
1389,1498,1,0,0,0,662.376587
-1833,1271,2,0,0,1,71.134743
-1275,-781,3,0,0,0,770.916138
49,-1263,4,0,0,0,819.196777
1162,1699,1,1,0,10,136.628983
-293,1044,2,0,0,0,863.291809
-1415,-131,3,0,0,0,785.523010
1150,-573,4,0,0,0,814.481934
1396,130,1,1,0,10,202.441254
-263,1075,2,0,0,0,857.415649
-1440,-1926,3,1,0,8,62.333733
1771,-85,4,0,0,15,49.014267
897,1879,1,0,0,0,656.941467
-720,1693,2,1,0,1,71.134743
-1645,-203,3,0,0,0,741.341125
365,-627,4,0,0,0,979.042847
1517,1479,1,0,0,0,651.976074
-1790,1286,2,0,0,1,71.134743
-1713,-1947,3,0,0,8,62.333733
1294,-1830,4,1,0,15,49.014267
1152,1881,1,0,0,0,640.487061
-654,908,2,0,0,0,854.233765
-1072,-1275,3,1,0,8,62.333733
350,-1863,4,0,0,15,49.014267
283,409,1,0,0,0,1068.639404
-895,1518,2,0,0,1,71.134743
-1804,-1310,3,0,0,8,62.333733
6,-316,4,0,0,0,1218.670166
1301,70,1,0,0,0,791.284607
-1166,423,2,0,0,0,824.615417
-689,-68,3,0,0,0,992.525146
1113,-1858,4,0,0,15,49.014267
1066,151,1,0,0,0,846.128296
-1372,1036,2,0,0,0,730.854248
-501,-1831,3,0,0,8,62.333733
627,-212,4,0,0,0,1005.501831
298,971,1,0,0,0,862.896118
-716,1511,2,0,0,0,738.829285
-801,-1865,3,0,0,8,62.333733
1786,-1058,4,0,0,15,49.014267
973,384,1,0,0,0,854.427368
-1468,1746,2,0,0,1,71.134743
-415,-1937,3,0,0,8,62.333733
292,-687,4,0,0,0,970.827698
41,1850,1,0,0,0,690.657532
-1308,733,2,0,0,0,770.111267
-488,-1459,3,0,0,0,762.726562
650,-310,4,0,0,0,981.181519
1382,353,1,0,0,0,765.274963
-1827,374,2,1,0,1,71.134743
-1624,-579,3,0,0,0,730.035278
1634,-1146,4,0,0,15,49.014267
1992,1377,1,0,0,0,613.894714
-1200,1920,2,0,0,1,71.134743
-687,-241,3,0,0,0,978.034546
1615,-207,4,0,0,0,746.451843
84,284,1,0,0,0,1218.165161
-1923,94,2,1,0,1,71.134743
-1858,-1003,3,1,0,8,62.333733
506,-219,4,0,0,0,1058.171631
659,1129,1,0,0,0,790.321289
-255,1449,2,1,0,1,71.134743
-1489,-729,3,0,0,0,741.271851
463,-1743,4,0,0,15,49.014267
803,1303,1,0,0,0,745.040894
-1681,215,2,0,0,0,734.972778
-1940,-1187,3,0,0,8,62.333733
744,-1163,4,1,0,15,49.014267
1583,267,1,0,0,0,731.356445
-372,1316,2,0,0,0,796.546387
-1050,-949,3,0,0,0,786.686401
1391,-322,4,1,0,15,49.014267
512,1162,1,1,0,10,175.239822
-560,1825,2,1,0,1,71.134743
-422,-1246,3,0,0,0,807.698364
1656,-1355,4,0,0,15,49.014267
239,274,1,0,0,0,1158.996582
-1538,949,2,1,0,1,71.134743
-1798,-1909,3,0,0,8,62.333733
668,-801,4,1,0,15,49.014267
380,1941,1,0,0,0,671.618469
-31,826,2,0,0,0,941.456116
-1769,-320,3,1,0,8,62.333733
325,-793,4,0,0,0,931.039490
1454,1144,1,0,0,0,690.713074
-1207,1125,2,0,0,0,742.639771
-257,-731,3,0,0,0,960.074280
1902,-57,4,1,0,15,49.014267
875,460,1,0,0,0,870.695374
-657,664,2,1,0,1,71.134743
-1947,-201,3,0,0,8,62.333733
1770,-160,4,0,0,15,49.014267
1161,1789,1,0,0,0,650.090576
-875,489,2,0,0,0,885.918274
-842,-79,3,0,0,0,934.868896
1996,-91,4,0,0,15,49.014267
107,893,1,0,0,0,897.909180
-1827,543,2,0,0,1,71.134743
-1388,-353,3,0,0,0,783.281006
1972,-1659,4,0,0,15,49.014267
100,527,1,0,0,0,1046.849731
-1894,687,2,0,0,1,71.134743
-1039,-730,3,1,0,8,62.333733
1829,-1737,4,1,0,15,49.014267
1553,357,1,0,0,0,733.481628
-1183,1215,2,0,0,0,734.786621
-1001,-1831,3,0,0,8,62.333733
1305,-1225,4,0,0,15,49.014267
360,498,1,1,0,10,198.262711
-354,1159,2,0,0,0,831.300964
-621,-1445,3,0,0,0,756.389954
686,-1388,4,0,0,0,760.899963
630,984,1,1,0,10,205.253616
-318,499,2,0,0,0,1037.804565
-1021,-524,3,0,0,0,846.970642
467,-81,4,0,0,0,1101.784912
1512,797,1,0,0,0,713.393066
-866,113,2,0,0,0,925.603027
-12,-48,3,0,0,0,1753.709351
1815,-1705,4,0,0,15,49.014267
839,1100,1,0,0,0,774.049011
-1235,1205,2,0,0,0,729.811890
-1762,-745,3,0,0,8,62.333733
1629,-720,4,0,0,15,49.014267
1615,718,1,0,0,0,703.800171
-956,410,2,1,0,1,71.134743
-263,-863,3,1,0,8,62.333733
174,-1854,4,0,0,15,49.014267
563,1699,1,0,0,0,700.188049
-189,1328,2,1,0,1,71.134743
-1823,-1752,3,1,0,8,62.333733
1784,-675,4,0,0,15,49.014267
1083,194,1,0,0,0,839.890686
-1052,1182,2,1,0,1,71.134743
-487,-539,3,1,0,8,62.333733
967,-679,4,0,0,0,838.578979
1898,1003,1,0,0,0,648.221680
-1913,468,2,0,0,1,71.134743
-1442,-1571,3,0,0,8,62.333733
1382,-1068,4,1,0,15,49.014267
1224,1897,1,0,0,0,633.860962
-1582,157,2,1,0,1,71.134743
-495,-1361,3,1,0,8,62.333733
1093,-361,4,0,0,0,846.104492
1834,542,1,1,0,10,165.742462
-402,883,2,0,0,0,895.310242
-1786,-1676,3,0,0,8,62.333733
1783,-1156,4,1,0,15,49.014267
878,1716,1,1,0,10,136.252777
-445,687,2,0,0,0,944.275879
-1777,-973,3,1,0,8,62.333733
1729,-731,4,0,0,15,49.014267
557,1640,1,0,0,0,709.595459
-625,391,2,0,0,0,974.422058
-455,-1554,3,0,0,0,748.037048
1102,-165,4,1,0,15,49.014267
82,910,1,0,0,0,893.367004
-54,983,2,1,0,1,71.134743
-1199,-559,3,0,0,0,806.089417
1525,-695,4,0,0,0,738.170471
1148,1661,1,0,0,0,665.717896
-1272,452,2,0,0,0,800.278992
-183,-1712,3,0,0,0,730.430420
688,-1306,4,0,0,0,774.598694
278,834,1,0,0,0,904.475281
-886,796,2,0,0,0,836.281372
-1536,-224,3,0,0,0,760.163452
1640,-1681,4,0,0,15,49.014267
1447,784,1,0,0,0,724.234497
-901,1613,2,1,0,1,71.134743
-1221,-686,3,0,0,0,789.705688
1019,-1362,4,0,0,0,733.907349
1552,1740,1,0,0,0,624.675720
-912,1101,2,0,0,0,783.786682
-1569,-275,3,0,0,0,752.740234
468,-876,4,0,0,0,888.571228
522,1285,1,0,0,0,773.316467
-1264,1218,2,0,0,0,724.891907
-1263,-123,3,0,0,0,818.055664
285,-74,4,0,0,0,1239.098145
1772,734,1,0,0,0,680.401611
-1812,992,2,0,0,1,71.134743
-574,-1284,3,0,0,0,788.488281
1208,-92,4,1,0,15,49.014267
1416,91,1,0,0,0,766.778320
-549,21,2,0,0,0,1059.197388
-679,-1668,3,0,0,8,62.333733
1314,-883,4,0,0,0,754.509827
453,1764,1,1,0,10,125.606216
-364,542,2,0,0,0,1009.441772
-1149,-170,3,1,0,8,62.333733
2,-7,4,1,0,0,1894.026245
337,446,1,0,0,0,1034.950684
-1298,101,2,1,0,1,71.134743
-1530,-156,3,0,0,0,762.823120
1726,-283,4,1,0,15,49.014267
1071,859,1,0,0,0,776.241455
-583,-1484,3,0,0,0,752.471252
584,-1328,4,0,0,0,779.583801
1221,554,1,0,0,0,783.041504
-1290,-368,3,0,0,0,802.085327
1347,-848,4,0,0,0,752.959534
190,1446,1,0,0,0,758.894226
-850,-1950,3,1,0,8,62.333733
827,-1991,4,0,0,15,49.014267
885,1201,1,0,0,0,752.390869
-1367,-126,3,0,0,0,795.450073
1727,-1525,4,1,0,15,49.014267
1095,778,1,0,0,0,782.518982
-841,-1724,3,0,0,8,62.333733
916,-220,4,0,0,0,903.790527
1836,514,1,1,0,10,165.520157
-960,-573,3,0,0,0,854.492615
844,-116,4,0,0,0,932.752380
1279,185,1,0,0,0,793.625610
-714,-540,3,0,0,0,918.479797
1004,-935,4,0,0,0,795.627319
1531,924,1,0,0,0,700.448792
-222,-11,3,0,0,0,1320.225586
1607,-590,4,0,0,0,732.078491
595,436,1,0,0,0,955.018677
-31,-1699,3,0,0,0,734.197266
862,-1310,4,0,0,0,757.234741
1171,1519,1,0,0,0,680.407104
-1918,-1730,3,1,0,8,62.333733
214,-1735,4,1,0,15,49.014267
223,1351,1,1,0,10,142.582901
-1094,-466,3,0,0,0,836.750610
478,-1042,4,1,0,15,49.014267
1526,870,1,1,0,10,192.162567
-1650,-1608,3,0,0,8,62.333733
634,-847,4,1,0,15,49.014267
200,529,1,0,0,0,1031.596436
-1988,-1732,3,0,0,8,62.333733
464,-1341,4,0,0,0,785.936890
1982,114,1,0,0,0,670.547119
-1418,-1940,3,0,0,8,62.333733
1263,-1718,4,0,0,15,49.014267
1346,785,1,0,0,0,739.909851
-334,-743,3,0,0,0,945.656189
1093,-1400,4,0,0,15,49.014267
592,1521,1,0,0,0,726.612122
-1769,-311,3,0,0,8,62.333733
1135,-1221,4,0,0,0,739.688904
-1319,-235,3,0,0,0,802.448425
1545,-1163,4,0,0,15,49.014267
-1840,-1672,3,0,0,8,62.333733
855,-1320,4,1,0,15,49.014267
-1244,-1682,3,0,0,8,62.333733
760,-9,4,0,0,0,965.634888
-1725,-975,3,0,0,8,62.333733
116,-1611,4,0,0,0,748.759094
-1134,-712,3,0,0,0,802.615295
553,-1918,4,0,0,15,49.014267
-1066,-1575,3,0,0,8,62.333733
742,-1023,4,0,0,0,819.239746
774,-1888,4,0,0,15,49.014267
495,-1951,4,0,0,15,49.014267
1598,-1154,4,0,0,15,49.014267
1810,-92,4,0,0,15,49.014267
407,-678,4,1,0,15,49.014267
1527,-1610,4,1,0,15,49.014267
317,-1514,4,0,0,0,761.166992
1882,-111,4,1,0,15,49.014267
597,-1354,4,1,0,15,49.014267
440,-561,4,0,0,0,984.066589
378,-621,4,0,0,0,978.449707
1177,-750,4,0,0,0,790.705933
1065,-286,4,1,0,15,49.014267
888,-634,4,0,0,0,861.502197
1727,-931,4,0,0,15,49.014267
279,-595,4,0,0,0,1007.558655
1624,-1829,4,0,0,15,49.014267
64,-1445,4,0,0,0,780.440613
360,-175,4,0,0,0,1150.522827
1144,-195,4,0,0,0,843.757812
1348,-633,4,0,0,0,772.063538
416,-1006,4,0,0,0,862.157227
1116,-1173,4,0,0,0,748.067505
1507,-1329,4,0,0,15,49.014267
118,-436,4,0,0,0,1115.675293
17,-1801,4,0,0,15,49.014267
676,-877,4,0,0,0,857.261719
1816,-1245,4,0,0,15,49.014267
