each times' max average throughput
633.335449,635.759949,631.479797,636.228455,634.293762,636.145386,636.047729,631.396851,639.708984,634.124023,633.977722,633.689636,597.696960,0.000000,0.000000,0.000000,626.497559,631.641724,635.608459,630.358826,626.435181,636.931152,634.840515,634.298401,633.608521,632.134583,632.265808,635.279114,637.304138,631.924194,634.409729,628.776367,636.250916,622.488098,630.410339,635.884766,633.694641,637.061523,631.937256,636.606201,630.356873,630.481262,634.299316,635.378723,632.086304,634.614929,638.359375,632.670654,639.135986,630.864441,631.516724,642.114258,634.460205,630.920532,634.679565,632.729492,631.174805,629.890869,640.682739,636.973938,634.754456,637.158264,631.325195,633.805908,631.887756,617.950500,626.981750,630.090820,637.506897,634.183105,0.000000,0.000000,626.401611,637.156067,634.489075,632.356079,640.089355,630.709167,634.284851,631.051453,635.169861,635.850525,634.793518,636.934814,630.105225,632.262939,0.000000,0.000000,0.000000,630.346008,631.835388,633.774536,634.448730,634.144592,634.393616,633.092896,631.764954,637.777954,631.738464,635.864929,
avg. throughput in all test times
582.403992
avg. BS TX power in all test times
MBS area 1,MBS area 2,MBS area 3,MBS area 4,CBSD 1,CBSD 2,CBSD 3,CBSD 4,CBSD 5,CBSD 6,CBSD 7,CBSD 8,CBSD 9,CBSD 10,CBSD 11,CBSD 12,CBSD 13,CBSD 14,CBSD 15,CBSD 16,CBSD 17,CBSD 18,CBSD 19,CBSD 20,CBSD 21,CBSD 22,CBSD 23,CBSD 24,CBSD 25,
9.562,9.450,9.300,9.413,0.119,0.194,0.110,0.185,0.114,0.185,0.136,0.099,0.094,0.150,0.112,0.127,0.177,0.149,0.153,0.111,0.087,0.112,0.157,0.108,0.112,0.176,0.112,0.151,0.121,
avg. mbs all power,avg. cbsd enable number,avg. mbs area all power,avg. cbsd all power
70.875,4.000,37.725,3.354
avg. max avg. throughput generation number in all test times
74.209999
avg. number of relay UE
267

the max average throughput times

BS TX power
MBS area 1,MBS area 2,MBS area 3,MBS area 4,CBSD 1,CBSD 2,CBSD 3,CBSD 4,CBSD 5,CBSD 6,CBSD 7,CBSD 8,CBSD 9,CBSD 10,CBSD 11,CBSD 12,CBSD 13,CBSD 14,CBSD 15,CBSD 16,CBSD 17,CBSD 18,CBSD 19,CBSD 20,CBSD 21,CBSD 22,CBSD 23,CBSD 24,CBSD 25,
10.000,8.750,8.750,10.000,0.000,0.000,0.000,0.875,0.750,0.000,0.000,0.000,0.000,0.000,0.500,0.000,0.000,0.000,0.000,0.000,1.000,0.000,0.000,0.000,0.000,0.000,0.000,0.000,0.000,
max average throughput
635.864929

x,y,area,be blocked (1 : NLOS / 0 : LOS),be blocked number (>=1 : CBSD(x) / 0 : no),connect bs number (>=1 : CBSD / 0 : MBS),throughput (unit : M bps)
967,478,1,0,0,0,864.794250
-1620,1398,2,1,0,5,144.218246
-267,-1127,3,0,0,0,825.124390
1424,-1999,4,0,0,0,629.078247
796,1416,1,0,0,0,747.124451
-218,1657,2,0,0,0,719.821167
-1422,-1886,3,1,0,4,127.758888
1307,-524,4,0,0,0,788.147827
555,44,1,1,0,17,138.112106
-388,1929,2,0,0,0,673.098145
-1336,-941,3,1,0,4,127.758888
1806,-1823,4,0,0,0,616.399231
144,1821,1,0,0,0,713.475098
-1686,1043,2,0,0,0,670.941956
-1175,-1974,3,0,0,0,628.902832
634,-823,4,1,0,11,144.788666
877,315,1,0,0,0,906.923767
-636,609,2,0,0,0,904.003235
-446,-1594,3,0,0,0,722.588501
168,-171,4,0,0,0,1298.425415
1718,1555,1,0,0,0,645.464783
-1422,1335,2,0,0,0,675.603394
-483,-712,3,1,0,4,127.758888
81,-1387,4,1,0,11,144.788666
867,556,1,0,0,0,878.100159
-1688,642,2,1,0,5,139.797897
-80,-133,3,0,0,0,1404.582642
752,-1073,4,1,0,11,144.788666
432,1324,1,1,0,17,138.112106
-1751,1954,2,1,0,5,111.032845
-1615,-948,3,0,0,0,687.241760
977,-567,4,1,0,11,144.788666
1079,832,1,0,0,0,797.608643
-1661,450,2,0,0,0,711.441956
-1001,-1055,3,0,0,0,759.705566
363,-861,4,0,0,0,906.140564
1646,213,1,0,0,0,740.952637
-1962,927,2,0,0,0,645.148804
-1348,-230,3,0,0,0,777.382507
1855,-687,4,0,0,0,690.670593
978,539,1,0,0,0,854.829529
-76,782,2,0,0,0,936.839966
-740,-1088,3,1,0,4,127.758888
590,-137,4,0,0,0,1031.070435
955,641,1,1,0,17,138.112106
-1685,141,2,1,0,5,118.584862
-1156,-382,3,1,0,4,127.758888
132,-799,4,0,0,0,947.355164
1001,447,1,0,0,0,860.141418
-273,1312,2,0,0,0,783.191895
-1523,-1531,3,0,0,0,646.526917
1093,-416,4,0,0,0,841.537781
1292,387,1,0,0,0,800.535706
-1910,314,2,1,0,5,113.299599
-1844,-1136,3,0,0,0,645.693054
452,-1954,4,0,0,0,686.725159
418,243,1,0,0,0,1096.044678
-1170,722,2,0,0,0,775.841125
-101,-1807,3,0,0,0,697.012085
1056,-1640,4,0,0,0,694.685059
1590,556,1,0,0,0,736.718201
-1565,1344,2,1,0,5,151.432419
-1181,-1557,3,1,0,4,127.758888
662,-1946,4,0,0,0,679.693054
272,1735,1,1,0,17,138.112106
-1319,438,2,0,0,0,772.728455
-676,-857,3,0,0,0,842.178345
879,-140,4,0,0,0,920.134521
1510,1734,1,0,0,0,647.678345
-195,812,2,1,0,17,138.112106
-1311,-1758,3,0,0,0,642.136658
1315,-1116,4,1,0,11,144.788666
846,276,1,0,0,0,920.197998
-1027,817,2,1,0,5,243.578568
-197,-1410,3,0,0,0,765.813904
823,-717,4,0,0,0,861.391235
630,1908,1,0,0,0,686.194702
-806,1450,2,0,0,0,721.942017
-977,-1403,3,0,0,0,713.315308
1584,-1678,4,0,0,0,646.659973
211,1530,1,0,0,0,761.603149
-329,435,2,0,0,0,1042.051636
-1720,-735,3,1,0,4,127.758888
884,-792,4,0,0,0,837.287781
1204,1885,1,0,0,0,655.557556
-1564,78,2,0,0,0,738.485168
-986,-716,3,0,0,0,810.518921
1011,-1912,4,0,0,0,665.147522
1143,1558,1,0,0,0,697.377869
-1094,161,2,0,0,0,838.444519
-1851,-273,3,0,0,0,687.494812
1102,-806,4,0,0,0,797.023499
1469,194,1,0,0,0,773.507935
-573,298,2,0,0,0,993.315613
-654,-206,3,0,0,0,976.072388
1129,-1400,4,0,0,0,717.928650
303,1231,1,0,0,0,818.335266
-642,1836,2,0,0,0,676.404175
-1122,-1433,3,0,0,0,695.407837
1786,-497,4,0,0,0,709.244751
1390,898,1,0,0,0,741.797729
-1200,1186,2,0,0,0,717.106873
-1863,-67,3,1,0,4,127.758888
1841,-755,4,0,0,0,688.987244
1646,1334,1,1,0,17,138.112106
-330,483,2,0,0,0,1021.860474
-128,-1354,3,1,0,4,127.758888
1200,-980,4,0,0,0,760.704773
1000,509,1,0,0,0,853.442871
-394,156,2,0,0,0,1114.826172
-102,-869,3,0,0,0,905.837219
68,-1898,4,1,0,11,144.788666
943,1767,1,1,0,17,138.112106
-931,1464,2,1,0,5,205.181931
-869,-1109,3,0,0,0,768.810303
1448,-116,4,1,0,11,144.788666
1642,1199,1,0,0,0,682.820129
-1985,665,2,0,0,0,655.395813
-1852,-1757,3,1,0,4,127.758888
513,-1098,4,0,0,0,831.283752
1966,640,1,0,0,0,678.024658
-1536,1428,2,1,0,5,150.358749
-218,-1110,3,0,0,0,831.906311
866,-594,4,0,0,0,872.515564
522,632,1,0,0,0,943.864868
-1340,1310,2,0,0,0,687.047302
-1728,-1981,3,1,0,4,127.758888
389,-1110,4,0,0,0,839.894470
587,1784,1,0,0,0,705.525940
-77,758,2,0,0,0,945.696167
-1044,-622,3,0,0,0,811.298462
601,-214,4,0,0,0,1016.107422
1305,302,1,1,0,17,138.112106
-269,1057,2,1,0,17,138.112106
-115,-841,3,1,0,4,127.758888
1057,-1650,4,1,0,11,144.788666
504,153,1,0,0,0,1071.359497
-642,866,2,0,0,0,845.761047
-1496,-648,3,0,0,0,726.934387
1928,-668,4,0,0,0,681.798218
918,1885,1,0,0,0,674.028809
-541,269,2,0,0,0,1012.541626
-1924,-1283,3,0,0,0,627.010986
952,-1638,4,0,0,0,703.026306
31,1655,1,0,0,0,741.720093
-592,1357,2,0,0,0,754.581177
-1868,-981,3,0,0,0,653.155579
632,-571,4,0,0,0,932.817200
1989,397,1,0,0,0,683.514709
-891,1328,2,0,0,0,732.457336
-1638,-592,3,0,0,0,707.997437
80,-624,4,1,0,11,144.788666
782,998,1,0,0,0,818.303223
-351,279,2,0,0,0,1098.540161
-457,-674,3,0,0,0,926.525330
1852,-1123,4,0,0,0,664.746033
1575,1698,1,0,0,0,645.616638
-1064,632,2,0,0,0,806.070984
-297,-290,3,0,0,0,1120.780029
1266,-455,4,0,0,0,801.268616
1181,72,1,0,0,0,838.186584
-122,109,2,0,0,0,1389.386353
-748,-132,3,0,0,0,946.583740
840,-346,4,1,0,11,144.788666
413,734,1,0,0,0,936.058289
-35,1551,2,1,0,17,138.112106
-796,-1129,3,0,0,0,774.474548
1385,-575,4,0,0,0,770.066895
454,206,1,0,0,0,1087.205444
-1975,936,2,0,0,0,643.105530
-697,-810,3,0,0,0,848.285095
1864,-95,4,0,0,0,707.311157
1914,894,1,0,0,0,671.877258
-221,319,2,1,0,0,196.560822
-793,-1492,3,0,0,0,716.688843
109,-1102,4,0,0,0,857.240479
1504,427,1,0,0,0,758.101013
-1272,1741,2,0,0,0,646.968933
-1514,-13,3,1,0,4,127.758888
926,-1569,4,1,0,11,144.788666
920,1273,1,1,0,17,138.112106
-348,667,2,0,0,0,949.340637
-1743,-432,3,1,0,4,127.758888
1645,-404,4,1,0,11,144.788666
1037,1543,1,0,0,0,708.437927
-145,514,2,1,0,17,138.112106
-325,-368,3,0,0,0,1072.371338
1839,-1833,4,0,0,0,613.051025
1204,1999,1,0,0,0,643.458496
-1434,1243,2,0,0,0,683.439880
-474,-1546,3,0,0,0,729.279297
1937,-1751,4,0,0,0,611.453735
112,595,1,0,0,0,1031.188232
-1831,1929,2,1,0,5,108.375931
-1839,-1775,3,0,0,0,598.556335
1329,-203,4,0,0,0,801.453918
1150,1294,1,0,0,0,728.867310
-1318,1288,2,0,0,0,691.837036
-843,-1911,3,1,0,4,127.758888
1806,-1085,4,0,0,0,672.640442
412,106,1,1,0,0,181.594147
-617,1075,2,0,0,0,805.621582
-207,-1433,3,0,0,0,760.979370
925,-505,4,0,0,0,871.493835
368,446,1,1,0,17,138.112106
-1087,1858,2,1,0,5,147.635742
-997,-1548,3,1,0,4,127.758888
389,-1360,4,0,0,0,786.842590
225,1913,1,1,0,17,138.112106
-1129,1617,2,0,0,0,672.444641
-87,-38,3,0,0,0,1546.406860
1677,-411,4,0,0,0,729.619507
726,1939,1,0,0,0,677.622559
-1669,624,2,0,0,0,701.473083
-477,-569,3,1,0,4,127.758888
388,-128,4,0,0,0,1144.612305
1026,1224,1,0,0,0,751.980774
-1117,940,2,0,0,0,758.606018
-221,-56,3,0,0,0,1293.642578
1209,-1499,4,1,0,11,144.788666
244,1245,1,0,0,0,818.121582
-288,435,2,0,0,0,1054.864868
-1014,-410,3,0,0,0,841.591553
1423,-598,4,0,0,0,761.777161
1057,771,1,0,0,0,809.277832
-75,1257,2,0,0,0,801.076721
-756,-753,3,0,0,0,848.709412
35,-1724,4,0,0,0,729.997498
1244,1351,1,1,0,17,138.112106
-1967,418,2,1,0,5,113.211784
-608,-893,3,0,0,0,845.144165
619,-1040,4,0,0,0,831.677124
1482,61,1,0,0,0,773.217346
-288,875,2,1,0,17,138.112106
-758,-1180,3,1,0,4,127.758888
1125,-260,4,0,0,0,845.210876
1428,1657,1,0,0,0,661.918518
-967,850,2,1,0,5,265.409790
-28,-1936,3,1,0,4,127.758888
1175,-946,4,0,0,0,768.372986
393,1066,1,0,0,0,849.862671
-1562,1175,2,0,0,0,674.997742
-404,-902,3,0,0,0,870.755066
1614,-1885,4,0,0,0,625.934570
1141,396,1,1,0,17,138.112106
-1894,1093,2,0,0,0,642.951721
-179,-1624,3,0,0,0,726.315735
597,-1287,4,0,0,0,785.993896
1114,917,1,0,0,0,781.145081
-1416,1723,2,0,0,0,637.342285
-466,-826,3,0,0,0,882.635498
336,-48,4,0,0,0,1198.104980
1247,1287,1,1,0,17,138.112106
-1931,1457,2,0,0,0,614.200012
-1665,-289,3,0,0,0,716.647034
1480,-434,4,0,0,0,762.004883
829,32,1,0,0,0,940.399841
-995,1074,2,0,0,0,757.786133
-1898,-947,3,0,0,0,651.643188
274,-955,4,0,0,0,888.469055
820,23,1,1,0,11,144.788666
-956,821,2,0,0,0,800.868225
-1589,-671,3,0,0,0,710.778992
152,-570,4,0,0,0,1038.680542
186,1538,1,0,0,0,760.726440
-1826,640,2,0,0,0,677.892578
-1270,-627,3,0,0,0,767.300354
1908,-391,4,0,0,0,695.113953
180,1941,1,0,0,0,694.867554
-1008,1997,2,0,0,0,636.476990
-1097,-1314,3,0,0,0,712.969604
753,-1354,4,0,0,0,760.709351
1061,1348,1,1,0,17,138.112106
-11,897,2,0,0,0,898.653076
-1457,-551,3,0,0,0,739.997986
1060,-1522,4,0,0,0,709.108154
790,1451,1,0,0,0,742.269897
-433,1938,2,0,0,0,670.474060
-1178,-1342,3,0,0,0,700.856201
1932,-1084,4,0,0,0,658.299011
982,751,1,0,0,0,825.567993
-1920,270,2,0,0,0,677.304688
-252,-485,3,0,0,0,1041.440796
831,-853,4,0,0,0,836.326111
152,425,1,0,0,0,1115.881226
-96,1957,2,0,0,0,674.303772
-391,-1953,3,0,0,0,669.615845
811,-1747,4,1,0,11,144.788666
1973,1491,1,1,0,17,138.112106
-1006,1678,2,0,0,0,674.726562
-359,-1840,3,0,0,0,686.933960
1364,-1990,4,0,0,0,633.966309
1826,1893,1,0,0,0,609.388245
-626,1694,2,1,0,17,138.112106
-1702,-1297,3,0,0,0,649.134949
275,-371,4,0,0,0,1109.283813
95,1017,1,0,0,0,880.496094
-1139,209,2,0,0,0,825.168884
-1717,-474,3,0,0,0,701.571167
1476,-1959,4,1,0,11,144.788666
1100,1443,1,0,0,0,715.399780
-1967,1556,2,0,0,0,603.925415
-878,-997,3,0,0,0,785.691589
396,-1888,4,1,0,11,144.788666
667,1321,1,0,0,0,773.878967
-1690,1503,2,1,0,5,134.322433
-1732,-515,3,1,0,4,127.758888
691,-1741,4,0,0,0,706.285583
496,995,1,1,0,17,138.112106
-386,115,2,1,0,0,184.769409
-398,-217,3,0,0,0,1095.382568
75,-1431,4,1,0,11,144.788666
862,1359,1,0,0,0,749.799744
-619,1304,2,0,0,0,761.855591
-1238,-176,3,1,0,4,127.758888
1947,-570,4,0,0,0,683.446106
1594,1465,1,1,0,17,138.112106
-469,1530,2,0,0,0,732.267151
-1789,-1671,3,1,0,4,127.758888
612,-1065,4,1,0,11,144.788666
1343,525,1,0,0,0,781.325195
-938,1628,2,0,0,0,686.294495
-1822,-1565,3,0,0,0,616.224548
35,-632,4,0,0,0,1018.373535
295,809,1,0,0,0,929.666992
-1682,194,2,1,0,5,121.261459
-1705,-1632,3,0,0,0,621.205811
80,-1941,4,0,0,0,695.850281
1512,35,1,1,0,11,144.788666
-866,21,2,0,0,0,908.718872
-63,-944,3,1,0,4,127.758888
1736,-257,4,0,0,0,724.960388
1521,1620,1,0,0,0,657.424255
-702,1916,2,0,0,0,662.700989
-361,-47,3,0,0,0,1158.633789
153,-1830,4,0,0,0,711.958069
1218,1361,1,1,0,17,138.112106
-1508,544,2,1,0,5,151.436020
-1393,-864,3,1,0,4,127.758888
1356,-1202,4,0,0,0,715.778992
1368,1732,1,1,0,17,138.112106
-868,1486,2,0,0,0,711.432434
-1165,-675,3,0,0,0,781.840454
1827,-1140,4,1,0,11,144.788666
1625,1605,1,0,0,0,649.585571
-270,1351,2,0,0,0,775.240967
-1848,-319,3,0,0,0,686.836975
1969,-499,4,0,0,0,683.090149
692,1434,1,0,0,0,752.862732
-852,526,2,0,0,0,867.008911
-480,-1243,3,0,0,0,784.834900
534,-106,4,0,0,0,1061.824463
1505,195,1,1,0,17,138.112106
-417,1410,2,1,0,17,138.112106
-1925,-1730,3,1,0,4,127.758888
46,-1022,4,0,0,0,880.043213
1635,1980,1,0,0,0,616.212280
-1875,1351,2,0,0,0,627.198608
-1639,-895,3,1,0,4,127.758888
451,-1260,4,0,0,0,802.767761
1793,1001,1,1,0,17,138.112106
-1846,1334,2,1,0,5,127.794800
-248,-1325,3,1,0,4,127.758888
1020,-590,4,0,0,0,839.367371
39,965,1,1,0,17,138.112106
-71,564,2,0,0,0,1030.118530
-1600,-50,3,0,0,0,732.175476
823,-1650,4,0,0,0,710.793823
1237,583,1,0,0,0,796.560486
-1188,1545,2,1,0,5,173.299423
-886,-1497,3,0,0,0,708.352173
1981,-705,4,0,0,0,673.204041
1198,826,1,0,0,0,778.710327
-1328,1543,2,1,0,5,161.556686
-29,-1690,3,0,0,0,716.587158
967,-946,4,1,0,11,144.788666
1505,1941,1,0,0,0,628.872070
-1441,1065,2,0,0,0,699.869446
-1315,-938,3,0,0,0,729.593567
68,-483,4,0,0,0,1093.513550
100,186,1,0,0,0,1334.998291
-1863,1730,2,1,0,5,114.396233
-1673,-1835,3,1,0,4,127.758888
457,-258,4,1,0,11,144.788666
1409,1955,1,0,0,0,634.291748
-615,1354,2,0,0,0,753.301819
-114,-1450,3,0,0,0,759.673523
761,-1215,4,1,0,11,144.788666
1883,608,1,0,0,0,690.584412
-251,617,2,0,0,0,984.420532
-546,-780,3,0,0,0,881.506104
1941,-1430,4,0,0,0,634.167542
460,929,1,0,0,0,876.237549
-549,1687,2,0,0,0,702.721497
-1407,-923,3,0,0,0,717.864685
1320,-1074,4,0,0,0,733.784912
765,1991,1,0,0,0,669.128662
-1996,107,2,0,0,0,668.597595
-652,-618,3,1,0,4,127.758888
558,-1426,4,0,0,0,764.066284
619,637,1,1,0,17,138.112106
-1303,597,2,0,0,0,763.892578
-568,-822,3,0,0,0,867.623535
524,-1420,4,0,0,0,767.402222
1982,859,1,0,0,0,665.504333
-1994,1762,2,1,0,5,106.349960
-401,-661,3,0,0,0,941.482727
1631,-745,4,1,0,11,144.788666
137,508,1,0,0,0,1071.667480
-951,223,2,0,0,0,874.137634
-114,-965,3,0,0,0,875.640320
90,-1959,4,0,0,0,693.149658
1582,1981,1,0,0,0,619.852051
-941,1119,2,0,0,0,758.178894
-1444,-1708,3,1,0,4,127.758888
1562,-1691,4,0,0,0,647.342590
44,911,1,1,0,17,138.112106
-1703,1185,2,1,0,5,142.878052
-109,-991,3,0,0,0,868.251282
640,-1498,4,1,0,11,144.788666
1615,1036,1,1,0,17,138.112106
-1782,810,2,0,0,0,674.580933
-812,-133,3,1,0,4,127.758888
1616,-493,4,0,0,0,735.848145
704,384,1,0,0,0,950.184204
-666,944,2,0,0,0,825.847168
-407,-584,3,1,0,4,127.758888
1362,-275,4,0,0,0,791.977478
1710,1685,1,0,0,0,635.375183
-1235,1797,2,0,0,0,643.772400
-1052,-390,3,0,0,0,834.265564
1303,-659,4,0,0,0,777.722595
188,127,1,1,0,0,413.914185
-978,1712,2,0,0,0,672.514465
-1333,-212,3,0,0,0,781.130676
1596,-252,4,0,0,0,748.652222
78,414,1,1,0,0,184.632339
-1500,1825,2,0,0,0,620.946289
-139,-630,3,0,0,0,993.631042
1561,-1612,4,0,0,0,654.635315
109,1913,1,0,0,0,699.788696
-1832,839,2,0,0,0,666.303589
-1412,-864,3,1,0,4,127.758888
1263,-955,4,0,0,0,754.457886
795,327,1,0,0,0,930.163452
-1581,1861,2,0,0,0,611.521423
-992,-1503,3,0,0,0,698.433655
1905,-1652,4,0,0,0,621.387085
1736,1594,1,1,0,17,138.112106
-673,898,2,0,0,0,834.205200
-138,-1676,3,1,0,4,127.758888
990,-800,4,1,0,11,144.788666
1748,25,1,1,0,11,144.788666
-460,306,2,1,0,5,166.484329
-1079,-24,3,0,0,0,845.427490
1460,-1642,4,0,0,0,660.643188
1615,442,1,0,0,0,738.428955
-1528,678,2,0,0,0,719.754761
-100,-1263,3,0,0,0,799.320679
1114,-764,4,0,0,0,800.089417
132,955,1,0,0,0,897.133423
-577,138,2,0,0,0,1017.796936
-642,-1526,3,0,0,0,722.531616
1951,-1934,4,0,0,0,597.024597
745,378,1,1,0,17,138.112106
-516,269,2,0,0,0,1023.373291
-156,-18,3,1,0,0,548.719482
700,-1477,4,0,0,0,745.349365
1706,1670,1,0,0,0,636.966431
-39,415,2,1,0,0,174.198990
-571,-1804,3,0,0,0,684.273926
732,-1842,4,0,0,0,690.094299
1897,785,1,1,0,17,138.112106
-78,1685,2,0,0,0,717.171570
-1487,-804,3,0,0,0,716.554688
1713,-601,4,1,0,11,144.788666
1856,400,1,0,0,0,702.413635
-941,115,2,1,0,5,149.293060
-917,-1132,3,1,0,4,127.758888
811,-750,4,0,0,0,857.953796
879,563,1,0,0,0,874.246582
-972,66,2,0,0,0,874.892334
-1888,-211,3,0,0,0,683.135864
1543,-867,4,0,0,0,722.524597
351,550,1,0,0,0,1009.630920
-1643,1499,2,1,0,5,138.087967
-1147,-249,3,1,0,4,127.758888
710,-1782,4,0,0,0,699.470398
24,1211,1,0,0,0,831.447998
-1762,393,2,0,0,0,697.728394
-854,-619,3,0,0,0,852.041870
1816,-1121,4,0,0,0,668.965820
1518,87,1,0,0,0,766.097595
-635,1376,2,0,0,0,747.886841
-429,-1610,3,0,0,0,720.697693
31,-1079,4,0,0,0,864.592957
1694,1582,1,0,0,0,645.390137
-1585,230,2,0,0,0,732.028625
-147,-1991,3,0,0,0,668.947693
1998,-1869,4,0,0,0,598.187866
272,414,1,0,0,0,1089.057617
-821,458,2,1,0,5,196.406097
-332,-278,3,0,0,0,1108.589966
413,-988,4,0,0,0,866.894836
295,231,1,0,0,0,1169.586792
-1657,626,2,0,0,0,703.170166
-668,-286,3,1,0,4,127.758888
1163,-1416,4,1,0,11,144.788666
1089,1481,1,0,0,0,711.662170
-779,672,2,0,0,0,859.208374
-217,-317,3,1,0,0,199.839233
980,-1066,4,1,0,11,144.788666
173,1229,1,0,0,0,824.439331
-999,911,2,0,0,0,780.651306
-970,-1203,3,0,0,0,742.282227
354,-566,4,0,0,0,1003.023010
195,872,1,0,0,0,919.017700
-147,999,2,0,0,0,864.584900
-203,-998,3,0,0,0,862.121582
816,-1497,4,0,0,0,733.241882
1076,1011,1,0,0,0,774.538391
-358,928,2,1,0,17,138.112106
-1082,-352,3,1,0,4,127.758888
700,-1485,4,1,0,11,144.788666
654,179,1,1,0,17,138.112106
-1988,312,2,1,0,5,108.930939
-1516,-1685,3,1,0,4,127.758888
1505,-1970,4,0,0,0,626.219238
664,1191,1,0,0,0,797.383423
-1075,1289,2,0,0,0,718.596619
-957,-67,3,0,0,0,879.327820
779,-464,4,0,0,0,914.799927
1383,1254,1,0,0,0,707.242004
-583,1890,2,0,0,0,671.614441
-1239,-1370,3,0,0,0,691.166504
702,-1345,4,0,0,0,766.723816
783,449,1,0,0,0,916.110413
-1186,1957,2,1,0,5,135.566879
-1093,-739,3,1,0,4,127.758888
1195,-1625,4,1,0,11,144.788666
386,473,1,0,0,0,1028.787476
-1705,1107,2,0,0,0,663.781555
-405,-1026,3,0,0,0,839.158630
766,-108,4,0,0,0,960.552673
602,557,1,0,0,0,943.705200
-1684,1422,2,0,0,0,640.701416
-342,-1230,3,0,0,0,797.126709
333,-1572,4,1,0,11,144.788666
1918,87,1,0,0,0,699.211121
-736,1965,2,0,0,0,654.730591
-507,-1687,3,0,0,0,704.753479
1469,-1147,4,0,0,0,707.720947
116,994,1,0,0,0,886.385376
-859,1289,2,0,0,0,741.605713
-252,-1717,3,0,0,0,709.035950
743,-1919,4,0,0,0,679.373840
317,1456,1,0,0,0,771.893311
-1170,895,2,1,0,5,218.425323
-1518,-251,3,1,0,4,127.758888
359,-536,4,0,0,0,1012.892334
241,1990,1,1,0,17,138.112106
-1947,1772,2,0,0,0,590.157593
-412,-293,3,0,0,0,1063.924438
564,-303,4,0,0,0,1015.081116
696,198,1,0,0,0,979.793457
-254,726,2,0,0,0,942.967773
-722,-1719,3,0,0,0,688.498718
1625,-1290,4,0,0,0,677.026184
1001,1813,1,0,0,0,677.550293
-1800,1811,2,0,0,0,598.835693
-1587,-1124,3,1,0,4,127.758888
887,-1436,4,0,0,0,736.131775
227,1366,1,1,0,17,138.112106
-705,1339,2,0,0,0,748.303162
-1753,-770,3,0,0,0,680.901184
73,-1303,4,0,0,0,809.997742
1857,992,1,0,0,0,672.844788
-482,1313,2,0,0,0,770.904785
-1828,-68,3,0,0,0,693.953552
1962,-1747,4,0,0,0,609.723389
584,1192,1,0,0,0,805.120605
-952,1705,2,0,0,0,675.264893
-820,-251,3,0,0,0,911.625854
1944,-166,4,1,0,11,144.788666
1634,1369,1,0,0,0,669.291565
-1946,1906,2,1,0,5,103.909279
-1470,-1174,3,0,0,0,685.932434
970,-1351,4,0,0,0,740.359558
1569,286,1,0,0,0,752.391602
-1734,649,2,0,0,0,690.499939
-1320,-626,3,1,0,4,127.758888
1368,-38,4,0,0,0,796.344666
1526,1637,1,0,0,0,655.397583
-858,345,2,0,0,0,889.896973
-787,-1400,3,0,0,0,731.234802
1247,-1302,4,0,0,0,717.240479
1797,199,1,0,0,0,716.423279
-1526,938,2,0,0,0,699.967041
-592,-535,3,0,0,0,932.385193
1493,-480,4,1,0,11,144.788666
1407,1769,1,0,0,0,652.560425
-1557,697,2,0,0,0,713.947937
-1113,-1769,3,0,0,0,655.862976
1167,-909,4,0,0,0,773.994263
1153,1147,1,0,0,0,746.779968
-1867,751,2,0,0,0,666.671936
-1118,-589,3,0,0,0,800.067932
1843,-802,4,0,0,0,686.106506
1226,1899,1,0,0,0,652.552917
-298,495,2,0,0,0,1025.426025
-1093,-59,3,1,0,4,127.758888
393,-191,4,0,0,0,1125.237915
452,1070,1,0,0,0,843.497009
-836,574,2,0,0,0,863.353455
-781,-1860,3,0,0,0,665.972595
855,-1426,4,0,0,0,740.442688
1219,41,1,1,0,11,144.788666
-257,674,2,0,0,0,961.461609
-1791,-1962,3,0,0,0,587.595642
1624,-1906,4,0,0,0,623.369019
687,1924,1,0,0,0,681.443787
-1895,308,2,0,0,0,680.124084
-1878,-1492,3,0,0,0,616.618896
434,-1711,4,0,0,0,723.288879
936,1523,1,0,0,0,719.667419
-224,998,2,0,0,0,860.882874
-1153,-1005,3,0,0,0,745.236206
449,-1071,4,0,0,0,843.556885
1889,1986,1,0,0,0,597.670044
-355,1537,2,0,0,0,736.382935
-905,-703,3,0,0,0,828.177856
600,-1792,4,0,0,0,703.749390
60,1675,1,0,0,0,738.140991
-1805,1480,2,0,0,0,624.358582
-483,-1316,3,0,0,0,770.256531
1725,-1528,4,1,0,11,144.788666
731,876,1,0,0,0,848.649536
-1608,1442,2,0,0,0,646.479797
-407,-1110,3,0,0,0,819.209656
1013,-623,4,0,0,0,836.719238
1440,765,1,0,0,0,746.033020
-1444,1843,2,0,0,0,623.489807
-829,-28,3,0,0,0,921.216125
535,-852,4,0,0,0,884.864441
1731,1626,1,1,0,17,138.112106
-441,1406,2,0,0,0,755.935913
-1288,-523,3,0,0,0,772.663879
1692,-337,4,1,0,11,144.788666
195,1869,1,0,0,0,705.365173
-1939,1954,2,0,0,0,577.506287
-1893,-1962,3,1,0,4,127.758888
929,-1310,4,0,0,0,750.398376
1310,1076,1,0,0,0,734.878296
-928,3,2,1,0,4,127.758888
-1214,-1520,3,0,0,0,676.361206
497,-461,4,0,0,0,998.609497
532,939,1,0,0,0,864.649353
-1291,715,2,0,0,0,755.501038
-8,-1628,3,0,0,0,727.337769
1692,-769,4,0,0,0,708.520691
1866,732,1,0,0,0,686.890259
-1592,1109,2,0,0,0,677.113037
-491,-919,3,0,0,0,855.554993
1063,-1189,4,1,0,11,144.788666
1436,1191,1,1,0,17,138.112106
-1057,770,2,0,0,0,790.218018
-718,-950,3,1,0,4,127.758888
624,-85,4,0,0,0,1019.837158
1759,149,1,0,0,0,723.270264
-1905,948,2,0,0,0,650.741821
-38,-238,3,0,0,0,1277.608032
980,-299,4,0,0,0,879.603699
1580,1537,1,0,0,0,659.729126
-405,1770,2,1,0,17,138.112106
-868,-759,3,0,0,0,826.407166
1046,-41,4,0,0,0,873.431396
281,183,1,1,0,0,261.990204
-1667,1623,2,1,0,5,130.775116
-1624,-434,3,0,0,0,718.160706
1098,-1932,4,0,0,0,657.413208
1447,333,1,0,0,0,772.913879
-228,830,2,0,0,0,910.555969
-753,-779,3,0,0,0,844.316284
1558,-1381,4,0,0,0,676.040039
1259,1003,1,0,0,0,749.735229
-1270,807,2,0,0,0,749.928528
-1535,-7,3,1,0,4,127.758888
1774,-1737,4,0,0,0,625.795532
539,160,1,0,0,0,1052.533569
-641,1536,2,0,0,0,721.005798
-288,-1562,3,0,0,0,734.414612
1596,-217,4,0,0,0,749.557312
414,1760,1,1,0,17,138.112106
-1166,1108,2,0,0,0,730.799133
-1729,-1655,3,0,0,0,617.225708
1429,-1320,4,0,0,0,695.450317
1041,823,1,0,0,0,805.194824
-150,1073,2,0,0,0,844.318787
-1593,-1190,3,0,0,0,670.097290
385,-1926,4,0,0,0,692.706726
573,815,1,0,0,0,887.675903
-126,1010,2,0,0,0,862.293213
-432,-43,3,1,0,0,162.084717
366,-548,4,0,0,0,1006.761780
55,266,1,0,0,0,1262.373901
-848,798,2,0,0,0,823.579468
-1837,-176,3,0,0,0,691.438416
394,-4,4,0,0,0,1155.070068
153,1984,1,0,0,0,688.974426
-1682,1227,2,0,0,0,656.961304
-1943,-1489,3,0,0,0,610.820068
180,-1334,4,0,0,0,801.095947
1758,1686,1,0,0,0,631.237183
-1541,967,2,1,0,5,161.716782
-1465,-1730,3,0,0,0,632.682007
1772,-662,4,0,0,0,703.470459
421,833,1,0,0,0,906.464111
-1333,1068,2,0,0,0,713.581543
-1451,-1107,3,0,0,0,694.611633
1662,-1449,4,0,0,0,659.638855
95,1705,1,1,0,17,138.112106
-884,1596,2,0,0,0,694.705139
-1216,-700,3,0,0,0,770.000305
1623,-1058,4,0,0,0,696.625366
825,136,1,0,0,0,938.145508
-1583,1244,2,0,0,0,666.540222
-178,-901,3,0,0,0,891.880859
1537,-948,4,0,0,0,716.762817
470,25,1,0,0,0,1103.804932
-1817,259,2,0,0,0,693.000366
-1199,-366,3,1,0,4,127.758888
122,-1333,4,0,0,0,802.705627
154,656,1,1,0,17,138.112106
-155,946,2,0,0,0,879.546570
-556,-1907,3,1,0,4,127.758888
1057,-1621,4,0,0,0,696.953735
1331,936,1,1,0,17,138.112106
-755,1415,2,1,0,5,222.420334
-718,-429,3,0,0,0,918.820374
466,-1231,4,0,0,0,807.539307
89,660,1,0,0,0,1003.720337
-1962,433,2,0,0,0,667.122681
-258,-819,3,0,0,0,911.249695
577,-910,4,0,0,0,865.109192
394,121,1,1,0,0,191.533997
-1976,557,2,0,0,0,660.963501
-1506,-422,3,0,0,0,738.840088
1119,-1733,4,1,0,11,144.788666
946,800,1,1,0,17,138.112106
-525,512,2,0,0,0,956.710388
-4,-408,3,0,0,0,1125.742798
1492,-756,4,1,0,11,144.788666
1619,1414,1,0,0,0,666.908325
-316,1615,2,0,0,0,724.254639
-1756,-1553,3,0,0,0,623.138184
1616,-660,4,1,0,11,144.788666
1687,807,1,0,0,0,706.749207
-1396,1090,2,0,0,0,703.197815
-1369,-765,3,0,0,0,738.064453
1860,-1602,4,0,0,0,629.025696
523,363,1,0,0,0,1016.710327
-1885,864,2,1,0,5,128.003311
-1875,-1988,3,1,0,4,127.758888
1156,-1725,4,0,0,0,676.786072
804,151,1,0,0,0,944.442932
-534,56,2,0,0,0,1046.567871
-1653,-1347,3,0,0,0,650.141479
1709,-1993,4,1,0,11,144.788666
1074,113,1,0,0,0,864.464294
-1263,152,2,1,0,5,140.981140
-1904,-1746,3,0,0,0,595.520569
710,-44,4,0,0,0,984.716003
715,1069,1,0,0,0,814.207214
-1696,333,2,1,0,5,126.875587
-941,-1206,3,0,0,0,745.206482
1147,-1727,4,0,0,0,677.244873
1471,611,1,0,0,0,752.752808
-330,1123,2,0,0,0,822.089661
-657,-507,3,1,0,4,127.758888
1967,-1869,4,1,0,11,144.788666
622,837,1,1,0,17,138.112106
-660,1100,2,0,0,0,795.746155
-894,-29,3,0,0,0,899.488037
1874,-660,4,0,0,0,689.415527
1482,1314,1,0,0,0,690.308167
-455,1863,2,0,0,0,680.438538
-598,-506,3,1,0,4,127.758888
227,-445,4,0,0,0,1086.625366
613,1526,1,0,0,0,743.592712
-586,957,2,0,0,0,834.215271
-1044,-551,3,0,0,0,819.643616
611,-287,4,0,0,0,999.819031
720,1501,1,0,0,0,740.085205
-954,1222,2,0,0,0,741.366821
-28,-1841,3,1,0,4,127.758888
1479,-1,4,0,0,0,774.042175
367,1766,1,0,0,0,717.098267
-1552,1349,2,1,0,5,152.480423
-1714,-199,3,0,0,0,710.671326
1809,-1845,4,0,0,0,614.435120
1305,1413,1,0,0,0,698.695679
-1143,179,2,0,0,0,825.438660
-1388,-160,3,0,0,0,771.209717
1733,-917,4,0,0,0,693.209229
1316,1281,1,1,0,17,138.112106
-120,1109,2,0,0,0,835.934692
-491,-607,3,0,0,0,938.664795
1284,-1954,4,0,0,0,642.905396
759,939,1,0,0,0,832.362061
-494,1123,2,0,0,0,808.565735
-305,-1266,3,0,0,0,791.430237
574,-1199,4,0,0,0,804.700500
1411,1400,1,1,0,17,138.112106
-1384,1697,2,1,0,5,145.621567
-1278,-920,3,0,0,0,736.885742
1573,-1596,4,1,0,11,144.788666
1029,974,1,0,0,0,786.369934
-1714,1157,2,0,0,0,658.891418
-1877,-28,3,0,0,0,686.550781
1608,-597,4,0,0,0,731.515869
1018,246,1,0,0,0,873.294617
-215,1611,2,0,0,0,727.820251
-510,-1981,3,0,0,0,661.996033
1800,-1168,4,0,0,0,667.414307
340,537,1,1,0,17,138.112106
-548,1763,2,0,0,0,691.315552
-143,-1424,3,0,0,0,764.312134
1939,-1415,4,0,0,0,635.409180
1065,1505,1,0,0,0,710.818237
-1731,688,2,0,0,0,688.768127
-1696,-1615,3,0,0,0,623.415771
896,-539,4,0,0,0,873.755066
1082,402,1,0,0,0,845.307678
-339,651,2,0,0,0,956.455261
-1135,-569,3,1,0,4,127.758888
522,-1418,4,0,0,0,767.890015
285,1777,1,0,0,0,717.737854
-172,484,2,0,0,0,1059.345825
-1153,-483,3,0,0,0,803.174500
541,-111,4,0,0,0,1057.695801
604,1613,1,1,0,17,138.112106
-1918,1259,2,0,0,0,629.267639
-1842,-1434,3,1,0,4,127.758888
380,-1806,4,0,0,0,710.532654
462,945,1,0,0,0,872.036438
-167,693,2,0,0,0,964.876526
-1087,-1311,3,0,0,0,714.429626
1415,-400,4,0,0,0,775.707153
264,742,1,0,0,0,955.387939
-955,1315,2,0,0,0,727.836121
-465,-749,3,0,0,0,903.660217
727,-1948,4,0,0,0,676.412720
1199,1390,1,0,0,0,712.068787
-1419,445,2,0,0,0,753.298828
-1115,-1722,3,0,0,0,661.177734
313,-1226,4,0,0,0,818.884338
1801,807,1,0,0,0,691.335388
-1665,1148,2,0,0,0,665.252625
-313,-523,3,0,0,0,1010.014771
254,-443,4,0,0,0,1080.288940
67,662,1,0,0,0,1003.976562
-693,1172,2,0,0,0,778.629822
-1524,-1454,3,0,0,0,653.640198
898,-1564,4,0,0,0,717.139832
518,1775,1,0,0,0,709.990723
-1921,136,2,0,0,0,679.240723
-236,-829,3,0,0,0,910.157532
221,-1651,4,0,0,0,739.917358
174,591,1,0,0,0,1026.169189
-366,471,2,0,0,0,1016.239380
-656,-1524,3,1,0,4,127.758888
685,-1567,4,0,0,0,732.364380
948,479,1,0,0,0,869.244385
-1068,343,2,0,0,0,834.326477
-338,-639,3,0,0,0,960.842712
635,-1766,4,1,0,11,144.788666
1053,1142,1,0,0,0,759.954895
-1536,997,2,1,0,5,162.386444
-1663,-1500,3,1,0,4,127.758888
199,-798,4,0,0,0,942.903992
613,369,1,0,0,0,983.047119
-1722,812,2,0,0,0,682.520630
-207,-1023,3,0,0,0,855.060791
1227,-1856,4,0,0,0,657.065613
759,1302,1,0,0,0,768.641602
-1541,1826,2,0,0,0,617.711060
-911,-1181,3,0,0,0,752.451843
1067,-828,4,1,0,11,144.788666
1516,657,1,0,0,0,742.248718
-746,1709,2,0,0,0,688.459534
-1406,-1547,3,0,0,0,655.800537
1924,-1418,4,1,0,11,144.788666
1224,449,1,0,0,0,810.281555
-698,1931,2,0,0,0,660.925110
-1562,-1563,3,0,0,0,639.973633
941,-11,4,1,0,11,144.788666
1378,1513,1,1,0,17,138.112106
-1384,1913,2,1,0,5,130.536026
-384,-146,3,0,0,0,1123.770874
880,-142,4,0,0,0,919.713013
1599,794,1,0,0,0,720.044006
-294,878,2,0,0,0,889.538574
-834,-878,3,0,0,0,812.312622
340,-1528,4,0,0,0,757.747070
345,88,1,0,0,0,1184.302246
-1138,342,2,0,0,0,817.750305
-715,-1797,3,0,0,0,678.023926
1222,-912,4,0,0,0,765.284302
1323,384,1,0,0,0,794.445740
-1730,1437,2,1,0,5,133.735931
-1384,-466,3,0,0,0,758.517029
1033,-829,4,0,0,0,805.740967
543,1599,1,0,0,0,735.991699
-527,479,2,0,0,0,965.151428
-1603,-1074,3,0,0,0,678.688660
347,-1254,4,1,0,11,144.788666
1061,209,1,1,0,17,138.112106
-1068,479,2,0,0,0,822.085876
-689,-1301,3,0,0,0,756.200134
1449,-1465,4,1,0,11,144.788666
1987,1596,1,0,0,0,618.347717
-1967,1042,2,0,0,0,637.885620
-700,-1750,3,0,0,0,685.394958
1704,-1812,4,0,0,0,625.271729
353,190,1,0,0,0,1150.087769
-1567,1814,2,0,0,0,616.788818
-217,-158,3,1,0,0,328.993744
7,-1573,4,0,0,0,756.348572
444,960,1,0,0,0,870.449646
-1230,709,2,0,0,0,766.618408
-85,-1165,3,0,0,0,822.676453
1491,-1613,4,0,0,0,660.729492
487,410,1,0,0,0,1016.720764
-1065,1913,2,0,0,0,642.597046
-1671,-843,3,0,0,0,687.406616
832,-1976,4,1,0,11,144.788666
444,1492,1,1,0,17,138.112106
-401,261,2,0,0,0,1079.814209
-1476,-786,3,1,0,4,127.758888
1838,-1819,4,1,0,11,144.788666
1446,378,1,0,0,0,771.030884
-639,749,2,0,0,0,871.864014
-726,-1606,3,0,0,0,704.601562
466,-13,4,0,0,0,1106.565063
258,740,1,0,0,0,956.810913
-370,82,2,0,0,0,1147.039917
-1701,-1174,3,0,0,0,659.050659
773,-815,4,0,0,0,853.137817
843,541,1,0,0,0,886.121338
-1136,1389,2,0,0,0,699.463867
-65,-1710,3,0,0,0,713.051636
1901,-1881,4,1,0,11,144.788666
523,935,1,0,0,0,866.764404
-1651,1969,2,1,0,5,114.921425
-1318,-1140,3,0,0,0,707.845764
12,-833,4,0,0,0,939.197754
276,875,1,0,0,0,911.395935
-1571,1662,2,0,0,0,630.177429
-1280,-1264,3,0,0,0,698.741943
1446,-684,4,0,0,0,751.535889
603,350,1,0,0,0,990.505798
-954,1225,2,1,0,5,252.027924
-1255,-336,3,0,0,0,792.097839
854,-522,4,0,0,0,886.341125
1018,1396,1,0,0,0,729.432678
-414,995,2,0,0,0,845.847534
-425,-1303,3,0,0,0,776.736694
377,-669,4,0,0,0,962.670288
1769,1319,1,1,0,17,138.112106
-1944,1201,2,0,0,0,630.415649
-1168,-1861,3,0,0,0,641.596619
1067,-1910,4,0,0,0,661.866333
1537,589,1,0,0,0,743.335999
-1656,876,2,0,0,0,687.128174
-1258,-1120,3,0,0,0,717.592346
1690,-1214,4,0,0,0,676.192749
87,1037,1,1,0,17,138.112106
-537,11,2,0,0,0,1046.468750
-1045,-1427,3,0,0,0,703.589172
1124,-113,4,1,0,11,144.788666
659,1351,1,0,0,0,769.389648
-892,1158,2,0,0,0,758.247009
-1354,-243,3,0,0,0,775.675598
373,-659,4,0,0,0,966.704102
115,764,1,1,0,17,138.112106
-1858,1914,2,0,0,0,586.426331
-810,-463,3,0,0,0,887.347412
1418,-1532,4,1,0,11,144.788666
1505,1227,1,0,0,0,695.976501
-601,1008,2,0,0,0,821.332153
-639,-615,3,1,0,4,127.758888
1740,-932,4,0,0,0,691.285095
1895,998,1,0,0,0,667.948853
-891,1592,2,0,0,0,694.719238
-231,-1323,3,0,0,0,782.568176
152,-172,4,0,0,0,1310.945068
1073,458,1,0,0,0,842.234985
-1869,251,2,0,0,0,685.247742
-180,-1523,3,1,0,4,127.758888
1795,-1893,4,0,0,0,611.714539
765,845,1,1,0,17,138.112106
-132,745,2,1,0,17,138.112106
-552,-977,3,0,0,0,834.216553
484,-1271,4,1,0,11,144.788666
58,923,1,0,0,0,909.106201
-1522,1444,2,1,0,5,150.813766
-432,-1138,3,0,0,0,810.827515
1392,-559,4,0,0,0,769.984131
693,251,1,0,0,0,974.489929
-1613,937,2,0,0,0,688.355225
-467,-1943,3,0,0,0,668.673645
1319,-1054,4,0,0,0,736.040588
1201,76,1,0,0,0,833.314575
-1640,348,2,1,0,5,131.212662
-1673,-52,3,0,0,0,719.388000
605,-807,4,0,0,0,884.134338
1685,347,1,1,0,17,138.112106
-946,1178,2,1,0,5,265.062317
-197,-521,3,0,0,0,1035.985474
712,-1012,4,1,0,11,144.788666
1555,1693,1,0,0,0,647.748047
-1452,1539,2,0,0,0,652.355103
-1553,-620,3,0,0,0,719.665649
219,-338,4,0,0,0,1148.751587
1412,539,1,1,0,17,138.112106
-238,1055,2,0,0,0,844.829529
-1789,-619,3,0,0,0,684.145264
1774,-1221,4,0,0,0,666.372559
1326,92,1,1,0,11,144.788666
-833,1092,2,0,0,0,776.132507
-1665,-1172,3,0,0,0,663.321411
668,-1486,4,1,0,11,144.788666
418,1798,1,0,0,0,710.469788
-1797,1396,2,0,0,0,631.607849
-328,-1116,3,1,0,4,127.758888
495,-1901,4,0,0,0,692.665039
1197,1805,1,0,0,0,664.752075
-983,1440,2,1,0,5,205.213898
-627,-1751,3,0,0,0,689.204895
252,-1353,4,0,0,0,794.723877
998,1681,1,0,0,0,694.045776
-1725,1500,2,1,0,5,131.834366
-1728,-78,3,0,0,0,709.967346
1524,-1613,4,0,0,0,657.814941
1604,963,1,0,0,0,706.627930
-1491,75,2,1,0,4,127.758888
-48,-969,3,1,0,4,127.758888
1084,-1456,4,0,0,0,715.280212
1924,990,1,0,0,0,665.025085
-615,1944,2,1,0,17,138.112106
-1240,-1079,3,1,0,4,127.758888
1265,-55,4,0,0,0,818.686340
869,1114,1,0,0,0,787.184998
-1802,721,2,1,0,5,132.445999
-1014,-1882,3,0,0,0,649.412109
968,-291,4,0,0,0,883.508667
396,1669,1,0,0,0,731.501038
-1123,1051,2,1,0,5,231.656143
-1067,-1610,3,0,0,0,678.400635
868,-556,4,0,0,0,877.864746
760,1829,1,0,0,0,690.310974
-1782,93,2,0,0,0,701.057373
-418,-1410,3,0,0,0,756.498352
688,-851,4,0,0,0,860.653076
1822,478,1,1,0,17,138.112106
-1964,1059,2,1,0,5,122.486313
-1907,-482,3,1,0,4,127.758888
223,-1767,4,0,0,0,720.729919
534,676,1,0,0,0,929.545288
-1263,598,2,0,0,0,771.163330
-168,-1089,3,0,0,0,839.461121
405,-1542,4,0,0,0,752.491455
806,1484,1,0,0,0,735.979614
-71,211,2,0,0,0,1300.505615
-600,-1418,3,0,0,0,743.330200
633,-1924,4,0,0,0,683.906860
414,1074,1,0,0,0,846.115112
-1276,430,2,0,0,0,781.822510
-350,-1690,3,1,0,4,127.758888
981,-12,4,0,0,0,892.101868
1950,183,1,1,0,17,138.112106
-730,649,2,1,0,5,238.143494
-804,-978,3,1,0,4,127.758888
777,-1144,4,0,0,0,793.338379
1371,701,1,0,0,0,762.471130
-730,1441,2,0,0,0,729.576172
-646,-1705,3,1,0,4,127.758888
1983,-1313,4,0,0,0,638.047668
198,1830,1,0,0,0,711.288757
-336,1240,2,0,0,0,795.319336
-1764,-1931,3,0,0,0,592.018799
606,-1389,4,1,0,11,144.788666
1588,982,1,0,0,0,707.206543
-199,178,2,1,0,0,331.077362
-154,-657,3,1,0,4,127.758888
1423,-201,4,0,0,0,782.291870
398,1964,1,0,0,0,686.964355
-1588,1338,2,1,0,5,149.474411
-166,-61,3,0,0,0,1366.912354
1098,-1260,4,0,0,0,738.961304
550,1278,1,1,0,17,138.112106
-206,845,2,0,0,0,907.559753
-1775,-1901,3,0,0,0,593.605225
1539,-1785,4,0,0,0,640.629517
834,1882,1,0,0,0,679.276855
-50,1750,2,0,0,0,706.518494
-1956,-965,3,1,0,4,127.758888
784,-1572,4,0,0,0,724.677124
1099,632,1,0,0,0,818.330444
-283,1591,2,0,0,0,729.467163
-372,-1188,3,0,0,0,804.372253
630,-694,4,0,0,0,905.245056
1490,1671,1,0,0,0,655.286743
-1674,1042,2,1,0,5,147.322189
-360,-1519,3,1,0,4,127.758888
1534,-456,4,0,0,0,751.405823
176,91,1,0,0,0,1353.393311
-1589,350,2,0,0,0,727.501709
-1193,-1299,3,0,0,0,704.401855
609,-1433,4,0,0,0,759.278687
14,149,1,1,0,0,588.031372
-104,674,2,1,0,17,138.112106
-1621,-1024,3,0,0,0,680.499817
588,-737,4,0,0,0,903.554260
598,568,1,0,0,0,942.092102
-1851,144,2,0,0,0,689.710022
-899,-163,3,0,0,0,893.376099
278,-1092,4,0,0,0,852.229126
233,1246,1,0,0,0,818.367859
-515,1420,2,0,0,0,748.825623
-636,-218,3,1,0,4,127.758888
1411,-134,4,1,0,11,144.788666
47,1009,1,0,0,0,883.708252
-813,131,2,0,0,0,923.302551
-1876,-332,3,1,0,4,127.758888
1369,-51,4,0,0,0,796.046326
214,645,1,0,0,0,997.893005
-1199,1695,2,0,0,0,657.754761
-763,-1271,3,0,0,0,754.208557
1972,-321,4,1,0,11,144.788666
137,527,1,0,0,0,1061.772827
-1147,643,2,0,0,0,788.638428
-1835,-634,3,0,0,0,676.929504
701,-1243,4,0,0,0,784.314575
1857,1200,1,0,0,0,658.859802
-122,252,2,0,0,0,1234.376099
-1260,-1747,3,0,0,0,647.259644
898,-812,4,1,0,11,144.788666
296,389,1,0,0,0,1092.894287
-1824,109,2,0,0,0,694.268005
-23,-1159,3,0,0,0,824.868286
1409,-1322,4,0,0,0,697.410339
1112,1821,1,0,0,0,669.025757
-1857,712,2,0,0,0,670.037842
-1787,-414,3,0,0,0,693.161987
1197,-1150,4,0,0,0,740.920105
578,1439,1,0,0,0,760.441528
-810,1207,2,0,0,0,759.846497
-1527,-464,3,0,0,0,733.043884
866,-1122,4,1,0,11,144.788666
1353,1763,1,0,0,0,657.397156
-1741,619,2,0,0,0,691.073486
-423,-1624,3,0,0,0,718.639404
1265,-972,4,0,0,0,752.309692
1834,452,1,0,0,0,703.885986
-979,1428,2,0,0,0,709.701660
-1053,-1006,3,0,0,0,759.311218
1119,-958,4,0,0,0,775.196777
371,796,1,0,0,0,924.000854
-108,1674,2,1,0,17,138.112106
-896,-1600,3,0,0,0,693.244934
199,-764,4,0,0,0,954.684265
1683,1291,1,0,0,0,670.712036
-1512,510,2,0,0,0,733.087708
-1890,-798,3,0,0,0,661.164429
1244,-1397,4,0,0,0,706.670471
1401,1262,1,0,0,0,704.385010
-225,1936,2,0,0,0,675.813538
-737,-447,3,0,0,0,910.149719
594,-1089,4,0,0,0,824.589905
1727,1537,1,0,0,0,646.120728
-990,1798,2,1,0,5,156.961060
-1680,-331,3,0,0,0,712.873962
1289,-1505,4,0,0,0,690.175964
1984,519,1,0,0,0,680.355896
-906,530,2,1,0,5,205.721756
-1503,-1854,3,0,0,0,618.026001
836,-964,4,0,0,0,816.467041
1700,202,1,0,0,0,732.066162
-1749,-1261,3,0,0,0,646.967468
736,-1616,4,0,0,0,721.584778
243,610,1,0,0,0,1007.798157
-1811,-1708,3,0,0,0,606.047119
730,-1852,4,1,0,11,144.788666
-878,-84,3,0,0,0,903.528198
1660,-938,4,0,0,0,701.199463
-974,-1611,3,1,0,4,127.758888
-266,-115,3,0,0,0,1224.435059
-886,-691,3,1,0,4,127.758888
-1372,-310,3,0,0,0,769.285461


each generation good chromosome number
1,3,4,5,6,7,8,9,10,11,13,15,16,16,17,20,25,26,25,23,24,25,23,24,26,28,28,28,28,27,28,29,30,30,32,32,34,36,37,37,40,42,42,41,41,43,42,43,46,49,51,51,50,51,53,53,53,56,58,58,57,58,61,63,61,62,62,62,62,62,62,63,64,66,68,69,69,70,70,68,67,68,68,67,68,69,71,71,74,77,78,80,83,83,84,84,85,83,85,86,