mbs coordinate
0,0

cbsd coordinate and channel
-970,900,2
740,900,1
980,-860,1
-750,-850,5
-750,1000,4
1050,600,2
760,-1135,3
-870,-1100,1
-1080,450,1
970,530,3

building coordinate
-885,985
-1055,815
830,810
650,990
1060,-860
900,-860
-830,-770
-670,-930
-668,1070
-832,930
965,675
1135,525
832,-1059
688,-1211
-965,-1035
-775,-1165
-1135,365
-1025,535
907,591
1033,469

area numbers
12,10,12,13,31,22,

x , y , block , block number
area 1
618,1069,0,0
1122,1272,0,0
358,1408,0,0
826,1095,0,0
1303,1965,1,0
779,1772,0,0
959,1030,0,0
270,1960,0,0
857,969,0,0
1361,1790,0,0
45,1797,1,0
220,946,1,0
area 2
824,280,0,0
969,247,0,0
440,280,0,0
1683,363,0,0
280,52,0,0
476,168,0,0
1206,537,0,0
1702,483,0,0
336,24,0,0
1073,873,0,0
area 3
-1240,122,0,0
-711,698,1,0
-540,58,1,0
-1685,1648,0,0
-1742,210,0,0
-1029,928,1,0
-1916,98,0,0
-1381,20,0,0
-1597,1441,1,0
-1547,1289,0,0
-1691,931,0,0
-1440,806,1,0
area 4
-1023,1133,1,0
-1264,1970,0,0
-106,1782,0,0
-575,1397,0,0
-162,628,0,0
-520,899,0,0
-952,1040,1,0
-333,390,0,0
-1262,1863,1,0
-1246,1842,0,0
-147,1658,1,0
-411,450,1,0
-945,1354,0,0
area 5
-1537,-1972,0,0
-64,-1251,1,0
-1406,-1939,0,0
-841,-1558,0,0
-767,-1912,0,0
-688,-1100,0,0
-761,-1044,1,0
-1337,-814,0,0
-376,-35,0,0
-547,-25,0,0
-941,-96,0,0
-239,-512,0,0
-1678,-1644,1,0
-1475,-996,0,0
-102,-1227,0,0
-623,-401,0,0
-1398,-1585,1,0
-1889,-1154,0,0
-433,-1507,1,0
-1079,-77,0,0
-1168,-890,0,0
-531,-1408,0,0
-208,-766,1,0
-567,-1485,0,0
-1457,-1033,1,0
-1598,-1467,0,0
-60,-449,0,0
-561,-781,1,0
-251,-514,0,0
-180,-62,0,0
-310,-1367,1,0
area 6
172,-864,0,0
1602,-567,0,0
1603,-572,1,0
1192,-1112,0,0
1784,-1026,0,0
1877,-1348,0,0
1329,-338,1,0
457,-1995,1,0
1538,-1099,0,0
1373,-696,0,0
672,-1198,0,0
1605,-883,0,0
955,-661,0,0
664,-606,0,0
1720,-368,0,0
203,-610,0,0
80,-678,0,0
646,-876,0,0
893,-1332,0,0
888,-1847,1,0
1163,-1467,0,0
1136,-636,1,0

near cbsd peopel number
7
5
8
5
7
6
4
7
3
5
