mbs coordinate
0,0

cbsd coordinate and channel
-970,900,2
740,900,1
980,-860,1
-750,-850,5
-750,1000,4
1050,600,2
760,-1135,3
-870,-1100,1
-1080,450,1
970,530,3
540,-1000,2
-1200,-300,3
-200,1170,7
820,1255,4
930,-1080,6
-1115,-505,2
-180,1230,3
500,1150,8
1200,-450,10
-500,-1100,7
-650,980,9
1180,450,9
700,-1160,7
-1050,-900,8
-1200,820,10
1200,1000,11
1340,-1120,12
-1440,-1280,10
-1160,1350,13
1420,960,14

building coordinate
-885,985
-1055,815
830,810
650,990
1060,-860
900,-860
-830,-770
-670,-930
-668,1070
-832,930
965,675
1135,525
832,-1059
688,-1211
-965,-1035
-775,-1165
-1135,365
-1025,535
907,591
1033,469
638,-906
442,-1094
-1275,-390
-1125,-210
-298,1123
-102,1217
910,1206
730,1304
1005,-1005
855,-1155
-1178,-407
-1052,-603
-120,1290
-240,1170
410,1240
590,1060
1275,-375
1125,-525
-577,-1023
-423,-1177
-600,1070
-710,890
1135,535
1225,365
743,-1077
657,-1243
-1138,-855
-962,-945
-1100,866
-1300,774
1100,1100
1300,900
1440,-1020
1240,-1220
-1540,-1180
-1340,-1380
-1060,1450
-1260,1250
1320,1060
1520,860

area numbers
304,276,304,316

x , y , block , block number
area 1
1067,493,0,0
1434,1549,0,0
578,230,0,0
1615,133,0,0
605,780,0,0
1502,307,0,0
1533,1339,0,0
1436,945,1,0
176,451,1,0
19,334,1,0
1531,1718,0,0
557,378,1,0
74,93,0,0
66,1195,0,0
866,102,0,0
375,1574,1,0
1009,856,0,0
368,1109,0,0
1861,1665,1,0
1721,1666,0,0
393,1369,0,0
1323,1208,0,0
1935,573,0,0
1335,1731,0,0
713,1703,1,0
1573,1288,1,0
625,1199,1,0
1263,881,0,0
1977,236,1,0
1172,1416,0,0
102,515,0,0
123,145,0,0
1249,1450,1,0
258,1581,1,0
1903,852,0,0
498,157,0,0
921,1736,1,0
1542,1946,0,0
1360,542,1,0
97,168,0,0
1350,990,0,0
1099,1016,1,0
470,1682,1,0
1402,1865,0,0
243,1967,0,0
1856,1956,0,0
507,743,0,0
194,1225,0,0
70,934,0,0
953,919,0,0
871,338,0,0
762,1514,1,0
751,565,1,0
1651,1213,1,0
752,1412,0,0
1740,551,1,0
106,994,1,0
430,200,0,0
1113,1909,0,0
1726,1857,0,0
919,1425,1,0
683,396,1,0
1903,863,1,0
1086,1571,0,0
1335,1146,1,0
151,550,1,0
959,761,0,0
1189,1738,1,0
1015,1407,1,0
489,139,1,0
1042,431,0,0
158,1261,0,0
551,605,1,0
1491,1061,1,0
1842,883,1,0
305,1883,1,0
1577,1136,0,0
938,998,0,0
254,1678,0,0
452,1398,0,0
1431,433,0,0
90,1837,0,0
486,319,0,0
100,1270,0,0
253,1352,1,0
1191,735,0,0
533,748,0,0
1231,1245,0,0
518,1501,1,0
912,375,0,0
105,1394,1,0
1121,1584,0,0
1171,1175,0,0
1463,465,0,0
514,858,0,0
1378,1993,0,0
841,1303,0,0
208,1299,0,0
376,798,1,0
1001,1737,1,0
606,1180,0,0
1261,604,1,0
750,1463,1,0
597,976,1,0
1906,1531,1,0
564,1221,0,0
1846,1239,0,0
1316,1215,0,0
829,1679,1,0
463,1099,0,0
263,1152,1,0
732,747,0,0
1952,1810,1,0
1149,448,0,0
1716,152,1,0
401,213,1,0
122,547,0,0
1365,1860,0,0
311,98,0,0
1628,1503,0,0
1818,1914,1,0
579,347,0,0
1752,5,1,0
227,1920,0,0
1786,810,0,0
1595,433,1,0
1030,251,0,0
357,110,1,0
1122,1165,0,0
1944,98,0,0
300,143,0,0
895,1472,0,0
847,1487,1,0
756,1864,1,0
1064,1549,0,0
1530,1508,0,0
1192,576,0,0
660,1490,0,0
790,1498,1,0
77,1446,1,0
1005,1770,0,0
330,1398,0,0
839,85,1,0
397,961,0,0
1578,928,0,0
1254,1305,0,0
1670,382,0,0
1845,1341,0,0
1649,1755,1,0
1516,1162,0,0
418,190,1,0
187,275,0,0
94,1326,1,0
308,1510,0,0
1707,1921,1,0
737,1849,0,0
72,1630,1,0
154,1921,0,0
648,237,0,0
932,1416,1,0
1715,766,0,0
891,954,1,0
196,1981,0,0
1412,1613,1,0
1319,916,1,0
104,1205,1,0
634,646,0,0
1816,1829,1,0
1404,787,1,0
1147,92,1,0
177,1636,0,0
959,1796,0,0
1335,1306,0,0
1319,1883,0,0
1171,1798,0,0
1358,788,0,0
654,744,0,0
15,704,0,0
453,811,1,0
1290,98,0,0
1095,565,1,0
811,1117,0,0
69,198,0,0
923,558,0,0
274,1870,0,0
1260,1520,0,0
105,1693,0,0
688,398,0,0
293,1052,0,0
878,1745,0,0
560,1596,1,0
257,1721,0,0
301,548,0,0
1909,278,0,0
1241,856,1,0
1795,384,1,0
1666,61,1,0
1362,1114,0,0
153,1899,0,0
1657,1277,0,0
1127,710,0,0
1818,1816,1,0
972,1888,1,0
810,1850,0,0
478,1019,1,0
1747,1132,1,0
800,1370,1,0
1709,1819,0,0
233,1639,1,0
492,923,0,0
1100,688,1,0
1588,653,0,0
439,428,0,0
1062,1074,1,0
1733,1674,1,0
1634,845,0,0
966,1075,1,0
883,191,0,0
1238,1173,1,0
1703,1233,0,0
666,690,1,0
859,1605,0,0
329,1962,1,0
425,116,1,0
1744,388,1,0
1783,1030,0,0
1102,118,0,0
1259,1864,1,0
126,475,0,0
1160,106,1,0
281,408,0,0
1082,393,1,0
833,1482,0,0
1625,992,0,0
714,1978,0,0
550,560,0,0
1740,1954,0,0
937,845,1,0
1150,776,0,0
700,744,0,0
43,176,1,0
1409,651,0,0
684,339,1,0
1268,779,0,0
1024,1089,1,0
854,323,0,0
1467,1231,1,0
1413,1101,1,0
136,1999,0,0
1139,1763,0,0
652,1183,0,0
573,900,1,0
1811,248,0,0
463,1710,1,0
5,852,0,0
1204,47,0,0
111,83,1,0
1240,732,0,0
1746,1623,0,0
1794,1406,0,0
85,836,1,0
609,733,1,0
271,657,0,0
1834,1893,0,0
952,1233,0,0
848,992,0,0
1158,1489,0,0
1212,103,0,0
1280,897,0,0
306,849,0,0
361,636,0,0
1180,975,0,0
204,1259,0,0
1145,1710,0,0
13,342,0,0
1885,371,0,0
758,1272,0,0
1197,177,0,0
953,1396,0,0
257,1900,0,0
195,265,0,0
1041,1498,0,0
1694,1440,0,0
897,460,0,0
1549,927,1,0
871,930,0,0
40,1898,0,0
1677,532,0,0
1644,470,0,0
393,1934,1,0
942,1302,0,0
1163,293,0,0
378,1046,0,0
693,578,1,0
267,167,0,0
1783,88,0,0
367,969,0,0
471,255,0,0
1744,1564,1,0
1404,108,1,0
1196,1373,1,0
1082,1543,0,0
1732,1514,1,0
1842,1803,0,0
area 2
-1198,957,0,0
-1368,1439,0,0
-799,1776,0,0
-218,1092,0,0
-1705,1347,1,0
-412,986,0,0
-1927,1805,1,0
-1325,1257,0,0
-93,1948,0,0
-1864,1225,0,0
-1025,1990,0,0
-1652,1413,0,0
-719,1857,1,0
-361,1269,0,0
-151,873,0,0
-1691,50,1,0
-866,1136,0,0
-1743,217,0,0
-1227,1060,0,0
-728,1870,1,0
-1600,1771,0,0
-1071,1098,0,0
-1200,821,0,0
-974,382,1,0
-295,88,1,0
-1497,1489,0,0
-525,1790,1,0
-818,789,0,0
-683,376,0,0
-1951,1295,0,0
-1212,1001,0,0
-1626,1450,0,0
-235,816,0,0
-945,285,0,0
-641,638,0,0
-252,676,0,0
-436,1135,1,0
-1739,345,1,0
-978,1134,0,0
-427,61,0,0
-945,1853,0,0
-1566,1281,1,0
-928,1554,1,0
-770,985,1,0
-292,949,1,0
-574,715,1,0
-770,1574,1,0
-292,580,0,0
-71,631,0,0
-1309,1684,0,0
-1135,670,0,0
-318,1971,0,0
-803,859,0,0
-1303,685,1,0
-1440,1069,0,0
-1570,1706,0,0
-1593,1875,0,0
-578,1352,1,0
-386,1133,0,0
-1942,52,0,0
-903,1962,1,0
-1186,1743,0,0
-1461,856,0,0
-1626,1997,1,0
-1366,1628,0,0
-1884,1257,1,0
-575,823,0,0
-405,847,1,0
-452,223,0,0
-198,631,0,0
-1971,451,1,0
-1979,1588,1,0
-362,302,0,0
-1416,595,1,0
-956,466,1,0
-1552,1953,1,0
-919,1206,0,0
-1026,504,1,0
-206,1835,0,0
-1137,403,1,0
-221,1474,0,0
-1196,1568,0,0
-1745,1878,0,0
-1104,1467,1,0
-1336,1486,0,0
-1195,351,1,0
-256,463,0,0
-289,1728,0,0
-838,1705,1,0
-32,1903,0,0
-104,1682,0,0
-1958,798,1,0
-1236,1494,0,0
-1830,513,0,0
-230,473,1,0
-1559,1842,1,0
-1714,148,0,0
-1643,1322,0,0
-1342,1496,1,0
-1188,1208,0,0
-996,1676,0,0
-719,340,0,0
-359,1777,0,0
-1012,1011,0,0
-324,688,1,0
-465,121,0,0
-1703,293,0,0
-1913,1739,0,0
-68,471,0,0
-1152,788,1,0
-736,1698,0,0
-369,258,0,0
-1495,668,0,0
-290,1756,1,0
-1394,644,0,0
-285,205,1,0
-181,1078,0,0
-1839,1336,1,0
-1275,999,0,0
-1018,1450,1,0
-490,89,0,0
-18,1315,1,0
-1215,185,1,0
-541,1323,1,0
-157,853,0,0
-1482,1032,0,0
-887,18,1,0
-1717,1983,0,0
-1223,487,1,0
-212,134,0,0
-1322,717,0,0
-708,1882,1,0
-1008,1211,1,0
-1342,839,0,0
-1027,1651,1,0
-483,962,1,0
-1895,152,0,0
-153,190,1,0
-757,141,0,0
-232,421,0,0
-937,1402,0,0
-1081,281,0,0
-28,1875,0,0
-1378,527,0,0
-516,1710,1,0
-779,372,1,0
-935,44,0,0
-1333,368,0,0
-78,1627,0,0
-285,234,1,0
-1390,670,1,0
-125,469,1,0
-508,481,0,0
-1754,1875,0,0
-1351,1851,1,0
-1845,1493,1,0
-699,761,0,0
-265,1763,0,0
-159,26,1,0
-1198,1285,1,0
-1259,604,0,0
-1115,678,0,0
-878,991,0,0
-1915,1452,0,0
-356,507,0,0
-1793,1965,0,0
-1840,280,0,0
-842,542,0,0
-490,91,1,0
-913,1838,1,0
-401,290,0,0
-329,1858,1,0
-1625,507,0,0
-76,1639,1,0
-1142,1860,0,0
-1856,1857,0,0
-488,1610,0,0
-232,453,0,0
-761,241,1,0
-220,816,0,0
-215,171,0,0
-1564,1357,0,0
-93,434,0,0
-1836,1266,1,0
-608,1861,0,0
-1000,1940,1,0
-1246,1345,1,0
-1032,97,0,0
-1029,690,0,0
-278,441,1,0
-1823,649,1,0
-1555,947,1,0
-643,603,0,0
-299,41,0,0
-1071,594,1,0
-1270,171,0,0
-1530,174,0,0
-1219,113,0,0
-1528,1113,1,0
-1943,614,1,0
-1373,1757,1,0
-1596,1248,0,0
-1639,1395,0,0
-876,682,0,0
-1903,821,0,0
-1643,1199,1,0
-1617,1578,0,0
-1290,717,0,0
-803,631,0,0
-1083,762,0,0
-1276,239,0,0
-475,601,0,0
-1164,700,0,0
-1312,1562,0,0
-1222,310,1,0
-1313,913,0,0
-1164,967,1,0
-516,1982,0,0
-357,928,0,0
-1876,1384,1,0
-1519,717,0,0
-1955,645,0,0
-409,640,0,0
-1999,923,0,0
-654,1410,1,0
-227,511,0,0
-1403,770,1,0
-209,1972,0,0
-1520,1065,1,0
-233,613,1,0
-186,323,0,0
-774,953,0,0
-698,1766,1,0
-1535,799,0,0
-1901,694,0,0
-1214,632,0,0
-1327,1169,0,0
-1884,1259,0,0
-1532,621,0,0
-1009,506,1,0
-1992,256,0,0
-252,587,0,0
-1806,588,0,0
-1207,758,0,0
-484,1807,1,0
-1339,104,0,0
-184,629,0,0
-549,1544,0,0
-535,1221,1,0
-1984,1978,0,0
-732,1219,1,0
-533,398,0,0
-97,936,1,0
-849,176,0,0
-978,34,1,0
-485,443,0,0
-1464,306,0,0
-1691,502,0,0
-1939,1728,1,0
-109,555,0,0
-1794,1135,0,0
-1548,1085,1,0
-973,546,1,0
-1518,478,1,0
-1339,1499,0,0
-497,366,0,0
-1042,484,1,0
-1486,1054,0,0
-1839,1711,0,0
-1534,1292,1,0
-1651,1330,1,0
-1583,712,0,0
-28,535,0,0
-1080,171,0,0
-843,92,0,0
-676,1431,1,0
area 3
-1140,-122,0,0
-1383,-828,0,0
-1099,-1479,0,0
-898,-1655,0,0
-1500,-1275,0,0
-124,-1295,1,0
-1735,-621,0,0
-492,-996,1,0
-1252,-684,1,0
-1912,-1876,0,0
-86,-754,0,0
-996,-930,0,0
-827,-1649,0,0
-57,-1649,0,0
-1028,-736,0,0
-638,-1027,1,0
-1674,-576,0,0
-1942,-988,0,0
-249,-360,1,0
-1327,-331,1,0
-1049,-642,0,0
-1646,-860,0,0
-985,-954,0,0
-182,-437,0,0
-136,-987,0,0
-439,-660,1,0
-855,-1137,1,0
-584,-1794,1,0
-916,-1518,0,0
-328,-1009,0,0
-1454,-1416,1,0
-1983,-1132,0,0
-1897,-1832,0,0
-94,-1480,0,0
-1811,-45,0,0
-1728,-1406,0,0
-1452,-726,0,0
-1335,-588,0,0
-933,-1841,0,0
-1090,-1883,0,0
-1889,-260,0,0
-811,-1435,1,0
-1942,-1542,1,0
-443,-1359,1,0
-620,-605,0,0
-582,-1630,0,0
-717,-1352,0,0
-1096,-1176,0,0
-1737,-1723,0,0
-1565,-1354,0,0
-788,-161,0,0
-569,-883,1,0
-999,-163,0,0
-1158,-440,0,0
-16,-1878,0,0
-1419,-1565,0,0
-549,-801,0,0
-359,-548,0,0
-1392,-279,0,0
-1244,-547,0,0
-192,-1228,1,0
-909,-320,0,0
-5,-1890,0,0
-1295,-1934,1,0
-1833,-1433,0,0
-53,-1872,1,0
-1673,-1183,0,0
-863,-1540,1,0
-657,-478,1,0
-1007,-1258,1,0
-585,-463,1,0
-1323,-938,0,0
-1423,-104,0,0
-495,-605,1,0
-338,-339,0,0
-1169,-894,0,0
-986,-974,0,0
-87,-1601,0,0
-1816,-1809,0,0
-165,-1062,0,0
-483,-1115,0,0
-1989,-1609,0,0
-317,-1479,1,0
-1222,-1591,1,0
-904,-558,0,0
-1824,-1426,0,0
-1462,-1025,1,0
-721,-1240,1,0
-1408,-1460,1,0
-79,-649,1,0
-1653,-1453,1,0
-1887,-1395,0,0
-1177,-1700,0,0
-221,-1241,0,0
-649,-1455,1,0
-582,-866,0,0
-188,-454,1,0
-1189,-867,0,0
-1747,-28,0,0
-1712,-560,0,0
-708,-821,0,0
-668,-657,1,0
-245,-213,0,0
-1656,-1708,0,0
-1299,-235,0,0
-1295,-808,0,0
-1875,-652,1,0
-22,-1396,1,0
-809,-1788,1,0
-679,-1909,0,0
-118,-1502,0,0
-1301,-398,0,0
-508,-1718,0,0
-155,-1147,0,0
-708,-793,0,0
-68,-739,0,0
-64,-1484,0,0
-1852,-1500,0,0
-459,-326,0,0
-1208,-1671,0,0
-274,-882,1,0
-1440,-1967,0,0
-631,-1222,0,0
-1527,-1143,1,0
-1073,-626,1,0
-1621,-467,0,0
-339,-1653,0,0
-727,-955,1,0
-1280,-1493,1,0
-1719,-1308,1,0
-1053,-1696,1,0
-144,-1432,0,0
-1295,-1648,0,0
-1980,-445,0,0
-1895,-323,0,0
-572,-632,0,0
-781,-1961,0,0
-1964,-1295,0,0
-8,-834,0,0
-595,-22,0,0
-946,-20,0,0
-1473,-875,0,0
-980,-1765,0,0
-1915,-972,1,0
-994,-565,1,0
-1948,-420,1,0
-333,-28,0,0
-395,-374,1,0
-1379,-608,1,0
-1765,-140,0,0
-1340,-483,1,0
-1521,-468,0,0
-854,-701,0,0
-1868,-1320,1,0
-1061,-1222,0,0
-1769,-1916,0,0
-719,-829,0,0
-384,-505,0,0
-464,-400,1,0
-974,-196,0,0
-274,-1582,1,0
-1405,-139,0,0
-182,-291,1,0
-1003,-132,0,0
-179,-1127,0,0
-1,-734,0,0
-1867,-637,1,0
-508,-1852,0,0
-1084,-828,1,0
-1466,-763,1,0
-1104,-700,0,0
-322,-1828,0,0
-1226,-605,0,0
-1601,-1383,1,0
-913,-967,1,0
-1907,-204,0,0
-1150,-480,0,0
-1486,-160,0,0
-517,-667,0,0
-1384,-443,0,0
-72,-369,0,0
-1097,-1241,0,0
-984,-1989,0,0
-1794,-551,0,0
-194,-910,0,0
-222,-298,0,0
-1380,-330,0,0
-480,-1272,0,0
-763,-1003,0,0
-1842,-148,0,0
-468,-1170,1,0
-600,-1586,0,0
-1704,-470,0,0
-1950,-1996,0,0
-997,-1692,1,0
-242,-1590,1,0
-941,-228,0,0
-1559,-418,1,0
-1942,-1303,0,0
-972,-1506,0,0
-1053,-284,1,0
-1076,-1696,1,0
-1913,-180,0,0
-411,-570,0,0
-1017,-69,1,0
-664,-1338,0,0
-912,-381,0,0
-1182,-100,1,0
-924,-925,0,0
-243,-1319,1,0
-1533,-1140,0,0
-222,-1558,1,0
-651,-1713,0,0
-1781,-861,0,0
-734,-1104,0,0
-1690,-1637,0,0
-1062,-584,1,0
-551,-319,0,0
-158,-1835,0,0
-1053,-90,1,0
-180,-1639,1,0
-1073,-1914,1,0
-243,-138,0,0
-35,-633,0,0
-1475,-889,0,0
-1479,-590,1,0
-1158,-487,0,0
-1793,-893,0,0
-315,-1610,0,0
-1474,-1214,0,0
-964,-1420,0,0
-1644,-631,0,0
-109,-801,1,0
-639,-1832,1,0
-574,-722,1,0
-699,-198,0,0
-249,-1815,1,0
-488,-455,1,0
-798,-1905,0,0
-1318,-1425,1,0
-415,-1416,0,0
-830,-241,0,0
-1784,-1340,1,0
-470,-1316,0,0
-1476,-1642,0,0
-686,-1762,0,0
-112,-880,0,0
-1618,-1333,0,0
-1272,-530,1,0
-1915,-1723,0,0
-853,-1451,0,0
-262,-1071,0,0
-1167,-946,1,0
-1724,-855,0,0
-1544,-1889,0,0
-1438,-1090,0,0
-1482,-1996,0,0
-1742,-1438,1,0
-1526,-142,1,0
-515,-913,0,0
-665,-948,1,0
-387,-14,0,0
-160,-1227,0,0
-221,-15,0,0
-938,-1554,1,0
-319,-1108,0,0
-67,-379,0,0
-961,-1705,0,0
-1128,-871,0,0
-221,-1003,0,0
-1849,-1868,0,0
-177,-898,0,0
-583,-908,0,0
-1758,-493,0,0
-1597,-1870,1,0
-258,-1441,0,0
-1198,-381,0,0
-1873,-958,0,0
-1067,-340,1,0
-1831,-1860,0,0
-1103,-1887,0,0
-1848,-867,1,0
-222,-657,0,0
-1192,-1286,1,0
-446,-1784,1,0
-391,-685,1,0
-1292,-549,0,0
-502,-316,1,0
-41,-1160,0,0
-1729,-645,1,0
-1064,-1442,0,0
-1786,-1982,0,0
-1804,-1900,0,0
-98,-1732,1,0
-1968,-1162,0,0
-1740,-1581,0,0
-7,-2000,1,0
-1902,-1050,0,0
-677,-617,0,0
-190,-1758,0,0
-419,-1948,1,0
-1857,-695,0,0
-607,-561,1,0
-1737,-1854,0,0
area 4
1606,-1765,0,0
1679,-1180,1,0
1045,-1945,1,0
996,-1438,0,0
1111,-265,0,0
1997,-26,0,0
1908,-325,0,0
576,-66,0,0
1110,-678,1,0
1483,-15,0,0
1092,-838,1,0
1054,-1014,1,0
265,-1604,1,0
1691,-1668,1,0
1850,-566,1,0
1766,-1393,1,0
497,-1973,1,0
539,-1789,0,0
83,-192,0,0
719,-645,0,0
1571,-68,1,0
1610,-669,1,0
442,-767,1,0
923,-1695,1,0
41,-1008,0,0
941,-239,1,0
1812,-902,0,0
826,-127,0,0
1832,-890,0,0
1593,-1815,1,0
581,-864,1,0
261,-1807,0,0
356,-1224,0,0
51,-1673,0,0
178,-60,0,0
1675,-1293,0,0
394,-601,0,0
1840,-15,1,0
842,-205,1,0
1737,-1965,0,0
656,-613,0,0
1042,-1770,0,0
1394,-1237,0,0
800,-944,0,0
1829,-1096,0,0
1378,-1710,0,0
1872,-1627,0,0
178,-720,1,0
1377,-1945,0,0
1395,-925,0,0
420,-1934,0,0
1194,-1333,0,0
1674,-1988,1,0
1935,-1551,0,0
911,-1781,0,0
581,-1872,1,0
1748,-1458,1,0
970,-1640,1,0
935,-34,0,0
67,-859,1,0
943,-1550,0,0
1599,-132,0,0
1571,-1712,1,0
1265,-1850,0,0
496,-1918,1,0
5,-1028,0,0
1409,-975,0,0
1578,-439,0,0
1605,-247,0,0
1933,-1893,1,0
1038,-254,1,0
868,-457,0,0
1622,-1194,0,0
1709,-1521,0,0
1412,-1349,0,0
879,-1702,1,0
1259,-21,0,0
1276,-1018,1,0
243,-195,0,0
1898,-301,0,0
1982,-1645,1,0
1195,-687,0,0
1787,-1260,1,0
1238,-1484,0,0
682,-332,0,0
1079,-1500,1,0
846,-1026,1,0
377,-1812,1,0
1107,-1841,1,0
873,-942,0,0
1141,-1475,0,0
742,-862,0,0
1512,-1367,1,0
30,-1723,0,0
1305,-1477,0,0
583,-1390,0,0
1325,-65,1,0
1883,-1158,1,0
842,-110,0,0
1349,-644,1,0
424,-748,0,0
1777,-282,1,0
1156,-324,1,0
823,-1855,1,0
1410,-1316,0,0
997,-819,0,0
572,-1350,0,0
517,-1682,0,0
26,-427,1,0
467,-1801,1,0
1806,-425,0,0
1136,-1161,0,0
485,-1748,0,0
217,-1787,0,0
1944,-1793,0,0
696,-240,0,0
82,-1560,0,0
1355,-1798,1,0
1297,-444,1,0
1055,-531,0,0
189,-1499,0,0
1163,-138,1,0
711,-424,0,0
174,-1360,0,0
108,-136,0,0
1536,-682,0,0
1960,-1499,0,0
1512,-223,0,0
1817,-250,1,0
1539,-1641,0,0
615,-512,0,0
697,-502,0,0
1491,-769,0,0
1421,-775,1,0
1647,-1771,0,0
773,-1647,0,0
1063,-1024,1,0
1065,-1025,0,0
59,-1455,0,0
1942,-1424,1,0
1858,-687,1,0
1585,-1188,0,0
701,-1608,0,0
1300,-708,1,0
1371,-1033,0,0
621,-640,1,0
117,-1296,0,0
72,-1293,0,0
1295,-347,1,0
521,-788,0,0
675,-710,1,0
1444,-301,0,0
20,-1016,0,0
647,-983,0,0
77,-85,0,0
1905,-1625,1,0
936,-1037,1,0
501,-969,0,0
437,-1067,0,0
763,-602,0,0
1863,-1041,0,0
1864,-257,1,0
1221,-1744,0,0
572,-480,1,0
1021,-669,1,0
1653,-1146,0,0
229,-1604,0,0
582,-823,1,0
1055,-468,1,0
477,-1586,0,0
77,-1511,0,0
810,-1990,0,0
839,-932,0,0
1989,-1160,0,0
703,-374,0,0
974,-1792,0,0
833,-785,1,0
878,-817,1,0
1593,-167,0,0
813,-1921,1,0
908,-1698,0,0
1262,-346,0,0
453,-248,1,0
1551,-119,0,0
39,-1949,0,0
1018,-1530,0,0
1422,-862,0,0
1856,-1353,0,0
270,-93,0,0
62,-1491,0,0
1652,-1117,1,0
600,-1765,0,0
1079,-1922,0,0
1655,-1353,0,0
1272,-1420,1,0
1949,-585,0,0
1584,-918,0,0
1718,-1343,0,0
462,-1254,1,0
815,-532,1,0
1430,-1905,0,0
1841,-816,0,0
1631,-610,0,0
143,-81,0,0
1193,-1965,0,0
322,-1950,0,0
1562,-1227,0,0
1395,-476,0,0
1514,-1290,0,0
735,-667,0,0
263,-776,1,0
667,-1971,0,0
158,-1882,0,0
1706,-501,1,0
965,-1012,1,0
1204,-471,0,0
1088,-55,0,0
1344,-1475,0,0
1046,-485,0,0
498,-1653,0,0
1491,-1159,1,0
769,-1736,1,0
1161,-1459,1,0
925,-167,0,0
522,-1941,1,0
1079,-1298,0,0
1084,-1546,0,0
5,-1475,1,0
90,-174,0,0
1959,-1478,1,0
79,-661,1,0
1984,-818,0,0
1453,-1278,0,0
734,-939,0,0
1596,-1002,0,0
1812,-1305,1,0
1783,-1301,1,0
1101,-599,0,0
1411,-457,0,0
537,-709,0,0
332,-928,0,0
1190,-1759,1,0
797,-1060,0,0
1122,-354,1,0
122,-944,0,0
756,-1204,0,0
944,-1461,0,0
485,-160,0,0
723,-1073,1,0
1352,-113,0,0
1261,-710,0,0
1950,-942,0,0
1629,-1387,0,0
1398,-862,0,0
1097,-1763,0,0
614,-1385,1,0
1514,-1807,0,0
1664,-1017,1,0
1353,-1226,1,0
1471,-371,1,0
435,-1970,0,0
1610,-705,1,0
1081,-1900,0,0
589,-121,1,0
180,-207,0,0
1009,-1582,0,0
1142,-96,0,0
384,-1617,1,0
1195,-1956,0,0
1803,-315,0,0
607,-736,1,0
901,-1713,1,0
620,-1173,0,0
1863,-629,0,0
379,-566,0,0
189,-1077,0,0
1210,-528,1,0
1566,-1517,1,0
352,-305,1,0
1041,-721,1,0
362,-1015,0,0
1066,-404,1,0
1841,-69,0,0
1750,-399,0,0
1870,-616,0,0
1529,-1620,0,0
1603,-25,0,0
286,-1071,0,0
1440,-761,0,0
1261,-1071,0,0
156,-1739,1,0
978,-1644,0,0
730,-41,0,0
1997,-1919,0,0
803,-114,0,0
1442,-1100,1,0
1804,-1050,0,0
1686,-435,0,0
1232,-1379,0,0
176,-1276,1,0
1562,-837,1,0
507,-516,0,0
1333,-302,0,0
1669,-658,0,0
1346,-1448,0,0
1839,-1820,0,0
718,-900,1,0
1104,-90,0,0
1907,-170,0,0
368,-235,0,0
1201,-503,1,0
581,-1084,1,0
1603,-1931,0,0
1528,-1884,1,0
626,-1770,0,0
960,-1589,1,0

near cbsd peopel number
56
59
63
59
46
60
51
56
63
64
52
58
40
65
59
62
42
65
64
60
42
53
49
57
68
65
68
50
55
62
