363.422760,357.964966,371.239044,371.371368,371.371368,365.738007,364.638580,370.926849,365.286957,359.455200,357.100830,364.813110,364.813110,364.648712,364.013855,365.913727,363.946411,371.666016,362.363800,362.363800,355.345856,372.089813,371.879791,369.362823,364.737244,364.126678,362.880096,362.880096,367.301331,371.165771,360.906158,371.416901,359.929962,359.929962,363.814728,371.367706,371.178528,358.730377,363.216339,371.519714,371.519714,371.296295,364.228973,356.824493,371.099243,370.959625,357.858398,361.180023,361.180023,369.519257,371.358215,365.591339,365.404968,371.907623,363.832123,363.832123,371.610138,362.674530,370.741333,363.787872,363.448639,371.024658,368.096832,368.096832,364.431885,362.224792,366.883362,371.825623,356.786133,363.879883,371.433319,364.364349,364.364349,371.762787,372.096497,371.239532,369.840546,361.714020,371.417664,371.417664,365.525879,356.177460,356.263672,364.071381,364.789612,362.795959,362.795959,364.599518,371.378357,357.308044,366.921600,363.864594,372.710846,372.710846,359.606506,364.343842,356.385895,363.691498,364.367126,363.757233,

avg. max avg. throughput in test times
365.636627
avg. BS TX power in all test times
MBS area 1,MBS area 2,MBS area 3,MBS area 4,CBSD 1,CBSD 2,CBSD 3,CBSD 4,CBSD 5,CBSD 6,CBSD 7,CBSD 8,CBSD 9,CBSD 10,CBSD 11,CBSD 12,CBSD 13,CBSD 14,CBSD 15,CBSD 16,CBSD 17,CBSD 18,CBSD 19,CBSD 20,CBSD 21,CBSD 22,CBSD 23,
10.000,10.000,10.000,10.000,0.110,0.170,0.160,0.110,0.230,0.200,0.190,0.170,0.190,0.180,0.140,0.170,0.160,0.200,0.130,0.150,0.160,0.170,0.170,0.180,0.170,0.290,0.200,
avg. mbs all power,avg. cbsd enable number,avg. mbs area all power,avg. cbsd all power
70.000,4.000,40.000,4.000
avg. number of relay UE
734

BS TX power
MBS area 1,MBS area 2,MBS area 3,MBS area 4,CBSD 1,CBSD 2,CBSD 3,CBSD 4,CBSD 5,CBSD 6,CBSD 7,CBSD 8,CBSD 9,CBSD 10,CBSD 11,CBSD 12,CBSD 13,CBSD 14,CBSD 15,CBSD 16,CBSD 17,CBSD 18,CBSD 19,CBSD 20,CBSD 21,CBSD 22,CBSD 23,
10.000,10.000,10.000,10.000,1.000,0.000,0.000,1.000,0.000,0.000,1.000,0.000,0.000,0.000,0.000,0.000,1.000,0.000,0.000,0.000,0.000,0.000,0.000,0.000,0.000,0.000,0.000,
max average power
363.757233

x,y,area,be blocked (1 : NLOS / 0 : LOS),be blocked number (>=1 : CBSD(x) / 0 : no),connect bs number (>=1 : CBSD / 0 : MBS),throughput (unit : M bps)
1067,493,1,0,0,0,840.090332
-1198,957,2,0,0,0,763.686279
-1140,-122,3,0,0,0,847.247620
1606,-1765,4,0,0,7,43.801399
1434,1549,1,0,0,1,28.322166
-1368,1439,2,0,0,1,28.322166
-1383,-828,3,0,0,0,749.338013
1679,-1180,4,1,0,7,43.801399
578,230,1,0,0,0,1023.375793
-799,1776,2,0,0,1,28.322166
-1099,-1479,3,0,0,4,47.830914
1045,-1945,4,1,0,7,43.801399
1615,133,1,0,0,0,747.819824
-218,1092,2,0,0,0,855.641418
-898,-1655,3,0,0,4,47.830914
996,-1438,4,0,0,0,725.888977
605,780,1,0,0,0,890.329712
-1705,1347,2,1,0,1,28.322166
-1500,-1275,3,0,0,4,47.830914
1111,-265,4,0,0,0,848.339417
1502,307,1,0,0,0,763.735168
-412,986,2,0,0,0,867.495056
-124,-1295,3,1,0,4,47.830914
1997,-26,4,0,0,7,43.801399
1533,1339,1,0,0,1,28.322166
-1927,1805,2,1,0,1,28.322166
-1735,-621,3,0,0,4,47.830914
1908,-325,4,0,0,7,43.801399
1436,945,1,1,0,1,28.322166
-1325,1257,2,0,0,1,28.322166
-492,-996,3,1,0,4,47.830914
576,-66,4,0,0,0,1043.684692
176,451,1,1,0,1,28.322166
-93,1948,2,0,0,1,28.322166
-1252,-684,3,1,0,4,47.830914
1110,-678,4,1,0,7,43.801399
19,334,1,1,0,1,28.322166
-1864,1225,2,0,0,1,28.322166
-1912,-1876,3,0,0,4,47.830914
1483,-15,4,0,0,0,773.251892
1531,1718,1,0,0,1,28.322166
-1025,1990,2,0,0,1,28.322166
-86,-754,3,0,0,0,966.076843
1092,-838,4,1,0,7,43.801399
557,378,1,1,0,1,28.322166
-1652,1413,2,0,0,1,28.322166
-996,-930,3,0,0,0,797.573792
1054,-1014,4,1,0,7,43.801399
74,93,1,0,0,0,1500.855469
-719,1857,2,1,0,1,28.322166
-827,-1649,3,0,0,4,47.830914
265,-1604,4,1,0,7,43.801399
66,1195,1,0,0,0,834.891968
-361,1269,2,0,0,0,806.863586
-57,-1649,3,0,0,0,742.641052
1691,-1668,4,1,0,7,43.801399
866,102,1,0,0,0,926.050415
-151,873,2,0,0,0,921.469910
-1028,-736,3,0,0,0,819.114685
1850,-566,4,1,0,7,43.801399
375,1574,1,1,0,1,28.322166
-1691,50,2,1,0,1,28.322166
-638,-1027,3,1,0,4,47.830914
1766,-1393,4,1,0,7,43.801399
1009,856,1,0,0,0,806.029114
-866,1136,2,0,0,0,784.032410
-1674,-576,3,0,0,4,47.830914
497,-1973,4,1,0,7,43.801399
368,1109,1,0,0,0,841.790466
-1743,217,2,0,0,0,724.709839
-1942,-988,3,0,0,4,47.830914
539,-1789,4,0,0,7,43.801399
1861,1665,1,1,0,1,28.322166
-1227,1060,2,0,0,0,747.644409
-249,-360,3,1,0,4,47.830914
83,-192,4,0,0,0,1337.751465
1721,1666,1,0,0,1,28.322166
-728,1870,2,1,0,1,28.322166
-1327,-331,3,1,0,4,47.830914
719,-645,4,0,0,0,896.586548
393,1369,1,0,0,0,784.868408
-1600,1771,2,0,0,1,28.322166
-1049,-642,3,0,0,0,827.058716
1571,-68,4,1,0,7,43.801399
1323,1208,1,0,0,1,28.322166
-1071,1098,2,0,0,0,763.589172
-1646,-860,3,0,0,4,47.830914
1610,-669,4,1,0,7,43.801399
1935,573,1,0,0,7,43.801399
-1200,821,2,0,0,0,778.943665
-985,-954,3,0,0,0,795.772461
442,-767,4,1,0,7,43.801399
1335,1731,1,0,0,1,28.322166
-974,382,2,1,0,1,28.322166
-182,-437,3,0,0,0,1102.142822
923,-1695,4,1,0,7,43.801399
713,1703,1,1,0,1,28.322166
-295,88,2,1,0,4,47.830914
-136,-987,3,0,0,0,887.659729
41,-1008,4,0,0,0,884.067810
1573,1288,1,1,0,1,28.322166
-1497,1489,2,0,0,1,28.322166
-439,-660,3,1,0,4,47.830914
941,-239,4,1,0,7,43.801399
625,1199,1,1,0,1,28.322166
-525,1790,2,1,0,1,28.322166
-855,-1137,3,1,0,4,47.830914
1812,-902,4,0,0,7,43.801399
1263,881,1,0,0,0,762.453674
-818,789,2,0,0,0,849.769165
-584,-1794,3,1,0,4,47.830914
826,-127,4,0,0,0,938.293030
1977,236,1,1,0,7,43.801399
-683,376,2,0,0,0,958.296387
-916,-1518,3,0,0,4,47.830914
1832,-890,4,0,0,7,43.801399
1172,1416,1,0,0,1,28.322166
-1951,1295,2,0,0,1,28.322166
-328,-1009,3,0,0,0,869.560913
1593,-1815,4,1,0,7,43.801399
102,515,1,0,0,0,1072.295898
-1212,1001,2,0,0,0,756.547791
-1454,-1416,3,1,0,4,47.830914
581,-864,4,1,0,7,43.801399
123,145,1,0,0,0,1365.271729
-1626,1450,2,0,0,1,28.322166
-1983,-1132,3,0,0,4,47.830914
261,-1807,4,0,0,7,43.801399
1249,1450,1,1,0,1,28.322166
-235,816,2,0,0,0,933.690430
-1897,-1832,3,0,0,4,47.830914
356,-1224,4,0,0,0,816.756958
258,1581,1,1,0,1,28.322166
-945,285,2,0,0,0,890.355469
-94,-1480,3,0,0,0,773.270020
51,-1673,4,0,0,0,738.534546
1903,852,1,0,0,1,28.322166
-641,638,2,0,0,0,915.539673
-1811,-45,3,0,0,1,28.322166
178,-60,4,0,0,0,1368.785522
498,157,1,0,0,0,1073.860962
-252,676,2,0,0,0,980.660034
-1728,-1406,3,0,0,4,47.830914
1675,-1293,4,0,0,7,43.801399
921,1736,1,1,0,1,28.322166
-436,1135,2,1,0,1,28.322166
-1452,-726,3,0,0,0,747.303650
394,-601,4,0,0,0,981.783813
1542,1946,1,0,0,1,28.322166
-1739,345,2,1,0,1,28.322166
-1335,-588,3,0,0,0,778.000610
1840,-15,4,1,0,7,43.801399
1360,542,1,1,0,1,28.322166
-978,1134,2,0,0,0,770.476746
-933,-1841,3,0,0,4,47.830914
842,-205,4,1,0,7,43.801399
97,168,1,0,0,0,1359.487915
-427,61,2,0,0,0,1128.971680
-1090,-1883,3,0,0,4,47.830914
1737,-1965,4,0,0,7,43.801399
1350,990,1,0,0,0,738.479614
-945,1853,2,0,0,1,28.322166
-1889,-260,3,0,0,4,47.830914
656,-613,4,0,0,0,917.636047
1099,1016,1,1,0,1,28.322166
-1566,1281,2,1,0,1,28.322166
-811,-1435,3,1,0,4,47.830914
1042,-1770,4,0,0,7,43.801399
470,1682,1,1,0,1,28.322166
-928,1554,2,1,0,1,28.322166
-1942,-1542,3,1,0,4,47.830914
1394,-1237,4,0,0,7,43.801399
1402,1865,1,0,0,1,28.322166
-770,985,2,1,0,1,28.322166
-443,-1359,3,1,0,4,47.830914
800,-944,4,0,0,0,825.303772
243,1967,1,0,0,1,28.322166
-292,949,2,1,0,1,28.322166
-620,-605,3,0,0,0,927.944824
1829,-1096,4,0,0,7,43.801399
1856,1956,1,0,0,1,28.322166
-574,715,2,1,0,1,28.322166
-582,-1630,3,0,0,0,728.929993
1378,-1710,4,0,0,7,43.801399
507,743,1,0,0,0,917.102173
-770,1574,2,1,0,1,28.322166
-717,-1352,3,0,0,0,764.240540
1872,-1627,4,0,0,7,43.801399
194,1225,1,0,0,0,824.636353
-292,580,2,0,0,0,1011.004333
-1096,-1176,3,0,0,0,750.117554
178,-720,4,1,0,4,47.830914
70,934,1,0,0,0,905.455017
-71,631,2,0,0,0,1017.457886
-1737,-1723,3,0,0,4,47.830914
1377,-1945,4,0,0,7,43.801399
953,919,1,0,0,0,805.868774
-1309,1684,2,0,0,1,28.322166
-1565,-1354,3,0,0,4,47.830914
1395,-925,4,0,0,0,738.528198
871,338,1,0,0,0,906.174194
-1135,670,2,0,0,0,807.157471
-788,-161,3,0,0,0,949.337097
420,-1934,4,0,0,7,43.801399
762,1514,1,1,0,1,28.322166
-318,1971,2,0,0,1,28.322166
-569,-883,3,1,0,4,47.830914
1194,-1333,4,0,0,7,43.801399
751,565,1,1,0,1,28.322166
-803,859,2,0,0,0,839.970520
-999,-163,3,0,0,0,883.105591
1674,-1988,4,1,0,7,43.801399
1651,1213,1,1,0,1,28.322166
-1303,685,2,1,0,1,28.322166
-1158,-440,3,0,0,0,824.982178
1935,-1551,4,0,0,7,43.801399
752,1412,1,0,0,0,751.509155
-1440,1069,2,0,0,1,28.322166
-16,-1878,3,0,0,4,47.830914
911,-1781,4,0,0,7,43.801399
1740,551,1,1,0,7,43.801399
-1570,1706,2,0,0,1,28.322166
-1419,-1565,3,0,0,4,47.830914
581,-1872,4,1,0,7,43.801399
106,994,1,1,0,1,28.322166
-1593,1875,2,0,0,1,28.322166
-549,-801,3,0,0,0,895.048950
1748,-1458,4,1,0,7,43.801399
430,200,1,0,0,0,1101.624512
-578,1352,2,1,0,1,28.322166
-359,-548,3,0,0,0,1008.456299
970,-1640,4,1,0,7,43.801399
1113,1909,1,0,0,1,28.322166
-386,1133,2,0,0,0,834.861633
-1392,-279,3,0,0,0,785.799316
935,-34,4,0,0,0,905.763123
1726,1857,1,0,0,1,28.322166
-1942,52,2,0,0,1,28.322166
-1244,-547,3,0,0,0,798.363159
67,-859,4,1,0,4,47.830914
919,1425,1,1,0,1,28.322166
-903,1962,2,1,0,1,28.322166
-192,-1228,3,1,0,4,47.830914
943,-1550,4,0,0,7,43.801399
683,396,1,1,0,1,28.322166
-1186,1743,2,0,0,1,28.322166
-909,-320,3,0,0,0,897.252258
1599,-132,4,0,0,0,750.672058
1903,863,1,1,0,1,28.322166
-1461,856,2,0,0,0,735.209045
-5,-1890,3,0,0,4,47.830914
1571,-1712,4,1,0,7,43.801399
1086,1571,1,0,0,1,28.322166
-1626,1997,2,1,0,1,28.322166
-1295,-1934,3,1,0,4,47.830914
1265,-1850,4,0,0,7,43.801399
1335,1146,1,1,0,1,28.322166
-1366,1628,2,0,0,1,28.322166
-1833,-1433,3,0,0,4,47.830914
496,-1918,4,1,0,7,43.801399
151,550,1,1,0,1,28.322166
-1884,1257,2,1,0,1,28.322166
-53,-1872,3,1,0,4,47.830914
5,-1028,4,0,0,0,878.646118
959,761,1,0,0,0,828.373108
-575,823,2,0,0,0,885.459534
-1673,-1183,3,0,0,4,47.830914
1409,-975,4,0,0,0,731.816833
1189,1738,1,1,0,1,28.322166
-405,847,2,1,0,1,28.322166
-863,-1540,3,1,0,4,47.830914
1578,-439,4,0,0,0,744.745056
1015,1407,1,1,0,1,28.322166
-452,223,2,0,0,0,1084.060303
-657,-478,3,1,0,4,47.830914
1605,-247,4,0,0,0,747.213684
489,139,1,1,0,4,47.830914
-198,631,2,0,0,0,1005.734802
-1007,-1258,3,1,0,4,47.830914
1933,-1893,4,1,0,7,43.801399
1042,431,1,0,0,0,852.027954
-1971,451,2,1,0,1,28.322166
-585,-463,3,1,0,4,47.830914
1038,-254,4,1,0,7,43.801399
158,1261,1,0,0,0,817.629089
-1979,1588,2,1,0,1,28.322166
-1323,-938,3,0,0,0,747.587463
868,-457,4,0,0,0,892.136536
551,605,1,1,0,1,28.322166
-362,302,2,0,0,0,1103.334961
-1423,-104,3,0,0,0,784.364258
1622,-1194,4,0,0,7,43.801399
1491,1061,1,1,0,1,28.322166
-1416,595,2,1,0,1,28.322166
-495,-605,3,1,0,4,47.830914
1709,-1521,4,0,0,7,43.801399
1842,883,1,1,0,1,28.322166
-956,466,2,1,0,1,28.322166
-338,-339,3,0,0,0,1098.915527
1412,-1349,4,0,0,7,43.801399
305,1883,1,1,0,1,28.322166
-1552,1953,2,1,0,1,28.322166
-1169,-894,3,0,0,0,775.470276
879,-1702,4,1,0,7,43.801399
1577,1136,1,0,0,1,28.322166
-919,1206,2,0,0,0,766.900635
-986,-974,3,0,0,0,792.708130
1259,-21,4,0,0,0,820.285156
938,998,1,0,0,0,796.116272
-1026,504,2,1,0,1,28.322166
-87,-1601,3,0,0,0,750.864624
1276,-1018,4,1,0,7,43.801399
254,1678,1,0,0,0,734.563232
-206,1835,2,0,0,1,28.322166
-1816,-1809,3,0,0,4,47.830914
243,-195,4,0,0,0,1222.797607
452,1398,1,0,0,0,775.940979
-1137,403,2,1,0,1,28.322166
-165,-1062,3,0,0,0,865.849976
1898,-301,4,0,0,7,43.801399
1431,433,1,0,0,0,770.937805
-221,1474,2,0,0,0,771.822632
-483,-1115,3,0,0,0,830.527588
1982,-1645,4,1,0,7,43.801399
90,1837,1,0,0,1,28.322166
-1196,1568,2,0,0,1,28.322166
-1989,-1609,3,0,0,4,47.830914
1195,-687,4,0,0,0,794.278381
486,319,1,0,0,0,1042.903931
-1745,1878,2,0,0,1,28.322166
-317,-1479,3,1,0,4,47.830914
1787,-1260,4,1,0,7,43.801399
100,1270,1,0,0,0,816.935059
-1104,1467,2,1,0,1,28.322166
-1222,-1591,3,1,0,4,47.830914
1238,-1484,4,0,0,7,43.801399
253,1352,1,1,0,1,28.322166
-1336,1486,2,0,0,1,28.322166
-904,-558,3,0,0,0,869.188782
682,-332,4,0,0,0,966.217834
1191,735,1,0,0,0,789.906128
-1195,351,2,1,0,1,28.322166
-1824,-1426,3,0,0,4,47.830914
1079,-1500,4,1,0,7,43.801399
533,748,1,0,0,0,911.089539
-256,463,2,0,0,0,1070.076294
-1462,-1025,3,1,0,4,47.830914
846,-1026,4,1,0,7,43.801399
1231,1245,1,0,0,0,725.630371
-289,1728,2,0,0,0,725.437744
-721,-1240,3,1,0,4,47.830914
377,-1812,4,1,0,7,43.801399
518,1501,1,1,0,1,28.322166
-838,1705,2,1,0,1,28.322166
-1408,-1460,3,1,0,4,47.830914
1107,-1841,4,1,0,7,43.801399
912,375,1,0,0,0,890.633911
-32,1903,2,0,0,1,28.322166
-79,-649,3,1,0,4,47.830914
873,-942,4,0,0,0,814.598389
105,1394,1,1,0,1,28.322166
-104,1682,2,0,0,0,736.581665
-1653,-1453,3,1,0,4,47.830914
1141,-1475,4,0,0,7,43.801399
1121,1584,1,0,0,1,28.322166
-1958,798,2,1,0,1,28.322166
-1887,-1395,3,0,0,4,47.830914
742,-862,4,0,0,0,849.550537
1171,1175,1,0,0,0,741.099548
-1236,1494,2,0,0,1,28.322166
-1177,-1700,3,0,0,4,47.830914
1512,-1367,4,1,0,7,43.801399
1463,465,1,0,0,0,763.348389
-1830,513,2,0,0,1,28.322166
-221,-1241,3,0,0,0,819.976990
30,-1723,4,0,0,0,730.179321
514,858,1,0,0,0,886.548218
-230,473,2,1,0,1,28.322166
-649,-1455,3,1,0,4,47.830914
1305,-1477,4,0,0,7,43.801399
1378,1993,1,0,0,1,28.322166
-1559,1842,2,1,0,1,28.322166
-582,-866,3,0,0,0,874.369446
583,-1390,4,0,0,0,768.597168
841,1303,1,0,0,0,760.424622
-1714,148,2,0,0,0,730.659607
-188,-454,3,1,0,4,47.830914
1325,-65,4,1,0,7,43.801399
208,1299,1,0,0,0,807.693054
-1643,1322,2,0,0,1,28.322166
-1189,-867,3,0,0,0,775.495728
1883,-1158,4,1,0,7,43.801399
376,798,1,1,0,1,28.322166
-1342,1496,2,1,0,1,28.322166
-1747,-28,3,0,0,0,726.220337
842,-110,4,0,0,0,933.693726
1001,1737,1,1,0,1,28.322166
-1188,1208,2,0,0,0,735.041565
-1712,-560,3,0,0,4,47.830914
1349,-644,4,1,0,7,43.801399
606,1180,1,0,0,0,805.306946
-996,1676,2,0,0,1,28.322166
-708,-821,3,0,0,0,863.350708
424,-748,4,0,0,0,930.099976
1261,604,1,1,0,1,28.322166
-719,340,2,0,0,0,952.558777
-668,-657,3,1,0,4,47.830914
1777,-282,4,1,0,7,43.801399
750,1463,1,1,0,1,28.322166
-359,1777,2,0,0,1,28.322166
-245,-213,3,0,0,0,1210.936523
1156,-324,4,1,0,7,43.801399
597,976,1,1,0,1,28.322166
-1012,1011,2,0,0,0,783.623901
-1656,-1708,3,0,0,4,47.830914
823,-1855,4,1,0,7,43.801399
1906,1531,1,1,0,1,28.322166
-324,688,2,1,0,1,28.322166
-1299,-235,3,0,0,0,806.703003
1410,-1316,4,0,0,7,43.801399
564,1221,1,0,0,0,801.335510
-465,121,2,0,0,0,1097.849121
-1295,-808,3,0,0,0,764.984497
997,-819,4,0,0,0,813.273010
1846,1239,1,0,0,1,28.322166
-1703,293,2,0,0,0,729.388550
-1875,-652,3,1,0,4,47.830914
572,-1350,4,0,0,0,776.542419
1316,1215,1,0,0,1,28.322166
-1913,1739,2,0,0,1,28.322166
-22,-1396,3,1,0,4,47.830914
517,-1682,4,0,0,0,724.186951
829,1679,1,1,0,1,28.322166
-68,471,2,0,0,0,1100.624512
-809,-1788,3,1,0,4,47.830914
26,-427,4,1,0,4,47.830914
463,1099,1,0,0,0,835.921082
-1152,788,2,1,0,1,28.322166
-679,-1909,3,0,0,4,47.830914
467,-1801,4,1,0,7,43.801399
263,1152,1,1,0,1,28.322166
-736,1698,2,0,0,1,28.322166
-118,-1502,3,0,0,0,768.727356
1806,-425,4,0,0,7,43.801399
732,747,1,0,0,0,873.689819
-369,258,2,0,0,0,1116.593628
-1301,-398,3,0,0,0,798.031921
1136,-1161,4,0,0,0,747.138367
1952,1810,1,1,0,1,28.322166
-1495,668,2,0,0,0,744.828247
-508,-1718,3,0,0,4,47.830914
485,-1748,4,0,0,7,43.801399
1149,448,1,0,0,0,826.268005
-290,1756,2,1,0,1,28.322166
-155,-1147,3,0,0,0,844.520996
217,-1787,4,0,0,7,43.801399
1716,152,1,1,0,7,43.801399
-1394,644,2,0,0,0,763.264648
-708,-793,3,0,0,0,868.993530
1944,-1793,4,0,0,7,43.801399
401,213,1,1,0,1,28.322166
-285,205,2,1,0,1,28.322166
-68,-739,3,0,0,0,972.515381
696,-240,4,0,0,0,974.817505
122,547,1,0,0,0,1053.461304
-181,1078,2,0,0,0,860.977905
-64,-1484,3,0,0,0,772.806152
82,-1560,4,0,0,0,758.337280
1365,1860,1,0,0,1,28.322166
-1839,1336,2,1,0,1,28.322166
-1852,-1500,3,0,0,4,47.830914
1355,-1798,4,1,0,7,43.801399
311,98,1,0,0,0,1209.668091
-1275,999,2,0,0,0,747.944824
-459,-326,3,0,0,0,1052.152588
1297,-444,4,1,0,7,43.801399
1628,1503,1,0,0,1,28.322166
-1018,1450,2,1,0,1,28.322166
-1208,-1671,3,0,0,4,47.830914
1055,-531,4,0,0,0,838.696960
1818,1914,1,1,0,1,28.322166
-490,89,2,0,0,0,1087.513916
-274,-882,3,1,0,4,47.830914
189,-1499,4,0,0,0,767.920532
579,347,1,0,0,0,999.831665
-18,1315,2,1,0,1,28.322166
-1440,-1967,3,0,0,4,47.830914
1163,-138,4,1,0,7,43.801399
1752,5,1,1,0,7,43.801399
-1215,185,2,1,0,1,28.322166
-631,-1222,3,0,0,0,794.926575
711,-424,4,0,0,0,941.022400
227,1920,1,0,0,1,28.322166
-541,1323,2,1,0,1,28.322166
-1527,-1143,3,1,0,4,47.830914
174,-1360,4,0,0,0,795.808044
1786,810,1,0,0,1,28.322166
-157,853,2,0,0,0,927.593384
-1073,-626,3,1,0,4,47.830914
108,-136,4,0,0,0,1391.421631
1595,433,1,1,0,7,43.801399
-1482,1032,2,0,0,1,28.322166
-1621,-467,3,0,0,0,736.289734
1536,-682,4,0,0,0,737.367615
1030,251,1,0,0,0,869.786682
-887,18,2,1,0,4,47.830914
-339,-1653,3,0,0,0,736.209106
1960,-1499,4,0,0,7,43.801399
357,110,1,1,0,4,47.830914
-1717,1983,2,0,0,1,28.322166
-727,-955,3,1,0,4,47.830914
1512,-223,4,0,0,0,764.616272
1122,1165,1,0,0,0,748.356628
-1223,487,2,1,0,1,28.322166
-1280,-1493,3,1,0,4,47.830914
1817,-250,4,1,0,7,43.801399
1944,98,1,0,0,7,43.801399
-212,134,2,0,0,0,1285.389526
-1719,-1308,3,1,0,4,47.830914
1539,-1641,4,0,0,7,43.801399
300,143,1,0,0,0,1204.179321
-1322,717,2,0,0,0,769.244141
-1053,-1696,3,1,0,4,47.830914
615,-512,4,0,0,0,950.791138
895,1472,1,0,0,0,730.267212
-708,1882,2,1,0,1,28.322166
-144,-1432,3,0,0,0,781.872986
697,-502,4,0,0,0,930.386169
847,1487,1,1,0,1,28.322166
-1008,1211,2,1,0,1,28.322166
-1295,-1648,3,0,0,4,47.830914
1491,-769,4,0,0,0,737.875000
756,1864,1,1,0,1,28.322166
-1342,839,2,0,0,0,754.589966
-1980,-445,3,0,0,4,47.830914
1421,-775,4,1,0,7,43.801399
1064,1549,1,0,0,1,28.322166
-1027,1651,2,1,0,1,28.322166
-1895,-323,3,0,0,4,47.830914
1647,-1771,4,0,0,7,43.801399
1530,1508,1,0,0,1,28.322166
-483,962,2,1,0,1,28.322166
-572,-632,3,0,0,0,932.590454
773,-1647,4,0,0,7,43.801399
1192,576,1,0,0,0,805.879578
-1895,152,2,0,0,1,28.322166
-781,-1961,3,0,0,4,47.830914
1063,-1024,4,1,0,7,43.801399
660,1490,1,0,0,0,746.201843
-153,190,2,1,0,1,28.322166
-1964,-1295,3,0,0,4,47.830914
1065,-1025,4,0,0,0,774.212463
790,1498,1,1,0,1,28.322166
-757,141,2,0,0,0,961.880554
-8,-834,3,0,0,0,938.868774
59,-1455,4,0,0,0,778.505188
77,1446,1,1,0,1,28.322166
-232,421,2,0,0,0,1097.724976
-595,-22,3,0,0,0,1036.010742
1942,-1424,4,1,0,7,43.801399
1005,1770,1,0,0,1,28.322166
-937,1402,2,0,0,0,736.398254
-946,-20,3,0,0,0,902.520691
1858,-687,4,1,0,7,43.801399
330,1398,1,0,0,0,782.432678
-1081,281,2,0,0,0,854.769897
-1473,-875,3,0,0,0,731.843811
1585,-1188,4,0,0,7,43.801399
839,85,1,1,0,7,43.801399
-28,1875,2,0,0,1,28.322166
-980,-1765,3,0,0,4,47.830914
701,-1608,4,0,0,0,725.085266
397,961,1,0,0,0,875.371033
-1378,527,2,0,0,0,774.754822
-1915,-972,3,1,0,4,47.830914
1300,-708,4,1,0,7,43.801399
1578,928,1,0,0,1,28.322166
-516,1710,2,1,0,1,28.322166
-994,-565,3,1,0,4,47.830914
1371,-1033,4,0,0,0,731.289185
1254,1305,1,0,0,1,28.322166
-779,372,2,1,0,1,28.322166
-1948,-420,3,1,0,4,47.830914
621,-640,4,1,0,7,43.801399
1670,382,1,0,0,0,731.869507
-935,44,2,0,0,0,905.634888
-333,-28,3,0,0,0,1202.589844
117,-1296,4,0,0,0,810.830017
1845,1341,1,0,0,1,28.322166
-1333,368,2,0,0,0,793.349976
-395,-374,3,1,0,4,47.830914
72,-1293,4,0,0,0,812.217957
1649,1755,1,1,0,1,28.322166
-78,1627,2,0,0,0,746.336182
-1379,-608,3,1,0,4,47.830914
1295,-347,4,1,0,7,43.801399
1516,1162,1,0,0,1,28.322166
-285,234,2,1,0,1,28.322166
-1765,-140,3,0,0,4,47.830914
521,-788,4,0,0,0,902.992920
418,190,1,1,0,1,28.322166
-1390,670,2,1,0,1,28.322166
-1340,-483,3,1,0,4,47.830914
675,-710,4,1,0,7,43.801399
187,275,1,0,0,0,1203.990234
-125,469,2,1,0,1,28.322166
-1521,-468,3,0,0,0,753.018799
1444,-301,4,0,0,0,774.812561
94,1326,1,1,0,1,28.322166
-508,481,2,0,0,0,989.526001
-854,-701,3,0,0,0,857.895447
20,-1016,4,0,0,0,881.974182
308,1510,1,0,0,0,762.233826
-1754,1875,2,0,0,1,28.322166
-1868,-1320,3,1,0,4,47.830914
647,-983,4,0,0,0,839.740845
1707,1921,1,1,0,1,28.322166
-1351,1851,2,1,0,1,28.322166
-1061,-1222,3,0,0,0,748.197815
77,-85,4,0,0,0,1511.130005
737,1849,1,0,0,1,28.322166
-1845,1493,2,1,0,1,28.322166
-1769,-1916,3,0,0,4,47.830914
1905,-1625,4,1,0,7,43.801399
72,1630,1,1,0,1,28.322166
-699,761,2,0,0,0,877.167358
-719,-829,3,0,0,0,859.855286
936,-1037,4,1,0,7,43.801399
154,1921,1,0,0,1,28.322166
-265,1763,2,0,0,1,28.322166
-384,-505,3,0,0,0,1017.715881
501,-969,4,0,0,0,861.567200
648,237,1,0,0,0,993.512329
-159,26,2,1,0,4,47.830914
-464,-400,3,1,0,4,47.830914
437,-1067,4,0,0,0,845.618042
932,1416,1,1,0,1,28.322166
-1198,1285,2,1,0,1,28.322166
-974,-196,3,0,0,0,888.470276
763,-602,4,0,0,0,894.809448
1715,766,1,0,0,1,28.322166
-1259,604,2,0,0,0,790.553467
-274,-1582,3,1,0,4,47.830914
1863,-1041,4,0,0,7,43.801399
891,954,1,1,0,1,28.322166
-1115,678,2,0,0,0,810.016907
-1405,-139,3,0,0,0,787.387695
1864,-257,4,1,0,7,43.801399
196,1981,1,0,0,1,28.322166
-878,991,2,0,0,0,805.852844
-182,-291,3,1,0,4,47.830914
1221,-1744,4,0,0,7,43.801399
1412,1613,1,1,0,1,28.322166
-1915,1452,2,0,0,1,28.322166
-1003,-132,3,0,0,0,883.265442
572,-480,4,1,0,7,43.801399
1319,916,1,1,0,1,28.322166
-356,507,2,0,0,0,1024.572388
-179,-1127,3,0,0,0,848.601501
1021,-669,4,1,0,7,43.801399
104,1205,1,1,0,1,28.322166
-1793,1965,2,0,0,1,28.322166
-1,-734,3,0,0,0,975.686523
1653,-1146,4,0,0,7,43.801399
634,646,1,0,0,0,915.302612
-1840,280,2,0,0,1,28.322166
-1867,-637,3,1,0,4,47.830914
229,-1604,4,0,0,0,747.855835
1816,1829,1,1,0,1,28.322166
-842,542,2,0,0,0,886.207825
-508,-1852,3,0,0,4,47.830914
582,-823,4,1,0,7,43.801399
1404,787,1,1,0,1,28.322166
-490,91,2,1,0,1,28.322166
-1084,-828,3,1,0,4,47.830914
1055,-468,4,1,0,7,43.801399
1147,92,1,1,0,7,43.801399
-913,1838,2,1,0,1,28.322166
-1466,-763,3,1,0,4,47.830914
477,-1586,4,0,0,0,741.566406
177,1636,1,0,0,0,743.413574
-401,290,2,0,0,0,1089.339233
-1104,-700,3,0,0,0,809.519226
77,-1511,4,0,0,0,767.523071
959,1796,1,0,0,1,28.322166
-329,1858,2,1,0,1,28.322166
-322,-1828,3,0,0,4,47.830914
810,-1990,4,0,0,7,43.801399
1335,1306,1,0,0,1,28.322166
-1625,507,2,0,0,0,733.695984
-1226,-605,3,0,0,0,796.633972
839,-932,4,0,0,0,821.466736
1319,1883,1,0,0,1,28.322166
-76,1639,2,1,0,1,28.322166
-1601,-1383,3,1,0,4,47.830914
1989,-1160,4,0,0,7,43.801399
1171,1798,1,0,0,1,28.322166
-1142,1860,2,0,0,1,28.322166
-913,-967,3,1,0,4,47.830914
703,-374,4,0,0,0,952.211975
1358,788,1,0,0,0,756.887085
-1856,1857,2,0,0,1,28.322166
-1907,-204,3,0,0,4,47.830914
974,-1792,4,0,0,7,43.801399
654,744,1,0,0,0,889.324585
-488,1610,2,0,0,0,737.072144
-1150,-480,3,0,0,0,823.274353
833,-785,4,1,0,7,43.801399
15,704,1,0,0,0,987.648926
-232,453,2,0,0,0,1081.250000
-1486,-160,3,0,0,0,771.031128
878,-817,4,1,0,7,43.801399
453,811,1,1,0,1,28.322166
-761,241,2,1,0,1,28.322166
-517,-667,3,0,0,0,935.480042
1593,-167,4,0,0,0,751.157043
1290,98,1,0,0,0,812.503540
-220,816,2,0,0,0,935.060242
-1384,-443,3,0,0,0,779.102417
813,-1921,4,1,0,7,43.801399
1095,565,1,1,0,1,28.322166
-215,171,2,0,0,0,1259.116699
-72,-369,3,0,0,0,1168.604980
908,-1698,4,0,0,7,43.801399
811,1117,1,0,0,0,793.869446
-1564,1357,2,0,0,1,28.322166
-1097,-1241,3,0,0,0,741.536926
1262,-346,4,0,0,0,809.221497
69,198,1,0,0,0,1337.054077
-93,434,2,0,0,0,1120.720947
-984,-1989,3,0,0,4,47.830914
453,-248,4,1,0,4,47.830914
923,558,1,0,0,0,864.828857
-1836,1266,2,1,0,1,28.322166
-1794,-551,3,0,0,4,47.830914
1551,-119,4,0,0,0,759.551758
274,1870,1,0,0,1,28.322166
-608,1861,2,0,0,1,28.322166
-194,-910,3,0,0,0,907.358643
39,-1949,4,0,0,4,47.830914
1260,1520,1,0,0,1,28.322166
-1000,1940,2,1,0,1,28.322166
-222,-298,3,0,0,0,1171.967163
1018,-1530,4,0,0,7,43.801399
105,1693,1,0,0,0,734.709045
-1246,1345,2,1,0,1,28.322166
-1380,-330,3,0,0,0,785.956787
1422,-862,4,0,0,0,740.410217
688,398,1,0,0,0,952.744019
-1032,97,2,0,0,0,876.265381
-480,-1272,3,0,0,0,798.235657
1856,-1353,4,0,0,7,43.801399
293,1052,1,0,0,0,861.254211
-1029,690,2,0,0,0,824.946838
-763,-1003,3,0,0,0,820.044434
270,-93,4,0,0,0,1247.934570
878,1745,1,0,0,1,28.322166
-278,441,2,1,0,1,28.322166
-1842,-148,3,0,0,4,47.830914
62,-1491,4,0,0,0,771.473572
560,1596,1,1,0,1,28.322166
-1823,649,2,1,0,1,28.322166
-468,-1170,3,1,0,4,47.830914
1652,-1117,4,1,0,7,43.801399
257,1721,1,0,0,0,727.394470
-1555,947,2,1,0,1,28.322166
-600,-1586,3,0,0,0,734.802490
600,-1765,4,0,0,7,43.801399
301,548,1,0,0,0,1021.922546
-643,603,2,0,0,0,922.921448
-1704,-470,3,0,0,4,47.830914
1079,-1922,4,0,0,7,43.801399
1909,278,1,0,0,7,43.801399
-299,41,2,0,0,0,1231.987671
-1950,-1996,3,0,0,4,47.830914
1655,-1353,4,0,0,7,43.801399
1241,856,1,1,0,1,28.322166
-1071,594,2,1,0,1,28.322166
-997,-1692,3,1,0,4,47.830914
1272,-1420,4,1,0,7,43.801399
1795,384,1,1,0,7,43.801399
-1270,171,2,0,0,0,815.240601
-242,-1590,3,1,0,4,47.830914
1949,-585,4,0,0,7,43.801399
1666,61,1,1,0,7,43.801399
-1530,174,2,0,0,0,762.463013
-941,-228,3,0,0,0,895.897034
1584,-918,4,0,0,7,43.801399
1362,1114,1,0,0,0,724.204285
-1219,113,2,0,0,0,828.379944
-1559,-418,3,1,0,4,47.830914
1718,-1343,4,0,0,7,43.801399
153,1899,1,0,0,1,28.322166
-1528,1113,2,1,0,1,28.322166
-1942,-1303,3,0,0,4,47.830914
462,-1254,4,1,0,7,43.801399
1657,1277,1,0,0,1,28.322166
-1943,614,2,1,0,1,28.322166
-972,-1506,3,0,0,4,47.830914
815,-532,4,1,0,7,43.801399
1127,710,1,0,0,0,804.120056
-1373,1757,2,1,0,1,28.322166
-1053,-284,3,1,0,4,47.830914
1430,-1905,4,0,0,7,43.801399
1818,1816,1,1,0,1,28.322166
-1596,1248,2,0,0,1,28.322166
-1076,-1696,3,1,0,4,47.830914
1841,-816,4,0,0,7,43.801399
972,1888,1,1,0,1,28.322166
-1639,1395,2,0,0,1,28.322166
-1913,-180,3,0,0,4,47.830914
1631,-610,4,0,0,0,727.187439
810,1850,1,0,0,1,28.322166
-876,682,2,0,0,0,856.513000
-411,-570,3,0,0,0,988.237366
143,-81,4,0,0,0,1407.335083
478,1019,1,1,0,1,28.322166
-1903,821,2,0,0,1,28.322166
-1017,-69,3,1,0,4,47.830914
1193,-1965,4,0,0,7,43.801399
1747,1132,1,1,0,1,28.322166
-1643,1199,2,1,0,1,28.322166
-664,-1338,3,0,0,0,771.201904
322,-1950,4,0,0,7,43.801399
800,1370,1,1,0,1,28.322166
-1617,1578,2,0,0,1,28.322166
-912,-381,3,0,0,0,889.963745
1562,-1227,4,0,0,7,43.801399
1709,1819,1,0,0,1,28.322166
-1290,717,2,0,0,0,774.650879
-1182,-100,3,1,0,4,47.830914
1395,-476,4,0,0,0,775.019714
233,1639,1,1,0,1,28.322166
-803,631,2,0,0,0,880.543396
-924,-925,3,0,0,0,809.469971
1514,-1290,4,0,0,7,43.801399
492,923,1,0,0,0,873.668579
-1083,762,2,0,0,0,805.806396
-243,-1319,3,1,0,4,47.830914
735,-667,4,0,0,0,888.759094
1100,688,1,1,0,1,28.322166
-1276,239,2,0,0,0,811.511353
-1533,-1140,3,0,0,4,47.830914
263,-776,4,1,0,4,47.830914
1588,653,1,0,0,0,731.219971
-475,601,2,0,0,0,963.371704
-222,-1558,3,1,0,4,47.830914
667,-1971,4,0,0,7,43.801399
439,428,1,0,0,0,1027.562866
-1164,700,2,0,0,0,798.507019
-651,-1713,3,0,0,4,47.830914
158,-1882,4,0,0,4,47.830914
1062,1074,1,1,0,1,28.322166
-1312,1562,2,0,0,1,28.322166
-1781,-861,3,0,0,4,47.830914
1706,-501,4,1,0,7,43.801399
1733,1674,1,1,0,1,28.322166
-1222,310,2,1,0,1,28.322166
-734,-1104,3,0,0,0,805.475647
965,-1012,4,1,0,7,43.801399
1634,845,1,0,0,1,28.322166
-1313,913,2,0,0,0,751.605164
-1690,-1637,3,0,0,4,47.830914
1204,-471,4,0,0,0,812.696716
966,1075,1,1,0,1,28.322166
-1164,967,2,1,0,1,28.322166
-1062,-584,3,1,0,4,47.830914
1088,-55,4,0,0,0,861.953674
883,191,1,0,0,0,915.848816
-516,1982,2,0,0,1,28.322166
-551,-319,3,0,0,0,1016.687561
1344,-1475,4,0,0,7,43.801399
1238,1173,1,1,0,1,28.322166
-357,928,2,0,0,0,888.245728
-158,-1835,3,0,0,4,47.830914
1046,-485,4,0,0,0,845.630676
1703,1233,1,0,0,1,28.322166
-1876,1384,2,1,0,1,28.322166
-1053,-90,3,1,0,4,47.830914
498,-1653,4,0,0,0,729.659790
666,690,1,1,0,1,28.322166
-1519,717,2,0,0,0,737.518250
-180,-1639,3,1,0,4,47.830914
1491,-1159,4,1,0,7,43.801399
859,1605,1,0,0,1,28.322166
-1955,645,2,0,0,1,28.322166
-1073,-1914,3,1,0,4,47.830914
769,-1736,4,1,0,7,43.801399
329,1962,1,1,0,1,28.322166
-409,640,2,0,0,0,965.834595
-243,-138,3,0,0,0,1254.180908
1161,-1459,4,1,0,7,43.801399
425,116,1,1,0,4,47.830914
-1999,923,2,0,0,1,28.322166
-35,-633,3,0,0,0,1017.919006
925,-167,4,0,0,0,904.431519
1744,388,1,1,0,7,43.801399
-654,1410,2,1,0,1,28.322166
-1475,-889,3,0,0,0,730.357361
522,-1941,4,1,0,7,43.801399
1783,1030,1,0,0,1,28.322166
-227,511,2,0,0,0,1054.125366
-1479,-590,3,1,0,4,47.830914
1079,-1298,4,0,0,0,736.122681
1102,118,1,0,0,0,857.000854
-1403,770,2,1,0,1,28.322166
-1158,-487,3,0,0,0,820.956787
1084,-1546,4,0,0,7,43.801399
1259,1864,1,1,0,1,28.322166
-209,1972,2,0,0,1,28.322166
-1793,-893,3,0,0,4,47.830914
5,-1475,4,1,0,4,47.830914
126,475,1,0,0,0,1091.355103
-1520,1065,2,1,0,1,28.322166
-315,-1610,3,0,0,0,744.290222
90,-174,4,0,0,0,1356.667480
1160,106,1,1,0,7,43.801399
-233,613,2,1,0,1,28.322166
-1474,-1214,3,0,0,4,47.830914
1959,-1478,4,1,0,7,43.801399
281,408,1,0,0,0,1089.031006
-186,323,2,0,0,0,1171.095581
-964,-1420,3,0,0,0,731.339539
79,-661,4,1,0,4,47.830914
1082,393,1,1,0,1,28.322166
-774,953,2,0,0,0,827.561401
-1644,-631,3,0,0,4,47.830914
1984,-818,4,0,0,7,43.801399
833,1482,1,0,0,0,734.065735
-698,1766,2,1,0,1,28.322166
-109,-801,3,1,0,4,47.830914
1453,-1278,4,0,0,7,43.801399
1625,992,1,0,0,1,28.322166
-1535,799,2,0,0,0,728.977844
-639,-1832,3,1,0,4,47.830914
734,-939,4,0,0,0,836.092346
714,1978,1,0,0,1,28.322166
-1901,694,2,0,0,1,28.322166
-574,-722,3,1,0,4,47.830914
1596,-1002,4,0,0,7,43.801399
550,560,1,0,0,0,956.357605
-1214,632,2,0,0,0,796.317688
-699,-198,3,0,0,0,978.646179
1812,-1305,4,1,0,7,43.801399
1740,1954,1,0,0,1,28.322166
-1327,1169,2,0,0,1,28.322166
-249,-1815,3,1,0,4,47.830914
1783,-1301,4,1,0,7,43.801399
937,845,1,1,0,1,28.322166
-1884,1259,2,0,0,1,28.322166
-488,-455,3,1,0,4,47.830914
1101,-599,4,0,0,0,821.607971
1150,776,1,0,0,0,792.423950
-1532,621,2,0,0,0,742.103821
-798,-1905,3,0,0,4,47.830914
1411,-457,4,0,0,0,773.235229
700,744,1,0,0,0,880.465271
-1009,506,2,1,0,1,28.322166
-1318,-1425,3,1,0,4,47.830914
537,-709,4,0,0,0,920.351318
43,176,1,1,0,1,28.322166
-1992,256,2,0,0,1,28.322166
-415,-1416,3,0,0,0,774.710693
332,-928,4,0,0,0,890.776062
1409,651,1,0,0,0,760.186646
-252,587,2,0,0,0,1015.726868
-830,-241,3,0,0,0,928.607300
1190,-1759,4,1,0,7,43.801399
684,339,1,1,0,1,28.322166
-1806,588,2,0,0,1,28.322166
-1784,-1340,3,1,0,4,47.830914
797,-1060,4,0,0,0,805.374634
1268,779,1,0,0,0,772.266113
-1207,758,2,0,0,0,784.670105
-470,-1316,3,0,0,0,790.342957
1122,-354,4,1,0,7,43.801399
1024,1089,1,1,0,1,28.322166
-484,1807,2,1,0,1,28.322166
-1476,-1642,3,0,0,4,47.830914
122,-944,4,0,0,0,900.809448
854,323,1,0,0,0,912.797974
-1339,104,2,0,0,0,801.749329
-686,-1762,3,0,0,4,47.830914
756,-1204,4,0,0,0,785.397583
1467,1231,1,1,0,1,28.322166
-184,629,2,0,0,0,1008.351440
-112,-880,3,0,0,0,921.100769
944,-1461,4,0,0,0,727.500183
1413,1101,1,1,0,1,28.322166
-549,1544,2,0,0,0,744.609741
-1618,-1333,3,0,0,4,47.830914
485,-160,4,0,0,0,1080.255737
136,1999,1,0,0,1,28.322166
-535,1221,2,1,0,1,28.322166
-1272,-530,3,1,0,4,47.830914
723,-1073,4,1,0,7,43.801399
1139,1763,1,0,0,1,28.322166
-1984,1978,2,0,0,1,28.322166
-1915,-1723,3,0,0,4,47.830914
1352,-113,4,0,0,0,798.836243
652,1183,1,0,0,0,800.097229
-732,1219,2,1,0,1,28.322166
-853,-1451,3,0,0,0,736.932068
1261,-710,4,0,0,0,780.296570
573,900,1,1,0,1,28.322166
-533,398,2,0,0,0,1004.054810
-262,-1071,3,0,0,0,858.489685
1950,-942,4,0,0,7,43.801399
1811,248,1,0,0,7,43.801399
-97,936,2,1,0,1,28.322166
-1167,-946,3,1,0,4,47.830914
1629,-1387,4,0,0,7,43.801399
463,1710,1,1,0,1,28.322166
-849,176,2,0,0,0,927.685486
-1724,-855,3,0,0,4,47.830914
1398,-862,4,0,0,0,743.964417
5,852,1,0,0,0,932.725037
-978,34,2,1,0,1,28.322166
-1544,-1889,3,0,0,4,47.830914
1097,-1763,4,0,0,7,43.801399
1204,47,1,0,0,0,832.952759
-485,443,2,0,0,0,1007.689575
-1438,-1090,3,0,0,4,47.830914
614,-1385,4,1,0,7,43.801399
111,83,1,1,0,4,47.830914
-1464,306,2,0,0,0,770.829834
-1482,-1996,3,0,0,4,47.830914
1514,-1807,4,0,0,7,43.801399
1240,732,1,0,0,0,781.729919
-1691,502,2,0,0,1,28.322166
-1742,-1438,3,1,0,4,47.830914
1664,-1017,4,1,0,7,43.801399
1746,1623,1,0,0,1,28.322166
-1939,1728,2,1,0,1,28.322166
-1526,-142,3,1,0,4,47.830914
1353,-1226,4,1,0,7,43.801399
1794,1406,1,0,0,1,28.322166
-109,555,2,0,0,0,1050.817627
-515,-913,3,0,0,0,873.038452
1471,-371,4,1,0,7,43.801399
85,836,1,1,0,1,28.322166
-1794,1135,2,0,0,1,28.322166
-665,-948,3,1,0,4,47.830914
435,-1970,4,0,0,7,43.801399
609,733,1,1,0,1,28.322166
-1548,1085,2,1,0,1,28.322166
-387,-14,3,0,0,0,1160.067139
1610,-705,4,1,0,7,43.801399
271,657,1,0,0,0,984.985596
-973,546,2,1,0,1,28.322166
-160,-1227,3,0,0,0,825.304504
1081,-1900,4,0,0,7,43.801399
1834,1893,1,0,0,1,28.322166
-1518,478,2,1,0,1,28.322166
-221,-15,3,0,0,0,1321.218750
589,-121,4,1,0,4,47.830914
952,1233,1,0,0,0,759.147095
-1339,1499,2,0,0,1,28.322166
-938,-1554,3,1,0,4,47.830914
180,-207,4,0,0,0,1259.531982
848,992,1,0,0,0,809.995178
-497,366,2,0,0,0,1025.635376
-319,-1108,3,0,0,0,845.621582
1009,-1582,4,0,0,7,43.801399
1158,1489,1,0,0,1,28.322166
-1042,484,2,1,0,1,28.322166
-67,-379,3,0,0,0,1161.842651
1142,-96,4,0,0,0,847.368408
1212,103,1,0,0,0,830.231995
-1486,1054,2,0,0,1,28.322166
-961,-1705,3,0,0,4,47.830914
384,-1617,4,1,0,7,43.801399
1280,897,1,0,0,0,758.179443
-1839,1711,2,0,0,1,28.322166
-1128,-871,3,0,0,0,784.697632
1195,-1956,4,0,0,7,43.801399
306,849,1,0,0,0,916.154968
-1534,1292,2,1,0,1,28.322166
-221,-1003,3,0,0,0,878.913147
1803,-315,4,0,0,7,43.801399
361,636,1,0,0,0,976.744202
-1651,1330,2,1,0,1,28.322166
-1849,-1868,3,0,0,4,47.830914
607,-736,4,1,0,7,43.801399
1180,975,1,0,0,0,764.177246
-1583,712,2,0,0,0,728.108826
-177,-898,3,0,0,0,912.093628
901,-1713,4,1,0,7,43.801399
204,1259,1,0,0,0,816.599121
-28,535,2,0,0,0,1066.462646
-583,-908,3,0,0,0,864.697876
620,-1173,4,0,0,0,805.250427
1145,1710,1,0,0,1,28.322166
-1080,171,2,0,0,0,860.882080
-1758,-493,3,0,0,4,47.830914
1863,-629,4,0,0,7,43.801399
13,342,1,0,0,0,1195.704712
-843,92,2,0,0,0,934.083923
-1597,-1870,3,1,0,4,47.830914
379,-566,4,0,0,0,997.215454
1885,371,1,0,0,7,43.801399
-676,1431,2,1,0,1,28.322166
-258,-1441,3,0,0,0,776.986694
189,-1077,4,0,0,0,860.880859
758,1272,1,0,0,0,773.707458
-1198,-381,3,0,0,0,820.753479
1210,-528,4,1,0,7,43.801399
1197,177,1,0,0,0,831.738281
-1873,-958,3,0,0,4,47.830914
1566,-1517,4,1,0,7,43.801399
953,1396,1,0,0,0,735.721680
-1067,-340,3,1,0,4,47.830914
352,-305,4,1,0,4,47.830914
257,1900,1,0,0,1,28.322166
-1831,-1860,3,0,0,4,47.830914
1041,-721,4,1,0,7,43.801399
195,265,1,0,0,0,1207.079956
-1103,-1887,3,0,0,4,47.830914
362,-1015,4,0,0,0,865.079651
1041,1498,1,0,0,1,28.322166
-1848,-867,3,1,0,4,47.830914
1066,-404,4,1,0,7,43.801399
1694,1440,1,0,0,1,28.322166
-222,-657,3,0,0,0,992.048645
1841,-69,4,0,0,7,43.801399
897,460,1,0,0,0,884.285278
-1192,-1286,3,1,0,4,47.830914
1750,-399,4,0,0,7,43.801399
1549,927,1,1,0,1,28.322166
-446,-1784,3,1,0,4,47.830914
1870,-616,4,0,0,7,43.801399
871,930,1,0,0,0,816.878235
-391,-685,3,1,0,4,47.830914
1529,-1620,4,0,0,7,43.801399
40,1898,1,0,0,1,28.322166
-1292,-549,3,0,0,0,789.031616
1603,-25,4,0,0,0,750.894653
1677,532,1,0,0,0,724.236023
-502,-316,3,1,0,4,47.830914
286,-1071,4,0,0,0,856.941406
1644,470,1,0,0,0,732.416992
-41,-1160,3,0,0,0,843.702209
1440,-761,4,0,0,0,746.362671
393,1934,1,1,0,1,28.322166
-1729,-645,3,1,0,4,47.830914
1261,-1071,4,0,0,0,741.867981
942,1302,1,0,0,0,750.207825
-1064,-1442,3,0,0,4,47.830914
156,-1739,4,1,0,4,47.830914
1163,293,1,0,0,0,834.287048
-1786,-1982,3,0,0,4,47.830914
978,-1644,4,0,0,7,43.801399
378,1046,1,0,0,0,855.988708
-1804,-1900,3,0,0,4,47.830914
730,-41,4,0,0,0,976.807983
693,578,1,1,0,1,28.322166
-98,-1732,3,1,0,4,47.830914
1997,-1919,4,0,0,7,43.801399
267,167,1,0,0,0,1219.704712
-1968,-1162,3,0,0,4,47.830914
803,-114,4,0,0,0,946.920898
1783,88,1,0,0,7,43.801399
-1740,-1581,3,0,0,4,47.830914
1442,-1100,4,1,0,7,43.801399
367,969,1,0,0,0,876.370300
-7,-2000,3,1,0,4,47.830914
1804,-1050,4,0,0,7,43.801399
471,255,1,0,0,0,1066.534302
-1902,-1050,3,0,0,4,47.830914
1686,-435,4,0,0,0,727.208374
1744,1564,1,1,0,1,28.322166
-677,-617,3,0,0,0,911.872803
1232,-1379,4,0,0,7,43.801399
1404,108,1,1,0,7,43.801399
-190,-1758,3,0,0,4,47.830914
176,-1276,4,1,0,4,47.830914
1196,1373,1,1,0,1,28.322166
-419,-1948,3,1,0,4,47.830914
1562,-837,4,1,0,7,43.801399
1082,1543,1,0,0,1,28.322166
-1857,-695,3,0,0,4,47.830914
507,-516,4,0,0,0,979.880066
1732,1514,1,1,0,1,28.322166
-607,-561,3,1,0,4,47.830914
1333,-302,4,0,0,0,796.711487
1842,1803,1,0,0,1,28.322166
-1737,-1854,3,0,0,4,47.830914
1669,-658,4,0,0,7,43.801399
1346,-1448,4,0,0,7,43.801399
1839,-1820,4,0,0,7,43.801399
718,-900,4,1,0,7,43.801399
1104,-90,4,0,0,0,857.166382
1907,-170,4,0,0,7,43.801399
368,-235,4,0,0,0,1125.450317
1201,-503,4,1,0,7,43.801399
581,-1084,4,1,0,7,43.801399
1603,-1931,4,0,0,7,43.801399
1528,-1884,4,1,0,7,43.801399
626,-1770,4,0,0,7,43.801399
960,-1589,4,1,0,7,43.801399
