each times' max average throughput
436.504700,435.980927,435.164825,435.966766,435.476501,435.371429,435.295776,436.780334,436.363708,435.695465,
avg. throughput in all test times
435.860016
avg. BS TX power in all test times
MBS area 1,MBS area 2,MBS area 3,MBS area 4,CBSD 1,CBSD 2,CBSD 3,CBSD 4,CBSD 5,CBSD 6,CBSD 7,CBSD 8,CBSD 9,CBSD 10,CBSD 11,CBSD 12,CBSD 13,CBSD 14,CBSD 15,CBSD 16,CBSD 17,CBSD 18,CBSD 19,CBSD 20,CBSD 21,CBSD 22,CBSD 23,CBSD 24,CBSD 25,
9.500,9.500,9.750,8.750,0.300,0.175,0.050,0.562,0.050,0.075,0.138,0.000,0.237,0.363,0.488,0.237,0.000,0.000,0.262,0.050,0.175,0.188,0.175,0.050,0.062,0.138,0.000,0.000,0.000,
avg. mbs all power,avg. cbsd enable number,avg. mbs area all power,avg. cbsd all power
75.000,5.000,37.500,3.775
avg. max avg. throughput generation number in all test times
8.300000
avg. number of relay UE
575



the max average throughput times

BS TX power
MBS area 1,MBS area 2,MBS area 3,MBS area 4,CBSD 1,CBSD 2,CBSD 3,CBSD 4,CBSD 5,CBSD 6,CBSD 7,CBSD 8,CBSD 9,CBSD 10,CBSD 11,CBSD 12,CBSD 13,CBSD 14,CBSD 15,CBSD 16,CBSD 17,CBSD 18,CBSD 19,CBSD 20,CBSD 21,CBSD 22,CBSD 23,CBSD 24,CBSD 25,
10.000,10.000,10.000,7.500,0.000,0.000,0.000,0.875,0.000,0.000,0.000,0.000,0.750,0.000,0.750,0.000,0.000,0.000,0.000,0.000,1.000,0.000,0.000,0.000,0.000,0.625,0.000,0.000,0.000,
max average throughput
435.695465

x,y,area,be blocked (1 : NLOS / 0 : LOS),be blocked number (>=1 : CBSD(x) / 0 : no),connect bs number (>=1 : CBSD / 0 : MBS),throughput (unit : M bps)
373,1760,1,0,0,0,717.836243
-402,829,2,0,0,0,910.195984
-1883,-68,3,1,0,9,71.115486
1324,-1809,4,1,0,11,82.913170
911,986,1,1,0,17,58.697643
-876,592,2,1,0,9,71.115486
-1488,-111,3,1,0,9,71.115486
1683,-1325,4,1,0,11,82.913170
1554,53,1,0,0,0,759.672485
-72,1090,2,0,0,0,861.165955
-1174,-727,3,1,0,4,103.294426
1621,-1066,4,0,0,0,655.107239
272,1780,1,0,0,0,717.586060
-250,551,2,0,0,0,1031.372559
-874,-698,3,0,0,0,854.360168
1461,-99,4,0,0,0,735.617859
893,977,1,0,0,0,805.933899
-1603,45,2,0,0,0,750.816528
-1174,-1071,3,1,0,4,103.294426
1186,-1567,4,0,0,0,651.435364
269,792,1,0,0,0,938.041748
-1045,1050,2,1,0,9,71.115486
-1680,-900,3,1,0,9,71.115486
315,-397,4,0,0,0,1041.001953
1181,1430,1,1,0,17,58.697643
-933,1061,2,1,0,9,71.115486
-446,-1730,3,1,0,4,103.294426
830,-1872,4,1,0,11,82.913170
1030,240,1,1,0,22,124.495636
-1262,1679,2,1,0,17,58.697643
-220,-251,3,1,0,0,263.690247
620,-1204,4,0,0,0,758.041748
1101,1501,1,0,0,0,708.066345
-175,1011,2,0,0,0,879.200623
-1775,-451,3,0,0,0,712.736572
539,-1809,4,1,0,11,82.913170
257,933,1,1,0,17,58.697643
-600,1200,2,0,0,0,802.047485
-140,-346,3,1,0,0,224.259811
235,-1007,4,1,0,11,82.913170
838,724,1,0,0,0,857.224548
-1729,1273,2,1,0,9,71.115486
-1838,-1322,3,1,0,4,103.294426
1023,-1810,4,0,0,0,635.370667
986,390,1,1,0,22,124.495636
-227,207,2,1,0,0,294.375732
-1382,-1204,3,0,0,0,712.501282
1839,-1444,4,1,0,11,82.913170
1104,1603,1,0,0,0,695.299683
-1784,1447,2,1,0,9,71.115486
-1799,-590,3,1,0,9,71.115486
1992,-412,4,0,0,0,641.599365
1363,1997,1,1,0,17,58.697643
-1886,770,2,1,0,9,71.115486
-1172,-759,3,0,0,0,790.570618
1534,-918,4,0,0,0,678.479980
806,147,1,0,0,0,944.007141
-956,1382,2,0,0,0,737.395813
-625,-1360,3,0,0,0,770.618469
1548,-1131,4,0,0,0,658.504639
1493,854,1,1,0,22,124.495636
-1460,1337,2,0,0,0,690.444885
-1756,-1523,3,0,0,0,644.577332
645,-791,4,1,0,11,82.913170
588,1461,1,0,0,0,756.007507
-1835,882,2,1,0,9,71.115486
-343,-1790,3,1,0,4,103.294426
412,-1943,4,0,0,0,648.405151
1971,1499,1,1,0,17,58.697643
-1240,1402,2,1,0,17,58.697643
-1541,-1258,3,1,0,4,103.294426
763,-617,4,0,0,0,850.644653
1829,417,1,0,0,0,705.854919
-1328,1130,2,0,0,0,726.799438
-1655,-1724,3,0,0,0,636.669983
358,-1302,4,0,0,0,758.877319
677,1408,1,1,0,17,58.697643
-225,388,2,0,0,0,1117.704712
-507,-1749,3,1,0,4,103.294426
1068,-868,4,1,0,11,82.913170
889,105,1,1,0,22,124.495636
-610,74,2,1,0,9,71.115486
-408,-1960,3,1,0,4,103.294426
1110,-1604,4,1,0,11,82.913170
672,1927,1,0,0,0,681.746704
-678,1443,2,0,0,0,752.483398
-1887,-1516,3,1,0,4,103.294426
1594,-1903,4,0,0,0,584.964539
1445,955,1,0,0,0,728.718506
-871,1486,2,0,0,0,730.314331
-134,-226,3,1,0,0,354.856079
1594,-1999,4,1,0,11,82.913170
1252,1143,1,1,0,17,58.697643
-915,1825,2,1,0,17,58.697643
-627,-159,3,0,0,0,1012.121033
1655,-1239,4,1,0,11,82.913170
1745,389,1,0,0,0,719.635193
-342,335,2,1,0,9,71.115486
-1451,-1065,3,0,0,0,717.708130
1810,-1983,4,0,0,0,562.766785
1050,848,1,0,0,0,800.332764
-1835,235,2,1,0,9,71.115486
-1538,-909,3,1,0,4,103.294426
340,-1438,4,0,0,0,733.025513
1101,1936,1,1,0,17,58.697643
-20,658,2,1,0,17,58.697643
-1773,-969,3,1,0,9,71.115486
802,-334,4,1,0,11,82.913170
394,347,1,1,0,17,58.697643
-808,46,2,0,0,0,947.540955
-1788,-929,3,1,0,9,71.115486
899,-1557,4,1,0,11,82.913170
327,961,1,1,0,17,58.697643
-1864,1831,2,1,0,17,58.697643
-1670,-1635,3,1,0,4,103.294426
527,-297,4,0,0,0,989.970581
558,420,1,0,0,0,990.015869
-1009,47,2,1,0,9,71.115486
-330,-619,3,0,0,0,988.751770
196,-826,4,0,0,0,892.338623
321,847,1,1,0,17,58.697643
-1310,58,2,1,0,9,71.115486
-530,-922,3,1,0,4,103.294426
834,-1643,4,0,0,0,669.841003
1931,1942,1,0,0,0,597.904541
-801,1125,2,1,0,17,58.697643
-367,-1459,3,0,0,0,769.142700
207,-1717,4,0,0,0,687.957458
994,1170,1,1,0,17,58.697643
-1817,1517,2,0,0,0,639.401855
-1106,-1250,3,0,0,0,739.345215
1942,-596,4,1,0,22,124.495636
167,1120,1,0,0,0,850.815002
-929,348,2,0,0,0,888.900757
-928,-1142,3,0,0,0,775.500000
1287,-518,4,1,0,11,82.913170
1960,951,1,1,0,22,124.495636
-1740,960,2,0,0,0,689.352905
-1124,-91,3,0,0,0,852.013062
1980,-4,4,1,0,22,124.495636
1493,465,1,0,0,0,758.046570
-653,347,2,0,0,0,973.546448
-438,-1566,3,1,0,4,103.294426
833,-275,4,0,0,0,882.902283
9,1345,1,0,0,0,801.322144
-496,791,2,1,0,17,58.697643
-1776,-1409,3,1,0,4,103.294426
1907,-177,4,1,0,22,124.495636
1428,844,1,1,0,22,124.495636
-411,1332,2,0,0,0,791.051941
-1057,-1653,3,1,0,4,103.294426
1443,-1346,4,0,0,0,650.262817
1396,1597,1,1,0,17,58.697643
-578,1804,2,1,0,17,58.697643
-1428,-454,3,1,0,9,71.115486
518,-1486,4,0,0,0,714.974976
876,438,1,0,0,0,892.594055
-1013,1711,2,1,0,17,58.697643
-807,-1391,3,1,0,4,103.294426
1589,-331,4,0,0,0,706.119080
1978,580,1,0,0,0,678.892578
-3,1107,2,1,0,17,58.697643
-1136,-273,3,1,0,9,71.115486
1114,-34,4,0,0,0,814.015015
895,818,1,0,0,0,831.149109
-1062,389,2,0,0,0,851.166077
-1059,-223,3,1,0,9,71.115486
1881,-1176,4,1,0,11,82.913170
1396,667,1,0,0,0,761.105713
-1020,821,2,1,0,9,71.115486
-1084,-35,3,0,0,0,863.231140
671,-370,4,0,0,0,921.851196
516,1701,1,1,0,17,58.697643
-1489,411,2,1,0,9,71.115486
-1953,-960,3,1,0,9,71.115486
589,-642,4,1,0,11,82.913170
1286,831,1,0,0,0,764.095825
-1557,1176,2,0,0,0,694.591309
-545,-67,3,0,0,0,1059.354248
58,-850,4,0,0,0,891.309204
1360,397,1,1,0,22,124.495636
-451,771,2,1,0,17,58.697643
-1552,-273,3,0,0,0,755.835815
245,-1301,4,0,0,0,764.557251
236,1171,1,0,0,0,835.439697
-274,828,2,1,0,17,58.697643
-1669,-1704,3,1,0,4,103.294426
490,-1267,4,1,0,11,82.913170
1519,495,1,0,0,0,751.894531
-1432,1097,2,0,0,0,717.072388
-632,-401,3,0,0,0,970.056091
604,-43,4,0,0,0,989.684509
413,585,1,0,0,0,982.804077
-1549,933,2,0,0,0,716.375977
-1244,-540,3,0,0,0,798.956421
830,-1208,4,1,0,11,82.913170
323,755,1,0,0,0,943.341553
-33,1948,2,0,0,0,695.021667
-1092,-1939,3,0,0,0,657.010437
104,-1361,4,1,0,11,82.913170
1046,638,1,1,0,22,124.495636
-1362,519,2,1,0,9,71.115486
-433,-1533,3,0,0,0,752.729370
1504,-31,4,1,0,22,124.495636
71,839,1,0,0,0,936.131897
-668,271,2,1,0,9,71.115486
-131,-87,3,0,0,0,1420.057495
376,-949,4,1,0,11,82.913170
1417,1814,1,0,0,0,647.365112
-1847,1085,2,0,0,0,667.898865
-1661,-338,3,0,0,0,734.913879
610,-1692,4,1,0,11,82.913170
531,726,1,0,0,0,917.113098
-1528,533,2,0,0,0,748.205139
-1179,-645,3,0,0,0,801.564026
1921,-914,4,1,0,11,82.913170
667,1570,1,0,0,0,733.097778
-1477,1435,2,1,0,9,71.115486
-221,-683,3,0,0,0,982.093201
51,-1527,4,0,0,0,723.447021
583,1509,1,0,0,0,748.309204
-1791,1344,2,0,0,0,655.239075
-1062,-453,3,0,0,0,845.229614
41,-807,4,1,0,11,82.913170
850,1074,1,0,0,0,796.106384
-24,899,2,0,0,0,917.159363
-1522,-966,3,0,0,0,717.265930
1909,-396,4,0,0,0,653.707153
992,643,1,0,0,0,838.436707
-1693,1120,2,1,0,9,71.115486
-1271,-359,3,0,0,0,806.563354
347,-78,4,0,0,0,1143.126221
107,709,1,0,0,0,982.429138
-1137,1626,2,0,0,0,689.808533
-1478,-395,3,1,0,9,71.115486
426,-130,4,1,0,0,140.463531
449,1328,1,1,0,17,58.697643
-893,1523,2,0,0,0,723.238281
-139,-732,3,1,0,4,103.294426
842,-1133,4,0,0,0,746.138367
1269,621,1,1,0,22,124.495636
-679,391,2,0,0,0,956.867859
-723,-1772,3,1,0,4,103.294426
1717,-117,4,0,0,0,689.358704
1971,68,1,1,0,22,124.495636
-447,837,2,1,0,17,58.697643
-1326,-1980,3,0,0,0,637.483765
1845,-964,4,0,0,0,635.018677
715,1694,1,1,0,17,58.697643
-32,795,2,1,0,17,58.697643
-1226,-1927,3,0,0,0,649.592102
1073,-1053,4,0,0,0,728.076355
1830,1150,1,0,0,0,665.345276
-1771,1437,2,0,0,0,650.003113
-944,-1504,3,0,0,0,721.584778
18,-1787,4,1,0,11,82.913170
233,1715,1,1,0,17,58.697643
-1020,984,2,0,0,0,786.288391
-1677,-1840,3,1,0,4,103.294426
1597,-1741,4,0,0,0,599.009521
1493,1316,1,0,0,0,688.929443
-1363,1264,2,0,0,0,708.469116
-1466,-478,3,1,0,9,71.115486
1146,-1593,4,0,0,0,651.846985
1900,963,1,0,0,0,669.503906
-950,1486,2,1,0,17,58.697643
-8,-1127,3,0,0,0,852.178589
808,-1318,4,0,0,0,720.070679
679,1759,1,0,0,0,704.397827
-1440,919,2,1,0,9,71.115486
-210,-1908,3,1,0,4,103.294426
8,-230,4,0,0,0,1268.692993
1101,1723,1,1,0,17,58.697643
-277,1567,2,0,0,0,753.032898
-1707,-46,3,0,0,0,732.793823
1227,-257,4,0,0,0,780.213013
450,857,1,1,0,17,58.697643
-1983,1653,2,1,0,9,71.115486
-193,-1833,3,0,0,0,710.907288
735,-891,4,0,0,0,803.749390
532,1849,1,1,0,17,58.697643
-671,1930,2,1,0,17,58.697643
-1827,-966,3,1,0,9,71.115486
1123,-643,4,1,0,11,82.913170
1103,1922,1,0,0,0,658.211243
-723,1500,2,1,0,17,58.697643
-943,-1410,3,1,0,4,103.294426
464,-106,4,0,0,0,1059.101440
693,56,1,1,0,17,58.697643
-1938,885,2,0,0,0,669.450439
-890,-1614,3,0,0,0,710.909058
1710,-1447,4,1,0,11,82.913170
1496,1385,1,1,0,17,58.697643
-692,273,2,1,0,9,71.115486
-1177,-1242,3,0,0,0,732.208496
669,-1037,4,0,0,0,784.729614
1947,1877,1,1,0,17,58.697643
-1516,1924,2,0,0,0,629.640686
-1887,-1715,3,0,0,0,618.203247
534,-1975,4,0,0,0,639.956360
275,583,1,1,0,17,58.697643
-40,213,2,0,0,0,1327.519653
-1989,-1010,3,0,0,0,656.319336
1783,-589,4,0,0,0,664.432434
530,719,1,0,0,0,919.116394
-597,1505,2,0,0,0,748.064758
-1635,-909,3,1,0,9,71.115486
127,-864,4,1,0,11,82.913170
1688,512,1,0,0,0,723.490784
-1889,1339,2,0,0,0,645.685242
-1493,-539,3,0,0,0,753.751282
493,-18,4,0,0,0,1048.763306
725,1920,1,1,0,17,58.697643
-571,235,2,0,0,0,1025.521484
-238,-372,3,0,0,0,1122.175659
824,-1671,4,0,0,0,666.669678
1836,811,1,1,0,22,124.495636
-889,728,2,1,0,9,71.115486
-995,-1139,3,1,0,4,103.294426
678,-1249,4,0,0,0,744.205566
1330,523,1,1,0,22,124.495636
-482,827,2,1,0,17,58.697643
-1246,-916,3,0,0,0,761.233765
1300,-1986,4,1,0,11,82.913170
988,983,1,1,0,17,58.697643
-568,604,2,1,0,9,71.115486
-359,-204,3,1,0,0,190.955170
339,-1919,4,0,0,0,653.843018
790,1777,1,0,0,0,695.549133
-848,1973,2,1,0,17,58.697643
-1023,-1774,3,0,0,0,680.765076
466,-489,4,1,0,11,82.913170
520,1711,1,1,0,17,58.697643
-1451,379,2,1,0,9,71.115486
-1703,-134,3,1,0,9,71.115486
744,-175,4,0,0,0,922.583923
1662,1159,1,1,0,22,124.495636
-1823,1767,2,1,0,9,71.115486
-390,-649,3,1,0,4,103.294426
1907,-729,4,1,0,11,82.913170
390,1284,1,0,0,0,801.987122
-51,1947,2,0,0,0,695.111633
-151,-856,3,0,0,0,926.966858
525,-1051,4,1,0,11,82.913170
846,408,1,0,0,0,904.649048
-570,348,2,0,0,0,1002.915649
-984,-1720,3,0,0,0,690.171936
312,-1792,4,0,0,0,673.524658
471,1845,1,1,0,17,58.697643
-942,1128,2,0,0,0,775.871887
-1723,-577,3,0,0,0,714.990784
693,-1420,4,0,0,0,713.815308
1285,1370,1,1,0,17,58.697643
-1684,0,2,1,0,9,71.115486
-940,-1239,3,0,0,0,759.613525
1857,-1468,4,0,0,0,598.451294
162,1852,1,0,0,0,708.440979
-1102,113,2,0,0,0,857.136353
-1516,-960,3,1,0,4,103.294426
899,-302,4,0,0,0,860.453613
565,677,1,1,0,17,58.697643
-985,97,2,1,0,9,71.115486
-1796,-959,3,0,0,0,682.421692
1361,-703,4,0,0,0,722.700317
1957,912,1,0,0,0,665.645386
-1269,199,2,1,0,9,71.115486
-1253,-1629,3,0,0,0,679.744263
1628,-211,4,0,0,0,702.872375
162,884,1,1,0,17,58.697643
-1779,335,2,1,0,9,71.115486
-580,-1110,3,1,0,4,103.294426
777,-1731,4,1,0,11,82.913170
1324,1736,1,1,0,17,58.697643
-421,1178,2,1,0,17,58.697643
-1768,-1319,3,0,0,0,659.528992
1750,-151,4,1,0,22,124.495636
693,1521,1,0,0,0,738.936340
-125,1676,2,1,0,17,58.697643
-1856,-1457,3,0,0,0,640.300476
460,-1616,4,0,0,0,696.222351
182,779,1,1,0,17,58.697643
-1594,1149,2,1,0,9,71.115486
-410,-1787,3,0,0,0,712.419006
971,-936,4,0,0,0,759.226746
433,696,1,1,0,17,58.697643
-1932,812,2,1,0,9,71.115486
-171,-1714,3,0,0,0,730.304504
1525,-327,4,0,0,0,717.541016
282,1831,1,1,0,17,58.697643
-763,1504,2,1,0,17,58.697643
-973,-1328,3,1,0,4,103.294426
213,-1181,4,1,0,11,82.913170
282,1823,1,1,0,17,58.697643
-617,1177,2,1,0,17,58.697643
-420,-636,3,0,0,0,964.835022
1138,-1723,4,1,0,11,82.913170
1990,289,1,1,0,22,124.495636
-1389,1785,2,1,0,17,58.697643
-595,-1971,3,0,0,0,679.230164
912,-1677,4,0,0,0,659.729126
423,1290,1,0,0,0,798.652466
-537,287,2,0,0,0,1029.558105
-1558,-954,3,1,0,4,103.294426
138,-521,4,1,0,11,82.913170
825,250,1,1,0,22,124.495636
-1196,543,2,1,0,9,71.115486
-756,-1289,3,0,0,0,771.078796
325,-963,4,1,0,11,82.913170
259,1017,1,1,0,17,58.697643
-1299,1052,2,0,0,0,738.914917
-28,-1049,3,1,0,11,82.913170
303,-573,4,0,0,0,970.066772
675,794,1,0,0,0,874.716125
-1518,1066,2,1,0,9,71.115486
-1115,-747,3,0,0,0,801.949036
1214,-50,4,1,0,22,124.495636
866,418,1,1,0,22,124.495636
-1287,1720,2,1,0,17,58.697643
-88,-724,3,0,0,0,977.526978
1808,-726,4,1,0,11,82.913170
1230,1138,1,0,0,0,738.206482
-1271,449,2,0,0,0,800.693237
-526,-1394,3,0,0,0,771.926331
1100,-1336,4,1,0,11,82.913170
282,1222,1,0,0,0,821.442749
-1325,1786,2,1,0,17,58.697643
-778,-787,3,0,0,0,857.432068
845,-176,4,1,0,22,124.495636
1358,1950,1,1,0,17,58.697643
-739,1068,2,0,0,0,811.387878
-136,-1974,3,0,0,0,690.590942
1903,-343,4,0,0,0,656.056030
306,679,1,0,0,0,971.490173
-1742,86,2,0,0,0,726.729919
-154,-1399,3,0,0,0,788.286072
966,-536,4,1,0,11,82.913170
1006,1624,1,1,0,17,58.697643
-136,171,2,1,0,0,429.342499
-48,-1259,3,1,0,11,82.913170
932,-1532,4,1,0,11,82.913170
545,601,1,1,0,17,58.697643
-1495,1995,2,0,0,0,624.626953
-856,-1205,3,1,0,4,103.294426
1446,-1213,4,1,0,11,82.913170
1799,424,1,1,0,22,124.495636
-708,724,2,1,0,9,71.115486
-340,-159,3,1,0,0,222.356659
1158,-1151,4,0,0,0,704.428711
676,93,1,1,0,17,58.697643
-1505,321,2,0,0,0,762.651367
-516,-1812,3,0,0,0,704.620422
1874,-1342,4,1,0,11,82.913170
1816,984,1,0,0,0,678.314209
-957,327,2,0,0,0,883.357727
-915,-1826,3,1,0,4,103.294426
552,-1315,4,1,0,11,82.913170
1594,707,1,1,0,22,124.495636
-261,1375,2,1,0,17,58.697643
-1052,-599,3,1,0,4,103.294426
1127,-239,4,1,0,22,124.495636
468,853,1,1,0,17,58.697643
-922,457,2,0,0,0,878.357056
-1882,-1207,3,0,0,0,655.673889
777,-1900,4,1,0,11,82.913170
312,1783,1,1,0,17,58.697643
-309,1000,2,1,0,17,58.697643
-1418,-963,3,1,0,4,103.294426
1019,-1274,4,1,0,11,82.913170
1595,89,1,1,0,22,124.495636
-1152,217,2,1,0,9,71.115486
-1558,-37,3,1,0,9,71.115486
1350,-915,4,0,0,0,704.753723
1464,1107,1,1,0,22,124.495636
-426,1095,2,1,0,17,58.697643
-1713,-2,3,0,0,0,731.891663
424,-1289,4,0,0,0,757.472961
550,1453,1,1,0,17,58.697643
-1892,1085,2,0,0,0,662.754944
-1011,-862,3,0,0,0,804.856018
1135,-1997,4,0,0,0,606.999084
1807,802,1,1,0,22,124.495636
-1002,195,2,0,0,0,880.673401
-1206,-260,3,1,0,9,71.115486
367,-1243,4,1,0,11,82.913170
662,956,1,0,0,0,843.180115
-1859,1251,2,0,0,0,655.044006
-452,-864,3,0,0,0,893.863220
201,-1851,4,0,0,0,666.859924
102,465,1,1,0,17,58.697643
-1123,553,2,0,0,0,821.980286
-445,-1124,3,1,0,4,103.294426
630,-1099,4,0,0,0,777.217773
1312,1164,1,0,0,0,725.123779
-269,1903,2,0,0,0,698.920959
-1671,-257,3,1,0,9,71.115486
1639,-725,4,1,0,11,82.913170
1078,1016,1,1,0,17,58.697643
-907,406,2,0,0,0,888.413147
-508,-1103,3,0,0,0,830.707214
1468,-3,4,0,0,0,734.903503
270,1319,1,1,0,17,58.697643
-1715,605,2,0,0,0,714.748474
-1306,-1226,3,0,0,0,719.081909
1140,-27,4,1,0,22,124.495636
1495,96,1,0,0,0,770.361450
-1203,1629,2,1,0,17,58.697643
-210,-1492,3,0,0,0,768.712463
398,-1413,4,0,0,0,734.907532
669,137,1,1,0,17,58.697643
-1409,574,2,1,0,9,71.115486
-1075,-277,3,0,0,0,856.530151
770,-734,4,1,0,11,82.913170
64,1670,1,0,0,0,738.971863
-969,1813,2,0,0,0,679.667175
-293,-1886,3,1,0,4,103.294426
296,-473,4,0,0,0,1013.256714
1109,1937,1,1,0,17,58.697643
-1027,1566,2,0,0,0,706.345703
-1717,-304,3,1,0,9,71.115486
675,-735,4,0,0,0,845.797729
1032,1616,1,1,0,17,58.697643
-1766,252,2,0,0,0,720.268005
-556,-175,3,0,0,0,1042.136475
105,-1477,4,0,0,0,732.428589
808,291,1,0,0,0,930.438538
-525,273,2,1,0,9,71.115486
-1653,-1079,3,0,0,0,691.269287
1006,-1211,4,0,0,0,714.857178
1709,85,1,1,0,22,124.495636
-1976,1874,2,0,0,0,599.497498
-225,-962,3,1,0,4,103.294426
1676,-936,4,1,0,11,82.913170
902,1514,1,1,0,17,58.697643
-1734,1882,2,0,0,0,617.184937
-1687,-358,3,1,0,9,71.115486
213,-773,4,1,0,11,82.913170
611,1838,1,0,0,0,696.699036
-1581,933,2,1,0,9,71.115486
-154,-1070,3,0,0,0,864.172058
645,-1116,4,0,0,0,772.224487
664,128,1,0,0,0,999.317200
-210,1448,2,0,0,0,777.137024
-835,-1004,3,0,0,0,809.820190
1465,-448,4,1,0,22,124.495636
1589,1274,1,0,0,0,682.328491
-192,1056,2,0,0,0,866.232971
-1248,-460,3,1,0,9,71.115486
1445,-1254,4,0,0,0,659.085510
258,989,1,0,0,0,880.306946
-511,1035,2,0,0,0,845.305664
-1008,-915,3,1,0,4,103.294426
1105,-431,4,0,0,0,796.126343
429,999,1,1,0,17,58.697643
-1820,27,2,0,0,0,714.494019
-50,-1756,3,1,0,11,82.913170
725,-177,4,1,0,17,58.697643
526,1979,1,0,0,0,680.781616
-506,1108,2,1,0,17,58.697643
-670,-584,3,1,0,4,103.294426
859,-1500,4,1,0,11,82.913170
1124,1656,1,0,0,0,687.320435
-817,1655,2,0,0,0,710.512512
-871,-1672,3,0,0,0,704.434021
539,-728,4,1,0,11,82.913170
732,1572,1,1,0,17,58.697643
-1425,109,2,1,0,9,71.115486
-51,-61,3,0,0,0,1616.832520
874,-1213,4,1,0,11,82.913170
1320,1022,1,1,0,22,124.495636
-97,1018,2,1,0,17,58.697643
-577,-336,3,1,0,9,71.115486
513,-1196,4,0,0,0,769.476685
1046,509,1,1,0,22,124.495636
-1178,1846,2,0,0,0,661.603455
-1608,-1820,3,1,0,4,103.294426
1837,-1364,4,1,0,11,82.913170
1384,834,1,0,0,0,748.636353
-377,1051,2,0,0,0,854.861389
-840,-1643,3,0,0,0,710.574158
921,-1433,4,1,0,11,82.913170
467,540,1,1,0,17,58.697643
-456,1693,2,1,0,17,58.697643
-988,-1006,3,1,0,4,103.294426
1667,-1087,4,0,0,0,647.847290
1488,1821,1,1,0,17,58.697643
-451,1460,2,0,0,0,764.669739
-696,-87,3,1,0,9,71.115486
927,-795,4,0,0,0,787.739197
1516,1150,1,1,0,17,58.697643
-984,1898,2,1,0,17,58.697643
-1859,-608,3,1,0,9,71.115486
1375,-772,4,0,0,0,714.392639
1931,795,1,0,0,0,675.176514
-1040,1361,2,1,0,17,58.697643
-1729,-628,3,1,0,9,71.115486
889,-776,4,0,0,0,797.593445
169,271,1,0,0,0,1215.655151
-612,1274,2,0,0,0,787.079834
-1434,-89,3,0,0,0,782.365051
602,-1799,4,0,0,0,661.514099
1282,292,1,0,0,0,807.849121
-1626,1660,2,0,0,0,644.672058
-1361,-1254,3,1,0,4,103.294426
462,-1060,4,1,0,11,82.913170
481,369,1,0,0,0,1030.813965
-311,1451,2,1,0,17,58.697643
-1400,-140,3,0,0,0,788.381714
1257,-618,4,0,0,0,748.364685
240,206,1,0,0,0,1218.462402
-723,890,2,1,0,17,58.697643
-1204,-1355,3,1,0,4,103.294426
1165,-1373,4,0,0,0,676.416199
1583,1167,1,0,0,0,692.333496
-1587,855,2,1,0,9,71.115486
-1709,-768,3,1,0,9,71.115486
853,-684,4,1,0,11,82.913170
1643,800,1,1,0,22,124.495636
-361,1790,2,1,0,17,58.697643
-1856,-1685,3,0,0,0,623.056946
1411,-216,4,0,0,0,742.940613
766,629,1,1,0,17,58.697643
-887,642,2,1,0,9,71.115486
-1801,-1210,3,1,0,4,103.294426
1438,-1769,4,0,0,0,609.144531
627,473,1,0,0,0,956.180420
-1414,114,2,0,0,0,786.021423
-57,-342,3,1,0,0,249.994385
385,-983,4,0,0,0,829.604980
533,31,1,0,0,0,1067.449951
-899,682,2,1,0,9,71.115486
-983,-1988,3,1,0,4,103.294426
249,-17,4,0,0,0,1245.297974
552,778,1,1,0,17,58.697643
-671,1652,2,0,0,0,720.399414
-1350,-656,3,1,0,9,71.115486
1233,-1026,4,1,0,11,82.913170
971,252,1,1,0,22,124.495636
-1570,1010,2,1,0,9,71.115486
-571,-1842,3,0,0,0,697.946594
1488,-1585,4,1,0,11,82.913170
1253,1033,1,1,0,22,124.495636
-1344,1539,2,1,0,17,58.697643
-590,-284,3,0,0,0,1008.600342
1884,-407,4,0,0,0,656.973328
685,802,1,1,0,17,58.697643
-1383,366,2,0,0,0,783.597168
-1564,-1482,3,1,0,4,103.294426
574,-450,4,1,0,11,82.913170
1243,1693,1,0,0,0,673.530457
-1818,1726,2,0,0,0,623.051941
-1090,-1517,3,1,0,4,103.294426
1318,-1636,4,1,0,11,82.913170
26,1310,1,0,0,0,808.851318
-1661,1139,2,1,0,9,71.115486
-1079,-706,3,1,0,4,103.294426
1141,-1794,4,1,0,11,82.913170
701,491,1,0,0,0,931.430725
-172,1685,2,1,0,17,58.697643
-1091,-1396,3,1,0,4,103.294426
1363,-1282,4,1,0,11,82.913170
1320,459,1,0,0,0,790.319214
-1271,1501,2,0,0,0,692.308838
-1434,-1017,3,0,0,0,724.454041
1851,-914,4,0,0,0,637.397095
1059,1688,1,1,0,17,58.697643
-343,930,2,0,0,0,889.134399
-235,-1504,3,0,0,0,765.765747
1042,-1660,4,1,0,11,82.913170
1850,1753,1,0,0,0,618.345215
-391,213,2,0,0,0,1119.812500
-278,-419,3,1,0,0,133.718353
1246,-1769,4,1,0,11,82.913170
1046,1815,1,0,0,0,674.276367
-1420,1117,2,0,0,0,716.630188
-1117,-1800,3,0,0,0,671.077026
1818,-362,4,0,0,0,668.119263
1721,711,1,0,0,0,707.977051
-119,1943,2,0,0,0,695.262512
-1493,-1705,3,1,0,4,103.294426
881,-1937,4,0,0,0,628.753723
1643,1142,1,1,0,22,124.495636
-1281,207,2,1,0,9,71.115486
-217,-1370,3,0,0,0,792.475220
625,-1932,4,0,0,0,642.102295
1273,1928,1,1,0,17,58.697643
-1497,1099,2,1,0,9,71.115486
-587,-503,3,1,0,4,103.294426
709,-1565,4,1,0,11,82.913170
845,1877,1,0,0,0,679.287903
-1315,1586,2,1,0,17,58.697643
-188,-1147,3,0,0,0,843.310730
1106,-1393,4,0,0,0,679.927124
1471,255,1,1,0,22,124.495636
-1264,1035,2,1,0,9,71.115486
-78,-1238,3,1,0,11,82.913170
1540,-615,4,1,0,11,82.913170
1900,1657,1,0,0,0,621.442627
-1245,1407,2,0,0,0,705.426575
-1183,-383,3,0,0,0,823.898010
1862,-1273,4,1,0,11,82.913170
1399,1261,1,1,0,17,58.697643
-284,1398,2,0,0,0,784.412476
-1665,-1768,3,0,0,0,632.082581
1465,-528,4,0,0,0,717.986023
1234,1203,1,0,0,0,730.163208
-1268,233,2,0,0,0,813.502625
-1148,-1111,3,0,0,0,751.903625
147,-1232,4,1,0,11,82.913170
1766,1342,1,1,0,17,58.697643
-1638,547,2,1,0,9,71.115486
-1912,-1923,3,1,0,4,103.294426
171,-1610,4,0,0,0,706.834961
1776,892,1,0,0,0,689.329773
-436,405,2,1,0,9,71.115486
-176,-521,3,0,0,0,1058.922852
641,-906,4,1,0,11,82.913170
551,1915,1,1,0,17,58.697643
-667,818,2,0,0,0,871.058716
-1415,-254,3,1,0,9,71.115486
1748,-801,4,1,0,11,82.913170
1029,455,1,0,0,0,852.669678
-1531,1441,2,1,0,9,71.115486
-1625,-219,3,0,0,0,744.436340
1934,-1828,4,0,0,0,565.268799
1235,1047,1,0,0,0,748.064758
-89,882,2,0,0,0,921.302185
-1464,-718,3,1,0,9,71.115486
1180,-1501,4,1,0,11,82.913170
1633,201,1,1,0,22,124.495636
-732,1530,2,0,0,0,734.736267
-1821,-1988,3,1,0,4,103.294426
1785,-1494,4,0,0,0,603.224854
267,1320,1,0,0,0,800.958618
-506,705,2,0,0,0,927.439819
-228,-79,3,0,0,0,1296.530151
1490,-1672,4,1,0,11,82.913170
753,116,1,1,0,22,124.495636
-619,1757,2,0,0,0,707.859314
-1369,-958,3,0,0,0,739.027039
1787,-29,4,1,0,22,124.495636
1716,245,1,1,0,22,124.495636
-1308,470,2,1,0,9,71.115486
-1076,-1248,3,0,0,0,743.019226
1959,-1522,4,1,0,11,82.913170
1207,704,1,1,0,22,124.495636
-1009,203,2,0,0,0,878.308533
-640,-616,3,0,0,0,920.714661
1324,-315,4,1,0,22,124.495636
470,992,1,1,0,17,58.697643
-973,9,2,0,0,0,894.468750
-1167,-979,3,0,0,0,765.574585
1301,-532,4,0,0,0,747.369690
1114,1952,1,0,0,0,654.181519
-28,562,2,1,0,17,58.697643
-405,-62,3,1,0,0,193.429672
1181,-456,4,1,0,11,82.913170
1104,1426,1,0,0,0,717.148865
-944,316,2,0,0,0,887.902527
-1114,-1485,3,0,0,0,708.852783
654,-1416,4,1,0,11,82.913170
1894,332,1,0,0,0,698.778137
-1700,1594,2,1,0,9,71.115486
-1613,-240,3,1,0,9,71.115486
1814,-133,4,1,0,22,124.495636
1460,692,1,1,0,22,124.495636
-72,1588,2,1,0,17,58.697643
-747,-934,3,1,0,4,103.294426
1249,-972,4,1,0,11,82.913170
107,1806,1,1,0,17,58.697643
-78,1209,2,1,0,17,58.697643
-147,-1060,3,1,0,4,103.294426
883,-1653,4,0,0,0,664.996948
455,1029,1,0,0,0,852.669678
-1247,761,2,0,0,0,777.585388
-106,-677,3,1,0,4,103.294426
108,-1804,4,0,0,0,675.373596
1350,1511,1,0,0,0,683.797058
-1324,614,2,0,0,0,777.865417
-716,-432,3,0,0,0,938.112610
1829,-763,4,0,0,0,649.042725
1909,149,1,0,0,0,699.982361
-914,48,2,0,0,0,912.099182
-342,-1245,3,0,0,0,813.081604
295,-1072,4,1,0,11,82.913170
1443,1414,1,0,0,0,684.634705
-1589,1596,2,0,0,0,653.594299
-1077,-1634,3,1,0,4,103.294426
590,-1305,4,0,0,0,741.990234
1339,6,1,1,0,22,124.495636
-1450,1503,2,0,0,0,675.152954
-989,-1987,3,0,0,0,657.758789
972,-1184,4,0,0,0,722.693237
745,1457,1,0,0,0,745.008911
-1248,861,2,1,0,9,71.115486
-1107,-1430,3,0,0,0,716.355835
1210,-1316,4,0,0,0,678.476440
524,1059,1,0,0,0,838.586548
-1492,169,2,0,0,0,769.698608
-1434,-391,3,0,0,0,772.618469
774,-1110,4,1,0,11,82.913170
1555,67,1,0,0,0,759.388611
-1989,218,2,0,0,0,687.394287
-411,-1983,3,1,0,4,103.294426
698,-454,4,0,0,0,897.913696
703,1816,1,0,0,0,695.162170
-1761,1295,2,0,0,0,662.118225
-1507,-1027,3,1,0,4,103.294426
737,-362,4,1,0,11,82.913170
580,220,1,1,0,17,58.697643
-1912,1823,2,0,0,0,608.133179
-497,-30,3,1,0,9,71.115486
946,-777,4,1,0,11,82.913170
1167,246,1,1,0,22,124.495636
-36,1045,2,1,0,17,58.697643
-910,-1739,3,1,0,4,103.294426
401,-570,4,1,0,11,82.913170
1168,949,1,1,0,22,124.495636
-1595,1525,2,0,0,0,659.409607
-1084,-624,3,1,0,4,103.294426
781,-239,4,0,0,0,903.468506
656,977,1,1,0,17,58.697643
-1333,1545,2,1,0,17,58.697643
-246,-651,3,0,0,0,991.037964
257,-841,4,0,0,0,882.190125
1185,1924,1,1,0,17,58.697643
-161,1287,2,1,0,17,58.697643
-542,-851,3,0,0,0,884.036743
1588,-366,4,0,0,0,704.970520
1515,1279,1,1,0,17,58.697643
-1453,747,2,0,0,0,745.473328
-1576,-215,3,0,0,0,753.158447
118,-758,4,0,0,0,921.521301
712,217,1,1,0,22,124.495636
-1517,1895,2,0,0,0,632.221252
-15,-540,3,1,0,0,115.779732
814,-752,4,0,0,0,815.650513
1507,1365,1,1,0,17,58.697643
-1196,1060,2,0,0,0,751.802795
-1003,-1948,3,1,0,4,103.294426
1396,-1631,4,0,0,0,626.233765
399,1091,1,1,0,17,58.697643
-1812,611,2,0,0,0,700.366333
-942,-526,3,1,0,4,103.294426
1318,-3,4,1,0,22,124.495636
1244,684,1,1,0,22,124.495636
-919,578,2,1,0,9,71.115486
-798,-2000,3,0,0,0,666.407227
1387,-581,4,1,0,11,82.913170
1869,1115,1,0,0,0,663.372070
-1977,1172,2,1,0,9,71.115486
-1351,-788,3,1,0,4,103.294426
1434,-128,4,1,0,22,124.495636
1093,1435,1,1,0,17,58.697643
-829,1795,2,1,0,17,58.697643
-385,-1574,3,0,0,0,747.831421
1380,-846,4,1,0,11,82.913170
1959,1441,1,1,0,17,58.697643
-933,251,2,1,0,9,71.115486
-1550,-1059,3,0,0,0,705.657715
368,-1893,4,1,0,11,82.913170
1377,69,1,0,0,0,794.210693
-1011,108,2,1,0,9,71.115486
-883,-1239,3,0,0,0,765.916565
840,-1843,4,0,0,0,642.830261
474,1968,1,0,0,0,684.073181
-1789,58,2,0,0,0,719.297668
-830,-1094,3,0,0,0,795.360718
166,-1805,4,1,0,11,82.913170
1042,1339,1,0,0,0,734.638794
-1795,1943,2,0,0,0,607.763123
-242,-885,3,1,0,4,103.294426
1768,-1411,4,1,0,11,82.913170
147,19,1,0,0,0,1437.129395
-1434,1944,2,0,0,0,633.601868
-602,-1422,3,0,0,0,761.659424
262,-619,4,0,0,0,959.595886
945,860,1,1,0,17,58.697643
-1972,1925,2,0,0,0,596.130798
-639,-709,3,0,0,0,900.019714
422,-602,4,0,0,0,933.776245
582,1941,1,0,0,0,683.776733
-330,728,2,0,0,0,951.125732
-814,-1289,3,1,0,4,103.294426
1676,-1485,4,0,0,0,614.241760
524,489,1,0,0,0,982.550659
-1310,1177,2,1,0,9,71.115486
-1629,-1107,3,0,0,0,691.915710
399,-648,4,1,0,11,82.913170
188,847,1,0,0,0,927.498718
-918,1471,2,0,0,0,728.407471
-757,-1968,3,0,0,0,672.408508
1432,-1599,4,0,0,0,626.281799
1659,1859,1,1,0,17,58.697643
-601,1,2,0,0,0,1033.314453
-1271,-1927,3,0,0,0,646.552246
1697,-1422,4,0,0,0,617.463867
1569,1105,1,1,0,22,124.495636
-66,954,2,0,0,0,899.472351
-1811,-538,3,1,0,9,71.115486
1309,-1355,4,0,0,0,663.484009
1959,1103,1,1,0,22,124.495636
-488,1882,2,0,0,0,695.615723
-173,-1658,3,1,0,4,103.294426
1026,-78,4,0,0,0,836.986084
935,1656,1,1,0,17,58.697643
-340,302,2,1,0,9,71.115486
-172,-1860,3,1,0,4,103.294426
1745,-1411,4,0,0,0,613.626160
853,1848,1,1,0,17,58.697643
-1013,1402,2,0,0,0,729.114319
-1598,-1851,3,1,0,4,103.294426
1203,-1998,4,1,0,11,82.913170
1765,621,1,0,0,0,706.600037
-1736,59,2,1,0,9,71.115486
-1680,-1103,3,0,0,0,686.136414
1050,-226,4,0,0,0,824.651001
1031,1480,1,1,0,17,58.697643
-344,434,2,1,0,17,58.697643
-674,-756,3,1,0,4,103.294426
1446,-1055,4,1,0,11,82.913170
1560,784,1,1,0,22,124.495636
-750,518,2,1,0,9,71.115486
-182,-720,3,0,0,0,972.311584
1283,-854,4,0,0,0,720.947693
1422,1522,1,0,0,0,675.906738
-1772,450,2,1,0,9,71.115486
-241,-570,3,0,0,0,1024.874390
1982,-1425,4,0,0,0,589.722229
1171,1598,1,0,0,0,690.237793
-1959,769,2,0,0,0,672.956787
-1046,-410,3,0,0,0,853.085205
944,-1353,4,1,0,11,82.913170
1850,1258,1,0,0,0,655.494324
-1368,1736,2,0,0,0,658.956604
-1414,-1891,3,1,0,4,103.294426
855,-1540,4,0,0,0,682.713806
1070,745,1,1,0,22,124.495636
-1145,1164,2,0,0,0,745.650757
-866,-498,3,0,0,0,886.893921
1278,-572,4,1,0,11,82.913170
1408,1464,1,0,0,0,683.097168
-76,814,2,0,0,0,944.625122
-1964,-1621,3,1,0,4,103.294426
1111,-1043,4,1,0,11,82.913170
370,1972,1,1,0,17,58.697643
-198,1203,2,0,0,0,829.566833
-1285,-1504,3,1,0,4,103.294426
1021,-1954,4,1,0,11,82.913170
1036,635,1,0,0,0,830.527100
-892,862,2,1,0,9,71.115486
-1209,-67,3,1,0,9,71.115486
1667,-1583,4,0,0,0,606.769409
1828,1166,1,1,0,22,124.495636
-1175,1540,2,1,0,17,58.697643
-955,-1021,3,1,0,4,103.294426
1880,-8,4,0,0,0,664.090698
1440,233,1,1,0,22,124.495636
-530,57,2,1,0,9,71.115486
-81,-617,3,1,0,4,103.294426
613,-446,4,1,0,11,82.913170
387,1218,1,1,0,17,58.697643
-1497,292,2,1,0,9,71.115486
-1194,-1578,3,0,0,0,690.570801
569,-1597,4,0,0,0,693.654663
1935,1564,1,0,0,0,625.194702
-283,1070,2,0,0,0,857.392639
-177,-1491,3,1,0,4,103.294426
1351,-1117,4,1,0,11,82.913170
1724,1920,1,1,0,17,58.697643
-1100,340,2,0,0,0,846.036011
-837,-100,3,1,0,9,71.115486
850,-503,4,0,0,0,848.766296
1310,517,1,1,0,22,124.495636
-1210,378,2,1,0,9,71.115486
-1069,-1475,3,1,0,4,103.294426
1368,-1990,4,0,0,0,592.788818
858,22,1,0,0,0,930.613892
-1291,27,2,0,0,0,813.045227
-1723,-591,3,0,0,0,714.283142
226,-1709,4,0,0,0,688.877686
19,408,1,1,0,0,194.427536
-1821,677,2,1,0,9,71.115486
-408,-455,3,0,0,0,1028.492432
159,-515,4,1,0,11,82.913170
1532,1338,1,0,0,0,682.699036
-484,1357,2,1,0,17,58.697643
-1574,-917,3,0,0,0,714.267822
1871,-70,4,0,0,0,665.263916
684,1048,1,1,0,17,58.697643
-509,1390,2,1,0,17,58.697643
-1241,-612,3,1,0,4,103.294426
864,-1883,4,0,0,0,636.378052
292,671,1,1,0,17,58.697643
-349,835,2,1,0,17,58.697643
-3,-1786,3,1,0,11,82.913170
1409,-1037,4,0,0,0,684.661865
1566,1679,1,0,0,0,648.095886
-1907,1466,2,0,0,0,634.820435
-1905,-1295,3,0,0,0,647.161621
1961,-1082,4,0,0,0,614.183777
131,1451,1,1,0,17,58.697643
-1595,1836,2,0,0,0,631.675659
-92,-1745,3,0,0,0,726.187561
661,-1872,4,1,0,11,82.913170
1410,349,1,0,0,0,779.225281
-564,650,2,0,0,0,929.843872
-427,-612,3,1,0,4,103.294426
1433,-567,4,1,0,11,82.913170
507,456,1,1,0,17,58.697643
-727,297,2,0,0,0,956.208496
-403,-787,3,0,0,0,922.049316
1241,-648,4,1,0,11,82.913170
575,865,1,0,0,0,875.674927
-1563,573,2,0,0,0,740.090454
-543,-1905,3,0,0,0,690.273254
160,-1212,4,1,0,11,82.913170
68,44,1,0,0,0,1611.501221
-1078,1047,2,1,0,9,71.115486
-1372,-982,3,1,0,4,103.294426
1217,-201,4,0,0,0,784.865417
1118,600,1,1,0,22,124.495636
-671,792,2,1,0,9,71.115486
-1852,-545,3,1,0,9,71.115486
1768,-544,4,0,0,0,668.719543
961,734,1,1,0,22,124.495636
-1820,1143,2,0,0,0,666.961304
-1850,-1322,3,0,0,0,650.861877
754,-685,4,1,0,11,82.913170
1834,256,1,0,0,0,709.566528
-1142,1736,2,0,0,0,676.590454
-131,-423,3,0,0,0,1121.392334
905,-300,4,1,0,11,82.913170
1375,197,1,0,0,0,792.069336
-530,417,2,1,0,9,71.115486
-24,-403,3,1,0,0,198.174347
1681,-769,4,1,0,11,82.913170
754,1179,1,0,0,0,789.916931
-1110,904,2,0,0,0,783.409668
-1305,-1501,3,0,0,0,689.105896
852,-326,4,0,0,0,871.633179
73,266,1,1,0,0,335.728241
-1860,917,2,1,0,9,71.115486
-1855,-1060,3,0,0,0,668.648315
1977,-791,4,1,0,11,82.913170
433,609,1,0,0,0,970.534058
-538,720,2,1,0,17,58.697643
-576,-92,3,0,0,0,1041.933350
1591,-1747,4,1,0,11,82.913170
259,1833,1,0,0,0,709.655090
-1346,565,2,1,0,9,71.115486
-989,-1045,3,0,0,0,781.957275
1247,-332,4,1,0,22,124.495636
261,1294,1,0,0,0,806.708801
-869,915,2,1,0,9,71.115486
-1908,-1862,3,0,0,0,605.541626
862,-1465,4,1,0,11,82.913170
991,854,1,0,0,0,809.302307
-1561,932,2,1,0,9,71.115486
-1175,-1397,3,0,0,0,713.670410
1931,-400,4,1,0,22,124.495636
1794,838,1,1,0,22,124.495636
-479,355,2,0,0,0,1035.622070
-1889,-225,3,0,0,0,701.850586
24,-935,4,0,0,0,864.444824
95,646,1,0,0,0,1009.414429
-643,1406,2,0,0,0,761.310913
-1958,-563,3,1,0,9,71.115486
1937,-592,4,0,0,0,642.823730
352,1544,1,0,0,0,754.420837
-1093,1997,2,1,0,17,58.697643
-1423,-1796,3,1,0,4,103.294426
1009,-602,4,1,0,11,82.913170
1686,1029,1,1,0,22,124.495636
-1129,885,2,0,0,0,782.811646
-101,-1883,3,1,0,11,82.913170
272,-811,4,1,0,11,82.913170
1732,1899,1,0,0,0,615.944885
-453,1401,2,0,0,0,775.323425
-798,-49,3,1,0,9,71.115486
909,573,1,1,0,22,124.495636
-414,536,2,0,0,0,998.872559
-1981,-54,3,1,0,9,71.115486
1186,678,1,1,0,22,124.495636
-1739,1070,2,1,0,9,71.115486
-1866,-1493,3,1,0,4,103.294426
554,1164,1,0,0,0,813.528625
-62,87,2,1,0,0,732.359070
-1371,-910,3,0,0,0,743.418152
715,120,1,1,0,22,124.495636
-1253,216,2,0,0,0,817.488403
-1766,-71,3,1,0,9,71.115486
1830,373,1,1,0,22,124.495636
-1785,91,2,1,0,9,71.115486
-614,-1995,3,1,0,4,103.294426
1904,820,1,1,0,22,124.495636
-1878,1555,2,1,0,9,71.115486
-380,-400,3,0,0,0,1057.980713
573,375,1,0,0,0,995.683899
-1833,639,2,0,0,0,696.065491
-1466,-1631,3,1,0,4,103.294426
797,217,1,1,0,22,124.495636
-235,1488,2,1,0,17,58.697643
-950,-841,3,0,0,0,818.101868
1046,126,1,0,0,0,871.579041
-657,1422,2,0,0,0,757.550903
-470,-1978,3,1,0,4,103.294426
740,1865,1,0,0,0,686.604065
-329,366,2,1,0,9,71.115486
-995,-992,3,1,0,4,103.294426
1711,1199,1,1,0,17,58.697643
-1590,1288,2,0,0,0,680.988831
-526,-1477,3,1,0,4,103.294426
691,766,1,0,0,0,877.637878
-1090,1294,2,1,0,17,58.697643
-568,-1767,3,0,0,0,708.907166
1060,1476,1,0,0,0,714.968445
-79,21,2,0,0,0,1608.842896
-106,-1456,3,0,0,0,777.784668
73,1338,1,0,0,0,802.401428
-1583,1029,2,1,0,9,71.115486
-702,-719,3,1,0,4,103.294426
103,1303,1,0,0,0,809.552795
-653,1339,2,1,0,17,58.697643
-463,-327,3,1,0,9,71.115486
770,1217,1,1,0,17,58.697643
-1836,341,2,1,0,9,71.115486
-502,-975,3,0,0,0,860.043335
302,1475,1,0,0,0,768.923584
-1907,1603,2,1,0,9,71.115486
-763,-625,3,0,0,0,890.570984
1353,1834,1,1,0,17,58.697643
-1776,1497,2,1,0,9,71.115486
-1683,-1539,3,0,0,0,650.014160
264,566,1,0,0,0,1022.237305
-1296,1171,2,1,0,9,71.115486
-1287,-1539,3,0,0,0,686.637207
314,611,1,0,0,0,994.776001
-1553,1995,2,1,0,17,58.697643
-1560,-1071,3,1,0,4,103.294426
1756,1224,1,1,0,17,58.697643
-1289,75,2,1,0,9,71.115486
-1401,-1281,3,1,0,4,103.294426
1182,1455,1,1,0,17,58.697643
-668,1741,2,0,0,0,707.567017
-1120,-1709,3,0,0,0,681.398010
845,47,1,1,0,22,124.495636
-1421,1858,2,1,0,17,58.697643
-840,-1452,3,0,0,0,737.902466
1920,1069,1,1,0,22,124.495636
-513,167,2,0,0,0,1064.442627
-110,-1519,3,1,0,11,82.913170
1012,1744,1,0,0,0,685.195007
-701,486,2,1,0,9,71.115486
-619,-358,3,1,0,9,71.115486
1152,1163,1,1,0,17,58.697643
-630,769,2,0,0,0,888.299805
-1727,-1656,3,1,0,4,103.294426
97,303,1,0,0,0,1216.767944
-879,779,2,1,0,9,71.115486
-33,-1020,3,0,0,0,880.747986
1623,1711,1,1,0,17,58.697643
-1307,196,2,1,0,9,71.115486
-1562,-190,3,0,0,0,756.257812
1757,527,1,0,0,0,712.278137
-1485,1813,2,0,0,0,642.244080
-835,-137,3,1,0,9,71.115486
543,1093,1,0,0,0,829.268677
-1008,1151,2,1,0,9,71.115486
-1410,-504,3,0,0,0,770.497437
1583,1481,1,1,0,17,58.697643
-1446,326,2,1,0,9,71.115486
-153,-28,3,1,0,0,571.638977
841,902,1,1,0,17,58.697643
-1898,1976,2,1,0,17,58.697643
-1664,-1355,3,1,0,4,103.294426
747,1786,1,0,0,0,696.842590
-320,1365,2,1,0,17,58.697643
-5,-1263,3,0,0,0,819.410706
-487,919,2,0,0,0,875.291138
-1723,-1257,3,1,0,4,103.294426
-855,55,2,0,0,0,931.122742
-61,-862,3,0,0,0,928.649048
-533,1546,2,1,0,17,58.697643
-1151,-13,3,1,0,9,71.115486
-1766,1420,2,0,0,0,651.831909
-1235,-9,3,0,0,0,825.852478
-1530,1931,2,1,0,17,58.697643
-1231,-168,3,1,0,9,71.115486
-708,1433,2,0,0,0,751.761475
-32,-1010,3,1,0,11,82.913170
-16,1399,2,0,0,0,789.997681
-1629,-1375,3,0,0,0,669.287048
-1885,65,2,1,0,9,71.115486
-1193,-1903,3,0,0,0,654.369568
-532,652,2,1,0,9,71.115486
-540,-629,3,1,0,4,103.294426
-644,312,2,0,0,0,983.004822
-1880,-79,3,0,0,0,704.982361
-872,-1848,3,1,0,4,103.294426
-212,-641,3,1,0,4,103.294426


each generation good chromosome number
300,297,290,291,286,284,281,288,271,279,278,281,277,283,277,271,278,274,274,279,278,282,281,289,286,283,287,278,285,294,286,286,287,287,287,286,284,291,288,287,286,286,287,289,285,288,280,291,288,287,284,285,292,288,290,289,289,290,292,291,289,293,287,289,291,290,293,290,290,291,289,294,291,292,291,289,293,296,295,291,295,291,291,291,296,286,295,297,290,291,292,293,296,294,296,292,296,292,293,296,