the max average throughput times

BS TX power
MBS area 1,MBS area 2,MBS area 3,MBS area 4,MBS area 5,MBS area 6,MBS area 7,CBSD 1,CBSD 2,CBSD 3,CBSD 4,CBSD 5,CBSD 6,CBSD 7,
10.000,7.500,7.500,10.000,0.000,0.000,0.000,0.000,0.000,0.000,1.000,0.000,0.000,1.000,
max average power
444.785889

x,y,area,be blocked (1 : NLOS / 0 : LOS),be blocked number (>=1 : CBSD(x) / 0 : no),connect bs number (>=1 : CBSD / 0 : MBS),throughput (unit : M bps)
742,1770,1,1,0,7,302.229645
1663,754,2,0,0,0,672.428589
-923,255,3,0,0,0,857.672974
-671,1282,4,0,0,0,780.327820
-201,-1314,5,0,0,4,269.713226
-1996,-1609,6,1,0,4,269.713226
1188,-1657,7,1,0,7,302.229645
1216,1383,1,0,0,0,711.151611
1433,794,2,0,0,0,703.456909
-661,77,3,0,0,0,962.480408
-229,1797,4,0,0,0,715.861572
-512,-818,5,0,0,4,269.713226
-1135,-12,6,1,0,4,269.713226
1935,-495,7,1,0,7,302.229645
202,1606,1,0,0,0,748.141113
600,247,2,1,0,7,302.229645
-1820,1461,3,0,0,0,602.475647
-87,1524,4,0,0,0,764.968567
-748,-1745,5,0,0,4,269.713226
-1723,-1384,6,0,0,4,269.713226
1975,-1449,7,0,0,7,302.229645
1308,1423,1,0,0,0,697.301941
1803,971,2,0,0,0,639.688354
-1045,99,3,0,0,0,831.251648
-177,1075,4,0,0,0,861.931213
-1449,-1925,5,0,0,4,269.713226
-1823,-403,6,0,0,4,269.713226
1210,-112,7,0,0,7,302.229645
995,1282,1,0,0,0,747.403442
535,418,2,0,0,0,956.708923
-1212,55,3,1,0,4,269.713226
-768,1192,4,0,0,0,786.143311
-406,-1523,5,1,0,4,269.713226
-1038,-247,6,0,0,4,269.713226
1110,-1817,7,0,0,7,302.229645
947,1325,1,0,0,0,746.378296
1597,795,2,0,0,0,679.082703
-710,66,3,0,0,0,942.577271
-325,1634,4,1,0,4,269.713226
-1079,-1874,5,1,0,4,269.713226
-1658,-409,6,0,0,4,269.713226
1501,-844,7,1,0,7,302.229645
757,1616,1,0,0,0,720.166809
1282,1219,2,1,0,7,302.229645
-1644,1000,3,0,0,0,657.449341
-632,1493,4,0,0,0,747.680176
-602,-1704,5,0,0,4,269.713226
-1450,-1382,6,0,0,4,269.713226
1649,-323,7,1,0,7,302.229645
1236,1302,1,1,0,7,302.229645
1164,44,2,0,0,0,801.322144
-1981,1560,3,0,0,0,580.533203
-1044,1562,4,0,0,0,705.422302
-1295,-1536,5,0,0,4,269.713226
-460,-128,6,0,0,4,269.713226
204,-1287,7,0,0,7,302.229645
652,1349,1,1,0,7,302.229645
1780,847,2,0,0,0,650.561584
-1652,924,3,1,0,4,269.713226
-319,1862,4,1,0,4,269.713226
-569,-1772,5,0,0,4,269.713226
-1606,-780,6,1,0,4,269.713226
1969,-1169,7,0,0,7,302.229645
1529,1946,1,0,0,0,626.710571
1814,851,2,1,0,7,302.229645
-1295,1423,4,0,0,0,698.604370
-974,-1042,5,1,0,4,269.713226
-1954,-1486,6,1,0,4,269.713226
59,-1757,7,0,0,7,302.229645
1689,1754,1,1,0,7,302.229645
1168,1042,2,1,0,7,302.229645
-249,1139,4,0,0,0,842.422241
-1065,-1479,5,1,0,4,269.713226
-2000,-1949,6,1,0,4,269.713226
1690,-435,7,0,0,7,302.229645
876,882,1,0,0,0,823.979858
-933,1108,4,0,0,0,780.027100
-1487,-1812,5,1,0,4,269.713226
-1234,-460,6,0,0,4,269.713226
451,-1656,7,0,0,7,302.229645
55,1156,1,1,0,4,269.713226
-23,1402,4,1,0,4,269.713226
-40,-762,5,1,0,4,269.713226
-1230,-665,6,0,0,4,269.713226
1878,-344,7,0,0,7,302.229645
830,1865,1,1,0,7,302.229645
-696,1708,4,0,0,0,710.715820
-823,-1722,5,0,0,4,269.713226
-745,-623,6,0,0,4,269.713226
1123,-913,7,1,0,7,302.229645
313,742,1,0,0,0,948.966064
-699,-1662,5,1,0,4,269.713226
1571,-1505,7,0,0,7,302.229645
-972,-1525,5,0,0,4,269.713226
168,-737,7,0,0,7,302.229645
1975,-1144,7,0,0,7,302.229645
308,-963,7,0,0,7,302.229645
486,-29,7,0,0,7,302.229645
1980,-1491,7,0,0,7,302.229645
822,-1410,7,1,0,7,302.229645
