mbs coordinate
0,0

cbsd coordinate and channel
-970,900,2
740,900,1
980,-860,1
-750,-850,5
-750,1000,4
1050,600,2
760,-1135,3
-870,-1100,1
-1080,450,1
970,530,3

building coordinate
-885,985
-1055,815
830,810
650,990
1060,-860
900,-860
-830,-770
-670,-930
-668,1070
-832,930
965,675
1135,525
832,-1059
688,-1211
-965,-1035
-775,-1165
-1135,365
-1025,535
907,591
1033,469

area numbers
15,11,9,14,16,14,21,

x , y , block , block number
area 1
742,1770,1,0
1216,1383,0,0
202,1606,0,0
1308,1423,0,0
995,1282,0,0
947,1325,0,0
757,1616,0,0
1236,1302,1,0
652,1349,1,0
1529,1946,0,0
1689,1754,1,0
876,882,0,0
55,1156,1,0
830,1865,1,0
313,742,0,0
area 2
1663,754,0,0
1433,794,0,0
600,247,1,0
1803,971,0,0
535,418,0,0
1597,795,0,0
1282,1219,1,0
1164,44,0,0
1780,847,0,0
1814,851,1,0
1168,1042,1,0
area 3
-923,255,0,0
-661,77,0,0
-1820,1461,0,0
-1045,99,0,0
-1212,55,1,0
-710,66,0,0
-1644,1000,0,0
-1981,1560,0,0
-1652,924,1,0
area 4
-671,1282,0,0
-229,1797,0,0
-87,1524,0,0
-177,1075,0,0
-768,1192,0,0
-325,1634,1,0
-632,1493,0,0
-1044,1562,0,0
-319,1862,1,0
-1295,1423,0,0
-249,1139,0,0
-933,1108,0,0
-23,1402,1,0
-696,1708,0,0
area 5
-201,-1314,0,0
-512,-818,0,0
-748,-1745,0,0
-1449,-1925,0,0
-406,-1523,1,0
-1079,-1874,1,0
-602,-1704,0,0
-1295,-1536,0,0
-569,-1772,0,0
-974,-1042,1,0
-1065,-1479,1,0
-1487,-1812,1,0
-40,-762,1,0
-823,-1722,0,0
-699,-1662,1,0
-972,-1525,0,0
area 6
-1996,-1609,1,0
-1135,-12,1,0
-1723,-1384,0,0
-1823,-403,0,0
-1038,-247,0,0
-1658,-409,0,0
-1450,-1382,0,0
-460,-128,0,0
-1606,-780,1,0
-1954,-1486,1,0
-2000,-1949,1,0
-1234,-460,0,0
-1230,-665,0,0
-745,-623,0,0
area 7
1188,-1657,1,0
1935,-495,1,0
1975,-1449,0,0
1210,-112,0,0
1110,-1817,0,0
1501,-844,1,0
1649,-323,1,0
204,-1287,0,0
1969,-1169,0,0
59,-1757,0,0
1690,-435,0,0
451,-1656,0,0
1878,-344,0,0
1123,-913,1,0
1571,-1505,0,0
168,-737,0,0
1975,-1144,0,0
308,-963,0,0
486,-29,0,0
1980,-1491,0,0
822,-1410,1,0

near cbsd peopel number
3
6
1
3
3
3
3
5
4
3
