each times' max average throughput
0.000000,567.535950,0.000000,0.000000,0.000000,0.000000,567.970764,0.000000,0.000000,585.940735,573.718384,595.549011,0.000000,549.446289,450.305878,0.000000,568.687073,557.182251,0.000000,590.653992,503.414337,554.202087,567.237671,0.000000,584.523926,488.660461,0.000000,556.907410,489.802185,0.000000,0.000000,0.000000,527.748108,0.000000,502.749908,0.000000,0.000000,572.332214,499.370850,0.000000,0.000000,0.000000,571.442078,576.260315,586.508667,479.627441,545.060913,0.000000,565.943054,580.217407,564.436401,484.289520,475.330811,516.460754,0.000000,560.487610,558.641174,0.000000,567.838867,0.000000,472.575073,575.382263,0.000000,581.721008,0.000000,566.487915,569.878418,491.439911,557.444885,583.643738,433.926117,563.508484,0.000000,567.379883,0.000000,555.945984,558.100708,0.000000,0.000000,0.000000,0.000000,0.000000,575.807861,552.846985,583.192505,0.000000,0.000000,0.000000,0.000000,576.643982,544.250427,575.365784,594.876465,0.000000,467.447876,0.000000,573.963135,574.087891,557.704895,555.748779,
avg. throughput in all test times
328.958557
avg. BS TX power in all test times
MBS area 1,MBS area 2,MBS area 3,MBS area 4,MBS area 5,CBSD 1,CBSD 2,CBSD 3,CBSD 4,CBSD 5,CBSD 6,CBSD 7,CBSD 8,CBSD 9,
6.738,7.275,6.925,6.650,6.688,0.062,0.121,0.168,0.106,0.183,0.069,0.112,0.155,0.108,
avg. mbs all power,avg. cbsd enable number,avg. mbs area all power,avg. cbsd all power
45.675,1.000,34.275,1.084
avg. max avg. throughput generation number in all test times
0.510000
avg. number of relay UE
127

the max average throughput times

BS TX power
MBS area 1,MBS area 2,MBS area 3,MBS area 4,MBS area 5,CBSD 1,CBSD 2,CBSD 3,CBSD 4,CBSD 5,CBSD 6,CBSD 7,CBSD 8,CBSD 9,
8.750,6.250,5.000,7.500,6.250,0.625,0.000,0.000,0.000,0.500,0.000,0.000,0.000,0.000,
max average throughput
555.748779

x,y,area,be blocked (1 : NLOS / 0 : LOS),be blocked number (>=1 : CBSD(x) / 0 : no),connect bs number (>=1 : CBSD / 0 : MBS),throughput (unit : M bps)
24,1130,1,0,0,0,832.148071
1394,524,2,0,0,0,704.664917
-639,1858,3,0,0,0,593.784973
-1103,-297,4,1,0,1,72.254974
1102,-110,5,0,0,0,789.634766
170,360,1,0,0,0,1132.826538
1589,1139,2,0,0,0,626.923889
-711,1002,3,1,0,5,859.328613
-1548,-1430,4,0,0,0,631.514771
647,-1338,5,0,0,0,705.244446
826,859,1,0,0,0,816.922913
1454,344,2,1,0,1,72.254974
-1621,874,3,0,0,0,612.183899
-1089,-1397,4,1,0,1,72.254974
516,-614,5,0,0,0,882.456177
208,1235,1,0,0,0,802.642761
744,182,2,0,0,0,895.714172
-163,1741,3,0,0,0,626.930664
-1172,-1785,4,0,0,0,627.760986
169,-54,5,0,0,0,1317.454712
446,577,1,0,0,0,958.306519
1907,96,2,0,0,0,633.653442
-1651,122,3,0,0,0,642.525391
-1263,-1522,4,0,0,0,649.616150
1272,-834,5,0,0,0,698.615479
706,1904,1,0,0,0,664.086670
1913,422,2,1,0,1,72.254974
-169,896,3,0,0,0,813.447266
-99,-509,4,1,0,1,72.254974
358,-1158,5,0,0,0,763.713745
985,1346,1,1,0,1,72.254974
1587,347,2,0,0,0,679.787720
-1374,1320,3,1,0,1,72.254974
-438,-820,4,1,0,1,72.254974
1128,-1171,5,1,0,1,72.254974
4,1389,1,1,0,1,72.254974
1353,384,2,0,0,0,721.051636
-26,539,3,0,0,0,964.464172
-406,-850,4,0,0,0,862.397583
463,-34,5,0,0,0,1039.997192
493,1919,1,0,0,0,671.117920
1693,1378,2,0,0,0,595.575195
-1843,1071,3,0,0,0,570.692810
-390,-1209,4,1,0,1,72.254974
307,-1107,5,1,0,1,72.254974
1089,1685,1,0,0,0,667.540283
601,101,2,0,0,0,961.561829
-808,1261,3,1,0,1,72.254974
-1787,-1661,4,1,0,1,72.254974
416,-220,5,0,0,0,1036.083740
427,1302,1,0,0,0,776.805542
931,679,2,0,0,0,778.236023
-8,1796,3,0,0,0,619.315308
-86,-1999,4,0,0,0,646.308655
2,-60,5,1,0,0,913.356323
768,819,1,1,0,1,72.254974
1665,104,2,0,0,0,672.190308
-1349,1104,3,0,0,0,627.819763
-1442,-1523,4,0,0,0,632.878479
1403,-922,5,0,0,0,670.381409
61,1770,1,1,0,1,72.254974
1348,133,2,0,0,0,731.828430
-1420,524,3,1,0,1,72.254974
-1862,-115,4,0,0,0,666.297791
1767,-345,5,0,0,0,650.423462
93,1290,1,1,0,1,72.254974
1719,1625,2,0,0,0,572.802368
-904,685,3,0,0,0,750.746948
-1564,-1096,4,0,0,0,659.602234
428,-1826,5,0,0,0,638.763306
294,1916,1,1,0,1,72.254974
486,337,2,1,0,1,72.254974
-508,86,3,0,0,0,977.798096
-648,-298,4,1,0,1,72.254974
836,-878,5,0,0,0,763.650208
293,868,1,0,0,0,892.601624
1051,286,2,0,0,0,794.411621
-1936,1690,3,0,0,0,517.988220
-290,-738,4,1,0,1,72.254974
372,-482,5,0,0,0,961.831421
682,1968,1,0,0,0,656.846191
1679,827,2,0,0,0,639.351807
-407,1874,3,0,0,0,600.678101
-1071,-787,4,0,0,0,763.432617
1088,-230,5,0,0,0,788.452148
632,1914,1,0,0,0,666.209473
1097,214,2,0,0,0,787.000305
-1649,1459,3,1,0,1,72.254974
-515,-743,4,0,0,0,874.234924
7,-1633,5,0,0,0,678.291870
980,1535,1,0,0,0,695.224060
1703,364,2,0,0,0,659.918518
-1879,691,3,0,0,0,588.460632
-1444,-1310,4,0,0,0,653.701660
769,-1112,5,0,0,0,732.367615
1645,1666,1,0,0,0,623.494812
1214,835,2,1,0,1,72.254974
-629,789,3,1,0,1,72.254974
-282,-830,4,1,0,1,72.254974
1500,-992,5,0,0,0,650.743042
1283,1306,1,0,0,0,693.717773
1813,76,2,0,0,0,648.177551
-1483,1515,3,0,0,0,572.232727
-1986,-703,4,0,0,0,631.604614
936,-1582,5,1,0,1,72.254974
590,1468,1,1,0,1,72.254974
213,151,2,0,0,0,1205.988892
-1059,1583,3,0,0,0,602.628601
-1210,-137,4,0,0,0,788.558899
813,-1802,5,1,0,1,72.254974
1198,1745,1,0,0,0,652.246582
1521,161,2,1,0,1,72.254974
-283,288,3,0,0,0,1048.067871
-917,-1103,4,1,0,1,72.254974
394,-1785,5,0,0,0,646.082642
450,1274,1,1,0,1,72.254974
1369,1230,2,0,0,0,644.149475
-191,647,3,0,0,0,900.149780
-45,-696,4,0,0,0,948.953918
1270,-620,5,0,0,0,719.664856
745,1837,1,1,0,1,72.254974
1950,1886,2,0,0,0,534.125793
-473,425,3,0,0,0,917.171814
-475,-623,4,1,0,1,72.254974
137,-750,5,0,0,0,897.043335
1342,1368,1,0,0,0,680.648743
436,369,2,1,0,1,72.254974
-911,1757,3,1,0,1,72.254974
-51,-1295,4,0,0,0,770.665161
630,-1413,5,0,0,0,693.754700
540,1144,1,0,0,0,799.754150
1738,473,2,0,0,0,650.288879
-1871,1574,3,1,0,1,72.254974
-734,-1623,4,0,0,0,679.512207
1024,-879,5,0,0,0,732.893005
1081,1719,1,0,0,0,664.091187
981,590,2,0,0,0,780.123962
-562,107,3,0,0,0,947.627747
-1467,-940,4,0,0,0,685.833191
1420,-937,5,0,0,0,666.586365
1066,1629,1,0,0,0,676.142273
1474,647,2,1,0,1,72.254974
-1581,1181,3,0,0,0,592.546753
-995,-1670,4,1,0,1,72.254974
1129,-714,5,0,0,0,735.818420
298,774,1,1,0,1,72.254974
1432,698,2,0,0,0,685.376648
-134,533,3,0,0,0,959.193970
-1837,-1196,4,0,0,0,620.305054
909,-1799,5,0,0,0,618.240234
862,1768,1,0,0,0,673.198547
474,40,2,0,0,0,1032.979858
-480,1509,3,0,0,0,655.212280
-658,-1470,4,0,0,0,708.344360
361,-1597,5,0,0,0,677.543762
45,886,1,0,0,0,901.856934
1981,638,2,1,0,1,72.254974
-836,1390,3,0,0,0,648.351013
-71,-338,4,1,0,1,72.254974
1750,-1454,5,0,0,0,583.826477
625,1862,1,0,0,0,673.612793
1027,686,2,1,0,1,72.254974
-1167,1580,3,1,0,1,72.254974
-357,-1675,4,1,0,1,72.254974
1214,-1447,5,0,0,0,636.745605
567,1019,1,0,0,0,823.161926
1869,380,2,0,0,0,633.978333
-1590,1681,3,0,0,0,547.513062
-1333,-556,4,0,0,0,739.570496
1832,-1328,5,0,0,0,585.390442
10,63,1,1,0,0,935.601013
1216,1100,2,0,0,0,677.121582
-208,1260,3,1,0,1,72.254974
-859,-149,4,0,0,0,884.677551
1946,-608,5,0,0,0,614.989807
344,510,1,1,0,1,72.254974
503,142,2,0,0,0,1005.830017
-1529,208,3,1,0,1,72.254974
-1786,-1540,4,0,0,0,599.521423
29,-1883,5,0,0,0,637.590149
432,1447,1,0,0,0,748.900513
819,135,2,1,0,1,72.254974
-1792,1459,3,0,0,0,547.879761
-846,-1306,4,0,0,0,718.202454
766,-1203,5,0,0,0,717.058777
104,1149,1,0,0,0,826.243774
1358,455,2,0,0,0,715.850464
-998,1779,3,0,0,0,583.158630
-764,-955,4,1,0,1,72.254974
711,-1344,5,0,0,0,698.719788
1074,1309,1,1,0,1,72.254974
1019,690,2,0,0,0,759.351807
-270,124,3,0,0,0,1136.528687
-1773,-1643,4,0,0,0,592.510132
695,-174,5,0,0,0,914.949951
102,254,1,1,0,0,321.436371
556,498,2,1,0,1,72.254974
-1284,417,3,0,0,0,700.820007
-1735,-1062,4,0,0,0,641.590332
1475,-926,5,0,0,0,659.899963
1846,1870,1,0,0,0,590.694336
1793,636,2,0,0,0,634.693726
-1330,342,3,1,0,1,72.254974
-1572,-1891,4,1,0,1,72.254974
1921,-1497,5,0,0,0,564.560852
967,1468,1,0,0,0,705.350098
1489,1227,2,0,0,0,630.684143
-464,1136,3,0,0,0,728.168274
-1973,-335,4,0,0,0,646.253540
1799,-150,5,0,0,0,649.651489
438,821,1,1,0,1,72.254974
1931,1326,2,0,0,0,575.575439
-1514,1489,3,0,0,0,571.767517
-1817,-840,4,1,0,1,72.254974
964,-33,5,1,0,1,72.254974
1604,1797,1,1,0,1,72.254974
1910,26,2,0,0,0,633.539795
-1258,1860,3,0,0,0,555.977722
-1384,-81,4,1,0,1,72.254974
1065,-961,5,0,0,0,715.393494
0,1987,1,0,0,0,670.299133
1862,1280,2,0,0,0,585.788940
-675,989,3,0,0,0,735.197205
-1610,-1520,4,0,0,0,617.446411
355,-1819,5,0,0,0,642.154175
674,998,1,0,0,0,813.905396
1227,243,2,1,0,1,72.254974
-1151,1277,3,0,0,0,631.768738
-1237,-329,4,0,0,0,774.232422
363,-1638,5,1,0,1,72.254974
870,1796,1,0,0,0,669.061401
1618,532,2,1,0,1,72.254974
-1820,1873,3,0,0,0,513.468323
-1006,-227,4,0,0,0,836.334656
1697,-649,5,1,0,1,72.254974
287,1222,1,0,0,0,801.987915
396,382,2,1,0,1,72.254974
-357,1656,3,1,0,1,72.254974
-1895,-1826,4,1,0,1,72.254974
1717,-209,5,0,0,0,661.859070
316,1659,1,0,0,0,716.828247
1895,1609,2,0,0,0,558.756653
-501,1078,3,1,0,1,72.254974
-1337,-1139,4,1,0,1,72.254974
754,-471,5,0,0,0,852.817078
24,720,1,0,0,0,961.835754
1936,365,2,1,0,1,72.254974
-330,264,3,0,0,0,1034.923828
-189,-845,4,1,0,1,72.254974
297,-1171,5,0,0,0,764.662415
440,1820,1,0,0,0,687.279724
1353,577,2,0,0,0,708.212769
-917,850,3,0,0,1,72.254974
-326,-1238,4,0,0,0,774.187500
747,-1952,5,1,0,1,72.254974
81,462,1,1,0,1,72.254974
1590,708,2,1,0,1,72.254974
-109,641,3,0,0,0,910.760437
-1979,-432,4,0,0,0,642.801697
683,-1187,5,0,0,0,728.685730
1869,1879,1,0,0,0,588.266846
159,138,2,0,0,0,1268.078735
-1077,633,3,0,0,0,723.042664
-884,-898,4,1,0,1,72.254974
34,-293,5,1,0,0,251.771820
1083,1832,1,0,0,0,650.698181
1739,1188,2,0,0,0,605.757080
-860,1181,3,1,0,1,72.254974
-3,-1721,4,0,0,0,689.355164
1820,-1759,5,0,0,0,553.672058
651,916,1,0,0,0,833.803467
1944,1385,2,0,0,0,570.251038
-1303,1007,3,0,0,0,644.033203
-878,-320,4,0,0,0,864.694641
144,-1394,5,0,0,0,722.076233
356,939,1,0,0,0,866.167786
541,102,2,1,0,1,72.254974
-1753,226,3,0,0,0,623.870178
-712,-708,4,0,0,0,844.023132
1323,-695,5,0,0,0,703.665161
390,681,1,1,0,1,72.254974
312,153,2,0,0,0,1123.529907
-976,752,3,0,0,1,72.254974
-35,-1885,4,1,0,1,72.254974
43,-1181,5,0,0,0,770.981201
96,1354,1,0,0,0,779.508118
1164,661,2,0,0,0,735.226440
-1987,837,3,0,0,0,567.459106
-1210,-271,4,0,0,0,783.357971
24,-618,5,0,0,0,957.319641
1629,1953,1,0,0,0,599.969788
1570,178,2,0,0,0,687.720215
-289,1669,3,0,0,0,635.998779
-1835,-238,4,0,0,0,668.631714
1233,-792,5,0,0,0,709.274719
1166,1978,1,0,0,0,629.044922
901,38,2,0,0,0,848.709656
-823,136,3,1,0,1,72.254974
-469,-965,4,0,0,0,824.949646
185,-1575,5,0,0,0,686.677429
1399,1603,1,0,0,0,650.770630
1833,566,2,0,0,0,632.316345
-1558,1680,3,0,0,0,550.282471
-1957,-912,4,0,0,0,624.617432
525,-913,5,0,0,0,804.080872
1067,421,2,0,0,0,779.547729
-1983,898,3,0,0,0,564.748657
-1620,-470,4,0,0,0,695.099609
526,-1642,5,0,0,0,662.765442
1651,1202,2,0,0,0,614.510620
-28,811,3,0,0,0,846.971375
-1369,-1239,4,0,0,0,669.241638
1478,-32,5,0,0,0,706.765808
1299,586,2,0,0,0,717.282043
-594,516,3,0,0,0,855.850952
-512,-446,4,0,0,0,956.674500
183,-704,5,0,0,0,910.582825
1564,1199,2,0,0,0,624.652954
-530,495,3,0,0,0,879.322998
-60,-1310,4,1,0,1,72.254974
1237,-172,5,0,0,0,755.122620
1974,1514,2,1,0,1,72.254974
-439,309,3,0,0,0,965.953613
-1213,-1593,4,0,0,0,646.108704
213,-80,5,1,0,0,349.806458
1904,1629,2,0,0,0,556.513062
-1911,1007,3,0,0,0,566.935791
-488,-1537,4,0,0,0,707.977539
1738,-207,5,0,0,0,658.476318
1370,662,2,0,0,0,698.516357
-1336,1146,3,0,0,0,625.054138
-1865,-1289,4,1,0,1,72.254974
302,-23,5,0,0,0,1163.170288
974,645,2,0,0,0,774.299744
-1429,1536,3,0,0,0,575.198364
-555,-1473,4,0,0,0,714.903503
806,-803,5,0,0,0,781.890137
1046,274,2,0,0,0,796.510559
-1559,256,3,0,0,0,655.866211
-1934,-579,4,0,0,0,643.759644
843,-128,5,0,0,0,864.833923
1990,748,2,0,0,0,603.087097
-1836,1311,3,1,0,1,72.254974
-1400,-852,4,0,0,0,703.351257
1184,-509,5,1,0,1,72.254974
1778,740,2,1,0,1,72.254974
-1423,911,3,0,0,0,636.707336
-1089,-1379,4,0,0,0,683.409668
346,-526,5,1,0,1,72.254974
1846,1676,2,0,0,0,557.918396
-109,927,3,1,0,1,72.254974
-1803,-1877,4,1,0,1,72.254974
1704,-1650,5,0,0,0,572.032043
-787,572,3,0,0,0,794.800354
-1314,-825,4,0,0,0,719.041138
1631,-1071,5,0,0,0,627.485535
-1555,1294,3,0,0,0,585.507751
-1378,-805,4,0,0,0,710.960388
295,-428,5,0,0,0,1007.402405
-36,1497,3,0,0,0,671.175171
-718,-1154,4,0,0,0,757.010620
1431,-1851,5,1,0,1,72.254974
-1807,750,3,0,0,0,594.993713
-330,-1937,4,0,0,0,651.480469
1345,-771,5,1,0,1,72.254974
-1245,1085,3,0,0,0,643.226013
-1937,-1893,4,1,0,1,72.254974
1193,-720,5,0,0,0,723.714355
-1963,1711,3,0,0,0,514.285400
-1500,-815,4,0,0,0,691.674438
318,-1216,5,0,0,0,753.291992
-634,864,3,0,0,0,767.031250
-1244,-366,4,1,0,1,72.254974
825,-474,5,0,0,0,833.284485
-501,901,3,0,0,0,778.160339
-1454,-295,4,0,0,0,731.867981
1123,-1002,5,0,0,0,701.642334
-583,1321,3,0,0,0,681.576904
-1368,-1610,4,0,0,0,630.800781
390,-335,5,0,0,0,1010.575623
-666,797,3,0,0,0,776.019470
-1553,-1237,4,0,0,0,648.514404
1889,-656,5,0,0,0,620.500793
-869,896,3,0,0,1,72.254974
-662,-426,4,0,0,0,914.073792
1436,-1024,5,0,0,0,656.294800
-1898,247,3,0,0,0,601.224243
-648,-780,4,0,0,0,841.184265
178,-808,5,0,0,0,873.499878
-1867,204,3,0,0,0,606.603394
-1613,-217,4,0,0,0,705.339783
1854,-1118,5,0,0,0,597.914490
-729,1817,3,0,0,0,594.801758
-298,-1674,4,0,0,0,692.815552
382,-1453,5,0,0,0,702.148865
-44,1331,3,0,0,0,704.725525
-846,-1988,4,1,0,1,72.254974
708,-1382,5,0,0,0,692.699463
-1252,439,3,0,0,0,705.801086
-110,-1217,4,0,0,0,787.562561
208,-75,5,0,0,0,1253.942261
-740,426,3,0,0,0,832.327454
-841,-666,4,0,0,0,824.993042
659,-746,5,0,0,0,820.307373
-1281,999,3,0,0,0,647.919678
-1290,-1140,4,0,0,0,689.266235
1450,-889,5,0,0,0,666.662659
-530,267,3,1,0,1,72.254974
-439,-734,4,0,0,0,890.199951
1916,-1815,5,0,0,0,541.877502
-1342,1010,3,0,0,0,638.404236
-1284,-1112,4,0,0,0,693.106689
643,-742,5,0,0,0,824.247864
-821,321,3,1,0,1,72.254974
-695,-1830,4,0,0,0,652.554382
1690,-1403,5,0,0,0,593.817383
-491,316,3,0,0,0,941.743896
-1627,-1774,4,0,0,0,593.699707
404,-1424,5,0,0,0,706.407043
-726,1551,3,0,0,0,632.874756
-1225,-766,4,1,0,1,72.254974
878,-896,5,0,0,0,753.845337
-1229,990,3,1,0,1,72.254974
-882,-454,4,1,0,1,72.254974
1304,-1831,5,0,0,0,587.253601
-1923,1921,3,0,0,0,502.276031
-980,-1372,4,0,0,0,695.225830
1268,-634,5,0,0,0,718.772583
-1289,1408,3,1,0,1,72.254974
-1509,-1600,4,1,0,1,72.254974
246,-1215,5,1,0,1,72.254974
-861,1055,3,0,0,1,72.254974
-1859,-115,4,0,0,0,666.756531
1050,-117,5,0,0,0,803.177551
-900,874,3,1,0,1,72.254974
-1206,-1121,4,1,0,1,72.254974
482,-1921,5,1,0,1,72.254974
-817,1124,3,1,0,1,72.254974
-1475,-1939,4,0,0,0,590.284912
903,-881,5,0,0,0,752.225037
-514,67,3,0,0,0,976.058167
-1778,-337,4,0,0,0,674.990479
340,-15,5,1,0,1,72.254974
-800,232,3,0,0,0,839.455566
-933,-280,4,1,0,1,72.254974
1152,-1066,5,0,0,0,689.630859
-1787,117,3,0,0,0,620.139282
-1961,-996,4,1,0,1,72.254974
863,-540,5,0,0,0,813.842285
-1271,537,3,1,0,1,72.254974
1390,-1156,5,0,0,0,649.234680
-1297,1728,3,0,0,0,566.868225
1431,-1448,5,1,0,1,72.254974
-1700,404,3,1,0,1,72.254974
228,-454,5,0,0,0,1014.011047
-1426,1032,3,1,0,1,72.254974
838,-1297,5,0,0,0,694.294922
-1989,1282,3,0,0,0,541.185913
1147,-935,5,0,0,0,706.482788
-1012,1400,3,0,0,0,630.396423
1973,-402,5,0,0,0,618.532898
-299,1095,3,1,0,1,72.254974
1549,-1670,5,0,0,0,583.506714
-1496,1171,3,0,0,0,603.339905
592,-178,5,0,0,0,957.452271
-1739,1640,3,0,0,0,538.345459
1222,-423,5,1,0,1,72.254974
-665,1620,3,0,0,0,626.513428
392,-1291,5,0,0,0,732.961792
-1078,1024,3,0,0,1,72.254974
435,-1479,5,1,0,1,72.254974
-1257,1319,3,0,0,0,615.223206
536,-356,5,1,0,1,72.254974
-910,311,3,0,0,0,798.137695
419,-1767,5,0,0,0,647.956543
-1671,979,3,0,0,0,597.881104
1043,-1968,5,0,0,0,589.862732
-1414,796,3,0,0,0,648.241699
1459,-996,5,0,0,0,655.835388
-1706,124,3,0,0,0,633.208618
905,-785,5,0,0,0,767.062744
-832,84,3,0,0,0,838.328796
1601,-491,5,0,0,0,671.103882
-1556,1843,3,0,0,0,535.804504
658,-1353,5,0,0,0,701.740906
-853,1622,3,0,0,0,613.575378
1855,-169,5,1,0,1,72.254974
-941,250,3,1,0,1,72.254974
856,-1992,5,1,0,1,72.254974
-986,1652,3,0,0,0,599.762939
70,-998,5,0,0,0,818.848267
-1171,1346,3,0,0,0,621.212830
841,-945,5,0,0,0,751.439819
-241,1286,3,0,0,0,709.789429
1621,-1539,5,1,0,1,72.254974
-1780,334,3,1,0,1,72.254974
561,-1178,5,0,0,0,742.567444
7,-890,5,1,0,1,72.254974
988,-191,5,0,0,0,817.174500
80,-457,5,0,0,0,1040.182129


each generation good chromosome number
1,1,2,