Algorithm result
CBSD number,DP,,,DP single crossover,,
5,642.143677,15.0,267.0,641.829834,24.5,267.0
6,642.928589,19.0,267.0,643.222046,19.9,267.0
7,643.299622,17.9,267.0,643.312256,18.5,267.0
8,643.298706,17.9,267.0,643.316223,17.9,267.0
9,642.886841,20.299999,267.0,642.986877,29.1,267.0
10,642.95282,31.200001,267.0,643.230774,25.200001,267.0
11,643.150635,38.599998,267.0,643.031921,27.1,267.0
12,642.883911,30.799999,267.0,642.806763,29.6,267.0
13,643.320862,27.799999,267.0,643.228638,27.4,267.0
14,643.157593,35.599998,266.0,643.137573,38.099998,267.0
15,643.047485,34.900002,267.0,643.337036,41.200001,267.0
16,642.88208,41.5,267.0,642.471436,32.099998,267.0
17,642.701355,61.5,266.0,642.031494,49.900002,266.0
18,642.678894,46.099998,266.0,642.090088,54.599998,266.0
19,642.640686,62.5,267.0,642.585876,56.200001,267.0
20,642.25061,77.5,267.0,641.520691,66.300003,267.0
21,641.892883,71.199997,266.0,640.809692,69.800003,266.0
22,639.21106,79.800003,267.0,639.637085,76.599998,267.0
23,637.902893,74.620003,267.0,638.087219,72.25,267.0
24,623.809692,71.199997,267.0,624.253296,71.099998,267.0
25,620.764343,77.910004,266.0,620.478882,78.129997,266.0
26,556.524658,62.75,266.0,583.161743,68.410004,266.0
27,482.271942,51.66,266.0,427.141754,48.939999,266.0
28,331.616577,32.630001,266.0,270.475952,28.84,263.0
29,183.412308,19.35,260.0,168.450897,12.62,266.0
30,113.820282,5.98,257.0,89.374054,4.77,222.0
""
BS power
CBSD number,DP,,,,DP single crossover,,,
5,70.0,4.0,40.0,0.847,70.0,4.0,40.0,0.80925
6,70.0,4.0,40.0,0.74375,70.0,4.0,40.0,0.80925
7,70.0,4.0,40.0,0.7625,70.0,4.0,40.0,0.7845
8,70.0,4.0,40.0,0.7845,70.0,4.0,40.0,0.80325
9,70.0,4.0,40.0,0.7625,70.0,4.0,40.0,0.78125
10,70.0,4.0,40.0,0.7845,70.0,4.0,40.0,0.75625
11,70.0,4.0,40.0,0.73125,70.0,4.0,40.0,0.83125
12,70.0,4.0,40.0,0.76875,70.0,4.0,40.0,0.71875
13,70.0,4.0,40.0,0.76875,70.0,4.0,40.0,0.772
14,70.0,4.0,40.0,0.775,70.0,4.0,40.0,0.797
15,70.0,4.0,40.0,0.7655,70.0,4.0,40.0,0.775
16,70.0,4.0,40.0,0.75925,70.0,4.0,40.0,0.75325
17,70.0,4.0,40.0,0.74075,70.0,4.0,40.0,0.7625
18,70.0,4.0,40.0,0.80325,70.0,4.0,40.0,0.71875
19,70.0,4.0,40.0,0.775,70.0,4.0,40.0,0.8125
20,70.0,4.0,40.0,0.7375,70.0,4.0,40.0,0.7625
21,69.875,4.0,39.875,0.75625,69.75,4.0,39.75,0.7655
22,69.625,4.0,39.625,0.75925,70.125,4.0,39.375,0.7875
23,69.738,4.0,39.213,0.74525,69.762,4.0,39.088,0.766
24,70.05,4.0,38.775,0.79,70.037,4.0,38.763,0.806
25,70.963,4.0,37.888,0.82275,70.963,4.0,38.037,0.81725
26,70.512,4.0,35.938,0.859,71.775,4.0,36.6,0.8905
27,71.363,4.0,34.463,0.93525,71.088,4.0,34.638,0.902
28,71.012,5.0,32.987,0.7498,70.85,5.0,32.825,0.767
29,69.512,4.0,32.388,0.897,71.25,5.0,30.3,0.8038000000000001
30,67.375,5.0,29.875,0.7488,61.088,4.0,24.487,0.91875
