each times' max average throughput
579.436646,0.000000,504.753845,0.000000,561.257935,578.048096,559.420288,0.000000,546.737549,476.280273,0.000000,572.584106,566.533875,454.723541,476.035675,0.000000,0.000000,531.251587,569.038818,571.976501,0.000000,563.007507,453.242432,559.860840,547.943909,578.914978,471.574585,445.864441,463.267517,482.210480,553.508240,475.707947,0.000000,0.000000,555.039185,487.131409,563.446411,478.107391,574.220642,562.761353,565.492920,451.049774,565.780396,0.000000,499.455597,506.522461,552.619629,576.232178,0.000000,437.492615,559.279358,567.766663,546.379517,554.325134,0.000000,0.000000,0.000000,496.087708,471.933228,0.000000,0.000000,551.800232,467.683929,480.793945,441.938171,462.025452,562.181641,0.000000,492.628143,488.604248,0.000000,446.836609,494.646057,0.000000,569.521240,0.000000,0.000000,450.966125,505.437012,514.144287,0.000000,446.819489,540.585754,490.802490,557.109314,499.352264,449.719116,448.802765,446.904541,0.000000,0.000000,570.291504,502.316437,461.049957,441.352448,0.000000,556.262146,463.700012,455.308105,576.054565,
avg. throughput in all test times
385.499481
avg. BS TX power in all test times
MBS area 1,MBS area 2,MBS area 3,MBS area 4,MBS area 5,MBS area 6,CBSD 1,CBSD 2,CBSD 3,CBSD 4,CBSD 5,CBSD 6,
6.787,6.650,7.025,7.100,7.238,7.025,0.130,0.116,0.058,0.052,0.083,0.106,
avg. mbs all power,avg. cbsd enable number,avg. mbs area all power,avg. cbsd all power
47.375,0.000,41.825,0.545
avg. max avg. throughput generation number in all test times
0.610000
avg. number of relay UE
115

the max average throughput times

BS TX power
MBS area 1,MBS area 2,MBS area 3,MBS area 4,MBS area 5,MBS area 6,CBSD 1,CBSD 2,CBSD 3,CBSD 4,CBSD 5,CBSD 6,
6.250,8.750,10.000,5.000,10.000,8.750,0.000,0.000,0.000,0.000,0.000,0.000,
max average throughput
576.054565

x,y,area,be blocked (1 : NLOS / 0 : LOS),be blocked number (>=1 : CBSD(x) / 0 : no),connect bs number (>=1 : CBSD / 0 : MBS),throughput (unit : M bps)
24,1130,1,0,0,0,783.785645
1394,524,2,0,0,0,752.895508
-1621,874,3,0,0,0,711.144348
-639,1858,4,0,0,0,593.784973
-1103,-297,5,1,0,0,17.660278
1102,-110,6,0,0,0,838.004395
170,360,1,0,0,0,1084.306274
1589,1139,2,0,0,0,674.931213
-1651,122,3,0,0,0,741.683594
-711,1002,4,1,0,0,7.358051
-1548,-1430,5,0,0,0,672.564880
647,-1338,6,0,0,0,753.476257
826,859,1,0,0,0,768.580566
1454,344,2,1,0,0,7.164419
-1374,1320,3,1,0,0,3.992474
-163,1741,4,0,0,0,626.930664
-1089,-1397,5,1,0,0,4.952420
516,-614,6,0,0,0,930.907959
208,1235,1,0,0,0,754.321228
744,182,2,0,0,0,944.173889
-1843,1071,3,0,0,0,669.305115
-169,896,4,0,0,0,813.447266
-1172,-1785,5,0,0,0,668.799133
169,-54,6,0,0,0,1365.993042
446,577,1,0,0,0,909.839050
1907,96,2,0,0,0,681.685181
-1349,1104,3,0,0,0,726.887329
-26,539,4,0,0,0,964.464172
-1263,-1522,5,0,0,0,690.719604
1272,-834,6,0,0,0,746.832642
706,1904,1,0,0,0,616.121094
1913,422,2,1,0,0,3.222738
-1420,524,3,1,0,0,7.857123
-808,1261,4,1,0,0,4.108710
-99,-509,5,1,0,0,125.825073
358,-1158,6,0,0,0,812.049255
985,1346,1,1,0,0,3.723207
1587,347,2,0,0,0,727.959473
-904,685,3,0,0,0,850.349976
-8,1796,4,0,0,0,619.315308
-438,-820,5,1,0,0,31.216726
1128,-1171,6,1,0,0,5.590365
4,1389,1,1,0,0,6.386951
1353,384,2,0,0,0,769.315735
-508,86,3,0,0,0,1077.715942
-407,1874,4,0,0,0,600.678101
-406,-850,5,0,0,0,903.809998
463,-34,6,0,0,0,1088.509399
493,1919,1,0,0,0,623.124939
1693,1378,2,0,0,0,643.452271
-1936,1690,3,0,0,0,615.984375
-629,789,4,1,0,0,13.021798
-390,-1209,5,1,0,0,13.050175
307,-1107,6,1,0,0,15.318275
1089,1685,1,0,0,0,619.561035
601,101,2,0,0,0,1010.052002
-1649,1459,3,1,0,0,2.599721
-1483,1515,4,0,0,0,572.232727
-1787,-1661,5,1,0,0,1.915412
416,-220,6,0,0,0,1084.595093
427,1302,1,0,0,0,728.527344
931,679,2,0,0,0,826.591370
-1879,691,3,0,0,0,687.234497
-1059,1583,4,0,0,0,602.628601
-86,-1999,5,0,0,0,687.403137
2,-60,6,1,0,0,961.825623
768,819,1,1,0,0,11.863602
1665,104,2,0,0,0,720.341980
-473,425,3,0,0,0,1017.046631
-283,288,4,0,0,0,1048.067871
-1442,-1523,5,0,0,0,673.932922
1403,-922,6,0,0,0,718.528137
61,1770,1,1,0,0,3.116474
1348,133,2,0,0,0,780.112610
-1871,1574,3,1,0,0,1.903090
-191,647,4,0,0,0,900.149780
-1862,-115,5,0,0,0,707.445007
1767,-345,6,0,0,0,698.511353
93,1290,1,1,0,0,7.870591
1719,1625,2,0,0,0,620.565308
-562,107,3,0,0,0,1047.526367
-911,1757,4,1,0,0,1.794796
-1564,-1096,5,0,0,0,700.732727
428,-1826,6,0,0,0,686.812866
294,1916,1,1,0,0,2.382946
486,337,2,1,0,0,86.473160
-1581,1181,3,0,0,0,691.354980
-134,533,4,0,0,0,959.193970
-648,-298,5,1,0,0,61.817284
836,-878,6,0,0,0,811.985596
293,868,1,0,0,0,844.177551
1051,286,2,0,0,0,842.786865
-1529,208,3,1,0,0,7.426431
-480,1509,4,0,0,0,655.212280
-290,-738,5,1,0,0,47.436237
372,-482,6,0,0,0,1010.321655
682,1968,1,0,0,0,608.910278
1679,827,2,0,0,0,687.403381
-1792,1459,3,0,0,0,646.253052
-836,1390,4,0,0,0,648.351013
-1071,-787,5,0,0,0,804.754761
1088,-230,6,0,0,0,836.820312
632,1914,1,0,0,0,618.235474
1097,214,2,0,0,0,835.366699
-270,124,3,0,0,0,1236.501343
-1167,1580,4,1,0,0,1.835641
-515,-743,5,0,0,0,915.654236
7,-1633,6,0,0,0,726.459778
980,1535,1,0,0,0,647.146606
1703,364,2,0,0,0,708.035461
-1284,417,3,0,0,0,800.258545
-1590,1681,4,0,0,0,547.513062
-1444,-1310,5,0,0,0,694.816528
769,-1112,6,0,0,0,780.652771
1645,1666,1,0,0,0,575.716248
1214,835,2,1,0,0,7.462871
-1330,342,3,1,0,0,10.426089
-208,1260,4,1,0,0,6.570390
-282,-830,5,1,0,0,36.528599
1500,-992,6,0,0,0,698.831970
1283,1306,1,0,0,0,645.645203
1813,76,2,0,0,0,696.258301
-1514,1489,3,0,0,0,670.390198
-998,1779,4,0,0,0,583.158630
-1986,-703,5,0,0,0,672.655029
936,-1582,6,1,0,0,3.891916
590,1468,1,1,0,0,4.352748
213,151,2,0,0,0,1254.521973
-330,264,3,0,0,0,1134.868530
-464,1136,4,0,0,0,728.168274
-1210,-137,5,0,0,0,829.910156
813,-1802,6,1,0,0,3.136838
1198,1745,1,0,0,0,604.330261
1521,161,2,1,0,0,6.690019
-917,850,3,0,0,0,822.306396
-1258,1860,4,0,0,0,555.977722
-917,-1103,5,1,0,0,9.188859
394,-1785,6,0,0,0,694.156677
450,1274,1,1,0,0,6.926078
1369,1230,2,0,0,0,692.217102
-1077,633,3,0,0,0,822.561462
-675,989,4,0,0,0,735.197205
-45,-696,5,0,0,0,990.407288
1270,-620,6,0,0,0,767.926331
745,1837,1,1,0,0,2.229313
1950,1886,2,0,0,0,581.648132
-1303,1007,3,0,0,0,743.200134
-1151,1277,4,0,0,0,631.768738
-475,-623,5,1,0,0,48.918659
137,-750,6,0,0,0,945.503845
1342,1368,1,0,0,0,632.620728
436,369,2,1,0,0,93.456520
-1753,226,3,0,0,0,722.911743
-1820,1873,4,0,0,0,513.468323
-51,-1295,5,0,0,0,811.995972
630,-1413,6,0,0,0,741.960754
540,1144,1,0,0,0,751.437073
1738,473,2,0,0,0,698.376343
-976,752,3,0,0,0,826.535278
-357,1656,4,1,0,0,2.851483
-734,-1623,5,0,0,0,720.690674
1024,-879,6,0,0,0,781.179138
1081,1719,1,0,0,0,616.125549
981,590,2,0,0,0,828.481750
-1987,837,3,0,0,0,666.039795
-501,1078,4,1,0,0,8.102859
-1467,-940,5,0,0,0,727.025574
1420,-937,6,0,0,0,714.722534
1066,1629,1,0,0,0,628.130493
1474,647,2,1,0,0,5.757253
-823,136,3,1,0,0,41.617798
-109,641,4,0,0,0,910.760437
-995,-1670,5,1,0,0,3.762252
1129,-714,6,0,0,0,784.109680
298,774,1,1,0,0,27.813124
1432,698,2,0,0,0,733.562500
-1983,898,3,0,0,0,663.302368
-860,1181,4,1,0,0,4.421500
-1837,-1196,5,0,0,0,661.318481
909,-1799,6,0,0,0,666.214233
862,1768,1,0,0,0,625.197693
474,40,2,0,0,0,1081.490601
-594,516,3,0,0,0,955.659485
-289,1669,4,0,0,0,635.998779
-658,-1470,5,0,0,0,749.581726
361,-1597,6,0,0,0,725.709656
45,886,1,0,0,0,853.425415
1981,638,2,1,0,0,2.692660
-530,495,3,0,0,0,979.160339
-1558,1680,4,0,0,0,550.282471
-71,-338,5,1,0,0,251.376556
1750,-1454,6,0,0,0,631.646912
625,1862,1,0,0,0,625.610413
1027,686,2,1,0,0,12.452619
-439,309,3,0,0,0,1065.864380
-28,811,4,0,0,0,846.971375
-357,-1675,5,1,0,0,5.469307
1214,-1447,6,0,0,0,684.788208
567,1019,1,0,0,0,774.811096
1869,380,2,0,0,0,682.011230
-1911,1007,3,0,0,0,665.511353
-1429,1536,4,0,0,0,575.198364
-1333,-556,5,0,0,0,780.859680
1832,-1328,6,0,0,0,633.218628
10,63,1,1,0,0,887.146301
1216,1100,2,0,0,0,725.286438
-1336,1146,3,0,0,0,724.103577
-109,927,4,1,0,0,16.264793
-859,-149,5,0,0,0,926.103027
1946,-608,6,0,0,0,662.950867
344,510,1,1,0,0,60.508091
503,142,2,0,0,0,1054.333984
-1559,256,3,0,0,0,755.098938
-36,1497,4,0,0,0,671.175171
-1786,-1540,5,0,0,0,640.458740
29,-1883,6,0,0,0,685.635681
432,1447,1,0,0,0,700.678650
819,135,2,1,0,0,37.512920
-1836,1311,3,1,0,0,2.418247
-634,864,4,0,0,0,767.031250
-846,-1306,5,0,0,0,759.457458
766,-1203,6,0,0,0,765.315063
104,1149,1,0,0,0,777.888855
1358,455,2,0,0,0,764.104370
-1423,911,3,0,0,0,735.830750
-501,901,4,0,0,0,778.160339
-764,-955,5,1,0,0,14.548472
711,-1344,6,0,0,0,746.937256
1074,1309,1,1,0,0,3.560827
1019,690,2,0,0,0,807.680969
-787,572,3,0,0,0,894.507935
-583,1321,4,0,0,0,681.576904
-1773,-1643,5,0,0,0,633.419128
695,-174,6,0,0,0,963.420044
102,254,1,1,0,0,278.980927
556,498,2,1,0,0,49.403374
-1555,1294,3,0,0,0,684.256104
-666,797,4,0,0,0,776.019470
-1735,-1062,5,0,0,0,682.671143
1475,-926,6,0,0,0,708.016785
1846,1870,1,0,0,0,543.110229
1793,636,2,0,0,0,682.729187
-1807,750,3,0,0,0,693.822083
-869,896,4,0,0,0,723.285339
-1572,-1891,5,1,0,0,1.870855
1921,-1497,6,0,0,0,612.277832
967,1468,1,0,0,0,657.241150
1489,1227,2,0,0,0,678.705261
-1245,1085,3,0,0,0,742.388306
-729,1817,4,0,0,0,594.801758
-1973,-335,5,0,0,0,687.347595
1799,-150,6,0,0,0,697.736938
438,821,1,1,0,0,20.232758
1931,1326,2,0,0,0,623.353271
-1963,1711,3,0,0,0,612.229126
-44,1331,4,0,0,0,704.725525
-1817,-840,5,1,0,0,3.449288
964,-33,6,1,0,0,25.004074
1604,1797,1,1,0,0,1.246820
1910,26,2,0,0,0,681.571106
-1898,247,3,0,0,0,700.102295
-726,1551,4,0,0,0,632.874756
-1384,-81,5,1,0,0,10.143362
1065,-961,6,0,0,0,763.646423
0,1987,1,0,0,0,622.309265
1862,1280,2,0,0,0,633.619141
-1867,204,3,0,0,0,705.522644
-1289,1408,4,1,0,0,1.998802
-1610,-1520,5,0,0,0,658.449951
355,-1819,6,0,0,0,690.215149
674,998,1,0,0,0,765.567261
1227,243,2,1,0,0,12.005812
-1252,439,3,0,0,0,805.258728
-861,1055,4,0,0,0,698.343872
-1237,-329,5,0,0,0,815.567688
363,-1638,6,1,0,0,5.096990
870,1796,1,0,0,0,621.076294
1618,532,2,1,0,0,4.875443
-740,426,3,0,0,0,932.102051
-817,1124,4,1,0,0,5.125990
-1006,-227,5,0,0,0,877.728699
1697,-649,6,1,0,0,4.028403
287,1222,1,0,0,0,753.667358
396,382,2,1,0,0,101.402527
-1281,999,3,0,0,0,747.108887
-1297,1728,4,0,0,0,566.868225
-1895,-1826,5,1,0,0,1.528318
1717,-209,6,0,0,0,709.981689
316,1659,1,0,0,0,668.686218
1895,1609,2,0,0,0,606.439636
-530,267,3,1,0,0,94.756485
-1012,1400,4,0,0,0,630.396423
-1337,-1139,5,1,0,0,5.077499
754,-471,6,0,0,0,901.248047
24,720,1,0,0,0,913.366455
1936,365,2,1,0,0,3.169077
-1342,1010,3,0,0,0,737.537903
-299,1095,4,1,0,0,9.268925
-189,-845,5,1,0,0,37.736862
297,-1171,6,0,0,0,812.999268
440,1820,1,0,0,0,639.228577
1353,577,2,0,0,0,756.450928
-821,321,3,1,0,0,35.989697
-665,1620,4,0,0,0,626.513428
-326,-1238,5,0,0,0,815.522705
747,-1952,6,1,0,0,2.658912
81,462,1,1,0,0,112.136246
1590,708,2,1,0,0,4.573550
-491,316,3,0,0,0,1041.638306
-1257,1319,4,0,0,0,615.223206
-1979,-432,5,0,0,0,683.886047
683,-1187,6,0,0,0,776.964233
1869,1879,1,0,0,0,540.698914
159,138,2,0,0,0,1316.615234
-1229,990,3,1,0,0,6.953844
-1556,1843,4,0,0,0,535.804504
-884,-898,5,1,0,0,13.356620
34,-293,6,1,0,0,292.930969
1083,1832,1,0,0,0,602.788574
1739,1188,2,0,0,0,653.679565
-1923,1921,3,0,0,0,600.039856
-853,1622,4,0,0,0,613.575378
-3,-1721,5,0,0,0,730.555359
1820,-1759,6,0,0,0,601.324036
651,916,1,0,0,0,785.438965
1944,1385,2,0,0,0,618.000000
-900,874,3,1,0,0,13.526934
-986,1652,4,0,0,0,599.762939
-878,-320,5,0,0,0,906.108459
144,-1394,6,0,0,0,770.342285
356,939,1,0,0,0,817.767456
541,102,2,1,0,0,101.278206
-514,67,3,0,0,0,1075.974976
-1171,1346,4,0,0,0,621.212830
-712,-708,5,0,0,0,885.423096
1323,-695,6,0,0,0,751.893555
390,681,1,1,0,0,32.307014
312,153,2,0,0,0,1172.055542
-800,232,3,0,0,0,939.241028
-241,1286,4,0,0,0,709.789429
-35,-1885,5,1,0,0,4.119090
43,-1181,6,0,0,0,819.326904
96,1354,1,0,0,0,731.224976
1164,661,2,0,0,0,783.516663
-1787,117,3,0,0,0,719.155701
-1210,-271,5,0,0,0,824.703552
24,-618,6,0,0,0,1005.808228
1629,1953,1,0,0,0,552.326111
1570,178,2,0,0,0,735.911865
-1271,537,3,1,0,0,10.284154
-1835,-238,5,0,0,0,709.784668
1233,-792,6,0,0,0,757.515076
1166,1978,1,0,0,0,581.237610
901,38,2,0,0,0,897.137451
-1700,404,3,1,0,0,5.155315
-469,-965,5,0,0,0,866.334595
185,-1575,6,0,0,0,734.866516
1399,1603,1,0,0,0,602.860718
1833,566,2,0,0,0,680.343323
-1426,1032,3,1,0,0,5.044653
-1957,-912,5,0,0,0,665.645386
525,-913,6,0,0,0,852.466980
1067,421,2,0,0,0,827.904724
-1989,1282,3,0,0,0,639.481506
-1620,-470,5,0,0,0,736.311401
526,-1642,6,0,0,0,710.890686
1651,1202,2,0,0,0,662.469666
-1496,1171,3,0,0,0,702.234314
-1369,-1239,5,0,0,0,710.396301
1478,-32,6,0,0,0,755.000854
1299,586,2,0,0,0,765.538757
-1739,1640,3,0,0,0,636.606934
-512,-446,5,0,0,0,998.130493
183,-704,6,0,0,0,959.050659
1564,1199,2,0,0,0,672.651733
-1078,1024,3,0,0,0,772.526184
-60,-1310,5,1,0,0,11.910878
1237,-172,6,0,0,0,803.445435
1974,1514,2,1,0,0,1.582643
-910,311,3,0,0,0,897.851990
-1213,-1593,5,0,0,0,687.202576
213,-80,6,1,0,0,394.654022
1904,1629,2,0,0,0,604.182495
-1671,979,3,0,0,0,696.732727
-488,-1537,5,0,0,0,749.214294
1738,-207,6,0,0,0,706.588928
1370,662,2,0,0,0,746.733337
-1414,796,3,0,0,0,747.432678
-1865,-1289,5,1,0,0,2.383251
302,-23,6,0,0,0,1211.699951
974,645,2,0,0,0,822.649902
-1706,124,3,0,0,0,732.310486
-555,-1473,5,0,0,0,756.152954
806,-803,6,0,0,0,830.250183
1046,274,2,0,0,0,844.888184
-832,84,3,0,0,0,938.112610
-1934,-579,5,0,0,0,684.846741
843,-128,6,0,0,0,913.273865
1990,748,2,0,0,0,650.997986
-941,250,3,1,0,0,27.534248
-1400,-852,5,0,0,0,744.579529
1184,-509,6,1,0,0,11.014603
1778,740,2,1,0,0,3.390033
-1780,334,3,1,0,0,4.638449
-1089,-1379,5,0,0,0,724.597046
346,-526,6,1,0,0,74.888023
1846,1676,2,0,0,0,605.596313
-1803,-1877,5,1,0,0,1.579547
1704,-1650,6,0,0,0,619.790771
-1314,-825,5,0,0,0,760.297546
1631,-1071,6,0,0,0,675.494934
-1378,-805,5,0,0,0,752.202820
295,-428,6,0,0,0,1055.906860
-718,-1154,5,0,0,0,798.324524
1431,-1851,6,1,0,0,1.900493
-330,-1937,5,0,0,0,692.589355
1345,-771,6,1,0,0,6.430004
-1937,-1893,5,1,0,0,1.402558
1193,-720,6,0,0,0,771.983582
-1500,-815,5,0,0,0,732.879456
318,-1216,6,0,0,0,801.611938
-1244,-366,5,1,0,0,12.302241
825,-474,6,0,0,0,881.699280
-1454,-295,5,0,0,0,773.145691
1123,-1002,6,0,0,0,749.866272
-1368,-1610,5,0,0,0,671.848633
390,-335,6,0,0,0,1059.080933
-1553,-1237,5,0,0,0,689.614807
1889,-656,6,0,0,0,668.483643
-662,-426,5,0,0,0,955.513489
1436,-1024,6,0,0,0,704.400818
-648,-780,5,0,0,0,882.582092
178,-808,6,0,0,0,921.945862
-1613,-217,5,0,0,0,746.571838
1854,-1118,6,0,0,0,645.802307
-298,-1674,5,0,0,0,734.022705
382,-1453,6,0,0,0,750.373901
-846,-1988,5,1,0,0,2.750126
708,-1382,6,0,0,0,740.903015
-110,-1217,5,0,0,0,828.912720
208,-75,6,0,0,0,1302.478027
-841,-666,5,0,0,0,866.378113
659,-746,6,0,0,0,868.710144
-1290,-1140,5,0,0,0,730.465942
1450,-889,6,0,0,0,714.799011
-439,-734,5,0,0,0,931.628357
1916,-1815,6,0,0,0,589.453369
-1284,-1112,5,0,0,0,734.314636
643,-742,6,0,0,0,872.654419
-695,-1830,5,0,0,0,693.665955
1690,-1403,6,0,0,0,641.686279
-1627,-1774,5,0,0,0,634.613647
404,-1424,6,0,0,0,754.641418
-1225,-766,5,1,0,0,8.998251
878,-896,6,0,0,0,802.166138
-882,-454,5,1,0,0,26.162596
1304,-1831,6,0,0,0,635.091003
-980,-1372,5,0,0,0,736.438049
1268,-634,6,0,0,0,767.032288
-1509,-1600,5,1,0,0,2.608352
246,-1215,6,1,0,0,12.319880
-1859,-115,5,0,0,0,707.905090
1050,-117,6,0,0,0,851.562622
-1206,-1121,5,1,0,0,6.140251
482,-1921,6,1,0,0,3.119773
-1475,-1939,5,0,0,0,631.184631
903,-881,6,0,0,0,800.543274
-1778,-337,5,0,0,0,716.158508
340,-15,6,1,0,0,240.824768
-933,-280,5,1,0,0,27.498251
1152,-1066,6,0,0,0,737.827087
-1961,-996,5,1,0,0,2.607997
863,-540,6,0,0,0,862.238586
1390,-1156,6,0,0,0,697.318787
1431,-1448,6,1,0,0,2.875054
228,-454,6,0,0,0,1062.517212
838,-1297,6,0,0,0,742.502197
1147,-935,6,0,0,0,754.717285
1973,-402,6,0,0,0,666.508057
1549,-1670,6,0,0,0,631.325562
592,-178,6,0,0,0,1005.940918
1222,-423,6,1,0,0,10.907470
392,-1291,6,0,0,0,781.247986
435,-1479,6,1,0,0,6.536633
536,-356,6,1,0,0,71.146545
419,-1767,6,0,0,0,696.036560
1043,-1968,6,0,0,0,637.712830
1459,-996,6,0,0,0,703.940063
905,-785,6,0,0,0,815.403015
1601,-491,6,0,0,0,719.252563
658,-1353,6,0,0,0,749.965088
1855,-169,6,1,0,0,3.742144
856,-1992,6,1,0,0,2.384148
70,-998,6,0,0,0,867.249573
841,-945,6,0,0,0,799.756897
1621,-1539,6,1,0,0,2.177450
561,-1178,6,0,0,0,790.870178
7,-890,6,1,0,0,31.136196
988,-191,6,0,0,0,865.574158
80,-457,6,0,0,0,1088.694336


each generation good chromosome number
1,1,2,