each times' max average throughput
0.000000,573.676575,544.846680,458.854950,0.000000,478.707794,562.864502,551.608826,484.252747,0.000000,444.934570,0.000000,0.000000,568.506042,445.164001,0.000000,504.753845,0.000000,551.422607,458.415253,0.000000,559.420288,0.000000,546.737549,467.084808,568.965576,560.394165,0.000000,470.580505,454.723541,573.178345,505.277344,0.000000,531.251587,569.038818,571.976501,0.000000,563.007507,488.698639,568.364441,567.742554,547.943909,578.914978,471.574585,445.864441,463.267517,482.210480,447.444977,553.508240,475.707947,472.259491,0.000000,566.481873,0.000000,563.446411,536.871643,574.220642,548.433228,572.692688,0.000000,0.000000,0.000000,481.205200,551.091431,506.522461,552.619629,576.232178,0.000000,574.575806,513.006470,559.279358,512.350769,546.379517,554.325134,0.000000,567.907837,0.000000,0.000000,496.087708,471.933228,0.000000,0.000000,551.800232,467.683929,480.793945,441.938171,462.025452,562.181641,0.000000,491.578339,492.628143,488.604248,0.000000,0.000000,446.836609,496.014038,0.000000,569.521240,0.000000,0.000000,
avg. throughput in all test times
369.104248
avg. BS TX power in all test times
MBS area 1,MBS area 2,MBS area 3,MBS area 4,MBS area 5,MBS area 6,CBSD 1,CBSD 2,CBSD 3,CBSD 4,CBSD 5,CBSD 6,
6.950,6.725,6.650,6.825,7.137,7.200,0.117,0.071,0.055,0.110,0.007,0.076,
avg. mbs all power,avg. cbsd enable number,avg. mbs area all power,avg. cbsd all power
46.138,0.000,41.487,0.438
avg. max avg. throughput generation number in all test times
0.580000
avg. number of relay UE
100

the max average throughput times

BS TX power
MBS area 1,MBS area 2,MBS area 3,MBS area 4,MBS area 5,MBS area 6,CBSD 1,CBSD 2,CBSD 3,CBSD 4,CBSD 5,CBSD 6,
7.500,6.250,5.000,5.000,5.000,6.250,0.625,0.000,0.000,0.000,0.000,0.750,
max average throughput
569.521240

x,y,area,be blocked (1 : NLOS / 0 : LOS),be blocked number (>=1 : CBSD(x) / 0 : no),connect bs number (>=1 : CBSD / 0 : MBS),throughput (unit : M bps)
24,1130,1,0,0,0,809.984070
1394,524,2,0,0,0,704.664917
-1621,874,3,0,0,0,612.183899
-639,1858,4,0,0,0,593.784973
-1103,-297,5,1,0,1,145.656860
1102,-110,6,0,0,0,789.634766
170,360,1,0,0,0,1110.596802
1589,1139,2,0,0,0,626.923889
-1651,122,3,0,0,0,642.525391
-711,1002,4,1,0,1,145.656860
-1548,-1430,5,0,0,0,573.921692
647,-1338,6,0,0,0,705.244446
826,859,1,0,0,0,794.767273
1454,344,2,1,0,6,305.471436
-1374,1320,3,1,0,1,145.656860
-163,1741,4,0,0,0,626.930664
-1089,-1397,5,1,0,1,145.656860
516,-614,6,0,0,0,882.456177
208,1235,1,0,0,0,780.495605
744,182,2,0,0,0,895.714172
-1843,1071,3,0,0,0,570.692810
-169,896,4,0,0,0,813.447266
-1172,-1785,5,0,0,0,570.191650
169,-54,6,0,0,0,1317.454712
446,577,1,0,0,0,936.098755
1907,96,2,0,0,0,633.653442
-1349,1104,3,0,0,0,627.819763
-26,539,4,0,0,0,964.464172
-1263,-1522,5,0,0,0,591.916626
1272,-834,6,0,0,0,698.615479
706,1904,1,0,0,0,642.088257
1913,422,2,1,0,6,215.438705
-1420,524,3,1,0,1,145.656860
-808,1261,4,1,0,1,145.656860
-99,-509,5,1,0,1,145.656860
358,-1158,6,0,0,0,763.713745
985,1346,1,1,0,6,195.277161
1587,347,2,0,0,0,679.787720
-904,685,3,0,0,0,750.746948
-8,1796,4,0,0,0,619.315308
-438,-820,5,1,0,1,145.656860
1128,-1171,6,1,0,6,106.022652
4,1389,1,1,0,1,145.656860
1353,384,2,0,0,0,721.051636
-508,86,3,0,0,0,977.798096
-407,1874,4,0,0,0,600.678101
-406,-850,5,0,0,0,804.084167
463,-34,6,0,0,0,1039.997192
493,1919,1,0,0,0,649.107849
1693,1378,2,0,0,0,595.575195
-1936,1690,3,0,0,0,517.988220
-629,789,4,1,0,1,145.656860
-390,-1209,5,1,0,1,145.656860
307,-1107,6,1,0,6,80.944397
1089,1685,1,0,0,0,645.535950
601,101,2,0,0,0,961.561829
-1649,1459,3,1,0,1,145.656860
-1483,1515,4,0,0,0,572.232727
-1787,-1661,5,1,0,1,145.656860
416,-220,6,0,0,0,1036.083740
427,1302,1,0,0,0,754.676697
931,679,2,0,0,0,778.236023
-1879,691,3,0,0,0,588.460632
-1059,1583,4,0,0,0,602.628601
-86,-1999,5,0,0,0,588.627869
2,-60,6,1,0,0,913.356323
768,819,1,1,0,6,306.646881
1665,104,2,0,0,0,672.190308
-473,425,3,0,0,0,917.171814
-283,288,4,0,0,0,1048.067871
-1442,-1523,5,0,0,0,575.276978
1403,-922,6,0,0,0,670.381409
61,1770,1,1,0,1,145.656860
1348,133,2,0,0,0,731.828430
-1871,1574,3,1,0,1,145.656860
-191,647,4,0,0,0,900.149780
-1862,-115,5,0,0,0,608.511475
1767,-345,6,0,0,0,650.423462
93,1290,1,1,0,6,61.284706
1719,1625,2,0,0,0,572.802368
-562,107,3,0,0,0,947.627747
-911,1757,4,1,0,1,145.656860
-1564,-1096,5,0,0,0,601.849792
428,-1826,6,0,0,0,638.763306
294,1916,1,1,0,6,68.871758
486,337,2,1,0,6,190.466599
-1581,1181,3,0,0,0,592.546753
-134,533,4,0,0,0,959.193970
-648,-298,5,1,0,1,145.656860
836,-878,6,0,0,0,763.650208
293,868,1,0,0,0,870.411987
1051,286,2,0,0,0,794.411621
-1529,208,3,1,0,1,145.656860
-480,1509,4,0,0,0,655.212280
-290,-738,5,1,0,1,145.656860
372,-482,6,0,0,0,961.831421
682,1968,1,0,0,0,634.859985
1679,827,2,0,0,0,639.351807
-1792,1459,3,0,0,0,547.879761
-836,1390,4,0,0,0,648.351013
-1071,-787,5,0,0,0,705.299011
1088,-230,6,0,0,0,788.452148
632,1914,1,0,0,0,644.207581
1097,214,2,0,0,0,787.000305
-270,124,3,0,0,0,1136.528687
-1167,1580,4,1,0,1,145.656860
-515,-743,5,0,0,0,815.906860
7,-1633,6,0,0,0,678.291870
980,1535,1,0,0,0,673.178711
1703,364,2,0,0,0,659.918518
-1284,417,3,0,0,0,700.820007
-1590,1681,4,0,0,0,547.513062
-1444,-1310,5,0,0,0,595.980164
769,-1112,6,0,0,0,732.367615
1645,1666,1,0,0,0,601.574280
1214,835,2,1,0,6,382.750458
-1330,342,3,1,0,1,145.656860
-208,1260,4,1,0,1,145.656860
-282,-830,5,1,0,1,145.656860
1500,-992,6,0,0,0,650.743042
1283,1306,1,0,0,0,671.674438
1813,76,2,0,0,0,648.177551
-1514,1489,3,0,0,0,571.767517
-998,1779,4,0,0,0,583.158630
-1986,-703,5,0,0,0,574.010986
936,-1582,6,1,0,6,84.367577
590,1468,1,1,0,6,126.494987
213,151,2,0,0,0,1205.988892
-330,264,3,0,0,0,1034.923828
-464,1136,4,0,0,0,728.168274
-1210,-137,5,0,0,0,730.367432
813,-1802,6,1,0,6,75.344604
1198,1745,1,0,0,0,630.268494
1521,161,2,1,0,6,256.886505
-917,850,3,0,0,1,145.656860
-1258,1860,4,0,0,0,555.977722
-917,-1103,5,1,0,1,145.656860
394,-1785,6,0,0,0,646.082642
450,1274,1,1,0,6,123.062874
1369,1230,2,0,0,0,644.149475
-1077,633,3,0,0,0,723.042664
-675,989,4,0,0,0,735.197205
-45,-696,5,0,0,0,890.557800
1270,-620,6,0,0,0,719.664856
745,1837,1,1,0,6,109.269432
1950,1886,2,0,0,0,534.125793
-1303,1007,3,0,0,0,644.033203
-1151,1277,4,0,0,0,631.768738
-475,-623,5,1,0,1,145.656860
137,-750,6,0,0,0,897.043335
1342,1368,1,0,0,0,658.624023
436,369,2,1,0,6,175.984253
-1753,226,3,0,0,0,623.870178
-1820,1873,4,0,0,0,513.468323
-51,-1295,5,0,0,0,712.513611
630,-1413,6,0,0,0,693.754700
540,1144,1,0,0,0,777.608826
1738,473,2,0,0,0,650.288879
-976,752,3,0,0,0,727.003418
-357,1656,4,1,0,1,145.656860
-734,-1623,5,0,0,0,621.663879
1024,-879,6,0,0,0,732.893005
1081,1719,1,0,0,0,642.092773
981,590,2,0,0,0,780.123962
-1987,837,3,0,0,0,567.459106
-501,1078,4,1,0,1,145.656860
-1467,-940,5,0,0,0,627.957092
1420,-937,6,0,0,0,666.586365
1066,1629,1,0,0,0,654.124329
1474,647,2,1,0,6,325.027069
-823,136,3,1,0,1,145.656860
-109,641,4,0,0,0,910.760437
-995,-1670,5,1,0,1,145.656860
1129,-714,6,0,0,0,735.818420
298,774,1,1,0,6,126.995483
1432,698,2,0,0,0,685.376648
-1983,898,3,0,0,0,564.748657
-860,1181,4,1,0,1,145.656860
-1837,-1196,5,0,0,0,562.784668
909,-1799,6,0,0,0,618.240234
862,1768,1,0,0,0,651.185181
474,40,2,0,0,0,1032.979858
-594,516,3,0,0,0,855.850952
-289,1669,4,0,0,0,635.998779
-658,-1470,5,0,0,0,650.378845
361,-1597,6,0,0,0,677.543762
45,886,1,0,0,0,879.663879
1981,638,2,1,0,6,207.287491
-530,495,3,0,0,0,879.322998
-1558,1680,4,0,0,0,550.282471
-71,-338,5,1,0,0,174.654678
1750,-1454,6,0,0,0,583.826477
625,1862,1,0,0,0,651.598816
1027,686,2,1,0,6,591.593201
-439,309,3,0,0,0,965.953613
-28,811,4,0,0,0,846.971375
-357,-1675,5,1,0,6,52.191376
1214,-1447,6,0,0,0,636.745605
567,1019,1,0,0,0,801.002502
1869,380,2,0,0,0,633.978333
-1911,1007,3,0,0,0,566.935791
-1429,1536,4,0,0,0,575.198364
-1333,-556,5,0,0,0,681.501770
1832,-1328,6,0,0,0,585.390442
10,63,1,1,0,0,913.398315
1216,1100,2,0,0,0,677.121582
-1336,1146,3,0,0,0,625.054138
-109,927,4,1,0,1,145.656860
-859,-149,5,0,0,0,826.337952
1946,-608,6,0,0,0,614.989807
344,510,1,1,0,6,149.449753
503,142,2,0,0,0,1005.830017
-1559,256,3,0,0,0,655.866211
-36,1497,4,0,0,0,671.175171
-1786,-1540,5,0,0,0,542.151733
29,-1883,6,0,0,0,637.590149
432,1447,1,0,0,0,726.795166
819,135,2,1,0,6,255.376160
-1836,1311,3,1,0,1,145.656860
-634,864,4,0,0,0,767.031250
-846,-1306,5,0,0,0,660.201965
766,-1203,6,0,0,0,717.058777
104,1149,1,0,0,0,804.082642
1358,455,2,0,0,0,715.850464
-1423,911,3,0,0,0,636.707336
-501,901,4,0,0,0,778.160339
-764,-955,5,1,0,1,145.656860
711,-1344,6,0,0,0,698.719788
1074,1309,1,1,0,6,209.980896
1019,690,2,0,0,0,759.351807
-787,572,3,0,0,0,794.800354
-583,1321,4,0,0,0,681.576904
-1773,-1643,5,0,0,0,535.196228
695,-174,6,0,0,0,914.949951
102,254,1,1,0,0,301.764893
556,498,2,1,0,6,228.531204
-1555,1294,3,0,0,0,585.507751
-666,797,4,0,0,0,776.019470
-1735,-1062,5,0,0,0,583.936523
1475,-926,6,0,0,0,659.899963
1846,1870,1,0,0,0,568.855164
1793,636,2,0,0,0,634.693726
-1807,750,3,0,0,0,594.993713
-869,896,4,0,0,0,723.285339
-1572,-1891,5,1,0,1,145.656860
1921,-1497,6,0,0,0,564.560852
967,1468,1,0,0,0,683.291626
1489,1227,2,0,0,0,630.684143
-1245,1085,3,0,0,0,643.226013
-729,1817,4,0,0,0,594.801758
-1973,-335,5,0,0,0,588.572754
1799,-150,6,0,0,0,649.651489
438,821,1,1,0,6,167.918091
1931,1326,2,0,0,0,575.575439
-1963,1711,3,0,0,0,514.285400
-44,1331,4,0,0,0,704.725525
-1817,-840,5,1,0,1,145.656860
964,-33,6,1,0,6,232.538818
1604,1797,1,1,0,6,141.052124
1910,26,2,0,0,0,633.539795
-1898,247,3,0,0,0,601.224243
-726,1551,4,0,0,0,632.874756
-1384,-81,5,1,0,1,145.656860
1065,-961,6,0,0,0,715.393494
0,1987,1,0,0,0,648.290344
1862,1280,2,0,0,0,585.788940
-1867,204,3,0,0,0,606.603394
-1289,1408,4,1,0,1,145.656860
-1610,-1520,5,0,0,0,559.945496
355,-1819,6,0,0,0,642.154175
674,998,1,0,0,0,791.751587
1227,243,2,1,0,6,328.046295
-1252,439,3,0,0,0,705.801086
-861,1055,4,0,0,0,698.343872
-1237,-329,5,0,0,0,716.072693
363,-1638,6,1,0,6,70.260933
870,1796,1,0,0,0,647.054932
1618,532,2,1,0,6,279.166748
-740,426,3,0,0,0,832.327454
-817,1124,4,1,0,1,145.656860
-1006,-227,5,0,0,0,778.057129
1697,-649,6,1,0,6,143.736008
287,1222,1,0,0,0,779.841125
396,382,2,1,0,6,163.711548
-1281,999,3,0,0,0,647.919678
-1297,1728,4,0,0,0,566.868225
-1895,-1826,5,1,0,1,145.656860
1717,-209,6,0,0,0,661.859070
316,1659,1,0,0,0,694.756226
1895,1609,2,0,0,0,558.756653
-530,267,3,1,0,1,145.656860
-1012,1400,4,0,0,0,630.396423
-1337,-1139,5,1,0,1,145.656860
754,-471,6,0,0,0,852.817078
24,720,1,0,0,0,939.626953
1936,365,2,1,0,6,209.829620
-1342,1010,3,0,0,0,638.404236
-299,1095,4,1,0,1,145.656860
-189,-845,5,1,0,1,145.656860
297,-1171,6,0,0,0,764.662415
440,1820,1,0,0,0,665.245361
1353,577,2,0,0,0,708.212769
-821,321,3,1,0,1,145.656860
-665,1620,4,0,0,0,626.513428
-326,-1238,5,0,0,0,716.027893
747,-1952,6,1,0,6,70.361290
81,462,1,1,0,0,126.940979
1590,708,2,1,0,6,283.765320
-491,316,3,0,0,0,941.743896
-1257,1319,4,0,0,0,615.223206
-1979,-432,5,0,0,0,585.140869
683,-1187,6,0,0,0,728.685730
1869,1879,1,0,0,0,566.434387
159,138,2,0,0,0,1268.078735
-1229,990,3,1,0,1,145.656860
-1556,1843,4,0,0,0,535.804504
-884,-898,5,1,0,1,145.656860
34,-293,6,1,0,0,251.771820
1083,1832,1,0,0,0,628.722961
1739,1188,2,0,0,0,605.757080
-1923,1921,3,0,0,0,502.276031
-853,1622,4,0,0,0,613.575378
-3,-1721,5,0,0,0,631.464478
1820,-1759,6,0,0,0,553.672058
651,916,1,0,0,0,811.638611
1944,1385,2,0,0,0,570.251038
-900,874,3,1,0,1,145.656860
-986,1652,4,0,0,0,599.762939
-878,-320,5,0,0,0,806.378296
144,-1394,6,0,0,0,722.076233
356,939,1,0,0,0,843.987732
541,102,2,1,0,6,181.088043
-514,67,3,0,0,0,976.058167
-1171,1346,4,0,0,0,621.212830
-712,-708,5,0,0,0,785.734497
1323,-695,6,0,0,0,703.665161
390,681,1,1,0,6,160.957077
312,153,2,0,0,0,1123.529907
-800,232,3,0,0,0,839.455566
-241,1286,4,0,0,0,709.789429
-35,-1885,5,1,0,6,57.313526
43,-1181,6,0,0,0,770.981201
96,1354,1,0,0,0,757.377197
1164,661,2,0,0,0,735.226440
-1787,117,3,0,0,0,620.139282
-1210,-271,5,0,0,0,725.177673
24,-618,6,0,0,0,957.319641
1629,1953,1,0,0,0,578.105713
1570,178,2,0,0,0,687.720215
-1271,537,3,1,0,1,145.656860
-1835,-238,5,0,0,0,610.834045
1233,-792,6,0,0,0,709.274719
1166,1978,1,0,0,0,607.112427
901,38,2,0,0,0,848.709656
-1700,404,3,1,0,1,145.656860
-469,-965,5,0,0,0,766.690002
185,-1575,6,0,0,0,686.677429
1399,1603,1,0,0,0,628.795227
1833,566,2,0,0,0,632.316345
-1426,1032,3,1,0,1,145.656860
-1957,-912,5,0,0,0,567.068481
525,-913,6,0,0,0,804.080872
1067,421,2,0,0,0,779.547729
-1989,1282,3,0,0,0,541.185913
-1620,-470,5,0,0,0,637.185059
526,-1642,6,0,0,0,662.765442
1651,1202,2,0,0,0,614.510620
-1496,1171,3,0,0,0,603.339905
-1369,-1239,5,0,0,0,611.441284
1478,-32,6,0,0,0,706.765808
1299,586,2,0,0,0,717.282043
-1739,1640,3,0,0,0,538.345459
-512,-446,5,0,0,0,898.273132
183,-704,6,0,0,0,910.582825
1564,1199,2,0,0,0,624.652954
-1078,1024,3,0,0,0,673.206360
-60,-1310,5,1,0,1,145.656860
1237,-172,6,0,0,0,755.122620
1974,1514,2,1,0,6,153.575012
-910,311,3,0,0,0,798.137695
-1213,-1593,5,0,0,0,588.429016
213,-80,6,1,0,0,349.806458
1904,1629,2,0,0,0,556.513062
-1671,979,3,0,0,0,597.881104
-488,-1537,5,0,0,0,650.013428
1738,-207,6,0,0,0,658.476318
1370,662,2,0,0,0,698.516357
-1414,796,3,0,0,0,648.241699
-1865,-1289,5,1,0,1,145.656860
302,-23,6,0,0,0,1163.170288
974,645,2,0,0,0,774.299744
-1706,124,3,0,0,0,633.208618
-555,-1473,5,0,0,0,656.914673
806,-803,6,0,0,0,781.890137
1046,274,2,0,0,0,796.510559
-832,84,3,0,0,0,838.328796
-1934,-579,5,0,0,0,586.093262
843,-128,6,0,0,0,864.833923
1990,748,2,0,0,0,603.087097
-941,250,3,1,0,1,145.656860
-1400,-852,5,0,0,0,645.404663
1184,-509,6,1,0,6,160.791870
1778,740,2,1,0,6,238.838120
-1780,334,3,1,0,1,145.656860
-1089,-1379,5,0,0,0,625.544373
346,-526,6,1,0,6,102.906296
1846,1676,2,0,0,0,557.918396
-1803,-1877,5,1,0,1,145.656860
1704,-1650,6,0,0,0,572.032043
-1314,-825,5,0,0,0,661.037781
1631,-1071,6,0,0,0,627.485535
-1378,-805,5,0,0,0,652.985596
295,-428,6,0,0,0,1007.402405
-718,-1154,5,0,0,0,698.893555
1431,-1851,6,1,0,6,80.063484
-330,-1937,5,0,0,0,593.771057
1345,-771,6,1,0,6,136.526810
-1937,-1893,5,1,0,1,145.656860
1193,-720,6,0,0,0,723.714355
-1500,-815,5,0,0,0,633.774048
318,-1216,6,0,0,0,753.291992
-1244,-366,5,1,0,1,145.656860
825,-474,6,0,0,0,833.284485
-1454,-295,5,0,0,0,673.822937
1123,-1002,6,0,0,0,701.642334
-1368,-1610,5,0,0,0,573.212158
390,-335,6,0,0,0,1010.575623
-1553,-1237,5,0,0,0,590.820984
1889,-656,6,0,0,0,620.500793
-662,-426,5,0,0,0,855.705139
1436,-1024,6,0,0,0,656.294800
-648,-780,5,0,0,0,782.899719
178,-808,6,0,0,0,873.499878
-1613,-217,5,0,0,0,647.385681
1854,-1118,6,0,0,0,597.914490
-298,-1674,5,0,0,0,634.910278
382,-1453,6,0,0,0,702.148865
-846,-1988,5,1,0,1,145.656860
708,-1382,6,0,0,0,692.699463
-110,-1217,5,0,0,0,729.373230
208,-75,6,0,0,0,1253.942261
-841,-666,5,0,0,0,766.733398
659,-746,6,0,0,0,820.307373
-1290,-1140,5,0,0,0,631.375610
1450,-889,6,0,0,0,666.662659
-439,-734,5,0,0,0,831.854492
1916,-1815,6,0,0,0,541.877502
-1284,-1112,5,0,0,0,635.200439
643,-742,6,0,0,0,824.247864
-695,-1830,5,0,0,0,594.838867
1690,-1403,6,0,0,0,593.817383
-1627,-1774,5,0,0,0,536.376221
404,-1424,6,0,0,0,706.407043
-1225,-766,5,1,0,1,145.656860
878,-896,6,0,0,0,753.845337
-882,-454,5,1,0,1,145.656860
1304,-1831,6,0,0,0,587.253601
-980,-1372,5,0,0,0,637.310974
1268,-634,6,0,0,0,718.772583
-1509,-1600,5,1,0,1,145.656860
246,-1215,6,1,0,6,75.804008
-1859,-115,5,0,0,0,608.968201
1050,-117,6,0,0,0,803.177551
-1206,-1121,5,1,0,6,33.227978
482,-1921,6,1,0,6,66.759491
-1475,-1939,5,0,0,0,532.989319
903,-881,6,0,0,0,752.225037
-1778,-337,5,0,0,0,617.162720
340,-15,6,1,0,0,202.763214
-933,-280,5,1,0,1,145.656860
1152,-1066,6,0,0,0,689.630859
-1961,-996,5,1,0,6,25.442417
863,-540,6,0,0,0,813.842285
1390,-1156,6,0,0,0,649.234680
1431,-1448,6,1,0,6,95.490623
228,-454,6,0,0,0,1014.011047
838,-1297,6,0,0,0,694.294922
1147,-935,6,0,0,0,706.482788
1973,-402,6,0,0,0,618.532898
1549,-1670,6,0,0,0,583.506714
592,-178,6,0,0,0,957.452271
1222,-423,6,1,0,6,172.208313
392,-1291,6,0,0,0,732.961792
435,-1479,6,1,0,6,75.882637
536,-356,6,1,0,6,132.604477
419,-1767,6,0,0,0,647.956543
1043,-1968,6,0,0,0,589.862732
1459,-996,6,0,0,0,655.835388
905,-785,6,0,0,0,767.062744
1601,-491,6,0,0,0,671.103882
658,-1353,6,0,0,0,701.740906
1855,-169,6,1,0,6,179.177841
856,-1992,6,1,0,6,70.834473
70,-998,6,0,0,0,818.848267
841,-945,6,0,0,0,751.439819
1621,-1539,6,1,0,6,91.987633
561,-1178,6,0,0,0,742.567444
7,-890,6,1,0,6,70.190430
988,-191,6,0,0,0,817.174500
80,-457,6,0,0,0,1040.182129


each generation good chromosome number
0,0,0,