each times' max average throughput
624.949707,622.031006,628.233887,667.950684,662.594482,638.756531,660.566650,652.191040,631.205078,657.577332,638.912354,659.128845,632.170227,636.699646,634.237366,630.143005,637.522827,647.236145,617.441772,654.937561,664.734924,612.121338,670.758972,625.660583,644.091858,639.493713,637.621399,647.762695,633.760620,601.835754,652.042664,649.690674,613.826782,654.045715,619.646973,638.745728,660.018066,620.788696,653.683838,643.172913,657.751587,640.617432,634.142334,663.199280,661.571777,633.996277,643.726624,610.790710,648.240295,645.106384,635.035522,623.380310,666.141846,635.783447,645.648621,640.923096,657.922363,641.686035,643.390442,619.890686,641.120056,648.229980,641.941467,607.464417,644.451904,639.666199,645.661621,637.044006,638.181030,628.317017,648.612793,642.092590,639.575928,615.556763,662.992981,635.472351,650.571594,637.384827,637.152222,670.486267,640.638611,632.661743,654.513245,665.940796,614.315979,653.543457,649.214600,635.917542,624.452393,625.142212,640.157898,622.908936,655.912354,654.565308,630.462708,650.153809,644.620972,660.854980,652.338928,650.524475,
avg. throughput in all test times
641.377441
avg. BS TX power in all test times
MBS area 1,MBS area 2,CBSD 1,CBSD 2,CBSD 3,CBSD 4,CBSD 5,CBSD 6,CBSD 7,CBSD 8,CBSD 9,
8.975,9.000,0.216,0.181,0.233,0.320,0.321,0.295,0.339,0.145,0.199,
avg. mbs all power,avg. cbsd enable number,avg. mbs area all power,avg. cbsd all power
40.250,2.000,17.975,2.249
avg. max avg. throughput generation number in all test times
1.080000
avg. number of relay UE
25

the max average throughput times

BS TX power
MBS area 1,MBS area 2,CBSD 1,CBSD 2,CBSD 3,CBSD 4,CBSD 5,CBSD 6,CBSD 7,CBSD 8,CBSD 9,
7.500,10.000,0.500,0.750,0.000,0.000,0.000,0.000,0.000,0.000,0.000,
max average throughput
650.524475

x,y,area,be blocked (1 : NLOS / 0 : LOS),be blocked number (>=1 : CBSD(x) / 0 : no),connect bs number (>=1 : CBSD / 0 : MBS),throughput (unit : M bps)
1073,645,1,0,0,0,780.599548
-651,-114,2,0,0,0,1005.922180
1834,-324,1,0,0,0,666.780090
-1117,-399,2,0,0,0,837.474731
1305,-703,1,0,0,0,732.122864
-1121,1312,2,1,0,1,466.071198
933,1374,1,1,0,2,472.768921
-2000,251,2,1,0,1,247.459595
297,-598,1,0,0,0,961.519592
-357,-1158,2,0,0,0,831.318848
995,-559,1,0,0,0,807.194885
-1378,-1219,2,0,0,0,711.426392
1967,-1297,1,0,0,0,599.779419
-1139,591,2,1,0,1,514.533325
371,1973,1,0,0,0,645.351013
-1815,-1690,2,0,0,0,626.117676
1682,1390,1,1,0,2,314.276245
-4,-1510,2,0,0,0,768.084412
1575,-1061,1,0,0,0,661.215088
-761,912,2,1,0,1,629.687805
390,888,1,0,0,0,854.002747
-1067,-1125,2,1,0,1,150.752090
1896,515,1,0,0,0,651.511047
-1442,-1824,2,0,0,0,644.490662
11,612,1,0,0,0,986.573975
-1771,-1187,2,0,0,0,669.250916
1749,-1313,1,0,0,0,620.958557
-1095,1820,2,0,0,0,670.323181
684,-1807,1,0,0,0,656.283203
-708,-1062,2,0,0,0,816.386230
250,-1051,1,0,0,0,822.975281
-1683,-1333,2,0,0,0,667.254395
1529,-1650,1,0,0,0,612.938599
-1527,-469,2,0,0,0,751.933594
823,1274,1,0,0,0,725.545288
-419,-609,2,0,0,0,973.645691
941,44,1,0,0,0,862.384460
-450,939,2,1,0,1,428.186707
1487,333,1,0,0,0,724.202271
-1812,-224,2,0,0,0,713.615051
630,1100,1,0,0,0,777.020996
-628,1046,2,0,0,0,829.364929
695,1744,1,0,0,0,664.491150
-658,-1151,2,0,0,0,805.459961
1330,-868,1,0,0,0,712.349792
-1363,-1696,2,0,0,0,663.438354
1792,-1045,1,0,0,0,636.010071
-1219,861,2,0,0,0,771.450623
1535,1915,1,1,0,2,273.518524
-1860,-1428,2,1,0,1,117.148277
63,-1935,1,0,0,0,655.707520
-916,-1907,2,0,0,0,671.459045
949,1226,1,0,0,0,719.252075
-1113,1231,2,0,0,0,740.981628
306,-1234,1,1,0,2,170.689835
-462,-1688,2,0,0,0,725.751709
1467,-369,1,0,0,0,726.304626
-1167,-1543,2,1,0,1,119.717506
594,668,1,0,0,0,877.479126
-1037,364,2,0,0,0,859.418213
916,1012,1,1,0,2,671.343994
-872,1391,2,0,0,0,744.080566
886,1081,1,0,0,0,748.981140
-1204,-897,2,0,0,0,769.724121
1994,-575,1,1,0,2,192.484756
-373,1450,2,0,0,0,770.528687
1011,-302,1,0,0,0,829.758545
-1325,1943,2,0,0,0,641.243164
1247,-1462,1,0,0,0,657.846069
-1772,1371,2,0,0,0,655.079651
913,-674,1,0,0,0,808.822021
-468,-1017,2,0,0,0,854.103577
1561,225,1,1,0,2,314.069275
-1991,-1767,2,1,0,1,97.394661
558,-661,1,0,0,0,886.929321
-1291,970,2,1,0,1,529.890686
210,-1347,1,1,0,2,160.236572
-1073,-873,2,1,0,1,174.255600
897,-84,1,1,0,2,327.806366
-1525,-46,2,0,0,0,765.116882
1665,-1181,1,0,0,0,640.597473
-1325,-1907,2,0,0,0,644.862488
596,107,1,0,0,0,989.684509
-1121,802,2,0,0,0,794.289734
179,-42,1,0,0,0,1333.462646
-465,-1619,2,1,0,2,128.177460
1761,282,1,1,0,2,289.618622
-951,360,2,0,0,0,881.786804
1854,1368,1,0,0,0,606.126282
-783,738,2,0,0,0,865.518494
1032,-1720,1,0,0,0,645.597107
-1742,1919,2,0,0,0,613.572632
1295,1369,1,0,0,0,663.416260
-1250,510,2,1,0,1,446.302948
670,-1661,1,0,0,0,677.946533
-1661,1622,2,0,0,0,644.927612
177,-1497,1,1,0,2,149.025497
-679,-653,2,0,0,0,903.791260
498,1296,1,1,0,2,494.322418
-40,-291,2,0,0,0,1239.798584


each generation good chromosome number
8,8,10,