mbs coordinate
0,0

cbsd coordinate and channel
-970,900,2
740,900,1
980,-860,1
-750,-850,5
-750,1000,4
1050,600,2
760,-1135,3
-870,-1100,1
-1080,450,1
970,530,3
540,-1000,2
-1200,-300,3
-200,1170,7
820,1255,4
930,-1080,6
-1115,-505,2
-180,1230,3
500,1150,8
1200,-450,10
-500,-1100,7
-650,980,9
1180,450,9
700,-1160,7
-1050,-900,8
-1200,820,10
1200,1000,11
1340,-1120,12
-1440,-1280,10
-1160,1350,13
1420,960,14

building coordinate
-885,985
-1055,815
830,810
650,990
1060,-860
900,-860
-830,-770
-670,-930
-668,1070
-832,930
965,675
1135,525
832,-1059
688,-1211
-965,-1035
-775,-1165
-1135,365
-1025,535
907,591
1033,469
638,-906
442,-1094
-1275,-390
-1125,-210
-298,1123
-102,1217
910,1206
730,1304
1005,-1005
855,-1155
-1178,-407
-1052,-603
-120,1290
-240,1170
410,1240
590,1060
1275,-375
1125,-525
-577,-1023
-423,-1177
-600,1070
-710,890
1135,535
1225,365
743,-1077
657,-1243
-1138,-855
-962,-945
-1100,866
-1300,774
1100,1100
1300,900
1440,-1020
1240,-1220
-1540,-1180
-1340,-1380
-1060,1450
-1260,1250
1320,1060
1520,860

area numbers
683,651,659,607

x , y , block , block number
area 1
834,1159,1,0
581,5,0,0
1345,291,0,0
505,1341,1,0
1498,763,0,0
1982,1328,0,0
1691,1593,0,0
832,883,0,0
860,801,1,0
853,1125,1,0
1712,1748,0,0
142,695,1,0
992,432,0,0
376,1323,0,0
428,327,0,0
207,247,0,0
141,1864,0,0
1246,464,0,0
1214,558,1,0
412,879,0,0
145,1297,0,0
1025,1723,0,0
1882,1862,0,0
1460,1883,0,0
1168,664,0,0
158,268,0,0
377,26,1,0
625,1133,1,0
378,304,1,0
1173,859,0,0
1313,1081,1,0
118,1152,0,0
1656,1454,0,0
901,1249,0,0
939,329,0,0
1724,869,0,0
519,1848,0,0
512,671,0,0
1938,549,0,0
830,843,0,0
656,337,0,0
1971,614,0,0
927,1658,0,0
915,1833,0,0
1583,564,0,0
544,627,0,0
163,1183,0,0
1155,552,0,0
1197,1231,0,0
549,1254,0,0
266,1216,0,0
1294,1761,1,0
1613,1605,0,0
666,1753,1,0
67,113,1,0
1998,497,0,0
1738,1439,0,0
1817,1295,0,0
505,936,1,0
89,912,1,0
1305,1776,0,0
1705,313,0,0
1596,754,0,0
360,1677,0,0
1751,668,0,0
182,73,0,0
29,1465,1,0
49,1280,1,0
1694,1031,0,0
1984,1748,0,0
1112,1302,0,0
629,1557,0,0
1930,733,0,0
441,178,0,0
1727,1752,0,0
1348,1806,0,0
1931,493,0,0
419,220,0,0
1235,1433,0,0
1559,1482,0,0
717,621,0,0
1872,1026,0,0
1612,261,0,0
1675,1792,0,0
723,1351,0,0
1450,221,0,0
1494,439,0,0
265,1468,0,0
864,1441,0,0
352,1260,0,0
263,1751,0,0
1727,540,0,0
486,98,0,0
219,221,1,0
362,992,1,0
1606,680,0,0
1541,998,1,0
1357,147,0,0
667,1478,1,0
1086,1589,0,0
169,103,1,0
1989,1943,0,0
1319,633,0,0
711,1764,0,0
787,1993,0,0
163,1870,0,0
1884,1729,0,0
924,792,0,0
1706,925,0,0
1267,64,0,0
79,61,0,0
1871,1039,0,0
1629,390,0,0
196,1207,1,0
1601,1914,1,0
1892,1048,1,0
1219,1905,1,0
1871,116,0,0
576,200,1,0
1217,228,0,0
1873,411,1,0
721,1919,0,0
1433,199,1,0
414,684,0,0
985,942,1,0
9,551,0,0
572,1135,0,0
1568,176,1,0
337,235,0,0
553,1992,1,0
877,916,0,0
455,1773,0,0
1503,1559,0,0
1413,903,0,0
213,1550,0,0
98,782,1,0
459,482,1,0
1667,666,1,0
739,476,0,0
268,790,0,0
879,51,0,0
1562,365,1,0
851,1885,1,0
370,1660,0,0
593,1274,0,0
483,775,1,0
226,1754,0,0
1506,98,1,0
660,1602,1,0
731,1674,0,0
782,1108,0,0
351,427,1,0
1310,632,1,0
841,1172,0,0
1272,1871,0,0
1161,1374,0,0
1029,507,0,0
1048,1696,1,0
1440,169,0,0
224,1159,0,0
760,1876,0,0
1019,205,0,0
955,830,1,0
35,1165,1,0
342,896,0,0
1160,914,1,0
804,222,1,0
710,896,0,0
1417,1518,0,0
90,674,0,0
1978,1550,0,0
1174,1975,1,0
1875,1507,0,0
23,961,0,0
1445,1315,0,0
1701,1816,0,0
403,321,0,0
425,463,0,0
423,1941,0,0
1857,1525,1,0
118,1322,0,0
1836,409,0,0
1503,402,0,0
546,1447,1,0
1100,369,0,0
1572,512,1,0
1986,700,0,0
329,555,0,0
1543,1589,1,0
1108,911,1,0
1351,363,0,0
461,625,1,0
632,1117,0,0
84,509,0,0
599,1476,1,0
1302,1204,1,0
174,324,0,0
174,1122,0,0
174,1477,0,0
658,1458,1,0
1967,1587,1,0
1920,1774,1,0
1730,1212,1,0
988,1156,0,0
1085,1611,1,0
1605,1247,0,0
1575,1629,0,0
1107,742,0,0
715,805,0,0
263,587,0,0
1673,628,0,0
1772,846,0,0
70,1159,0,0
135,1523,0,0
1145,1254,0,0
259,158,0,0
1801,294,0,0
1137,1151,0,0
1692,172,0,0
1219,1312,0,0
1788,926,0,0
1209,64,1,0
1320,551,0,0
126,1682,1,0
1712,166,0,0
737,439,0,0
565,1728,0,0
243,1723,1,0
1977,824,0,0
1874,1038,0,0
223,300,0,0
342,800,0,0
170,981,0,0
553,834,0,0
788,464,0,0
1839,491,0,0
293,187,0,0
1888,375,1,0
616,268,0,0
1737,1684,0,0
1544,1572,1,0
1433,166,0,0
246,1042,0,0
955,1131,0,0
1252,675,0,0
1064,176,0,0
71,1812,1,0
924,541,1,0
160,1160,0,0
1911,1133,0,0
293,1688,0,0
17,558,0,0
1349,396,1,0
1589,1835,1,0
707,440,1,0
306,1895,0,0
1904,935,0,0
1286,346,0,0
1598,1491,0,0
373,577,1,0
558,1889,0,0
1837,508,1,0
1364,1556,0,0
1682,1640,0,0
164,1331,1,0
481,1333,0,0
396,1801,1,0
1658,1102,0,0
1839,1725,0,0
895,1722,0,0
446,952,0,0
1576,1689,0,0
1893,884,0,0
919,1332,0,0
168,1166,0,0
1806,923,0,0
43,87,0,0
368,267,0,0
169,714,0,0
1409,1936,0,0
1595,1964,0,0
1135,1266,0,0
1737,1321,0,0
1025,534,1,0
1032,705,1,0
397,442,0,0
470,497,0,0
302,255,1,0
1691,2,0,0
1508,669,0,0
174,1072,1,0
285,1993,0,0
1637,1046,0,0
1803,1608,1,0
1031,887,1,0
68,950,0,0
1382,1042,0,0
447,432,0,0
1618,1930,0,0
1202,418,0,0
959,154,0,0
1851,483,0,0
1467,155,0,0
1810,551,0,0
44,699,0,0
515,1287,0,0
293,1038,1,0
1922,1858,1,0
1797,789,1,0
1314,108,0,0
1269,383,1,0
1431,830,0,0
1683,627,0,0
1865,275,0,0
1886,1062,1,0
1490,1226,1,0
173,909,0,0
1725,521,1,0
1362,1288,1,0
1761,1637,0,0
474,1231,0,0
481,932,0,0
1938,1046,1,0
848,1840,0,0
1078,1943,1,0
1909,1534,0,0
1480,964,0,0
1556,1266,0,0
447,861,1,0
67,992,1,0
1979,815,0,0
1213,1473,0,0
1819,663,1,0
349,1814,0,0
635,76,1,0
1966,618,0,0
534,1351,0,0
1938,1709,0,0
1839,117,1,0
1710,590,1,0
63,1948,1,0
748,287,0,0
1391,1539,0,0
1295,216,0,0
871,1071,0,0
620,227,0,0
1816,416,0,0
840,1343,0,0
900,1511,1,0
926,201,1,0
863,1457,0,0
1081,1397,1,0
684,1501,0,0
1475,1491,0,0
1606,1919,0,0
721,1134,0,0
578,448,1,0
112,180,0,0
463,895,0,0
1942,1289,0,0
1123,1529,0,0
1684,1138,0,0
1332,741,0,0
1613,439,0,0
1795,392,0,0
1475,1924,0,0
1937,1463,0,0
600,715,1,0
808,17,0,0
217,739,0,0
1686,1943,0,0
1160,895,0,0
607,1406,0,0
957,769,0,0
477,1379,0,0
877,112,0,0
1697,150,0,0
1034,1402,0,0
1174,1337,0,0
1165,1067,0,0
516,1953,0,0
1958,1715,0,0
1533,1939,0,0
735,1139,1,0
1434,1045,0,0
733,1059,0,0
1074,1028,0,0
1926,343,1,0
258,1330,1,0
1905,1635,0,0
582,426,0,0
1715,1524,0,0
460,1803,0,0
1013,61,0,0
116,1445,0,0
1252,1512,0,0
131,1875,0,0
495,1608,0,0
1149,1364,0,0
1632,685,0,0
1013,1335,0,0
118,296,0,0
1222,1208,0,0
407,1253,1,0
1507,1540,0,0
1974,877,0,0
583,1544,1,0
1180,1183,1,0
497,291,0,0
372,1411,1,0
118,1304,0,0
1440,239,0,0
893,698,0,0
1556,1353,0,0
857,1774,0,0
1384,504,0,0
823,1164,0,0
393,1052,0,0
82,1664,0,0
1824,1425,0,0
595,1939,0,0
985,1954,1,0
1313,700,0,0
240,862,0,0
534,1038,1,0
0,530,1,0
1856,1488,0,0
1585,1782,0,0
941,1447,0,0
1093,645,0,0
444,631,0,0
1611,848,0,0
1307,1235,0,0
556,176,0,0
1481,1020,0,0
1837,574,0,0
961,1139,0,0
358,1228,0,0
906,526,0,0
645,1767,0,0
1668,60,1,0
712,1446,0,0
1460,1652,1,0
628,569,0,0
225,545,0,0
440,1902,1,0
603,1570,0,0
1533,993,1,0
1995,1711,0,0
23,1397,0,0
1889,950,0,0
1226,841,0,0
193,248,0,0
1363,472,0,0
1679,713,0,0
1310,411,0,0
1678,61,0,0
1562,1584,1,0
1256,1586,0,0
847,981,0,0
852,1543,1,0
1153,1135,1,0
1580,1562,1,0
958,1631,0,0
1046,369,0,0
464,800,0,0
428,1803,1,0
1723,134,1,0
1885,1478,0,0
1783,1234,0,0
75,1981,0,0
511,1556,0,0
340,738,1,0
665,1608,0,0
871,1253,0,0
318,366,1,0
745,683,1,0
151,82,0,0
1580,290,1,0
725,1360,1,0
608,232,0,0
1748,1084,0,0
1260,44,0,0
1863,1502,1,0
1280,442,0,0
234,332,0,0
680,1026,1,0
190,58,0,0
1203,1732,0,0
1938,165,0,0
799,304,0,0
77,1580,0,0
441,379,0,0
1961,790,1,0
807,286,0,0
1754,1163,1,0
891,1833,1,0
1553,338,1,0
536,915,0,0
740,83,0,0
1558,306,0,0
124,211,0,0
1857,728,0,0
1269,562,0,0
441,1046,0,0
997,631,0,0
156,432,1,0
1283,1820,0,0
92,1001,0,0
1124,1478,0,0
781,1739,0,0
1573,259,1,0
1757,1333,0,0
323,1234,0,0
1079,1043,1,0
1465,1253,1,0
895,1375,0,0
1349,1445,1,0
1300,1601,1,0
1823,1336,0,0
169,1129,0,0
619,1764,0,0
1433,1340,1,0
377,822,0,0
661,1173,1,0
1523,1167,1,0
864,1557,0,0
939,1699,0,0
356,1300,0,0
170,1221,1,0
1566,1475,0,0
1516,1439,1,0
669,1902,0,0
1467,1902,0,0
237,312,0,0
128,409,0,0
690,615,0,0
1705,1637,1,0
1001,226,0,0
375,731,0,0
467,1420,0,0
446,1460,0,0
1099,1846,0,0
1677,512,0,0
1075,1178,0,0
1638,905,0,0
1582,1014,0,0
1802,1031,0,0
792,1024,1,0
1603,1220,1,0
1833,1861,0,0
542,399,0,0
68,719,0,0
525,157,0,0
1345,124,0,0
578,143,0,0
1874,1503,0,0
130,1085,1,0
574,241,0,0
1745,289,0,0
323,1911,0,0
638,378,0,0
1759,307,0,0
1671,103,1,0
454,782,1,0
1342,1536,0,0
367,666,1,0
1382,1850,1,0
226,18,1,0
1735,467,0,0
1944,396,0,0
657,1213,0,0
435,1541,0,0
696,1028,1,0
1627,1689,1,0
429,473,1,0
1865,1475,0,0
829,551,1,0
1553,416,0,0
183,271,1,0
286,1871,0,0
156,208,0,0
218,1346,0,0
1010,1568,0,0
67,1905,0,0
298,1566,0,0
1075,928,1,0
1664,1225,0,0
1495,1437,1,0
451,35,0,0
691,704,0,0
1769,749,1,0
1368,1772,1,0
774,1267,0,0
1824,1485,0,0
1183,1802,1,0
88,1923,0,0
498,418,0,0
853,1680,0,0
1025,120,0,0
281,1028,0,0
768,1923,0,0
83,844,0,0
1611,1329,1,0
1457,1917,1,0
1595,686,0,0
1090,1042,1,0
1104,797,1,0
1956,782,0,0
1109,1671,0,0
136,1129,0,0
1624,611,1,0
1322,843,0,0
782,1051,0,0
830,510,1,0
857,135,0,0
1250,1189,1,0
970,674,0,0
1838,1272,0,0
1339,1836,0,0
713,262,0,0
1965,1282,0,0
1656,682,0,0
1593,880,0,0
1578,1907,0,0
652,1766,1,0
1259,1379,0,0
409,1181,0,0
803,774,0,0
1809,122,0,0
1837,1555,0,0
1797,1943,0,0
1936,746,1,0
758,588,0,0
729,1838,0,0
988,1229,0,0
1997,1597,1,0
589,1053,0,0
392,1536,1,0
596,401,0,0
382,1660,1,0
694,1650,0,0
918,698,0,0
1468,1064,1,0
1205,1935,0,0
1070,1593,0,0
273,1092,0,0
997,363,0,0
1849,1624,0,0
958,71,1,0
160,1865,0,0
386,1744,0,0
757,1529,1,0
1717,1921,0,0
1222,1472,0,0
708,1159,0,0
788,1636,1,0
1723,1546,1,0
1642,207,0,0
1715,1202,0,0
501,1265,0,0
110,1266,0,0
142,1048,0,0
1032,1634,1,0
279,477,0,0
1237,1396,0,0
652,45,0,0
1996,1053,1,0
1849,1966,0,0
1485,597,1,0
1078,122,0,0
1131,1172,1,0
1564,429,0,0
1651,1146,0,0
388,629,0,0
441,1884,0,0
984,1339,0,0
1553,346,0,0
582,1498,0,0
248,834,0,0
1909,949,0,0
118,1260,0,0
688,1949,1,0
area 2
-950,1903,0,0
-1725,1701,0,0
-1787,1255,0,0
-1382,32,0,0
-1615,1896,1,0
-1409,98,0,0
-749,1617,0,0
-1791,1055,1,0
-1318,144,0,0
-1436,1998,0,0
-1672,119,0,0
-1063,1281,1,0
-568,1240,1,0
-1129,626,0,0
-1853,1726,0,0
-922,779,1,0
-1261,1924,0,0
-1554,1736,1,0
-1354,905,0,0
-1479,274,0,0
-1409,471,0,0
-649,1469,0,0
-1224,95,1,0
-1420,1478,0,0
-288,317,1,0
-714,1806,0,0
-406,1472,0,0
-1443,750,1,0
-1898,996,0,0
-640,604,1,0
-1010,1499,0,0
-181,82,0,0
-56,1372,0,0
-1902,1495,0,0
-745,261,0,0
-1367,85,0,0
-495,870,1,0
-358,221,1,0
-900,1276,1,0
-1129,702,1,0
-1508,1457,0,0
-1162,1040,0,0
-707,1012,1,0
-1398,1393,0,0
-495,1982,1,0
-1144,356,1,0
-1388,1934,0,0
-234,764,0,0
-887,1277,0,0
-365,1844,0,0
-15,1815,0,0
-1760,1346,0,0
-900,1739,0,0
-750,1712,0,0
-618,1118,0,0
-234,1048,0,0
-637,310,0,0
-1686,503,0,0
-561,765,0,0
-1491,84,0,0
-1945,1399,0,0
-1069,588,0,0
-1908,1181,0,0
-409,1146,0,0
-40,1931,0,0
-1672,1046,0,0
-783,80,0,0
-897,213,0,0
-858,1297,1,0
-567,1833,0,0
-1488,562,0,0
-1078,1779,0,0
-207,766,0,0
-150,1685,1,0
-311,126,0,0
-1806,1061,1,0
-1745,922,0,0
-1687,1758,1,0
-1792,1276,0,0
-1726,1823,1,0
-1519,459,1,0
-1417,38,0,0
-700,1779,1,0
-13,30,0,0
-967,614,0,0
-75,592,0,0
-298,235,0,0
-301,552,0,0
-1946,1207,1,0
-1523,1666,0,0
-1784,963,0,0
-1868,1496,0,0
-1695,324,0,0
-187,560,1,0
-1091,1963,1,0
-1089,127,1,0
-1634,461,1,0
-631,1066,1,0
-258,241,0,0
-437,1143,1,0
-919,283,1,0
-291,254,0,0
-422,1820,0,0
-1572,1330,0,0
-629,302,0,0
-493,1084,0,0
-25,332,0,0
-542,180,1,0
-1091,1551,0,0
-1745,1579,1,0
-625,1724,0,0
-1566,714,0,0
-76,297,0,0
-459,972,0,0
-1729,1785,0,0
-1977,442,0,0
-1449,332,1,0
-766,1507,0,0
-750,880,1,0
-1570,94,0,0
-1282,1406,0,0
-1623,538,0,0
-1720,547,1,0
-654,1820,0,0
-342,76,1,0
-1282,204,0,0
-466,1912,1,0
-781,1130,0,0
-121,185,0,0
-237,75,0,0
-824,187,0,0
-1223,1721,0,0
-759,1967,1,0
-1942,372,0,0
-924,157,0,0
-1368,691,1,0
-927,1663,1,0
-187,763,1,0
-101,293,0,0
-1799,334,1,0
-1410,261,0,0
-1038,355,1,0
-1184,1758,0,0
-1213,1980,0,0
-370,1601,1,0
-816,1744,1,0
-1096,29,0,0
-903,1139,1,0
-896,252,0,0
-1072,11,0,0
-1870,1234,0,0
-1616,1955,1,0
-79,1828,0,0
-1376,1910,0,0
-1221,161,0,0
-343,1107,0,0
-1403,461,0,0
-1001,130,0,0
-1326,1730,0,0
-989,518,0,0
-57,216,0,0
-1305,1895,0,0
-1447,1105,0,0
-1628,59,0,0
-333,1311,0,0
-469,641,1,0
-1524,145,0,0
-518,1805,0,0
-406,18,0,0
-1841,1789,1,0
-1948,389,0,0
-363,1622,1,0
-826,1815,0,0
-1361,627,0,0
-1857,1471,1,0
-367,1777,0,0
-1455,246,1,0
-362,455,0,0
-164,135,0,0
-654,287,0,0
-1865,660,1,0
-1797,1957,0,0
-122,1660,0,0
-1523,1820,0,0
-1338,1677,0,0
-47,742,0,0
-498,758,1,0
-1519,533,0,0
-1795,1874,0,0
-77,1637,1,0
-1938,1930,0,0
-876,1546,0,0
-164,617,0,0
-867,1305,0,0
-315,1783,0,0
-1119,1388,0,0
-1735,1791,0,0
-1014,507,0,0
-1041,1021,0,0
-615,1404,1,0
-516,363,0,0
-1790,1204,0,0
-1256,626,1,0
-64,1896,1,0
-253,1882,0,0
-1857,1132,1,0
-1553,625,0,0
-1926,208,0,0
-1655,1831,0,0
-165,1877,0,0
-1134,908,0,0
-601,792,1,0
-163,657,0,0
-316,890,1,0
-1179,1004,0,0
-310,1889,0,0
-977,1664,0,0
-1392,1235,0,0
-1476,1076,0,0
-857,1002,0,0
-502,1832,0,0
-934,58,0,0
-346,595,0,0
-1550,858,0,0
-1959,1645,1,0
-712,1346,1,0
-1080,1825,0,0
-1365,334,1,0
-601,590,0,0
-2,599,0,0
-807,1071,0,0
-887,1495,0,0
-356,1244,0,0
-1805,1477,1,0
-705,1029,0,0
-1140,1522,0,0
-1648,1168,0,0
-1361,911,1,0
-92,1741,1,0
-1055,1334,1,0
-598,1759,0,0
-481,1668,0,0
-1358,996,0,0
-1722,694,1,0
-1851,1835,0,0
-839,1532,0,0
-1904,427,0,0
-1255,471,1,0
-846,1466,0,0
-1716,1261,0,0
-332,1539,1,0
-1399,76,0,0
-973,1744,0,0
-1501,1672,1,0
-842,1168,1,0
-1804,1054,0,0
-1916,1220,0,0
-177,62,1,0
-1109,518,1,0
-762,139,0,0
-347,722,0,0
-1522,625,1,0
-1185,387,0,0
-1243,681,0,0
-1449,805,0,0
-502,1674,0,0
-777,654,0,0
-1764,1763,0,0
-1773,1218,0,0
-1497,1748,0,0
-852,1837,0,0
-38,1471,0,0
-458,480,0,0
-455,1747,1,0
-674,1731,0,0
-1155,1359,0,0
-731,789,0,0
-1237,167,1,0
-1922,598,0,0
-1315,443,0,0
-823,1774,0,0
-195,684,1,0
-1761,101,1,0
-1764,173,0,0
-439,1240,1,0
-999,600,0,0
-1025,1239,0,0
-559,257,1,0
-145,460,0,0
-6,1041,1,0
-270,1584,0,0
-1593,776,1,0
-1694,443,0,0
-197,1794,0,0
-1653,1470,1,0
-1558,103,0,0
-1897,782,0,0
-1714,1218,0,0
-782,417,0,0
-103,1958,0,0
-263,244,0,0
-1344,963,0,0
-1382,1084,0,0
-669,1207,1,0
-1095,6,0,0
-426,403,1,0
-211,855,0,0
-78,1200,0,0
-1440,582,0,0
-1854,1639,0,0
-1318,1523,0,0
-1400,510,1,0
-299,1135,1,0
-984,956,0,0
-1739,1391,0,0
-620,158,0,0
-394,448,0,0
-276,1465,0,0
-921,1276,0,0
-812,717,0,0
-1675,729,0,0
-1237,1956,0,0
-1211,1240,0,0
-1294,1017,1,0
-1993,1118,1,0
-1611,1930,0,0
-1175,907,0,0
-919,715,1,0
-1329,1104,1,0
-738,675,0,0
-454,1144,0,0
-62,7,0,0
-1208,1279,0,0
-447,603,0,0
-814,347,0,0
-373,1663,1,0
-1417,1059,1,0
-529,584,0,0
-382,1864,0,0
-1054,1355,0,0
-1698,865,0,0
-1818,1854,1,0
-761,770,0,0
-417,707,1,0
-1002,1992,0,0
-1299,258,0,0
-1799,118,0,0
-1803,768,0,0
-700,1617,1,0
-1593,634,0,0
-1566,784,1,0
-221,1013,0,0
-268,666,0,0
-1625,1942,0,0
-23,949,1,0
-1490,759,0,0
-1675,1085,0,0
-1403,1397,1,0
-933,1873,0,0
-1172,1736,0,0
-493,908,0,0
-1570,1801,0,0
-1742,247,0,0
-1188,1314,0,0
-460,1544,1,0
-1982,1813,0,0
-1365,619,0,0
-593,246,0,0
-553,1455,0,0
-558,1352,0,0
-1332,275,0,0
-186,1682,0,0
-132,1766,1,0
-367,835,1,0
-888,446,1,0
-1278,1099,0,0
-1696,205,0,0
-1241,1675,1,0
-1535,1399,0,0
-1329,142,0,0
-493,1982,0,0
-1104,1693,1,0
-1095,1589,1,0
-930,1448,0,0
-435,965,1,0
-1893,1519,0,0
-426,597,0,0
-1336,129,0,0
-598,114,1,0
-1304,1168,0,0
-808,1607,1,0
-425,1759,0,0
-435,1507,1,0
-1395,891,0,0
-1783,83,1,0
-1787,1759,0,0
-1832,422,0,0
-1283,1297,0,0
-1496,1526,0,0
-826,1537,1,0
-180,1148,0,0
-753,1237,1,0
-1643,919,0,0
-621,1949,0,0
-1335,979,0,0
-1261,1349,0,0
-892,122,0,0
-242,419,1,0
-1945,489,1,0
-1519,616,0,0
-572,453,0,0
-28,994,0,0
-1364,299,0,0
-1107,1958,0,0
-1903,1,0,0
-1418,1220,1,0
-900,1106,1,0
-543,1700,0,0
-488,1723,0,0
-553,129,1,0
-1828,1302,0,0
-1958,1221,1,0
-1850,1701,1,0
-1753,586,0,0
-1579,908,1,0
-10,1059,1,0
-964,969,0,0
-1179,1242,0,0
-832,1215,0,0
-678,414,1,0
-1566,872,1,0
-27,486,0,0
-933,1329,1,0
-1310,1354,0,0
-874,1301,0,0
-265,966,1,0
-1039,713,0,0
-131,1403,0,0
-1636,1159,0,0
-375,976,0,0
-945,1416,0,0
-1658,274,1,0
-1866,1388,0,0
-1280,1136,0,0
-1333,748,0,0
-961,1189,0,0
-315,1675,0,0
-110,1204,0,0
-701,1932,0,0
-1814,710,0,0
-1285,139,0,0
-1597,1230,0,0
-1323,1416,0,0
-58,1567,0,0
-754,1315,1,0
-1020,1794,0,0
-520,1021,1,0
-723,977,1,0
-413,186,0,0
-1029,555,0,0
-1113,665,1,0
-1122,1386,1,0
-1725,1169,0,0
-349,791,1,0
-380,74,0,0
-1433,459,1,0
-1808,1189,1,0
-556,362,1,0
-63,1694,1,0
-412,713,0,0
-1221,500,0,0
-1763,470,0,0
-1854,264,0,0
-143,7,0,0
-1098,1760,1,0
-124,489,0,0
-980,1458,1,0
-783,141,1,0
-1452,1234,0,0
-993,808,0,0
-690,1570,0,0
-861,1076,0,0
-94,542,0,0
-932,111,0,0
-533,1808,1,0
-673,533,0,0
-834,469,0,0
-1881,681,1,0
-1972,1179,0,0
-1506,984,0,0
-830,685,0,0
-1163,1963,1,0
-1336,234,0,0
-1291,705,0,0
-734,734,0,0
-304,1580,0,0
-940,252,0,0
-6,498,0,0
-392,1141,0,0
-650,1190,0,0
-357,1636,0,0
-1983,956,0,0
-752,1388,0,0
-1005,1894,0,0
-639,901,1,0
-1324,218,1,0
-1367,1618,0,0
-729,971,0,0
-1702,1423,0,0
-1161,160,1,0
-1538,1783,1,0
-944,343,0,0
-1448,825,1,0
-1961,1978,0,0
-1939,600,0,0
-1694,214,1,0
-1974,133,0,0
-1496,726,0,0
-8,594,0,0
-1745,716,0,0
-89,1094,0,0
-1614,434,1,0
-1480,507,0,0
-1642,1903,1,0
-441,905,0,0
-1280,334,1,0
-1616,1727,1,0
-1447,1536,0,0
-638,1224,0,0
-1058,1742,1,0
-1294,99,1,0
-10,62,0,0
-892,272,0,0
-1312,1756,0,0
-640,522,1,0
-1843,324,0,0
-416,1704,0,0
-1853,1660,0,0
-788,254,1,0
-1390,1535,0,0
-1420,113,0,0
-389,340,0,0
-484,487,0,0
-1241,209,1,0
-816,1106,0,0
-1597,174,1,0
-385,1860,0,0
-1339,1398,0,0
-1044,1427,0,0
-1890,1726,0,0
-268,900,0,0
-56,779,1,0
-1830,1724,0,0
-733,1774,0,0
-1410,70,0,0
-1419,982,1,0
-1549,603,0,0
-1748,893,0,0
-1953,1779,1,0
-1837,299,1,0
-151,1186,0,0
-1762,1554,0,0
-508,1303,1,0
-168,850,0,0
-1506,1040,1,0
-666,1610,0,0
-1212,1374,0,0
-259,1291,0,0
-769,1356,0,0
-405,1861,0,0
-1712,711,1,0
-489,340,0,0
-681,1818,1,0
-1294,54,0,0
-401,272,1,0
-623,393,0,0
-1447,613,0,0
-1793,724,0,0
-150,166,0,0
-1141,655,0,0
-142,1642,0,0
-1945,1460,0,0
-1718,1791,1,0
-1281,1159,0,0
-88,1651,1,0
-738,341,1,0
-1012,597,1,0
-514,1351,0,0
-1694,148,0,0
-269,1487,1,0
-1346,1446,1,0
-801,413,0,0
-1915,1899,0,0
-1210,760,0,0
-335,1264,0,0
-567,1100,0,0
-43,1036,1,0
-771,1766,0,0
-182,1377,0,0
-936,90,0,0
-93,138,0,0
-1636,284,0,0
-1235,1777,0,0
-1139,952,0,0
-1953,379,0,0
-961,373,0,0
-753,774,0,0
-975,1625,0,0
-193,384,1,0
-1530,326,0,0
-602,1006,0,0
-1415,728,0,0
-915,1539,0,0
-251,85,0,0
-463,530,0,0
-1548,1682,0,0
-1987,1487,0,0
-1481,231,0,0
-459,974,0,0
-770,287,0,0
-1048,1768,0,0
-422,621,0,0
-726,1414,0,0
-1241,1946,0,0
-424,651,1,0
-169,433,0,0
-1115,268,1,0
-1842,1741,0,0
-566,1919,0,0
-145,462,0,0
-71,1994,0,0
-469,782,0,0
-1565,1624,0,0
-1283,1430,1,0
-1099,236,0,0
-1440,157,0,0
-303,1869,0,0
-843,1287,0,0
-1927,1802,0,0
-1097,250,1,0
-37,825,0,0
-1086,854,0,0
-1218,374,1,0
-988,544,1,0
-1383,200,0,0
-56,1030,0,0
-1689,695,0,0
-764,1527,1,0
-678,1165,1,0
-1781,883,0,0
-617,1755,0,0
area 3
-192,-387,0,0
-226,-759,1,0
-2000,-326,0,0
-456,-941,0,0
-14,-1835,1,0
-254,-87,1,0
-1676,-456,0,0
-1378,-731,0,0
-324,-1853,0,0
-1109,-1072,0,0
-952,-481,0,0
-647,-1276,0,0
-231,-813,0,0
-1655,-1960,0,0
-1535,-1895,0,0
-1283,-65,0,0
-1207,-864,1,0
-1583,-783,0,0
-260,-1106,0,0
-1619,-844,0,0
-276,-1229,0,0
-289,-92,0,0
-1971,-1144,0,0
-1236,-1597,0,0
-358,-1156,0,0
-642,-1419,1,0
-1935,-328,0,0
-1443,-1649,1,0
-862,-552,0,0
-328,-1866,0,0
-1130,-1392,0,0
-408,-417,0,0
-224,-173,1,0
-348,-1140,0,0
-911,-559,0,0
-997,-729,0,0
-358,-1734,0,0
-1064,-1649,1,0
-1245,-1689,0,0
-412,-1723,0,0
-893,-1974,1,0
-822,-718,0,0
-902,-803,0,0
-93,-603,0,0
-933,-1458,0,0
-243,-1772,0,0
-422,-348,0,0
-1972,-951,0,0
-1814,-1495,0,0
-1090,-247,0,0
-477,-1257,1,0
-1321,-1541,0,0
-699,-1849,1,0
-1114,-40,1,0
-356,-1299,0,0
-1161,-1050,0,0
-23,-163,0,0
-1850,-1008,1,0
-684,-1459,0,0
-1193,-1264,0,0
-743,-66,0,0
-225,-1237,0,0
-1959,-1245,0,0
-1672,-735,0,0
-1867,-1662,0,0
-1814,-990,1,0
-1126,-546,0,0
-917,-1880,0,0
-1611,-1720,0,0
-1210,-1292,0,0
-633,-874,0,0
-737,-1118,0,0
-983,-807,0,0
-1711,-1302,1,0
-666,-1391,0,0
-846,-389,0,0
-512,-221,0,0
-522,-1432,0,0
-1428,-424,0,0
-896,-753,0,0
-1151,-102,0,0
-128,-298,0,0
-802,-566,0,0
-1266,-676,0,0
-1215,-512,1,0
-1874,-492,0,0
-286,-733,1,0
-198,-206,1,0
-1971,-1821,0,0
-1748,-1552,0,0
-606,-1427,0,0
-1472,-393,1,0
-1098,-314,1,0
-11,-1407,0,0
-979,-748,0,0
-327,-288,0,0
-1724,-144,0,0
-561,-1706,1,0
-389,-103,1,0
-1809,-43,1,0
-735,-1407,0,0
-1406,-46,0,0
-578,-1327,0,0
-519,-1523,0,0
-1258,-896,0,0
-1951,-497,1,0
-187,-1772,1,0
-1218,-685,0,0
-46,-606,1,0
-454,-1870,0,0
-1722,-481,1,0
-655,-457,0,0
-768,-971,0,0
-1839,-1079,0,0
-1516,-1813,0,0
-96,-1581,0,0
-257,-871,0,0
-1735,-481,1,0
-609,-750,1,0
-1406,-1539,1,0
-618,-868,0,0
-197,-1200,0,0
-1682,-1930,1,0
-52,-356,0,0
-1819,-1080,0,0
-554,-1368,0,0
-808,-1716,0,0
-1946,-188,0,0
-171,-28,0,0
-1493,-870,1,0
-1893,-895,0,0
-93,-1904,1,0
-1431,-1246,0,0
-204,-1520,0,0
-1353,-5,0,0
-1817,-1794,1,0
-1421,-1490,0,0
-56,-683,0,0
-356,-1542,0,0
-1728,-21,0,0
-419,-365,0,0
-1563,-858,1,0
-1896,-957,0,0
-1857,-1945,0,0
-1544,-285,0,0
-1020,-1548,0,0
-1419,-1339,0,0
-1134,-740,1,0
-654,-1077,1,0
-171,-1089,0,0
-1716,-361,0,0
-1286,-83,0,0
-677,-185,0,0
-1424,-1084,0,0
-1406,-1870,0,0
-1222,-660,1,0
-937,-1612,0,0
-1925,-1173,0,0
-1452,-415,0,0
-1381,-203,1,0
-1792,-1491,1,0
-1091,-1884,0,0
-130,-1554,0,0
-170,-1383,0,0
-1057,-1726,0,0
-1851,-6,1,0
-1628,-353,0,0
-1510,-936,0,0
-14,-312,0,0
-67,-1094,0,0
-1198,-1656,0,0
-1354,-1347,0,0
-1019,-1603,0,0
-735,-940,1,0
-1657,-1202,0,0
-275,-556,0,0
-625,-664,0,0
-1633,-1267,0,0
-251,-1,0,0
-1196,-952,1,0
-1487,-1503,1,0
-1576,-435,0,0
-1676,-1460,1,0
-1641,-947,1,0
-1225,-49,1,0
-1033,-369,1,0
-1554,-1152,0,0
-79,-993,1,0
-238,-164,0,0
-1425,-1694,0,0
-968,-1293,1,0
-1701,-1446,0,0
-1156,-1944,0,0
-1782,-1460,0,0
-295,-1488,0,0
-716,-878,1,0
-1159,-1375,0,0
-1724,-263,1,0
-1770,-556,0,0
-1596,-1786,0,0
-1674,-1920,0,0
-1393,-474,0,0
-1820,-1329,0,0
-862,-924,0,0
-178,-1786,0,0
-450,-1549,1,0
-859,-1196,0,0
-914,-287,1,0
-1412,-221,1,0
-908,-1871,0,0
-1728,-1730,0,0
-1063,-1355,0,0
-1185,-23,0,0
-226,-804,1,0
-703,-437,1,0
-1762,-1434,0,0
-573,-259,1,0
-42,-1591,0,0
-526,-1717,0,0
-1333,-1329,0,0
-720,-28,0,0
-180,-947,0,0
-406,-1087,1,0
-538,-608,0,0
-113,-1146,1,0
-429,-1510,0,0
-352,-1629,1,0
-756,-1382,1,0
-675,-631,0,0
-561,-1215,0,0
-1863,-715,0,0
-1344,-1791,0,0
-593,-1130,0,0
-1590,-122,0,0
-1528,-608,0,0
-1580,-1549,0,0
-539,-416,1,0
-327,-1347,0,0
-1557,-1236,0,0
-826,-137,0,0
-265,-754,0,0
-908,-1613,0,0
-1861,-818,0,0
-1826,-918,0,0
-598,-1058,0,0
-635,-1034,0,0
-639,-543,0,0
-189,-300,0,0
-490,-423,0,0
-1300,-32,0,0
-999,-1306,1,0
-1695,-600,0,0
-1198,-925,0,0
-1202,-996,1,0
-1042,-52,0,0
-626,-1736,0,0
-176,-1476,0,0
-859,-1289,0,0
-142,-330,0,0
-513,-320,0,0
-589,-1130,0,0
-319,-307,0,0
-417,-88,0,0
-955,-208,1,0
-292,-1542,0,0
-587,-1401,0,0
-618,-784,0,0
-1124,-1580,0,0
-638,-757,0,0
-572,-272,0,0
-347,-324,0,0
-1101,-486,0,0
-1281,-894,1,0
-812,-597,0,0
-365,-1333,0,0
-645,-614,0,0
-73,-1237,0,0
-1092,-1284,0,0
-159,-1042,1,0
-1333,-1716,1,0
-1597,-1957,0,0
-1473,-1033,0,0
-631,-1108,0,0
-1711,-1885,0,0
-1909,-1515,0,0
-658,-1757,0,0
-1128,-671,0,0
-933,-768,1,0
-798,-1737,0,0
-916,-883,0,0
-163,-1205,1,0
-234,-1609,0,0
-1151,-1167,0,0
-346,-1356,1,0
-1565,-444,1,0
-599,-303,1,0
-40,-1658,0,0
-1051,-288,1,0
-1673,-443,0,0
-1903,-897,0,0
-84,-138,0,0
-58,-1237,0,0
-1320,-776,0,0
-683,-724,0,0
-1539,-1218,0,0
-82,-185,1,0
-654,-373,1,0
-1390,-1253,0,0
-1879,-653,0,0
-1785,-485,0,0
-1900,-963,1,0
-139,-1054,0,0
-1431,-194,0,0
-1491,-443,1,0
-42,-726,0,0
-1517,-658,1,0
-1920,-1616,0,0
-1376,-1436,1,0
-55,-1504,0,0
-122,-583,0,0
-402,-1677,0,0
-1689,-816,0,0
-1491,-253,0,0
-1346,-416,0,0
-1375,-1341,0,0
-219,-1776,0,0
-1788,-1266,0,0
-560,-681,0,0
-1682,-1083,1,0
-642,-1614,0,0
-404,-662,0,0
-1174,-1287,1,0
-1358,-104,0,0
-537,-73,0,0
-408,-1016,0,0
-1825,-1677,0,0
-1611,-1205,0,0
-1058,-804,1,0
-1212,-629,0,0
-1986,-664,1,0
-705,-1704,0,0
-117,-1000,0,0
-792,-1601,1,0
-104,-1784,1,0
-1080,-832,0,0
-1117,-772,0,0
-684,-908,0,0
-749,-13,0,0
-1024,-1181,0,0
-1981,-1309,1,0
-999,-1838,1,0
-417,-587,0,0
-820,-110,0,0
-685,-1099,0,0
-1892,-1897,0,0
-1393,-1877,0,0
-1939,-524,0,0
-1363,-1749,0,0
-410,-1165,0,0
-1075,-230,0,0
-685,-528,0,0
-252,-1670,1,0
-1367,-87,0,0
-338,-839,0,0
-532,-521,0,0
-358,-337,1,0
-56,-961,0,0
-1776,-1964,0,0
-886,-1411,1,0
-1439,-136,1,0
-134,-130,1,0
-1000,-577,0,0
-1140,-1301,0,0
-1197,-1165,0,0
-537,-1405,0,0
-837,-769,1,0
-1485,-335,0,0
-1919,-73,0,0
-1457,-108,1,0
-1746,-1988,1,0
-229,-1613,1,0
-1525,-1827,0,0
-1146,-938,0,0
-1107,-381,0,0
-1369,-1120,0,0
-1578,-726,1,0
-1771,-1450,0,0
-770,-595,0,0
-1009,-1477,0,0
-1558,-702,0,0
-648,-874,0,0
-1867,-1950,0,0
-105,-545,0,0
-908,-1909,0,0
-1532,-1101,0,0
-1650,-324,1,0
-461,-27,0,0
-166,-1193,0,0
-1860,-1093,0,0
-114,-1384,0,0
-123,-470,1,0
-943,-269,0,0
-279,-778,0,0
-1714,-1669,0,0
-1028,-1478,1,0
-734,-1846,0,0
-1253,-437,0,0
-469,-1806,1,0
-1773,-222,1,0
-195,-1240,0,0
-492,-1489,1,0
-880,-818,0,0
-1963,-1331,1,0
-693,-261,1,0
-1913,-1496,0,0
-273,-1193,1,0
-281,-1221,0,0
-575,-1387,0,0
-1903,-1555,0,0
-1002,-833,0,0
-249,-1930,0,0
-1899,-192,0,0
-1423,-1748,0,0
-1106,-1785,0,0
-1402,-1995,1,0
-697,-1588,0,0
-91,-1157,0,0
-362,-1511,0,0
-1930,-250,1,0
-852,-1347,1,0
-202,-638,0,0
-1811,-1517,0,0
-1750,-1272,0,0
-1936,-1546,0,0
-1795,-123,0,0
-939,-1849,0,0
-32,-1616,0,0
-897,-1199,0,0
-781,-110,1,0
-810,-482,0,0
-397,-1854,0,0
-1698,-866,0,0
-1066,-1043,0,0
-1342,-1095,0,0
-1651,-441,0,0
-1929,-784,0,0
-829,-335,0,0
-1175,-1155,0,0
-1498,-1649,1,0
-321,-1638,0,0
-1806,-1261,1,0
-1468,-1201,0,0
-1058,-699,1,0
-1074,-1452,0,0
-525,-1383,0,0
-485,-1608,0,0
-727,-1333,0,0
-1976,-1244,0,0
-1185,-1161,1,0
-188,-1034,0,0
-1647,-345,0,0
-1605,-1198,0,0
-295,-1043,0,0
-1487,-284,1,0
-1731,-1615,1,0
-75,-468,0,0
-1792,-1527,0,0
-1282,-1258,0,0
-1170,-1294,0,0
-1509,-625,0,0
-1519,-327,1,0
-1023,-1642,0,0
-1498,-1900,0,0
-829,-1353,1,0
-385,-683,0,0
-1106,-1699,0,0
-1620,-844,0,0
-525,-1289,0,0
-283,-1359,1,0
-451,-1110,0,0
-361,-76,1,0
-1941,-1868,0,0
-597,-151,0,0
-975,-1970,0,0
-1475,-69,0,0
-583,-739,0,0
-1937,-1756,0,0
-245,-621,0,0
-40,-925,0,0
-1571,-316,0,0
-7,-565,0,0
-580,-515,0,0
-1665,-63,1,0
-1470,-288,1,0
-523,-1780,0,0
-1149,-1984,1,0
-1151,-78,0,0
-1592,-1170,0,0
-492,-319,0,0
-1614,-664,0,0
-9,-1295,0,0
-1791,-1501,1,0
-37,-1502,1,0
-1907,-960,0,0
-1683,-399,0,0
-1207,-994,1,0
-1994,-1057,1,0
-1291,-948,0,0
-909,-1056,0,0
-1852,-1977,0,0
-1935,-1796,1,0
-53,-1480,0,0
-1563,-37,0,0
-1258,-572,1,0
-226,-1589,0,0
-1502,-1775,1,0
-1702,-256,0,0
-352,-1305,0,0
-1211,-389,1,0
-1950,-563,0,0
-1906,-1446,1,0
-427,-1248,0,0
-323,-1927,0,0
-1090,-1525,0,0
-1292,-970,0,0
-422,-1367,0,0
-1735,-457,0,0
-1962,-1728,1,0
-952,-315,0,0
-489,-781,0,0
-68,-1936,1,0
-363,-941,1,0
-1519,-1441,0,0
-1262,-1549,0,0
-1296,-564,1,0
-1206,-690,0,0
-798,-1706,0,0
-1299,-925,0,0
-1162,-100,0,0
-224,-368,1,0
-238,-9,0,0
-1693,-1071,0,0
-1566,-1303,0,0
-1535,-996,1,0
-1086,-260,1,0
-1177,-1184,0,0
-1069,-279,0,0
-1242,-758,0,0
-1620,-1505,0,0
-1680,-880,0,0
-1452,-531,0,0
-651,-240,1,0
-545,-1024,0,0
-1988,-839,0,0
-1434,-1214,0,0
-704,-202,1,0
-229,-1659,0,0
-204,-592,0,0
-152,-810,0,0
-95,-288,0,0
-802,-1456,0,0
-1701,-818,1,0
-855,-960,1,0
-1230,-1907,0,0
-605,-509,0,0
-47,-1604,0,0
-1105,-167,0,0
-1169,-1539,0,0
-1114,-62,1,0
-40,-733,0,0
-52,-1263,0,0
-1144,-1131,0,0
-631,-774,1,0
-1068,-395,0,0
-1995,-1842,0,0
-1442,-1772,0,0
-909,-1253,0,0
-1329,-1248,1,0
-1573,-695,0,0
-382,-1669,1,0
-727,-1772,0,0
-206,-438,1,0
-835,-614,1,0
-1310,-1504,1,0
-1909,-1178,0,0
-1644,-1387,0,0
-1842,-921,0,0
-1542,-753,0,0
-720,-747,1,0
-573,-701,0,0
-1909,-1620,0,0
-705,-1531,0,0
-1108,-170,0,0
-283,-246,0,0
-1509,-154,0,0
-406,-621,0,0
-401,-1116,0,0
-1216,-1802,1,0
-182,-1134,1,0
-671,-213,1,0
-978,-1746,0,0
-662,-895,1,0
-550,-604,0,0
-1890,-778,0,0
-1615,-1324,0,0
-1123,-683,0,0
-218,-598,0,0
-1022,-801,0,0
-1738,-1633,1,0
-1622,-404,0,0
-1952,-957,0,0
-1065,-466,0,0
-210,-945,0,0
-1466,-1898,0,0
-1565,-1737,0,0
-1952,-1288,0,0
-1545,-1139,0,0
-1956,-1202,0,0
-1673,-1727,0,0
-1550,-1881,0,0
-1555,-634,0,0
-1201,-1293,0,0
-1121,-1654,0,0
-1314,-717,1,0
-1379,-414,0,0
-1547,-1898,0,0
-1092,-148,0,0
-229,-169,0,0
-1264,-612,0,0
-68,-1430,0,0
-1286,-1911,0,0
-409,-1002,1,0
-559,-1654,0,0
-504,-519,1,0
-40,-1520,1,0
-528,-623,0,0
-1358,-914,0,0
-1087,-683,0,0
-1993,-1058,0,0
-594,-653,0,0
-546,-453,0,0
-961,-1448,1,0
-1076,-1985,0,0
-377,-560,0,0
-1683,-1207,0,0
-661,-922,0,0
-666,-1388,1,0
-1777,-439,0,0
-1602,-511,0,0
-1691,-376,0,0
-1143,-1358,0,0
-1295,-236,0,0
-130,-1527,0,0
-1016,-914,0,0
-1910,-1504,1,0
-1977,-1850,0,0
-646,-614,0,0
-867,-516,1,0
-613,-625,1,0
area 4
64,-1717,1,0
1462,-243,0,0
661,-1134,0,0
1373,-782,0,0
1044,-90,0,0
947,-1232,0,0
332,-898,1,0
1025,-1116,0,0
1335,-621,1,0
728,-511,0,0
706,-1614,0,0
603,-1787,1,0
64,-1860,0,0
781,-571,0,0
1603,-1843,0,0
568,-182,1,0
988,-355,0,0
277,-997,1,0
626,-585,0,0
863,-516,0,0
926,-1560,0,0
1894,-1495,1,0
4,-1720,1,0
475,-1383,1,0
207,-1185,1,0
1771,-627,1,0
266,-1443,0,0
1613,-835,1,0
234,-1739,0,0
1494,-96,0,0
1455,-358,0,0
496,-322,0,0
1666,-537,0,0
311,-228,0,0
680,-400,0,0
490,-1318,0,0
570,-626,0,0
1220,-1669,1,0
74,-1496,0,0
801,-1853,0,0
1101,-78,0,0
161,-610,0,0
664,-786,0,0
1329,-612,0,0
295,-376,1,0
66,-1279,0,0
638,-137,0,0
654,-568,0,0
1202,-767,0,0
1093,-347,0,0
1524,-1946,0,0
1920,-1871,0,0
1348,-1206,0,0
325,-850,0,0
1549,-1948,0,0
1663,-1399,0,0
9,-636,0,0
1828,-1061,0,0
1227,-205,0,0
304,-857,0,0
517,-1484,0,0
1866,-1656,0,0
476,-1707,0,0
1470,-1834,1,0
699,-1870,0,0
524,-1057,0,0
677,-1507,0,0
437,-916,1,0
1557,-86,0,0
1073,-1253,1,0
1155,-895,1,0
66,-63,1,0
1157,-448,0,0
361,-1828,1,0
85,-917,0,0
640,-689,1,0
627,-725,1,0
635,-767,0,0
1143,-437,1,0
1877,-1894,1,0
730,-341,1,0
297,-1276,1,0
1240,-1085,0,0
1525,-280,0,0
900,-251,1,0
1956,-1935,0,0
1932,-940,0,0
1066,-154,1,0
1538,-284,0,0
409,-225,0,0
308,-362,1,0
749,-321,0,0
287,-340,0,0
583,-1258,0,0
1265,-755,0,0
590,-1008,0,0
301,-1859,1,0
1022,-1869,0,0
858,-1707,1,0
1315,-1210,1,0
1490,-53,0,0
1217,-935,0,0
1803,-1127,0,0
519,-533,0,0
1300,-483,1,0
1030,-707,0,0
1158,-552,0,0
970,-1850,1,0
247,-683,0,0
361,-1705,0,0
1689,-1330,0,0
144,-484,1,0
1382,-564,0,0
1900,-802,0,0
951,-1113,0,0
203,-1883,0,0
880,-1549,1,0
1700,-1649,1,0
496,-1746,0,0
1145,-1193,0,0
480,-39,0,0
1336,-27,0,0
440,-378,1,0
728,-965,1,0
1334,-1822,0,0
1261,-1592,0,0
50,-843,0,0
908,-133,0,0
515,-902,0,0
128,-636,0,0
668,-1627,0,0
1448,-1113,0,0
1406,-990,0,0
1318,-139,0,0
856,-1546,1,0
1901,-1233,0,0
577,-1774,0,0
418,-62,0,0
1988,-1235,0,0
52,-621,0,0
784,-1779,0,0
121,-799,0,0
1469,-669,0,0
1926,-1898,0,0
1101,-1705,1,0
861,-839,0,0
1083,-570,1,0
1980,-1888,1,0
1697,-317,0,0
1818,-75,0,0
1301,-1994,1,0
1946,-264,1,0
916,-1812,0,0
841,-1321,1,0
1907,-1625,0,0
1476,-1145,0,0
144,-1646,0,0
1045,-1199,0,0
1102,-1030,0,0
938,-422,1,0
1641,-1997,0,0
689,-1045,0,0
1375,-10,1,0
60,-445,0,0
1935,-659,1,0
1899,-1005,1,0
926,-1068,0,0
1591,-1880,0,0
589,-366,0,0
839,-372,0,0
413,-1331,1,0
1782,-1865,0,0
731,-1561,0,0
1508,-1668,0,0
912,-1960,0,0
1354,-255,1,0
990,-1172,0,0
607,-1499,0,0
1967,-1867,0,0
750,-1249,0,0
1284,-1292,0,0
78,-1938,0,0
786,-1556,0,0
442,-268,0,0
137,-1570,0,0
1949,-1108,1,0
388,-912,0,0
1117,-1965,0,0
880,-332,0,0
1921,-676,0,0
768,-1037,0,0
225,-963,0,0
717,-1896,0,0
1104,-179,0,0
49,-1669,0,0
1910,-1978,0,0
1852,-1913,0,0
198,-561,0,0
865,-1100,0,0
678,-1852,1,0
740,-1855,1,0
858,-1123,0,0
228,-455,1,0
642,-755,1,0
1905,-1995,1,0
626,-715,0,0
334,-1504,1,0
1881,-1614,0,0
422,-1052,1,0
618,-133,1,0
208,-1711,1,0
1925,-1973,0,0
1137,-634,0,0
349,-1810,0,0
759,-1290,0,0
1581,-1449,0,0
1749,-930,0,0
1374,-1267,0,0
1657,-1058,0,0
619,-954,0,0
848,-1211,0,0
1778,-1326,0,0
474,-826,0,0
1716,-618,0,0
313,-1022,0,0
1708,-1244,0,0
1611,-668,0,0
1557,-1499,0,0
1298,-1664,1,0
1461,-960,0,0
1835,-691,1,0
41,-637,0,0
1956,-1387,0,0
1692,-876,1,0
1585,-1321,1,0
625,-503,0,0
899,-630,1,0
19,-1923,0,0
595,-769,0,0
150,-778,0,0
282,-902,0,0
1191,-1096,0,0
1691,-1542,0,0
1581,-1627,0,0
180,-214,0,0
402,-169,0,0
1772,-32,0,0
300,-1500,1,0
1031,-332,0,0
961,-964,0,0
103,-1813,0,0
1759,-1962,0,0
84,-387,0,0
275,-151,1,0
1178,-808,1,0
1632,-1950,0,0
1725,-187,0,0
40,-893,0,0
1230,-215,0,0
1974,-75,0,0
1364,-339,0,0
1711,-1558,0,0
699,-673,0,0
1720,-1198,0,0
1706,-1046,0,0
1788,-799,1,0
1246,-1004,1,0
192,-1719,0,0
1546,-1184,0,0
1997,-546,0,0
465,-681,1,0
1352,-727,0,0
13,-853,1,0
143,-428,0,0
420,-86,0,0
441,-1315,1,0
185,-1466,0,0
307,-367,1,0
1111,-1574,1,0
459,-1335,0,0
1042,-1283,0,0
1828,-1820,0,0
1931,-1164,0,0
906,-1774,1,0
583,-837,1,0
203,-587,0,0
547,-354,1,0
224,-535,0,0
637,-388,0,0
407,-519,0,0
244,-1620,0,0
450,-407,1,0
1524,-441,0,0
1459,-271,0,0
1910,-1820,1,0
677,-1944,1,0
1335,-1658,0,0
932,-382,0,0
1425,-735,0,0
1255,-1992,0,0
1081,-1405,0,0
98,-1940,0,0
906,-1152,0,0
997,-941,0,0
1638,-253,0,0
193,-993,0,0
1961,-626,0,0
272,-761,0,0
1180,-119,0,0
1512,-32,1,0
437,-74,0,0
722,-1353,0,0
480,-1902,0,0
1205,-823,0,0
1118,-933,0,0
1148,-36,0,0
1554,-831,0,0
1104,-537,0,0
659,-204,0,0
1138,-1933,0,0
66,-1578,0,0
25,-434,1,0
218,-607,0,0
30,-875,0,0
1362,-1412,0,0
1489,-1110,1,0
551,-576,1,0
1822,-1754,1,0
655,-515,0,0
1660,-1556,0,0
997,-1545,0,0
478,-1053,0,0
247,-355,0,0
563,-305,0,0
680,-8,0,0
433,-348,1,0
287,-1221,1,0
1784,-581,0,0
1564,-595,0,0
65,-1430,0,0
909,-1709,1,0
750,-1207,0,0
89,-1321,0,0
560,-866,0,0
799,-1271,0,0
1261,-1508,0,0
1788,-1075,0,0
331,-1787,0,0
820,-1244,1,0
1387,-1332,0,0
464,-1216,0,0
579,-46,0,0
566,-1405,1,0
201,-1155,0,0
1952,-1841,0,0
1820,-488,0,0
453,-1891,0,0
1496,-239,0,0
1842,-1553,0,0
185,-34,0,0
712,-1766,1,0
98,-1390,0,0
1226,-721,0,0
170,-662,0,0
431,-257,1,0
488,-842,0,0
693,-697,0,0
1839,-948,0,0
279,-129,0,0
391,-1475,0,0
1711,-1071,1,0
1517,-1488,1,0
1546,-324,0,0
374,-1569,0,0
1888,-275,0,0
1761,-108,0,0
1982,-316,0,0
1747,-1071,0,0
362,-869,0,0
1232,-1908,0,0
155,-360,1,0
1293,-1067,0,0
490,-1408,0,0
1279,-849,0,0
1737,-1157,0,0
917,-67,1,0
1730,-1357,0,0
1893,-755,1,0
1943,-1368,0,0
302,-295,0,0
771,-240,0,0
339,-445,0,0
1844,-1928,0,0
1191,-363,0,0
1708,-1311,1,0
1930,-1066,0,0
954,-1810,0,0
1763,-1847,0,0
4,-1802,1,0
223,-1076,0,0
1972,-134,0,0
425,-18,1,0
1217,-1204,0,0
1168,-8,0,0
140,-1592,1,0
575,-1855,0,0
202,-559,0,0
1722,-125,0,0
669,-1060,0,0
819,-355,0,0
761,-1483,0,0
692,-1319,0,0
1412,-603,0,0
1193,-861,0,0
399,-1098,0,0
707,-267,0,0
106,-1170,0,0
1537,-1133,0,0
1032,-1574,0,0
378,-1205,0,0
406,-39,0,0
1550,-521,0,0
984,-658,0,0
1578,-33,1,0
690,-1253,0,0
778,-585,0,0
173,-1323,0,0
718,-411,1,0
192,-1806,1,0
1106,-608,0,0
1975,-1892,0,0
2,-684,0,0
1783,-1026,0,0
1145,-1091,0,0
1225,-1706,0,0
1585,-796,0,0
1826,-1249,0,0
435,-780,0,0
117,-1718,0,0
1423,-1540,0,0
1796,-1132,0,0
1560,-136,0,0
667,-323,0,0
1435,-1529,0,0
1369,-217,0,0
527,-1673,1,0
1251,-1796,0,0
1417,-706,1,0
1522,-869,1,0
1901,-1990,0,0
554,-1492,1,0
964,-831,0,0
631,-283,0,0
1825,-1437,0,0
1395,-376,0,0
40,-98,1,0
1452,-1950,0,0
1104,-1138,0,0
1348,-1337,0,0
880,-1250,0,0
1509,-1074,0,0
587,-1726,0,0
1847,-889,0,0
1320,-1227,0,0
776,-188,0,0
268,-1308,0,0
901,-207,0,0
160,-1079,1,0
862,-755,0,0
845,-969,1,0
287,-1398,0,0
1272,-1029,0,0
560,-1316,0,0
1747,-768,0,0
138,-1435,0,0
1279,-730,0,0
18,-1923,0,0
1521,-1377,0,0
344,-737,1,0
417,-1582,1,0
609,-847,0,0
20,-553,1,0
1786,-1704,0,0
1262,-1332,0,0
1858,-544,0,0
1993,-767,0,0
1111,-718,0,0
186,-1811,0,0
864,-1722,1,0
1667,-939,0,0
1450,-1440,0,0
1712,-1810,1,0
1796,-1581,0,0
3,-1015,0,0
1972,-876,0,0
782,-812,0,0
669,-1542,0,0
168,-112,0,0
1929,-1703,1,0
853,-481,0,0
432,-402,0,0
1693,-420,1,0
1511,-685,1,0
1599,-554,1,0
1173,-522,1,0
422,-517,0,0
274,-824,0,0
102,-52,0,0
1016,-72,0,0
1681,-1643,0,0
1420,-594,0,0
586,-1813,0,0
1963,-1275,0,0
1729,-1680,0,0
1103,-1774,0,0
1288,-482,0,0
168,-959,0,0
696,-1720,1,0
298,-1536,0,0
332,-1794,1,0
598,-1631,0,0
1905,-423,0,0
346,-976,0,0
249,-1843,0,0
1707,-60,1,0
1875,-1658,0,0
386,-281,0,0
1071,-574,1,0
692,-844,0,0
249,-245,0,0
1475,-1209,0,0
1868,-38,1,0
1081,-1639,0,0
1236,-1297,1,0
1117,-1660,0,0
643,-755,0,0
1780,-1645,0,0
1173,-289,1,0
18,-396,0,0
1572,-1752,1,0
1930,-1946,0,0
1668,-579,0,0
534,-1397,1,0
1621,-224,0,0
291,-1096,1,0
1773,-910,1,0
1314,-1922,0,0
1073,-1640,1,0
1083,-503,1,0
1257,-730,0,0
979,-1556,0,0
1826,-399,0,0
1268,-330,0,0
1607,-1286,0,0
967,-23,0,0
958,-460,0,0
1514,-643,0,0
65,-533,1,0
216,-1575,0,0
2,-1630,0,0
39,-668,0,0
1926,-168,0,0
1728,-1813,1,0
410,-1428,0,0
1240,-285,0,0
392,-230,0,0
183,-883,0,0
1043,-1229,0,0
106,-1547,0,0
877,-483,0,0
1322,-744,1,0
367,-268,1,0
1355,-1993,0,0
1804,-595,0,0
1402,-258,0,0
654,-239,0,0
1182,-1444,0,0
1167,-1689,1,0
1348,-1414,1,0
575,-1001,0,0
5,-1255,0,0
652,-1183,0,0
576,-476,0,0
602,-1037,1,0
1153,-1417,1,0
213,-181,1,0
666,-316,1,0
1221,-1162,1,0
100,-1217,0,0
1462,-132,1,0
681,-559,1,0
835,-836,1,0
1968,-1163,0,0
1207,-1263,0,0
297,-476,0,0
1439,-1811,0,0
1957,-1705,0,0
1603,-850,0,0
418,-507,0,0
1817,-309,0,0
98,-824,0,0
504,-515,0,0
245,-514,1,0
121,-798,0,0
1891,-1296,0,0
921,-172,0,0
466,-716,1,0

near cbsd peopel number
117
129
121
130
117
102
113
132
134
103
124
137
125
145
111
135
124
146
113
138
117
117
118
127
119
120
109
132
125
128
