each times' max average throughput
540.643127,537.808289,545.627075,544.662476,0.000000,0.000000,0.000000,540.169800,0.000000,543.337769,541.455200,546.926453,0.000000,545.682373,0.000000,548.666077,0.000000,0.000000,550.033508,549.576172,549.117676,541.706055,0.000000,0.000000,0.000000,0.000000,0.000000,548.974915,542.268433,549.173950,0.000000,547.685913,547.660706,0.000000,546.596802,0.000000,544.797424,0.000000,540.301270,0.000000,0.000000,0.000000,550.588318,549.452820,0.000000,0.000000,0.000000,547.163086,545.120789,549.354736,548.783936,0.000000,541.430786,544.500366,0.000000,0.000000,0.000000,537.560120,0.000000,0.000000,0.000000,0.000000,0.000000,0.000000,0.000000,0.000000,545.608276,0.000000,0.000000,0.000000,545.324890,0.000000,0.000000,0.000000,0.000000,0.000000,0.000000,0.000000,0.000000,550.105347,0.000000,0.000000,0.000000,545.941956,0.000000,0.000000,542.940308,543.063538,0.000000,0.000000,0.000000,0.000000,0.000000,0.000000,0.000000,0.000000,0.000000,0.000000,0.000000,0.000000,
avg. throughput in all test times
201.798080
avg. BS TX power in all test times
MBS area 1,MBS area 2,MBS area 3,MBS area 4,MBS area 5,MBS area 6,MBS area 7,MBS area 8,CBSD 1,CBSD 2,CBSD 3,CBSD 4,CBSD 5,CBSD 6,CBSD 7,CBSD 8,CBSD 9,
6.300,6.250,5.787,5.800,5.850,6.162,5.850,6.350,0.000,0.000,0.000,0.000,0.000,0.000,0.000,0.000,0.000,
avg. mbs all power,avg. cbsd enable number,avg. mbs area all power,avg. cbsd all power
48.350,0.000,48.350,0.000
avg. max avg. throughput generation number in all test times
0.370000
avg. number of relay UE
0



the max average throughput times

BS TX power
MBS area 1,MBS area 2,MBS area 3,MBS area 4,MBS area 5,MBS area 6,MBS area 7,MBS area 8,CBSD 1,CBSD 2,CBSD 3,CBSD 4,CBSD 5,CBSD 6,CBSD 7,CBSD 8,CBSD 9,
6.250,6.250,5.000,5.000,6.250,7.500,6.250,5.000,0.000,0.000,0.000,0.000,0.000,0.000,0.000,0.000,0.000,
max average throughput
543.063538

x,y,area,be blocked (1 : NLOS / 0 : LOS),be blocked number (>=1 : CBSD(x) / 0 : no),connect bs number (>=1 : CBSD / 0 : MBS),throughput (unit : M bps)
1036,1759,1,1,0,0,2.042591
1153,159,2,0,0,0,775.356995
-1646,1316,3,0,0,0,573.922668
-524,1973,4,1,0,0,1.636420
-305,-769,5,1,0,0,28.006941
-1812,-768,6,0,0,0,651.026794
892,-162,7,0,0,0,847.185181
598,-1941,8,0,0,0,584.382019
1661,1820,1,0,0,0,561.261169
836,352,2,0,0,0,847.029236
-416,197,3,1,0,0,99.648331
-278,1459,4,0,0,0,673.510132
-84,-1788,5,0,0,0,652.075623
-590,-17,6,0,0,0,997.053650
1799,-294,7,0,0,0,646.879761
1435,-1998,8,0,0,0,530.269958
1033,1600,1,0,0,0,634.389099
1990,1721,2,0,0,0,542.757202
-439,53,3,0,0,0,1021.865295
-1557,1679,4,0,0,0,550.456482
-602,-989,5,0,0,0,776.866577
-580,-308,6,0,0,0,966.300598
1618,-1534,7,1,0,0,1.570412
618,-1515,8,0,0,0,645.870422
1123,1955,1,0,0,0,586.409119
235,83,2,1,0,0,314.339783
-1888,1762,3,0,0,0,516.614197
-691,1401,4,0,0,0,659.090027
-797,-1228,5,0,0,0,709.565796
-1279,-1187,6,0,0,0,685.403992
1234,-250,7,0,0,0,752.795410
86,-721,8,1,0,0,32.595047
191,992,1,0,0,0,816.054382
996,962,2,1,0,0,6.445086
-1401,682,3,0,0,0,659.814941
-1785,1807,4,0,0,0,521.271484
-116,-1684,5,0,0,0,668.827759
-906,-649,6,0,0,0,814.028137
1692,-335,7,0,0,0,662.657593
144,-245,8,0,0,0,1149.360229
405,1290,1,0,0,0,732.350281
1109,960,2,0,0,0,709.013062
-1078,475,3,0,0,0,739.877319
-66,1111,4,1,0,0,9.814118
-332,-1490,5,0,0,0,697.581055
-1731,-100,6,0,0,0,687.221680
940,-120,7,0,0,0,834.449036
90,-1693,8,0,0,0,635.737427
704,1641,1,0,0,0,652.767761
1346,811,2,0,0,0,689.284302
-1755,1456,3,1,0,0,1.175907
-42,1772,4,0,0,0,623.067688
-1628,-1973,5,1,0,0,1.041866
-1862,-1789,6,0,0,0,573.799561
1998,-333,7,0,0,0,616.839050
219,-1986,8,0,0,0,589.026733
1315,1318,1,0,0,0,640.849976
1374,1252,2,1,0,0,2.699243
-964,405,3,1,0,0,11.754656
-890,1799,4,0,0,0,587.741394
-547,-1450,5,0,0,0,693.263000
-1265,-1174,6,0,0,0,688.553528
1661,-324,7,0,0,0,668.098145
703,-1009,8,0,0,0,727.551086
464,961,1,0,0,0,800.293152
1562,688,2,1,0,0,3.477412
-1111,615,3,0,0,0,718.352234
-706,1687,4,0,0,0,614.173279
-318,-1836,5,1,0,0,2.680033
-1824,-224,6,1,0,0,3.344754
1498,-202,7,0,0,0,700.404297
943,-991,8,1,0,0,5.368017
160,666,1,1,0,0,46.204041
1770,1553,2,0,0,0,574.095032
-886,150,3,0,0,0,817.637451
-504,1582,4,0,0,0,641.692505
-567,-831,5,0,0,0,817.256042
-544,-96,6,0,0,0,1016.152527
814,-97,7,0,0,0,876.161682
125,-1906,8,1,0,0,1.995139
1464,1795,1,0,0,0,578.752686
1660,854,2,0,0,0,640.088318
-1168,639,3,0,0,0,704.802490
-434,1205,4,1,0,0,6.514574
-127,-381,5,0,0,0,1081.790283
-1400,-619,6,0,0,0,722.905701
1611,-728,7,0,0,0,655.624756
113,-134,8,1,0,0,424.937469
10,694,1,0,0,0,924.090454
1186,855,2,0,0,0,709.938660
-1442,988,3,1,0,0,2.597779
-18,1607,4,0,0,0,650.990173
-146,-374,5,0,0,0,1081.877930
-375,-153,6,0,0,0,1105.647827
1476,-747,7,0,0,0,674.596008
995,-1730,8,0,0,0,589.355164
1035,1880,1,0,0,0,600.409119
507,476,2,0,0,0,923.526733
-1216,703,3,0,0,0,689.478577
-998,1589,4,0,0,0,606.860779
-531,-703,5,1,0,0,23.560028
-774,-683,6,0,0,0,836.064331
1873,-573,7,0,0,0,626.395325
584,-1991,8,1,0,0,1.558894
669,1983,1,0,0,0,607.550415
1239,964,2,1,0,0,4.454120
-1381,159,3,1,0,0,5.119832
-241,1212,4,0,0,0,726.161377
-505,-1784,5,1,0,0,2.719919
-667,-112,6,0,0,0,957.812439
1679,-1069,7,1,0,0,2.202402
793,-1259,8,0,0,0,672.994934
662,707,1,0,0,0,828.167236
1563,1426,2,0,0,0,604.450317
-785,727,3,1,0,0,11.000516
-305,1928,4,0,0,0,595.645508
-813,-859,5,1,0,0,10.208047
-1882,-1118,6,0,0,0,620.694519
1940,-593,7,0,0,0,616.411194
801,-1493,8,1,0,0,2.850219
531,1499,1,0,0,0,685.877136
1220,121,2,0,0,0,760.437988
-724,15,3,0,0,0,879.740784
-584,1592,4,0,0,0,635.679321
-678,-1081,5,1,0,0,8.186438
-1021,-867,6,0,0,0,761.197449
1107,-403,7,1,0,0,10.325307
242,-608,8,1,0,0,42.900402
1259,1326,1,0,0,0,646.001709
1681,1622,2,0,0,0,576.362061
-1899,1346,3,0,0,0,545.835571
-11,1248,4,0,0,0,723.317871
-237,-1081,5,0,0,0,789.842712
-1847,-1528,6,0,0,0,594.880493
215,-161,7,1,0,0,285.993347
1007,-1469,8,0,0,0,621.703125
42,1142,1,1,0,0,11.274428
1050,12,2,1,0,0,14.374287
-1431,479,3,0,0,0,668.968567
-117,339,4,1,0,0,163.415421
-1049,-1614,5,0,0,0,631.345825
-1559,-883,6,0,0,0,677.842102
302,-238,7,0,0,0,1094.337891
149,-305,8,0,0,0,1098.108032
85,355,1,0,0,0,1109.328613
1557,890,2,0,0,0,651.526611
-1480,662,3,0,0,0,648.478516
-435,725,4,0,0,0,835.161499
-1926,-1964,5,1,0,0,0.838348
-461,-213,6,1,0,0,107.826828
1959,-1901,7,0,0,0,532.378418
258,-1938,8,0,0,0,595.191956
164,356,1,0,0,0,1088.804321
1659,1586,2,0,0,0,581.354614
-641,161,3,0,0,0,906.055786
-229,1190,4,0,0,0,731.759399
-720,-1825,5,0,0,0,625.929810
-1562,-381,6,0,0,0,708.833923
1250,-25,7,0,0,0,754.812805
1531,-1815,8,0,0,0,540.219849
793,1029,1,0,0,0,743.812439
1131,673,2,0,0,0,740.087952
-1994,1076,3,0,0,0,553.434509
-151,256,4,0,0,0,1136.428833
-535,-1427,5,0,0,0,698.059021
-930,-495,6,0,0,0,830.198120
1023,-355,7,1,0,0,13.164065
49,-1181,8,0,0,0,738.903870
153,344,1,0,0,0,1100.416504
1906,108,2,1,0,0,2.493673
-1819,820,3,1,0,0,1.751816
-1321,1474,4,0,0,0,591.696777
-840,-1457,5,0,0,0,669.877686
-844,-108,6,0,0,0,891.679504
1543,-35,7,1,0,0,4.683325
619,-1866,8,0,0,0,593.614990
25,1576,1,1,0,0,4.401300
465,80,2,1,0,0,110.757645
-1351,143,3,0,0,0,699.016785
-562,1510,4,0,0,0,650.264282
-194,-1910,5,0,0,0,632.103882
-1603,-503,6,0,0,0,696.244995
1558,-152,7,0,0,0,690.387329
449,-1835,8,0,0,0,604.940308
757,871,1,0,0,0,777.816223
966,676,2,1,0,0,10.300873
-1699,798,3,0,0,0,606.760681
-1189,1451,4,0,0,0,606.933411
-1172,-1841,5,0,0,0,595.642517
-1401,-238,6,0,0,0,744.222656
1614,-955,7,0,0,0,638.781067
615,-697,8,1,0,0,16.456678
1057,1543,1,1,0,0,2.650403
864,351,2,0,0,0,839.055298
-1575,425,3,0,0,0,646.719849
-1008,1188,4,0,0,0,659.845276
-975,-1725,5,0,0,0,623.101685
-1498,-735,6,0,0,0,698.204590
445,-333,7,0,0,0,988.108704
551,-911,8,1,0,0,11.158257
190,571,1,0,0,0,965.200256
1647,341,2,0,0,0,669.855347
-1607,1100,3,0,0,0,596.308838
-1043,1981,4,1,0,0,1.242301
-115,-366,5,0,0,0,1094.989868
-1684,-9,6,0,0,0,695.571228
1317,-214,7,0,0,0,736.152405
1227,-1889,8,0,0,0,555.093140
146,1825,1,1,0,0,2.823912
1572,476,2,0,0,0,676.638428
-498,496,3,0,0,0,888.332214
-798,1599,4,0,0,0,620.737549
-6,-1941,5,0,0,0,628.977661
-708,-227,6,0,0,0,930.533691
1616,-946,7,1,0,0,2.641115
1330,-1605,8,0,0,0,577.025085
165,1957,1,0,0,0,625.632202
237,195,2,0,0,0,1159.352051
-1602,1590,3,0,0,0,554.519226
-160,348,4,0,0,0,1063.283325
-1365,-1545,5,0,0,0,611.820435
-1209,-604,6,0,0,0,758.631226
1831,-714,7,0,0,0,625.437317
1296,-1978,8,0,0,0,541.376038
1675,1901,1,0,0,0,553.386841
1513,344,2,1,0,0,4.610467
-257,40,3,0,0,0,1174.911011
-1765,1947,4,0,0,0,511.722382
-1507,-1991,5,0,0,0,557.500061
-747,-259,6,1,0,0,37.244160
1088,-322,7,0,0,0,782.670837
1179,-1425,8,0,0,0,610.967163
222,453,1,0,0,0,1016.039551
1628,1215,2,0,0,0,616.019104
-1704,90,3,0,0,0,633.896729
-1095,1502,4,0,0,0,609.546082
-527,-613,5,0,0,0,880.181519
-992,-383,6,0,0,0,827.524780
1847,-10,7,0,0,0,643.123840
307,-1946,8,0,0,0,593.026855
544,1783,1,0,0,0,640.493530
1162,752,2,0,0,0,725.639160
-426,4,3,0,0,0,1032.605103
-825,1259,4,0,0,0,669.691650
-673,-1312,5,1,0,0,5.357892
-1633,-949,6,1,0,0,3.083734
1316,-828,7,0,0,0,692.328918
1788,-1823,8,0,0,0,519.782654
434,1517,1,0,0,0,688.118286
1617,301,2,1,0,0,3.880431
-1970,621,3,0,0,0,579.603821
-1073,1229,4,1,0,0,3.188458
-1547,-1840,5,1,0,0,1.254322
-1123,-341,6,0,0,0,799.159119
1846,-1402,7,0,0,0,578.541626
1070,-1848,8,0,0,0,570.185669
222,1677,1,0,0,0,668.212341
1156,427,2,0,0,0,758.953918
-1146,446,3,0,0,0,727.556580
-268,388,4,0,0,0,1003.326050
-118,-1524,5,0,0,0,697.202148
-418,-182,6,0,0,0,1071.512451
1595,-1157,7,0,0,0,624.690491
1496,-1591,8,0,0,0,563.838623
792,1753,1,0,0,0,631.543030
705,660,2,0,0,0,829.007996
-868,230,3,1,0,0,18.146046
-94,848,4,0,0,0,832.551819
-37,-1711,5,0,0,0,664.892578
-1702,-1458,6,0,0,0,614.004395
969,-926,7,1,0,0,7.091199
1390,-1673,8,0,0,0,564.977661
307,1194,1,0,0,0,758.838745
1091,1007,2,1,0,0,5.250636
-1270,553,3,0,0,0,693.461060
-711,1075,4,0,0,0,714.098450
-30,-1668,5,1,0,0,3.720843
-1363,-754,6,0,0,0,717.911011
1225,-670,7,1,0,0,6.290123
209,-1867,8,0,0,0,606.520264
340,1038,1,0,0,0,793.608704
1211,502,2,0,0,0,741.215698
-1810,391,3,1,0,0,2.188258
-852,1414,4,0,0,0,643.328003
-68,-331,5,0,0,0,1131.595337
-1608,-1458,6,0,0,0,623.103455
898,-160,7,0,0,0,845.429016
490,-759,8,0,0,0,816.099304
1643,1906,1,1,0,0,1.094122
991,783,2,0,0,0,751.900818
-1840,816,3,0,0,0,586.935486
-310,1226,4,0,0,0,719.545288
-161,-390,5,1,0,0,138.681351
-1700,-946,6,0,0,0,654.315918
1908,-812,7,0,0,0,610.172180
13,-1942,8,0,0,0,597.093933
383,1023,1,0,0,0,793.587769
672,524,2,0,0,0,865.006836
-1504,1241,3,0,0,0,595.948242
-333,1926,4,0,0,0,595.267761
-158,-755,5,0,0,0,893.684448
-1434,-345,6,0,0,0,733.555969
1374,-498,7,0,0,0,710.055359
1209,-1561,8,0,0,0,592.398193
222,1387,1,0,0,0,721.415100
1812,1214,2,1,0,0,1.676902
-764,492,3,1,0,0,17.546335
-1805,1850,4,0,0,0,516.376160
-38,-326,5,0,0,0,1140.000854
-249,-82,6,0,0,0,1231.116943
1239,-763,7,0,0,0,711.307373
684,-1918,8,1,0,0,1.648646
1504,1993,1,0,0,0,557.523865
984,63,2,1,0,0,17.189894
-1750,283,3,0,0,0,623.029663
-317,657,4,1,0,0,32.192383
-42,-467,5,1,0,0,112.217049
-1528,-46,6,0,0,0,723.289429
982,-518,7,0,0,0,788.917053
531,-564,8,0,0,0,860.344666
1048,1846,1,1,0,0,1.818133
881,428,2,0,0,0,824.945801
-1969,1080,3,1,0,0,1.230860
-628,771,4,0,0,0,788.523315
-936,-1960,5,1,0,0,1.697861
-1210,-742,6,1,0,0,7.163175
1937,-1541,7,0,0,0,559.979248
681,-1853,8,0,0,0,592.435608
320,554,1,0,0,0,947.557373
1142,134,2,0,0,0,778.851868
-1365,937,3,1,0,0,3.052335
-378,503,4,0,0,0,920.217224
-1425,-1594,5,1,0,0,1.779475
-1575,-802,6,0,0,0,681.740173
1760,-1511,7,0,0,0,578.346558
251,-1388,8,1,0,0,4.904686
591,1478,1,0,0,0,685.605774
1937,1408,2,1,0,0,1.268847
-1945,1062,3,0,0,0,559.704224
-311,888,4,1,0,0,15.899514
-718,-1693,5,1,0,0,2.786990
-795,-142,6,1,0,0,35.205395
1681,-735,7,1,0,0,2.806439
1086,-1561,8,0,0,0,603.070068
1635,1887,1,0,0,0,557.525818
1387,911,2,1,0,0,3.779895
-763,548,3,0,0,0,804.873962
-1498,1712,4,0,0,0,552.307800
-1129,-1885,5,0,0,0,593.718689
-1382,-665,6,1,0,0,5.707156
1565,-462,7,1,0,0,3.972699
1175,-1645,8,1,0,0,1.684824
775,923,1,0,0,0,765.342346
1397,1251,2,0,0,0,638.797852
-1316,47,3,0,0,0,707.945374
-577,1921,4,0,0,0,587.929260
-522,-1885,5,0,0,0,626.794861
-1540,-206,6,1,0,0,5.493199
803,-48,7,0,0,0,881.594849
548,-1971,8,1,0,0,1.626030
599,1481,1,1,0,0,4.229712
1999,1137,2,0,0,0,580.788574
-1863,1362,3,0,0,0,548.253906
-658,1109,4,0,0,0,713.952026
-98,-1519,5,0,0,0,698.403748
-1472,-412,6,0,0,0,723.312073
1908,-513,7,0,0,0,623.923950
22,-692,8,0,0,0,892.672729
109,1101,1,0,0,0,789.918701
939,361,2,0,0,0,817.257324
-1511,143,3,1,0,0,3.949876
-542,610,4,0,0,0,845.372620
-12,-1518,5,0,0,0,699.177917
-1345,-121,6,1,0,0,8.284925
548,-205,7,0,0,0,973.307495
7,-1469,8,0,0,0,676.651489
188,1581,1,0,0,0,685.541443
1280,650,2,0,0,0,715.174011
-1803,1350,3,1,0,0,1.220031
-26,747,4,1,0,0,30.146032
-435,-1007,5,0,0,0,792.382019
-1777,-1174,6,0,0,0,628.506287
1917,-1623,7,0,0,0,555.836304
1111,-1251,8,1,0,0,2.958717
121,1494,1,0,0,0,702.813538
1412,1236,2,0,0,0,638.602051
-1698,1042,3,0,0,0,589.853027
-1689,1826,4,0,0,0,527.150940
-852,-1314,5,1,0,0,4.486117
-906,-525,6,0,0,0,831.953552
1412,-872,7,0,0,0,673.682861
835,-855,8,0,0,0,735.748108
666,1325,1,0,0,0,705.872803
1021,195,2,0,0,0,807.852661
-1181,612,3,0,0,0,705.064636
-829,1348,4,0,0,0,655.390808
-491,-1037,5,1,0,0,11.144614
-179,-166,6,1,0,0,346.010986
1444,-910,7,1,0,0,3.477328
392,-1658,8,1,0,0,2.803689
393,1706,1,1,0,0,3.225294
882,179,2,0,0,0,849.291199
-1438,730,3,0,0,0,650.000854
-930,1895,4,0,0,0,573.453430
-1121,-1460,5,0,0,0,644.099854
-822,-555,6,0,0,0,847.562256
908,-323,7,0,0,0,829.600159
966,-1785,8,0,0,0,584.578247
498,631,1,0,0,0,881.805786
983,833,2,0,0,0,746.170105
-384,141,3,1,0,0,127.363060
-859,981,4,1,0,0,6.180773
-555,-1177,5,0,0,0,743.331970
-1280,-1170,6,1,0,0,3.971712
503,-58,7,0,0,0,1014.978577
691,-1274,8,0,0,0,680.509094
1351,1592,1,0,0,0,608.206848
984,291,2,0,0,0,811.562378
-824,549,3,0,0,0,789.755920
-595,1459,4,0,0,0,656.629517
-401,-1474,5,0,0,0,697.387451
-1787,-788,6,1,0,0,2.791915
1426,-76,7,0,0,0,716.686768
1218,-1415,8,1,0,0,2.135415
39,1496,1,0,0,0,703.269226
1570,29,2,0,0,0,689.498413
-1969,1705,3,0,0,0,514.221375
-212,1465,4,0,0,0,674.471985
-146,-1310,5,0,0,0,739.647827
-1925,-604,6,1,0,0,2.534862
511,-374,7,1,0,0,56.336739
527,-1927,8,0,0,0,589.065613
1109,1562,1,1,0,0,2.468215
1855,1146,2,0,0,0,595.896912
-1999,1831,3,0,0,0,503.027771
-102,1498,4,1,0,0,4.077967
-425,-640,5,1,0,0,34.200695
-975,-857,6,1,0,0,9.294840
1326,-100,7,0,0,0,737.122986
1088,-1596,8,0,0,0,598.629639
879,1688,1,1,0,0,2.516762
475,265,2,0,0,0,994.336182
-1471,444,3,0,0,0,663.807922
-1696,1910,4,1,0,0,0.837647
-104,-511,5,0,0,0,1006.483521
-1957,-1707,6,1,0,0,1.194244
1859,-949,7,1,0,0,1.911916
1188,-1503,8,0,0,0,600.955505
828,923,1,0,0,0,757.183594
484,123,2,0,0,0,1018.962280
-1704,972,3,0,0,0,594.230042
-590,1913,4,0,0,0,588.476624
-125,-822,5,1,0,0,27.625010
-660,-613,6,1,0,0,26.204193
1187,-981,7,0,0,0,695.084534
684,-1560,8,1,0,0,2.805376
294,934,1,0,0,0,825.028931
1577,165,2,0,0,0,686.717102
-1113,310,3,0,0,0,745.445618
-1291,1828,4,0,0,0,556.930359
-679,-1472,5,0,0,0,680.393311
-935,-215,6,0,0,0,857.125488
1349,-433,7,1,0,0,6.026120
334,-396,8,0,0,0,976.226013
1537,1632,1,0,0,0,588.018433
1834,1379,2,1,0,0,1.441317
-981,918,3,1,0,0,5.660431
-1029,1233,4,0,0,0,651.191467
-395,-1663,5,0,0,0,665.248901
-521,-335,6,0,0,0,983.152649
1334,-30,7,0,0,0,736.138550
782,-907,8,0,0,0,735.154663
901,1090,1,0,0,0,719.478638
1725,890,2,0,0,0,628.969910
-1085,464,3,0,0,0,739.381042
-528,1224,4,0,0,0,704.446350
-207,-1872,5,1,0,0,2.596005
-1975,-1660,6,0,0,0,574.040344
752,-519,7,1,0,0,21.290703
7,-1811,8,0,0,0,616.949280
1181,1331,1,0,0,0,653.763794
509,449,2,0,0,0,930.527100
-1423,54,3,1,0,0,4.768642
-1082,1622,4,0,0,0,595.966492
-842,-1011,5,0,0,0,740.171326
-1864,-1134,6,0,0,0,621.630127
494,-127,7,1,0,0,93.668770
396,-659,8,0,0,0,862.509583
758,1576,1,0,0,0,658.716858
1229,1141,2,0,0,0,670.694702
-1242,876,3,1,0,0,3.933778
-335,1800,4,0,0,0,613.841248
-892,-997,5,0,0,0,735.398254
-1935,-146,6,1,0,0,2.845801
793,-772,7,0,0,0,789.830627
848,-1830,8,0,0,0,586.357605
32,1717,1,0,0,0,663.910034
948,939,2,0,0,0,736.141052
-1849,1575,3,0,0,0,533.843567
-1271,1938,4,1,0,0,1.120319
-483,-962,5,0,0,0,797.801758
-1031,-7,6,0,0,0,836.409485
1229,-47,7,1,0,0,9.112947
567,-1309,8,1,0,0,4.744031
1121,1719,1,0,0,0,613.119446
1370,1151,2,1,0,0,3.022915
-874,275,3,0,0,0,812.049255
-902,1069,4,0,0,0,690.680115
-509,-1897,5,1,0,0,2.291450
-1002,-276,6,1,0,0,17.589306
665,-304,7,1,0,0,38.990032
1498,-1830,8,1,0,0,1.054620
1391,1769,1,0,0,0,586.937744
1717,646,2,0,0,0,645.064148
-1884,771,3,1,0,0,1.650227
-315,1371,4,0,0,0,689.044312
-969,-1780,5,1,0,0,2.087196
-1055,-668,6,0,0,0,781.344360
1793,-557,7,1,0,0,2.620276
893,-1873,8,0,0,0,578.313721
1155,1835,1,0,0,0,597.490967
1791,621,2,0,0,0,635.722107
-1029,95,3,0,0,0,777.477600
-483,802,4,0,0,0,805.851074
-44,-573,5,0,0,0,978.477295
-943,-89,6,1,0,0,22.810688
924,-811,7,0,0,0,759.632935
354,-760,8,0,0,0,837.582886
1366,1830,1,0,0,0,582.783142
1435,1095,2,0,0,0,649.680054
-524,460,3,0,0,0,890.636230
-1377,1757,4,0,0,0,557.639465
-1036,-1577,5,0,0,0,637.040833
-1417,-974,6,0,0,0,689.611023
1275,-761,7,0,0,0,705.511108
81,-1040,8,1,0,0,11.835022
1310,1637,1,0,0,0,607.031555
1587,255,2,0,0,0,682.820618
-1537,1107,3,0,0,0,604.186218
-465,1370,4,0,0,0,681.015991
-189,-933,5,0,0,0,833.140259
-1060,-686,6,0,0,0,778.160828
1583,-512,7,0,0,0,672.963074
848,-1171,8,0,0,0,681.205872
420,1170,1,0,0,0,756.458740
153,102,2,0,0,0,1307.127808
-1401,46,3,1,0,0,4.995604
-522,717,4,0,0,0,821.411682
-60,-608,5,0,0,0,960.841492
-730,-425,6,0,0,0,893.777771
1071,-635,7,0,0,0,755.998169
1325,-1960,8,0,0,0,541.246826
547,646,1,0,0,0,866.929260
1346,1074,2,0,0,0,663.133240
-1980,102,3,0,0,0,591.223694
-1489,1534,4,1,0,0,1.425873
-316,-1258,5,0,0,0,744.261230
-1656,-390,6,1,0,0,4.202904
694,-8,7,0,0,0,924.101318
558,-1079,8,0,0,0,731.071350
11,1577,1,0,0,0,688.267517
344,35,2,1,0,0,197.608414
-862,456,3,1,0,0,14.358095
-310,975,4,0,0,0,780.349548
-292,-1316,5,0,0,0,733.215942
-1372,-856,6,1,0,0,4.882359
1551,-788,7,0,0,0,660.208984
1433,-1865,8,0,0,0,542.905762
793,1918,1,0,0,0,609.915710
676,557,2,0,0,0,857.091064
-918,220,3,1,0,0,15.751208
-748,1406,4,0,0,0,653.579041
-998,-1942,5,0,0,0,595.508362
-1824,-1049,6,1,0,0,2.236900
1343,-357,7,0,0,0,724.495361
480,-902,8,0,0,0,780.723206
871,893,1,0,0,0,755.460205
1497,303,2,1,0,0,4.829944
-1651,1357,3,0,0,0,569.960938
-14,558,4,0,0,0,954.725281
-136,-224,5,1,0,0,295.247986
-931,-132,6,0,0,0,862.909790
1273,-370,7,1,0,0,7.322664
304,-1185,8,0,0,0,729.042053
1221,1840,1,0,0,0,592.298218
1117,267,2,0,0,0,779.193726
-1198,934,3,0,0,0,667.076721
-1065,1269,4,0,0,0,642.322510
-246,-1325,5,0,0,0,733.293274
-1158,-401,6,0,0,0,786.739868
1948,-331,7,0,0,0,623.900940
847,-1628,8,1,0,0,2.247703
1006,1311,1,0,0,0,674.900818
406,335,2,1,0,0,87.325768
-424,51,3,1,0,0,116.735229
-218,871,4,0,0,0,817.874573
-33,-1913,5,1,0,0,2.477327
-1202,-781,6,0,0,0,741.735718
1895,-1613,7,0,0,0,558.462341
1042,-1809,8,0,0,0,576.591675
211,1479,1,0,0,0,703.754456
1652,668,2,0,0,0,653.358398
-1589,400,3,0,0,0,645.456787
-893,1977,4,0,0,0,565.728394
-451,-1854,5,0,0,0,633.854919
-1026,-326,6,0,0,0,823.982605
1327,-500,7,0,0,0,718.690552
866,-1331,8,1,0,0,3.454947
527,1292,1,1,0,0,6.302142
1902,1724,2,0,0,0,549.691162
-962,158,3,1,0,0,14.370441
-1669,1794,4,0,0,0,531.371765
-109,-1718,5,0,0,0,663.219543
-1085,-239,6,0,0,0,814.921143
1920,-236,7,0,0,0,629.941956
34,-1922,8,0,0,0,599.995728
251,1186,1,1,0,0,9.503301
835,329,2,0,0,0,850.092407
-950,724,3,1,0,0,7.990498
-780,1336,4,0,0,0,661.866089
-538,-1755,5,0,0,0,644.892029
-1841,-1380,6,0,0,0,606.530212
192,-64,7,1,0,0,396.654114
205,-486,8,1,0,0,73.229515
70,464,1,0,0,0,1036.906250
174,81,2,0,0,0,1294.771484
-951,929,3,0,0,0,705.215271
-824,1912,4,0,0,0,577.358215
-384,-700,5,1,0,0,30.841236
-868,-355,6,0,0,0,863.682373
1637,-1281,7,0,0,0,609.482117
1209,-1213,8,0,0,0,632.856689
1606,1821,1,0,0,0,565.420837
605,311,2,0,0,0,929.883362
-1129,396,3,0,0,0,735.426453
-884,1107,4,0,0,0,687.031738
-829,-1528,5,1,0,0,3.293374
-983,-374,6,0,0,0,830.686279
1234,-244,7,0,0,0,753.064148
1101,-1230,8,0,0,0,643.338501
130,1775,1,0,0,0,653.709656
1016,726,2,0,0,0,755.161438
-1971,653,3,0,0,0,578.127075
-705,1383,4,0,0,0,660.890015
-170,-1341,5,1,0,0,6.917177
-349,-250,6,0,0,0,1088.849365
1471,-875,7,0,0,0,664.864746
188,-1064,8,0,0,0,764.677307
125,1850,1,0,0,0,642.015625
1614,111,2,0,0,0,680.966248
-1664,935,3,1,0,0,1.999498
-366,1648,4,0,0,0,636.956665
-512,-1831,5,0,0,0,634.876465
-861,-94,6,0,0,0,886.569702
1564,-1102,7,0,0,0,633.082703
1065,-1133,8,0,0,0,660.404907
773,1131,1,0,0,0,728.591553
1756,1618,2,0,0,0,570.149658
-1576,227,3,0,0,0,653.637207
-348,733,4,0,0,0,846.995911
-115,-1023,5,0,0,0,810.634827
-947,-94,6,0,0,0,859.458618
907,-268,7,0,0,0,835.014954
1120,-1540,8,0,0,0,602.682251
127,1591,1,0,0,0,684.837708
1710,1424,2,0,0,0,590.119934
-1591,1097,3,1,0,0,1.926901
-1286,1761,4,0,0,0,564.265320
-570,-1180,5,0,0,0,741.317993
-1456,-729,6,0,0,0,705.203918
1772,-779,7,1,0,0,2.393062
819,-1756,8,0,0,0,597.744141
818,1017,1,0,0,0,742.482544
1435,1019,2,0,0,0,656.896362
-1875,278,3,1,0,0,2.041268
-192,762,4,0,0,0,856.219543
-1027,-1986,5,0,0,0,588.778809
-1588,-587,6,1,0,0,4.263996
1515,-700,7,1,0,0,3.716703
749,-845,8,0,0,0,752.025879
1787,1936,1,0,0,0,542.360168
682,52,2,1,0,0,46.372379
-967,777,3,0,0,0,725.058594
-696,1344,4,1,0,0,3.982621
-573,-1281,5,0,0,0,721.688782
-827,-393,6,0,0,0,870.565186
1752,-1633,7,0,0,0,569.290100
1001,-1414,8,0,0,0,629.575134
1058,1181,1,0,0,0,686.718628
413,169,2,0,0,0,1051.403687
-1522,474,3,1,0,0,3.415431
-356,1366,4,0,0,0,688.048157
-286,-361,5,0,0,0,1042.295288
-1487,-83,6,1,0,0,6.221285
1556,-405,7,0,0,0,682.733948
425,-569,8,1,0,0,34.586243
237,1500,1,0,0,0,699.072327
1480,1053,2,0,0,0,647.897644
-1925,862,3,1,0,0,1.484441
-526,1760,4,0,0,0,612.908875
-470,-1055,5,0,0,0,777.575256
-1539,-270,6,0,0,0,717.019531
1704,-490,7,1,0,0,3.106038
483,-875,8,1,0,0,13.383002
340,1581,1,0,0,0,681.084045
1824,689,2,0,0,0,627.691406
-1922,924,3,1,0,0,1.436379
-282,1499,4,0,0,0,665.907349
-942,-1808,5,0,0,0,615.001831
-449,-36,6,0,0,0,1074.988647
1605,-697,7,0,0,0,658.553833
23,-1364,8,0,0,0,697.829468
1389,1908,1,0,0,0,573.456360
1213,153,2,1,0,0,9.271698
-1638,1231,3,1,0,0,1.618378
-1854,1914,4,0,0,0,507.829041
-44,-1580,5,0,0,0,687.619934
-1711,-1529,6,0,0,0,607.292725
1559,-162,7,0,0,0,690.022400
1696,-1989,8,0,0,0,513.221619
862,1406,1,1,0,0,3.849656
1852,410,2,0,0,0,635.536377
-753,218,3,1,0,0,26.476788
-1391,1759,4,0,0,0,556.347839
-1567,-1577,5,0,0,0,590.391541
-744,-163,6,1,0,0,41.083923
1404,-1075,7,0,0,0,655.554504
538,-1509,8,0,0,0,651.890625
884,1574,1,0,0,0,649.649963
1946,382,2,1,0,0,2.226587
-653,278,3,1,0,0,34.649723
-477,489,4,0,0,0,896.537964
-837,-1456,5,1,0,0,3.648052
-764,-332,6,0,0,0,897.788757
483,-170,7,0,0,0,1011.745239
253,-1327,8,1,0,0,5.570064
1040,1538,1,0,0,0,641.646179
1195,684,2,0,0,0,727.133301
-1059,1049,3,0,0,0,672.482544
-547,1838,4,0,0,0,600.681030
-397,-858,5,0,0,0,835.127686
-1992,-868,6,0,0,0,622.799866
1130,-679,7,0,0,0,739.604492
583,-1318,8,0,0,0,682.120972
1264,1626,1,0,0,0,612.110962
1542,379,2,0,0,0,686.305054
-747,336,3,0,0,0,844.287476
-495,511,4,0,0,0,884.841187
-641,-1192,5,0,0,0,732.066711
-1869,-975,6,0,0,0,631.431885
1307,-1295,7,0,0,0,644.224609
663,-1487,8,1,0,0,3.208155
42,1275,1,0,0,0,749.032043
1014,141,2,1,0,0,15.452472
-862,285,3,0,0,0,814.681763
-53,1896,4,0,0,0,603.798401
-1509,-1707,5,1,0,0,1.472202
-1585,-470,6,0,0,0,700.856445
1702,-149,7,1,0,0,3.467153
463,-1665,8,0,0,0,630.279541
330,1525,1,0,0,0,691.321289
1808,1490,2,0,0,0,575.525696
-1009,892,3,0,0,0,701.512817
-508,1636,4,0,0,0,632.783386
-326,-1930,5,0,0,0,626.591431
-434,-174,6,1,0,0,127.735367
1682,-410,7,0,0,0,661.598938
219,-551,8,1,0,0,55.144260
1227,1473,1,1,0,0,2.462686
1554,754,2,0,0,0,662.257690
-451,408,3,0,0,0,930.012390
-338,1010,4,0,0,0,768.805786
-1426,-1739,5,0,0,0,587.124084
-1897,-1598,6,1,0,0,1.369700
1807,-1194,7,0,0,0,597.804260
602,-1681,8,0,0,0,620.980347
334,495,1,0,0,0,967.429810
1362,767,2,0,0,0,690.804565
-1133,283,3,0,0,0,742.372192
-1158,1621,4,0,0,0,589.865967
-412,-619,5,0,0,0,904.246887
-1243,-49,6,0,0,0,782.435425
1176,-1039,7,0,0,0,689.686890
589,-638,8,0,0,0,827.500061
232,1522,1,0,0,0,695.146118
408,324,2,0,0,0,1006.747375
-320,165,3,0,0,0,1081.129150
-890,1050,4,1,0,0,5.271198
-396,-1571,5,0,0,0,680.554810
-1699,-864,6,0,0,0,660.160095
1335,-752,7,0,0,0,696.515991
88,-1382,8,0,0,0,693.538757
572,705,1,0,0,0,846.783081
569,394,2,0,0,0,924.911743
-841,141,3,0,0,0,832.705444
-1266,1327,4,0,0,0,613.355774
-259,-969,5,0,0,0,818.112000
-988,-965,6,1,0,0,7.759826
1582,-1529,7,0,0,0,593.345703
1122,-1237,8,1,0,0,2.974908
1514,1656,1,0,0,0,587.772278
744,465,2,0,0,0,856.616089
-1529,527,3,0,0,0,649.189819
-157,802,4,0,0,0,844.943542
-1353,-157,6,0,0,0,756.389404
1809,-1593,7,1,0,0,1.244228
896,-1453,8,0,0,0,633.783813
397,1213,1,0,0,0,748.891907
59,42,2,0,0,0,1575.970093
-923,531,3,1,0,0,11.153019
-427,1784,4,0,0,0,613.300842
-893,-863,6,0,0,0,782.921936
775,-560,7,0,0,0,831.873718
1584,-1789,8,0,0,0,538.447815
148,1211,1,0,0,0,761.840698
1081,589,2,1,0,0,9.088177
-936,709,3,0,0,0,740.803467
-480,570,4,0,0,0,871.500183
-839,-59,6,0,0,0,895.018616
341,-320,7,0,0,0,1037.901611
430,-1997,8,0,0,0,582.748291
28,1849,1,0,0,0,642.786682
1753,981,2,1,0,0,2.142887
-1893,1529,3,0,0,0,533.322998
-1348,1514,4,0,0,0,584.925659
-1423,-205,6,1,0,0,6.899438
890,-575,7,0,0,0,802.338318
294,-1766,8,0,0,0,620.222046
447,1818,1,0,0,0,639.271912
619,259,2,0,0,0,933.829102
-206,198,3,0,0,0,1147.798950
-270,781,4,0,0,0,841.746521
-542,-152,6,0,0,0,1010.721985
1265,-53,7,0,0,0,751.195374
1017,-1633,8,0,0,0,599.775391
280,1084,1,0,0,0,786.512268
728,603,2,0,0,0,835.156738
-789,200,3,0,0,0,846.096680
-713,1456,4,1,0,0,3.248871
-808,-582,6,0,0,0,846.414368
1470,-501,7,0,0,0,692.656982
541,-1171,8,1,0,0,6.379794
1078,1912,1,1,0,0,1.645500
1132,938,2,0,0,0,708.362976
-706,407,3,0,0,0,845.757263
-453,1854,4,0,0,0,602.036438
-1871,-521,6,0,0,0,654.800781
678,-414,7,1,0,0,31.262514
311,-1955,8,1,0,0,1.793573
523,1999,1,0,0,0,611.177002
1412,307,2,0,0,0,713.302979
-1545,935,3,1,0,0,2.357840
-446,1016,4,0,0,0,757.048218
-1693,-1367,6,0,0,0,622.395264
1941,-743,7,0,0,0,609.521606
1174,-1709,8,0,0,0,578.531677
306,1555,1,0,0,0,686.859070
898,868,2,0,0,0,755.115845
-1522,330,3,0,0,0,659.964417
-1533,1967,4,0,0,0,526.421692
-1112,-632,6,0,0,0,774.446838
1600,-234,7,0,0,0,681.106140
1686,-1884,8,1,0,0,0.863737
827,981,1,0,0,0,747.375244
1389,380,2,0,0,0,714.285706
-1671,104,3,0,0,0,639.316956
-94,672,4,1,0,0,39.025700
-1954,-998,6,1,0,0,1.974630
1540,-258,7,0,0,0,691.107422
536,-1280,8,0,0,0,692.941040
177,1956,1,0,0,0,625.625183
243,242,2,0,0,0,1127.329590
-1630,210,3,1,0,0,3.119992
-69,1107,4,0,0,0,757.160400
-789,-634,6,1,0,0,18.951603
1727,-1531,7,0,0,0,579.781494
75,-1244,8,0,0,0,723.728943
122,893,1,0,0,0,848.871155
1217,528,2,0,0,0,737.805969
-1819,1145,3,0,0,0,568.342712
-624,1032,4,0,0,0,733.146423
-1576,-25,6,0,0,0,714.519958
1988,-338,7,0,0,0,618.110474
849,-1993,8,0,0,0,566.123352
660,1052,1,0,0,0,756.737061
1217,309,2,0,0,0,753.583923
-582,294,3,1,0,0,43.302288
-1303,1597,4,0,0,0,580.213623
-1187,-599,6,1,0,0,8.669280
1639,-747,7,0,0,0,650.290833
707,-1328,8,0,0,0,669.835266
1298,1472,1,1,0,0,2.296849
1601,1491,2,1,0,0,1.661704
-1840,1256,3,0,0,0,558.208740
-68,437,4,0,0,0,1021.818970
-862,-554,6,0,0,0,838.186279
1776,-218,7,1,0,0,3.022915
98,-1841,8,1,0,0,2.217171
1246,1301,1,1,0,0,2.963064
1140,650,2,0,0,0,740.917603
-1612,573,3,0,0,0,633.157043
-133,769,4,1,0,0,26.803864
-1790,-774,6,1,0,0,2.804077
1671,-453,7,0,0,0,661.588135
816,-1025,8,1,0,0,6.095084
808,1996,1,0,0,0,599.448608
1479,503,2,1,0,0,4.518873
-1735,147,3,0,0,0,628.138245
-760,771,4,0,0,0,764.112671
-1537,-297,6,1,0,0,5.373037
286,-1085,8,0,0,0,753.838257
336,582,1,0,0,0,933.388794
1923,1879,2,0,0,0,536.652161
-1752,1696,3,0,0,0,532.739258
-1404,1486,4,1,0,0,1.629363
-930,-421,6,0,0,0,839.261719
663,-1296,8,1,0,0,4.468360
33,254,1,0,0,0,1211.520874
1188,46,2,0,0,0,769.259277
-1491,1390,3,1,0,0,1.643545
-569,1842,4,0,0,0,599.172424
-1306,-1137,6,0,0,0,687.600586
422,-1395,8,0,0,0,678.914978
338,1187,1,0,0,0,758.524597
548,35,2,0,0,0,991.595703
-742,705,3,0,0,0,780.230957
-739,776,4,0,0,0,767.050659
-1626,-696,6,1,0,0,3.746485
222,-1547,8,0,0,0,658.960876
16,71,1,0,0,0,1574.546753
1388,436,2,0,0,0,711.351135
-1423,915,3,1,0,0,2.862780
-399,1259,4,0,0,0,707.104126
-1374,-947,6,0,0,0,698.181458
244,-787,8,0,0,0,842.582458
131,1482,1,0,0,0,704.944641
1248,1087,2,0,0,0,674.466187
-1326,1281,3,0,0,0,611.860657
-767,784,4,0,0,0,760.377014
-629,-461,6,0,0,0,916.784912
15,-1479,8,1,0,0,4.263244
572,1754,1,1,0,0,2.760351
1118,19,2,0,0,0,786.876160
-756,40,3,0,0,0,866.950195
-833,1807,4,1,0,0,1.766377
-1193,-548,6,0,0,0,766.958618
689,-994,8,1,0,0,7.704387
1086,1438,1,0,0,0,650.162781
1280,341,2,0,0,0,738.229675
-1467,1051,3,1,0,0,2.362747
-1089,1512,4,0,0,0,608.846863
-1524,-1140,6,0,0,0,660.589966
1098,1631,1,0,0,0,625.311768
1518,964,2,0,0,0,650.762573
-1832,1747,3,1,0,0,0.860489
1016,1371,1,0,0,0,665.723877
1666,1357,2,0,0,0,600.058594
-1503,1154,3,0,0,0,604.071167
228,749,1,0,0,0,889.394409
1894,1533,2,0,0,0,564.415833
-1087,650,3,0,0,0,719.107605
422,719,1,1,0,0,27.422428
1608,481,2,0,0,0,670.455994
-1374,259,3,0,0,0,690.783203
1110,1776,1,0,0,0,607.342163
1961,1365,2,1,0,0,1.277370
-1287,1259,3,0,0,0,618.621399
293,1834,1,0,0,0,641.548523
643,38,2,1,0,0,53.994434
-506,404,3,0,0,0,911.961060
1300,1833,1,1,0,0,1.533984
-1595,546,3,0,0,0,637.343262
481,1731,1,0,0,0,651.023010
-739,565,3,0,0,0,807.690796
-415,26,3,0,0,0,1039.595825
-1340,403,3,0,0,0,690.559998
-1407,137,3,0,0,0,687.637817
-381,196,3,0,0,0,1030.958496
-1066,228,3,1,0,0,10.422025
-1594,761,3,0,0,0,624.058472
-1992,1444,3,1,0,0,0.937042
-1149,520,3,0,0,0,720.315613
-1684,710,3,1,0,0,2.275639
-1400,714,3,0,0,0,657.373840
-619,162,3,0,0,0,915.383850
-1171,1016,3,0,0,0,661.258789
-1765,1375,3,0,0,0,556.998352
-1991,1449,3,0,0,0,529.980957
-1981,1713,3,1,0,0,0.777327
-1079,355,3,1,0,0,9.249731
-902,793,3,0,0,0,734.329224
-1552,83,3,1,0,0,3.681753
-1483,604,3,0,0,0,652.025208
-1772,598,3,0,0,0,607.805847
-1240,839,3,1,0,0,4.112688
-1052,556,3,0,0,0,736.999329
-1437,441,3,0,0,0,670.086731
-1958,592,3,1,0,0,1.626558
-1635,1343,3,0,0,0,572.789429
-1327,273,3,0,0,0,699.809326


each generation good chromosome number
2,1,0,