mbs coordinate
0,0

cbsd coordinate and channel
-970,900,2
740,900,1
980,-860,1
-750,-850,5
-750,1000,4
1050,600,2
760,-1135,3
-870,-1100,1
-1080,450,1
970,530,3

building coordinate
-885,985
-1055,815
830,810
650,990
1060,-860
900,-860
-830,-770
-670,-930
-668,1070
-832,930
965,675
1135,525
832,-1059
688,-1211
-965,-1035
-775,-1165
-1135,365
-1025,535
907,591
1033,469

area numbers
131,129,157,123,100,123,115,122,

x , y , block , block number
area 1
1036,1759,1,0
1661,1820,0,0
1033,1600,0,0
1123,1955,0,0
191,992,0,0
405,1290,0,0
704,1641,0,0
1315,1318,0,0
464,961,0,0
160,666,1,0
1464,1795,0,0
10,694,0,0
1035,1880,0,0
669,1983,0,0
662,707,0,0
531,1499,0,0
1259,1326,0,0
42,1142,1,0
85,355,0,0
164,356,0,0
793,1029,0,0
153,344,0,0
25,1576,1,0
757,871,0,0
1057,1543,1,0
190,571,0,0
146,1825,1,0
165,1957,0,0
1675,1901,0,0
222,453,0,0
544,1783,0,0
434,1517,0,0
222,1677,0,0
792,1753,0,0
307,1194,0,0
340,1038,0,0
1643,1906,1,0
383,1023,0,0
222,1387,0,0
1504,1993,0,0
1048,1846,1,0
320,554,0,0
591,1478,0,0
1635,1887,0,0
775,923,0,0
599,1481,1,0
109,1101,0,0
188,1581,0,0
121,1494,0,0
666,1325,0,0
393,1706,1,0
498,631,0,0
1351,1592,0,0
39,1496,0,0
1109,1562,1,0
879,1688,1,0
828,923,0,0
294,934,0,0
1537,1632,0,0
901,1090,0,0
1181,1331,0,0
758,1576,0,0
32,1717,0,0
1121,1719,0,0
1391,1769,0,0
1155,1835,0,0
1366,1830,0,0
1310,1637,0,0
420,1170,0,0
547,646,0,0
11,1577,0,0
793,1918,0,0
871,893,0,0
1221,1840,0,0
1006,1311,0,0
211,1479,0,0
527,1292,1,0
251,1186,1,0
70,464,0,0
1606,1821,0,0
130,1775,0,0
125,1850,0,0
773,1131,0,0
127,1591,0,0
818,1017,0,0
1787,1936,0,0
1058,1181,0,0
237,1500,0,0
340,1581,0,0
1389,1908,0,0
862,1406,1,0
884,1574,0,0
1040,1538,0,0
1264,1626,0,0
42,1275,0,0
330,1525,0,0
1227,1473,1,0
334,495,0,0
232,1522,0,0
572,705,0,0
1514,1656,0,0
397,1213,0,0
148,1211,0,0
28,1849,0,0
447,1818,0,0
280,1084,0,0
1078,1912,1,0
523,1999,0,0
306,1555,0,0
827,981,0,0
177,1956,0,0
122,893,0,0
660,1052,0,0
1298,1472,1,0
1246,1301,1,0
808,1996,0,0
336,582,0,0
33,254,0,0
338,1187,0,0
16,71,0,0
131,1482,0,0
572,1754,1,0
1086,1438,0,0
1098,1631,0,0
1016,1371,0,0
228,749,0,0
422,719,1,0
1110,1776,0,0
293,1834,0,0
1300,1833,1,0
481,1731,0,0
area 2
1153,159,0,0
836,352,0,0
1990,1721,0,0
235,83,1,0
996,962,1,0
1109,960,0,0
1346,811,0,0
1374,1252,1,0
1562,688,1,0
1770,1553,0,0
1660,854,0,0
1186,855,0,0
507,476,0,0
1239,964,1,0
1563,1426,0,0
1220,121,0,0
1681,1622,0,0
1050,12,1,0
1557,890,0,0
1659,1586,0,0
1131,673,0,0
1906,108,1,0
465,80,1,0
966,676,1,0
864,351,0,0
1647,341,0,0
1572,476,0,0
237,195,0,0
1513,344,1,0
1628,1215,0,0
1162,752,0,0
1617,301,1,0
1156,427,0,0
705,660,0,0
1091,1007,1,0
1211,502,0,0
991,783,0,0
672,524,0,0
1812,1214,1,0
984,63,1,0
881,428,0,0
1142,134,0,0
1937,1408,1,0
1387,911,1,0
1397,1251,0,0
1999,1137,0,0
939,361,0,0
1280,650,0,0
1412,1236,0,0
1021,195,0,0
882,179,0,0
983,833,0,0
984,291,0,0
1570,29,0,0
1855,1146,0,0
475,265,0,0
484,123,0,0
1577,165,0,0
1834,1379,1,0
1725,890,0,0
509,449,0,0
1229,1141,0,0
948,939,0,0
1370,1151,1,0
1717,646,0,0
1791,621,0,0
1435,1095,0,0
1587,255,0,0
153,102,0,0
1346,1074,0,0
344,35,1,0
676,557,0,0
1497,303,1,0
1117,267,0,0
406,335,1,0
1652,668,0,0
1902,1724,0,0
835,329,0,0
174,81,0,0
605,311,0,0
1016,726,0,0
1614,111,0,0
1756,1618,0,0
1710,1424,0,0
1435,1019,0,0
682,52,1,0
413,169,0,0
1480,1053,0,0
1824,689,0,0
1213,153,1,0
1852,410,0,0
1946,382,1,0
1195,684,0,0
1542,379,0,0
1014,141,1,0
1808,1490,0,0
1554,754,0,0
1362,767,0,0
408,324,0,0
569,394,0,0
744,465,0,0
59,42,0,0
1081,589,1,0
1753,981,1,0
619,259,0,0
728,603,0,0
1132,938,0,0
1412,307,0,0
898,868,0,0
1389,380,0,0
243,242,0,0
1217,528,0,0
1217,309,0,0
1601,1491,1,0
1140,650,0,0
1479,503,1,0
1923,1879,0,0
1188,46,0,0
548,35,0,0
1388,436,0,0
1248,1087,0,0
1118,19,0,0
1280,341,0,0
1518,964,0,0
1666,1357,0,0
1894,1533,0,0
1608,481,0,0
1961,1365,1,0
643,38,1,0
area 3
-1646,1316,0,0
-416,197,1,0
-439,53,0,0
-1888,1762,0,0
-1401,682,0,0
-1078,475,0,0
-1755,1456,1,0
-964,405,1,0
-1111,615,0,0
-886,150,0,0
-1168,639,0,0
-1442,988,1,0
-1216,703,0,0
-1381,159,1,0
-785,727,1,0
-724,15,0,0
-1899,1346,0,0
-1431,479,0,0
-1480,662,0,0
-641,161,0,0
-1994,1076,0,0
-1819,820,1,0
-1351,143,0,0
-1699,798,0,0
-1575,425,0,0
-1607,1100,0,0
-498,496,0,0
-1602,1590,0,0
-257,40,0,0
-1704,90,0,0
-426,4,0,0
-1970,621,0,0
-1146,446,0,0
-868,230,1,0
-1270,553,0,0
-1810,391,1,0
-1840,816,0,0
-1504,1241,0,0
-764,492,1,0
-1750,283,0,0
-1969,1080,1,0
-1365,937,1,0
-1945,1062,0,0
-763,548,0,0
-1316,47,0,0
-1863,1362,0,0
-1511,143,1,0
-1803,1350,1,0
-1698,1042,0,0
-1181,612,0,0
-1438,730,0,0
-384,141,1,0
-824,549,0,0
-1969,1705,0,0
-1999,1831,0,0
-1471,444,0,0
-1704,972,0,0
-1113,310,0,0
-981,918,1,0
-1085,464,0,0
-1423,54,1,0
-1242,876,1,0
-1849,1575,0,0
-874,275,0,0
-1884,771,1,0
-1029,95,0,0
-524,460,0,0
-1537,1107,0,0
-1401,46,1,0
-1980,102,0,0
-862,456,1,0
-918,220,1,0
-1651,1357,0,0
-1198,934,0,0
-424,51,1,0
-1589,400,0,0
-962,158,1,0
-950,724,1,0
-951,929,0,0
-1129,396,0,0
-1971,653,0,0
-1664,935,1,0
-1576,227,0,0
-1591,1097,1,0
-1875,278,1,0
-967,777,0,0
-1522,474,1,0
-1925,862,1,0
-1922,924,1,0
-1638,1231,1,0
-753,218,1,0
-653,278,1,0
-1059,1049,0,0
-747,336,0,0
-862,285,0,0
-1009,892,0,0
-451,408,0,0
-1133,283,0,0
-320,165,0,0
-841,141,0,0
-1529,527,0,0
-923,531,1,0
-936,709,0,0
-1893,1529,0,0
-206,198,0,0
-789,200,0,0
-706,407,0,0
-1545,935,1,0
-1522,330,0,0
-1671,104,0,0
-1630,210,1,0
-1819,1145,0,0
-582,294,1,0
-1840,1256,0,0
-1612,573,0,0
-1735,147,0,0
-1752,1696,0,0
-1491,1390,1,0
-742,705,0,0
-1423,915,1,0
-1326,1281,0,0
-756,40,0,0
-1467,1051,1,0
-1832,1747,1,0
-1503,1154,0,0
-1087,650,0,0
-1374,259,0,0
-1287,1259,0,0
-506,404,0,0
-1595,546,0,0
-739,565,0,0
-415,26,0,0
-1340,403,0,0
-1407,137,0,0
-381,196,0,0
-1066,228,1,0
-1594,761,0,0
-1992,1444,1,0
-1149,520,0,0
-1684,710,1,0
-1400,714,0,0
-619,162,0,0
-1171,1016,0,0
-1765,1375,0,0
-1991,1449,0,0
-1981,1713,1,0
-1079,355,1,0
-902,793,0,0
-1552,83,1,0
-1483,604,0,0
-1772,598,0,0
-1240,839,1,0
-1052,556,0,0
-1437,441,0,0
-1958,592,1,0
-1635,1343,0,0
-1327,273,0,0
area 4
-524,1973,1,0
-278,1459,0,0
-1557,1679,0,0
-691,1401,0,0
-1785,1807,0,0
-66,1111,1,0
-42,1772,0,0
-890,1799,0,0
-706,1687,0,0
-504,1582,0,0
-434,1205,1,0
-18,1607,0,0
-998,1589,0,0
-241,1212,0,0
-305,1928,0,0
-584,1592,0,0
-11,1248,0,0
-117,339,1,0
-435,725,0,0
-229,1190,0,0
-151,256,0,0
-1321,1474,0,0
-562,1510,0,0
-1189,1451,0,0
-1008,1188,0,0
-1043,1981,1,0
-798,1599,0,0
-160,348,0,0
-1765,1947,0,0
-1095,1502,0,0
-825,1259,0,0
-1073,1229,1,0
-268,388,0,0
-94,848,0,0
-711,1075,0,0
-852,1414,0,0
-310,1226,0,0
-333,1926,0,0
-1805,1850,0,0
-317,657,1,0
-628,771,0,0
-378,503,0,0
-311,888,1,0
-1498,1712,0,0
-577,1921,0,0
-658,1109,0,0
-542,610,0,0
-26,747,1,0
-1689,1826,0,0
-829,1348,0,0
-930,1895,0,0
-859,981,1,0
-595,1459,0,0
-212,1465,0,0
-102,1498,1,0
-1696,1910,1,0
-590,1913,0,0
-1291,1828,0,0
-1029,1233,0,0
-528,1224,0,0
-1082,1622,0,0
-335,1800,0,0
-1271,1938,1,0
-902,1069,0,0
-315,1371,0,0
-483,802,0,0
-1377,1757,0,0
-465,1370,0,0
-522,717,0,0
-1489,1534,1,0
-310,975,0,0
-748,1406,0,0
-14,558,0,0
-1065,1269,0,0
-218,871,0,0
-893,1977,0,0
-1669,1794,0,0
-780,1336,0,0
-824,1912,0,0
-884,1107,0,0
-705,1383,0,0
-366,1648,0,0
-348,733,0,0
-1286,1761,0,0
-192,762,0,0
-696,1344,1,0
-356,1366,0,0
-526,1760,0,0
-282,1499,0,0
-1854,1914,0,0
-1391,1759,0,0
-477,489,0,0
-547,1838,0,0
-495,511,0,0
-53,1896,0,0
-508,1636,0,0
-338,1010,0,0
-1158,1621,0,0
-890,1050,1,0
-1266,1327,0,0
-157,802,0,0
-427,1784,0,0
-480,570,0,0
-1348,1514,0,0
-270,781,0,0
-713,1456,1,0
-453,1854,0,0
-446,1016,0,0
-1533,1967,0,0
-94,672,1,0
-69,1107,0,0
-624,1032,0,0
-1303,1597,0,0
-68,437,0,0
-133,769,1,0
-760,771,0,0
-1404,1486,1,0
-569,1842,0,0
-739,776,0,0
-399,1259,0,0
-767,784,0,0
-833,1807,1,0
-1089,1512,0,0
area 5
-305,-769,1,0
-84,-1788,0,0
-602,-989,0,0
-797,-1228,0,0
-116,-1684,0,0
-332,-1490,0,0
-1628,-1973,1,0
-547,-1450,0,0
-318,-1836,1,0
-567,-831,0,0
-127,-381,0,0
-146,-374,0,0
-531,-703,1,0
-505,-1784,1,0
-813,-859,1,0
-678,-1081,1,0
-237,-1081,0,0
-1049,-1614,0,0
-1926,-1964,1,0
-720,-1825,0,0
-535,-1427,0,0
-840,-1457,0,0
-194,-1910,0,0
-1172,-1841,0,0
-975,-1725,0,0
-115,-366,0,0
-6,-1941,0,0
-1365,-1545,0,0
-1507,-1991,0,0
-527,-613,0,0
-673,-1312,1,0
-1547,-1840,1,0
-118,-1524,0,0
-37,-1711,0,0
-30,-1668,1,0
-68,-331,0,0
-161,-390,1,0
-158,-755,0,0
-38,-326,0,0
-42,-467,1,0
-936,-1960,1,0
-1425,-1594,1,0
-718,-1693,1,0
-1129,-1885,0,0
-522,-1885,0,0
-98,-1519,0,0
-12,-1518,0,0
-435,-1007,0,0
-852,-1314,1,0
-491,-1037,1,0
-1121,-1460,0,0
-555,-1177,0,0
-401,-1474,0,0
-146,-1310,0,0
-425,-640,1,0
-104,-511,0,0
-125,-822,1,0
-679,-1472,0,0
-395,-1663,0,0
-207,-1872,1,0
-842,-1011,0,0
-892,-997,0,0
-483,-962,0,0
-509,-1897,1,0
-969,-1780,1,0
-44,-573,0,0
-1036,-1577,0,0
-189,-933,0,0
-60,-608,0,0
-316,-1258,0,0
-292,-1316,0,0
-998,-1942,0,0
-136,-224,1,0
-246,-1325,0,0
-33,-1913,1,0
-451,-1854,0,0
-109,-1718,0,0
-538,-1755,0,0
-384,-700,1,0
-829,-1528,1,0
-170,-1341,1,0
-512,-1831,0,0
-115,-1023,0,0
-570,-1180,0,0
-1027,-1986,0,0
-573,-1281,0,0
-286,-361,0,0
-470,-1055,0,0
-942,-1808,0,0
-44,-1580,0,0
-1567,-1577,0,0
-837,-1456,1,0
-397,-858,0,0
-641,-1192,0,0
-1509,-1707,1,0
-326,-1930,0,0
-1426,-1739,0,0
-412,-619,0,0
-396,-1571,0,0
-259,-969,0,0
area 6
-1812,-768,0,0
-590,-17,0,0
-580,-308,0,0
-1279,-1187,0,0
-906,-649,0,0
-1731,-100,0,0
-1862,-1789,0,0
-1265,-1174,0,0
-1824,-224,1,0
-544,-96,0,0
-1400,-619,0,0
-375,-153,0,0
-774,-683,0,0
-667,-112,0,0
-1882,-1118,0,0
-1021,-867,0,0
-1847,-1528,0,0
-1559,-883,0,0
-461,-213,1,0
-1562,-381,0,0
-930,-495,0,0
-844,-108,0,0
-1603,-503,0,0
-1401,-238,0,0
-1498,-735,0,0
-1684,-9,0,0
-708,-227,0,0
-1209,-604,0,0
-747,-259,1,0
-992,-383,0,0
-1633,-949,1,0
-1123,-341,0,0
-418,-182,0,0
-1702,-1458,0,0
-1363,-754,0,0
-1608,-1458,0,0
-1700,-946,0,0
-1434,-345,0,0
-249,-82,0,0
-1528,-46,0,0
-1210,-742,1,0
-1575,-802,0,0
-795,-142,1,0
-1382,-665,1,0
-1540,-206,1,0
-1472,-412,0,0
-1345,-121,1,0
-1777,-1174,0,0
-906,-525,0,0
-179,-166,1,0
-822,-555,0,0
-1280,-1170,1,0
-1787,-788,1,0
-1925,-604,1,0
-975,-857,1,0
-1957,-1707,1,0
-660,-613,1,0
-935,-215,0,0
-521,-335,0,0
-1975,-1660,0,0
-1864,-1134,0,0
-1935,-146,1,0
-1031,-7,0,0
-1002,-276,1,0
-1055,-668,0,0
-943,-89,1,0
-1417,-974,0,0
-1060,-686,0,0
-730,-425,0,0
-1656,-390,1,0
-1372,-856,1,0
-1824,-1049,1,0
-931,-132,0,0
-1158,-401,0,0
-1202,-781,0,0
-1026,-326,0,0
-1085,-239,0,0
-1841,-1380,0,0
-868,-355,0,0
-983,-374,0,0
-349,-250,0,0
-861,-94,0,0
-947,-94,0,0
-1456,-729,0,0
-1588,-587,1,0
-827,-393,0,0
-1487,-83,1,0
-1539,-270,0,0
-449,-36,0,0
-1711,-1529,0,0
-744,-163,1,0
-764,-332,0,0
-1992,-868,0,0
-1869,-975,0,0
-1585,-470,0,0
-434,-174,1,0
-1897,-1598,1,0
-1243,-49,0,0
-1699,-864,0,0
-988,-965,1,0
-1353,-157,0,0
-893,-863,0,0
-839,-59,0,0
-1423,-205,1,0
-542,-152,0,0
-808,-582,0,0
-1871,-521,0,0
-1693,-1367,0,0
-1112,-632,0,0
-1954,-998,1,0
-789,-634,1,0
-1576,-25,0,0
-1187,-599,1,0
-862,-554,0,0
-1790,-774,1,0
-1537,-297,1,0
-930,-421,0,0
-1306,-1137,0,0
-1626,-696,1,0
-1374,-947,0,0
-629,-461,0,0
-1193,-548,0,0
-1524,-1140,0,0
area 7
892,-162,0,0
1799,-294,0,0
1618,-1534,1,0
1234,-250,0,0
1692,-335,0,0
940,-120,0,0
1998,-333,0,0
1661,-324,0,0
1498,-202,0,0
814,-97,0,0
1611,-728,0,0
1476,-747,0,0
1873,-573,0,0
1679,-1069,1,0
1940,-593,0,0
1107,-403,1,0
215,-161,1,0
302,-238,0,0
1959,-1901,0,0
1250,-25,0,0
1023,-355,1,0
1543,-35,1,0
1558,-152,0,0
1614,-955,0,0
445,-333,0,0
1317,-214,0,0
1616,-946,1,0
1831,-714,0,0
1088,-322,0,0
1847,-10,0,0
1316,-828,0,0
1846,-1402,0,0
1595,-1157,0,0
969,-926,1,0
1225,-670,1,0
898,-160,0,0
1908,-812,0,0
1374,-498,0,0
1239,-763,0,0
982,-518,0,0
1937,-1541,0,0
1760,-1511,0,0
1681,-735,1,0
1565,-462,1,0
803,-48,0,0
1908,-513,0,0
548,-205,0,0
1917,-1623,0,0
1412,-872,0,0
1444,-910,1,0
908,-323,0,0
503,-58,0,0
1426,-76,0,0
511,-374,1,0
1326,-100,0,0
1859,-949,1,0
1187,-981,0,0
1349,-433,1,0
1334,-30,0,0
752,-519,1,0
494,-127,1,0
793,-772,0,0
1229,-47,1,0
665,-304,1,0
1793,-557,1,0
924,-811,0,0
1275,-761,0,0
1583,-512,0,0
1071,-635,0,0
694,-8,0,0
1551,-788,0,0
1343,-357,0,0
1273,-370,1,0
1948,-331,0,0
1895,-1613,0,0
1327,-500,0,0
1920,-236,0,0
192,-64,1,0
1637,-1281,0,0
1234,-244,0,0
1471,-875,0,0
1564,-1102,0,0
907,-268,0,0
1772,-779,1,0
1515,-700,1,0
1752,-1633,0,0
1556,-405,0,0
1704,-490,1,0
1605,-697,0,0
1559,-162,0,0
1404,-1075,0,0
483,-170,0,0
1130,-679,0,0
1307,-1295,0,0
1702,-149,1,0
1682,-410,0,0
1807,-1194,0,0
1176,-1039,0,0
1335,-752,0,0
1582,-1529,0,0
1809,-1593,1,0
775,-560,0,0
341,-320,0,0
890,-575,0,0
1265,-53,0,0
1470,-501,0,0
678,-414,1,0
1941,-743,0,0
1600,-234,0,0
1540,-258,0,0
1727,-1531,0,0
1988,-338,0,0
1639,-747,0,0
1776,-218,1,0
1671,-453,0,0
area 8
598,-1941,0,0
1435,-1998,0,0
618,-1515,0,0
86,-721,1,0
144,-245,0,0
90,-1693,0,0
219,-1986,0,0
703,-1009,0,0
943,-991,1,0
125,-1906,1,0
113,-134,1,0
995,-1730,0,0
584,-1991,1,0
793,-1259,0,0
801,-1493,1,0
242,-608,1,0
1007,-1469,0,0
149,-305,0,0
258,-1938,0,0
1531,-1815,0,0
49,-1181,0,0
619,-1866,0,0
449,-1835,0,0
615,-697,1,0
551,-911,1,0
1227,-1889,0,0
1330,-1605,0,0
1296,-1978,0,0
1179,-1425,0,0
307,-1946,0,0
1788,-1823,0,0
1070,-1848,0,0
1496,-1591,0,0
1390,-1673,0,0
209,-1867,0,0
490,-759,0,0
13,-1942,0,0
1209,-1561,0,0
684,-1918,1,0
531,-564,0,0
681,-1853,0,0
251,-1388,1,0
1086,-1561,0,0
1175,-1645,1,0
548,-1971,1,0
22,-692,0,0
7,-1469,0,0
1111,-1251,1,0
835,-855,0,0
392,-1658,1,0
966,-1785,0,0
691,-1274,0,0
1218,-1415,1,0
527,-1927,0,0
1088,-1596,0,0
1188,-1503,0,0
684,-1560,1,0
334,-396,0,0
782,-907,0,0
7,-1811,0,0
396,-659,0,0
848,-1830,0,0
567,-1309,1,0
1498,-1830,1,0
893,-1873,0,0
354,-760,0,0
81,-1040,1,0
848,-1171,0,0
1325,-1960,0,0
558,-1079,0,0
1433,-1865,0,0
480,-902,0,0
304,-1185,0,0
847,-1628,1,0
1042,-1809,0,0
866,-1331,1,0
34,-1922,0,0
205,-486,1,0
1209,-1213,0,0
1101,-1230,0,0
188,-1064,0,0
1065,-1133,0,0
1120,-1540,0,0
819,-1756,0,0
749,-845,0,0
1001,-1414,0,0
425,-569,1,0
483,-875,1,0
23,-1364,0,0
1696,-1989,0,0
538,-1509,0,0
253,-1327,1,0
583,-1318,0,0
663,-1487,1,0
463,-1665,0,0
219,-551,1,0
602,-1681,0,0
589,-638,0,0
88,-1382,0,0
1122,-1237,1,0
896,-1453,0,0
1584,-1789,0,0
430,-1997,0,0
294,-1766,0,0
1017,-1633,0,0
541,-1171,1,0
311,-1955,1,0
1174,-1709,0,0
1686,-1884,1,0
536,-1280,0,0
75,-1244,0,0
849,-1993,0,0
707,-1328,0,0
98,-1841,1,0
816,-1025,1,0
286,-1085,0,0
663,-1296,1,0
422,-1395,0,0
222,-1547,0,0
244,-787,0,0
15,-1479,1,0
689,-994,1,0

near cbsd peopel number
59
49
41
46
56
56
44
39
71
61
