the max average throughput times

BS TX power
MBS area 1,MBS area 2,MBS area 3,MBS area 4,MBS area 5,CBSD 1,CBSD 2,CBSD 3,CBSD 4,CBSD 5,CBSD 6,
10.000,10.000,10.000,10.000,10.000,0.000,0.000,0.000,0.000,0.000,0.000,
max average power
603.745056

x,y,area,be blocked (1 : NLOS / 0 : LOS),be blocked number (>=1 : CBSD(x) / 0 : no),connect bs number (>=1 : CBSD / 0 : MBS),throughput (unit : M bps)
174,657,1,0,0,0,997.860291
1994,522,2,1,0,0,3.162633
-535,1043,3,0,0,0,840.869629
-1883,-1058,4,1,0,0,2.752572
229,-1843,5,0,0,0,708.733521
488,1434,1,0,0,0,767.181580
1168,862,2,0,0,0,779.404663
-1029,807,3,0,0,0,809.412109
-1905,-621,4,1,0,0,3.439632
278,-1087,5,0,0,0,853.468933
1386,1829,1,0,0,0,648.235718
1472,992,2,0,0,0,721.689514
-277,1776,3,0,0,0,718.094238
-1128,-1204,4,0,0,0,742.664734
529,-1153,5,0,0,0,818.149353
427,909,1,0,0,0,885.365662
1580,1441,2,1,0,0,2.835413
-1007,1853,3,0,0,0,672.357544
-161,-1384,4,0,0,0,791.182678
441,-1970,5,0,0,0,684.854309
1439,1545,1,1,0,0,2.944833
1216,731,2,0,0,0,785.976990
-962,284,3,0,0,0,885.724548
-1523,-54,4,0,0,0,765.443970
804,-1814,5,0,0,0,689.795227
1191,1937,1,0,0,0,650.854858
1770,649,2,0,0,0,704.439087
-578,583,3,1,0,0,43.379364
-1054,-1547,4,1,0,0,4.206846
532,-457,5,0,0,0,988.807007
215,629,1,0,0,0,1004.259094
1262,1003,2,0,0,0,749.317078
-27,212,3,0,0,0,1331.556152
-451,-136,4,0,0,0,1103.562988
1274,-616,5,0,0,0,786.726990
149,331,1,0,0,0,1178.730591
444,84,2,0,0,0,1115.553955
-1416,292,3,0,0,0,780.564270
-1666,-1865,4,0,0,0,623.742615
1651,-15,5,0,0,0,742.452820
945,1239,1,0,0,0,759.055298
1643,430,2,0,0,0,734.356934
-1880,1695,3,0,0,0,620.288025
-639,-1689,4,0,0,0,716.764038
1231,-1679,5,0,0,0,676.044067
578,900,1,0,0,0,867.225281
1910,613,2,0,0,0,686.673645
-1666,93,3,1,0,0,5.904800
-2000,-977,4,0,0,0,656.942749
551,-553,5,1,0,0,49.362301
335,1465,1,0,0,0,769.455200
1718,1546,2,0,0,0,646.207947
-1495,1053,3,0,0,0,713.172424
-1661,-1382,4,0,0,0,665.423523
942,-1211,5,1,0,0,7.552305
560,840,1,0,0,0,883.862244
1123,1107,2,0,0,0,755.642700
-836,1891,3,0,0,0,678.024170
-571,-1132,4,0,0,0,818.309021
1599,-552,5,0,0,0,735.496948
191,1495,1,0,0,0,768.627686
974,729,2,0,0,0,830.177185
-142,1619,3,0,0,0,746.980347
-279,-66,4,0,0,0,1246.792847
1819,-375,5,0,0,0,708.721497
1046,1119,1,1,0,0,7.588109
1292,1173,2,0,0,0,726.577576
-1971,1109,3,0,0,0,652.401001
-1539,-243,4,0,0,0,759.089355
1763,-470,5,1,0,0,4.537773
341,825,1,1,0,0,34.803814
1820,42,2,0,0,0,714.449280
-1215,107,3,0,0,0,829.444763
-716,-1587,4,0,0,0,727.236572
634,-362,5,0,0,0,977.234802
340,1706,1,0,0,0,727.482056
1104,1081,2,1,0,0,7.397923
-25,1880,3,1,0,0,4.152598
-1972,-1707,4,0,0,0,611.773987
1694,-1634,5,0,0,0,641.018738
738,1950,1,0,0,0,675.624451
552,550,2,0,0,0,958.453064
-909,1048,3,0,0,0,792.430725
-1661,-642,4,1,0,0,4.875326
387,-1645,5,0,0,0,735.783386
1530,1716,1,0,0,0,647.713440
1999,280,2,0,0,0,684.888733
-1907,396,3,1,0,0,3.740904
-1032,-516,4,1,0,0,17.166273
1754,-1489,5,0,0,0,647.495422
292,528,1,1,0,0,91.350121
1431,590,2,0,0,0,760.976562
-1092,1356,3,0,0,0,727.237854
-497,-870,4,0,0,0,886.038391
1908,-1604,5,1,0,0,1.796750
784,1815,1,0,0,0,690.821167
1197,747,2,0,0,0,787.569885
-1089,764,3,1,0,0,11.429805
-1770,-1090,4,0,0,0,676.486755
1569,-561,5,0,0,0,739.822388
1357,1565,1,1,0,0,3.116642
1384,180,2,0,0,0,790.704163
-1417,1488,3,1,0,0,3.192108
-1298,-982,4,0,0,0,746.557190
1792,-1028,5,0,0,0,678.249207
332,908,1,1,0,0,28.069885
915,808,2,0,0,0,829.211609
-1369,1746,3,0,0,0,657.863647
-293,-1758,4,1,0,0,4.863271
1154,-1973,5,0,0,0,649.372498
122,1643,1,0,0,0,743.069397
1619,855,2,0,0,0,712.815063
-997,359,3,1,0,0,21.799349
-1663,-701,4,0,0,0,716.942993
596,-585,5,1,0,0,41.492081
161,721,1,0,0,0,973.825134
1557,1517,2,0,0,0,663.699280
-578,1427,3,1,0,0,7.475461
-298,-530,4,0,0,0,1029.960693
1145,-1966,5,1,0,0,2.358331
354,912,1,0,0,0,892.918579
521,71,2,0,0,0,1071.850342
-433,1859,3,0,0,0,700.887634
-1147,-1299,4,0,0,0,728.576965
1539,-1464,5,0,0,0,670.310913
116,332,1,0,0,0,1187.860352
167,68,2,0,0,0,1380.584351
-1378,118,3,1,0,0,10.214168
-102,-537,4,0,0,0,1060.670776
1074,-606,5,0,0,0,826.286194
445,827,1,0,0,0,904.686035
918,114,2,0,0,0,909.034302
-1278,1156,3,1,0,0,5.370502
-585,-1735,4,0,0,0,712.804016
867,-1474,5,0,0,0,732.381531
273,1974,1,0,0,0,688.558044
567,541,2,0,0,0,956.809631
-884,819,3,0,0,0,832.914124
-118,-1101,4,0,0,0,857.259155
1331,-1820,5,0,0,0,653.261902
642,1541,1,0,0,0,739.288025
1485,1412,2,0,0,0,680.582214
-609,1865,3,1,0,0,3.661114
-65,-1910,4,1,0,0,3.956871
127,-1783,5,1,0,0,4.821113
783,1235,1,0,0,0,777.304077
1587,647,2,0,0,0,731.754639
-1757,1413,3,1,0,0,2.422509
-1120,-1381,4,0,0,0,721.203186
1050,-1796,5,1,0,0,3.076714
164,1313,1,0,0,0,806.025024
691,672,2,0,0,0,897.192810
-629,385,3,0,0,0,974.326660
-600,-1815,4,0,0,0,700.461670
1224,-1242,5,0,0,0,726.787354
784,1024,1,0,0,0,813.405884
1954,1123,2,0,0,0,653.394226
-1712,1852,3,0,0,0,621.326111
-1064,-389,4,1,0,0,18.077147
46,-934,5,0,0,0,905.912659
118,786,1,0,0,0,952.750366
1348,241,2,1,0,0,10.512091
-85,1216,3,0,0,0,829.618347
-1801,-8,4,0,0,0,717.529419
11,-1432,5,0,0,0,783.309753
324,521,1,0,0,0,1027.366577
1513,749,2,1,0,0,5.704974
-1317,318,3,1,0,0,10.841311
-541,-341,4,0,0,0,1015.413086
1077,-1177,5,0,0,0,752.295837
144,1756,1,0,0,0,723.823608
1812,812,2,0,0,0,689.588928
-678,616,3,0,0,0,911.851807
-557,-1056,4,0,0,0,835.596375
1680,-748,5,0,0,0,711.550903
401,1480,1,0,0,0,763.677429
1665,849,2,1,0,0,4.226639
-508,28,3,1,0,0,130.671616
-1193,-1247,4,0,0,0,729.763550
111,-144,5,0,0,0,1378.190796
154,1728,1,0,0,0,728.258179
1582,424,2,0,0,0,744.761475
-915,37,3,1,0,0,32.508526
-197,-1685,4,1,0,0,5.623897
1515,-1673,5,0,0,0,652.976074
87,1427,1,0,0,0,783.789917
1040,802,2,0,0,0,808.180664
-376,1349,3,1,0,0,9.851149
-664,-609,4,0,0,0,916.626282
552,-1611,5,0,0,0,733.579651
579,1219,1,0,0,0,800.364563
1477,1009,2,0,0,0,719.488953
-705,477,3,1,0,0,39.473129
-125,-1211,4,0,0,0,829.980103
39,-47,5,0,0,0,1692.952393
356,1164,1,0,0,0,830.030151
1732,1216,2,1,0,0,2.924611
-1170,1643,3,0,0,0,685.101257
-1236,-1158,4,0,0,0,735.138794
1448,-941,5,1,0,0,5.337210
877,1962,1,0,0,0,666.969849
801,735,2,0,0,0,862.554382
-481,1527,3,0,0,0,751.294128
-1345,-828,4,0,0,0,755.179871
1019,-1889,5,0,0,0,667.337952
1056,1845,1,0,0,0,670.078430
1551,1234,2,0,0,0,690.109863
-1386,1369,3,1,0,0,3.738441
-1534,-424,4,0,0,0,752.992310
1469,-350,5,0,0,0,768.062744
695,769,1,0,0,0,876.271729
1546,1111,2,0,0,0,701.633545
-668,14,3,0,0,0,1002.781433
-686,-532,4,0,0,0,927.332764
1240,-1999,5,0,0,0,641.173035
24,303,1,1,0,0,298.402466
1791,721,2,0,0,0,697.619263
-697,1176,3,0,0,0,796.658203
-1709,-266,4,1,0,0,5.312927
109,-1721,5,1,0,0,5.359599
242,1619,1,0,0,0,744.909851
1778,1414,2,0,0,0,651.124573
-1508,1064,3,0,0,0,710.527405
-171,-1989,4,0,0,0,688.048889
1360,-1098,5,0,0,0,726.107239
641,895,1,1,0,0,19.594961
877,756,2,0,0,0,844.410278
-1858,21,3,1,0,0,4.299974
-1644,-1429,4,0,0,0,663.119202
1954,-504,5,0,0,0,684.968384
1199,1337,1,0,0,0,718.348694
1460,130,2,0,0,0,776.621643
-1720,1704,3,0,0,0,632.955566
-1290,-259,4,0,0,0,807.650146
959,-1682,5,0,0,0,696.804382
609,1332,1,0,0,0,776.848694
1948,1030,2,0,0,0,659.821960
-1356,1705,3,1,0,0,2.683308
-1855,-369,4,0,0,0,703.512207
1199,-1755,5,1,0,0,2.887057
210,991,1,0,0,0,882.879517
561,103,2,0,0,0,1048.393555
-515,1157,3,1,0,0,13.165917
-1125,-618,4,0,0,0,814.767822
1066,-1998,5,0,0,0,652.020935
81,1393,1,0,0,0,790.766479
1878,1272,2,1,0,0,2.379715
-427,255,3,0,0,0,1087.902222
-1373,-1700,4,0,0,0,662.208496
746,-667,5,0,0,0,886.397766
404,1340,1,1,0,0,9.868367
1983,1672,2,1,0,0,1.595706
-97,446,3,0,0,0,1112.664185
-1595,-1327,4,1,0,0,3.101309
718,-1672,5,0,0,0,714.581360
89,758,1,0,0,0,964.441650
1946,638,2,0,0,0,680.752747
-149,882,3,0,0,0,918.708313
-1224,-1881,4,1,0,0,2.456396
1147,-1409,5,0,0,0,715.024048
1873,1993,1,0,0,0,598.282654
1957,139,2,1,0,0,3.661013
-523,106,3,1,0,0,118.728050
-945,-1219,4,0,0,0,761.990967
410,-748,5,0,0,0,932.393066
502,1528,1,0,0,0,749.973694
1126,148,2,0,0,0,849.976929
-476,589,3,1,0,0,53.295715
-1936,-1223,4,0,0,0,648.844177
1058,-588,5,1,0,0,14.983781
154,242,1,0,0,0,1246.647339
1488,946,2,0,0,0,723.602844
-615,631,3,0,0,0,923.046204
-1954,-1792,4,0,0,0,607.112427
1955,-612,5,0,0,0,680.663818
1008,1690,1,1,0,0,3.628867
1961,454,2,0,0,0,685.689941
-613,383,3,1,0,0,59.832039
-1800,-651,4,1,0,0,3.938530
853,-1626,5,0,0,0,711.993042
990,1470,1,1,0,0,4.944344
1020,399,2,1,0,0,19.877264
-1047,488,3,0,0,0,845.089355
-88,-1268,4,0,0,0,817.585876
1187,-334,5,0,0,0,826.303894
838,1431,1,1,0,0,6.013006
1808,1537,2,0,0,0,638.679688
-124,1767,3,0,0,0,722.290161
-146,-1257,4,0,0,0,818.855591
1100,-1600,5,0,0,0,695.997375
1186,1413,1,0,0,0,710.653442
1443,77,2,0,0,0,780.711609
-1494,1500,3,0,0,0,671.257263
-607,-1469,4,0,0,0,753.362366
1632,-1999,5,0,0,0,614.799438
743,1915,1,1,0,0,3.195203
1126,641,2,1,0,0,12.331059
-367,92,3,0,0,0,1166.771851
-1338,-1762,4,1,0,0,2.562691
1815,-254,5,0,0,0,712.535278
458,698,1,0,0,0,938.589905
1072,391,2,0,0,0,848.613098
-1283,1384,3,0,0,0,704.139526
-1055,-1148,4,0,0,0,758.890930
882,-90,5,0,0,0,921.269287
1142,1715,1,0,0,0,679.010376
991,248,2,1,0,0,24.129978
-26,1704,3,0,0,0,733.368835
-149,-1928,4,0,0,0,697.164429
669,-1415,5,0,0,0,757.781860
104,1325,1,0,0,0,804.752258
1338,674,2,0,0,0,770.343567
-691,1525,3,0,0,0,738.453674
-236,-281,4,1,0,0,230.096390
1301,-1212,5,0,0,0,721.203674
779,1404,1,1,0,0,6.610710
845,607,2,0,0,0,875.192261
-198,1870,3,0,0,0,705.166016
-422,-1726,4,0,0,0,721.402771
1488,-302,5,1,0,0,7.785704
959,1651,1,0,0,0,700.804688
913,416,2,0,0,0,885.649414
-1079,389,3,0,0,0,847.129578
-1920,-1551,4,1,0,0,1.850312
638,-1798,5,0,0,0,701.025940
366,839,1,0,0,0,912.068848
1733,1510,2,0,0,0,647.772095
-1413,882,3,1,0,0,5.935205
-1019,-1214,4,0,0,0,754.174011
28,-1037,5,1,0,0,23.125473
229,1329,1,0,0,0,800.563477
1352,1230,2,0,0,0,713.302490
-518,396,3,1,0,0,76.567719
-282,-1073,4,0,0,0,856.705627
904,-657,5,1,0,0,18.785343
521,794,1,0,0,0,901.469421
1497,102,2,1,0,0,8.059424
-422,1943,3,0,0,0,689.203369
-1704,-240,4,0,0,0,730.586060
1306,-552,5,0,0,0,786.168030
102,1289,1,0,0,0,812.656616
1606,1268,2,0,0,0,680.988342
-384,1476,3,1,0,0,7.684804
-551,-648,4,1,0,0,39.548183
1283,-1723,5,0,0,0,667.085999
1398,1999,1,1,0,0,1.916311
192,17,2,0,0,0,1361.339600
-1275,1528,3,0,0,0,688.947571
-317,-945,4,1,0,0,25.820803
1164,-1921,5,0,0,0,654.356018
901,1587,1,0,0,0,713.750427
1385,266,2,0,0,0,787.702393
-1950,834,3,0,0,0,670.747375
-392,-1102,4,1,0,0,16.516401
175,-881,5,1,0,0,34.236336
1605,1635,1,0,0,0,648.696838
1054,738,2,0,0,0,814.070557
-463,1741,3,0,0,0,717.450684
-592,-522,4,0,0,0,954.765015
1301,-1047,5,0,0,0,739.187012
1465,1717,1,0,0,0,652.971558
912,731,2,0,0,0,841.706299
-135,1169,3,0,0,0,839.752441
-262,-905,4,0,0,0,903.755859
1282,-94,5,0,0,0,814.348633
842,1351,1,1,0,0,6.779195
1295,211,2,0,0,0,808.452332
-541,1850,3,0,0,0,698.093689
-1830,-483,4,0,0,0,703.312012
506,-731,5,1,0,0,35.186031
1497,1645,1,1,0,0,2.522643
1763,65,2,1,0,0,5.011502
-581,1203,3,1,0,0,11.290063
-1966,-1738,4,0,0,0,610.046082
112,-1410,5,1,0,0,9.570510
956,1836,1,1,0,0,3.122954
1918,1531,2,0,0,0,629.103760
-1179,1092,3,1,0,0,6.594018
-1875,-1197,4,0,0,0,657.118286
190,-1325,5,0,0,0,802.709717
1794,1925,1,0,0,0,609.258362
1981,1240,2,0,0,0,643.031128
-375,1282,3,1,0,0,11.295740
-224,-1684,4,0,0,0,734.273315
384,-792,5,0,0,0,923.355652
1245,1901,1,0,0,0,651.037842
1560,159,2,0,0,0,757.250122
-231,488,3,0,0,0,1064.221558
-279,-769,4,0,0,0,944.446228
1938,-1501,5,0,0,0,629.431519
721,1453,1,0,0,0,747.539551
575,301,2,0,0,0,1011.154236
-423,1458,3,0,0,0,766.545288
-1278,-123,4,0,0,0,814.692627
263,-426,5,0,0,0,1085.996338
382,1058,1,0,0,0,852.735413
1854,90,2,0,0,0,708.886230
-961,1336,3,0,0,0,743.382324
-1730,-1187,4,0,0,0,673.836243
669,-969,5,0,0,0,839.572266
1531,1594,1,1,0,0,2.570564
1822,890,2,1,0,0,3.319881
-883,970,3,0,0,0,808.532410
-1983,-1655,4,1,0,0,1.615929
182,-1365,5,0,0,0,794.554504
558,1754,1,1,0,0,4.421900
1921,269,2,0,0,0,696.278687
-1679,548,3,0,0,0,723.129517
-821,-1631,4,1,0,0,4.527457
1854,-1953,5,0,0,0,602.691772
40,1521,1,0,0,0,765.902161
1193,645,2,0,0,0,798.945557
-1167,1437,3,0,0,0,709.659607
-1840,-846,4,1,0,0,3.332453
1490,-958,5,1,0,0,4.951639
498,1331,1,0,0,0,785.510376
1340,283,2,1,0,0,10.508030
-571,485,3,0,0,0,969.788574
-280,-1727,4,0,0,0,725.838867
1033,-534,5,0,0,0,843.173279
27,1048,1,0,0,0,873.007141
1567,1564,2,0,0,0,658.476562
-1094,1578,3,1,0,0,3.902043
-496,-1962,4,0,0,0,684.151306
254,-779,5,0,0,0,943.983093
671,1940,1,0,0,0,680.076599
613,587,2,0,0,0,933.838745
-1132,719,3,0,0,0,802.176514
-92,-1732,4,1,0,0,5.269159
1387,-1202,5,0,0,0,712.116821
554,1021,1,1,0,0,16.841780
1622,558,2,0,0,0,731.507324
-1882,985,3,0,0,0,670.300354
-505,-1770,4,0,0,0,711.296326
213,-12,5,1,0,0,439.157715
742,785,1,1,0,0,20.663925
994,660,2,1,0,0,15.608802
-84,1119,3,1,0,0,18.568441
-955,-1778,4,0,0,0,684.926880
547,-1815,5,0,0,0,702.863342
1455,1788,1,0,0,0,646.948669
1786,698,2,0,0,0,699.572449
-233,1408,3,1,0,0,9.325136
-1533,-285,4,0,0,0,758.868225
1513,-1246,5,0,0,0,693.302002
936,1215,1,0,0,0,763.609131
1753,1575,2,1,0,0,2.123772
-226,923,3,0,0,0,901.289307
-347,-753,4,1,0,0,42.281418
1517,-665,5,0,0,0,741.535645
1025,1554,1,1,0,0,4.276268
1030,890,2,1,0,0,10.694626
-1212,1770,3,0,0,0,667.488037
-1733,-1417,4,0,0,0,655.319824
709,-1498,5,1,0,0,6.023695
512,1831,1,0,0,0,702.018311
1000,362,2,0,0,0,868.875000
-1209,320,3,0,0,0,822.242737
-492,-909,4,0,0,0,877.083374
760,-705,5,0,0,0,876.239563
715,738,1,1,0,0,23.742823
746,312,2,0,0,0,947.787415
-1361,554,3,0,0,0,775.905701
-341,-1109,4,0,0,0,843.821716
1334,-1937,5,0,0,0,641.226624
395,1684,1,0,0,0,729.109314
1839,1737,2,0,0,0,620.473022
-759,1898,3,0,0,0,681.281494
-527,-1370,4,0,0,0,776.212463
1754,-33,5,0,0,0,725.060059
219,1812,1,0,0,0,713.710144
1929,1151,2,0,0,0,654.335938
-711,356,3,0,0,0,952.627869
-1382,-1835,4,1,0,0,2.291501
1163,-1907,5,0,0,0,655.946716
59,152,1,0,0,0,1409.623047
1733,253,2,0,0,0,725.541016
-742,757,3,0,0,0,869.823608
-236,-1787,4,0,0,0,717.291321
1297,-1717,5,0,0,0,666.607727
239,1979,1,0,0,0,688.473083
1690,1652,2,0,0,0,639.849670
-1676,1503,3,0,0,0,653.711182
-27,-583,4,0,0,0,1041.773315
97,-61,5,1,0,0,702.241150
1050,1134,1,0,0,0,761.420898
1372,100,2,1,0,0,10.374162
-1389,860,3,0,0,0,745.489441
-1289,-257,4,0,0,0,807.950378
1115,-1344,5,0,0,0,726.372131
227,258,1,0,0,0,1194.527466
1017,444,2,0,0,0,856.638611
-1739,1512,3,0,0,0,647.048401
-682,-1645,4,0,0,0,720.769165
1073,-611,5,0,0,0,825.914368
1067,1560,1,1,0,0,4.089035
1286,118,2,0,0,0,813.018494
-461,1265,3,0,0,0,801.033325
-494,-689,4,0,0,0,934.155273
521,-1155,5,0,0,0,818.487793
138,1938,1,0,0,0,695.812073
956,950,2,0,0,0,800.741211
-70,513,3,0,0,0,1076.305786
-801,-1528,4,0,0,0,729.853699
610,-1162,5,0,0,0,808.385925
315,586,1,0,0,0,1004.013000
1691,1060,2,0,0,0,688.130859
-666,129,3,1,0,0,69.750999
-1806,-533,4,0,0,0,704.776855
1165,-809,5,0,0,0,786.070374
785,941,1,0,0,0,828.094727
743,721,2,1,0,0,23.253042
-1151,645,3,0,0,0,806.851746
-1711,-1340,4,0,0,0,663.772522
1485,-1260,5,0,0,0,695.133545
441,1169,1,0,0,0,822.522339
556,356,2,0,0,0,1006.227783
-658,607,3,0,0,0,918.476807
-1230,-1416,4,0,0,0,705.902710
1889,-37,5,0,0,0,703.812500
827,989,1,1,0,0,12.509605
1809,1389,2,0,0,0,649.992065
-1963,432,3,0,0,0,686.101501
-716,-401,4,0,0,0,943.533142
1391,-545,5,0,0,0,771.152710
528,1140,1,1,0,0,13.471646
1693,827,2,1,0,0,4.126427
-1656,1784,3,1,0,0,1.928581
-1339,-1628,4,0,0,0,672.497375
1019,-935,5,0,0,0,793.329346
539,1242,1,1,0,0,10.862942
885,695,2,0,0,0,852.625977
-1405,1691,3,0,0,0,660.473633
-1229,-468,4,0,0,0,807.792786
1558,-1479,5,0,0,0,667.086243
699,1270,1,1,0,0,8.910437
1446,1024,2,0,0,0,722.206848
-1861,605,3,1,0,0,3.689129
-831,-1782,4,1,0,0,3.637319
937,-1336,5,0,0,0,745.815308
214,898,1,0,0,0,909.627808
1931,1659,2,0,0,0,618.662170
-76,1862,3,0,0,0,707.751648
-304,-274,4,1,0,0,193.789108
1924,-881,5,0,0,0,671.388000
114,1234,1,0,0,0,824.871033
1027,621,2,0,0,0,834.091980
-329,539,3,0,0,0,1019.053955
-1051,-1515,4,0,0,0,710.794067
556,-1811,5,0,0,0,703.045654
262,1457,1,0,0,0,773.776550
1149,261,2,1,0,0,16.175743
-890,67,3,1,0,0,34.822174
-1970,-1105,4,0,0,0,652.758484
1130,-86,5,0,0,0,850.590088
709,1350,1,0,0,0,765.274719
1116,302,2,0,0,0,844.840637
-1906,126,3,0,0,0,700.677917
-1787,-71,4,0,0,0,719.542542
313,-1148,5,0,0,0,836.559326
747,1477,1,0,0,0,741.743530
1079,362,2,1,0,0,17.843964
-548,356,3,0,0,0,1009.178406
-847,-1494,4,0,0,0,731.157227
1101,-1851,5,0,0,0,666.358032
321,750,1,1,0,0,44.091846
1120,805,2,0,0,0,794.094849
-1130,301,3,0,0,0,841.559204
-615,-142,4,0,0,0,1019.188904
467,-502,5,1,0,0,68.003304
753,1353,1,0,0,0,760.871216
1504,1423,2,0,0,0,677.617798
-1293,609,3,0,0,0,783.872192
-1360,-998,4,1,0,0,5.718430
663,-214,5,1,0,0,65.441750
557,643,1,0,0,0,933.168396
888,668,2,0,0,0,856.248596
-561,976,3,0,0,0,852.507202
-1853,-2,4,0,0,0,709.377869
551,-1061,5,1,0,0,15.520627
1392,1766,1,0,0,0,654.037109
1714,345,2,0,0,0,726.031189
-1167,1265,3,0,0,0,730.542725
-940,-211,4,0,0,0,897.339294
1236,-1793,5,0,0,0,663.186462
203,472,1,0,0,0,1078.515015
1335,628,2,0,0,0,774.755066
-943,588,3,0,0,0,856.222290
-577,-613,4,0,0,0,936.185547
1889,-1951,5,1,0,0,1.391419
890,1501,1,1,0,0,5.175576
-268,655,3,0,0,0,986.200806
-1441,-165,4,0,0,0,779.647644
1607,-1398,5,1,0,0,2.868917
41,1993,1,0,0,0,688.467041
-1268,173,3,1,0,0,12.776988
-448,-619,4,0,0,0,964.100464
517,-1185,5,0,0,0,812.691956
51,393,1,0,0,0,1153.409546
-1411,1133,3,0,0,0,716.169373
-905,-1962,4,0,0,0,665.435059
1307,-375,5,0,0,0,798.197571
547,1965,1,0,0,0,681.900452
-1866,1058,3,0,0,0,667.504395
-1474,-1942,4,0,0,0,630.976440
354,-27,5,0,0,0,1185.128540
1266,1798,1,0,0,0,660.412903
-1327,1467,3,0,0,0,690.669556
-1899,-735,4,0,0,0,682.382751
915,-564,5,1,0,0,20.950945
728,924,1,1,0,0,16.251442
-856,706,3,0,0,0,856.668213
-1041,-780,4,0,0,0,810.933838
769,-106,5,0,0,0,959.550598
865,1399,1,0,0,0,743.540833
-1428,1049,3,1,0,0,4.947634
-762,-592,4,1,0,0,28.217033
1489,-747,5,0,0,0,739.892212
400,1771,1,0,0,0,715.217285
-152,605,3,1,0,0,84.765602
-637,-1425,4,0,0,0,758.568726
643,-1581,5,0,0,0,732.939148
265,950,1,0,0,0,890.581055
-1385,511,3,0,0,0,774.574707
-158,-387,4,0,0,0,1138.022217
39,-851,5,0,0,0,932.766296
501,1057,1,0,0,0,841.480652
-1214,651,3,0,0,0,794.459839
-513,-1503,4,0,0,0,753.602844
1094,-759,5,0,0,0,804.226318
1496,1835,1,1,0,0,2.094723
-1284,1007,3,0,0,0,745.823853
-1321,-1637,4,1,0,0,2.977452
858,-1100,5,1,0,0,9.961524
752,1369,1,0,0,0,758.376099
-186,955,3,0,0,0,894.497559
-946,-622,4,0,0,0,850.869873
1831,-1225,5,0,0,0,659.893188
1296,1888,1,1,0,0,2.312997
-1481,1669,3,0,0,0,656.241638
-1996,-432,4,0,0,0,681.549988
365,-57,5,0,0,0,1173.662964
144,1065,1,0,0,0,865.863342
-142,1529,3,0,0,0,763.262634
-98,-1041,4,0,0,0,873.761841
796,-1899,5,0,0,0,679.197998
1297,1785,1,1,0,0,2.583437
-794,768,3,0,0,0,857.949280
-220,-635,4,1,0,0,71.324615
134,-1367,5,0,0,0,795.291565
439,935,1,0,0,0,877.272034
-940,1821,3,0,0,0,680.559326
-823,-104,4,0,0,0,940.425110
1726,-1568,5,1,0,0,2.191527
350,1979,1,0,0,0,686.138977
-203,151,3,1,0,0,369.874359
-945,-1829,4,0,0,0,679.250244
1292,-600,5,0,0,0,784.822266
426,1393,1,0,0,0,778.409058
-1693,763,3,0,0,0,708.761475
-347,-1993,4,0,0,0,684.256348
692,-782,5,0,0,0,874.143677
148,743,1,1,0,0,53.242668
-395,1624,3,0,0,0,738.951233
-890,-1695,4,0,0,0,700.035400
1775,-194,5,0,0,0,719.997925
715,1786,1,0,0,0,698.640320
-1067,1574,3,0,0,0,701.968506
-1923,-814,4,0,0,0,675.185059
200,-1123,5,0,0,0,848.716736
-1519,1841,3,0,0,0,637.033569
-1179,-1671,4,0,0,0,681.151611
947,-426,5,0,0,0,875.750305
-1457,1994,3,0,0,0,627.313416
-698,-1927,4,0,0,0,680.528931
1851,-1009,5,0,0,0,672.466003
-354,1749,3,1,0,0,4.845478
-1732,-882,4,1,0,0,3.763978
968,-114,5,0,0,0,893.981567
-1751,1288,3,0,0,0,663.717346
-388,-391,4,1,0,0,111.186050
157,-1706,5,1,0,0,5.463777
-1501,166,3,0,0,0,768.056702
-1033,-508,4,1,0,0,17.278580
1772,-1704,5,1,0,0,1.872451
-488,1870,3,0,0,0,697.330627
-958,-664,4,0,0,0,842.492493
1349,-1705,5,0,0,0,663.660645
-916,1305,3,0,0,0,752.475037
-1667,-1125,4,0,0,0,685.941711
125,-915,5,0,0,0,909.518005
-247,1153,3,0,0,0,839.168762
-232,-939,4,0,0,0,896.192200
1715,-575,5,1,0,0,4.655402
-160,583,3,0,0,0,1031.613647
-833,-1277,4,1,0,0,7.691620
257,-1820,5,0,0,0,711.697388
-1892,1852,3,0,0,0,607.513916
-698,-636,4,1,0,0,29.924534
1642,-121,5,0,0,0,743.255859
-1104,1370,3,0,0,0,724.219177
-1048,-1744,4,0,0,0,682.610107
470,-252,5,0,0,0,1067.777222
-1425,1573,3,0,0,0,670.528259
-850,-171,4,0,0,0,927.692322
1964,-302,5,0,0,0,689.378296
-329,391,3,0,0,0,1080.091553
-1184,-1440,4,1,0,0,4.258252
1970,-1156,5,0,0,0,649.569519
-761,1094,3,0,0,0,803.979919
-281,-770,4,0,0,0,943.875000
1602,-1601,5,0,0,0,651.986328
-1385,802,3,0,0,0,751.387146
-377,-506,4,0,0,0,1019.269958
1791,-528,5,0,0,0,707.190186
-1311,1840,3,1,0,0,2.407896
-1052,-680,4,0,0,0,821.781738
422,-246,5,0,0,0,1093.097656
-647,103,3,0,0,0,1008.445129
-138,-1913,4,0,0,0,699.509583
874,-1687,5,1,0,0,4.025945
-1531,1951,3,0,0,0,626.116699
-1769,-11,4,1,0,0,4.971214
432,-1289,5,0,0,0,798.254089
-1908,1040,3,1,0,0,2.703345
-280,-629,4,0,0,0,994.128845
1651,-1226,5,0,0,0,679.567444
-1424,1919,3,1,0,0,2.037571
-1410,-1710,4,0,0,0,658.167603
1059,-561,5,0,0,0,834.508911
-1327,1671,3,0,0,0,669.007202
-1115,-1012,4,1,0,0,7.976813
858,-1555,5,0,0,0,721.537476
-661,1929,3,1,0,0,3.265349
-1389,-188,4,0,0,0,789.469482
1380,-1295,5,0,0,0,703.342468
-432,1321,3,0,0,0,791.903259
-1130,-235,4,1,0,0,17.150883
77,-192,5,0,0,0,1340.951904
-1307,356,3,0,0,0,799.281006
-349,-1151,4,0,0,0,833.471191
1272,-1031,5,0,0,0,744.844604
-1545,706,3,1,0,0,5.602624
-1575,-1426,4,0,0,0,670.238586
1626,-1012,5,0,0,0,699.922485
-1490,917,3,0,0,0,725.836060
-161,-393,4,1,0,0,182.117493
1478,-204,5,0,0,0,771.526794
-897,860,3,0,0,0,824.081360
-858,-1300,4,0,0,0,759.172546
0,-549,5,0,0,0,1059.408203
-231,921,3,0,0,0,901.513184
-1591,-818,4,0,0,0,719.453186
10,-449,5,1,0,0,165.195236
-1517,268,3,0,0,0,762.345764
-1603,-1468,4,0,0,0,663.726868
1719,-1318,5,1,0,0,2.729049
-1263,1634,3,0,0,0,678.347107
-1940,-477,4,0,0,0,687.842102
729,-453,5,1,0,0,38.623497
-193,1809,3,0,0,0,714.640991
-444,-879,4,0,0,0,891.018127
1072,-1863,5,0,0,0,666.927185
-932,470,3,1,0,0,22.732862
-1200,-749,4,0,0,0,786.837036
827,-1089,5,0,0,0,796.576416
-254,979,3,0,0,0,883.332458
-1725,-1656,4,0,0,0,636.501282
1253,-513,5,0,0,0,799.422668
-1728,202,3,0,0,0,727.446594
-1677,-1865,4,0,0,0,622.907898
1310,-1068,5,0,0,0,735.736755
-519,1746,3,0,0,0,714.288940
-763,-700,4,1,0,0,23.244669
1842,-772,5,0,0,0,687.920227
-382,1921,3,0,0,0,693.507874
-601,-1548,4,0,0,0,740.806030
200,-571,5,0,0,0,1031.396118
-1457,1880,3,0,0,0,638.022583
-1338,-1032,4,0,0,0,735.809814
1836,-1434,5,1,0,0,2.197812
-1737,92,3,0,0,0,727.501221
-9,-560,4,1,0,0,107.365486
1020,-456,5,0,0,0,854.676086
-352,1947,3,0,0,0,690.607788
-1792,-1484,4,1,0,0,2.206128
1201,-1999,5,0,0,0,643.647400
-1137,1463,3,0,0,0,709.397461
-392,-301,4,0,0,0,1089.714111
1227,-1774,5,0,0,0,665.920898
-520,1495,3,0,0,0,754.559204
-1889,-1253,4,1,0,0,2.384232
1346,-321,5,0,0,0,793.166504
-1420,1279,3,0,0,0,700.539612
-1357,-776,4,0,0,0,758.143372
1791,-182,5,0,0,0,717.656067
-1266,1776,3,0,0,0,662.753906
-1437,-1558,4,0,0,0,670.929138
325,-728,5,0,0,0,951.866028
-504,768,3,0,0,0,911.047546
-920,-1056,4,0,0,0,789.698608
1328,-1269,5,0,0,0,711.888367
-1145,1745,3,1,0,0,3.047468
-1530,-1768,4,0,0,0,642.906921
1062,-1995,5,0,0,0,652.592529
-1875,1082,3,0,0,0,664.889038
-1044,-1692,4,0,0,0,689.222473
1043,-1913,5,0,0,0,663.039917
-577,1339,3,0,0,0,778.143677
-645,-969,4,1,0,0,16.742809
1860,-1700,5,1,0,0,1.739532
-634,835,3,0,0,0,872.987671
-92,-622,4,0,0,0,1020.293518
881,-1804,5,0,0,0,686.435425
-1348,1086,3,1,0,0,5.299699
-770,-162,4,0,0,0,955.647339
1017,-816,5,0,0,0,810.250488
-57,1174,3,0,0,0,840.091553
-716,-1269,4,0,0,0,778.335144
734,-1345,5,1,0,0,7.581028
-1474,631,3,0,0,0,750.861145
-1434,-1886,4,0,0,0,639.132935
95,-1837,5,0,0,0,711.479492
-313,1160,3,0,0,0,833.772888
-546,-686,4,0,0,0,924.476807
1556,-1741,5,1,0,0,2.182854
-1523,631,3,0,0,0,742.891968
-684,-921,4,1,0,0,17.446873
622,-1201,5,1,0,0,10.895574
-42,974,3,0,0,0,893.917847
-956,-258,4,0,0,0,889.434875
1661,-651,5,0,0,0,720.247131
-254,800,3,0,0,0,937.038147
-1473,-1395,4,0,0,0,683.444336
1120,-1647,5,1,0,0,3.501048
-1625,1206,3,1,0,0,3.339998
-918,-1256,4,0,0,0,759.522278
650,-978,5,0,0,0,840.356384
-975,1860,3,1,0,0,2.992075
-1732,-1381,4,1,0,0,2.553314
1553,-1547,5,0,0,0,661.317444
-1585,455,3,0,0,0,742.809570
-1505,-80,4,0,0,0,768.632751
146,-1673,5,0,0,0,737.579712
-34,1914,3,0,0,0,700.057800
-1882,-764,4,0,0,0,683.101929
355,-1134,5,0,0,0,836.955261
-36,909,3,1,0,0,33.090500
-1093,-1794,4,1,0,0,2.989194
1889,-1219,5,0,0,0,654.097290
-1223,1941,3,0,0,0,648.317932
-48,-1571,4,1,0,0,7.037239
371,-1773,5,0,0,0,715.882446
-1068,195,3,0,0,0,862.941650
-225,-183,4,0,0,0,1243.467407
343,-1179,5,0,0,0,827.522766
-420,880,3,0,0,0,893.863220
-1993,-1998,4,0,0,0,589.386841
829,-830,5,1,0,0,16.379246
-1884,679,3,0,0,0,687.149780
-164,-613,4,0,0,0,1017.649780
1634,-1363,5,0,0,0,669.807922
-741,552,3,0,0,0,909.360168
-1600,-370,4,0,0,0,743.993408
201,-201,5,0,0,0,1249.261963
-869,1714,3,0,0,0,698.952637
-1632,-243,4,0,0,0,742.639771
1168,-1171,5,0,0,0,741.956970
-691,886,3,0,0,0,853.055420
-528,-95,4,0,0,0,1066.061157
158,-1823,5,0,0,0,712.981689
-1291,678,3,0,0,0,778.108826
-827,-84,4,1,0,0,41.997803
1760,-476,5,1,0,0,4.547639
-351,496,3,0,0,0,1030.150635
-1371,-1834,4,1,0,0,2.313623
1932,-289,5,1,0,0,3.708038
-1185,512,3,0,0,0,813.135132
-1168,-1844,4,0,0,0,662.525146
832,-1995,5,1,0,0,2.746279
-648,660,3,1,0,0,31.647297
-397,-1283,4,0,0,0,801.752625
871,-1712,5,0,0,0,699.083374
-248,1156,3,0,0,0,838.402832
-1333,-412,4,0,0,0,790.794250
1749,-1469,5,0,0,0,649.577026
-284,1303,3,0,0,0,803.777161
-925,-1993,4,0,0,0,660.645691
1939,-1639,5,0,0,0,619.432556
-1923,1148,3,0,0,0,655.187439
-1837,-688,4,0,0,0,693.070190
248,-630,5,0,0,0,998.963257
-765,1881,3,0,0,0,683.179565
-1432,-368,4,1,0,0,8.413184
713,-1971,5,0,0,0,674.117737
-1061,1782,3,0,0,0,677.141663
-27,-1011,4,0,0,0,883.347595
107,-869,5,0,0,0,924.871277
-1666,826,3,1,0,0,4.290375
-1421,-1917,4,0,0,0,637.096619
1032,-43,5,1,0,0,23.404629
-1271,575,3,0,0,0,790.836121
-1320,-152,4,0,0,0,804.828491
1084,-334,5,0,0,0,850.330750
-336,395,3,0,0,0,1075.848389
-1742,-1332,4,0,0,0,661.205566
756,-58,5,1,0,0,53.132626
-1354,5,3,0,0,0,799.409790
-248,-1880,4,0,0,0,702.765015
1268,-26,5,0,0,0,818.216309
-1134,1503,3,1,0,0,4.135385
-587,-710,4,0,0,0,910.225891
1106,-1943,5,0,0,0,655.681946
-1131,670,3,0,0,0,807.909485
-1344,-759,4,0,0,0,761.784241
144,-1062,5,0,0,0,866.660767
-707,991,3,0,0,0,830.001099
-411,-1468,4,0,0,0,765.351135
1324,-54,5,1,0,0,11.558840
-1142,1147,3,1,0,0,6.456894
-977,-100,4,0,0,0,891.799377
824,-253,5,1,0,0,38.190491
-1733,310,3,0,0,0,724.049194
-631,-1511,4,0,0,0,744.826477
1493,-810,5,0,0,0,734.317139
-687,1432,3,0,0,0,753.579102
-1266,-992,4,0,0,0,749.971924
149,-842,5,0,0,0,931.689819
-1521,1616,3,0,0,0,657.798950
-1967,-675,4,0,0,0,676.363708
758,-1367,5,0,0,0,758.165283
-384,183,3,0,0,0,1132.984131
-374,-407,4,0,0,0,1057.448853
1592,-1352,5,0,0,0,675.124817
-1675,154,3,0,0,0,737.117981
-492,-395,4,0,0,0,1019.297546
1371,-91,5,0,0,0,795.194397
-1526,461,3,0,0,0,752.524963
-1494,-764,4,0,0,0,737.809265
1495,-1667,5,0,0,0,655.242126
-334,1712,3,1,0,0,5.182096
-375,-1650,4,0,0,0,735.415894
1478,-1633,5,0,0,0,659.952393
-10,1423,3,0,0,0,785.122314
-319,-1924,4,0,0,0,694.730042
1525,-1522,5,0,0,0,666.243591
-1976,399,3,0,0,0,685.262085
-1069,-1475,4,0,0,0,714.266785
421,-329,5,0,0,0,1067.231567
-1401,835,3,1,0,0,6.314044
-1694,-1158,4,1,0,0,3.204976
1059,-419,5,0,0,0,849.169128
-1405,1953,3,1,0,0,1.996852
-308,-733,4,1,0,0,47.109219
1914,-1359,5,0,0,0,641.775208
-1733,1584,3,0,0,0,641.722107
-1853,-1079,4,0,0,0,667.612305
471,-1579,5,1,0,0,6.126966
-590,1256,3,0,0,0,792.352234
-1353,-858,4,0,0,0,751.087952
-1888,1834,3,1,0,0,1.527399
-669,-1650,4,0,0,0,720.818298
-267,1943,3,0,0,0,693.121460
-370,-753,4,0,0,0,937.162354
-319,1303,3,0,0,0,802.081787
-1082,-713,4,0,0,0,812.041687
-1201,1356,3,0,0,0,715.883972
-1555,-678,4,0,0,0,734.687378
-1405,186,3,1,0,0,9.515392
-446,-1659,4,0,0,0,731.072083
-293,1773,3,0,0,0,718.161926
-536,-1373,4,0,0,0,775.031311
-1998,961,3,1,0,0,2.546724
-750,-1952,4,1,0,0,3.030157
-1095,1928,3,0,0,0,658.051208
-1209,-1134,4,1,0,0,6.020627
-1866,160,3,0,0,0,706.326599
-1941,-89,4,1,0,0,3.767447
-1786,804,3,0,0,0,693.506104
-1195,-258,4,1,0,0,14.564176
-1748,1058,3,0,0,0,681.405334
-763,-1890,4,1,0,0,3.269653
-1758,304,3,0,0,0,720.235535
-1738,-1016,4,0,0,0,685.645508
-182,808,3,0,0,0,940.877380
-440,-741,4,0,0,0,929.438782
-1064,1925,3,0,0,0,660.349182
-1550,-1715,4,0,0,0,646.152344
-1147,1651,3,0,0,0,686.051514
-1128,-936,4,0,0,0,776.622864
-1842,330,3,0,0,0,706.559265
-1378,-640,4,0,0,0,766.309448
-1015,-848,4,1,0,0,11.621369
-1547,-1949,4,0,0,0,625.160217
-1566,-1541,4,1,0,0,2.616426
-1731,-1490,4,0,0,0,649.590576
-1165,-1038,4,0,0,0,758.670288
-1908,-297,4,0,0,0,697.575012
-445,-607,4,0,0,0,968.457520
-722,-1561,4,0,0,0,730.741699
